2.000000000000447642e+01,2.999999995615536985e+00,9.999999999915782922e+00,6.600000000019866642e-01,1.570000000002295559e+00,2.869999999999991360e+03,-2.175000000002493827e+00,-4.944999999994688977e+00,1.451371089937882175e+01,-1.302471531497199519e+00
2.000000000000360245e+01,2.999999995631047689e+00,9.999999999912267512e+00,6.600000000021503110e-01,1.570000000002469198e+00,2.869999999999994543e+03,-2.175000000002632383e+00,-4.944999999994493578e+00,1.451157470475081190e+01,-1.303857453592549565e+00
2.000000000000628830e+01,2.999999995486305693e+00,9.999999999920605731e+00,6.600000000017692825e-01,1.570000000001894325e+00,2.869999999999991815e+03,-2.175000000002272227e+00,-4.944999999995371986e+00,1.452579816789717881e+01,-1.295125518920054564e+00
2.000000000000389377e+01,2.999999995922235652e+00,9.999999999904279235e+00,6.600000000024397462e-01,1.570000000003012763e+00,2.869999999999988177e+03,-2.175000000003131539e+00,-4.944999999993926032e+00,1.447841211421739693e+01,-1.325457791092131465e+00
2.000000000000443023e+01,2.999999995954813148e+00,9.999999999907227988e+00,6.600000000023207303e-01,1.570000000002868434e+00,2.869999999999988631e+03,-2.175000000003026734e+00,-4.944999999994209361e+00,1.448030755151100202e+01,-1.323568615441495178e+00
2.000000000000390443e+01,2.999999995728349411e+00,9.999999999914988891e+00,6.600000000020104229e-01,1.570000000002209406e+00,2.869999999999989996e+03,-2.175000000002428546e+00,-4.944999999994771578e+00,1.450298952136582109e+01,-1.308515593444590897e+00
2.000000000000395772e+01,2.999999995961637467e+00,9.999999999907172921e+00,6.600000000023045210e-01,1.570000000002685692e+00,2.869999999999985903e+03,-2.175000000002873968e+00,-4.944999999994389661e+00,1.447871787222790907e+01,-1.323906813567838237e+00
2.000000000000775202e+01,2.999999995775565420e+00,9.999999999932295935e+00,6.600000000012947732e-01,1.570000000001416707e+00,2.869999999999986812e+03,-2.175000000001824585e+00,-4.944999999996094964e+00,1.451099970168489683e+01,-1.301348828285020964e+00
2.000000000000719780e+01,2.999999995578396472e+00,9.999999999925341498e+00,6.600000000015916468e-01,1.570000000001797069e+00,2.869999999999982265e+03,-2.175000000002154099e+00,-4.944999999995580708e+00,1.452207293776981345e+01,-1.296544225073526180e+00
2.000000000000873612e+01,2.999999995664628383e+00,9.999999999917738691e+00,6.600000000017746116e-01,1.570000000001804397e+00,2.869999999999974989e+03,-2.175000000002376144e+00,-4.944999999995855156e+00,1.450336241854724584e+01,-1.309231186974405770e+00
2.000000000000962075e+01,2.999999995553611853e+00,9.999999999907082326e+00,6.600000000021489788e-01,1.570000000002316654e+00,2.869999999999972715e+03,-2.175000000002926370e+00,-4.944999999995288498e+00,1.450078422613558971e+01,-1.314050934949146487e+00
2.000000000000600409e+01,2.999999995661560614e+00,9.999999999905339720e+00,6.600000000024173197e-01,1.570000000002831131e+00,2.869999999999976353e+03,-2.175000000003149303e+00,-4.944999999994834639e+00,1.450423850387430136e+01,-1.309097836913031498e+00
2.000000000000593658e+01,2.999999995493096705e+00,9.999999999914320981e+00,6.600000000020570523e-01,1.570000000002245821e+00,2.869999999999980446e+03,-2.175000000002599077e+00,-4.944999999995291162e+00,1.452406472547204253e+01,-1.296049392275972156e+00
2.000000000000908429e+01,2.999999995074207781e+00,9.999999999913164572e+00,6.600000000019533575e-01,1.570000000002325535e+00,2.869999999999982720e+03,-2.175000000002736300e+00,-4.944999999994553086e+00,1.453942178075459957e+01,-1.292650440362862030e+00
2.000000000000881428e+01,2.999999995641104089e+00,9.999999999941167061e+00,6.600000000009150769e-01,1.570000000000908891e+00,2.870000000000000000e+03,-2.175000000001434675e+00,-4.944999999996845474e+00,1.451744753003564270e+01,-1.295697031809846411e+00
2.000000000000899192e+01,2.999999995589577306e+00,9.999999999940664352e+00,6.600000000009312862e-01,1.570000000000890239e+00,2.869999999999999545e+03,-2.175000000001439560e+00,-4.944999999996807283e+00,1.451849235627020995e+01,-1.295883850571150075e+00
2.000000000000606803e+01,2.999999995731373659e+00,9.999999999927782213e+00,6.600000000014304424e-01,1.570000000001278595e+00,2.869999999999981355e+03,-2.175000000001684697e+00,-4.944999999995849826e+00,1.450814980220755146e+01,-1.304075338295695996e+00
2.000000000000745004e+01,2.999999995776862605e+00,9.999999999936340700e+00,6.600000000011024825e-01,1.570000000000830509e+00,2.869999999999983174e+03,-2.175000000001356515e+00,-4.944999999996738893e+00,1.451445949625125209e+01,-1.298004959964869975e+00
2.000000000000903810e+01,2.999999995433748623e+00,9.999999999945034190e+00,6.600000000007373302e-01,1.570000000000534301e+00,2.870000000000005002e+03,-2.175000000001094502e+00,-4.944999999996889883e+00,1.453538985893463575e+01,-1.285721689644140575e+00
2.000000000000949640e+01,2.999999995425958854e+00,9.999999999936568074e+00,6.600000000010255441e-01,1.570000000000883356e+00,2.869999999999999091e+03,-2.175000000001474199e+00,-4.944999999996466222e+00,1.452699262597340635e+01,-1.293227675105166119e+00
2.000000000001100275e+01,2.999999995713297007e+00,9.999999999945357487e+00,6.600000000006314149e-01,1.570000000000296936e+00,2.869999999999998636e+03,-2.175000000001039879e+00,-4.944999999997416573e+00,1.451320547849542386e+01,-1.299346660650501306e+00
2.000000000000862244e+01,2.999999995949139908e+00,9.999999999926936667e+00,6.600000000014076829e-01,1.570000000001484208e+00,2.869999999999993179e+03,-2.175000000001991118e+00,-4.944999999996021245e+00,1.448607276102741004e+01,-1.317632491111913939e+00
2.000000000000843414e+01,2.999999995957436827e+00,9.999999999937362105e+00,6.600000000009893508e-01,1.570000000000892237e+00,2.869999999999998636e+03,-2.175000000001405365e+00,-4.944999999996619877e+00,1.449510169468138443e+01,-1.309662561024641736e+00
2.000000000000877520e+01,2.999999996034134142e+00,9.999999999927053906e+00,6.600000000014093482e-01,1.570000000001547047e+00,2.869999999999993179e+03,-2.175000000002049738e+00,-4.944999999996092299e+00,1.448054932596697952e+01,-1.320291051596315546e+00
2.000000000000824585e+01,2.999999996183737583e+00,9.999999999927625893e+00,6.600000000014005774e-01,1.570000000001639195e+00,2.869999999999994543e+03,-2.175000000002070610e+00,-4.944999999996067430e+00,1.447284577172754183e+01,-1.323465587514611519e+00
2.000000000000884981e+01,2.999999995241731110e+00,9.999999999935907269e+00,6.600000000010204371e-01,1.570000000000773221e+00,2.869999999999990450e+03,-2.175000000001330314e+00,-4.944999999996011475e+00,1.453666275648628492e+01,-1.290260788022157712e+00
2.000000000000583356e+01,2.999999995650444617e+00,9.999999999914320981e+00,6.600000000018730884e-01,1.570000000002080176e+00,2.869999999999984993e+03,-2.175000000002352607e+00,-4.944999999994411866e+00,1.449246009551816172e+01,-1.318337018059178023e+00
2.000000000000826716e+01,2.999999994676882054e+00,9.999999999942374984e+00,6.600000000008544587e-01,1.570000000000325135e+00,2.869999999999998636e+03,-2.175000000000940403e+00,-4.944999999996680273e+00,1.460342410666138058e+01,-1.248077022710569084e+00
2.000000000000842704e+01,2.999999994747157839e+00,9.999999999941357132e+00,6.600000000008803269e-01,1.570000000000410179e+00,2.869999999999999091e+03,-2.175000000001013234e+00,-4.944999999996566586e+00,1.459718645022281081e+01,-1.252079622797090286e+00
2.000000000000273914e+01,2.999999995445741252e+00,9.999999999910730963e+00,6.600000000022315794e-01,1.570000000002483853e+00,2.869999999999976808e+03,-2.175000000002582201e+00,-4.944999999994282192e+00,1.452590012032827893e+01,-1.296112091378908815e+00
2.000000000000481037e+01,2.999999995453244583e+00,9.999999999908832038e+00,6.600000000022399060e-01,1.570000000002538032e+00,2.869999999999979536e+03,-2.175000000002759837e+00,-4.944999999994339923e+00,1.451802092582875048e+01,-1.302619524412085061e+00
2.000000000000599343e+01,2.999999995636682737e+00,9.999999999920557769e+00,6.600000000017165469e-01,1.570000000001837481e+00,2.869999999999982265e+03,-2.175000000002159428e+00,-4.944999999995041584e+00,1.450723592585678645e+01,-1.307541236333455759e+00
2.000000000000494893e+01,2.999999995887752569e+00,9.999999999899973346e+00,6.600000000025627589e-01,1.570000000003163976e+00,2.869999999999976808e+03,-2.175000000003329603e+00,-4.944999999993804352e+00,1.447595087218459753e+01,-1.328694126051134683e+00
2.000000000000606803e+01,2.999999995607542047e+00,9.999999999893587344e+00,6.600000000028205527e-01,1.570000000003660912e+00,2.869999999999980446e+03,-2.175000000003815881e+00,-4.944999999993379802e+00,1.449339703028285520e+01,-1.320072406941611876e+00
2.000000000000589040e+01,2.999999995373672235e+00,9.999999999900255787e+00,6.600000000025896263e-01,1.570000000003157536e+00,2.869999999999980446e+03,-2.175000000003382450e+00,-4.944999999993909157e+00,1.451770930037472063e+01,-1.304623064500166407e+00
2.000000000000551381e+01,2.999999995404473818e+00,9.999999999907940307e+00,6.600000000023007463e-01,1.570000000002728546e+00,2.869999999999983629e+03,-2.175000000002958345e+00,-4.944999999994363016e+00,1.452196064207056381e+01,-1.299983541024034572e+00
2.000000000001243805e+01,2.999999994753650867e+00,9.999999999964963138e+00,6.599999999999169864e-01,1.569999999999262208e+00,2.870000000000003638e+03,-2.175000000000114397e+00,-4.944999999998403339e+00,1.460616546122280468e+01,-1.242502178070039154e+00
2.000000000001291767e+01,2.999999995004084763e+00,9.999999999966973974e+00,6.599999999998469313e-01,1.569999999999330154e+00,2.870000000000005457e+03,-2.175000000000167244e+00,-4.944999999998668905e+00,1.458892469068274522e+01,-1.250861232454435923e+00
2.000000000001118750e+01,2.999999994722357677e+00,9.999999999955784702e+00,6.600000000002892442e-01,1.569999999999916573e+00,2.870000000000001364e+03,-2.175000000000591349e+00,-4.944999999997376605e+00,1.459762200300365187e+01,-1.249711715946381085e+00
2.000000000001064038e+01,2.999999994886083154e+00,9.999999999957825736e+00,6.600000000002144152e-01,1.569999999999826645e+00,2.870000000000004093e+03,-2.175000000000473221e+00,-4.944999999997430784e+00,1.458561270432721280e+01,-1.255966942779522366e+00
2.000000000001141842e+01,2.999999994937931458e+00,9.999999999969345410e+00,6.599999999997643307e-01,1.569999999998981099e+00,2.870000000000003183e+03,-2.174999999999819522e+00,-4.944999999998656470e+00,1.459294251193834313e+01,-1.248900801621839252e+00
2.000000000001294964e+01,2.999999994948053583e+00,9.999999999966941999e+00,6.599999999998628075e-01,1.569999999999261764e+00,2.870000000000007276e+03,-2.175000000000149925e+00,-4.944999999998707985e+00,1.459036458391113733e+01,-1.250889633367159526e+00
2.000000000001312372e+01,2.999999994884949395e+00,9.999999999971954878e+00,6.599999999996742917e-01,1.569999999999033502e+00,2.870000000000003183e+03,-2.174999999999911005e+00,-4.944999999998971774e+00,1.460131337561390374e+01,-1.243352314733451314e+00
2.000000000001010747e+01,2.999999995065493863e+00,9.999999999964957809e+00,6.599999999999777156e-01,1.569999999999444729e+00,2.870000000000000000e+03,-2.175000000000104627e+00,-4.944999999998147544e+00,1.458456683931518683e+01,-1.253298523614128301e+00
2.000000000001346123e+01,2.999999995064657643e+00,9.999999999968942177e+00,6.599999999997654410e-01,1.569999999999167173e+00,2.870000000000000909e+03,-2.175000000000070433e+00,-4.944999999998939799e+00,1.458481674056004529e+01,-1.253341891239920569e+00
2.000000000001085354e+01,2.999999995087978988e+00,9.999999999961195485e+00,6.600000000001183809e-01,1.569999999999586393e+00,2.870000000000002274e+03,-2.175000000000327116e+00,-4.944999999998136886e+00,1.457970909060023423e+01,-1.257381910770904998e+00
2.000000000000776268e+01,2.999999995057362145e+00,9.999999999954885865e+00,6.600000000004097034e-01,1.569999999999853513e+00,2.869999999999993634e+03,-2.175000000000407940e+00,-4.944999999997387263e+00,1.457973678897378988e+01,-1.258041978659131699e+00
2.000000000000962075e+01,2.999999995162193400e+00,9.999999999956308727e+00,6.600000000003073408e-01,1.569999999999847295e+00,2.869999999999997272e+03,-2.175000000000487432e+00,-4.944999999997700790e+00,1.457077130377157559e+01,-1.262975588510157232e+00
2.000000000000698108e+01,2.999999995744794923e+00,9.999999999938539830e+00,6.600000000010997070e-01,1.570000000000876916e+00,2.869999999999995907e+03,-2.175000000001391598e+00,-4.944999999996846363e+00,1.451909239582974642e+01,-1.294339675022676106e+00
2.000000000001037748e+01,2.999999994836747952e+00,9.999999999972104092e+00,6.599999999997149258e-01,1.569999999998912044e+00,2.870000000000005457e+03,-2.174999999999672529e+00,-4.944999999998671569e+00,1.461550077848561280e+01,-1.234428762216448927e+00
2.000000000001069012e+01,2.999999995090069316e+00,9.999999999969821474e+00,6.599999999997843148e-01,1.569999999999114548e+00,2.870000000000004093e+03,-2.174999999999860822e+00,-4.944999999998558771e+00,1.459108068278388970e+01,-1.248984925214238650e+00
2.000000000001105960e+01,2.999999994931350944e+00,9.999999999970583531e+00,6.599999999997475664e-01,1.569999999998988649e+00,2.870000000000006366e+03,-2.174999999999791545e+00,-4.944999999998623608e+00,1.460109304423228593e+01,-1.243872080906501143e+00
2.000000000000948219e+01,2.999999995063268976e+00,9.999999999968437692e+00,6.599999999998973355e-01,1.569999999999118767e+00,2.870000000000004093e+03,-2.174999999999852829e+00,-4.944999999998592521e+00,1.459523396232320636e+01,-1.246018301648249338e+00
2.000000000000921929e+01,2.999999995615393988e+00,9.999999999946535212e+00,6.600000000006663869e-01,1.570000000000248308e+00,2.869999999999997726e+03,-2.175000000000922640e+00,-4.944999999997329532e+00,1.453044417328977822e+01,-1.288824772918428563e+00
2.000000000001016431e+01,2.999999994847068141e+00,9.999999999967204900e+00,6.599999999999026645e-01,1.569999999998981099e+00,2.870000000000005002e+03,-2.174999999999814637e+00,-4.944999999998585416e+00,1.460577236329966766e+01,-1.241658186753114679e+00
2.000000000001206857e+01,2.999999994705995210e+00,9.999999999972578379e+00,6.599999999996729594e-01,1.569999999998731299e+00,2.870000000000008185e+03,-2.174999999999677414e+00,-4.944999999999063256e+00,1.461747796730214866e+01,-1.234483698088302273e+00
2.000000000001002221e+01,2.999999994798715708e+00,9.999999999965400121e+00,6.599999999999655032e-01,1.569999999998817897e+00,2.870000000000002728e+03,-2.174999999999738698e+00,-4.944999999998663576e+00,1.460439171631720612e+01,-1.243771091511113536e+00
2.000000000001042366e+01,2.999999994990461882e+00,9.999999999966384223e+00,6.599999999999748290e-01,1.569999999999047269e+00,2.870000000000002728e+03,-2.174999999999934541e+00,-4.944999999998839435e+00,1.459600269215381196e+01,-1.246935188068059919e+00
2.000000000001088551e+01,2.999999994714715346e+00,9.999999999978673060e+00,6.599999999994753397e-01,1.569999999998302309e+00,2.870000000000006821e+03,-2.174999999999243094e+00,-4.944999999999413198e+00,1.462374723694830436e+01,-1.229254643910850708e+00
2.000000000000882494e+01,2.999999995142453191e+00,9.999999999949924501e+00,6.600000000006150946e-01,1.570000000000113527e+00,2.869999999999997726e+03,-2.175000000000777423e+00,-4.944999999997484963e+00,1.457301336439535611e+01,-1.262863772322850409e+00
2.000000000001032063e+01,2.999999994885133248e+00,9.999999999960721198e+00,6.600000000001646772e-01,1.569999999999455165e+00,2.870000000000003638e+03,-2.175000000000247180e+00,-4.944999999998159979e+00,1.459367291421704849e+01,-1.250046849122142589e+00
2.000000000001061906e+01,2.999999994888735699e+00,9.999999999972539300e+00,6.599999999997002709e-01,1.569999999998659801e+00,2.870000000000007276e+03,-2.174999999999561950e+00,-4.944999999999022400e+00,1.460185745456763229e+01,-1.243136692153531175e+00
2.000000000000895994e+01,2.999999995023690857e+00,9.999999999947746687e+00,6.600000000006520651e-01,1.569999999999999396e+00,2.870000000000000000e+03,-2.175000000000728573e+00,-4.944999999997298445e+00,1.457204368253241000e+01,-1.265760848712469855e+00
2.000000000000479616e+01,2.999999995798643404e+00,9.999999999916283855e+00,6.600000000019982105e-01,1.570000000002446994e+00,2.869999999999984539e+03,-2.175000000002597744e+00,-4.944999999994819539e+00,1.450251933723538933e+01,-1.307906219263926806e+00
2.000000000000451195e+01,2.999999995675133757e+00,9.999999999920852645e+00,6.600000000018283464e-01,1.570000000002042873e+00,2.869999999999981810e+03,-2.175000000002247802e+00,-4.944999999995158824e+00,1.451733474277480163e+01,-1.298615039941551919e+00
2.000000000000600764e+01,2.999999995494114557e+00,9.999999999923106841e+00,6.600000000017202106e-01,1.570000000001849472e+00,2.869999999999980446e+03,-2.175000000002174083e+00,-4.944999999995527418e+00,1.453204308898502539e+01,-1.290346891612738300e+00
2.000000000000360956e+01,2.999999995952979948e+00,9.999999999904934711e+00,6.600000000024659474e-01,1.570000000002984564e+00,2.869999999999972260e+03,-2.175000000003086686e+00,-4.944999999994156070e+00,1.447952964384048968e+01,-1.323817357770930458e+00
2.000000000000706635e+01,2.999999995873869452e+00,9.999999999933185890e+00,6.600000000012425927e-01,1.570000000001537499e+00,2.869999999999996817e+03,-2.175000000001816147e+00,-4.944999999995923545e+00,1.451106111977426849e+01,-1.299493184304653104e+00
2.000000000000688516e+01,2.999999995935755059e+00,9.999999999922922100e+00,6.600000000016164048e-01,1.570000000002183427e+00,2.869999999999995907e+03,-2.175000000002373479e+00,-4.944999999995051354e+00,1.449536173408086803e+01,-1.311373597785931988e+00
2.000000000000746425e+01,2.999999995774906392e+00,9.999999999931986849e+00,6.600000000012907764e-01,1.570000000001556817e+00,2.869999999999996362e+03,-2.175000000001878320e+00,-4.944999999995870255e+00,1.451495663057421126e+01,-1.298352575009629639e+00
2.000000000000553868e+01,2.999999996056532225e+00,9.999999999917989157e+00,6.600000000018753088e-01,1.570000000002373497e+00,2.869999999999989996e+03,-2.175000000002548450e+00,-4.944999999994947437e+00,1.448643438082765122e+01,-1.316732874781322504e+00
2.000000000000540723e+01,2.999999995896734717e+00,9.999999999921330485e+00,6.600000000017212098e-01,1.570000000002133689e+00,2.869999999999992269e+03,-2.175000000002309974e+00,-4.944999999995037143e+00,1.449999549119921660e+01,-1.308359734818444364e+00
2.000000000000670042e+01,2.999999995891797333e+00,9.999999999926615146e+00,6.600000000014847323e-01,1.570000000001795737e+00,2.869999999999994543e+03,-2.175000000002076828e+00,-4.944999999995536299e+00,1.450066073305852399e+01,-1.307444273135794033e+00
2.000000000000751044e+01,2.999999995629439642e+00,9.999999999935520023e+00,6.600000000011287948e-01,1.570000000000994600e+00,2.869999999999990450e+03,-2.175000000001460876e+00,-4.944999999996454676e+00,1.452601470293404340e+01,-1.291445350134815317e+00
2.000000000000455458e+01,2.999999995361520622e+00,9.999999999905684334e+00,6.600000000023522606e-01,1.570000000002641505e+00,2.869999999999984539e+03,-2.175000000002857536e+00,-4.944999999994156070e+00,1.452288219205619413e+01,-1.300361092188057954e+00
2.000000000000475353e+01,2.999999995258723295e+00,9.999999999907323911e+00,6.600000000023051872e-01,1.570000000002529594e+00,2.869999999999986812e+03,-2.175000000002785594e+00,-4.944999999994325712e+00,1.453318054020429884e+01,-1.294176594696928362e+00
2.000000000000436273e+01,2.999999995279984510e+00,9.999999999911478810e+00,6.600000000021423174e-01,1.570000000002370166e+00,2.869999999999987722e+03,-2.175000000002574208e+00,-4.944999999994426965e+00,1.453596474201675370e+01,-1.291163821698204428e+00
2.000000000000513367e+01,2.999999995825693766e+00,9.999999999896020952e+00,6.600000000026885472e-01,1.570000000003210827e+00,2.869999999999983629e+03,-2.175000000003444622e+00,-4.944999999993851425e+00,1.448021923768368602e+01,-1.326467399253755008e+00
2.000000000000635225e+01,2.999999995673598097e+00,9.999999999907842607e+00,6.600000000022395730e-01,1.570000000002627738e+00,2.869999999999986358e+03,-2.175000000002942357e+00,-4.944999999994603712e+00,1.450107186177437057e+01,-1.312346369779165078e+00
2.000000000000753886e+01,2.999999995446622325e+00,9.999999999934075845e+00,6.600000000011970736e-01,1.570000000001052332e+00,2.869999999999989996e+03,-2.175000000001536371e+00,-4.944999999996217532e+00,1.453405462986766850e+01,-1.288712596906619323e+00
2.000000000000670752e+01,2.999999995746502890e+00,9.999999999928059324e+00,6.600000000014750734e-01,1.570000000001545937e+00,2.869999999999995907e+03,-2.175000000001960476e+00,-4.944999999996138484e+00,1.451512999000025061e+01,-1.298094202193684987e+00
2.000000000000476774e+01,2.999999995747834269e+00,9.999999999926609817e+00,6.600000000015401325e-01,1.570000000001539275e+00,2.869999999999983629e+03,-2.175000000001829470e+00,-4.944999999995820517e+00,1.451592125375047360e+01,-1.297192485905878323e+00
2.000000000000548539e+01,2.999999995854947255e+00,9.999999999914617632e+00,6.600000000019818902e-01,1.570000000002217178e+00,2.869999999999978627e+03,-2.175000000002509370e+00,-4.944999999995179252e+00,1.449460329451816065e+01,-1.312818296464056678e+00
2.000000000000535394e+01,2.999999995857374202e+00,9.999999999934553685e+00,6.600000000012674617e-01,1.570000000001145590e+00,2.869999999999981355e+03,-2.175000000001511502e+00,-4.944999999996593232e+00,1.451154183977706502e+01,-1.297355518284737386e+00
2.000000000000729017e+01,2.999999995696993160e+00,9.999999999940527573e+00,6.600000000009852430e-01,1.570000000000659313e+00,2.869999999999984084e+03,-2.175000000001208633e+00,-4.944999999997222950e+00,1.452471630290245130e+01,-1.289798466915432318e+00
2.000000000000850520e+01,2.999999995220349103e+00,9.999999999936175499e+00,6.600000000011023715e-01,1.570000000000951079e+00,2.869999999999987722e+03,-2.175000000001472422e+00,-4.944999999996574580e+00,1.454975226973417080e+01,-1.278169715254207528e+00
2.000000000000787637e+01,2.999999995720650681e+00,9.999999999935800687e+00,6.600000000012463675e-01,1.570000000001374962e+00,2.869999999999993634e+03,-2.175000000001822809e+00,-4.944999999996826823e+00,1.452491512983411148e+01,-1.289575996504673805e+00
2.000000000000922995e+01,2.999999995399298847e+00,9.999999999914850335e+00,6.600000000019655699e-01,1.570000000002317098e+00,2.869999999999994998e+03,-2.175000000002822453e+00,-4.944999999995314255e+00,1.451638478991599079e+01,-1.303334904823551410e+00
2.000000000000996181e+01,2.999999995310695500e+00,9.999999999917299931e+00,6.600000000018663160e-01,1.570000000002170326e+00,2.869999999999998636e+03,-2.175000000002739853e+00,-4.944999999995618012e+00,1.452539682799026188e+01,-1.297517625071407110e+00
2.000000000001031708e+01,2.999999995598001679e+00,9.999999999910272663e+00,6.600000000021278845e-01,1.570000000002720331e+00,2.869999999999998181e+03,-2.175000000003236789e+00,-4.944999999995272510e+00,1.449919401637948368e+01,-1.313313395303312037e+00
2.000000000000750333e+01,2.999999995535565400e+00,9.999999999913697479e+00,6.600000000020640467e-01,1.570000000002572005e+00,2.869999999999994088e+03,-2.175000000002916156e+00,-4.944999999995022044e+00,1.450959838871543184e+01,-1.305782796998238071e+00
