1.999999999999740652e+01,2.999999996709265204e+00,1.000000000000298961e+01,6.599999999990808774e-01,1.569999999998764384e+00,2.869999999999996817e+03,-2.174999999998610267e+00,-4.945000000001759766e+00,1.452524739676672283e+01,-1.250914523772187703e+00
1.999999999999889511e+01,2.999999995993049229e+00,1.000000000001324807e+01,6.599999999985611820e-01,1.569999999997855333e+00,2.869999999999998636e+03,-2.174999999997798472e+00,-4.945000000002035989e+00,1.457986189187516857e+01,-1.220708325137034533e+00
2.000000000000075318e+01,2.999999996215366505e+00,9.999999999931546313e+00,6.600000000015650015e-01,1.570000000001943619e+00,2.869999999999990450e+03,-2.175000000001869882e+00,-4.944999999996424478e+00,1.449436280127516063e+01,-1.298789257680803555e+00
2.000000000000342837e+01,2.999999996036738281e+00,9.999999999895381464e+00,6.600000000028176661e-01,1.570000000003538565e+00,2.869999999999989086e+03,-2.175000000003611600e+00,-4.944999999993780371e+00,1.445005971046236226e+01,-1.342104946769365981e+00
2.000000000000304468e+01,2.999999995914346407e+00,9.999999999928929739e+00,6.600000000014907275e-01,1.570000000001662732e+00,2.869999999999989086e+03,-2.175000000001750422e+00,-4.944999999995979501e+00,1.446751310372175858e+01,-1.322204247013404332e+00
2.000000000000531486e+01,2.999999996015273673e+00,9.999999999919278793e+00,6.600000000018545476e-01,1.570000000002163443e+00,2.869999999999989996e+03,-2.175000000002450307e+00,-4.944999999995498996e+00,1.445108306963829747e+01,-1.337173812318042110e+00
2.000000000000540723e+01,2.999999994879474663e+00,9.999999999938536277e+00,6.600000000010656231e-01,1.570000000000916884e+00,2.869999999999994543e+03,-2.175000000001163780e+00,-4.944999999996299245e+00,1.460462097889334210e+01,-1.241682056944419132e+00
2.000000000000393641e+01,2.999999995919715001e+00,9.999999999963458563e+00,6.600000000001722267e-01,1.569999999999800444e+00,2.869999999999995907e+03,-2.175000000000015810e+00,-4.944999999998288764e+00,1.452348128354337753e+01,-1.280277569758638823e+00
2.000000000001018208e+01,2.999999995111759077e+00,9.999999999966510345e+00,6.599999999998126254e-01,1.569999999998997087e+00,2.869999999999996817e+03,-2.174999999999684963e+00,-4.944999999998158202e+00,1.459435297088484162e+01,-1.249036946324040720e+00
2.000000000000856559e+01,2.999999995312606416e+00,9.999999999972956743e+00,6.599999999996655209e-01,1.569999999998889617e+00,2.869999999999999091e+03,-2.174999999999478018e+00,-4.944999999998706208e+00,1.459238719034480702e+01,-1.244893505879736795e+00
2.000000000000560618e+01,2.999999995273120668e+00,9.999999999965316633e+00,6.600000000000892930e-01,1.569999999999622364e+00,2.869999999999998636e+03,-2.174999999999964739e+00,-4.944999999998323403e+00,1.458178765761455153e+01,-1.247546994395442255e+00
2.000000000001202594e+01,2.999999994727735153e+00,9.999999999995493383e+00,6.599999999987591348e-01,1.569999999997545803e+00,2.870000000000003183e+03,-2.174999999998460609e+00,-4.945000000000252527e+00,1.464467703956539957e+01,-1.212502871038612540e+00
