2.000000000001119815e+01,2.999999995216953597e+00,9.999999999981714183e+00,6.599999999993654276e-01,1.569999999998486828e+00,2.870000000000001819e+03,-2.174999999999395861e+00,-4.944999999999942553e+00,1.458151229573915231e+01,-1.249193487926114177e+00
2.000000000000590461e+01,2.999999996010480618e+00,9.999999999936896700e+00,6.600000000011257972e-01,1.570000000000971063e+00,2.869999999999989541e+03,-2.175000000001392042e+00,-4.944999999996835705e+00,1.448815008937428139e+01,-1.310717218209116242e+00
2.000000000000641265e+01,2.999999995958122501e+00,9.999999999942259521e+00,6.600000000009503820e-01,1.570000000000739915e+00,2.869999999999992269e+03,-2.175000000001207745e+00,-4.944999999997268247e+00,1.450374646560551817e+01,-1.299986362081133384e+00
2.000000000000664713e+01,2.999999995386218199e+00,9.999999999920303750e+00,6.600000000017492985e-01,1.570000000001910756e+00,2.869999999999990905e+03,-2.175000000002261125e+00,-4.944999999995228990e+00,1.452500918631169391e+01,-1.296406237044130494e+00
2.000000000000390088e+01,2.999999995598852998e+00,9.999999999898554037e+00,6.600000000026031710e-01,1.570000000003134888e+00,2.869999999999984539e+03,-2.175000000003227019e+00,-4.944999999993640927e+00,1.448859273180747920e+01,-1.320851843107761381e+00
2.000000000001115907e+01,2.999999995069632330e+00,9.999999999946988183e+00,6.600000000005746825e-01,1.570000000000103313e+00,2.869999999999998636e+03,-2.175000000000876010e+00,-4.944999999997098605e+00,1.456835356903194523e+01,-1.269635720323404549e+00
2.000000000001195488e+01,2.999999995169243316e+00,9.999999999954896523e+00,6.600000000002700373e-01,1.569999999999661888e+00,2.870000000000003183e+03,-2.175000000000550493e+00,-4.944999999997789608e+00,1.455570601432705580e+01,-1.275896827897235353e+00
2.000000000000331113e+01,2.999999995726725377e+00,9.999999999917264404e+00,6.600000000020578295e-01,1.570000000002495621e+00,2.869999999999985903e+03,-2.175000000002619505e+00,-4.944999999995467910e+00,1.451583975916184066e+01,-1.294182735382503280e+00
2.000000000000809308e+01,2.999999995042564205e+00,9.999999999938369299e+00,6.600000000010295409e-01,1.570000000000790319e+00,2.869999999999996817e+03,-2.175000000001307665e+00,-4.944999999996533724e+00,1.457175144584823556e+01,-1.265029461596669735e+00
2.000000000001146105e+01,2.999999995160244293e+00,9.999999999934956918e+00,6.600000000010736168e-01,1.570000000000743912e+00,2.869999999999994998e+03,-2.175000000001592770e+00,-4.944999999996624318e+00,1.454621349665240793e+01,-1.285798013203981016e+00
2.000000000000815703e+01,2.999999995216849236e+00,9.999999999927815963e+00,6.600000000014363266e-01,1.570000000001510410e+00,2.869999999999995907e+03,-2.175000000001961808e+00,-4.944999999995692619e+00,1.453340732193489515e+01,-1.291343111400415244e+00
2.000000000000800782e+01,2.999999995721565949e+00,9.999999999940026640e+00,6.600000000009377255e-01,1.570000000000721929e+00,2.869999999999993634e+03,-2.175000000001235723e+00,-4.944999999996670503e+00,1.451830793814840703e+01,-1.296715742853758346e+00
2.000000000000871836e+01,2.999999995158035837e+00,9.999999999935667461e+00,6.600000000011186918e-01,1.570000000000899343e+00,2.869999999999994088e+03,-2.175000000001471090e+00,-4.944999999996408491e+00,1.456358178260400749e+01,-1.271617106436355504e+00
2.000000000000991562e+01,2.999999994972470940e+00,9.999999999943421258e+00,6.600000000007572032e-01,1.570000000000377094e+00,2.869999999999999091e+03,-2.175000000001023448e+00,-4.944999999996669615e+00,1.457997015702817656e+01,-1.262761701874719256e+00
2.000000000000792610e+01,2.999999994982406992e+00,9.999999999926554750e+00,6.600000000014487611e-01,1.570000000001419593e+00,2.869999999999994998e+03,-2.175000000001858780e+00,-4.944999999995461692e+00,1.457546206496196639e+01,-1.266945622196749444e+00
2.000000000000572697e+01,2.999999996012582937e+00,9.999999999931254990e+00,6.600000000013964696e-01,1.570000000001530838e+00,2.869999999999992724e+03,-2.175000000001855671e+00,-4.944999999996249507e+00,1.449709771662847757e+01,-1.306699678308479884e+00
2.000000000000369482e+01,2.999999996001267100e+00,9.999999999914932047e+00,6.600000000021295499e-01,1.570000000002677476e+00,2.869999999999989996e+03,-2.175000000002777600e+00,-4.944999999995134843e+00,1.449838207900881493e+01,-1.306689946584612461e+00
2.000000000000730793e+01,2.999999995421141374e+00,9.999999999930054173e+00,6.600000000014099033e-01,1.570000000001462004e+00,2.869999999999993634e+03,-2.175000000001895195e+00,-4.944999999996167794e+00,1.453115970598920015e+01,-1.288942018366761255e+00
