2.000000000000599698e+01,2.999999995645657780e+00,9.999999999915205606e+00,6.600000000019747848e-01,1.570000000002290008e+00,2.869999999999990905e+03,-2.175000000002593747e+00,-4.944999999994908357e+00,1.450826227433363869e+01,-1.306408985098663100e+00
2.000000000000376232e+01,2.999999995642807171e+00,9.999999999918243176e+00,6.600000000019302648e-01,1.570000000002101048e+00,2.869999999999994543e+03,-2.175000000002313527e+00,-4.944999999994991846e+00,1.451699531334014281e+01,-1.299121447644863370e+00
2.000000000000656186e+01,2.999999995575579614e+00,9.999999999914987114e+00,6.600000000019863311e-01,1.570000000002214291e+00,2.869999999999988631e+03,-2.175000000002600409e+00,-4.944999999995191686e+00,1.451528680978659480e+01,-1.302134733658116383e+00
2.000000000000353140e+01,2.999999995723244606e+00,9.999999999908583348e+00,6.600000000022829827e-01,1.570000000002788054e+00,2.869999999999990905e+03,-2.175000000002877520e+00,-4.944999999993982875e+00,1.449650617181799994e+01,-1.314295578310035628e+00
2.000000000000501643e+01,2.999999995867666414e+00,9.999999999909077175e+00,6.600000000022318014e-01,1.570000000002733875e+00,2.869999999999990905e+03,-2.175000000002936140e+00,-4.944999999994324824e+00,1.448548949045734702e+01,-1.320788746633460686e+00
2.000000000000305533e+01,2.999999995647338213e+00,9.999999999909828574e+00,6.600000000022335778e-01,1.570000000002560236e+00,2.869999999999990450e+03,-2.175000000002692779e+00,-4.944999999994273310e+00,1.450590915782266421e+01,-1.307681079154798809e+00
2.000000000000260059e+01,2.999999996083246412e+00,9.999999999897990932e+00,6.600000000026822189e-01,1.570000000003225926e+00,2.869999999999982265e+03,-2.175000000003297185e+00,-4.944999999993687112e+00,1.446216229366524608e+01,-1.334904408435745538e+00
2.000000000000868638e+01,2.999999995627578464e+00,9.999999999934685135e+00,6.600000000011939649e-01,1.570000000001243734e+00,2.869999999999987267e+03,-2.175000000001732658e+00,-4.944999999996401385e+00,1.452383887802415074e+01,-1.293745949980353416e+00
2.000000000000606803e+01,2.999999995593724211e+00,9.999999999917452698e+00,6.600000000019132784e-01,1.570000000002272911e+00,2.869999999999979991e+03,-2.175000000002520029e+00,-4.944999999994909246e+00,1.451629673470814019e+01,-1.301231656786019819e+00
2.000000000000702016e+01,2.999999995796286179e+00,9.999999999908517623e+00,6.600000000021739588e-01,1.570000000002386598e+00,2.869999999999969987e+03,-2.175000000002814016e+00,-4.944999999995137507e+00,1.448907482980502337e+01,-1.318436150433146992e+00
2.000000000000929390e+01,2.999999995614268222e+00,9.999999999910974324e+00,6.600000000020106450e-01,1.570000000002187202e+00,2.869999999999974534e+03,-2.175000000002753620e+00,-4.944999999995403961e+00,1.450207820968802963e+01,-1.311983914440804089e+00
2.000000000000582290e+01,2.999999995655523666e+00,9.999999999904998660e+00,6.600000000024314195e-01,1.570000000002915064e+00,2.869999999999974534e+03,-2.175000000003183942e+00,-4.944999999994661444e+00,1.450548102423943320e+01,-1.308418697254623009e+00
2.000000000000553868e+01,2.999999995503151329e+00,9.999999999915242910e+00,6.600000000020348478e-01,1.570000000002246487e+00,2.869999999999979536e+03,-2.175000000002555556e+00,-4.944999999995189022e+00,1.452611133466333904e+01,-1.294727251621368147e+00
2.000000000000830624e+01,2.999999995144690512e+00,9.999999999902946968e+00,6.600000000023958924e-01,1.570000000002929719e+00,2.869999999999980446e+03,-2.175000000003284750e+00,-4.944999999994037054e+00,1.453018326228855628e+01,-1.299241619550588700e+00
2.000000000000822808e+01,2.999999995584196277e+00,9.999999999938790296e+00,6.600000000010233236e-01,1.570000000001066320e+00,2.870000000000000455e+03,-2.175000000001539924e+00,-4.944999999996528395e+00,1.451972221604538937e+01,-1.295103732050775669e+00
2.000000000000810019e+01,2.999999995662577135e+00,9.999999999936884265e+00,6.600000000010946000e-01,1.570000000001101625e+00,2.869999999999995453e+03,-2.175000000001581224e+00,-4.944999999996502638e+00,1.451179042965096677e+01,-1.300088261940759216e+00
2.000000000000697398e+01,2.999999995618976900e+00,9.999999999933764983e+00,6.600000000011776446e-01,1.570000000000890683e+00,2.869999999999982720e+03,-2.175000000001381384e+00,-4.944999999996297468e+00,1.451908972032988920e+01,-1.297093159464952405e+00
2.000000000000696332e+01,2.999999995760139981e+00,9.999999999937186246e+00,6.600000000010780576e-01,1.570000000000833174e+00,2.869999999999984084e+03,-2.175000000001305889e+00,-4.944999999996607443e+00,1.451625023977346629e+01,-1.296772591424207643e+00
2.000000000000888178e+01,2.999999995364817096e+00,9.999999999946309615e+00,6.600000000007109069e-01,1.570000000000505436e+00,2.870000000000005002e+03,-2.175000000001050982e+00,-4.944999999996916529e+00,1.454279816001068859e+01,-1.281019472481323307e+00
2.000000000001061196e+01,2.999999995258940011e+00,9.999999999941133311e+00,6.600000000008445777e-01,1.570000000000607798e+00,2.870000000000002728e+03,-2.175000000001294342e+00,-4.944999999996888995e+00,1.454220815865173932e+01,-1.283944435241573201e+00
2.000000000001191580e+01,2.999999995666792874e+00,9.999999999954246377e+00,6.600000000002761436e-01,1.569999999999792895e+00,2.870000000000000000e+03,-2.175000000000617550e+00,-4.944999999998074713e+00,1.452355358403111474e+01,-1.291649438649696835e+00
2.000000000000829914e+01,2.999999995987016277e+00,9.999999999927071670e+00,6.600000000014073498e-01,1.570000000001499307e+00,2.869999999999992724e+03,-2.175000000001977796e+00,-4.944999999995971507e+00,1.448296033775955394e+01,-1.319281857070564001e+00
2.000000000000755307e+01,2.999999995941525111e+00,9.999999999933139705e+00,6.600000000011715384e-01,1.570000000001132934e+00,2.869999999999995907e+03,-2.175000000001582112e+00,-4.944999999996285034e+00,1.449541271351324134e+01,-1.310004911551999163e+00
2.000000000000897415e+01,2.999999995930597851e+00,9.999999999925016425e+00,6.600000000014928370e-01,1.570000000001619656e+00,2.869999999999993634e+03,-2.175000000002153211e+00,-4.944999999996034568e+00,1.448557022215812218e+01,-1.318120572537367474e+00
2.000000000000849454e+01,2.999999996219812726e+00,9.999999999934845007e+00,6.600000000011120305e-01,1.570000000001223750e+00,2.869999999999994998e+03,-2.175000000001694467e+00,-4.944999999996579021e+00,1.447709807692867123e+01,-1.319259336305970809e+00
2.000000000000933653e+01,2.999999995261910524e+00,9.999999999938452788e+00,6.600000000009247358e-01,1.570000000000634222e+00,2.869999999999989541e+03,-2.175000000001239719e+00,-4.944999999996343654e+00,1.453917711321203932e+01,-1.287917088574815017e+00
2.000000000000422773e+01,2.999999995773516392e+00,9.999999999907913661e+00,6.600000000021646329e-01,1.570000000002545582e+00,2.869999999999981810e+03,-2.175000000002672795e+00,-4.944999999993855866e+00,1.448236816845277453e+01,-1.324265613259138386e+00
2.000000000000907008e+01,2.999999994835412576e+00,9.999999999941822537e+00,6.600000000008473533e-01,1.570000000000421947e+00,2.870000000000000455e+03,-2.175000000001048317e+00,-4.944999999996629647e+00,1.458984846033377458e+01,-1.256535680164771351e+00
2.000000000000260769e+01,2.999999995432187205e+00,9.999999999911706183e+00,6.600000000021938318e-01,1.570000000002384155e+00,2.869999999999976353e+03,-2.175000000002495160e+00,-4.944999999994368345e+00,1.452623901084202629e+01,-1.295700626201401473e+00
2.000000000000525802e+01,2.999999995276920739e+00,9.999999999923977256e+00,6.600000000016356116e-01,1.570000000001565921e+00,2.869999999999980901e+03,-2.175000000001889866e+00,-4.944999999995280504e+00,1.454189659277168545e+01,-1.286220781149905124e+00
2.000000000000652989e+01,2.999999995620984183e+00,9.999999999919998217e+00,6.600000000017242074e-01,1.570000000001834595e+00,2.869999999999984084e+03,-2.175000000002199396e+00,-4.944999999995083328e+00,1.450795186259201586e+01,-1.307604910453245228e+00
2.000000000000580158e+01,2.999999995838832145e+00,9.999999999905726966e+00,6.600000000023246161e-01,1.570000000002750307e+00,2.869999999999978172e+03,-2.175000000003026734e+00,-4.944999999994371898e+00,1.448288382516718187e+01,-1.323736111559289386e+00
2.000000000000675726e+01,2.999999995608554126e+00,9.999999999896182601e+00,6.600000000027050895e-01,1.570000000003520801e+00,2.869999999999980446e+03,-2.175000000003720402e+00,-4.944999999993586748e+00,1.449419283477869946e+01,-1.319479075239351928e+00
2.000000000000538591e+01,2.999999995421571253e+00,9.999999999898824043e+00,6.600000000026554625e-01,1.570000000003291651e+00,2.869999999999980446e+03,-2.175000000003465939e+00,-4.944999999993731521e+00,1.451158357307251023e+01,-1.308159544845283406e+00
2.000000000000475708e+01,2.999999995621946525e+00,9.999999999903868897e+00,6.600000000024596192e-01,1.570000000002965468e+00,2.869999999999980901e+03,-2.175000000003137313e+00,-4.944999999994106332e+00,1.450523324703428152e+01,-1.309894904012437467e+00
2.000000000001378808e+01,2.999999994903391531e+00,9.999999999972434495e+00,6.599999999996239985e-01,1.569999999998954232e+00,2.870000000000005002e+03,-2.174999999999883471e+00,-4.944999999999153850e+00,1.459997211786035720e+01,-1.243770025619712172e+00
2.000000000001044498e+01,2.999999995029727362e+00,9.999999999949896079e+00,6.600000000005282752e-01,1.570000000000372431e+00,2.870000000000001364e+03,-2.175000000000952838e+00,-4.944999999996921858e+00,1.456822528024114938e+01,-1.267326934076646205e+00
2.000000000001209699e+01,2.999999994997359032e+00,9.999999999956310504e+00,6.600000000002799183e-01,1.569999999999817542e+00,2.870000000000001364e+03,-2.175000000000633982e+00,-4.944999999997983231e+00,1.457877500154696548e+01,-1.259942825223549612e+00
2.000000000000922995e+01,2.999999995151487298e+00,9.999999999957584151e+00,6.600000000002570477e-01,1.569999999999940332e+00,2.869999999999999545e+03,-2.175000000000476774e+00,-4.944999999997422790e+00,1.457011171680657036e+01,-1.263202789602589027e+00
2.000000000001465494e+01,2.999999995014915655e+00,9.999999999976843412e+00,6.599999999994480282e-01,1.569999999998701545e+00,2.870000000000001364e+03,-2.174999999999710720e+00,-4.944999999999617479e+00,1.459474473287860619e+01,-1.246149531674938027e+00
2.000000000001092104e+01,2.999999995097456296e+00,9.999999999959111818e+00,6.600000000001773337e-01,1.569999999999691198e+00,2.870000000000002274e+03,-2.175000000000419487e+00,-4.944999999997931717e+00,1.457601441311144796e+01,-1.260386694160545495e+00
2.000000000000684608e+01,2.999999995134447595e+00,9.999999999950663465e+00,6.600000000005769030e-01,1.570000000000135509e+00,2.869999999999992724e+03,-2.175000000000593570e+00,-4.944999999996914752e+00,1.457094970298523151e+01,-1.263879003804133649e+00
2.000000000001076828e+01,2.999999995105646633e+00,9.999999999962883024e+00,6.600000000000307843e-01,1.569999999999447393e+00,2.870000000000002274e+03,-2.175000000000189004e+00,-4.944999999998232809e+00,1.457857259820888274e+01,-1.257579689956961344e+00
2.000000000000799361e+01,2.999999995659164753e+00,9.999999999942909668e+00,6.600000000009235146e-01,1.570000000000640439e+00,2.869999999999995453e+03,-2.175000000001224620e+00,-4.944999999997223838e+00,1.453002660385126710e+01,-1.287426166246626424e+00
2.000000000001104183e+01,2.999999995183779689e+00,9.999999999963641528e+00,6.599999999999883737e-01,1.569999999999412754e+00,2.870000000000001364e+03,-2.175000000000168576e+00,-4.944999999998231921e+00,1.457599711630486183e+01,-1.259469113509349203e+00
2.000000000001027800e+01,2.999999995202687231e+00,9.999999999966600939e+00,6.599999999999137668e-01,1.569999999999248219e+00,2.870000000000001364e+03,-2.174999999999988720e+00,-4.944999999998441531e+00,1.457983900819188428e+01,-1.255917188554329655e+00
2.000000000000892442e+01,2.999999995668524377e+00,9.999999999947865703e+00,6.600000000006173151e-01,1.570000000000170814e+00,2.869999999999996817e+03,-2.175000000000828937e+00,-4.944999999997408580e+00,1.452981502522834134e+01,-1.288453809430741392e+00
2.000000000001016076e+01,2.999999995041540135e+00,9.999999999960355268e+00,6.600000000001973177e-01,1.569999999999410534e+00,2.870000000000003183e+03,-2.175000000000249845e+00,-4.944999999998384688e+00,1.458551414050752371e+01,-1.254383108238425137e+00
2.000000000000759925e+01,2.999999995434774469e+00,9.999999999937266182e+00,6.600000000011230217e-01,1.570000000000886908e+00,2.869999999999992724e+03,-2.175000000001425793e+00,-4.944999999996658069e+00,1.454163039448917338e+01,-1.282816392953441076e+00
2.000000000001047340e+01,2.999999994899465339e+00,9.999999999953381291e+00,6.600000000004153655e-01,1.569999999999623252e+00,2.870000000000001819e+03,-2.175000000000488765e+00,-4.944999999997904183e+00,1.458465191569793973e+01,-1.257825549956202327e+00
2.000000000000544631e+01,2.999999995920025864e+00,9.999999999913967486e+00,6.600000000020612712e-01,1.570000000002570006e+00,2.869999999999985448e+03,-2.175000000002763834e+00,-4.944999999994849738e+00,1.449040278478827481e+01,-1.315362993228077038e+00
2.000000000000519407e+01,2.999999995672596675e+00,9.999999999923540273e+00,6.600000000017073321e-01,1.570000000001892104e+00,2.869999999999980901e+03,-2.175000000002137224e+00,-4.944999999995338236e+00,1.451781138940048521e+01,-1.298363489479847921e+00
2.000000000000549960e+01,2.999999995592828483e+00,9.999999999923872451e+00,6.600000000017085533e-01,1.570000000001854135e+00,2.869999999999980446e+03,-2.175000000002142553e+00,-4.944999999995546958e+00,1.452715950498648212e+01,-1.292390628405355457e+00
2.000000000000260414e+01,2.999999996038185124e+00,9.999999999903632641e+00,6.600000000025290081e-01,1.570000000003079377e+00,2.869999999999970896e+03,-2.175000000003103118e+00,-4.944999999993926032e+00,1.447389482763986557e+01,-1.326832202360483048e+00
2.000000000000589750e+01,2.999999996066377239e+00,9.999999999921811877e+00,6.600000000017175461e-01,1.570000000002250928e+00,2.869999999999992724e+03,-2.175000000002413447e+00,-4.944999999995206785e+00,1.449258535322757169e+01,-1.311524279576003371e+00
2.000000000000682476e+01,2.999999995950978438e+00,9.999999999915068827e+00,6.600000000019373703e-01,1.570000000002631069e+00,2.869999999999992269e+03,-2.175000000002810019e+00,-4.944999999994693418e+00,1.448948875655792179e+01,-1.316189728928475189e+00
2.000000000000821032e+01,2.999999995755923798e+00,9.999999999932736472e+00,6.600000000012353762e-01,1.570000000001504858e+00,2.869999999999998636e+03,-2.175000000001864553e+00,-4.944999999995895124e+00,1.451467280478664890e+01,-1.299112789551363889e+00
2.000000000000646239e+01,2.999999996122605150e+00,9.999999999918710358e+00,6.600000000018072521e-01,1.570000000002284457e+00,2.869999999999991360e+03,-2.175000000002529799e+00,-4.944999999995118856e+00,1.447772868232955368e+01,-1.322148036130473603e+00
2.000000000000488853e+01,2.999999995902669081e+00,9.999999999916454385e+00,6.600000000019269342e-01,1.570000000002471197e+00,2.869999999999991360e+03,-2.175000000002583977e+00,-4.944999999994656115e+00,1.449600188230592934e+01,-1.311354376819340084e+00
2.000000000000574474e+01,2.999999995869318870e+00,9.999999999928716576e+00,6.600000000014230039e-01,1.570000000001616103e+00,2.869999999999991815e+03,-2.175000000001874323e+00,-4.944999999995658868e+00,1.450533155359732795e+01,-1.303749957886057409e+00
2.000000000000745359e+01,2.999999995619167859e+00,9.999999999932381201e+00,6.600000000012596901e-01,1.570000000001183560e+00,2.869999999999991360e+03,-2.175000000001642064e+00,-4.944999999996269047e+00,1.452403021785182524e+01,-1.293270611566401440e+00
2.000000000000443734e+01,2.999999995412112153e+00,9.999999999904204628e+00,6.600000000024017766e-01,1.570000000002677698e+00,2.869999999999981810e+03,-2.175000000002901057e+00,-4.944999999994166728e+00,1.451780526376733427e+01,-1.303300669995856698e+00
2.000000000000525446e+01,2.999999995322915503e+00,9.999999999906719950e+00,6.600000000023220625e-01,1.570000000002573337e+00,2.869999999999986358e+03,-2.175000000002858425e+00,-4.944999999994386997e+00,1.452825793947708988e+01,-1.297198547753195097e+00
2.000000000000524025e+01,2.999999995278092690e+00,9.999999999911972637e+00,6.600000000021205571e-01,1.570000000002340190e+00,2.869999999999986812e+03,-2.175000000002614620e+00,-4.944999999994701412e+00,1.453660174294274476e+01,-1.290533754730372573e+00
2.000000000000592948e+01,2.999999995736862157e+00,9.999999999893077529e+00,6.600000000027976821e-01,1.570000000003367147e+00,2.869999999999982265e+03,-2.175000000003650236e+00,-4.944999999993782147e+00,1.448391973144837941e+01,-1.325501196772853829e+00
2.000000000000732925e+01,2.999999995557283139e+00,9.999999999922353666e+00,6.600000000016646995e-01,1.570000000001779972e+00,2.869999999999989996e+03,-2.175000000002205169e+00,-4.944999999995600248e+00,1.452086552424622212e+01,-1.298006678071220055e+00
2.000000000000737543e+01,2.999999995388637597e+00,9.999999999936621364e+00,6.600000000011043699e-01,1.570000000000859597e+00,2.869999999999990905e+03,-2.175000000001360512e+00,-4.944999999996375628e+00,1.454057262227215652e+01,-1.284486515402115447e+00
2.000000000000652278e+01,2.999999995673680253e+00,9.999999999929253036e+00,6.600000000014347723e-01,1.570000000001483542e+00,2.869999999999996362e+03,-2.175000000001890754e+00,-4.944999999996171347e+00,1.452179049284640655e+01,-1.293923044456761096e+00
2.000000000000430589e+01,2.999999995649380580e+00,9.999999999924119365e+00,6.600000000016528201e-01,1.570000000001629648e+00,2.869999999999981810e+03,-2.175000000001907186e+00,-4.944999999995657092e+00,1.452318092521173831e+01,-1.293492258550587692e+00
2.000000000000474998e+01,2.999999995902244976e+00,9.999999999920184734e+00,6.600000000017857138e-01,1.570000000001857021e+00,2.869999999999976353e+03,-2.175000000002148326e+00,-4.944999999995605577e+00,1.449939672718845252e+01,-1.307827513988772283e+00
2.000000000000679989e+01,2.999999995772780537e+00,9.999999999934912509e+00,6.600000000012410384e-01,1.570000000001156470e+00,2.869999999999983629e+03,-2.175000000001605649e+00,-4.944999999996784190e+00,1.451593152834884393e+01,-1.295307615601895668e+00
2.000000000000712674e+01,2.999999995779975670e+00,9.999999999946478368e+00,6.600000000007542056e-01,1.570000000000311591e+00,2.869999999999981355e+03,-2.175000000000872014e+00,-4.944999999997657270e+00,1.452407564625814018e+01,-1.288236803174332756e+00
2.000000000000807887e+01,2.999999995195575586e+00,9.999999999944922280e+00,6.600000000007932854e-01,1.570000000000465468e+00,2.869999999999989996e+03,-2.175000000001000355e+00,-4.944999999997114593e+00,1.456195901116008962e+01,-1.268699590531435772e+00
2.000000000000822808e+01,2.999999995724460966e+00,9.999999999934404471e+00,6.600000000013006574e-01,1.570000000001510632e+00,2.869999999999997272e+03,-2.175000000001962253e+00,-4.944999999996744222e+00,1.452086933354178910e+01,-1.292273249173811811e+00
2.000000000000953904e+01,2.999999995337423897e+00,9.999999999914962245e+00,6.600000000019523583e-01,1.570000000002284901e+00,2.869999999999995453e+03,-2.175000000002818901e+00,-4.944999999995359552e+00,1.451883159996755346e+01,-1.302162976332738253e+00
2.000000000000885336e+01,2.999999995495430394e+00,9.999999999911333148e+00,6.600000000020965762e-01,1.570000000002547358e+00,2.869999999999994088e+03,-2.175000000003000977e+00,-4.944999999995063789e+00,1.450827784594546266e+01,-1.308245050292134115e+00
2.000000000000971667e+01,2.999999995518451978e+00,9.999999999911075577e+00,6.600000000021027935e-01,1.570000000002640839e+00,2.869999999999996817e+03,-2.175000000003126654e+00,-4.944999999995207673e+00,1.450676384101578975e+01,-1.308741115863046200e+00
2.000000000000772360e+01,2.999999995469915692e+00,9.999999999920134997e+00,6.600000000018038104e-01,1.570000000002114371e+00,2.869999999999994543e+03,-2.175000000002523581e+00,-4.944999999995489226e+00,1.452024158825699018e+01,-1.298542562060541972e+00
