1.999999999999601030e+01,2.999999996893276233e+00,1.000000000004535750e+01,6.599999999975275644e-01,1.569999999996660733e+00,2.870000000000001819e+03,-2.174999999996483080e+00,-4.945000000004669438e+00,1.455075728391453715e+01,-1.221430459288419978e+00
2.000000000000454747e+01,2.999999995688575449e+00,9.999999999985039523e+00,6.599999999994522470e-01,1.569999999998902718e+00,2.869999999999998181e+03,-2.174999999999240874e+00,-4.945000000000071338e+00,1.457141820943740917e+01,-1.243159756710308761e+00
2.000000000000503775e+01,2.999999996004579561e+00,9.999999999927680960e+00,6.600000000017570700e-01,1.570000000002269136e+00,2.869999999999994543e+03,-2.175000000002574652e+00,-4.944999999996647411e+00,1.450790894628005212e+01,-1.294301312461037634e+00
2.000000000000206768e+01,2.999999996069454333e+00,9.999999999884035873e+00,6.600000000032436587e-01,1.570000000004108776e+00,2.869999999999987722e+03,-2.175000000004033041e+00,-4.944999999992831796e+00,1.445299733259299657e+01,-1.342529523571534211e+00
2.000000000000353850e+01,2.999999995639194506e+00,9.999999999955862862e+00,6.600000000003781730e-01,1.569999999999993845e+00,2.869999999999992269e+03,-2.175000000000128608e+00,-4.944999999997497397e+00,1.453004275316279070e+01,-1.279900507104740903e+00
2.000000000000093436e+01,2.999999996213019049e+00,9.999999999926140859e+00,6.600000000016797985e-01,1.570000000002000462e+00,2.869999999999987267e+03,-2.175000000001932499e+00,-4.944999999995802753e+00,1.445841023675506776e+01,-1.324931391719878393e+00
2.000000000000772005e+01,2.999999994697691630e+00,9.999999999908824933e+00,6.600000000021685187e-01,1.570000000002418128e+00,2.869999999999994543e+03,-2.175000000002809575e+00,-4.944999999994392326e+00,1.458304572182884939e+01,-1.265883734856067200e+00
2.000000000000504841e+01,2.999999995774083050e+00,9.999999999965512032e+00,6.600000000000888489e-01,1.569999999999688978e+00,2.869999999999995907e+03,-2.175000000000003375e+00,-4.944999999998547224e+00,1.453762240855104437e+01,-1.271649358340739333e+00
2.000000000000696332e+01,2.999999995588146895e+00,9.999999999954763297e+00,6.600000000003370948e-01,1.569999999999829310e+00,2.869999999999991815e+03,-2.175000000000241851e+00,-4.944999999997389928e+00,1.454981267800862099e+01,-1.274002057163574175e+00
2.000000000000433431e+01,2.999999996021000648e+00,9.999999999951509011e+00,6.600000000006236434e-01,1.570000000000433937e+00,2.869999999999992269e+03,-2.175000000000673950e+00,-4.944999999997539142e+00,1.451720195488424459e+01,-1.287124734740255905e+00
2.000000000000578027e+01,2.999999995427934163e+00,9.999999999999211298e+00,6.599999999988583888e-01,1.569999999997980789e+00,2.870000000000002728e+03,-2.174999999998430855e+00,-4.945000000000831619e+00,1.459367023363282279e+01,-1.229690423971347979e+00
2.000000000001196554e+01,2.999999994907093903e+00,9.999999999964055419e+00,6.599999999999649480e-01,1.569999999999250218e+00,2.870000000000000455e+03,-2.175000000000109956e+00,-4.944999999998200835e+00,1.460085847280392635e+01,-1.247045731236843924e+00
