1.999999999999740652e+01,2.999999996593704754e+00,1.000000000000988898e+01,6.599999999988150901e-01,1.569999999998380469e+00,2.869999999999997726e+03,-2.174999999998232347e+00,-4.945000000002176321e+00,1.454317319388517760e+01,-1.238482404990908448e+00
1.999999999999830180e+01,2.999999996155371385e+00,1.000000000001619505e+01,6.599999999985108889e-01,1.569999999997871321e+00,2.869999999999999091e+03,-2.174999999997790034e+00,-4.945000000002437446e+00,1.456911681044022977e+01,-1.223686898618707941e+00
1.999999999999975842e+01,2.999999996350330544e+00,9.999999999929874761e+00,6.600000000016378321e-01,1.570000000002057083e+00,2.869999999999989541e+03,-2.175000000001900968e+00,-4.944999999996266382e+00,1.447633332566446640e+01,-1.309220353932764924e+00
2.000000000000388667e+01,2.999999995981958545e+00,9.999999999895592850e+00,6.600000000027974600e-01,1.570000000003500151e+00,2.869999999999989086e+03,-2.175000000003611156e+00,-4.944999999993808792e+00,1.445202589357456269e+01,-1.341410929093368454e+00
2.000000000000150280e+01,2.999999996128630553e+00,9.999999999926782124e+00,6.600000000016331692e-01,1.570000000001939178e+00,2.869999999999988177e+03,-2.175000000001910294e+00,-4.944999999995931539e+00,1.444393364870905749e+01,-1.333986804731896125e+00
2.000000000000564881e+01,2.999999995999448554e+00,9.999999999916393989e+00,6.600000000019302648e-01,1.570000000002229834e+00,2.869999999999989086e+03,-2.175000000002529799e+00,-4.944999999995226325e+00,1.445219496085144151e+01,-1.338457665252083650e+00
2.000000000000582645e+01,2.999999994823401739e+00,9.999999999944936491e+00,6.600000000008477974e-01,1.570000000000639329e+00,2.869999999999996817e+03,-2.175000000000937295e+00,-4.944999999996826823e+00,1.462016653402434052e+01,-1.230206309989414271e+00
2.000000000000557421e+01,2.999999995671640107e+00,9.999999999983677057e+00,6.599999999993724220e-01,1.569999999998644480e+00,2.869999999999998636e+03,-2.174999999999026379e+00,-4.944999999999664553e+00,1.456581839961213021e+01,-1.251340408181262687e+00
2.000000000000918732e+01,2.999999995201738212e+00,9.999999999973946174e+00,6.599999999995699307e-01,1.569999999998708873e+00,2.869999999999996817e+03,-2.174999999999337241e+00,-4.944999999998720419e+00,1.459179496229821993e+01,-1.246501038955405649e+00
2.000000000001069367e+01,2.999999995059708269e+00,9.999999999981383780e+00,6.599999999992802735e-01,1.569999999998272333e+00,2.870000000000001364e+03,-2.174999999999037037e+00,-4.944999999999218687e+00,1.462423081904706379e+01,-1.226948632752546731e+00
2.000000000000675726e+01,2.999999995207618841e+00,9.999999999966989961e+00,6.600000000000006972e-01,1.569999999999467155e+00,2.869999999999999545e+03,-2.174999999999905675e+00,-4.944999999998437978e+00,1.459203551697774870e+01,-1.242658504462190727e+00
2.000000000001054445e+01,2.999999994922296409e+00,9.999999999986702193e+00,6.599999999991488231e-01,1.569999999998164641e+00,2.870000000000002274e+03,-2.174999999998952660e+00,-4.944999999999759588e+00,1.461883876582360564e+01,-1.227372742515514537e+00
