1.999999999999145217e+01,3.000000003412310434e+00,9.999999999992120081e+00,6.599999999986306820e-01,1.569999999998555218e+00,2.869999999999988631e+03,-2.174999999998300737e+00,-4.945000000003458851e+00,1.324172842646917481e+01,-1.936655747375226388e+00
1.999999999998842171e+01,3.000000001471651689e+00,9.999999999992560618e+00,6.599999999997115951e-01,1.570000000000021378e+00,2.869999999999984993e+03,-2.174999999999163158e+00,-4.945000000001426699e+00,1.338958117387516467e+01,-2.073303845888722741e+00
1.999999999998576428e+01,3.000000003440453256e+00,9.999999999991558752e+00,6.599999999996915001e-01,1.570000000000147722e+00,2.869999999999984539e+03,-2.174999999999115641e+00,-4.945000000001842366e+00,1.322237513776127038e+01,-2.177818760690463762e+00
1.999999999999187494e+01,3.000000003269170268e+00,9.999999999967183584e+00,6.600000000007193446e-01,1.570000000001235074e+00,2.869999999999988177e+03,-2.175000000000529177e+00,-4.944999999998993090e+00,1.338287568164918540e+01,-2.017227698715960305e+00
1.999999999998834355e+01,3.000000001506311076e+00,1.000000000000483347e+01,6.599999999996684075e-01,1.570000000000052687e+00,2.869999999999983174e+03,-2.174999999999154277e+00,-4.945000000001865459e+00,1.347696822707389686e+01,-2.012818304819486315e+00
1.999999999999129230e+01,3.000000000950507673e+00,1.000000000000198952e+01,6.599999999996921662e-01,1.569999999999926343e+00,2.869999999999988177e+03,-2.174999999999267519e+00,-4.945000000001281926e+00,1.355139892976346871e+01,-1.838186709968773869e+00
2.000000000000070344e+01,3.000000004080517257e+00,9.999999999975527132e+00,6.599999999989164534e-01,1.569999999998511919e+00,2.869999999999992724e+03,-2.174999999998934896e+00,-4.945000000001888552e+00,1.336759738823333166e+01,-1.880276924597724220e+00
1.999999999999296563e+01,3.000000003724181852e+00,9.999999999997442046e+00,6.599999999988530597e-01,1.569999999998904716e+00,2.869999999999988177e+03,-2.174999999998693312e+00,-4.945000000003362040e+00,1.315087578899092868e+01,-2.055222298407584969e+00
2.000000000000009237e+01,3.000000003373095137e+00,9.999999999982241761e+00,6.599999999994852207e-01,1.569999999999477147e+00,2.869999999999992269e+03,-2.174999999999736033e+00,-4.945000000001397389e+00,1.336486023166815684e+01,-1.824729004360950757e+00
2.000000000000240163e+01,3.000000002486674422e+00,1.000000000002110490e+01,6.599999999979445642e-01,1.569999999996950502e+00,2.869999999999999545e+03,-2.174999999997458300e+00,-4.945000000003060947e+00,1.371145891059595101e+01,-1.571727789062243863e+00
2.000000000000215294e+01,3.000000003091269019e+00,9.999999999987762678e+00,6.599999999997596678e-01,1.569999999999595497e+00,2.870000000000003183e+03,-2.174999999999679190e+00,-4.945000000000098872e+00,1.368508225599611450e+01,-1.824583425798825598e+00
1.999999999999746336e+01,3.000000004574913781e+00,9.999999999989064747e+00,6.599999999994223820e-01,1.569999999999356133e+00,2.869999999999994998e+03,-2.174999999999264855e+00,-4.945000000001362750e+00,1.356168738886259639e+01,-1.863165446406840342e+00
2.000000000000177991e+01,3.000000005143159676e+00,9.999999999984925836e+00,6.599999999993552136e-01,1.569999999998945350e+00,2.869999999999997726e+03,-2.174999999999221334e+00,-4.945000000000618456e+00,1.350499868490048527e+01,-1.912885130557573143e+00
2.000000000000316192e+01,2.999999995371763983e+00,9.999999999947883467e+00,6.600000000009902390e-01,1.570000000001044560e+00,2.869999999999994088e+03,-2.175000000001125144e+00,-4.944999999997140350e+00,1.453995061387101018e+01,-1.255384078074024634e+00
2.000000000000252243e+01,2.999999996664383328e+00,9.999999999940538231e+00,6.600000000010050050e-01,1.570000000001097185e+00,2.869999999999995453e+03,-2.175000000001154010e+00,-4.944999999997135021e+00,1.437381462935807086e+01,-1.366079182772984124e+00
2.000000000000242295e+01,2.999999998202171447e+00,9.999999999936134643e+00,6.600000000010810552e-01,1.570000000001197549e+00,2.869999999999988631e+03,-2.175000000001348521e+00,-4.944999999997059525e+00,1.421622255867623075e+01,-1.462027563660172946e+00
1.999999999998789235e+01,2.999999994596660002e+00,9.999999999998619771e+00,6.599999999985970423e-01,1.569999999998322959e+00,2.869999999999993634e+03,-2.174999999997570654e+00,-4.945000000002984564e+00,1.439645971687636639e+01,-1.379161849313762955e+00
1.999999999999095834e+01,2.999999992617448985e+00,9.999999999983833376e+00,6.599999999994915489e-01,1.569999999999559526e+00,2.869999999999996362e+03,-2.174999999998910916e+00,-4.945000000001315676e+00,1.460537186056852299e+01,-1.117836882649058783e+00
1.999999999999215561e+01,2.999999991935418553e+00,9.999999999985199395e+00,6.599999999995304067e-01,1.569999999999555085e+00,2.870000000000004547e+03,-2.174999999998886491e+00,-4.945000000000984386e+00,1.465419966528370566e+01,-1.101610401508456016e+00
2.000000000001627853e+01,2.999999996873523589e+00,9.999999999939435114e+00,6.600000000004409006e-01,1.569999999999917017e+00,2.870000000000002728e+03,-2.175000000001130473e+00,-4.944999999997306439e+00,1.421327913424172884e+01,-1.449972778700986398e+00
1.999999999999268141e+01,2.999999996283014614e+00,1.000000000004008172e+01,6.599999999979748733e-01,1.569999999997394369e+00,2.870000000000000000e+03,-2.174999999996862332e+00,-4.945000000004064589e+00,1.459576869019515932e+01,-1.217350327165375168e+00
1.999999999999286260e+01,2.999999996881975939e+00,1.000000000004452616e+01,6.599999999978488630e-01,1.569999999997270246e+00,2.870000000000002274e+03,-2.174999999996755751e+00,-4.945000000004420748e+00,1.456947248517420590e+01,-1.201566360167434233e+00
1.999999999999714717e+01,2.999999997064932700e+00,1.000000000003292833e+01,6.599999999978979348e-01,1.569999999997202078e+00,2.870000000000004093e+03,-2.174999999997040856e+00,-4.945000000004040608e+00,1.437233141466675512e+01,-1.389718052871063092e+00
1.999999999999754152e+01,2.999999999761878033e+00,9.999999999973880449e+00,6.599999999998842348e-01,1.569999999999942553e+00,2.869999999999994543e+03,-2.174999999999913225e+00,-4.945000000000270290e+00,1.428579141362211580e+01,-1.148612330663760561e+00
1.999999999999568701e+01,3.000000000796274158e+00,9.999999999974026110e+00,6.599999999997487876e-01,1.569999999999816431e+00,2.869999999999992269e+03,-2.174999999999632116e+00,-4.945000000000673523e+00,1.419499578984319754e+01,-1.297406151717474643e+00
2.000000000001109157e+01,2.999999997869843060e+00,9.999999999944074958e+00,6.600000000018668711e-01,1.570000000002182983e+00,2.869999999999991360e+03,-2.175000000002983214e+00,-4.944999999995291162e+00,1.464047953868127649e+01,-5.625468365544301630e-01
2.000000000001194422e+01,2.999999998079195596e+00,9.999999999933123718e+00,6.600000000020551649e-01,1.570000000002394147e+00,2.869999999999997726e+03,-2.175000000003175504e+00,-4.944999999994702300e+00,1.453576875505537913e+01,-6.977218637095956577e-01
2.000000000001858425e+01,2.999999996340671604e+00,9.999999999902337677e+00,6.600000000010286527e-01,1.570000000000353113e+00,2.870000000000002274e+03,-2.175000000002003109e+00,-4.944999999994815987e+00,1.470372132768741302e+01,-6.245826019117938221e-01
2.000000000000019185e+01,2.999999997830498977e+00,1.000000000001468869e+01,6.599999999989144550e-01,1.569999999998609397e+00,2.870000000000001819e+03,-2.174999999998667111e+00,-4.945000000002047535e+00,1.409450224211345670e+01,-1.283300135048116797e+00
2.000000000000287415e+01,2.999999998014831526e+00,1.000000000002083667e+01,6.599999999987186117e-01,1.569999999998203055e+00,2.870000000000000909e+03,-2.174999999998483702e+00,-4.945000000002163887e+00,1.403390461993966021e+01,-1.380828468653823471e+00
1.999999999999825562e+01,2.999999997144485064e+00,1.000000000002062173e+01,6.599999999984036414e-01,1.569999999997895967e+00,2.869999999999994998e+03,-2.174999999997966782e+00,-4.945000000003064500e+00,1.413647227959120833e+01,-1.286070505332677305e+00
2.000000000000855493e+01,2.999999997746339186e+00,1.000000000000027534e+01,6.599999999993124700e-01,1.569999999998717310e+00,2.870000000000001819e+03,-2.174999999999517541e+00,-4.945000000000378648e+00,1.376900902094122081e+01,-1.528891524381963407e+00
2.000000000000867573e+01,2.999999993992399361e+00,9.999999999998179234e+00,6.599999999996198907e-01,1.569999999999047491e+00,2.869999999999997272e+03,-2.174999999999615685e+00,-4.944999999999654783e+00,1.413974027006661416e+01,-1.583551411870743220e+00
