2.000000000000130740e+01,3.000000000161067604e+00,9.999999999960486718e+00,6.600000000003077849e-01,1.570000000000253193e+00,2.869999999999993634e+03,-2.175000000000372413e+00,-4.944999999998841211e+00,1.385154439482386302e+01,-1.708082161270194854e+00
2.000000000000410694e+01,2.999999999580607923e+00,9.999999999930558658e+00,6.600000000013509505e-01,1.570000000001520846e+00,2.869999999999992724e+03,-2.175000000001763301e+00,-4.944999999996445794e+00,1.390998683706119010e+01,-1.689139572963359814e+00
2.000000000000110845e+01,2.999999995334077685e+00,9.999999999974399145e+00,6.599999999999208722e-01,1.569999999999667883e+00,2.869999999999995907e+03,-2.174999999999722711e+00,-4.944999999999426521e+00,1.450083767672049895e+01,-1.282198922707030286e+00
2.000000000000249045e+01,2.999999995892735249e+00,9.999999999969077180e+00,6.600000000000704192e-01,1.569999999999805329e+00,2.869999999999997272e+03,-2.174999999999950973e+00,-4.944999999998972662e+00,1.448276104954134880e+01,-1.298940427241114248e+00
2.000000000000166978e+01,2.999999997167904109e+00,9.999999999975866416e+00,6.599999999998285016e-01,1.569999999999523110e+00,2.869999999999996817e+03,-2.174999999999635225e+00,-4.944999999999558860e+00,1.442310697412378317e+01,-1.334091447619441206e+00
1.999999999999915090e+01,2.999999994360055933e+00,9.999999999946457052e+00,6.600000000011317924e-01,1.570000000001398721e+00,2.869999999999991360e+03,-2.175000000001205525e+00,-4.944999999997354401e+00,1.461580138220093339e+01,-1.214621181562337782e+00
2.000000000000011369e+01,2.999999996367767263e+00,9.999999999990878408e+00,6.599999999993211297e-01,1.569999999998912932e+00,2.869999999999998636e+03,-2.174999999998943334e+00,-4.945000000000735696e+00,1.442534046340134424e+01,-1.323719504418019666e+00
1.999999999999937117e+01,2.999999995354719839e+00,9.999999999966052044e+00,6.600000000003477529e-01,1.570000000000340235e+00,2.869999999999994998e+03,-2.175000000000232969e+00,-4.944999999998872298e+00,1.449949771414726918e+01,-1.284319026081960580e+00
2.000000000000171596e+01,2.999999995076609860e+00,9.999999999940921924e+00,6.600000000012155033e-01,1.570000000001386287e+00,2.869999999999991815e+03,-2.175000000001379608e+00,-4.944999999996847251e+00,1.454100577304431674e+01,-1.274119758864295182e+00
1.999999999999992895e+01,2.999999996691047777e+00,9.999999999971569409e+00,6.600000000000535438e-01,1.569999999999909690e+00,2.869999999999994543e+03,-2.174999999999877254e+00,-4.944999999999327933e+00,1.441200022633423394e+01,-1.341382227450959475e+00
2.000000000000041922e+01,2.999999995720358914e+00,9.999999999969354292e+00,6.600000000001503553e-01,1.570000000000004059e+00,2.869999999999994088e+03,-2.174999999999982947e+00,-4.944999999999049045e+00,1.452294818327931303e+01,-1.271709931600373489e+00
1.999999999999676348e+01,2.999999995571681843e+00,9.999999999968991915e+00,6.600000000003658496e-01,1.570000000000483675e+00,2.869999999999992724e+03,-2.175000000000172129e+00,-4.944999999999144968e+00,1.455179487296639884e+01,-1.247416076860894174e+00
2.000000000000581935e+01,2.999999994865057307e+00,9.999999999915553772e+00,6.600000000019452528e-01,1.570000000002172325e+00,2.869999999999991815e+03,-2.175000000002437428e+00,-4.944999999994907469e+00,1.458949869165702928e+01,-1.252453444414891814e+00
2.000000000000828493e+01,2.999999993844057578e+00,9.999999999899287673e+00,6.600000000024859315e-01,1.570000000002780061e+00,2.869999999999992269e+03,-2.175000000003181722e+00,-4.944999999993541451e+00,1.462193330692450743e+01,-1.244538577358481835e+00
2.000000000000659384e+01,2.999999995107864414e+00,9.999999999931551642e+00,6.600000000013634960e-01,1.570000000001329221e+00,2.869999999999996362e+03,-2.175000000001654943e+00,-4.944999999995849826e+00,1.463286097499298144e+01,-1.230221994771975469e+00
2.000000000000930811e+01,2.999999996103875688e+00,9.999999999957120522e+00,6.600000000002214096e-01,1.569999999999662332e+00,2.870000000000001364e+03,-2.175000000000293809e+00,-4.944999999997740758e+00,1.450671582629806622e+01,-1.300820052541508787e+00
1.999999999999533529e+01,2.999999997582310840e+00,1.000000000006279244e+01,6.599999999967331998e-01,1.569999999995656870e+00,2.870000000000000909e+03,-2.174999999995537614e+00,-4.945000000006380958e+00,1.435510106742972347e+01,-1.322822011424905408e+00
1.999999999999166889e+01,2.999999996406836011e+00,1.000000000005434764e+01,6.599999999972536724e-01,1.569999999996541051e+00,2.869999999999998636e+03,-2.174999999996107380e+00,-4.945000000005876473e+00,1.443770814844059558e+01,-1.266409680869557963e+00
1.999999999999375788e+01,2.999999997903092464e+00,1.000000000007491430e+01,6.599999999963003239e-01,1.569999999995153717e+00,2.870000000000000000e+03,-2.174999999994963851e+00,-4.945000000007427232e+00,1.429616553509774235e+01,-1.349748053092116651e+00
