2.000000000001162093e+01,2.999999997621690895e+00,9.999999999981932675e+00,6.599999999987984367e-01,1.569999999998252793e+00,2.869999999999992724e+03,-2.174999999999854161e+00,-4.945000000002207408e+00,1.345581337089918250e+01,-2.453683286258438567e+00
2.000000000001519851e+01,2.999999997501093585e+00,9.999999999980898835e+00,6.599999999984530463e-01,1.569999999997699014e+00,2.869999999999999545e+03,-2.174999999999628120e+00,-4.945000000002665708e+00,1.333677025522815640e+01,-2.511940194697840134e+00
2.000000000000645173e+01,2.999999998026850356e+00,9.999999999961968200e+00,6.599999999996245537e-01,1.569999999999440288e+00,2.869999999999984993e+03,-2.175000000000451017e+00,-4.945000000000666418e+00,1.337970958090674145e+01,-2.507014764877616653e+00
2.000000000000349232e+01,3.000000002411631783e+00,9.999999999965583086e+00,6.599999999996446487e-01,1.569999999999488693e+00,2.869999999999994543e+03,-2.175000000000018030e+00,-4.945000000000532303e+00,1.332748212774514585e+01,-2.023973550882802730e+00
1.999999999999872458e+01,3.000000005218419918e+00,9.999999999963756991e+00,6.600000000000468825e-01,1.570000000000151497e+00,2.869999999999988177e+03,-2.175000000000177458e+00,-4.945000000000022489e+00,1.314597878466909542e+01,-2.171291809154794361e+00
2.000000000000254730e+01,3.000000005404610981e+00,9.999999999970539122e+00,6.599999999995067590e-01,1.569999999999345475e+00,2.869999999999991360e+03,-2.174999999999799982e+00,-4.945000000000870699e+00,1.327721068129710424e+01,-1.953608678449442859e+00
2.000000000000310862e+01,3.000000004084326655e+00,9.999999999964821029e+00,6.599999999996516431e-01,1.569999999999507789e+00,2.869999999999991815e+03,-2.175000000000025135e+00,-4.945000000000478124e+00,1.328948290764939877e+01,-1.968554507288142741e+00
2.000000000000014566e+01,3.000000004230412465e+00,9.999999999987288390e+00,6.599999999996742917e-01,1.569999999999610818e+00,2.869999999999988631e+03,-2.174999999999829736e+00,-4.945000000000691287e+00,1.368318247891280137e+01,-1.777325580919239645e+00
1.999999999999863576e+01,3.000000003224566392e+00,9.999999999964472863e+00,6.600000000008129364e-01,1.570000000000951523e+00,2.869999999999990450e+03,-2.175000000000803624e+00,-4.944999999997583551e+00,1.341053851035703914e+01,-2.010780164236096290e+00
2.000000000000422773e+01,2.999999998808828394e+00,1.000000000000404476e+01,6.599999999991013055e-01,1.569999999998698659e+00,2.870000000000000909e+03,-2.174999999999005951e+00,-4.945000000001730456e+00,1.335948597120090220e+01,-2.520015766202329477e+00
2.000000000000235190e+01,2.999999999573394582e+00,9.999999999993136157e+00,6.599999999995930233e-01,1.569999999999365903e+00,2.869999999999998181e+03,-2.174999999999486011e+00,-4.945000000000711715e+00,1.335548901556217594e+01,-2.529350826097559235e+00
1.999999999999221600e+01,3.000000003315198338e+00,1.000000000000078870e+01,6.599999999999112132e-01,1.570000000000016271e+00,2.869999999999993634e+03,-2.174999999999091216e+00,-4.945000000000233875e+00,1.419979171547658403e+01,-1.033466437699883667e+00
2.000000000000286349e+01,3.000000006342388392e+00,9.999999999969068298e+00,6.599999999990989741e-01,1.569999999998868523e+00,2.869999999999995453e+03,-2.174999999999483791e+00,-4.945000000002233165e+00,1.413316756786075779e+01,-1.069184886078366814e+00
2.000000000000491340e+01,3.000000001524056437e+00,9.999999999985274002e+00,6.600000000003773959e-01,1.570000000000201901e+00,2.870000000000007731e+03,-2.175000000000429257e+00,-4.944999999998568541e+00,1.400459639802109812e+01,-1.331795898155667901e+00
1.999999999999166889e+01,3.000000000326022320e+00,9.999999999962167152e+00,6.600000000015540103e-01,1.570000000002118590e+00,2.869999999999992269e+03,-2.175000000000785416e+00,-4.944999999997241602e+00,1.412317546738739793e+01,-1.319364909323331947e+00
1.999999999999469580e+01,3.000000002754253714e+00,1.000000000000600053e+01,6.599999999984856869e-01,1.569999999998356710e+00,2.869999999999984084e+03,-2.174999999997903721e+00,-4.945000000004179164e+00,1.437633476337318506e+01,-1.002665561016431228e+00
1.999999999999705125e+01,3.000000003002193161e+00,1.000000000001187495e+01,6.599999999982448795e-01,1.569999999997957696e+00,2.869999999999989996e+03,-2.174999999997675904e+00,-4.945000000004470486e+00,1.439205258439989343e+01,-9.257191865718754631e-01
1.999999999999414513e+01,2.999999997873756818e+00,1.000000000004236078e+01,6.599999999984932364e-01,1.569999999998223927e+00,2.869999999999987722e+03,-2.174999999997513811e+00,-4.945000000003608953e+00,1.421357024500864163e+01,-1.240222234605570462e+00
1.999999999999668177e+01,2.999999996566490079e+00,9.999999999935875294e+00,6.600000000006562839e-01,1.570000000000930651e+00,2.869999999999991815e+03,-2.175000000000652189e+00,-4.944999999998809237e+00,1.464372700523849424e+01,-1.254471080077288248e+00
2.000000000000988720e+01,3.000000007705479810e+00,9.999999999981961096e+00,6.599999999993479971e-01,1.569999999998905382e+00,2.869999999999999091e+03,-2.175000000000159250e+00,-4.945000000001019913e+00,1.465876590217876263e+01,-1.369598039579976945e+00
2.000000000000887468e+01,3.000000008314145372e+00,9.999999999996154187e+00,6.599999999991339461e-01,1.569999999998692886e+00,2.869999999999998181e+03,-2.174999999999881251e+00,-4.945000000001634533e+00,1.453974899245118024e+01,-1.405658701400589905e+00
2.000000000001530154e+01,3.000000005591889618e+00,1.000000000000786393e+01,6.599999999985580734e-01,1.569999999997741424e+00,2.870000000000009550e+03,-2.174999999999557954e+00,-4.945000000002269580e+00,1.435393481080483369e+01,-1.638502125095896877e+00
1.999999999999991473e+01,3.000000005298644190e+00,9.999999999981888266e+00,6.600000000002398393e-01,1.570000000000245421e+00,2.869999999999996362e+03,-2.175000000000017586e+00,-4.944999999999353690e+00,1.450858698988152717e+01,-1.179044401303618761e+00
2.000000000000222400e+01,3.000000005483270726e+00,9.999999999982678744e+00,6.600000000000910694e-01,1.569999999999974527e+00,2.869999999999999091e+03,-2.175000000000057998e+00,-4.944999999999359019e+00,1.428993797373694363e+01,-1.425954140958419547e+00
2.000000000000640910e+01,3.000000005617016186e+00,9.999999999983305798e+00,6.599999999996838396e-01,1.569999999999344809e+00,2.870000000000003638e+03,-2.174999999999927436e+00,-4.945000000000018936e+00,1.462640552185413334e+01,-1.020092041105392200e+00
1.999999999999932498e+01,3.000000005765337985e+00,9.999999999978294696e+00,6.600000000000291189e-01,1.570000000000134843e+00,2.869999999999991815e+03,-2.175000000000047784e+00,-4.945000000000428386e+00,1.465995997802705908e+01,-9.698385918380629800e-01
2.000000000000161293e+01,3.000000003434951434e+00,9.999999999985975663e+00,6.600000000009315082e-01,1.570000000000926210e+00,2.869999999999993179e+03,-2.175000000000733458e+00,-4.944999999996992912e+00,1.451133538795707345e+01,-1.392886106741304753e+00
2.000000000000473577e+01,3.000000002843550284e+00,1.000000000001323741e+01,6.600000000000221245e-01,1.569999999999697193e+00,2.870000000000001364e+03,-2.174999999999744471e+00,-4.944999999998919371e+00,1.441086479662534536e+01,-1.455075224808407786e+00
1.999999999999872102e+01,2.999999993767676454e+00,9.999999999964037656e+00,6.600000000011607693e-01,1.570000000001381846e+00,2.869999999999998636e+03,-2.175000000000985700e+00,-4.944999999996747775e+00,1.317823786223084781e+01,-2.246788853534994246e+00
1.999999999999725731e+01,2.999999996838630612e+00,9.999999999954374275e+00,6.600000000006913670e-01,1.570000000000961959e+00,2.869999999999979991e+03,-2.175000000000868017e+00,-4.944999999998629825e+00,1.468769694519825109e+01,-9.508443577138899760e-01
2.000000000000506262e+01,2.999999995076292336e+00,9.999999999953580243e+00,6.600000000002281819e-01,1.570000000000121076e+00,2.869999999999992269e+03,-2.175000000000715250e+00,-4.944999999999155627e+00,1.442196375298213518e+01,-1.477153350574857305e+00
2.000000000000322586e+01,2.999999992135764071e+00,9.999999999958784969e+00,6.600000000004733192e-01,1.570000000000456586e+00,2.869999999999989086e+03,-2.175000000000856026e+00,-4.944999999998609397e+00,1.450953483771071006e+01,-1.536526018707242702e+00
1.999999999999701217e+01,2.999999992293730600e+00,9.999999999941051598e+00,6.600000000011343460e-01,1.570000000001532836e+00,2.869999999999978172e+03,-2.175000000001348521e+00,-4.944999999997822471e+00,1.458399147859935319e+01,-1.344109361724671547e+00
2.000000000000343903e+01,2.999999992630192569e+00,9.999999999941065809e+00,6.600000000005652456e-01,1.570000000000633555e+00,2.869999999999984993e+03,-2.175000000001332534e+00,-4.944999999998597850e+00,1.478883048493892893e+01,-1.160578985188223555e+00
1.999999999999836930e+01,2.999999998066999130e+00,1.000000000000747669e+01,6.599999999988125365e-01,1.569999999998779483e+00,2.869999999999981810e+03,-2.174999999999179590e+00,-4.945000000003773266e+00,1.467268841194798057e+01,-1.129827549975042533e+00
1.999999999998951594e+01,2.999999996781605560e+00,1.000000000004029133e+01,6.600000000003655165e-01,1.570000000000838947e+00,2.869999999999971351e+03,-2.175000000000049560e+00,-4.945000000000320028e+00,1.426725006488184633e+01,-1.442040162851533358e+00
1.999999999998789590e+01,3.000000000089920071e+00,1.000000000000135536e+01,6.600000000016637003e-01,1.570000000002178098e+00,2.869999999999980901e+03,-2.175000000000606004e+00,-4.944999999996040785e+00,1.347417701254014055e+01,-2.550651805419143603e+00
1.999999999998262012e+01,3.000000001083817924e+00,9.999999999996655120e+00,6.600000000019740076e-01,1.570000000002760299e+00,2.869999999999974534e+03,-2.175000000000577138e+00,-4.944999999995912887e+00,1.340131977720213641e+01,-2.456994489323371056e+00
1.999999999998951239e+01,3.000000000601023231e+00,1.000000000002631140e+01,6.600000000000836309e-01,1.570000000000346452e+00,2.869999999999984084e+03,-2.174999999999292388e+00,-4.945000000000193907e+00,1.372494420952320127e+01,-2.183150332555898299e+00
1.999999999998759392e+01,2.999999999005632745e+00,1.000000000001162093e+01,6.600000000012637980e-01,1.570000000001805951e+00,2.869999999999983629e+03,-2.175000000000333333e+00,-4.944999999997406803e+00,1.358777648288718964e+01,-2.439059453832403968e+00
1.999999999999367262e+01,3.000000000192912353e+00,1.000000000003468159e+01,6.600000000002543832e-01,1.570000000000352447e+00,2.869999999999994998e+03,-2.174999999999550848e+00,-4.944999999999206253e+00,1.362963397162066848e+01,-2.369917490489366507e+00
1.999999999998410871e+01,3.000000002361951079e+00,9.999999999995475619e+00,6.600000000004664358e-01,1.570000000001082530e+00,2.869999999999974989e+03,-2.174999999999657874e+00,-4.945000000000108642e+00,1.378971834708992183e+01,-2.050650652273806607e+00
1.999999999998571099e+01,2.999999999437047649e+00,9.999999999982774668e+00,6.600000000008472423e-01,1.570000000001506413e+00,2.869999999999980901e+03,-2.175000000000153033e+00,-4.944999999999042828e+00,1.333725190645843561e+01,-2.655887542586343741e+00
1.999999999999543121e+01,3.000000000804589728e+00,9.999999999971509013e+00,6.599999999997563371e-01,1.569999999999805995e+00,2.869999999999985448e+03,-2.174999999999364331e+00,-4.945000000000818297e+00,1.416953345249731555e+01,-1.461122029135336842e+00
