2.000000000002223288e+01,3.000000004580097634e+00,9.999999999987812416e+00,6.599999999991134070e-01,1.569999999998234586e+00,2.870000000000010914e+03,-2.175000000000032685e+00,-4.945000000000423057e+00,1.328206947662738102e+01,-2.019783475697159325e+00
2.000000000000159162e+01,3.000000003512161229e+00,9.999999999996019184e+00,6.599999999985033394e-01,1.569999999998112017e+00,2.870000000000000000e+03,-2.174999999998526334e+00,-4.945000000003201279e+00,1.312275427424329877e+01,-2.149428257084071259e+00
1.999999999999021583e+01,3.000000003800111781e+00,9.999999999989849897e+00,6.599999999985713961e-01,1.569999999998541673e+00,2.869999999999989086e+03,-2.174999999998219025e+00,-4.945000000003738627e+00,1.293018507129781725e+01,-2.186421535766335911e+00
1.999999999999239364e+01,3.000000002061057103e+00,9.999999999969224618e+00,6.600000000002286260e-01,1.570000000000520313e+00,2.869999999999985903e+03,-2.174999999999988276e+00,-4.944999999999902585e+00,1.342625235504334036e+01,-2.019061637881601090e+00
1.999999999999850431e+01,3.000000005787540669e+00,9.999999999966906472e+00,6.599999999997424593e-01,1.569999999999813101e+00,2.869999999999985448e+03,-2.174999999999977618e+00,-4.945000000000873364e+00,1.317674722499806528e+01,-2.047227075842949606e+00
1.999999999999825206e+01,3.000000003560063799e+00,9.999999999972217779e+00,6.599999999989309973e-01,1.569999999998808349e+00,2.869999999999989086e+03,-2.174999999999030376e+00,-4.945000000002776730e+00,1.330525871168194740e+01,-2.078888064358153098e+00
1.999999999999975486e+01,3.000000002575227587e+00,9.999999999987986499e+00,6.599999999989776267e-01,1.569999999998709095e+00,2.869999999999994543e+03,-2.174999999998908251e+00,-4.945000000002190532e+00,1.347001108810281700e+01,-1.931764634727829222e+00
1.999999999999143796e+01,3.000000003103322932e+00,9.999999999977900345e+00,6.599999999999182076e-01,1.570000000000175033e+00,2.869999999999982720e+03,-2.174999999999676525e+00,-4.945000000000771223e+00,1.365152024454161506e+01,-1.778027868749724849e+00
2.000000000000149925e+01,3.000000003209445598e+00,9.999999999964730435e+00,6.599999999995085354e-01,1.569999999999359019e+00,2.869999999999988177e+03,-2.174999999999789324e+00,-4.945000000000931983e+00,1.362788054342684418e+01,-1.656626786516429473e+00
2.000000000000290612e+01,3.000000001714011599e+00,9.999999999987013055e+00,6.599999999995386224e-01,1.569999999999205587e+00,2.869999999999997726e+03,-2.174999999999517986e+00,-4.945000000000263185e+00,1.377788270268176340e+01,-1.587115571096134214e+00
1.999999999998918554e+01,3.000000003251905856e+00,1.000000000000983746e+01,6.599999999987449240e-01,1.569999999998710871e+00,2.869999999999989086e+03,-2.174999999998117772e+00,-4.945000000003328289e+00,1.341523329140806631e+01,-1.915638013642983806e+00
2.000000000000234124e+01,3.000000002918680853e+00,9.999999999980289545e+00,6.599999999995109778e-01,1.569999999999211582e+00,2.869999999999998636e+03,-2.174999999999489564e+00,-4.945000000000425722e+00,1.356670344830946107e+01,-1.833250318296459902e+00
2.000000000000598988e+01,3.000000002524640941e+00,9.999999999996514788e+00,6.599999999994726751e-01,1.569999999999018625e+00,2.870000000000002274e+03,-2.174999999999422950e+00,-4.945000000000158380e+00,1.369894307043476545e+01,-1.754338133856929272e+00
2.000000000000572342e+01,2.999999995682047338e+00,9.999999999936465045e+00,6.600000000007929524e-01,1.570000000000685736e+00,2.870000000000001819e+03,-2.175000000000935962e+00,-4.944999999997198081e+00,1.460784162294546640e+01,-1.306310492614574104e+00
1.999999999999552713e+01,2.999999996739019625e+00,9.999999999967153386e+00,6.599999999998136246e-01,1.569999999999773355e+00,2.869999999999997272e+03,-2.174999999999419398e+00,-4.945000000000120188e+00,1.445869797185379646e+01,-1.340066919496833320e+00
1.999999999997871925e+01,2.999999993125067377e+00,1.000000000000721379e+01,6.599999999988643840e-01,1.569999999999085905e+00,2.869999999999989541e+03,-2.174999999997539568e+00,-4.945000000003412666e+00,1.464543438554770560e+01,-1.163355639640027306e+00
2.000000000000247624e+01,2.999999996078084763e+00,9.999999999971294073e+00,6.599999999998876765e-01,1.569999999999650786e+00,2.870000000000001364e+03,-2.174999999999740918e+00,-4.944999999999518003e+00,1.428240713803820405e+01,-1.501643496300676173e+00
1.999999999999328182e+01,2.999999995441316347e+00,1.000000000001710454e+01,6.599999999989921706e-01,1.569999999998776596e+00,2.870000000000002728e+03,-2.174999999998100897e+00,-4.945000000002188756e+00,1.447982760268381064e+01,-1.482454677191956449e+00
2.000000000001385558e+01,3.000000003649845315e+00,9.999999999974011899e+00,6.600000000005975531e-01,1.570000000000179474e+00,2.870000000000007276e+03,-2.175000000000998135e+00,-4.944999999997125251e+00,1.464728776565406498e+01,-1.096704002956988555e+00
2.000000000000117595e+01,2.999999999329550526e+00,9.999999999982671639e+00,6.599999999995116440e-01,1.569999999999311946e+00,2.869999999999996362e+03,-2.174999999999609468e+00,-4.945000000000653984e+00,1.431909073025994239e+01,-1.032236762511605344e+00
2.000000000000589040e+01,2.999999996296871974e+00,9.999999999946767915e+00,6.600000000006347456e-01,1.570000000000484341e+00,2.869999999999994088e+03,-2.175000000001078959e+00,-4.944999999997350848e+00,1.474669090365871682e+01,-5.621576043516927079e-01
2.000000000000733635e+01,3.000000000118427934e+00,9.999999999939197082e+00,6.600000000006658318e-01,1.570000000000525420e+00,2.869999999999995453e+03,-2.175000000001075406e+00,-4.944999999997532925e+00,1.388684622098476495e+01,-1.620181829471538659e+00
2.000000000001126566e+01,2.999999996291605076e+00,1.000000000000947331e+01,6.599999999992950395e-01,1.569999999998687334e+00,2.870000000000005912e+03,-2.174999999999542855e+00,-4.945000000000413287e+00,1.402854902984133467e+01,-1.385521437713284509e+00
2.000000000000299494e+01,2.999999996329588914e+00,1.000000000002133937e+01,6.599999999993755306e-01,1.569999999999083684e+00,2.870000000000000000e+03,-2.174999999999308375e+00,-4.945000000001081197e+00,1.397096493992810018e+01,-1.474633547792250754e+00
2.000000000000666844e+01,2.999999996076434527e+00,1.000000000001631584e+01,6.599999999994413669e-01,1.569999999999005746e+00,2.870000000000003183e+03,-2.174999999999417177e+00,-4.945000000000487894e+00,1.413995024320644589e+01,-1.429201895726408322e+00
2.000000000000191847e+01,2.999999997735130819e+00,1.000000000002263079e+01,6.599999999992798294e-01,1.569999999998954898e+00,2.869999999999998181e+03,-2.174999999999172928e+00,-4.945000000001136264e+00,1.386910918657925507e+01,-1.427260492513190870e+00
