2.000000000000670042e+01,3.000000004851182123e+00,1.000000000001785061e+01,6.599999999990563415e-01,1.569999999998699769e+00,2.870000000000001364e+03,-2.174999999999567724e+00,-4.945000000002108820e+00,1.401242149537667636e+01,-1.389086264185551922e+00
1.999999999999936406e+01,3.000000005330598629e+00,1.000000000005963585e+01,6.599999999988270805e-01,1.569999999998575868e+00,2.869999999999998636e+03,-2.174999999998500577e+00,-4.945000000002940155e+00,1.400291175456844250e+01,-1.463568044081159147e+00
2.000000000000033751e+01,3.000000005444458218e+00,1.000000000005533529e+01,6.599999999989466515e-01,1.569999999998692664e+00,2.870000000000000455e+03,-2.174999999998711075e+00,-4.945000000002612417e+00,1.414412848896548880e+01,-1.338662564235507668e+00
2.000000000000257572e+01,3.000000002127332532e+00,1.000000000010509993e+01,6.599999999988593880e-01,1.569999999998613394e+00,2.869999999999983174e+03,-2.174999999999081002e+00,-4.945000000003069829e+00,1.397677580332130276e+01,-1.633104652444094418e+00
1.999999999999695532e+01,3.000000004422224364e+00,1.000000000008447820e+01,6.600000000004132561e-01,1.570000000000545182e+00,2.869999999999985903e+03,-2.175000000000234301e+00,-4.944999999999208029e+00,1.434119585047082523e+01,-1.262726195521956862e+00
1.999999999999595701e+01,3.000000004734516779e+00,1.000000000004372502e+01,6.600000000005465939e-01,1.570000000000740137e+00,2.869999999999985903e+03,-2.175000000000294698e+00,-4.944999999998866080e+00,1.448219939740597084e+01,-1.096607010159331042e+00
2.000000000000961009e+01,2.999999998618282149e+00,9.999999999993510968e+00,6.599999999990278088e-01,1.569999999998516804e+00,2.869999999999993634e+03,-2.174999999999623235e+00,-4.945000000001622986e+00,1.346719273482673707e+01,-2.315805630295274753e+00
2.000000000000979838e+01,2.999999997874580160e+00,9.999999999996010303e+00,6.599999999990384669e-01,1.569999999998519691e+00,2.869999999999994543e+03,-2.174999999999625455e+00,-4.945000000001566143e+00,1.348073868773017736e+01,-2.313639979268388824e+00
2.000000000000044409e+01,2.999999999691244312e+00,9.999999999942742690e+00,6.600000000008651169e-01,1.570000000000955076e+00,2.870000000000000000e+03,-2.175000000000843148e+00,-4.944999999997396145e+00,1.342760042422588107e+01,-2.032470864436617397e+00
1.999999999999770850e+01,3.000000005206807874e+00,9.999999999971382891e+00,6.600000000006844836e-01,1.570000000000850937e+00,2.869999999999988177e+03,-2.175000000000606448e+00,-4.944999999998095142e+00,1.327014488894820410e+01,-2.071093424461869503e+00
2.000000000000198597e+01,2.999999999531869577e+00,1.000000000001821299e+01,6.600000000002552714e-01,1.570000000000242313e+00,2.869999999999991360e+03,-2.175000000000518074e+00,-4.944999999999389217e+00,1.445948338687265355e+01,-1.054139892657891098e+00
2.000000000000255795e+01,3.000000000891174690e+00,1.000000000001274181e+01,6.600000000000525446e-01,1.569999999999973195e+00,2.869999999999997272e+03,-2.175000000000204992e+00,-4.944999999999670770e+00,1.414337750069415556e+01,-1.365458667690421013e+00
2.000000000000285993e+01,3.000000001166025054e+00,9.999999999993232080e+00,6.600000000000987299e-01,1.570000000000003837e+00,2.870000000000000455e+03,-2.175000000000209877e+00,-4.944999999999480700e+00,1.419342040694239060e+01,-1.284741128714436798e+00
1.999999999999912248e+01,2.999999999235730463e+00,9.999999999965961450e+00,6.599999999991867927e-01,1.569999999998999085e+00,2.869999999999997272e+03,-2.174999999998968203e+00,-4.945000000001836149e+00,1.404313310969241080e+01,-1.609115364037328133e+00
2.000000000001365663e+01,2.999999996350334541e+00,1.000000000000142641e+01,6.600000000001386979e-01,1.569999999999809326e+00,2.870000000000008640e+03,-2.175000000001194866e+00,-4.944999999999022400e+00,1.410316109362608650e+01,-1.391818690308432194e+00
2.000000000001433875e+01,2.999999994335479592e+00,1.000000000001261924e+01,6.599999999985437515e-01,1.569999999997822471e+00,2.870000000000000909e+03,-2.174999999999447819e+00,-4.945000000002864660e+00,1.398071335456728548e+01,-1.545531816760743249e+00
2.000000000001288214e+01,2.999999993516679897e+00,1.000000000002380673e+01,6.599999999986423393e-01,1.569999999997986118e+00,2.869999999999998181e+03,-2.174999999999467359e+00,-4.945000000002733209e+00,1.407057289856907190e+01,-1.455289322124560192e+00
2.000000000001443468e+01,2.999999996838456973e+00,9.999999999861943323e+00,6.600000000006457368e-01,1.570000000000385532e+00,2.870000000000002728e+03,-2.175000000001960920e+00,-4.944999999997995666e+00,1.503862697531843118e+01,-4.043011121446079548e-01
2.000000000001475087e+01,2.999999997944197361e+00,9.999999999858346200e+00,6.600000000006889245e-01,1.570000000000429496e+00,2.870000000000001819e+03,-2.175000000002052403e+00,-4.944999999997880202e+00,1.504633575277667212e+01,-4.637459241933471477e-01
2.000000000001448797e+01,2.999999995330667080e+00,9.999999999865268663e+00,6.600000000007609779e-01,1.570000000000547846e+00,2.870000000000001364e+03,-2.175000000002171419e+00,-4.944999999997719442e+00,1.492126930568604237e+01,-5.895481250627725434e-01
2.000000000001442046e+01,2.999999995541033471e+00,9.999999999867766221e+00,6.600000000005938894e-01,1.570000000000337126e+00,2.870000000000000909e+03,-2.175000000001930722e+00,-4.944999999998098694e+00,1.495293582598628568e+01,-5.939451009705341011e-01
2.000000000001013589e+01,2.999999996787091394e+00,9.999999999930411221e+00,6.599999999996831734e-01,1.569999999999313500e+00,2.870000000000003638e+03,-2.175000000000417266e+00,-4.945000000000109530e+00,1.460531513431812378e+01,-9.010349310786721633e-01
2.000000000000528289e+01,2.999999997824796871e+00,9.999999999966124875e+00,6.599999999999469624e-01,1.569999999999771800e+00,2.869999999999999545e+03,-2.175000000000344880e+00,-4.944999999999733831e+00,1.455105468790532619e+01,-1.033264908018505457e+00
2.000000000000692779e+01,2.999999997158249609e+00,9.999999999954019003e+00,6.599999999999903721e-01,1.569999999999787565e+00,2.870000000000000455e+03,-2.175000000000574030e+00,-4.944999999999588169e+00,1.459451523121520822e+01,-1.026951896738764747e+00
2.000000000000240519e+01,2.999999993106187368e+00,1.000000000004573231e+01,6.599999999997483435e-01,1.569999999999640794e+00,2.869999999999999545e+03,-2.174999999999978506e+00,-4.945000000000424834e+00,1.319656020734772461e+01,-2.398679530227822987e+00
2.000000000000066791e+01,3.000000001526897275e+00,1.000000000002849809e+01,6.599999999995914690e-01,1.569999999999437179e+00,2.869999999999997272e+03,-2.174999999999314149e+00,-4.945000000000884022e+00,1.341614556145720272e+01,-2.431553791059716030e+00
2.000000000000590461e+01,3.000000001916395043e+00,9.999999999980673238e+00,6.600000000004919709e-01,1.570000000000402185e+00,2.870000000000000909e+03,-2.175000000000824940e+00,-4.944999999998338502e+00,1.330647823606730640e+01,-2.484980944000789282e+00
2.000000000000547118e+01,3.000000002454898063e+00,9.999999999996859401e+00,6.600000000006633893e-01,1.570000000000590701e+00,2.870000000000003638e+03,-2.175000000000854250e+00,-4.944999999997748752e+00,1.310334524071685181e+01,-2.684280906318350812e+00
1.999999999999162981e+01,3.000000003320189457e+00,9.999999999963348429e+00,6.600000000002085310e-01,1.570000000000502105e+00,2.869999999999993179e+03,-2.174999999999663647e+00,-4.944999999999992291e+00,1.430852448663477716e+01,-8.637793993647425728e-01
1.999999999999770139e+01,3.000000003873386056e+00,9.999999999969761078e+00,6.599999999999827116e-01,1.570000000000058016e+00,2.869999999999994543e+03,-2.174999999999970512e+00,-4.945000000000352003e+00,1.424635807984891578e+01,-8.980789627016585452e-01
1.999999999999618794e+01,3.000000000445895321e+00,9.999999999987565502e+00,6.600000000002143041e-01,1.570000000000346452e+00,2.870000000000002274e+03,-2.174999999999740474e+00,-4.944999999999841300e+00,1.408120940223072459e+01,-1.203597672039990574e+00
2.000000000000574119e+01,3.000000000183085547e+00,9.999999999954853891e+00,6.600000000004706546e-01,1.570000000000425056e+00,2.870000000000005002e+03,-2.175000000000954614e+00,-4.944999999998744400e+00,1.435816292226810731e+01,-1.001288019016941755e+00
2.000000000000577671e+01,3.000000000176199055e+00,9.999999999956514785e+00,6.600000000003759526e-01,1.570000000000301377e+00,2.870000000000006821e+03,-2.175000000000798295e+00,-4.944999999998925588e+00,1.430010174741961215e+01,-1.023409697505729188e+00
1.999999999999331379e+01,2.999999999742262169e+00,1.000000000002595257e+01,6.599999999982791854e-01,1.569999999998077156e+00,2.869999999999986812e+03,-2.174999999997350830e+00,-4.945000000004544205e+00,1.430381200189194679e+01,-1.099044420019421597e+00
1.999999999999044675e+01,3.000000000517148102e+00,1.000000000002938627e+01,6.599999999983808818e-01,1.569999999998284990e+00,2.869999999999982265e+03,-2.174999999997257571e+00,-4.945000000004453611e+00,1.417034027484626080e+01,-1.343567520007914018e+00
1.999999999999092992e+01,3.000000000813400902e+00,1.000000000002923706e+01,6.599999999983000576e-01,1.569999999998177076e+00,2.869999999999983629e+03,-2.174999999997211386e+00,-4.945000000004658780e+00,1.421911444131280433e+01,-1.330381050904749562e+00
1.999999999999622702e+01,3.000000006970429123e+00,1.000000000001516298e+01,6.600000000008541257e-01,1.570000000001028129e+00,2.869999999999998181e+03,-2.175000000000234301e+00,-4.944999999997427231e+00,1.404165557703102074e+01,-1.210380533394646685e+00
1.999999999999590372e+01,3.000000000737720107e+00,1.000000000002272138e+01,6.600000000005815659e-01,1.570000000000743690e+00,2.869999999999997726e+03,-2.175000000000383515e+00,-4.944999999998485052e+00,1.371112990450481917e+01,-1.953446024655093094e+00
2.000000000000805045e+01,3.000000001092774315e+00,1.000000000001215561e+01,6.600000000003739542e-01,1.570000000000176144e+00,2.870000000000000000e+03,-2.175000000001042544e+00,-4.944999999998509033e+00,1.439465164093259908e+01,-1.323182481050414694e+00
2.000000000000759570e+01,3.000000002837987623e+00,1.000000000001571365e+01,6.600000000005682432e-01,1.570000000000404627e+00,2.870000000000000909e+03,-2.175000000001146905e+00,-4.944999999997964579e+00,1.442447926090263266e+01,-1.279470653897411658e+00
1.999999999999936762e+01,2.999999996396557567e+00,9.999999999957653429e+00,6.600000000006042145e-01,1.570000000000747686e+00,2.869999999999995907e+03,-2.175000000000708589e+00,-4.944999999998726636e+00,1.450982832337509265e+01,-1.362946335282041677e+00
1.999999999999807443e+01,2.999999996241212497e+00,9.999999999946451723e+00,6.600000000004910827e-01,1.570000000000663753e+00,2.869999999999994088e+03,-2.175000000000516298e+00,-4.944999999999066809e+00,1.456744503864607765e+01,-1.235135779632827946e+00
1.999999999999702283e+01,2.999999999086890856e+00,9.999999999974166442e+00,6.600000000021073454e-01,1.570000000002582219e+00,2.869999999999994088e+03,-2.175000000002088818e+00,-4.944999999994769802e+00,1.438523311968703311e+01,-1.463394420655400152e+00
2.000000000000590461e+01,3.000000006730967339e+00,9.999999999924110483e+00,6.599999999999466294e-01,1.569999999999756257e+00,2.870000000000005002e+03,-2.175000000000171241e+00,-4.944999999999771134e+00,1.426740185007159845e+01,-1.208243734935081193e+00
1.999999999999392131e+01,3.000000009583249749e+00,9.999999999965201170e+00,6.599999999994484723e-01,1.569999999999451390e+00,2.870000000000000455e+03,-2.174999999998410871e+00,-4.945000000001531504e+00,1.420890314441268032e+01,-1.142965867139180469e+00
1.999999999999314326e+01,2.999999999463183187e+00,9.999999999898236069e+00,6.599999999996664091e-01,1.569999999999767804e+00,2.869999999999994543e+03,-2.174999999999305711e+00,-4.945000000001520846e+00,1.340918292955068836e+01,-2.280209704063699938e+00
2.000000000000328271e+01,2.999999996542463965e+00,9.999999999804517259e+00,6.599999999993355626e-01,1.569999999999111662e+00,2.870000000000005002e+03,-2.174999999999592148e+00,-4.945000000001842366e+00,1.410385227747343961e+01,-1.510705675484751209e+00
2.000000000000954259e+01,3.000000005359050093e+00,9.999999999986993515e+00,6.599999999997046007e-01,1.569999999999315055e+00,2.870000000000000000e+03,-2.175000000000340883e+00,-4.945000000000234763e+00,1.491403309191228033e+01,-9.165971195252549109e-01
2.000000000000847677e+01,3.000000004868242254e+00,9.999999999965929476e+00,6.599999999997410161e-01,1.569999999999425855e+00,2.869999999999999091e+03,-2.175000000000347988e+00,-4.945000000000099760e+00,1.453670771772894987e+01,-1.238087374008519426e+00
2.000000000000634159e+01,3.000000004828611733e+00,9.999999999984977350e+00,6.599999999998243938e-01,1.569999999999578399e+00,2.869999999999997272e+03,-2.175000000000235190e+00,-4.944999999999972751e+00,1.453101077381602657e+01,-1.236026456415982633e+00
2.000000000000333955e+01,2.999999999970220710e+00,9.999999999973825382e+00,6.600000000001150502e-01,1.570000000000000728e+00,2.869999999999999545e+03,-2.175000000000322231e+00,-4.944999999999357243e+00,1.433349623902948444e+01,-1.505497539807470586e+00
1.999999999999885247e+01,3.000000001708128305e+00,9.999999999975155873e+00,6.599999999995244115e-01,1.569999999999472706e+00,2.869999999999995907e+03,-2.174999999999475353e+00,-4.945000000001232188e+00,1.422904740394524659e+01,-1.526009906260457960e+00
1.999999999999711520e+01,3.000000002228394358e+00,9.999999999987393196e+00,6.599999999995157518e-01,1.569999999999516449e+00,2.869999999999993179e+03,-2.174999999999355893e+00,-4.945000000001361862e+00,1.413187019046421256e+01,-1.654937559456985507e+00
2.000000000000137490e+01,2.999999992252872172e+00,9.999999999979806375e+00,6.600000000005228351e-01,1.570000000000542073e+00,2.870000000000004093e+03,-2.175000000000536726e+00,-4.944999999998112017e+00,1.323192777398262265e+01,-2.240924621370401937e+00
2.000000000000504130e+01,2.999999995766187144e+00,9.999999999982897236e+00,6.600000000005011858e-01,1.570000000000451479e+00,2.870000000000004547e+03,-2.175000000000888445e+00,-4.944999999998177742e+00,1.330539463147630030e+01,-2.248460085695769717e+00
1.999999999999852562e+01,2.999999999230917425e+00,9.999999999989496402e+00,6.600000000009141887e-01,1.570000000001170903e+00,2.869999999999986358e+03,-2.175000000001103828e+00,-4.944999999997947704e+00,1.448094510074902530e+01,-1.233790078314340288e+00
1.999999999999814193e+01,2.999999997311025624e+00,9.999999999969224618e+00,6.600000000007784084e-01,1.570000000001037010e+00,2.869999999999982265e+03,-2.175000000001043876e+00,-4.944999999998438867e+00,1.450485611470052838e+01,-1.175199198052645277e+00
2.000000000000308731e+01,2.999999997533437046e+00,9.999999999982104981e+00,6.600000000006830403e-01,1.570000000000810303e+00,2.869999999999991360e+03,-2.175000000001433786e+00,-4.944999999998586304e+00,1.438432578439587495e+01,-1.353144050654540909e+00
2.000000000000316902e+01,2.999999997219056080e+00,9.999999999995925037e+00,6.599999999998521494e-01,1.569999999999772022e+00,2.869999999999987267e+03,-2.175000000000384404e+00,-4.945000000000334239e+00,1.443305967833557091e+01,-1.363860377006569147e+00
1.999999999999338129e+01,2.999999997449570799e+00,1.000000000004717116e+01,6.599999999992743893e-01,1.569999999999323270e+00,2.869999999999979082e+03,-2.174999999998826983e+00,-4.945000000002283791e+00,1.449580737405052844e+01,-1.336218441034107807e+00
1.999999999999501910e+01,2.999999996954411774e+00,1.000000000003566925e+01,6.599999999992484101e-01,1.569999999999237117e+00,2.869999999999982265e+03,-2.174999999998883382e+00,-4.945000000002193197e+00,1.438538376019996612e+01,-1.418874753718001980e+00
1.999999999999310418e+01,2.999999997368034244e+00,1.000000000006108181e+01,6.599999999995415090e-01,1.569999999999670326e+00,2.869999999999978627e+03,-2.174999999999111200e+00,-4.945000000002019114e+00,1.448021582791134598e+01,-1.295123166220645938e+00
1.999999999999824141e+01,2.999999998680531466e+00,1.000000000006577849e+01,6.599999999997878675e-01,1.569999999999858842e+00,2.869999999999984993e+03,-2.174999999999869704e+00,-4.945000000001042118e+00,1.408603720733584730e+01,-1.672485816922084867e+00
1.999999999999010569e+01,3.000000003971040829e+00,1.000000000002876455e+01,6.600000000000226796e-01,1.570000000000369544e+00,2.869999999999983174e+03,-2.174999999999494893e+00,-4.945000000000674412e+00,1.300687201676046456e+01,-2.710160547693834854e+00
1.999999999999013411e+01,3.000000000360051100e+00,9.999999999996953548e+00,6.600000000005201706e-01,1.570000000000892237e+00,2.869999999999986358e+03,-2.174999999999914557e+00,-4.944999999999228457e+00,1.346193499502106228e+01,-2.451482395037046125e+00
1.999999999999644018e+01,3.000000002358635065e+00,1.000000000002010303e+01,6.599999999996863931e-01,1.569999999999755813e+00,2.869999999999984993e+03,-2.174999999999519318e+00,-4.945000000001257945e+00,1.435501762843090567e+01,-1.309319377284296371e+00
1.999999999999816680e+01,3.000000002121672171e+00,9.999999999986711074e+00,6.599999999994971001e-01,1.569999999999439400e+00,2.869999999999990450e+03,-2.174999999999285727e+00,-4.945000000001513740e+00,1.446529143096300807e+01,-1.232959988876885848e+00
1.999999999999909761e+01,3.000000004797087616e+00,1.000000000002224176e+01,6.599999999997814282e-01,1.569999999999760476e+00,2.869999999999994998e+03,-2.174999999999651212e+00,-4.945000000000617568e+00,1.398779211672550638e+01,-1.743035119323614657e+00
