2.000000000000458655e+01,2.999999995790229246e+00,9.999999999916589388e+00,6.600000000019338176e-01,1.570000000002203411e+00,2.869999999999986812e+03,-2.175000000002416112e+00,-4.944999999994864837e+00,1.450303870512295035e+01,-1.308155687248260479e+00
2.000000000000465050e+01,2.999999995441771539e+00,9.999999999928494532e+00,6.600000000015445734e-01,1.570000000001579910e+00,2.869999999999999545e+03,-2.175000000001863665e+00,-4.944999999995658868e+00,1.453900744349789598e+01,-1.284414960132493455e+00
2.000000000000808953e+01,2.999999995537665498e+00,9.999999999924662930e+00,6.600000000015784352e-01,1.570000000001589235e+00,2.869999999999992269e+03,-2.175000000002122569e+00,-4.944999999996033679e+00,1.452237173833955985e+01,-1.296608494187772687e+00
2.000000000000284217e+01,2.999999995847810297e+00,9.999999999905494263e+00,6.600000000023878988e-01,1.570000000002870211e+00,2.869999999999987722e+03,-2.175000000002932588e+00,-4.944999999993791917e+00,1.448349399669117332e+01,-1.322338520292453579e+00
2.000000000000564526e+01,2.999999995658304996e+00,9.999999999919392479e+00,6.600000000018466650e-01,1.570000000002071516e+00,2.869999999999989996e+03,-2.175000000002373035e+00,-4.944999999995077111e+00,1.451065893439899845e+01,-1.304364722405478405e+00
2.000000000000169820e+01,2.999999995599109681e+00,9.999999999914971127e+00,6.600000000020529445e-01,1.570000000002254925e+00,2.869999999999989541e+03,-2.175000000002309086e+00,-4.944999999994319495e+00,1.451677482691646581e+01,-1.300195442291720793e+00
2.000000000000224176e+01,2.999999996160223503e+00,9.999999999888229851e+00,6.600000000030671332e-01,1.570000000003802132e+00,2.869999999999975444e+03,-2.175000000003809220e+00,-4.944999999993085815e+00,1.445190092816812388e+01,-1.342554677315047407e+00
2.000000000001181988e+01,2.999999995411965159e+00,9.999999999942637885e+00,6.600000000008575674e-01,1.570000000000719043e+00,2.869999999999990450e+03,-2.175000000001473754e+00,-4.944999999997329532e+00,1.454069605260173681e+01,-1.283918711773518018e+00
2.000000000000786926e+01,2.999999995584840207e+00,9.999999999921440619e+00,6.600000000017268720e-01,1.570000000002052198e+00,2.869999999999983629e+03,-2.175000000002425882e+00,-4.944999999995414619e+00,1.451699411792434802e+01,-1.300580931989047118e+00
2.000000000000714095e+01,2.999999995763058980e+00,9.999999999910667015e+00,6.600000000021087887e-01,1.570000000002386820e+00,2.869999999999974079e+03,-2.175000000002789591e+00,-4.944999999995088658e+00,1.449247572246293103e+01,-1.316288212024614879e+00
2.000000000000926903e+01,2.999999995733190428e+00,9.999999999909107373e+00,6.600000000020911362e-01,1.570000000002395923e+00,2.869999999999974989e+03,-2.175000000002927703e+00,-4.944999999995302709e+00,1.449255041212674833e+01,-1.317251053998756083e+00
2.000000000000501998e+01,2.999999995775857631e+00,9.999999999901438841e+00,6.600000000025800784e-01,1.570000000003154206e+00,2.869999999999979082e+03,-2.175000000003372236e+00,-4.944999999994331930e+00,1.449349259258836398e+01,-1.315715517193786654e+00
2.000000000000601119e+01,2.999999995463427993e+00,9.999999999914292559e+00,6.600000000020436186e-01,1.570000000002204299e+00,2.869999999999980901e+03,-2.175000000002580869e+00,-4.944999999995235207e+00,1.452434441196477799e+01,-1.296399579233269428e+00
2.000000000000684608e+01,2.999999995170541833e+00,9.999999999894811253e+00,6.600000000027312907e-01,1.570000000003446639e+00,2.869999999999977263e+03,-2.175000000003665335e+00,-4.944999999993316742e+00,1.452378871098048840e+01,-1.303815071914210533e+00
2.000000000000819256e+01,2.999999995690981969e+00,9.999999999929659822e+00,6.600000000013865886e-01,1.570000000001491314e+00,2.869999999999996817e+03,-2.175000000001986233e+00,-4.944999999996147366e+00,1.450560596413284031e+01,-1.305520414745712454e+00
2.000000000000625633e+01,2.999999995809109254e+00,9.999999999932153827e+00,6.600000000012765655e-01,1.570000000001281926e+00,2.869999999999988177e+03,-2.175000000001647837e+00,-4.944999999995994600e+00,1.449986242730666319e+01,-1.307571120937573106e+00
2.000000000000678213e+01,2.999999995722704149e+00,9.999999999925810457e+00,6.600000000015325829e-01,1.570000000001522844e+00,2.869999999999980446e+03,-2.175000000001946709e+00,-4.944999999995851603e+00,1.450916089376813645e+01,-1.303590992830948370e+00
2.000000000000727596e+01,2.999999995714689671e+00,9.999999999939266360e+00,6.600000000010207701e-01,1.570000000000740581e+00,2.869999999999979991e+03,-2.175000000001244160e+00,-4.944999999996815276e+00,1.452319380786619796e+01,-1.292312683892297365e+00
2.000000000000956746e+01,2.999999995254285512e+00,9.999999999959060304e+00,6.600000000002200773e-01,1.569999999999743157e+00,2.870000000000004093e+03,-2.175000000000389733e+00,-4.944999999997857998e+00,1.455975848059436117e+01,-1.268558252521931662e+00
2.000000000001062972e+01,2.999999995150562704e+00,9.999999999937180917e+00,6.600000000010215473e-01,1.570000000000825402e+00,2.869999999999998636e+03,-2.175000000001520384e+00,-4.944999999996768203e+00,1.454692635574738269e+01,-1.281858834513490919e+00
2.000000000001282885e+01,2.999999995475918002e+00,9.999999999950427210e+00,6.600000000004357936e-01,1.569999999999904805e+00,2.869999999999997272e+03,-2.175000000000837375e+00,-4.944999999998115570e+00,1.453190466877493137e+01,-1.288485029737790777e+00
2.000000000000756017e+01,2.999999995892656646e+00,9.999999999930082595e+00,6.600000000013028778e-01,1.570000000001279927e+00,2.869999999999991815e+03,-2.175000000001737543e+00,-4.944999999996102957e+00,1.449347949413383674e+01,-1.312146232621061781e+00
2.000000000000914469e+01,2.999999995667632202e+00,9.999999999943225859e+00,6.600000000007554268e-01,1.570000000000476570e+00,2.870000000000000455e+03,-2.175000000001074962e+00,-4.944999999996961826e+00,1.451860447592597936e+01,-1.296103417603386321e+00
2.000000000001012523e+01,2.999999995735628477e+00,9.999999999933161021e+00,6.600000000011559953e-01,1.570000000001096518e+00,2.869999999999996362e+03,-2.175000000001732658e+00,-4.944999999996535500e+00,1.450604990038930886e+01,-1.305748936509731006e+00
2.000000000000562395e+01,2.999999996499614685e+00,9.999999999918555815e+00,6.600000000017892665e-01,1.570000000002289342e+00,2.869999999999989086e+03,-2.175000000002480505e+00,-4.944999999995192574e+00,1.444988219221443515e+01,-1.336880158348006331e+00
2.000000000000968470e+01,2.999999995325451696e+00,9.999999999939849005e+00,6.600000000008767742e-01,1.570000000000616014e+00,2.869999999999993179e+03,-2.175000000001238387e+00,-4.944999999996517737e+00,1.453447844387034849e+01,-1.290036969971890768e+00
2.000000000000266809e+01,2.999999995746302606e+00,9.999999999903490533e+00,6.600000000023339419e-01,1.570000000002745644e+00,2.869999999999979536e+03,-2.175000000002761169e+00,-4.944999999993263451e+00,1.448200678765354255e+01,-1.325596721150140711e+00
2.000000000000856204e+01,2.999999995022697430e+00,9.999999999943824491e+00,6.600000000007715251e-01,1.570000000000377538e+00,2.869999999999999091e+03,-2.175000000000952838e+00,-4.944999999996775308e+00,1.457800115746157310e+01,-1.261760325792978144e+00
2.000000000000324718e+01,2.999999995387971463e+00,9.999999999913587345e+00,6.600000000020941338e-01,1.570000000002297336e+00,2.869999999999978172e+03,-2.175000000002427658e+00,-4.944999999994434958e+00,1.452754833842587168e+01,-1.295065465300503593e+00
2.000000000000585842e+01,2.999999995319358348e+00,9.999999999930970773e+00,6.600000000013169776e-01,1.570000000001225970e+00,2.869999999999986358e+03,-2.175000000001560352e+00,-4.944999999995602025e+00,1.454223825907472722e+01,-1.284544885986634188e+00
2.000000000000665423e+01,2.999999995647799178e+00,9.999999999918301796e+00,6.600000000018056978e-01,1.570000000001864793e+00,2.869999999999983174e+03,-2.175000000002285550e+00,-4.944999999995246753e+00,1.450701999755711213e+01,-1.308014647963583243e+00
2.000000000000755307e+01,2.999999995840461064e+00,9.999999999904529702e+00,6.600000000023712454e-01,1.570000000002836904e+00,2.869999999999974534e+03,-2.175000000003232348e+00,-4.944999999994719175e+00,1.448255162481319935e+01,-1.324180748089601733e+00
2.000000000000713030e+01,2.999999995717156587e+00,9.999999999902392744e+00,6.600000000024733859e-01,1.570000000003100915e+00,2.869999999999980901e+03,-2.175000000003396661e+00,-4.944999999994302620e+00,1.449225004736659628e+01,-1.318692933274200119e+00
2.000000000000388667e+01,2.999999995545665321e+00,9.999999999880394341e+00,6.600000000033922065e-01,1.570000000004436957e+00,2.869999999999973625e+03,-2.175000000004424727e+00,-4.944999999992286455e+00,1.449040484868259426e+01,-1.324125548914980799e+00
2.000000000000359179e+01,2.999999995626891458e+00,9.999999999899038983e+00,6.600000000026715608e-01,1.570000000003318519e+00,2.869999999999983629e+03,-2.175000000003376233e+00,-4.944999999993638262e+00,1.450194231494097430e+01,-1.312011918634587770e+00
2.000000000001327649e+01,2.999999994889036348e+00,9.999999999968203213e+00,6.599999999998109601e-01,1.569999999999190265e+00,2.870000000000002728e+03,-2.175000000000093081e+00,-4.944999999998894502e+00,1.459895528160832257e+01,-1.244941064218537896e+00
2.000000000000719780e+01,2.999999995060353974e+00,9.999999999940053286e+00,6.600000000009462742e-01,1.570000000000877804e+00,2.869999999999997726e+03,-2.175000000001244160e+00,-4.944999999995880913e+00,1.456310895568691066e+01,-1.271497353004563013e+00
2.000000000001172751e+01,2.999999995101453543e+00,9.999999999953175234e+00,6.600000000003974909e-01,1.570000000000035367e+00,2.870000000000002274e+03,-2.175000000000800515e+00,-4.944999999997726547e+00,1.456892853189008719e+01,-1.265971573068886302e+00
2.000000000000917311e+01,2.999999995138825870e+00,9.999999999952162710e+00,6.600000000004553335e-01,1.570000000000288942e+00,2.870000000000002274e+03,-2.175000000000778311e+00,-4.944999999996919193e+00,1.456440938577110700e+01,-1.268278403659707454e+00
2.000000000001388401e+01,2.999999994859135377e+00,9.999999999975186071e+00,6.599999999995364020e-01,1.569999999998740847e+00,2.870000000000001364e+03,-2.174999999999724487e+00,-4.944999999999417639e+00,1.460430456702034085e+01,-1.241156571066222458e+00
2.000000000000979838e+01,2.999999995221868776e+00,9.999999999954990670e+00,6.600000000003324319e-01,1.569999999999979634e+00,2.870000000000000909e+03,-2.175000000000584688e+00,-4.944999999997450324e+00,1.456722999904759597e+01,-1.265657766243243110e+00
2.000000000000719780e+01,2.999999995043751255e+00,9.999999999945247353e+00,6.600000000007972822e-01,1.570000000000394635e+00,2.869999999999992724e+03,-2.175000000000895550e+00,-4.944999999996776197e+00,1.457363924702471003e+01,-1.263448371840043993e+00
2.000000000001087841e+01,2.999999995152972332e+00,9.999999999973434583e+00,6.599999999996349898e-01,1.569999999998830331e+00,2.870000000000003638e+03,-2.174999999999635225e+00,-4.944999999999033946e+00,1.458596611409684485e+01,-1.250528549149440227e+00
2.000000000000827072e+01,2.999999995707711697e+00,9.999999999943478102e+00,6.600000000008849899e-01,1.570000000000645990e+00,2.869999999999999545e+03,-2.175000000001232614e+00,-4.944999999997179430e+00,1.452501497061590818e+01,-1.290600983140212543e+00
2.000000000000798650e+01,2.999999995265522745e+00,9.999999999940243356e+00,6.600000000009255130e-01,1.570000000000686180e+00,2.869999999999990905e+03,-2.175000000001186873e+00,-4.944999999996430695e+00,1.455351922069979054e+01,-1.276878433240647981e+00
2.000000000000973088e+01,2.999999995368471950e+00,9.999999999955829111e+00,6.600000000003216627e-01,1.569999999999930118e+00,2.870000000000000000e+03,-2.175000000000574030e+00,-4.944999999997633289e+00,1.455748167021174311e+01,-1.271062646915694483e+00
2.000000000000765610e+01,2.999999995641371431e+00,9.999999999936827422e+00,6.600000000010406431e-01,1.570000000000707274e+00,2.869999999999991360e+03,-2.175000000001268585e+00,-4.944999999996595008e+00,1.452553822595845823e+01,-1.293004402442835321e+00
2.000000000000943601e+01,2.999999995068974190e+00,9.999999999964508390e+00,6.600000000000475486e-01,1.569999999999166951e+00,2.870000000000004547e+03,-2.174999999999977618e+00,-4.944999999998556994e+00,1.458607192473716552e+01,-1.252816153583873771e+00
2.000000000000614264e+01,2.999999995493583427e+00,9.999999999932359884e+00,6.600000000013326318e-01,1.570000000001168461e+00,2.869999999999987267e+03,-2.175000000001596767e+00,-4.944999999996200657e+00,1.453532836435562814e+01,-1.286824916311367195e+00
2.000000000001039169e+01,2.999999994956946914e+00,9.999999999961183050e+00,6.600000000001300382e-01,1.569999999999208695e+00,2.870000000000002728e+03,-2.175000000000094413e+00,-4.944999999998443307e+00,1.458724214252436013e+01,-1.254111977813832324e+00
2.000000000001131539e+01,2.999999994934333003e+00,9.999999999955576868e+00,6.600000000003264367e-01,1.569999999999507345e+00,2.870000000000000455e+03,-2.175000000000434142e+00,-4.944999999998231921e+00,1.458216401247407745e+01,-1.258714365906853816e+00
2.000000000000516209e+01,2.999999995878165571e+00,9.999999999903684156e+00,6.600000000024742741e-01,1.570000000003151319e+00,2.869999999999986812e+03,-2.175000000003312728e+00,-4.944999999994238671e+00,1.448597086603563788e+01,-1.320038771153949186e+00
2.000000000000621725e+01,2.999999995589114565e+00,9.999999999930903272e+00,6.600000000013749313e-01,1.570000000001364748e+00,2.869999999999983174e+03,-2.175000000001722000e+00,-4.944999999995973283e+00,1.452906631004316473e+01,-1.290446238091704556e+00
2.000000000000316902e+01,2.999999995742495873e+00,9.999999999907416282e+00,6.600000000023800162e-01,1.570000000002842011e+00,2.869999999999974079e+03,-2.175000000002915268e+00,-4.944999999994200479e+00,1.450330136825552607e+01,-1.309035197597697264e+00
2.000000000000356337e+01,2.999999995969380606e+00,9.999999999904941816e+00,6.600000000024436320e-01,1.570000000002915508e+00,2.869999999999971351e+03,-2.175000000003027179e+00,-4.944999999994083240e+00,1.447728918677262833e+01,-1.325690520637520464e+00
2.000000000000538591e+01,2.999999996044520501e+00,9.999999999921115545e+00,6.600000000017860469e-01,1.570000000002243601e+00,2.869999999999991815e+03,-2.175000000002416556e+00,-4.944999999995314255e+00,1.449581263124253461e+01,-1.309398677238631459e+00
2.000000000000556000e+01,2.999999996057337803e+00,9.999999999901261205e+00,6.600000000024718316e-01,1.570000000003433760e+00,2.869999999999988631e+03,-2.175000000003472156e+00,-4.944999999993604511e+00,1.446988956287872163e+01,-1.330452863297808763e+00
2.000000000000707701e+01,2.999999995823940946e+00,9.999999999932050798e+00,6.600000000012438139e-01,1.570000000001424256e+00,2.870000000000000000e+03,-2.175000000001747757e+00,-4.944999999995798312e+00,1.450981692008683588e+01,-1.301627994462573934e+00
2.000000000000807532e+01,2.999999995887312920e+00,9.999999999926078686e+00,6.600000000015407986e-01,1.570000000001881224e+00,2.869999999999996817e+03,-2.175000000002274003e+00,-4.944999999995863149e+00,1.450107990388699974e+01,-1.307411265938654754e+00
2.000000000000523670e+01,2.999999995962691735e+00,9.999999999917307036e+00,6.600000000018599877e-01,1.570000000002400142e+00,2.869999999999989996e+03,-2.175000000002520473e+00,-4.944999999994709405e+00,1.449139537232752417e+01,-1.313983945674272125e+00
2.000000000000441958e+01,2.999999995982128631e+00,9.999999999917500659e+00,6.600000000018745316e-01,1.570000000002266916e+00,2.869999999999991360e+03,-2.175000000002404121e+00,-4.944999999994811546e+00,1.448751278500052209e+01,-1.316239094611478144e+00
2.000000000000704503e+01,2.999999995579516465e+00,9.999999999933494976e+00,6.600000000012364865e-01,1.570000000001097629e+00,2.869999999999988177e+03,-2.175000000001549694e+00,-4.944999999996291251e+00,1.452829864407418548e+01,-1.290553067221552830e+00
2.000000000000341416e+01,2.999999995585632906e+00,9.999999999907464243e+00,6.600000000022254731e-01,1.570000000002363061e+00,2.869999999999983174e+03,-2.175000000002549339e+00,-4.944999999994217355e+00,1.450744055612929273e+01,-1.308466659039648539e+00
2.000000000000433076e+01,2.999999995349639015e+00,9.999999999898726344e+00,6.600000000026414737e-01,1.570000000003016760e+00,2.869999999999980446e+03,-2.175000000003226130e+00,-4.944999999993861195e+00,1.451899496121936828e+01,-1.303693445378495630e+00
2.000000000000520117e+01,2.999999995315273171e+00,9.999999999912125404e+00,6.600000000020945778e-01,1.570000000002405915e+00,2.869999999999986358e+03,-2.175000000002623501e+00,-4.944999999994513118e+00,1.453339165327187743e+01,-1.292446248011691168e+00
2.000000000000678924e+01,2.999999995777958617e+00,9.999999999901211467e+00,6.600000000024712765e-01,1.570000000002979901e+00,2.869999999999983174e+03,-2.175000000003309619e+00,-4.944999999994377227e+00,1.448677348930091924e+01,-1.321786559765307123e+00
2.000000000000624567e+01,2.999999995463235258e+00,9.999999999920374805e+00,6.600000000017350876e-01,1.570000000001869234e+00,2.869999999999987722e+03,-2.175000000002206502e+00,-4.944999999995183693e+00,1.452466017869889825e+01,-1.296362420715763131e+00
2.000000000000792255e+01,2.999999995302879974e+00,9.999999999935276662e+00,6.600000000011542189e-01,1.570000000000977503e+00,2.869999999999989086e+03,-2.175000000001485301e+00,-4.944999999996269935e+00,1.454498540355809411e+01,-1.282666999050403600e+00
2.000000000000604317e+01,2.999999995761855498e+00,9.999999999934464867e+00,6.600000000012411494e-01,1.570000000001215534e+00,2.869999999999995907e+03,-2.175000000001591438e+00,-4.944999999996470663e+00,1.452289428141950189e+01,-1.291269660239762418e+00
2.000000000000717648e+01,2.999999995569697653e+00,9.999999999942085438e+00,6.600000000009129675e-01,1.570000000000584262e+00,2.869999999999984993e+03,-2.175000000001102052e+00,-4.944999999997087059e+00,1.453681776367928435e+01,-1.283034718062541435e+00
2.000000000000514078e+01,2.999999996072290287e+00,9.999999999923984362e+00,6.600000000016089663e-01,1.570000000001637641e+00,2.869999999999974989e+03,-2.175000000001962697e+00,-4.944999999995947526e+00,1.448926496408618547e+01,-1.312543696950743355e+00
2.000000000000745715e+01,2.999999995798222852e+00,9.999999999928551375e+00,6.600000000014992763e-01,1.570000000001595897e+00,2.869999999999979536e+03,-2.175000000002047962e+00,-4.944999999996529283e+00,1.450755408931503432e+01,-1.301352889679273872e+00
2.000000000000905942e+01,2.999999995658083840e+00,9.999999999947888796e+00,6.600000000007041345e-01,1.570000000000376650e+00,2.869999999999985448e+03,-2.175000000001023448e+00,-4.944999999997889972e+00,1.453426560404872347e+01,-1.282507208015056355e+00
2.000000000000891021e+01,2.999999995218369353e+00,9.999999999950473395e+00,6.600000000005558087e-01,1.570000000000103091e+00,2.869999999999991360e+03,-2.175000000000722356e+00,-4.944999999997593321e+00,1.456335845188149136e+01,-1.267086787809557968e+00
2.000000000000838440e+01,2.999999995502871553e+00,9.999999999940166973e+00,6.600000000010862733e-01,1.570000000001061213e+00,2.869999999999997726e+03,-2.175000000001594103e+00,-4.944999999997209628e+00,1.454185525792610179e+01,-1.279206133793619582e+00
2.000000000000749978e+01,2.999999995352383486e+00,9.999999999908565584e+00,6.600000000022128166e-01,1.570000000002598872e+00,2.869999999999990905e+03,-2.175000000002992095e+00,-4.944999999994699635e+00,1.451688454187231336e+01,-1.304089420644601649e+00
2.000000000001055867e+01,2.999999995303299638e+00,9.999999999920179405e+00,6.600000000017403057e-01,1.570000000002001350e+00,2.870000000000001819e+03,-2.175000000002617728e+00,-4.944999999995880025e+00,1.452814631394950595e+01,-1.295308451760997848e+00
2.000000000000938982e+01,2.999999995599497815e+00,9.999999999904302328e+00,6.600000000024170976e-01,1.570000000003126006e+00,2.869999999999994088e+03,-2.175000000003570300e+00,-4.944999999994867501e+00,1.449782107328796776e+01,-1.314721826522296189e+00
2.000000000000684963e+01,2.999999995496101413e+00,9.999999999923323557e+00,6.600000000017115509e-01,1.570000000001977369e+00,2.869999999999996362e+03,-2.175000000002334399e+00,-4.944999999995519424e+00,1.452326626849309044e+01,-1.295844820430472000e+00
