2.000000000000557421e+01,2.999999995541954068e+00,9.999999999922650318e+00,6.600000000017276491e-01,1.570000000001882112e+00,2.869999999999998181e+03,-2.175000000002211387e+00,-4.944999999995400408e+00,1.452264422698775448e+01,-1.295885105366573198e+00
2.000000000001021760e+01,2.999999994879024801e+00,9.999999999932262185e+00,6.600000000011838619e-01,1.570000000001114726e+00,2.869999999999994088e+03,-2.175000000001714007e+00,-4.944999999996010587e+00,1.457171288540924792e+01,-1.269292708556110538e+00
2.000000000000998668e+01,2.999999994884197108e+00,9.999999999931466377e+00,6.600000000012822277e-01,1.570000000001341434e+00,2.869999999999997726e+03,-2.175000000001885425e+00,-4.944999999995890683e+00,1.456863089760005003e+01,-1.271250011999018659e+00
2.000000000001081801e+01,2.999999994577988272e+00,9.999999999937296380e+00,6.600000000010269874e-01,1.570000000001093188e+00,2.870000000000003638e+03,-2.175000000001653166e+00,-4.944999999995995488e+00,1.459660788977907764e+01,-1.254727000164345352e+00
2.000000000000661515e+01,2.999999994921811464e+00,9.999999999911032944e+00,6.600000000020431745e-01,1.570000000002142349e+00,2.869999999999981355e+03,-2.175000000002509370e+00,-4.944999999994410089e+00,1.456006783691323925e+01,-1.279498165561945289e+00
2.000000000001060130e+01,2.999999995028322708e+00,9.999999999943927520e+00,6.600000000007755219e-01,1.570000000000573159e+00,2.869999999999994998e+03,-2.175000000001201528e+00,-4.944999999996675832e+00,1.456807099755969226e+01,-1.269662189654185980e+00
2.000000000000838796e+01,2.999999995324503566e+00,9.999999999919676696e+00,6.600000000017044455e-01,1.570000000001605001e+00,2.869999999999977263e+03,-2.175000000002175415e+00,-4.944999999995722817e+00,1.452847296748293182e+01,-1.295598700006657777e+00
2.000000000000863309e+01,2.999999995249429396e+00,9.999999999907739578e+00,6.600000000021860602e-01,1.570000000002402363e+00,2.869999999999980901e+03,-2.175000000002901945e+00,-4.944999999994752038e+00,1.452103204366271072e+01,-1.303601637798456281e+00
2.000000000000713385e+01,2.999999995320755453e+00,9.999999999903995018e+00,6.600000000023569235e-01,1.570000000002846230e+00,2.869999999999981810e+03,-2.175000000003132872e+00,-4.944999999994009521e+00,1.451906534261556558e+01,-1.304808378825807136e+00
2.000000000000718003e+01,2.999999995408910269e+00,9.999999999928375516e+00,6.600000000014544232e-01,1.570000000001457563e+00,2.869999999999991815e+03,-2.175000000001896971e+00,-4.944999999996059437e+00,1.454004239647188257e+01,-1.284241520065211528e+00
2.000000000000677858e+01,2.999999995838354305e+00,9.999999999941444173e+00,6.600000000009199619e-01,1.570000000000745688e+00,2.869999999999995907e+03,-2.175000000001202860e+00,-4.944999999996772644e+00,1.450862875364936500e+01,-1.300287303877187162e+00
2.000000000000854783e+01,2.999999995488945803e+00,9.999999999933136152e+00,6.600000000011995160e-01,1.570000000001117169e+00,2.869999999999994998e+03,-2.175000000001639400e+00,-4.944999999996181117e+00,1.452519750840868618e+01,-1.294535248393945626e+00
2.000000000000882139e+01,2.999999995675710185e+00,9.999999999938665951e+00,6.600000000009768053e-01,1.570000000000738138e+00,2.869999999999995453e+03,-2.175000000001329425e+00,-4.944999999996676721e+00,1.451332260366402771e+01,-1.300358490283504809e+00
2.000000000000839151e+01,2.999999995802370201e+00,9.999999999939214845e+00,6.600000000009403900e-01,1.570000000000724372e+00,2.869999999999996817e+03,-2.175000000001280132e+00,-4.944999999996738005e+00,1.450673582202738920e+01,-1.302989914499237178e+00
2.000000000000668265e+01,2.999999995214886361e+00,9.999999999922602356e+00,6.600000000015283641e-01,1.570000000001639862e+00,2.869999999999991815e+03,-2.175000000001936939e+00,-4.944999999994617923e+00,1.453181736320446049e+01,-1.294943447303048556e+00
2.000000000000774847e+01,2.999999995349186044e+00,9.999999999933923078e+00,6.600000000011386758e-01,1.570000000001076312e+00,2.869999999999996362e+03,-2.175000000001507061e+00,-4.944999999995667750e+00,1.453762061495224422e+01,-1.288757972254511497e+00
2.000000000000487788e+01,2.999999995062827995e+00,9.999999999915017312e+00,6.600000000019572433e-01,1.570000000001889440e+00,2.869999999999989996e+03,-2.175000000002227818e+00,-4.944999999994887041e+00,1.456068139125479455e+01,-1.276219795069380769e+00
2.000000000000460076e+01,2.999999995117470952e+00,9.999999999908848025e+00,6.600000000022148150e-01,1.570000000002710339e+00,2.869999999999991815e+03,-2.175000000002807354e+00,-4.944999999994014850e+00,1.455187125466196818e+01,-1.281128968468242091e+00
2.000000000000808953e+01,2.999999995324044821e+00,9.999999999924664706e+00,6.600000000015637802e-01,1.570000000001544382e+00,2.869999999999991815e+03,-2.175000000002049294e+00,-4.944999999995769890e+00,1.453916382618133163e+01,-1.287738159207229449e+00
2.000000000000886047e+01,2.999999994825217176e+00,9.999999999935058170e+00,6.600000000011132517e-01,1.570000000001020579e+00,2.870000000000000000e+03,-2.175000000001524381e+00,-4.944999999995872031e+00,1.457309942864247354e+01,-1.267758309329189759e+00
2.000000000000852296e+01,2.999999994733002051e+00,9.999999999934017225e+00,6.600000000012175017e-01,1.570000000001143814e+00,2.869999999999999091e+03,-2.175000000001628742e+00,-4.944999999995942197e+00,1.458702313814688800e+01,-1.258650662010791343e+00
2.000000000000933653e+01,2.999999994603288034e+00,9.999999999934582107e+00,6.600000000011396750e-01,1.570000000001055218e+00,2.870000000000000909e+03,-2.175000000001577671e+00,-4.944999999995777884e+00,1.458852892298884818e+01,-1.259633566998075382e+00
2.000000000000800071e+01,2.999999994605975218e+00,9.999999999919715776e+00,6.600000000017165469e-01,1.570000000001970486e+00,2.870000000000001364e+03,-2.175000000002324629e+00,-4.944999999994524664e+00,1.457419925756209977e+01,-1.271242228198275814e+00
2.000000000000813927e+01,2.999999994684740212e+00,9.999999999931786121e+00,6.600000000012352652e-01,1.570000000001249951e+00,2.870000000000000000e+03,-2.175000000001663825e+00,-4.944999999995385309e+00,1.458178133854403136e+01,-1.263838961732127508e+00
2.000000000000731504e+01,2.999999995409480924e+00,9.999999999925332617e+00,6.600000000015189272e-01,1.570000000001576357e+00,2.869999999999989086e+03,-2.175000000001980904e+00,-4.944999999995428830e+00,1.452643890615495614e+01,-1.295788824622461588e+00
2.000000000000720846e+01,2.999999995370355332e+00,9.999999999921506344e+00,6.600000000016990054e-01,1.570000000001838369e+00,2.869999999999988177e+03,-2.175000000002226486e+00,-4.944999999995215667e+00,1.452954098674344507e+01,-1.294559487566600886e+00
2.000000000001040945e+01,2.999999995143152187e+00,9.999999999958580688e+00,6.600000000001876588e-01,1.569999999999275309e+00,2.869999999999994543e+03,-2.175000000000137046e+00,-4.944999999998273665e+00,1.457532424553003381e+01,-1.261189314990693422e+00
2.000000000001013944e+01,2.999999995274113651e+00,9.999999999965682562e+00,6.599999999999287548e-01,1.569999999999311280e+00,2.870000000000002274e+03,-2.175000000000013589e+00,-4.944999999998374918e+00,1.456966216026436456e+01,-1.261571384146045194e+00
2.000000000000914824e+01,2.999999995182982548e+00,9.999999999957147168e+00,6.600000000002993472e-01,1.569999999999904139e+00,2.870000000000001819e+03,-2.175000000000500755e+00,-4.944999999997532925e+00,1.457133099905756346e+01,-1.262479392069761008e+00
2.000000000000933653e+01,2.999999995430927768e+00,9.999999999957909225e+00,6.600000000002753664e-01,1.569999999999791784e+00,2.869999999999997726e+03,-2.175000000000444356e+00,-4.944999999998007212e+00,1.455733544254579925e+01,-1.268941891051780013e+00
2.000000000000988720e+01,2.999999995336066316e+00,9.999999999970636821e+00,6.599999999997496758e-01,1.569999999999094564e+00,2.870000000000000909e+03,-2.174999999999787548e+00,-4.944999999998565876e+00,1.457410409158592302e+01,-1.257596171926241624e+00
2.000000000000901679e+01,2.999999995266553920e+00,9.999999999968501641e+00,6.599999999998443778e-01,1.569999999999161400e+00,2.870000000000001364e+03,-2.174999999999814193e+00,-4.944999999998414886e+00,1.457793015320474339e+01,-1.255429793204338562e+00
2.000000000000837730e+01,2.999999995551166254e+00,9.999999999943529616e+00,6.600000000008029444e-01,1.570000000000286056e+00,2.869999999999992724e+03,-2.175000000000963940e+00,-4.944999999997262918e+00,1.453498347937980739e+01,-1.286376397527664306e+00
2.000000000000852651e+01,2.999999995185884671e+00,9.999999999934486183e+00,6.600000000011405632e-01,1.570000000000846718e+00,2.869999999999995907e+03,-2.175000000001439115e+00,-4.944999999996304574e+00,1.454995337956890467e+01,-1.280946783121697852e+00
2.000000000000874323e+01,2.999999995113787676e+00,9.999999999956695973e+00,6.600000000002863576e-01,1.569999999999423412e+00,2.869999999999997272e+03,-2.175000000000183675e+00,-4.944999999997974349e+00,1.457549292612107195e+01,-1.260817952401189546e+00
2.000000000000994760e+01,2.999999994933873815e+00,9.999999999947581486e+00,6.600000000006802647e-01,1.570000000000493889e+00,2.870000000000002728e+03,-2.175000000001079403e+00,-4.944999999996870343e+00,1.457513382251920575e+01,-1.263769295340213095e+00
2.000000000000721911e+01,2.999999995028015398e+00,9.999999999918252058e+00,6.600000000017793855e-01,1.570000000002064633e+00,2.869999999999986812e+03,-2.175000000002351275e+00,-4.944999999994670326e+00,1.455847797273247579e+01,-1.278002249810407109e+00
2.000000000000701661e+01,2.999999995611896786e+00,9.999999999928498085e+00,6.600000000014244472e-01,1.570000000001528617e+00,2.869999999999989086e+03,-2.175000000001896527e+00,-4.944999999995779660e+00,1.452336033940908777e+01,-1.295018346431385137e+00
2.000000000000767741e+01,2.999999995079042137e+00,9.999999999929954697e+00,6.600000000013376278e-01,1.570000000001380736e+00,2.869999999999997272e+03,-2.175000000001782841e+00,-4.944999999995602913e+00,1.456008131076583467e+01,-1.274780789654753166e+00
2.000000000000671463e+01,2.999999995956512677e+00,9.999999999927307925e+00,6.600000000015487922e-01,1.570000000001746443e+00,2.869999999999988631e+03,-2.175000000002109690e+00,-4.944999999996047890e+00,1.450210884851029469e+01,-1.305448458097995923e+00
2.000000000000640199e+01,2.999999995779559558e+00,9.999999999924396477e+00,6.600000000016054136e-01,1.570000000001918750e+00,2.869999999999994088e+03,-2.175000000002186518e+00,-4.944999999995347117e+00,1.450935875717781975e+01,-1.303176831668908964e+00
2.000000000000743228e+01,2.999999995668206854e+00,9.999999999927236871e+00,6.600000000014668577e-01,1.570000000001581020e+00,2.869999999999990905e+03,-2.175000000001983125e+00,-4.944999999995789430e+00,1.451677392885403073e+01,-1.299061592996096026e+00
2.000000000000540012e+01,2.999999995669031527e+00,9.999999999916310500e+00,6.600000000019722313e-01,1.570000000002230722e+00,2.869999999999990450e+03,-2.175000000002515588e+00,-4.944999999995098428e+00,1.451140451887143001e+01,-1.303382664494246335e+00
2.000000000000549960e+01,2.999999995667742336e+00,9.999999999922410510e+00,6.600000000017748336e-01,1.570000000002057305e+00,2.869999999999999545e+03,-2.175000000002326406e+00,-4.944999999995355111e+00,1.451308391918277962e+01,-1.301311396125781616e+00
2.000000000000542144e+01,2.999999995621133841e+00,9.999999999920406779e+00,6.600000000018310109e-01,1.570000000002102603e+00,2.869999999999990450e+03,-2.175000000002364597e+00,-4.944999999995213891e+00,1.452120101114265083e+01,-1.296956915259234622e+00
2.000000000000635225e+01,2.999999995380707496e+00,9.999999999918010474e+00,6.600000000019097257e-01,1.570000000002222729e+00,2.869999999999990905e+03,-2.175000000002532019e+00,-4.944999999995157047e+00,1.453630918357938029e+01,-1.288636946871522859e+00
2.000000000000639488e+01,2.999999995319509338e+00,9.999999999928181893e+00,6.600000000015373569e-01,1.570000000001703810e+00,2.869999999999997726e+03,-2.175000000002048850e+00,-4.944999999995821405e+00,1.454937270119476622e+01,-1.278645875861807335e+00
2.000000000000559197e+01,2.999999995898657623e+00,9.999999999932096983e+00,6.600000000013099832e-01,1.570000000001223750e+00,2.869999999999985903e+03,-2.175000000001589218e+00,-4.944999999996324114e+00,1.450302906415975102e+01,-1.303666054643907835e+00
2.000000000000799005e+01,2.999999995444031953e+00,9.999999999932738248e+00,6.600000000012399282e-01,1.570000000001160245e+00,2.869999999999990450e+03,-2.175000000001655387e+00,-4.944999999996364970e+00,1.453031336699667975e+01,-1.289887840523304963e+00
2.000000000000547828e+01,2.999999995862332902e+00,9.999999999926798111e+00,6.600000000016010837e-01,1.570000000001694485e+00,2.869999999999989996e+03,-2.175000000002036415e+00,-4.944999999996124274e+00,1.450182474657577636e+01,-1.304626583914976878e+00
2.000000000000655831e+01,2.999999995482679704e+00,9.999999999933606887e+00,6.600000000012726797e-01,1.570000000001268159e+00,2.869999999999990905e+03,-2.175000000001662492e+00,-4.944999999996221085e+00,1.453043823036532523e+01,-1.288667419557056659e+00
2.000000000000730083e+01,2.999999995532960817e+00,9.999999999928471439e+00,6.600000000014715207e-01,1.570000000001459783e+00,2.869999999999990905e+03,-2.175000000001943157e+00,-4.944999999996221085e+00,1.451988734774463730e+01,-1.296387580942557571e+00
2.000000000000991918e+01,2.999999994855611973e+00,9.999999999933598005e+00,6.600000000011992940e-01,1.570000000000975726e+00,2.869999999999992269e+03,-2.175000000001639400e+00,-4.944999999996634088e+00,1.457380513378701892e+01,-1.265782078752353490e+00
2.000000000000965983e+01,2.999999995380717266e+00,9.999999999938486539e+00,6.600000000010153300e-01,1.570000000000601359e+00,2.869999999999988177e+03,-2.175000000001328537e+00,-4.944999999997206963e+00,1.454622877380755241e+01,-1.280365442140809273e+00
