2.000000000000800071e+01,2.999999995516137385e+00,1.000000000002949108e+01,6.599999999976638998e-01,1.569999999996311457e+00,2.870000000000001819e+03,-2.174999999997013767e+00,-4.945000000003074270e+00,1.460479117836876561e+01,-1.216491653173467746e+00
1.999999999999976907e+01,2.999999996350934506e+00,9.999999999907773329e+00,6.600000000025436631e-01,1.570000000003386909e+00,2.869999999999988631e+03,-2.175000000003199929e+00,-4.944999999994957207e+00,1.445022062262531470e+01,-1.329588212792196966e+00
1.999999999999964473e+01,2.999999996068474228e+00,9.999999999905940129e+00,6.600000000025878499e-01,1.570000000003406448e+00,2.869999999999988631e+03,-2.175000000003190159e+00,-4.944999999994684536e+00,1.447712172346131432e+01,-1.314482341268477184e+00
2.000000000000520473e+01,2.999999996023737570e+00,9.999999999936488138e+00,6.600000000011725376e-01,1.570000000001192664e+00,2.869999999999991360e+03,-2.175000000001483080e+00,-4.944999999996577245e+00,1.449041223610432993e+01,-1.308835460953760688e+00
2.000000000000042277e+01,2.999999996264016922e+00,9.999999999884918722e+00,6.600000000032587577e-01,1.570000000004204477e+00,2.869999999999982265e+03,-2.175000000004005507e+00,-4.944999999992958806e+00,1.442730417798160758e+01,-1.354722383190338109e+00
2.000000000000645173e+01,2.999999995704459188e+00,9.999999999939674922e+00,6.600000000009863532e-01,1.570000000000840501e+00,2.869999999999990905e+03,-2.175000000001227285e+00,-4.944999999996631423e+00,1.450801226640074226e+01,-1.300638160041542646e+00
2.000000000000369482e+01,2.999999995596390523e+00,9.999999999917953630e+00,6.600000000019891067e-01,1.570000000002380602e+00,2.869999999999994088e+03,-2.175000000002503153e+00,-4.944999999995309814e+00,1.451564816006507108e+01,-1.296072197091715061e+00
2.000000000000192202e+01,2.999999995924121254e+00,9.999999999923996796e+00,6.600000000017784973e-01,1.570000000002153451e+00,2.869999999999986812e+03,-2.175000000002141221e+00,-4.944999999995762785e+00,1.450141956167568935e+01,-1.299521808635708542e+00
2.000000000001036682e+01,2.999999994347586796e+00,9.999999999923259608e+00,6.600000000015795454e-01,1.570000000001516183e+00,2.870000000000000000e+03,-2.175000000002143885e+00,-4.944999999995363993e+00,1.461442530650544924e+01,-1.247416580579893131e+00
2.000000000001109157e+01,2.999999994575185180e+00,9.999999999919817029e+00,6.600000000016330581e-01,1.570000000001560814e+00,2.869999999999997726e+03,-2.175000000002250022e+00,-4.944999999995155271e+00,1.458615327931940975e+01,-1.266793201643588551e+00
2.000000000001131539e+01,2.999999995047757384e+00,9.999999999982986054e+00,6.599999999992866018e-01,1.569999999998399565e+00,2.870000000000000000e+03,-2.174999999999266631e+00,-4.944999999999579288e+00,1.459828123747339568e+01,-1.241418052963215057e+00
2.000000000001300648e+01,2.999999995065038672e+00,9.999999999977701393e+00,6.599999999994347055e-01,1.569999999998557660e+00,2.870000000000001364e+03,-2.174999999999547295e+00,-4.944999999999407869e+00,1.459249674416501819e+01,-1.247752683822851427e+00
2.000000000000812506e+01,2.999999995220570703e+00,9.999999999913134374e+00,6.600000000019817792e-01,1.570000000002152341e+00,2.869999999999993179e+03,-2.175000000002597300e+00,-4.944999999994733386e+00,1.454160614282127817e+01,-1.290764227903663519e+00
2.000000000000822808e+01,2.999999994841775930e+00,9.999999999929045202e+00,6.600000000013487300e-01,1.570000000001230411e+00,2.869999999999995453e+03,-2.175000000001693579e+00,-4.944999999995650874e+00,1.458277499149279244e+01,-1.262446980029357624e+00
2.000000000000596145e+01,2.999999995506049011e+00,9.999999999928276040e+00,6.600000000015481261e-01,1.570000000001716023e+00,2.869999999999994998e+03,-2.175000000002040856e+00,-4.944999999995999929e+00,1.453714585316965469e+01,-1.283856881303402364e+00
2.000000000001224620e+01,2.999999994826613836e+00,9.999999999950984986e+00,6.600000000004973000e-01,1.570000000000030260e+00,2.870000000000000909e+03,-2.175000000000895106e+00,-4.944999999997467199e+00,1.459181868922299330e+01,-1.255249565299364045e+00
