5.411369054274600687e-02
5.344842378834825658e-02
5.477259649456846929e-02
5.672941247681251298e-02
5.459108488687151178e-02
5.675801420946807729e-02
5.651585419898019769e-02
5.551907784895176307e-02
5.492988215624700077e-02
5.606017171255066323e-02
5.672245895404728899e-02
5.608076973364809620e-02
5.671802349759235556e-02
5.550076717086920020e-02
5.546276147493160724e-02
5.383676291843201428e-02
5.637011265804804661e-02
5.587013527688696607e-02
