6.037258539929431927e-02
6.008177672659038848e-02
5.895399449841381978e-02
4.380716372361064676e-02
2.274511007393646353e-02
2.333739598449036459e-02
5.764301249020829104e-02
6.022808789097976179e-02
6.039901061450220210e-02
2.869225042341842780e-02
2.413362177604655434e-02
1.893327072855174528e-02
3.352252946246851717e-02
2.925988374189640237e-02
4.318048810363791373e-02
6.079962344232461846e-02
2.605757440130644295e-02
1.914212020116835486e-02
3.154791346264779195e-02
2.143333612993355772e-02
2.624062646274107069e-02
2.132852568396227666e-02
2.546102106469412540e-02
1.714964461296373394e-02
1.692247187970879682e-02
2.420266790901287254e-02
1.800847846875004016e-02
2.055268711007074423e-02
1.927624458152552706e-02
2.658688295114440547e-02
