1.851979825724920856e-02
5.771507521765446846e-02
6.005443158067400727e-02
6.035889356975353975e-02
5.593165465433883737e-02
5.910886723407059867e-02
5.518369986651432135e-02
6.003752132686066001e-02
5.767155678133480123e-02
5.595430624492881561e-02
5.672010440659638192e-02
6.014022972628702696e-02
5.827470682463757601e-02
5.993729445624690344e-02
5.613693291135309071e-02
6.024044437262090351e-02
5.809467985506461263e-02
4.991980271381416673e-02
