6.739264500686172055e-02
7.847498858743605366e-02
7.851459328877591348e-02
7.682732494624716635e-02
8.111944666320790309e-02
7.784848556706941425e-02
7.741300752894891835e-02
7.811496982354292073e-02
3.278968231468657596e-02
3.696773387228232538e-02
5.806534867705358260e-02
5.288625082397092197e-02
5.291779885998217775e-02
4.550651584336161404e-02
5.555783139823220612e-02
4.960337679834057184e-02
