5.151671616295790818e-02
5.318587418058879496e-02
5.143550881593941110e-02
5.317793421992605962e-02
5.301521685375936571e-02
5.366249571480530278e-02
5.278678646589879397e-02
5.273000849132148532e-02
5.281714904132085026e-02
5.300716909206412697e-02
5.223899551926666773e-02
5.154031629668757997e-02
5.274816881910362326e-02
5.347270370470769141e-02
5.254721940214260312e-02
5.360016598705440172e-02
5.150462586254404146e-02
5.141516759034598510e-02
5.359777777956524492e-02
