2.934314169915806444e-02
2.913221917661455024e-02
2.957300233950173676e-02
2.684536908376487438e-02
2.834584696137992105e-02
2.949061846924792493e-02
2.650560620371805731e-02
2.543175172943799162e-02
2.836651376851210757e-02
2.777485149768700937e-02
1.842175136561819901e-02
2.140204235226484189e-02
2.524533867840269771e-02
2.587395168369989104e-02
2.837235624920266333e-02
2.930006716426921884e-02
2.549103884246082391e-02
2.425183767983081148e-02
2.562480025662393357e-02
2.536736620601492964e-02
2.877366291572815496e-02
2.917015249157961163e-02
2.727906625122973605e-02
2.454330530166411173e-02
2.469435564769624156e-02
2.882808605145591868e-02
2.929650581961939018e-02
2.713239878498989108e-02
2.918263860261577705e-02
2.796664835594622409e-02
2.284720420980374672e-02
2.266568979139211085e-02
2.338120816804975868e-02
2.063206006890462227e-02
2.132447761123380803e-02
2.481085870822145184e-02
2.828785432680737399e-02
2.902435548565200293e-02
