6.791362898331550213e-02
5.801250316070913349e-02
6.101719328110486590e-02
5.170696745851259546e-02
4.571167154704400964e-02
7.177674666494714140e-02
7.030154665273906367e-02
5.019288130743940896e-02
6.502554194920937003e-02
6.789866766864685599e-02
6.310270869760674362e-02
7.425154398042363435e-02
6.885666211503894962e-02
6.033585589637957547e-02
5.577209055332383453e-02
6.812379008355930188e-02
