4.084228883139927324e-02
1.296241963340653003e-01
9.878869077708662960e-02
1.075765051450594811e-01
9.073228184118528605e-02
5.692712059116041001e-02
6.779110081273122257e-02
7.172795259622705144e-02
4.925901348524385631e-02
5.285215581185395001e-02
4.860824148735776173e-02
6.994784170487131081e-02
5.186963451477123732e-02
6.345297606698721560e-02
