3.854831318253343353e-02
3.730840410481910119e-02
3.689779806299975373e-02
3.709124842596520782e-02
3.899254392469364561e-02
3.893143962182095408e-02
3.899201272879568303e-02
3.952183870049242459e-02
3.809466070260415088e-02
3.792521480269071127e-02
3.776383748889049208e-02
3.865358502643755079e-02
3.765947147378079229e-02
3.873798925885549305e-02
3.822305354690893470e-02
3.770418139378171191e-02
3.948085553908087242e-02
4.008109572070402138e-02
3.997550795502900767e-02
3.718965386394621625e-02
3.945026145112626170e-02
3.879717007342399493e-02
3.811556745484069586e-02
3.955566190035304103e-02
3.766922870369595472e-02
3.863940489172990045e-02
