1.110438176820717666e-02
1.136529763008735025e-02
1.126276575636237648e-02
1.089681983283625512e-02
1.160426064550421597e-02
4.535657628715005635e-03
1.085832875712921218e-02
6.041269482133782703e-03
1.061794854689046552e-02
1.125292180209167860e-02
1.177240252672356359e-02
1.181806885498791308e-02
4.596170721574731506e-03
1.185360006863791192e-02
1.190212813309763328e-02
1.189368046157993249e-02
1.109584320962087728e-02
1.166992936765352470e-02
4.546693973067107014e-03
1.089770779145336939e-02
1.106556655543247496e-02
1.073819294295789636e-02
1.124247783230615527e-02
1.144926923836983579e-02
1.102643846593489262e-02
1.078474401259799272e-02
1.190352441585063037e-02
1.191033048996114826e-02
1.117649060326158031e-02
8.891008182294143913e-03
1.170227390373014889e-02
1.136151576286120214e-02
1.181900185498415551e-02
1.121204675053216922e-02
1.045165175359472585e-02
1.182082924808024356e-02
9.672986042937764192e-03
4.786734362186530721e-03
1.174981829664210886e-02
1.183713422732491846e-02
1.071161209478909034e-02
1.100512263326212416e-02
1.072620952317857382e-02
1.088931883459060349e-02
1.175955125608566833e-02
1.191480245546037986e-02
1.166143424182566890e-02
1.188136405731919296e-02
1.191510246321779085e-02
1.087309830793179409e-02
1.101481779011962737e-02
1.181027669639860694e-02
1.132400111990884868e-02
1.190217960895949452e-02
1.190947872530940740e-02
4.099123016680083186e-03
1.082914033483297830e-02
1.185806962120611666e-02
1.079060180481578035e-02
1.128956296401306854e-02
1.075121874893991691e-02
1.168915721067953148e-02
1.127736559768288335e-02
1.137953955330585354e-02
5.506917863596275282e-03
1.144008481857924225e-02
1.087097653725068412e-02
1.052732448777270527e-02
1.159920796793835994e-02
1.098914822556784285e-02
1.084411659339334921e-02
1.116995316880515197e-02
1.162120505147045367e-02
1.019889481581962021e-02
4.053684710397572472e-03
7.493839079300674937e-03
1.191777920803459810e-02
1.180514519641927620e-02
1.037564281769396031e-02
5.785987412041263336e-03
7.296195899062216279e-03
1.107357989936571564e-02
1.104254799776656186e-02
1.102106969440479374e-02
1.117388222482381017e-02
1.111916981814761729e-02
1.136113693269031472e-02
1.070390278016496687e-02
1.151667044499492427e-02
1.152655461478270180e-02
1.041456500374409420e-02
8.735716767402352742e-03
1.103703123313361061e-02
1.090760643882729419e-02
1.142040173589989674e-02
