1.999999999999944933e+01,3.000000001177570486e+00,9.999999999988181898e+00,6.599999999999779376e-01,1.570000000000226770e+00,2.869999999999966349e+03,-2.174999999999973177e+00,-4.944999999999819096e+00,1.341051395210319441e+01,-2.171976925850177764e+00
1.999999999999872813e+01,3.000000000659317045e+00,9.999999999955141661e+00,6.600000000000730838e-01,1.569999999999910356e+00,2.869999999999971806e+03,-2.175000000000320011e+00,-4.945000000000924878e+00,1.341641292086122483e+01,-2.154708172120407550e+00
2.000000000000008527e+01,3.000000000296321190e+00,1.000000000000939515e+01,6.599999999999176525e-01,1.570000000000320250e+00,2.869999999999996817e+03,-2.174999999999695177e+00,-4.944999999999138751e+00,1.340346402804196480e+01,-2.163259304783907488e+00
1.999999999999852562e+01,3.000000000927326216e+00,9.999999999974587439e+00,6.600000000001428058e-01,1.569999999999795559e+00,2.869999999999982265e+03,-2.175000000000574474e+00,-4.945000000001754437e+00,1.341339099711064620e+01,-2.180748825721217532e+00
2.000000000000013500e+01,3.000000000695344671e+00,9.999999999993232080e+00,6.599999999999575095e-01,1.570000000000088658e+00,2.869999999999975444e+03,-2.174999999999864819e+00,-4.944999999999507345e+00,1.341678776213437452e+01,-2.170325917210238931e+00
1.999999999999959499e+01,3.000000000542331069e+00,9.999999999993104183e+00,6.599999999999646150e-01,1.570000000000128404e+00,2.869999999999998636e+03,-2.174999999999893241e+00,-4.944999999999639684e+00,1.341484940446830798e+01,-2.169829181335816592e+00
1.999999999999929301e+01,3.000000000908330744e+00,9.999999999995919708e+00,6.599999999999812683e-01,1.570000000000062457e+00,2.869999999999992724e+03,-2.174999999999968292e+00,-4.944999999999821760e+00,1.340315478476962063e+01,-2.154385739969585600e+00
1.999999999999957367e+01,3.000000000738787698e+00,1.000000000000654410e+01,6.600000000000654232e-01,1.569999999999967644e+00,2.870000000000000455e+03,-2.175000000000343992e+00,-4.945000000000967511e+00,1.341732631077783466e+01,-2.158826397049926182e+00
2.000000000000013145e+01,3.000000000033280489e+00,1.000000000003821654e+01,6.599999999999246469e-01,1.570000000000296270e+00,2.869999999999995907e+03,-2.174999999999712053e+00,-4.944999999999144080e+00,1.340703035386457742e+01,-2.164957505107003133e+00
1.999999999999968026e+01,3.000000001138227734e+00,1.000000000003112355e+01,6.599999999999677236e-01,1.570000000000279616e+00,2.869999999999997726e+03,-2.174999999999955858e+00,-4.944999999999834195e+00,1.340397129509225671e+01,-2.162285620295159028e+00
2.000000000000013500e+01,3.000000000917293796e+00,1.000000000002152412e+01,6.599999999999170974e-01,1.570000000000363771e+00,2.869999999999993634e+03,-2.174999999999676970e+00,-4.944999999999128093e+00,1.341338060891207462e+01,-2.173653784661782939e+00
2.000000000000003553e+01,3.000000000722833349e+00,9.999999999980225596e+00,6.600000000000740830e-01,1.569999999999928564e+00,2.869999999999993179e+03,-2.175000000000341771e+00,-4.945000000000963070e+00,1.341369259731492569e+01,-2.180656137390014404e+00
1.999999999999907274e+01,3.000000001359394819e+00,9.999999999968434139e+00,6.600000000000170175e-01,1.570000000000117968e+00,2.869999999999955890e+03,-2.175000000000084199e+00,-4.945000000000205453e+00,1.341507777611569985e+01,-2.161122187874713774e+00
1.999999999999960565e+01,3.000000000479257078e+00,1.000000000001849898e+01,6.600000000000402212e-01,1.570000000000036255e+00,2.870000000000001364e+03,-2.175000000000209877e+00,-4.945000000000651319e+00,1.340404955042182955e+01,-2.170019179886285787e+00
1.999999999999910116e+01,3.000000001093565238e+00,9.999999999984231280e+00,6.600000000000136868e-01,1.570000000000066454e+00,2.869999999999969532e+03,-2.175000000000039790e+00,-4.945000000000153939e+00,1.341078774120926553e+01,-2.170072475801965606e+00
1.999999999999940670e+01,3.000000001283531503e+00,9.999999999996640909e+00,6.599999999999802691e-01,1.570000000000123297e+00,2.869999999999984539e+03,-2.174999999999861267e+00,-4.944999999999687645e+00,1.340395390435879719e+01,-2.162627314766545794e+00
2.000000000000019895e+01,3.000000000728255678e+00,1.000000000001695533e+01,6.599999999999687228e-01,1.570000000000080442e+00,2.870000000000002274e+03,-2.174999999999855937e+00,-4.944999999999628137e+00,1.340670835637522984e+01,-2.173500451880699291e+00
1.999999999999877787e+01,3.000000000056590288e+00,1.000000000000684253e+01,6.600000000000522116e-01,1.569999999999899476e+00,2.869999999999989086e+03,-2.175000000000296474e+00,-4.945000000000750795e+00,1.340763883861654371e+01,-2.171858805697483685e+00
1.999999999999839773e+01,3.000000000873605632e+00,1.000000000000208367e+01,6.600000000000301181e-01,1.569999999999892371e+00,2.869999999999999545e+03,-2.175000000000032685e+00,-4.945000000000254303e+00,1.339364035685565746e+01,-2.175967540372574227e+00
1.999999999999834088e+01,3.000000000713439530e+00,9.999999999999177547e+00,6.600000000000356692e-01,1.569999999999900808e+00,2.870000000000000455e+03,-2.175000000000067768e+00,-4.945000000000351115e+00,1.339424291694968261e+01,-2.175179457578252595e+00
1.999999999999960210e+01,3.000000000425183000e+00,1.000000000001538147e+01,6.599999999999526246e-01,1.570000000000082885e+00,2.869999999999989541e+03,-2.174999999999741807e+00,-4.944999999999329710e+00,1.339871231293136233e+01,-2.152913614125592456e+00
1.999999999999906564e+01,3.000000001352489232e+00,1.000000000001303313e+01,6.600000000000039169e-01,1.570000000000051132e+00,2.869999999999991815e+03,-2.175000000000004263e+00,-4.945000000000086438e+00,1.340260283743814362e+01,-2.161061831111570353e+00
2.000000000000040501e+01,3.000000001004609285e+00,9.999999999991851851e+00,6.599999999999043299e-01,1.570000000000301599e+00,2.869999999999971806e+03,-2.174999999999576161e+00,-4.944999999998803020e+00,1.340134613607444081e+01,-2.160869603023513719e+00
1.999999999999884537e+01,3.000000000397821776e+00,1.000000000000392930e+01,6.600000000000439959e-01,1.570000000000010498e+00,2.869999999999996817e+03,-2.175000000000228528e+00,-4.945000000000634444e+00,1.340597508215499012e+01,-2.168437755169378089e+00
1.999999999999979039e+01,3.000000000824927238e+00,1.000000000002785150e+01,6.599999999999421885e-01,1.570000000000100204e+00,2.869999999999969077e+03,-2.174999999999676970e+00,-4.944999999999065032e+00,1.339591657268654501e+01,-2.162532117426368306e+00
1.999999999999998224e+01,3.000000001055011634e+00,9.999999999966131980e+00,6.600000000000280087e-01,1.569999999999932339e+00,2.869999999999996817e+03,-2.175000000000173905e+00,-4.945000000000428386e+00,1.341891806458267844e+01,-2.171622136383503765e+00
1.999999999999974065e+01,3.000000001079180745e+00,9.999999999982104981e+00,6.599999999999751621e-01,1.570000000000085771e+00,2.869999999999994998e+03,-2.174999999999921219e+00,-4.944999999999740936e+00,1.340560540701787495e+01,-2.174768233895277181e+00
1.999999999999950617e+01,3.000000001118813486e+00,9.999999999991432631e+00,6.599999999999545119e-01,1.570000000000250751e+00,2.869999999999974079e+03,-2.174999999999792877e+00,-4.944999999999422968e+00,1.339940267195250811e+01,-2.182097862998225946e+00
1.999999999999998579e+01,3.000000000548912471e+00,1.000000000001399236e+01,6.599999999999900391e-01,1.570000000000132179e+00,2.869999999999997272e+03,-2.174999999999940758e+00,-4.944999999999903473e+00,1.341178323531230099e+01,-2.183820275153277368e+00
1.999999999999968381e+01,3.000000000682186752e+00,1.000000000002585665e+01,6.599999999999729416e-01,1.570000000000180584e+00,2.870000000000010459e+03,-2.174999999999923883e+00,-4.944999999999829754e+00,1.339939255251827177e+01,-2.154817335064877160e+00
2.000000000000009948e+01,3.000000001008792161e+00,9.999999999995276667e+00,6.599999999999959233e-01,1.570000000000161489e+00,2.869999999999973625e+03,-2.175000000000076206e+00,-4.945000000000093543e+00,1.342038839287419627e+01,-2.162505888962730882e+00
1.999999999999977263e+01,3.000000000300546699e+00,9.999999999996672884e+00,6.600000000000697531e-01,1.569999999999898810e+00,2.870000000000021828e+03,-2.175000000000480327e+00,-4.945000000001249063e+00,1.341460393285855268e+01,-2.165429895539627836e+00
1.999999999999956657e+01,3.000000000510841591e+00,1.000000000001369038e+01,6.599999999999822675e-01,1.570000000000079776e+00,2.869999999999996362e+03,-2.174999999999897682e+00,-4.944999999999743601e+00,1.340770265491686963e+01,-2.166500989016438172e+00
1.999999999999973355e+01,3.000000000257807553e+00,9.999999999986323829e+00,6.599999999999888178e-01,1.570000000000252527e+00,2.869999999999979536e+03,-2.175000000000005596e+00,-4.945000000000038476e+00,1.341489244370709422e+01,-2.160844859099095849e+00
2.000000000000002487e+01,2.999999999761975733e+00,1.000000000002020961e+01,6.600000000000812994e-01,1.569999999999862617e+00,2.869999999999979536e+03,-2.175000000000362199e+00,-4.945000000001034124e+00,1.341537177499456668e+01,-2.171086099593867225e+00
1.999999999999917222e+01,3.000000001404816707e+00,1.000000000000940936e+01,6.599999999999206501e-01,1.570000000000380869e+00,2.869999999999979082e+03,-2.174999999999561950e+00,-4.944999999998962004e+00,1.340167102281869482e+01,-2.162887056247421391e+00
1.999999999999926459e+01,3.000000000821291035e+00,9.999999999967677411e+00,6.600000000000163514e-01,1.570000000000101092e+00,2.869999999999997726e+03,-2.175000000000242739e+00,-4.945000000000526086e+00,1.341498371046485794e+01,-2.173274311408357473e+00
1.999999999999985434e+01,3.000000000562066838e+00,9.999999999993924860e+00,6.599999999998958922e-01,1.570000000000387308e+00,2.869999999999989996e+03,-2.174999999999591260e+00,-4.944999999998834994e+00,1.341643043392046053e+01,-2.164643677449503922e+00
1.999999999999995381e+01,3.000000001187849374e+00,9.999999999987394972e+00,6.599999999999415223e-01,1.570000000000240759e+00,2.869999999999996362e+03,-2.174999999999875477e+00,-4.944999999999533102e+00,1.340713027620742359e+01,-2.173429653209615342e+00
1.999999999999981171e+01,3.000000000983215731e+00,9.999999999988919086e+00,6.599999999999153211e-01,1.570000000000265850e+00,2.870000000000009095e+03,-2.174999999999783995e+00,-4.944999999999253326e+00,1.341225009811818936e+01,-2.165033530101784898e+00
2.000000000000110489e+01,3.000000000506942932e+00,1.000000000001856293e+01,6.599999999999254241e-01,1.570000000000228990e+00,2.869999999999972260e+03,-2.174999999999636113e+00,-4.944999999999021512e+00,1.341660242599098041e+01,-2.169233388202573831e+00
2.000000000000004974e+01,3.000000000497283104e+00,1.000000000002403944e+01,6.600000000000008082e-01,1.569999999999991180e+00,2.869999999999974989e+03,-2.174999999999902567e+00,-4.944999999999793339e+00,1.340999136284354165e+01,-2.176165332077416803e+00
1.999999999999852562e+01,3.000000001565838126e+00,1.000000000001682920e+01,6.600000000000630918e-01,1.569999999999904361e+00,2.869999999999954071e+03,-2.175000000000107736e+00,-4.945000000000458584e+00,1.339529564258588401e+01,-2.166729048308661199e+00
1.999999999999841904e+01,3.000000001539908645e+00,1.000000000001982414e+01,6.600000000000798561e-01,1.569999999999889040e+00,2.869999999999956344e+03,-2.175000000000149036e+00,-4.945000000000635332e+00,1.339466656161864222e+01,-2.169548468526015128e+00
1.999999999999947775e+01,3.000000000216554774e+00,9.999999999990189181e+00,6.599999999999901501e-01,1.570000000000099094e+00,2.869999999999988631e+03,-2.175000000000105072e+00,-4.945000000000090878e+00,1.341589189134296234e+01,-2.163633671600166508e+00
2.000000000000009948e+01,3.000000000791611221e+00,1.000000000001857892e+01,6.599999999998941158e-01,1.570000000000240759e+00,2.869999999999988177e+03,-2.174999999999544631e+00,-4.944999999998714202e+00,1.340129470741882045e+01,-2.159217185959029894e+00
1.999999999999895905e+01,3.000000000210420570e+00,9.999999999995155875e+00,6.600000000000374456e-01,1.569999999999954765e+00,2.869999999999997272e+03,-2.175000000000141487e+00,-4.945000000000447926e+00,1.341128398333509431e+01,-2.171575929832112006e+00
1.999999999999944933e+01,2.999999999376419257e+00,1.000000000004384404e+01,6.600000000000472156e-01,1.569999999999671214e+00,2.870000000000008185e+03,-2.175000000000211653e+00,-4.945000000000504770e+00,1.340136363927175545e+01,-2.164358115042527508e+00
