2.000000000000110134e+01,3.000000001777444414e+00,1.000000000004074430e+01,6.600000000000194600e-01,1.569999999999925899e+00,2.869999999999980446e+03,-2.175000000000040679e+00,-4.945000000000128182e+00,1.347100502727022509e+01,-2.314398294506327058e+00
1.999999999999962341e+01,3.000000001359168778e+00,1.000000000004810730e+01,6.600000000000597611e-01,1.569999999999730500e+00,2.869999999999982265e+03,-2.175000000000137046e+00,-4.945000000000391083e+00,1.348947019615541265e+01,-2.318929865828805781e+00
2.000000000000016698e+01,3.000000002964512191e+00,1.000000000004022560e+01,6.600000000000395550e-01,1.569999999999970308e+00,2.869999999999979536e+03,-2.175000000000022027e+00,-4.945000000000123741e+00,1.348217245131848863e+01,-2.336820611095631772e+00
1.999999999999944578e+01,3.000000002839147584e+00,9.999999999986972199e+00,6.600000000000217915e-01,1.569999999999961871e+00,2.869999999999986358e+03,-2.174999999999961187e+00,-4.944999999999986073e+00,1.349324406288133105e+01,-2.234189809059351717e+00
1.999999999999942446e+01,3.000000001222159707e+00,9.999999999954871654e+00,6.600000000000276756e-01,1.569999999999950546e+00,2.869999999999989541e+03,-2.175000000000001599e+00,-4.945000000000049134e+00,1.338381544898728670e+01,-2.229033852403832672e+00
1.999999999999986500e+01,3.000000000271663136e+00,1.000000000005225687e+01,6.599999999999777156e-01,1.570000000000065121e+00,2.869999999999998636e+03,-2.174999999999954969e+00,-4.944999999999831530e+00,1.343451724568664929e+01,-2.472380228225674159e+00
1.999999999999998934e+01,3.000000000021691537e+00,1.000000000006964207e+01,6.599999999999738298e-01,1.570000000000046247e+00,2.870000000000000455e+03,-2.174999999999926992e+00,-4.944999999999763141e+00,1.344616451496661114e+01,-2.498814026813406031e+00
2.000000000000110845e+01,3.000000002423561796e+00,1.000000000002958522e+01,6.600000000000171285e-01,1.569999999999929230e+00,2.869999999999999545e+03,-2.175000000000093969e+00,-4.945000000000276508e+00,1.327132504628238685e+01,-2.313976429798161316e+00
2.000000000000103029e+01,3.000000001608282840e+00,1.000000000002184031e+01,6.600000000000175726e-01,1.569999999999897922e+00,2.869999999999992724e+03,-2.175000000000097078e+00,-4.945000000000253415e+00,1.326081605332789870e+01,-2.332103336119983883e+00
2.000000000000115463e+01,3.000000001541111683e+00,1.000000000003612755e+01,6.600000000000174616e-01,1.569999999999902141e+00,2.869999999999992269e+03,-2.175000000000070877e+00,-4.945000000000233875e+00,1.323354740106989524e+01,-2.297097580708574949e+00
2.000000000000097700e+01,2.999999999621666635e+00,1.000000000007020518e+01,6.600000000000002531e-01,1.569999999999961871e+00,2.869999999999998181e+03,-2.175000000000081979e+00,-4.945000000000133511e+00,1.323478176083349034e+01,-2.359110501312146724e+00
2.000000000000022737e+01,3.000000000327764482e+00,1.000000000004701484e+01,6.600000000000002531e-01,1.570000000000048468e+00,2.869999999999996362e+03,-2.175000000000010481e+00,-4.945000000000024265e+00,1.343938445246703850e+01,-2.376253104148917217e+00
2.000000000000135358e+01,3.000000001342545630e+00,1.000000000003301714e+01,6.600000000000042499e-01,1.570000000000040918e+00,2.869999999999993634e+03,-2.174999999999949196e+00,-4.944999999999947882e+00,1.338889196007502669e+01,-2.199937787473685624e+00
2.000000000000119726e+01,2.999999999612802615e+00,1.000000000005985257e+01,6.600000000000185718e-01,1.569999999999935447e+00,2.870000000000000000e+03,-2.174999999999991385e+00,-4.945000000000092655e+00,1.340887567655813051e+01,-2.197393962507846688e+00
2.000000000000105871e+01,3.000000000605975270e+00,1.000000000005660894e+01,6.600000000000294520e-01,1.569999999999918350e+00,2.869999999999995907e+03,-2.175000000000004707e+00,-4.945000000000159268e+00,1.340427939856555817e+01,-2.197077020876843978e+00
2.000000000000031974e+01,2.999999999669924033e+00,1.000000000004464695e+01,6.600000000000127987e-01,1.570000000000030482e+00,2.869999999999994088e+03,-2.175000000000042899e+00,-4.945000000000120188e+00,1.337449458666827518e+01,-2.170656317153543124e+00
2.000000000000093436e+01,2.999999998952508573e+00,9.999999999998362199e+00,6.599999999999986988e-01,1.569999999999922125e+00,2.870000000000003183e+03,-2.174999999999985167e+00,-4.944999999999999396e+00,1.329877152050053191e+01,-2.041476280855596404e+00
1.999999999999835154e+01,2.999999999987091215e+00,1.000000000005145573e+01,6.599999999999922595e-01,1.570000000000179030e+00,2.869999999999994543e+03,-2.174999999999900346e+00,-4.944999999999758700e+00,1.337839601784791554e+01,-2.277372760826223974e+00
1.999999999999883116e+01,2.999999999828054875e+00,1.000000000000994405e+01,6.599999999999964784e-01,1.570000000000125073e+00,2.869999999999995907e+03,-2.174999999999912337e+00,-4.944999999999785345e+00,1.339688869224189460e+01,-2.290480236460037844e+00
2.000000000000002842e+01,3.000000000367355923e+00,9.999999999906107107e+00,6.600000000000364464e-01,1.569999999999773799e+00,2.869999999999992724e+03,-2.175000000000012257e+00,-4.945000000000135287e+00,1.334998088571404296e+01,-2.199405024092971672e+00
1.999999999999920774e+01,3.000000000852216964e+00,1.000000000003050715e+01,6.600000000000365574e-01,1.569999999999955875e+00,2.869999999999998181e+03,-2.175000000000103739e+00,-4.945000000000312035e+00,1.335474558763139186e+01,-2.203538748976640260e+00
2.000000000000033751e+01,3.000000000052772897e+00,1.000000000007363177e+01,6.600000000000256772e-01,1.569999999999975859e+00,2.870000000000001819e+03,-2.175000000000069988e+00,-4.945000000000234763e+00,1.344644937927220063e+01,-2.213958903612397222e+00
1.999999999999907274e+01,3.000000002588623538e+00,9.999999999978429699e+00,6.599999999999683897e-01,1.570000000000232543e+00,2.869999999999999545e+03,-2.175000000000037570e+00,-4.944999999999958540e+00,1.343847732409453677e+01,-2.182886901553599213e+00
2.000000000000050804e+01,3.000000001215024970e+00,9.999999999951420193e+00,6.599999999999449640e-01,1.570000000000217222e+00,2.869999999999998636e+03,-2.174999999999922551e+00,-4.944999999999667217e+00,1.343043872177814890e+01,-2.126321647388642155e+00
2.000000000000007816e+01,3.000000000996152494e+00,9.999999999987048582e+00,6.600000000000164624e-01,1.569999999999964313e+00,2.869999999999995907e+03,-2.175000000000058886e+00,-4.945000000000162821e+00,1.344415599528800698e+01,-2.143778217571934874e+00
1.999999999999988276e+01,3.000000002430145862e+00,9.999999999943185003e+00,6.599999999999842659e-01,1.570000000000063123e+00,2.869999999999999545e+03,-2.175000000000010481e+00,-4.944999999999955875e+00,1.338382303401532170e+01,-2.214465413983827791e+00
1.999999999999971934e+01,3.000000002696058932e+00,9.999999999953192997e+00,6.600000000000045830e-01,1.569999999999927676e+00,2.869999999999999545e+03,-2.175000000000097522e+00,-4.945000000000189466e+00,1.339856864025423988e+01,-2.208248940083447742e+00
1.999999999999987921e+01,3.000000002572273505e+00,1.000000000003402079e+01,6.600000000000002531e-01,1.570000000000091323e+00,2.870000000000001819e+03,-2.175000000000052669e+00,-4.945000000000127294e+00,1.341679354248071299e+01,-2.236165309916211541e+00
2.000000000000011369e+01,3.000000002733627547e+00,1.000000000001019096e+01,6.599999999999978106e-01,1.570000000000077778e+00,2.870000000000001364e+03,-2.175000000000034017e+00,-4.945000000000068674e+00,1.344064057785285016e+01,-2.250719660117289411e+00
1.999999999999998579e+01,3.000000002939215982e+00,9.999999999968251174e+00,6.599999999999970335e-01,1.570000000000073781e+00,2.869999999999999545e+03,-2.175000000000061995e+00,-4.945000000000123741e+00,1.342559738957485571e+01,-2.239928316868967872e+00
2.000000000000001421e+01,3.000000002824521950e+00,9.999999999959245045e+00,6.599999999999905942e-01,1.570000000000069784e+00,2.870000000000001364e+03,-2.175000000000056666e+00,-4.945000000000088214e+00,1.344461527542246770e+01,-2.201062855537997187e+00
1.999999999999936406e+01,3.000000002172066527e+00,9.999999999962822628e+00,6.599999999999974776e-01,1.570000000000064677e+00,2.869999999999999091e+03,-2.175000000000028244e+00,-4.945000000000015383e+00,1.339711360531237361e+01,-2.175457293867406605e+00
2.000000000000026290e+01,2.999999998006785074e+00,1.000000000004446576e+01,6.599999999999890399e-01,1.570000000000065343e+00,2.870000000000002274e+03,-2.174999999999987832e+00,-4.945000000000003837e+00,1.327483919974556947e+01,-1.936859531348306573e+00
1.999999999999878142e+01,2.999999999964355180e+00,1.000000000008660628e+01,6.599999999999941469e-01,1.570000000000092211e+00,2.870000000000003183e+03,-2.174999999999929212e+00,-4.944999999999765805e+00,1.341303043089612679e+01,-2.182676916765624586e+00
1.999999999999839417e+01,2.999999999985496046e+00,1.000000000010227730e+01,6.599999999999968114e-01,1.569999999999987628e+00,2.869999999999999545e+03,-2.174999999999954525e+00,-4.944999999999805773e+00,1.339875005185072787e+01,-2.127217365761906009e+00
1.999999999999928235e+01,3.000000000153819624e+00,1.000000000007659651e+01,6.599999999999744960e-01,1.570000000000164153e+00,2.869999999999998181e+03,-2.174999999999978062e+00,-4.944999999999814655e+00,1.339850966073465166e+01,-2.134210584602256766e+00
1.999999999999840128e+01,3.000000000396819466e+00,1.000000000006702372e+01,6.599999999999842659e-01,1.570000000000163931e+00,2.870000000000001364e+03,-2.174999999999828404e+00,-4.944999999999570406e+00,1.344117253552073343e+01,-2.196204440820383574e+00
2.000000000000000711e+01,2.999999999762255953e+00,1.000000000010515855e+01,6.600000000000079137e-01,1.569999999999959428e+00,2.869999999999997726e+03,-2.174999999999971401e+00,-4.944999999999889262e+00,1.339032547585186350e+01,-2.211184172337282039e+00
1.999999999999942091e+01,3.000000000350949492e+00,1.000000000007940493e+01,6.600000000000015854e-01,1.570000000000019824e+00,2.869999999999997726e+03,-2.174999999999936762e+00,-4.944999999999838636e+00,1.339984410253712532e+01,-2.210979671704337068e+00
1.999999999999925393e+01,2.999999999733945266e+00,1.000000000006118306e+01,6.600000000000021405e-01,1.569999999999989404e+00,2.870000000000000455e+03,-2.174999999999934097e+00,-4.944999999999846629e+00,1.336922844577549441e+01,-2.144793267107329093e+00
1.999999999999993250e+01,2.999999999804636719e+00,1.000000000004346745e+01,6.599999999999989209e-01,1.570000000000022045e+00,2.869999999999994998e+03,-2.174999999999868816e+00,-4.944999999999787121e+00,1.350351595990021281e+01,-2.294606272025053961e+00
1.999999999999991473e+01,3.000000000444496440e+00,1.000000000004426681e+01,6.599999999999970335e-01,1.570000000000007168e+00,2.869999999999998636e+03,-2.174999999999942979e+00,-4.944999999999921236e+00,1.348446656514311393e+01,-2.276597078018022469e+00
1.999999999999877076e+01,3.000000000051724847e+00,1.000000000001599609e+01,6.599999999999951461e-01,1.570000000000003393e+00,2.869999999999996817e+03,-2.174999999999922107e+00,-4.944999999999866169e+00,1.351361713060361680e+01,-2.313847665255317487e+00
2.000000000000005684e+01,3.000000001135740835e+00,1.000000000001828582e+01,6.599999999999982547e-01,1.569999999999979634e+00,2.869999999999996362e+03,-2.174999999999936762e+00,-4.944999999999929230e+00,1.347859199882507752e+01,-2.349855982753544126e+00
1.999999999999934985e+01,3.000000000936464684e+00,1.000000000002126832e+01,6.600000000000081357e-01,1.569999999999945883e+00,2.869999999999988631e+03,-2.174999999999956746e+00,-4.944999999999923013e+00,1.334405564148284995e+01,-2.339155030674616054e+00
1.999999999999920419e+01,3.000000001188421805e+00,1.000000000003914913e+01,6.600000000000250111e-01,1.569999999999901474e+00,2.869999999999989996e+03,-2.174999999999999822e+00,-4.945000000000054463e+00,1.333701824193527052e+01,-2.319464211617756622e+00
1.999999999999951328e+01,3.000000001412312045e+00,1.000000000001088551e+01,6.600000000000014744e-01,1.570000000000040252e+00,2.869999999999998636e+03,-2.174999999999981615e+00,-4.945000000000002061e+00,1.344439524597352431e+01,-2.136220954109688819e+00
2.000000000000046185e+01,3.000000002169112889e+00,1.000000000004158451e+01,6.599999999999968114e-01,1.569999999999979412e+00,2.869999999999997726e+03,-2.174999999999920774e+00,-4.944999999999849294e+00,1.346198905127030443e+01,-2.207847444950891358e+00
2.000000000000059330e+01,3.000000001824226104e+00,1.000000000004782663e+01,6.600000000000312284e-01,1.569999999999871498e+00,2.870000000000001819e+03,-2.175000000000011369e+00,-4.945000000000115747e+00,1.340217004893778174e+01,-2.174381433104688455e+00
1.999999999999997868e+01,3.000000002850399028e+00,9.999999999945533347e+00,6.599999999999887068e-01,1.570000000000051799e+00,2.869999999999999091e+03,-2.174999999999938094e+00,-4.944999999999846629e+00,1.343594730562110762e+01,-2.214418844463442504e+00
2.000000000000141043e+01,3.000000002058299753e+00,9.999999999969768183e+00,6.599999999999969225e-01,1.569999999999933893e+00,2.870000000000002274e+03,-2.174999999999963407e+00,-4.944999999999991402e+00,1.338800984986965403e+01,-2.088757263889197802e+00
2.000000000000040501e+01,3.000000001556345275e+00,1.000000000004045475e+01,6.599999999999597300e-01,1.570000000000216112e+00,2.870000000000003183e+03,-2.174999999999891021e+00,-4.944999999999694751e+00,1.340272464635235394e+01,-2.192771946509996184e+00
2.000000000000122924e+01,3.000000001063621191e+00,1.000000000002952127e+01,6.599999999999915934e-01,1.570000000000000950e+00,2.869999999999997726e+03,-2.174999999999953193e+00,-4.944999999999930118e+00,1.341293225019394697e+01,-2.124298199184698088e+00
2.000000000000051870e+01,3.000000001867540789e+00,1.000000000006414247e+01,6.599999999999645039e-01,1.570000000000194351e+00,2.870000000000002274e+03,-2.174999999999848832e+00,-4.944999999999621032e+00,1.345556758987433277e+01,-2.124834205937431442e+00
2.000000000000108713e+01,3.000000003508348723e+00,9.999999999994150457e+00,6.600000000000094680e-01,1.569999999999856621e+00,2.869999999999998636e+03,-2.174999999999950528e+00,-4.944999999999962981e+00,1.346174609251456644e+01,-2.233828612782554845e+00
2.000000000000076739e+01,3.000000002351731698e+00,1.000000000000370193e+01,6.600000000000009193e-01,1.569999999999897700e+00,2.870000000000001819e+03,-2.174999999999928768e+00,-4.944999999999899920e+00,1.344156304112749289e+01,-2.241742727446331962e+00
2.000000000000016698e+01,3.000000001398826832e+00,9.999999999996060041e+00,6.600000000000371125e-01,1.569999999999793783e+00,2.870000000000004093e+03,-2.174999999999976286e+00,-4.945000000000120188e+00,1.342614102055652658e+01,-2.161110797736322198e+00
2.000000000000092371e+01,3.000000001142296480e+00,9.999999999993054445e+00,6.599999999999852651e-01,1.570000000000016049e+00,2.869999999999997726e+03,-2.174999999999988720e+00,-4.944999999999966533e+00,1.336385125355399950e+01,-2.141958684233981725e+00
2.000000000000129319e+01,3.000000000772532260e+00,9.999999999965197617e+00,6.600000000000044720e-01,1.569999999999903473e+00,2.870000000000000000e+03,-2.175000000000010925e+00,-4.945000000000071338e+00,1.338772486452310950e+01,-2.130077170031384082e+00
2.000000000000053646e+01,3.000000001811425232e+00,9.999999999957179142e+00,6.599999999999702771e-01,1.570000000000139728e+00,2.869999999999996362e+03,-2.174999999999937206e+00,-4.944999999999773799e+00,1.337261154279030606e+01,-2.182384383817119300e+00
2.000000000000074252e+01,3.000000001432889807e+00,9.999999999959324981e+00,6.599999999999898170e-01,1.569999999999975193e+00,2.869999999999993634e+03,-2.174999999999988720e+00,-4.944999999999942553e+00,1.342318290216473997e+01,-2.180220637420951402e+00
2.000000000000115108e+01,3.000000000384231758e+00,9.999999999994921396e+00,6.599999999999839329e-01,1.569999999999912133e+00,2.870000000000000455e+03,-2.174999999999950084e+00,-4.944999999999845741e+00,1.343344929801568455e+01,-2.224348418383713888e+00
2.000000000000089173e+01,3.000000000733237471e+00,1.000000000000401101e+01,6.599999999999869305e-01,1.569999999999887930e+00,2.869999999999999545e+03,-2.174999999999989164e+00,-4.944999999999955875e+00,1.343569726332915337e+01,-2.214855761610987184e+00
1.999999999999942446e+01,3.000000001232223212e+00,1.000000000000900791e+01,6.600000000000053602e-01,1.570000000000041140e+00,2.870000000000000455e+03,-2.175000000000050004e+00,-4.945000000000113083e+00,1.339853673999780348e+01,-2.162929799817362220e+00
2.000000000000047251e+01,2.999999999756275404e+00,1.000000000002819966e+01,6.600000000000046940e-01,1.569999999999961426e+00,2.869999999999997272e+03,-2.175000000000061107e+00,-4.945000000000077556e+00,1.325617770469282952e+01,-1.995848155057175388e+00
2.000000000000038369e+01,2.999999999886626689e+00,1.000000000010618351e+01,6.599999999999920375e-01,1.569999999999914131e+00,2.869999999999991360e+03,-2.175000000000001599e+00,-4.944999999999975415e+00,1.344547387492837665e+01,-2.121544851109587349e+00
2.000000000000109424e+01,3.000000000647377707e+00,1.000000000006023448e+01,6.599999999999976996e-01,1.569999999999906803e+00,2.869999999999992269e+03,-2.175000000000020250e+00,-4.945000000000059792e+00,1.343565407952483604e+01,-2.288040708992063355e+00
2.000000000000011013e+01,3.000000000136115119e+00,1.000000000007735679e+01,6.599999999999819345e-01,1.570000000000010942e+00,2.869999999999992724e+03,-2.174999999999980727e+00,-4.944999999999888374e+00,1.336018937170919862e+01,-2.157046017067936639e+00
2.000000000000079936e+01,3.000000000319354321e+00,1.000000000006726353e+01,6.600000000000333378e-01,1.569999999999759588e+00,2.869999999999988177e+03,-2.175000000000147704e+00,-4.945000000000411511e+00,1.345089956143239185e+01,-2.231901767867244146e+00
1.999999999999993960e+01,3.000000002923501885e+00,9.999999999936431294e+00,6.599999999999841549e-01,1.570000000000129070e+00,2.869999999999990450e+03,-2.174999999999931877e+00,-4.944999999999859064e+00,1.342316243369714002e+01,-2.235913009814942232e+00
1.999999999999990763e+01,3.000000003341992016e+00,9.999999999943593565e+00,6.599999999999845990e-01,1.570000000000143947e+00,2.869999999999987722e+03,-2.174999999999938538e+00,-4.944999999999871498e+00,1.343329178237921084e+01,-2.243269872290397426e+00
1.999999999999988987e+01,3.000000002396424836e+00,9.999999999981159959e+00,6.600000000000256772e-01,1.569999999999930340e+00,2.869999999999993634e+03,-2.175000000000056666e+00,-4.945000000000215223e+00,1.337660521352296072e+01,-2.143181871084501200e+00
2.000000000000055778e+01,3.000000001313296139e+00,9.999999999982181365e+00,6.600000000000092459e-01,1.569999999999976081e+00,2.869999999999993634e+03,-2.175000000000101963e+00,-4.945000000000209894e+00,1.329657602067996969e+01,-2.152609843196096495e+00
2.000000000000089173e+01,3.000000002359870965e+00,9.999999999965746511e+00,6.599999999999821565e-01,1.570000000000114637e+00,2.869999999999998636e+03,-2.175000000000015810e+00,-4.944999999999999396e+00,1.344285608708904078e+01,-2.161570541602455098e+00
2.000000000000060751e+01,3.000000003176354735e+00,9.999999999999257483e+00,6.600000000000089129e-01,1.569999999999952101e+00,2.869999999999991360e+03,-2.175000000000087308e+00,-4.945000000000196572e+00,1.336401008939007262e+01,-2.147109768244953365e+00
2.000000000000030553e+01,3.000000002523784293e+00,1.000000000001872102e+01,6.600000000000471045e-01,1.569999999999790230e+00,2.869999999999989086e+03,-2.175000000000151701e+00,-4.945000000000498552e+00,1.345997985026821020e+01,-2.283094277516588555e+00
2.000000000000047962e+01,3.000000001594385068e+00,1.000000000004844836e+01,6.600000000000106892e-01,1.569999999999998508e+00,2.869999999999989541e+03,-2.175000000000072209e+00,-4.945000000000120188e+00,1.337765204489957682e+01,-2.252160870402455384e+00
2.000000000000078515e+01,3.000000001083447998e+00,1.000000000004286704e+01,6.599999999999933697e-01,1.570000000000049134e+00,2.869999999999990905e+03,-2.175000000000007816e+00,-4.944999999999967422e+00,1.341398026718892034e+01,-2.194297930430757937e+00
2.000000000000068567e+01,3.000000000396221722e+00,1.000000000002764899e+01,6.600000000000331157e-01,1.569999999999864615e+00,2.869999999999993179e+03,-2.175000000000125944e+00,-4.945000000000362661e+00,1.338426834304179813e+01,-2.155914436681777513e+00
2.000000000000095213e+01,3.000000003148001415e+00,9.999999999983275600e+00,6.599999999999960343e-01,1.570000000000052909e+00,2.869999999999992724e+03,-2.174999999999989164e+00,-4.945000000000019824e+00,1.340646033011011795e+01,-2.194186145602466720e+00
2.000000000000137490e+01,3.000000003097980983e+00,9.999999999982456700e+00,6.599999999999872635e-01,1.570000000000056684e+00,2.869999999999993634e+03,-2.174999999999981615e+00,-4.944999999999938112e+00,1.336074195751591631e+01,-2.164906121541164019e+00
2.000000000000070344e+01,3.000000002763282492e+00,1.000000000001316813e+01,6.599999999999788258e-01,1.570000000000109086e+00,2.869999999999995453e+03,-2.174999999999947420e+00,-4.944999999999868834e+00,1.342162487880756849e+01,-2.212571153670823687e+00
1.999999999999881695e+01,3.000000001189143006e+00,9.999999999965135444e+00,6.600000000000185718e-01,1.569999999999980300e+00,2.869999999999989086e+03,-2.174999999999990496e+00,-4.944999999999983409e+00,1.338020311480368640e+01,-2.230919587613776400e+00
1.999999999999927880e+01,3.000000000310052428e+00,9.999999999970393461e+00,6.600000000000055822e-01,1.570000000000009388e+00,2.869999999999987267e+03,-2.174999999999943867e+00,-4.944999999999848406e+00,1.336696741234210961e+01,-2.269667759675170426e+00
1.999999999999917932e+01,3.000000000952809387e+00,9.999999999992629895e+00,6.600000000000032507e-01,1.570000000000020046e+00,2.869999999999988631e+03,-2.174999999999928768e+00,-4.944999999999842188e+00,1.338232075556446787e+01,-2.284284252534707349e+00
1.999999999999983658e+01,3.000000001174638609e+00,9.999999999929890748e+00,6.600000000000306732e-01,1.569999999999860618e+00,2.869999999999980901e+03,-2.175000000000002043e+00,-4.945000000000025153e+00,1.332879183871559903e+01,-2.082475056306889005e+00
1.999999999999868550e+01,3.000000000976660086e+00,9.999999999960804686e+00,6.599999999999984768e-01,1.570000000000082885e+00,2.869999999999984084e+03,-2.174999999999898126e+00,-4.944999999999735607e+00,1.337422140689528050e+01,-2.202655184589080939e+00
2.000000000000107292e+01,3.000000000346889628e+00,9.999999999985275778e+00,6.599999999999689448e-01,1.570000000000065787e+00,2.869999999999999545e+03,-2.174999999999978506e+00,-4.944999999999892815e+00,1.333469185572146820e+01,-2.183409551839073259e+00
2.000000000000155609e+01,3.000000000439979608e+00,1.000000000001252154e+01,6.599999999999939249e-01,1.569999999999899254e+00,2.870000000000001364e+03,-2.175000000000002043e+00,-4.945000000000042917e+00,1.344208209631482553e+01,-2.189454091868665575e+00
2.000000000000180123e+01,3.000000000534337907e+00,9.999999999992661870e+00,6.599999999999878186e-01,1.569999999999962315e+00,2.869999999999999545e+03,-2.174999999999961631e+00,-4.944999999999925677e+00,1.342827017386767707e+01,-2.204721094737324361e+00
2.000000000000175859e+01,2.999999999813788065e+00,9.999999999985407229e+00,6.599999999999854872e-01,1.569999999999984297e+00,2.870000000000001364e+03,-2.175000000000004263e+00,-4.945000000000033147e+00,1.335301543685270609e+01,-2.222672959427412387e+00
2.000000000000098410e+01,3.000000001860572585e+00,9.999999999965499597e+00,6.599999999999960343e-01,1.570000000000013607e+00,2.870000000000000909e+03,-2.174999999999986500e+00,-4.945000000000096207e+00,1.337242618611089462e+01,-2.183747423589873726e+00
2.000000000000062172e+01,3.000000001602570521e+00,1.000000000003832668e+01,6.600000000000235678e-01,1.569999999999872609e+00,2.869999999999996362e+03,-2.175000000000109956e+00,-4.945000000000332463e+00,1.340431488100432489e+01,-2.220056545523022784e+00
2.000000000000015632e+01,3.000000002524650711e+00,1.000000000002086686e+01,6.600000000000205702e-01,1.569999999999911910e+00,2.869999999999997272e+03,-2.175000000000101075e+00,-4.945000000000322693e+00,1.342418277044421515e+01,-2.274553334484413103e+00
2.000000000000031619e+01,3.000000001247988823e+00,9.999999999976356690e+00,6.600000000000093570e-01,1.569999999999936113e+00,2.870000000000000455e+03,-2.175000000000002487e+00,-4.945000000000121076e+00,1.338610049113945522e+01,-2.217316783922060441e+00
1.999999999999985789e+01,3.000000002475397665e+00,9.999999999962879471e+00,6.599999999999901501e-01,1.570000000000119300e+00,2.869999999999998636e+03,-2.174999999999949196e+00,-4.944999999999954099e+00,1.339986026996447421e+01,-2.129054115880790743e+00
1.999999999999981526e+01,3.000000001688006623e+00,9.999999999982483345e+00,6.600000000000171285e-01,1.569999999999985407e+00,2.870000000000000000e+03,-2.175000000000040234e+00,-4.945000000000249862e+00,1.337144700210600234e+01,-2.147384183423067139e+00
2.000000000000033040e+01,3.000000002675870636e+00,9.999999999936601824e+00,6.600000000000044720e-01,1.569999999999954543e+00,2.869999999999999545e+03,-2.174999999999983835e+00,-4.945000000000126406e+00,1.336973184402312675e+01,-2.164918221796367170e+00
2.000000000000054357e+01,3.000000001784493886e+00,9.999999999971594278e+00,6.599999999999772715e-01,1.570000000000142615e+00,2.869999999999996362e+03,-2.174999999999946088e+00,-4.944999999999947882e+00,1.341862829213738451e+01,-2.219986259818958807e+00
1.999999999999910472e+01,2.999999998203995766e+00,1.000000000003295497e+01,6.600000000000033618e-01,1.569999999999978302e+00,2.870000000000001364e+03,-2.175000000000046896e+00,-4.945000000000122853e+00,1.326414026283645953e+01,-2.037597247677776835e+00
2.000000000000028422e+01,3.000000001740461997e+00,9.999999999918902205e+00,6.600000000000141309e-01,1.570000000000006057e+00,2.869999999999995453e+03,-2.175000000000040679e+00,-4.945000000000177920e+00,1.345820554220915710e+01,-2.298367341239237582e+00
2.000000000000056488e+01,3.000000000643584297e+00,9.999999999980575538e+00,6.600000000000048050e-01,1.570000000000035145e+00,2.869999999999992724e+03,-2.175000000000053557e+00,-4.945000000000128182e+00,1.334250220132754094e+01,-2.088412949200219249e+00
2.000000000000064304e+01,2.999999999808450113e+00,9.999999999984288124e+00,6.599999999999831557e-01,1.570000000000140616e+00,2.869999999999991360e+03,-2.174999999999951861e+00,-4.944999999999858176e+00,1.342893950439706252e+01,-2.166910808971556079e+00
1.999999999999945643e+01,3.000000001211291512e+00,9.999999999962895458e+00,6.599999999999920375e-01,1.570000000000182139e+00,2.869999999999998181e+03,-2.175000000000011813e+00,-4.944999999999971863e+00,1.340168399487161111e+01,-2.190053556954314917e+00
2.000000000000040146e+01,3.000000000938658928e+00,9.999999999975514697e+00,6.600000000000031397e-01,1.570000000000024487e+00,2.869999999999995907e+03,-2.175000000000020250e+00,-4.945000000000027818e+00,1.342215029407184090e+01,-2.241855910815673703e+00
1.999999999999943157e+01,3.000000002120590814e+00,9.999999999946602713e+00,6.600000000000058042e-01,1.570000000000063567e+00,2.869999999999997726e+03,-2.175000000000032685e+00,-4.945000000000109530e+00,1.345185181931247875e+01,-2.283494783037910647e+00
2.000000000000112976e+01,3.000000002075795091e+00,9.999999999973519849e+00,6.599999999999932587e-01,1.569999999999873719e+00,2.869999999999986812e+03,-2.175000000000018030e+00,-4.944999999999954099e+00,1.350176320853512735e+01,-2.266100317651089657e+00
2.000000000000179767e+01,3.000000001814558725e+00,9.999999999986984633e+00,6.599999999999772715e-01,1.570000000000017160e+00,2.869999999999985448e+03,-2.174999999999943867e+00,-4.944999999999792450e+00,1.351455432190121364e+01,-2.279289725646305165e+00
2.000000000000098765e+01,3.000000001162629104e+00,9.999999999976262544e+00,6.599999999999903721e-01,1.569999999999950102e+00,2.869999999999987267e+03,-2.174999999999957634e+00,-4.944999999999871498e+00,1.354905566969699393e+01,-2.288009455770355860e+00
2.000000000000197886e+01,3.000000001448730913e+00,9.999999999973537612e+00,6.599999999999641709e-01,1.570000000000057572e+00,2.869999999999989086e+03,-2.174999999999935429e+00,-4.944999999999748042e+00,1.347379757815803991e+01,-2.280200221881533373e+00
2.000000000000183675e+01,3.000000001683797546e+00,1.000000000005588952e+01,6.600000000000280087e-01,1.569999999999844631e+00,2.869999999999984539e+03,-2.175000000000059774e+00,-4.945000000000203677e+00,1.351550146546996878e+01,-2.312239037619938653e+00
2.000000000000111200e+01,3.000000001526412330e+00,9.999999999974573228e+00,6.599999999999776046e-01,1.570000000000006501e+00,2.869999999999986812e+03,-2.174999999999930989e+00,-4.944999999999773799e+00,1.355703562144296015e+01,-2.277456924683596728e+00
2.000000000000065015e+01,3.000000003142997862e+00,1.000000000002754597e+01,6.599999999999677236e-01,1.570000000000069340e+00,2.870000000000001364e+03,-2.174999999999858602e+00,-4.944999999999655671e+00,1.343583929549395606e+01,-2.204296572119499142e+00
2.000000000000024158e+01,3.000000002666619814e+00,1.000000000000058265e+01,6.599999999999697220e-01,1.570000000000187468e+00,2.869999999999995453e+03,-2.174999999999866596e+00,-4.944999999999665441e+00,1.332320993080900884e+01,-2.182418319231513859e+00
2.000000000000047962e+01,3.000000002778173691e+00,9.999999999996637357e+00,6.600000000000051381e-01,1.569999999999913465e+00,2.870000000000000000e+03,-2.174999999999986500e+00,-4.945000000000079332e+00,1.338211294948629870e+01,-2.115629098278964726e+00
1.999999999999957723e+01,3.000000002895706341e+00,9.999999999975795362e+00,6.599999999999872635e-01,1.570000000000082885e+00,2.869999999999994543e+03,-2.174999999999947420e+00,-4.944999999999906137e+00,1.340116620156805816e+01,-2.219593231339177741e+00
2.000000000000060041e+01,3.000000002239967323e+00,9.999999999973118392e+00,6.600000000000276756e-01,1.569999999999762030e+00,2.870000000000001364e+03,-2.174999999999988720e+00,-4.945000000000129070e+00,1.347442807007855592e+01,-2.243819238282744877e+00
1.999999999999989697e+01,3.000000002572896118e+00,9.999999999996640909e+00,6.600000000000312284e-01,1.569999999999818652e+00,2.870000000000000909e+03,-2.175000000000013145e+00,-4.945000000000193907e+00,1.346140123515583831e+01,-2.233535952044098050e+00
1.999999999999951683e+01,3.000000001702875174e+00,1.000000000004768985e+01,6.599999999999933697e-01,1.570000000000021378e+00,2.870000000000002274e+03,-2.174999999999903011e+00,-4.944999999999803997e+00,1.339542897768439644e+01,-2.247834675825779449e+00
1.999999999999924327e+01,3.000000003172063945e+00,1.000000000000405365e+01,6.599999999999751621e-01,1.570000000000114193e+00,2.870000000000000455e+03,-2.174999999999874589e+00,-4.944999999999723173e+00,1.342035630038249394e+01,-2.181286686396051611e+00
2.000000000000010303e+01,3.000000003186929831e+00,1.000000000001694822e+01,6.600000000000251221e-01,1.569999999999854401e+00,2.869999999999996817e+03,-2.174999999999982059e+00,-4.945000000000089102e+00,1.345847628006446328e+01,-2.193923719776591508e+00
2.000000000000068212e+01,3.000000003134469129e+00,1.000000000003273293e+01,6.600000000000156852e-01,1.569999999999865503e+00,2.869999999999994998e+03,-2.174999999999977618e+00,-4.945000000000041140e+00,1.348410214065755142e+01,-2.220037394652792262e+00
1.999999999999953104e+01,3.000000001730426469e+00,1.000000000002097345e+01,6.599999999999994760e-01,1.569999999999957652e+00,2.870000000000002728e+03,-2.174999999999956746e+00,-4.945000000000005613e+00,1.341366192065024343e+01,-2.150375113546962424e+00
2.000000000000103384e+01,3.000000000026094682e+00,1.000000000002563105e+01,6.600000000000346700e-01,1.569999999999722951e+00,2.870000000000001364e+03,-2.175000000000112621e+00,-4.945000000000322693e+00,1.338720069438951832e+01,-1.832071556979393945e+00
2.000000000000070699e+01,3.000000001850770204e+00,1.000000000002666845e+01,6.600000000000058042e-01,1.569999999999998508e+00,2.870000000000000455e+03,-2.174999999999996714e+00,-4.945000000000026041e+00,1.331694801887668866e+01,-2.194535073276307813e+00
2.000000000000121148e+01,2.999999999542692919e+00,1.000000000002215117e+01,6.600000000000116884e-01,1.569999999999965201e+00,2.869999999999984084e+03,-2.175000000000004263e+00,-4.945000000000110418e+00,1.331218487881496060e+01,-2.285917184880957187e+00
2.000000000000056133e+01,2.999999999180837484e+00,9.999999999984813925e+00,6.599999999999904832e-01,1.570000000000029372e+00,2.869999999999984993e+03,-2.174999999999984723e+00,-4.944999999999938112e+00,1.330167346293212383e+01,-2.316444630488275980e+00
2.000000000000046896e+01,3.000000000006585843e+00,1.000000000002279954e+01,6.600000000000213474e-01,1.569999999999874163e+00,2.869999999999987722e+03,-2.175000000000043787e+00,-4.945000000000125517e+00,1.325742456051221829e+01,-2.290796543151559561e+00
1.999999999999985079e+01,3.000000001311063258e+00,1.000000000003051071e+01,6.600000000000103562e-01,1.570000000000039364e+00,2.869999999999993179e+03,-2.175000000000049560e+00,-4.945000000000185025e+00,1.339274657673367841e+01,-2.123755829485931113e+00
1.999999999999957723e+01,3.000000000625283825e+00,1.000000000000100897e+01,6.600000000000030287e-01,1.570000000000145501e+00,2.869999999999994088e+03,-2.175000000000014477e+00,-4.945000000000076668e+00,1.337967305656276373e+01,-2.207159460038687904e+00
2.000000000000120792e+01,3.000000001942509265e+00,1.000000000001933032e+01,6.600000000000032507e-01,1.569999999999993401e+00,2.869999999999986812e+03,-2.174999999999996714e+00,-4.944999999999978080e+00,1.334408267901629230e+01,-2.207661055313526077e+00
2.000000000000003908e+01,3.000000000981930981e+00,9.999999999985305976e+00,6.600000000000010303e-01,1.570000000000050688e+00,2.869999999999992724e+03,-2.175000000000035350e+00,-4.945000000000122853e+00,1.357630239282985229e+01,-2.338316505199637074e+00
2.000000000000074252e+01,3.000000001093755753e+00,1.000000000002056844e+01,6.600000000000014744e-01,1.569999999999985407e+00,2.869999999999992724e+03,-2.175000000000024691e+00,-4.945000000000102425e+00,1.361601525937139989e+01,-2.374429367635383592e+00
2.000000000000049027e+01,3.000000001384475201e+00,9.999999999992551736e+00,6.600000000000002531e-01,1.569999999999959872e+00,2.869999999999999091e+03,-2.175000000000038014e+00,-4.945000000000129958e+00,1.353927022966008131e+01,-2.238115078340894293e+00
2.000000000000088818e+01,3.000000001918115444e+00,9.999999999920241578e+00,6.600000000000065814e-01,1.569999999999980522e+00,2.869999999999987722e+03,-2.174999999999969180e+00,-4.945000000000054463e+00,1.355935480932427062e+01,-2.355370652053081049e+00
2.000000000000025580e+01,3.000000001342962186e+00,9.999999999948245843e+00,6.600000000000050271e-01,1.570000000000022489e+00,2.869999999999989086e+03,-2.174999999999994937e+00,-4.945000000000074891e+00,1.353788372781422922e+01,-2.289982804201738276e+00
2.000000000000054712e+01,2.999999999837368758e+00,1.000000000000872014e+01,6.599999999999826006e-01,1.570000000000091767e+00,2.869999999999993634e+03,-2.174999999999985612e+00,-4.944999999999973639e+00,1.354221028713542729e+01,-2.347128927307351898e+00
2.000000000000061107e+01,2.999999999773211190e+00,9.999999999985073273e+00,6.599999999999810463e-01,1.570000000000082441e+00,2.869999999999994998e+03,-2.174999999999965183e+00,-4.944999999999939888e+00,1.355116666956857863e+01,-2.365601769202562377e+00
2.000000000000082068e+01,3.000000001007246730e+00,1.000000000000014211e+01,6.600000000000119105e-01,1.569999999999864171e+00,2.869999999999992724e+03,-2.175000000000045119e+00,-4.945000000000190354e+00,1.359230842464312872e+01,-2.275815195521911249e+00
2.000000000000033751e+01,3.000000001259515159e+00,9.999999999997054800e+00,6.600000000000169065e-01,1.569999999999880824e+00,2.869999999999994998e+03,-2.175000000000063327e+00,-4.945000000000270290e+00,1.361293060646348785e+01,-2.336974632176969102e+00
2.000000000000100187e+01,3.000000000812099721e+00,1.000000000002922995e+01,6.600000000000129097e-01,1.569999999999859286e+00,2.869999999999997272e+03,-2.175000000000026912e+00,-4.945000000000174367e+00,1.360112027908212440e+01,-2.289985115146174532e+00
2.000000000000049027e+01,3.000000000646313225e+00,1.000000000004863843e+01,6.600000000000120215e-01,1.569999999999871498e+00,2.869999999999996362e+03,-2.175000000000034017e+00,-4.945000000000194795e+00,1.357068877922132621e+01,-2.316140358732816207e+00
2.000000000000116884e+01,3.000000001440660924e+00,1.000000000003033662e+01,6.599999999999830447e-01,1.570000000000056684e+00,2.869999999999996362e+03,-2.174999999999930989e+00,-4.944999999999844853e+00,1.356824954342046929e+01,-2.320475760007129296e+00
2.000000000000116884e+01,3.000000000779203368e+00,1.000000000002869882e+01,6.599999999999928146e-01,1.570000000000031815e+00,2.869999999999992724e+03,-2.174999999999974953e+00,-4.944999999999956763e+00,1.357221363727697749e+01,-2.306982487194916054e+00
1.999999999999938538e+01,3.000000000545416601e+00,1.000000000006175860e+01,6.600000000000084688e-01,1.569999999999990514e+00,2.870000000000002274e+03,-2.175000000000048228e+00,-4.945000000000103313e+00,1.335085747957545621e+01,-2.146247363811860875e+00
2.000000000000092015e+01,3.000000000704266423e+00,1.000000000000539835e+01,6.599999999999957012e-01,1.570000000000017382e+00,2.870000000000000909e+03,-2.174999999999961631e+00,-4.944999999999948770e+00,1.336236713312750091e+01,-2.123933150217673482e+00
1.999999999999977263e+01,3.000000001057715249e+00,1.000000000003642242e+01,6.599999999999945910e-01,1.569999999999933005e+00,2.870000000000001819e+03,-2.174999999999958078e+00,-4.944999999999871498e+00,1.339696292956172208e+01,-2.117520840042797836e+00
2.000000000000012079e+01,3.000000001548216666e+00,1.000000000004193978e+01,6.599999999999933697e-01,1.570000000000015161e+00,2.869999999999999545e+03,-2.175000000000011813e+00,-4.945000000000013607e+00,1.341510352271050266e+01,-2.226942151848236406e+00
2.000000000000038369e+01,3.000000002543574684e+00,1.000000000009353762e+01,6.600000000000199041e-01,1.569999999999878160e+00,2.870000000000000000e+03,-2.175000000000064215e+00,-4.945000000000130846e+00,1.336254624781160949e+01,-2.201232517982830039e+00
1.999999999999912248e+01,3.000000002253961018e+00,1.000000000000995115e+01,6.599999999999729416e-01,1.570000000000218776e+00,2.870000000000000909e+03,-2.174999999999921663e+00,-4.944999999999690310e+00,1.335081762513034143e+01,-2.212747189460375630e+00
2.000000000000053646e+01,3.000000003378224811e+00,9.999999999975008436e+00,6.599999999999829337e-01,1.570000000000094431e+00,2.869999999999988631e+03,-2.175000000000028688e+00,-4.944999999999990514e+00,1.331835124459651176e+01,-2.219337162272857711e+00
1.999999999999844036e+01,3.000000001940609451e+00,9.999999999969567455e+00,6.599999999999764944e-01,1.570000000000180140e+00,2.870000000000005912e+03,-2.174999999999911893e+00,-4.944999999999718732e+00,1.333239336252303531e+01,-2.242736823154441783e+00
1.999999999999961986e+01,3.000000000943129130e+00,9.999999999983044674e+00,6.600000000000041389e-01,1.569999999999942109e+00,2.869999999999999545e+03,-2.174999999999979838e+00,-4.944999999999967422e+00,1.331852888574079152e+01,-2.256188437865645380e+00
2.000000000000178346e+01,3.000000000933133570e+00,9.999999999938241402e+00,6.599999999999920375e-01,1.569999999999978968e+00,2.869999999999991360e+03,-2.175000000000022915e+00,-4.944999999999992291e+00,1.325330314229199402e+01,-2.242194013929127205e+00
2.000000000000003197e+01,3.000000000526531707e+00,9.999999999986403765e+00,6.600000000000093570e-01,1.569999999999982077e+00,2.870000000000001364e+03,-2.174999999999962963e+00,-4.945000000000000284e+00,1.340046217766744086e+01,-2.196791510366510103e+00
1.999999999999935341e+01,3.000000001097848479e+00,9.999999999998804512e+00,6.599999999999954792e-01,1.570000000000015827e+00,2.869999999999999091e+03,-2.174999999999951861e+00,-4.944999999999842188e+00,1.340888233836516719e+01,-2.123063242170283527e+00
1.999999999999877787e+01,3.000000002589237713e+00,9.999999999974569675e+00,6.599999999999940359e-01,1.570000000000073115e+00,2.870000000000000909e+03,-2.174999999999931433e+00,-4.944999999999831530e+00,1.347696511895274796e+01,-2.264666302606607395e+00
1.999999999999970157e+01,3.000000001865090749e+00,9.999999999997490008e+00,6.599999999999817124e-01,1.570000000000094209e+00,2.869999999999999091e+03,-2.174999999999928768e+00,-4.944999999999761364e+00,1.343538514699562292e+01,-2.080873695567599935e+00
1.999999999999999289e+01,3.000000001840191999e+00,1.000000000002484057e+01,6.599999999999800471e-01,1.570000000000038920e+00,2.869999999999999545e+03,-2.174999999999903455e+00,-4.944999999999712514e+00,1.344500890697401019e+01,-2.310491123252379708e+00
1.999999999999940314e+01,3.000000001428988039e+00,9.999999999946503237e+00,6.600000000000060263e-01,1.570000000000045359e+00,2.870000000000000000e+03,-2.175000000000022471e+00,-4.945000000000111307e+00,1.340901548578249702e+01,-2.144044405788915864e+00
2.000000000000003553e+01,3.000000002053258896e+00,9.999999999977658760e+00,6.599999999999676126e-01,1.570000000000128626e+00,2.869999999999996362e+03,-2.174999999999907452e+00,-4.944999999999681428e+00,1.341326242537857816e+01,-2.167477412559041028e+00
2.000000000000002132e+01,3.000000002408284683e+00,9.999999999992079225e+00,6.600000000000073586e-01,1.569999999999926565e+00,2.869999999999998181e+03,-2.175000000000019806e+00,-4.945000000000072227e+00,1.347646166660698874e+01,-2.208517706272461911e+00
2.000000000000024514e+01,3.000000002606214355e+00,9.999999999977154275e+00,6.600000000000108002e-01,1.569999999999877494e+00,2.869999999999997272e+03,-2.174999999999999378e+00,-4.945000000000042029e+00,1.346740189198423820e+01,-2.187731412458358893e+00
2.000000000000050804e+01,3.000000001761081059e+00,1.000000000003546674e+01,6.600000000000088018e-01,1.569999999999887930e+00,2.869999999999998181e+03,-2.174999999999984723e+00,-4.944999999999928342e+00,1.343600306801360666e+01,-2.138426341316518542e+00
2.000000000000138556e+01,3.000000000939835321e+00,1.000000000000090061e+01,6.599999999999880407e-01,1.570000000000006724e+00,2.869999999999996362e+03,-2.174999999999920330e+00,-4.944999999999840412e+00,1.334670815820129697e+01,-2.265907584212909054e+00
2.000000000000023448e+01,3.000000002258921050e+00,9.999999999985925925e+00,6.599999999999857092e-01,1.570000000000065787e+00,2.869999999999994543e+03,-2.174999999999934985e+00,-4.944999999999841300e+00,1.339770814224583617e+01,-2.117708420520989065e+00
2.000000000000149569e+01,3.000000002692808199e+00,1.000000000002527756e+01,6.599999999999979217e-01,1.569999999999859286e+00,2.869999999999993179e+03,-2.175000000000052225e+00,-4.945000000000094431e+00,1.338535471643547048e+01,-2.174021529978363176e+00
2.000000000000076383e+01,3.000000002498490304e+00,1.000000000000696865e+01,6.599999999999913713e-01,1.569999999999887486e+00,2.869999999999999545e+03,-2.174999999999991829e+00,-4.945000000000009166e+00,1.342413841429885579e+01,-2.180934937784487548e+00
2.000000000000178701e+01,3.000000001539052441e+00,1.000000000000904343e+01,6.600000000000023626e-01,1.569999999999858620e+00,2.869999999999992724e+03,-2.175000000000053113e+00,-4.945000000000112195e+00,1.339670570494689450e+01,-2.226962347287133603e+00
2.000000000000135358e+01,3.000000003307573770e+00,1.000000000003772982e+01,6.600000000000136868e-01,1.569999999999793561e+00,2.869999999999992269e+03,-2.175000000000015810e+00,-4.945000000000079332e+00,1.341555196835554220e+01,-2.231597492314328246e+00
2.000000000000127898e+01,3.000000002357515960e+00,1.000000000000428990e+01,6.600000000000004752e-01,1.569999999999864615e+00,2.869999999999996362e+03,-2.175000000000003819e+00,-4.945000000000040252e+00,1.342383694356099966e+01,-2.152333959143680975e+00
2.000000000000119371e+01,3.000000002198696780e+00,1.000000000002469136e+01,6.599999999999650591e-01,1.570000000000036922e+00,2.869999999999995907e+03,-2.174999999999941647e+00,-4.944999999999772022e+00,1.338029753959588675e+01,-2.103702399911474785e+00
2.000000000000212808e+01,3.000000003050192987e+00,1.000000000001008083e+01,6.600000000000185718e-01,1.569999999999743157e+00,2.869999999999994543e+03,-2.175000000000089972e+00,-4.945000000000251639e+00,1.343736083977917239e+01,-2.163075856960567478e+00
2.000000000000171596e+01,2.999999999886174162e+00,1.000000000006133050e+01,6.600000000000094680e-01,1.569999999999877938e+00,2.870000000000000909e+03,-2.175000000000069100e+00,-4.945000000000198348e+00,1.348105332277319413e+01,-2.154562111252704248e+00
2.000000000000206413e+01,2.999999999782752891e+00,1.000000000009318413e+01,6.600000000000109113e-01,1.569999999999845963e+00,2.869999999999999545e+03,-2.175000000000097522e+00,-4.945000000000251639e+00,1.342921417171382892e+01,-2.172962926316774013e+00
2.000000000000116174e+01,3.000000000365668829e+00,1.000000000011261392e+01,6.599999999999800471e-01,1.570000000000033813e+00,2.870000000000004093e+03,-2.175000000000034461e+00,-4.945000000000015383e+00,1.342697903915438218e+01,-2.162377548824950591e+00
2.000000000000124700e+01,2.999999998381923216e+00,1.000000000007543655e+01,6.600000000000173506e-01,1.569999999999904805e+00,2.869999999999993634e+03,-2.175000000000111289e+00,-4.945000000000248974e+00,1.337805756719572869e+01,-2.161850308650002717e+00
2.000000000000139622e+01,2.999999998848535299e+00,1.000000000008602363e+01,6.599999999999902611e-01,1.569999999999951434e+00,2.870000000000000455e+03,-2.175000000000087308e+00,-4.945000000000105977e+00,1.342067301653834654e+01,-2.114790908263510794e+00
2.000000000000172307e+01,2.999999999802107631e+00,1.000000000007870327e+01,6.600000000000059153e-01,1.569999999999881046e+00,2.870000000000000000e+03,-2.175000000000061107e+00,-4.945000000000158380e+00,1.347252395820480508e+01,-2.086373605320853919e+00
2.000000000000065370e+01,2.999999998605055396e+00,1.000000000012804513e+01,6.599999999999819345e-01,1.570000000000054241e+00,2.869999999999994543e+03,-2.175000000000041123e+00,-4.944999999999985185e+00,1.344484216390768694e+01,-2.308372800872454889e+00
2.000000000000146727e+01,2.999999999121542249e+00,1.000000000009259615e+01,6.599999999999901501e-01,1.569999999999959650e+00,2.869999999999994998e+03,-2.175000000000035794e+00,-4.945000000000010054e+00,1.340361569695450683e+01,-2.283676951726835824e+00
2.000000000000042277e+01,2.999999999132942907e+00,1.000000000001814016e+01,6.599999999999680567e-01,1.570000000000167262e+00,2.869999999999998181e+03,-2.174999999999929212e+00,-4.944999999999704521e+00,1.343939022869190048e+01,-2.196198752303098800e+00
2.000000000000088107e+01,2.999999999673207185e+00,1.000000000001165645e+01,6.599999999999843769e-01,1.570000000000111751e+00,2.869999999999994998e+03,-2.175000000000001599e+00,-4.944999999999929230e+00,1.340905910831610193e+01,-2.198196474388815158e+00
2.000000000000052225e+01,3.000000000009483081e+00,1.000000000000491873e+01,6.599999999999830447e-01,1.570000000000138396e+00,2.869999999999998181e+03,-2.174999999999966072e+00,-4.944999999999843077e+00,1.342707057939134074e+01,-2.195301707650318956e+00
2.000000000000040856e+01,3.000000000354490215e+00,1.000000000004210499e+01,6.599999999999955902e-01,1.570000000000044249e+00,2.869999999999997272e+03,-2.174999999999947420e+00,-4.944999999999883045e+00,1.339482996539821258e+01,-2.153491966304800886e+00
1.999999999999994316e+01,3.000000000460701255e+00,1.000000000004151701e+01,6.599999999999768274e-01,1.570000000000123741e+00,2.869999999999993179e+03,-2.174999999999948752e+00,-4.944999999999763141e+00,1.341206903091979719e+01,-2.172766466469153723e+00
2.000000000000001066e+01,3.000000000751953610e+00,1.000000000007471179e+01,6.599999999999620615e-01,1.570000000000166374e+00,2.869999999999994088e+03,-2.174999999999887912e+00,-4.944999999999667217e+00,1.342513688313720088e+01,-2.302127100933842208e+00
1.999999999999975842e+01,3.000000000634293063e+00,1.000000000006459544e+01,6.599999999999692779e-01,1.570000000000170148e+00,2.869999999999993179e+03,-2.174999999999886580e+00,-4.944999999999693863e+00,1.337561435802166798e+01,-2.273510308825648085e+00
1.999999999999913669e+01,3.000000000539557732e+00,1.000000000007499423e+01,6.600000000000048050e-01,1.569999999999990958e+00,2.869999999999992724e+03,-2.175000000000073985e+00,-4.945000000000137064e+00,1.340403640115341588e+01,-2.225284817240110513e+00
2.000000000000014921e+01,3.000000001402338246e+00,1.000000000003900702e+01,6.600000000000016964e-01,1.570000000000019158e+00,2.869999999999992724e+03,-2.174999999999926548e+00,-4.944999999999913243e+00,1.346253733951644627e+01,-2.185614383011447615e+00
2.000000000000004263e+01,3.000000000951076995e+00,1.000000000009693579e+01,6.600000000000072475e-01,1.569999999999992735e+00,2.869999999999995453e+03,-2.175000000000038902e+00,-4.945000000000093543e+00,1.342002025413507660e+01,-2.171768188335953198e+00
2.000000000000049383e+01,3.000000001133623861e+00,1.000000000004427747e+01,6.599999999999969225e-01,1.569999999999997176e+00,2.869999999999995907e+03,-2.174999999999959854e+00,-4.944999999999958540e+00,1.350950385146431643e+01,-2.182966394792931197e+00
2.000000000000088463e+01,3.000000000586016125e+00,1.000000000005630874e+01,6.599999999999858202e-01,1.570000000000056462e+00,2.869999999999997726e+03,-2.174999999999936762e+00,-4.944999999999875939e+00,1.348837348218588339e+01,-2.190720325280336223e+00
1.999999999999981881e+01,3.000000000746275042e+00,1.000000000011978685e+01,6.600000000000015854e-01,1.570000000000008278e+00,2.869999999999994088e+03,-2.175000000000009148e+00,-4.945000000000014495e+00,1.346816146712873241e+01,-2.243090542800767917e+00
2.000000000000009592e+01,2.999999999309362675e+00,1.000000000012580514e+01,6.600000000000080247e-01,1.569999999999975637e+00,2.869999999999996362e+03,-2.174999999999994049e+00,-4.944999999999990514e+00,1.339461528194114059e+01,-2.094754075010019534e+00
1.999999999999911537e+01,3.000000001886870216e+00,1.000000000006923884e+01,6.599999999999813793e-01,1.570000000000101981e+00,2.869999999999994998e+03,-2.174999999999969624e+00,-4.944999999999841300e+00,1.349161587762702119e+01,-2.234628873750072575e+00
1.999999999999945288e+01,3.000000001740337652e+00,1.000000000006628120e+01,6.599999999999754952e-01,1.570000000000091323e+00,2.869999999999994543e+03,-2.174999999999938982e+00,-4.944999999999755147e+00,1.348480717588039468e+01,-2.216818428049984746e+00
2.000000000000032685e+01,3.000000000650378418e+00,1.000000000011520918e+01,6.600000000000294520e-01,1.569999999999896367e+00,2.869999999999997726e+03,-2.175000000000128164e+00,-4.945000000000330687e+00,1.340510672550731464e+01,-2.179846938927547217e+00
2.000000000000050093e+01,3.000000001301420749e+00,1.000000000013325518e+01,6.600000000000265654e-01,1.569999999999882156e+00,2.869999999999990905e+03,-2.175000000000095746e+00,-4.945000000000220552e+00,1.347735267730734066e+01,-2.292891245639527398e+00
1.999999999999905143e+01,3.000000001355724422e+00,1.000000000004838085e+01,6.599999999999943689e-01,1.570000000000145945e+00,2.869999999999989996e+03,-2.175000000000018030e+00,-4.945000000000004725e+00,1.339512333274589295e+01,-2.222280324227400961e+00
2.000000000000041567e+01,3.000000002488776740e+00,9.999999999949128693e+00,6.600000000000197931e-01,1.569999999999850848e+00,2.869999999999998181e+03,-2.175000000000070877e+00,-4.945000000000256080e+00,1.337481021318893859e+01,-1.872502183471361104e+00
2.000000000000036948e+01,3.000000002301268065e+00,1.000000000002363976e+01,6.599999999999847100e-01,1.570000000000032703e+00,2.869999999999993634e+03,-2.174999999999931433e+00,-4.944999999999828866e+00,1.344966376526334884e+01,-2.286562726338366325e+00
1.999999999999932498e+01,3.000000002658860687e+00,1.000000000003740652e+01,6.600000000000241229e-01,1.569999999999917240e+00,2.869999999999992269e+03,-2.175000000000068212e+00,-4.945000000000207230e+00,1.339336628553487785e+01,-2.250018058556774836e+00
1.999999999999872813e+01,3.000000002316664638e+00,9.999999999964382269e+00,6.600000000000196820e-01,1.570000000000092655e+00,2.869999999999994543e+03,-2.175000000000026468e+00,-4.945000000000122853e+00,1.337213505340948316e+01,-2.114096889973292814e+00
1.999999999999977618e+01,3.000000003470821852e+00,9.999999999997104538e+00,6.599999999999824896e-01,1.570000000000153495e+00,2.869999999999994088e+03,-2.174999999999925659e+00,-4.944999999999810214e+00,1.338875091693905972e+01,-2.159922910307807697e+00
1.999999999999965539e+01,3.000000003314624575e+00,1.000000000000150280e+01,6.599999999999489608e-01,1.570000000000261187e+00,2.869999999999998181e+03,-2.174999999999830180e+00,-4.944999999999511786e+00,1.343645365740823472e+01,-2.185527053823096644e+00
1.999999999999942446e+01,3.000000001783120318e+00,9.999999999974900078e+00,6.599999999999895950e-01,1.570000000000113749e+00,2.869999999999993634e+03,-2.174999999999951861e+00,-4.944999999999848406e+00,1.337052070627031419e+01,-2.185853206525953940e+00
1.999999999999980460e+01,3.000000003300216100e+00,9.999999999992329691e+00,6.600000000000486589e-01,1.569999999999811324e+00,2.869999999999994543e+03,-2.175000000000073097e+00,-4.945000000000346674e+00,1.342128711949809983e+01,-2.190377282883627874e+00
1.999999999999865352e+01,3.000000004373162277e+00,9.999999999966300734e+00,6.599999999999748290e-01,1.570000000000203455e+00,2.869999999999994088e+03,-2.174999999999915001e+00,-4.944999999999728502e+00,1.342374599734736762e+01,-2.202945360189241697e+00
1.999999999999902656e+01,3.000000003852149710e+00,9.999999999990340172e+00,6.600000000000098010e-01,1.569999999999946549e+00,2.870000000000002274e+03,-2.174999999999946088e+00,-4.944999999999950546e+00,1.334983935601650096e+01,-2.159915317397591572e+00
2.000000000000005329e+01,3.000000001247602910e+00,9.999999999918077975e+00,6.599999999999929257e-01,1.570000000000008500e+00,2.869999999999999545e+03,-2.174999999999982503e+00,-4.944999999999988738e+00,1.336995391671693767e+01,-2.284156046439829169e+00
1.999999999999991473e+01,3.000000001264396143e+00,9.999999999972967402e+00,6.599999999999922595e-01,1.569999999999943219e+00,2.870000000000003183e+03,-2.174999999999999822e+00,-4.945000000000020712e+00,1.343531819603066069e+01,-2.292388144863886534e+00
2.000000000000147438e+01,3.000000001420036977e+00,1.000000000002072653e+01,6.600000000000195710e-01,1.569999999999830420e+00,2.869999999999990905e+03,-2.174999999999981615e+00,-4.945000000000063345e+00,1.344032010290811208e+01,-2.424418514474011577e+00
2.000000000000106581e+01,3.000000001556715645e+00,9.999999999997756461e+00,6.600000000000102451e-01,1.569999999999949658e+00,2.869999999999990905e+03,-2.174999999999971401e+00,-4.945000000000055351e+00,1.340291322387582440e+01,-2.388680880393410977e+00
1.999999999999842970e+01,2.999999999961278085e+00,1.000000000008200018e+01,6.600000000000078026e-01,1.570000000000025153e+00,2.869999999999992724e+03,-2.174999999999938982e+00,-4.944999999999880380e+00,1.340742171814047978e+01,-2.163940588044947599e+00
1.999999999999975842e+01,3.000000000028192559e+00,1.000000000003497469e+01,6.600000000000174616e-01,1.569999999999998508e+00,2.869999999999985903e+03,-2.175000000000022027e+00,-4.945000000000094431e+00,1.336032247890003966e+01,-2.206864373016638403e+00
1.999999999999979394e+01,2.999999999950822449e+00,1.000000000004836842e+01,6.599999999999940359e-01,1.570000000000054241e+00,2.869999999999997272e+03,-2.174999999999889688e+00,-4.944999999999830642e+00,1.338989795403988303e+01,-2.164336496093361539e+00
1.999999999999902300e+01,3.000000000953608748e+00,1.000000000002729372e+01,6.600000000000211253e-01,1.569999999999990958e+00,2.869999999999997726e+03,-2.175000000000022027e+00,-4.945000000000101537e+00,1.340903544270048009e+01,-2.409860259744586841e+00
1.999999999999985434e+01,3.000000001499930402e+00,9.999999999979314325e+00,6.599999999999930367e-01,1.570000000000002727e+00,2.870000000000000000e+03,-2.174999999999890132e+00,-4.944999999999834195e+00,1.341249171019143738e+01,-2.089988392649851701e+00
1.999999999999981526e+01,3.000000000894009311e+00,9.999999999955091923e+00,6.599999999999768274e-01,1.570000000000055573e+00,2.869999999999997726e+03,-2.174999999999892353e+00,-4.944999999999732943e+00,1.340314487624613449e+01,-2.168285361376149911e+00
1.999999999999989342e+01,3.000000000399287714e+00,1.000000000000788880e+01,6.599999999999908162e-01,1.569999999999966533e+00,2.869999999999998181e+03,-2.174999999999901235e+00,-4.944999999999804885e+00,1.338803423486267263e+01,-2.210975908060401007e+00
1.999999999999987921e+01,3.000000000555507196e+00,1.000000000000171418e+01,6.600000000000099121e-01,1.569999999999909912e+00,2.869999999999997726e+03,-2.174999999999958078e+00,-4.945000000000004725e+00,1.339140774514403454e+01,-2.138196389769869921e+00
1.999999999999997513e+01,3.000000002102729102e+00,1.000000000001889155e+01,6.600000000000041389e-01,1.569999999999960982e+00,2.870000000000000000e+03,-2.174999999999943867e+00,-4.944999999999939888e+00,1.337809964357799153e+01,-2.163898912242811168e+00
1.999999999999926814e+01,3.000000001542375561e+00,9.999999999958806285e+00,6.599999999999959233e-01,1.569999999999967422e+00,2.869999999999999091e+03,-2.174999999999854605e+00,-4.944999999999766693e+00,1.343382322206383250e+01,-2.158954633114774424e+00
1.999999999999896261e+01,3.000000001523854820e+00,9.999999999935203832e+00,6.600000000000206812e-01,1.569999999999965645e+00,2.869999999999997272e+03,-2.174999999999960298e+00,-4.945000000000042917e+00,1.342581901531448629e+01,-2.082491594810559121e+00
1.999999999999992895e+01,3.000000001326630361e+00,1.000000000000509459e+01,6.600000000000028066e-01,1.569999999999942775e+00,2.869999999999997272e+03,-2.175000000000033129e+00,-4.945000000000051799e+00,1.340521046781756098e+01,-2.168799838825860249e+00
1.999999999999868550e+01,3.000000000387156529e+00,9.999999999956663999e+00,6.600000000000014744e-01,1.570000000000026708e+00,2.870000000000002274e+03,-2.174999999999959854e+00,-4.944999999999927454e+00,1.351657699586159289e+01,-2.165551520531548757e+00
1.999999999999982947e+01,2.999999999445742915e+00,9.999999999993361754e+00,6.599999999999769384e-01,1.570000000000098650e+00,2.870000000000000000e+03,-2.174999999999896350e+00,-4.944999999999726725e+00,1.340294186461048120e+01,-2.172326854092391457e+00
2.000000000000040146e+01,3.000000000802921285e+00,1.000000000000350475e+01,6.600000000000171285e-01,1.569999999999866169e+00,2.869999999999999091e+03,-2.175000000000006040e+00,-4.945000000000028706e+00,1.342934965973292805e+01,-2.219280808408238492e+00
2.000000000000072831e+01,3.000000000111555654e+00,1.000000000002638068e+01,6.600000000000203482e-01,1.569999999999831752e+00,2.869999999999995907e+03,-2.175000000000021583e+00,-4.945000000000096207e+00,1.339741465144141763e+01,-2.238858986333820411e+00
2.000000000000061107e+01,3.000000000221858976e+00,9.999999999997958966e+00,6.600000000000095790e-01,1.569999999999925011e+00,2.870000000000000455e+03,-2.174999999999923883e+00,-4.944999999999905249e+00,1.348052657196294923e+01,-2.182717368850696005e+00
1.999999999999981526e+01,2.999999999834335185e+00,9.999999999983735677e+00,6.600000000000054712e-01,1.569999999999954321e+00,2.870000000000001364e+03,-2.174999999999917222e+00,-4.944999999999881268e+00,1.345862881049176707e+01,-2.179757973838500451e+00
2.000000000000040501e+01,3.000000001055787902e+00,1.000000000000083666e+01,6.600000000000076916e-01,1.569999999999927009e+00,2.869999999999999545e+03,-2.174999999999924771e+00,-4.944999999999900808e+00,1.346281470625829968e+01,-2.196505276768846660e+00
2.000000000000042633e+01,3.000000001151566842e+00,1.000000000001112177e+01,6.600000000000104672e-01,1.569999999999913465e+00,2.869999999999999091e+03,-2.174999999999914113e+00,-4.944999999999898144e+00,1.344702246507249122e+01,-2.212965313826819269e+00
