1.999999999999917932e+01,3.000000000818942691e+00,1.000000000001797495e+01,6.600000000000164624e-01,1.569999999999965645e+00,2.869999999999987722e+03,-2.174999999999999822e+00,-4.945000000000081997e+00,1.337827737844707165e+01,-2.165591948401372591e+00
2.000000000000012434e+01,3.000000000530032462e+00,1.000000000000878408e+01,6.600000000000122435e-01,1.570000000000009166e+00,2.869999999999997726e+03,-2.175000000000007816e+00,-4.944999999999973639e+00,1.338494376141605535e+01,-2.139868198318862991e+00
1.999999999999836220e+01,3.000000000980067583e+00,1.000000000000085620e+01,6.600000000000297851e-01,1.570000000000093099e+00,2.869999999999989996e+03,-2.175000000000017586e+00,-4.945000000000189466e+00,1.337854626931788715e+01,-2.148400555316487104e+00
1.999999999999829470e+01,3.000000000268343570e+00,1.000000000002977529e+01,6.600000000000402212e-01,1.570000000000024709e+00,2.869999999999986358e+03,-2.175000000000054889e+00,-4.945000000000270290e+00,1.338330175736949457e+01,-2.178427912011795087e+00
1.999999999999812061e+01,2.999999999941879825e+00,9.999999999959905850e+00,6.600000000000332268e-01,1.570000000000046914e+00,2.870000000000000000e+03,-2.175000000000065548e+00,-4.945000000000333351e+00,1.336843588085137924e+01,-2.158976685374397242e+00
1.999999999999836930e+01,3.000000000067019723e+00,9.999999999981334042e+00,6.600000000000014744e-01,1.570000000000103313e+00,2.869999999999991360e+03,-2.174999999999895017e+00,-4.944999999999807550e+00,1.339308974394273477e+01,-2.168413040534851177e+00
2.000000000000107647e+01,3.000000002270300836e+00,1.000000000006369127e+01,6.600000000000182387e-01,1.569999999999942331e+00,2.870000000000000000e+03,-2.175000000000130829e+00,-4.945000000000376872e+00,1.345377828919359686e+01,-2.210262902668278073e+00
2.000000000000017408e+01,3.000000000550235857e+00,9.999999999987387866e+00,6.599999999999456302e-01,1.570000000000075557e+00,2.869999999999996817e+03,-2.174999999999862599e+00,-4.944999999999469154e+00,1.345082299242716672e+01,-2.191000793208025765e+00
1.999999999999860734e+01,3.000000002279523681e+00,1.000000000001623057e+01,6.599999999999732747e-01,1.570000000000217444e+00,2.869999999999999091e+03,-2.174999999999964739e+00,-4.944999999999798668e+00,1.342869480303631669e+01,-2.166096505794079530e+00
2.000000000000146372e+01,3.000000001211212464e+00,9.999999999973008258e+00,6.599999999999678346e-01,1.569999999999843077e+00,2.869999999999993634e+03,-2.175000000000014477e+00,-4.944999999999862617e+00,1.341563201890877544e+01,-2.153238431752470650e+00
2.000000000000156319e+01,3.000000001661545124e+00,1.000000000000013145e+01,6.599999999999545119e-01,1.570000000000026263e+00,2.869999999999994543e+03,-2.174999999999956746e+00,-4.944999999999561524e+00,1.340510393612094830e+01,-2.159793406898316448e+00
1.999999999999886668e+01,3.000000001535922056e+00,9.999999999937372763e+00,6.600000000000145750e-01,1.570000000000045581e+00,2.869999999999996362e+03,-2.175000000000043343e+00,-4.945000000000203677e+00,1.343876087311469725e+01,-2.159126149056503241e+00
1.999999999999949196e+01,3.000000001341546430e+00,9.999999999966096453e+00,6.600000000000080247e-01,1.570000000000044249e+00,2.869999999999996817e+03,-2.175000000000021139e+00,-4.945000000000002949e+00,1.342178796667817586e+01,-2.137796396386015374e+00
1.999999999999807443e+01,3.000000001780502856e+00,9.999999999935234030e+00,6.600000000000308953e-01,1.570000000000042029e+00,2.869999999999998636e+03,-2.175000000000112177e+00,-4.945000000000417728e+00,1.338443222845209490e+01,-2.107824360361897575e+00
1.999999999999779732e+01,3.000000002228669693e+00,9.999999999934994221e+00,6.600000000000254552e-01,1.570000000000118190e+00,2.869999999999999091e+03,-2.175000000000067324e+00,-4.945000000000297824e+00,1.341824250682261344e+01,-2.134519588059880402e+00
2.000000000000036948e+01,3.000000000880846063e+00,9.999999999977401188e+00,6.599999999999870415e-01,1.570000000000106199e+00,2.869999999999981355e+03,-2.174999999999974953e+00,-4.944999999999946105e+00,1.346952378588082233e+01,-2.197579820759125280e+00
1.999999999999803890e+01,3.000000001922537685e+00,9.999999999969190867e+00,6.600000000000434408e-01,1.570000000000128848e+00,2.869999999999989086e+03,-2.175000000000099298e+00,-4.945000000000440821e+00,1.339462275200281560e+01,-2.124619564638826397e+00
1.999999999999857536e+01,3.000000002039349578e+00,9.999999999937928763e+00,6.600000000000194600e-01,1.570000000000239648e+00,2.869999999999979082e+03,-2.175000000000026912e+00,-4.945000000000264961e+00,1.343240241418389580e+01,-2.179601993374236990e+00
2.000000000000138556e+01,3.000000001095472602e+00,9.999999999999042544e+00,6.599999999999480726e-01,1.569999999999998952e+00,2.869999999999986812e+03,-2.174999999999830624e+00,-4.944999999999287077e+00,1.351589006639730250e+01,-2.259105578933809255e+00
2.000000000000140332e+01,3.000000001001966510e+00,1.000000000004269118e+01,6.599999999999767164e-01,1.569999999999948104e+00,2.869999999999984084e+03,-2.174999999999962519e+00,-4.944999999999735607e+00,1.351344230081270759e+01,-2.276850539732888201e+00
2.000000000000123990e+01,3.000000000473956430e+00,1.000000000002483347e+01,6.599999999999879297e-01,1.569999999999915241e+00,2.869999999999997726e+03,-2.174999999999952305e+00,-4.944999999999813767e+00,1.339338515414380737e+01,-2.131797621004864585e+00
2.000000000000083844e+01,3.000000000839294412e+00,1.000000000003453060e+01,6.599999999999881517e-01,1.570000000000005613e+00,2.869999999999995453e+03,-2.174999999999938982e+00,-4.944999999999721396e+00,1.343400326022610258e+01,-2.154665290751108131e+00
2.000000000000147438e+01,2.999999999331508072e+00,1.000000000007289458e+01,6.599999999999938138e-01,1.570000000000015383e+00,2.869999999999987267e+03,-2.174999999999938982e+00,-4.944999999999827978e+00,1.343272153381268197e+01,-2.190015141126401943e+00
2.000000000000166267e+01,3.000000000197349248e+00,1.000000000004790301e+01,6.599999999999536238e-01,1.570000000000072227e+00,2.869999999999988631e+03,-2.174999999999875033e+00,-4.944999999999530438e+00,1.346881194219219857e+01,-2.198418859082155397e+00
1.999999999999917577e+01,3.000000001984998832e+00,1.000000000006769696e+01,6.600000000000326716e-01,1.569999999999935447e+00,2.869999999999999091e+03,-2.175000000000081979e+00,-4.945000000000276508e+00,1.340068658185665029e+01,-2.168860297396475012e+00
2.000000000000051514e+01,3.000000001379968140e+00,9.999999999989501731e+00,6.600000000000113554e-01,1.569999999999878160e+00,2.869999999999993179e+03,-2.175000000000118394e+00,-4.945000000000361773e+00,1.341413827669950720e+01,-2.168955680441560396e+00
2.000000000000049027e+01,3.000000001579172348e+00,1.000000000002233591e+01,6.600000000000183498e-01,1.569999999999869278e+00,2.869999999999992269e+03,-2.175000000000115730e+00,-4.945000000000235651e+00,1.342896487592954990e+01,-2.164879714041490821e+00
2.000000000000071054e+01,3.000000000871888339e+00,1.000000000004836487e+01,6.600000000000018074e-01,1.569999999999833085e+00,2.869999999999988631e+03,-2.175000000000053557e+00,-4.945000000000018936e+00,1.340290172167554417e+01,-2.162623029215318571e+00
2.000000000000016342e+01,3.000000002722379655e+00,1.000000000000468958e+01,6.599999999999996980e-01,1.569999999999946771e+00,2.869999999999996362e+03,-2.175000000000003375e+00,-4.945000000000011831e+00,1.338504105510436126e+01,-2.172890135161435143e+00
1.999999999999996803e+01,3.000000001426894158e+00,9.999999999972175146e+00,6.600000000000326716e-01,1.570000000000020934e+00,2.869999999999996362e+03,-2.175000000000055334e+00,-4.945000000000265850e+00,1.339472369796442663e+01,-2.187153447632617542e+00
1.999999999999892708e+01,3.000000001478221101e+00,1.000000000001449507e+01,6.600000000000321165e-01,1.569999999999978746e+00,2.870000000000000909e+03,-2.175000000000044231e+00,-4.945000000000305818e+00,1.337503772144114933e+01,-2.161011263890317835e+00
1.999999999999974776e+01,3.000000001481030854e+00,9.999999999985265120e+00,6.599999999999923705e-01,1.570000000000057350e+00,2.870000000000000000e+03,-2.174999999999948308e+00,-4.944999999999931894e+00,1.339980710261948893e+01,-2.179230918105815373e+00
1.999999999999982592e+01,3.000000001708680308e+00,1.000000000000114220e+01,6.599999999999808242e-01,1.570000000000035589e+00,2.870000000000000000e+03,-2.174999999999855493e+00,-4.944999999999696527e+00,1.341221103354308042e+01,-2.191034885021908352e+00
1.999999999999867839e+01,3.000000002183033310e+00,9.999999999963737451e+00,6.600000000000156852e-01,1.570000000000155715e+00,2.869999999999994088e+03,-2.174999999999976730e+00,-4.945000000000160156e+00,1.338031947914833353e+01,-2.150269910192771139e+00
2.000000000000029843e+01,3.000000002353542250e+00,1.000000000001788969e+01,6.600000000000120215e-01,1.569999999999918572e+00,2.869999999999997726e+03,-2.175000000000010481e+00,-4.945000000000088214e+00,1.341051126095756807e+01,-2.184392101149911891e+00
1.999999999999914024e+01,3.000000002063920590e+00,1.000000000001568878e+01,6.600000000000084688e-01,1.570000000000062013e+00,2.870000000000002274e+03,-2.175000000000072653e+00,-4.945000000000124629e+00,1.335873388540222351e+01,-2.134057847634903471e+00
1.999999999999973355e+01,3.000000001184027543e+00,1.000000000003268674e+01,6.599999999999911493e-01,1.570000000000131735e+00,2.869999999999989996e+03,-2.174999999999895461e+00,-4.944999999999831530e+00,1.338505236822018318e+01,-2.162016645092650791e+00
1.999999999999871036e+01,3.000000001040934450e+00,1.000000000000829026e+01,6.600000000000176836e-01,1.570000000000129292e+00,2.870000000000002728e+03,-2.174999999999928768e+00,-4.944999999999792450e+00,1.337305890521182938e+01,-2.126322584265502691e+00
1.999999999999891642e+01,3.000000000821118284e+00,1.000000000001978151e+01,6.599999999999834888e-01,1.570000000000258744e+00,2.869999999999998181e+03,-2.174999999999889244e+00,-4.944999999999661000e+00,1.337082913188299393e+01,-2.140207813951950033e+00
1.999999999999819877e+01,3.000000000915092002e+00,1.000000000000014921e+01,6.600000000000049161e-01,1.570000000000197460e+00,2.869999999999995453e+03,-2.174999999999966960e+00,-4.944999999999989626e+00,1.340657433972843293e+01,-2.149433230519857130e+00
1.999999999999798916e+01,3.000000001101517544e+00,9.999999999997685407e+00,6.600000000000183498e-01,1.570000000000219442e+00,2.869999999999997272e+03,-2.175000000000055778e+00,-4.945000000000308482e+00,1.341566358679636117e+01,-2.160384660391998946e+00
1.999999999999747047e+01,3.000000001387168158e+00,1.000000000003042189e+01,6.600000000000547651e-01,1.569999999999873941e+00,2.870000000000002728e+03,-2.175000000000090861e+00,-4.945000000000425722e+00,1.334685454251057024e+01,-2.113982122889206394e+00
2.000000000000162359e+01,2.999999999616332236e+00,1.000000000002183143e+01,6.599999999999610623e-01,1.569999999999940776e+00,2.869999999999983629e+03,-2.174999999999914557e+00,-4.944999999999627249e+00,1.349087574715990989e+01,-2.268006224679779859e+00
2.000000000000037659e+01,2.999999998827234560e+00,9.999999999994525268e+00,6.600000000000152411e-01,1.569999999999962093e+00,2.869999999999983174e+03,-2.175000000000080647e+00,-4.945000000000351115e+00,1.354353957593428071e+01,-2.316471615671439999e+00
2.000000000000080291e+01,2.999999999871867828e+00,1.000000000001691269e+01,6.599999999999786038e-01,1.569999999999976970e+00,2.869999999999987267e+03,-2.174999999999963407e+00,-4.944999999999842188e+00,1.347673575096189502e+01,-2.239690493037470809e+00
2.000000000000278888e+01,2.999999999685055041e+00,1.000000000000095568e+01,6.599999999999518474e-01,1.569999999999923901e+00,2.869999999999976808e+03,-2.174999999999878142e+00,-4.944999999999483364e+00,1.352053184323505519e+01,-2.292382970600260528e+00
2.000000000000155254e+01,3.000000000605213657e+00,1.000000000004142997e+01,6.600000000000143530e-01,1.569999999999859286e+00,2.869999999999988177e+03,-2.175000000000011369e+00,-4.945000000000129070e+00,1.352685212696852979e+01,-2.328751271008627555e+00
2.000000000000035882e+01,3.000000001361478930e+00,9.999999999944513718e+00,6.599999999999973666e-01,1.570000000000040918e+00,2.869999999999986358e+03,-2.174999999999965183e+00,-4.945000000000104201e+00,1.352044352622158208e+01,-2.275324143606618499e+00
2.000000000000195755e+01,3.000000001421565976e+00,1.000000000001915446e+01,6.599999999999952571e-01,1.569999999999945217e+00,2.869999999999989996e+03,-2.174999999999966960e+00,-4.945000000000014495e+00,1.352798002722305881e+01,-2.301304121158892269e+00
2.000000000000080291e+01,3.000000001405980221e+00,1.000000000001038458e+01,6.599999999999868194e-01,1.570000000000001394e+00,2.869999999999990450e+03,-2.175000000000025580e+00,-4.945000000000058904e+00,1.346286948551518670e+01,-2.224588472329680933e+00
2.000000000000023093e+01,3.000000001003795713e+00,1.000000000001298872e+01,6.600000000000072475e-01,1.569999999999955431e+00,2.869999999999995907e+03,-2.175000000000069988e+00,-4.945000000000305818e+00,1.340019918485186246e+01,-2.138518128627606263e+00
1.999999999999991829e+01,3.000000000731104510e+00,1.000000000000566480e+01,6.599999999999855982e-01,1.570000000000081553e+00,2.869999999999989086e+03,-2.174999999999931877e+00,-4.944999999999827978e+00,1.340715904311389295e+01,-2.151277123356240661e+00
2.000000000000153833e+01,2.999999999805107898e+00,1.000000000002175859e+01,6.599999999999809353e-01,1.569999999999877938e+00,2.869999999999994543e+03,-2.174999999999977618e+00,-4.944999999999884821e+00,1.346284624922003559e+01,-2.202848013834608487e+00
2.000000000000085265e+01,3.000000001917563885e+00,1.000000000003686473e+01,6.599999999999897060e-01,1.570000000000070672e+00,2.870000000000000455e+03,-2.175000000000067768e+00,-4.945000000000122853e+00,1.338348387293701869e+01,-2.134914992450700488e+00
2.000000000000190781e+01,3.000000000356189744e+00,1.000000000003843503e+01,6.599999999999517364e-01,1.569999999999960094e+00,2.869999999999995907e+03,-2.174999999999929212e+00,-4.944999999999562412e+00,1.341986850123906194e+01,-2.165440616476141056e+00
1.999999999999942446e+01,3.000000001025632468e+00,1.000000000002735057e+01,6.600000000000182387e-01,1.570000000000032037e+00,2.869999999999998181e+03,-2.175000000000076206e+00,-4.945000000000263185e+00,1.339953425124422637e+01,-2.164930650965952275e+00
1.999999999999986855e+01,3.000000001114001336e+00,1.000000000001235989e+01,6.599999999999981437e-01,1.570000000000014273e+00,2.869999999999994088e+03,-2.174999999999965183e+00,-4.944999999999913243e+00,1.343324274003218299e+01,-2.196419318973354518e+00
1.999999999999975486e+01,3.000000001508341452e+00,9.999999999988474997e+00,6.600000000000388889e-01,1.569999999999975193e+00,2.869999999999992724e+03,-2.175000000000085532e+00,-4.945000000000335127e+00,1.342551469245979057e+01,-2.181762089672849569e+00
1.999999999999929656e+01,3.000000000095454311e+00,1.000000000000727240e+01,6.600000000000098010e-01,1.569999999999978524e+00,2.870000000000002728e+03,-2.175000000000040234e+00,-4.945000000000127294e+00,1.341817148003076632e+01,-2.164992395526273761e+00
2.000000000000068567e+01,3.000000000325043548e+00,1.000000000003756995e+01,6.599999999999922595e-01,1.569999999999956319e+00,2.869999999999994543e+03,-2.174999999999988276e+00,-4.944999999999873275e+00,1.346898000286702057e+01,-2.216926723799795607e+00
2.000000000000081357e+01,3.000000000695140834e+00,1.000000000002407674e+01,6.599999999999931477e-01,1.569999999999984297e+00,2.869999999999999545e+03,-2.175000000000039790e+00,-4.945000000000010942e+00,1.340219422860475795e+01,-2.145307207249654624e+00
1.999999999999963052e+01,3.000000000711080528e+00,9.999999999982280841e+00,6.600000000000075806e-01,1.570000000000115081e+00,2.870000000000001819e+03,-2.175000000000078870e+00,-4.945000000000273843e+00,1.338914380002565885e+01,-2.119909159457743719e+00
2.000000000000024514e+01,3.000000001561112573e+00,1.000000000005054446e+01,6.599999999999661693e-01,1.570000000000075557e+00,2.870000000000001364e+03,-2.174999999999961631e+00,-4.944999999999809326e+00,1.335034048745123236e+01,-2.110252037533496772e+00
2.000000000000193268e+01,3.000000001498455582e+00,1.000000000001446843e+01,6.599999999999544009e-01,1.570000000000056239e+00,2.869999999999990450e+03,-2.174999999999947864e+00,-4.944999999999667217e+00,1.347219918490547919e+01,-2.233139763667158828e+00
2.000000000000044054e+01,3.000000001752492373e+00,9.999999999982378540e+00,6.599999999999591749e-01,1.570000000000220997e+00,2.869999999999993634e+03,-2.174999999999983835e+00,-4.944999999999834195e+00,1.346253296137191491e+01,-2.189683056011002105e+00
2.000000000000103029e+01,3.000000000247838194e+00,1.000000000002585487e+01,6.599999999999882627e-01,1.570000000000031815e+00,2.869999999999986812e+03,-2.174999999999957190e+00,-4.944999999999819984e+00,1.340720624764175994e+01,-2.187810097648040131e+00
2.000000000000077094e+01,3.000000001007268047e+00,9.999999999971793230e+00,6.599999999999830447e-01,1.570000000000094209e+00,2.869999999999991815e+03,-2.175000000000033573e+00,-4.945000000000110418e+00,1.344330158528377517e+01,-2.191583939903607003e+00
2.000000000000096989e+01,3.000000000086251006e+00,1.000000000001790390e+01,6.599999999999588418e-01,1.570000000000095763e+00,2.869999999999995453e+03,-2.174999999999902567e+00,-4.944999999999541984e+00,1.339932183225402973e+01,-2.154695761644896290e+00
2.000000000000024869e+01,3.000000001154297546e+00,9.999999999982202681e+00,6.599999999999688338e-01,1.570000000000117302e+00,2.870000000000000455e+03,-2.174999999999940758e+00,-4.944999999999801332e+00,1.349144650836223924e+01,-2.204559665357710418e+00
1.999999999999993605e+01,3.000000001164549346e+00,9.999999999988984811e+00,6.599999999999616174e-01,1.570000000000126184e+00,2.869999999999995907e+03,-2.174999999999911449e+00,-4.944999999999711626e+00,1.345957328333408576e+01,-2.191308072664791329e+00
2.000000000000082068e+01,3.000000001881012679e+00,1.000000000000488320e+01,6.599999999999767164e-01,1.570000000000088436e+00,2.869999999999999545e+03,-2.174999999999982503e+00,-4.944999999999806661e+00,1.344285166736216830e+01,-2.170656918183699879e+00
1.999999999999964473e+01,3.000000001601037969e+00,9.999999999956193264e+00,6.599999999999669464e-01,1.570000000000164153e+00,2.870000000000000455e+03,-2.174999999999966072e+00,-4.944999999999878604e+00,1.341531387030110878e+01,-2.131405952676698856e+00
2.000000000000072475e+01,3.000000001833034613e+00,1.000000000001997158e+01,6.599999999999354161e-01,1.570000000000084217e+00,2.869999999999996817e+03,-2.174999999999848388e+00,-4.944999999999317275e+00,1.341670626314589398e+01,-2.143223966979693085e+00
2.000000000000033040e+01,3.000000000694468483e+00,9.999999999978108178e+00,6.599999999999610623e-01,1.570000000000061569e+00,2.869999999999999091e+03,-2.174999999999925215e+00,-4.944999999999619256e+00,1.342685065165222191e+01,-2.163032750668696380e+00
1.999999999999958789e+01,3.000000001707928909e+00,1.000000000000440892e+01,6.599999999999670575e-01,1.570000000000216334e+00,2.869999999999998181e+03,-2.174999999999899902e+00,-4.944999999999642348e+00,1.339824553388810102e+01,-2.147977645211683217e+00
1.999999999999941380e+01,3.000000000776807951e+00,9.999999999971299403e+00,6.599999999999365263e-01,1.570000000000141727e+00,2.870000000000000455e+03,-2.174999999999881251e+00,-4.944999999999431850e+00,1.341013305032822700e+01,-2.147042608953809051e+00
1.999999999999946354e+01,3.000000001853868170e+00,1.000000000006082068e+01,6.599999999999770495e-01,1.570000000000193019e+00,2.869999999999997726e+03,-2.175000000000014033e+00,-4.944999999999939000e+00,1.345878149950614322e+01,-2.194878991177759531e+00
1.999999999999942801e+01,3.000000001217656198e+00,1.000000000002597744e+01,6.599999999999819345e-01,1.570000000000293827e+00,2.869999999999994998e+03,-2.174999999999984279e+00,-4.944999999999883045e+00,1.345741103417984519e+01,-2.218196374126608195e+00
1.999999999999953815e+01,3.000000000504274400e+00,1.000000000002701661e+01,6.599999999999700551e-01,1.570000000000095763e+00,2.869999999999988177e+03,-2.174999999999866596e+00,-4.944999999999613038e+00,1.340798513494176625e+01,-2.141722161112933787e+00
1.999999999999931788e+01,3.000000001819152828e+00,1.000000000004378542e+01,6.600000000000367795e-01,1.569999999999957874e+00,2.869999999999989996e+03,-2.175000000000106404e+00,-4.945000000000431939e+00,1.345275523850058264e+01,-2.184973433184980607e+00
1.999999999999829114e+01,3.000000000118138832e+00,9.999999999994912514e+00,6.600000000000080247e-01,1.570000000000227436e+00,2.869999999999990905e+03,-2.174999999999992717e+00,-4.945000000000177920e+00,1.341862332570670979e+01,-2.154454439700431490e+00
1.999999999999901945e+01,3.000000001537153516e+00,1.000000000001023714e+01,6.599999999999531797e-01,1.570000000000246310e+00,2.869999999999989996e+03,-2.174999999999881251e+00,-4.944999999999545537e+00,1.341302382722181541e+01,-2.151461384836804047e+00
1.999999999999747757e+01,3.000000002079021844e+00,1.000000000001867306e+01,6.600000000000022515e-01,1.570000000000106422e+00,2.870000000000002274e+03,-2.174999999999991385e+00,-4.944999999999892815e+00,1.336756273169959641e+01,-2.100099045964258337e+00
1.999999999999858957e+01,3.000000000646271037e+00,1.000000000003125500e+01,6.599999999999732747e-01,1.570000000000242535e+00,2.869999999999984993e+03,-2.174999999999900790e+00,-4.944999999999675211e+00,1.342165932412541984e+01,-2.180154222481299531e+00
1.999999999999741362e+01,3.000000000930369559e+00,1.000000000000987654e+01,6.599999999999873745e-01,1.570000000000284945e+00,2.869999999999989996e+03,-2.174999999999973177e+00,-4.944999999999946105e+00,1.337964820661357201e+01,-2.116551010395547827e+00
1.999999999999828404e+01,3.000000003536131388e+00,1.000000000002155964e+01,6.600000000000009193e-01,1.569999999999990514e+00,2.869999999999998636e+03,-2.175000000000004707e+00,-4.944999999999937224e+00,1.343515012530868091e+01,-2.146616736077547216e+00
1.999999999999947420e+01,3.000000002135113419e+00,1.000000000003606004e+01,6.600000000000018074e-01,1.569999999999902363e+00,2.869999999999999545e+03,-2.174999999999978950e+00,-4.944999999999835083e+00,1.343064718573261374e+01,-2.147485064811046396e+00
1.999999999999982236e+01,3.000000003493271894e+00,1.000000000000870770e+01,6.599999999999819345e-01,1.569999999999883489e+00,2.869999999999998181e+03,-2.175000000000016698e+00,-4.944999999999959428e+00,1.345626345252612666e+01,-2.175558733316053761e+00
2.000000000000030553e+01,3.000000000253386201e+00,9.999999999920259341e+00,6.599999999999806022e-01,1.569999999999885043e+00,2.869999999999996817e+03,-2.174999999999947420e+00,-4.944999999999931006e+00,1.342306461699618048e+01,-2.170989540419466124e+00
2.000000000000072120e+01,3.000000001309103492e+00,9.999999999935276662e+00,6.599999999999801581e-01,1.569999999999949214e+00,2.869999999999994543e+03,-2.174999999999997602e+00,-4.945000000000084661e+00,1.343237679173794774e+01,-2.172421725631255462e+00
2.000000000000015987e+01,2.999999999942346562e+00,9.999999999963478103e+00,6.599999999999641709e-01,1.570000000000051799e+00,2.869999999999991815e+03,-2.174999999999938094e+00,-4.944999999999879492e+00,1.346653440114745770e+01,-2.200652009690756472e+00
2.000000000000007461e+01,3.000000000235671926e+00,9.999999999962570385e+00,6.599999999999601741e-01,1.569999999999990292e+00,2.869999999999998181e+03,-2.174999999999911449e+00,-4.944999999999657447e+00,1.343275924817176126e+01,-2.165810436417817897e+00
1.999999999999872813e+01,2.999999998909940402e+00,9.999999999939911177e+00,6.599999999999855982e-01,1.570000000000187024e+00,2.870000000000001364e+03,-2.174999999999958522e+00,-4.944999999999947882e+00,1.340141746406555789e+01,-2.143320569847706913e+00
1.999999999999909051e+01,3.000000001775497527e+00,9.999999999936310502e+00,6.600000000000249001e-01,1.570000000000162155e+00,2.869999999999984539e+03,-2.175000000000016698e+00,-4.945000000000247198e+00,1.341975609193941565e+01,-2.193055810123086147e+00
1.999999999999909761e+01,3.000000000285282020e+00,9.999999999894880531e+00,6.600000000000252331e-01,1.570000000000044693e+00,2.869999999999992724e+03,-2.174999999999983835e+00,-4.945000000000210783e+00,1.344340168723369189e+01,-2.215571428842701529e+00
1.999999999999932143e+01,3.000000000464642103e+00,9.999999999963327113e+00,6.599999999999457412e-01,1.570000000000104645e+00,2.869999999999984993e+03,-2.174999999999768452e+00,-4.944999999999431850e+00,1.344954976592843998e+01,-2.215461480194823363e+00
1.999999999999898037e+01,3.000000000436781278e+00,9.999999999952699170e+00,6.599999999999852651e-01,1.570000000000046025e+00,2.869999999999986812e+03,-2.174999999999866152e+00,-4.944999999999775575e+00,1.342806148660683085e+01,-2.214362224769955922e+00
1.999999999999836930e+01,3.000000000721478433e+00,9.999999999968641973e+00,6.599999999999871525e-01,1.570000000000091100e+00,2.869999999999999091e+03,-2.174999999999938982e+00,-4.944999999999919460e+00,1.339997981703573160e+01,-2.161056954282829512e+00
2.000000000000031264e+01,2.999999999886231894e+00,9.999999999951121765e+00,6.599999999999189848e-01,1.570000000000067120e+00,2.869999999999997272e+03,-2.174999999999795541e+00,-4.944999999999280860e+00,1.347026639679043747e+01,-2.207024935629084528e+00
1.999999999999672085e+01,3.000000000204418260e+00,9.999999999995484501e+00,6.600000000000262323e-01,1.570000000000101759e+00,2.869999999999998636e+03,-2.175000000000015365e+00,-4.945000000000029594e+00,1.340951344512613019e+01,-2.119451817958870610e+00
2.000000000000061817e+01,3.000000000758229923e+00,1.000000000000589218e+01,6.599999999999829337e-01,1.570000000000010054e+00,2.869999999999994998e+03,-2.174999999999904787e+00,-4.944999999999692974e+00,1.342565494820377658e+01,-2.171648256344389516e+00
2.000000000000125056e+01,3.000000001363479107e+00,9.999999999996910915e+00,6.599999999999640599e-01,1.569999999999962759e+00,2.869999999999996362e+03,-2.174999999999873257e+00,-4.944999999999630802e+00,1.341693782488784237e+01,-2.175547534506233838e+00
2.000000000000080291e+01,3.000000001912055847e+00,1.000000000000176037e+01,6.599999999999888178e-01,1.569999999999855955e+00,2.869999999999994543e+03,-2.174999999999994049e+00,-4.944999999999827978e+00,1.347020049103817563e+01,-2.211541640183492419e+00
1.999999999999883471e+01,3.000000001437951980e+00,1.000000000003292122e+01,6.600000000000146860e-01,1.569999999999964535e+00,2.870000000000000000e+03,-2.175000000000067768e+00,-4.945000000000203677e+00,1.340167063925622237e+01,-2.147842545368514156e+00
