1.999999999999940314e+01,3.000000001210320288e+00,9.999999999987565502e+00,6.599999999999841549e-01,1.570000000000185691e+00,2.869999999999960437e+03,-2.174999999999982503e+00,-4.944999999999841300e+00,1.341057095078026151e+01,-2.171177977905159651e+00
1.999999999999883116e+01,3.000000000662515820e+00,9.999999999951615592e+00,6.600000000000724176e-01,1.569999999999938334e+00,2.869999999999966803e+03,-2.175000000000319123e+00,-4.945000000000928431e+00,1.341877003218877817e+01,-2.153310493912586665e+00
2.000000000000024158e+01,3.000000000312410098e+00,1.000000000001437783e+01,6.599999999999022204e-01,1.570000000000367546e+00,2.869999999999987267e+03,-2.174999999999608136e+00,-4.944999999998904272e+00,1.340428599093872108e+01,-2.162727037524660112e+00
1.999999999999843681e+01,3.000000000815282952e+00,9.999999999977596588e+00,6.600000000001715605e-01,1.569999999999719176e+00,2.869999999999980901e+03,-2.175000000000674838e+00,-4.945000000002069740e+00,1.341397876281455659e+01,-2.180929769254718487e+00
2.000000000000003553e+01,3.000000000847638404e+00,9.999999999987201349e+00,6.599999999999910383e-01,1.570000000000014273e+00,2.869999999999964075e+03,-2.174999999999977618e+00,-4.944999999999852847e+00,1.341876870839818991e+01,-2.169189041100395343e+00
1.999999999999953459e+01,3.000000000486290563e+00,9.999999999980760279e+00,6.599999999999811573e-01,1.570000000000105533e+00,2.870000000000001364e+03,-2.174999999999972289e+00,-4.944999999999877716e+00,1.341698422858315887e+01,-2.171730052636675623e+00
1.999999999999915801e+01,3.000000000997798733e+00,1.000000000000141043e+01,6.599999999999772715e-01,1.570000000000045803e+00,2.869999999999997726e+03,-2.174999999999927880e+00,-4.944999999999740048e+00,1.339900072635109929e+01,-2.156112880482756289e+00
1.999999999999978684e+01,3.000000000882407036e+00,1.000000000000344791e+01,6.600000000000428857e-01,1.570000000000010498e+00,2.869999999999992724e+03,-2.175000000000233413e+00,-4.945000000000641549e+00,1.341755960313222928e+01,-2.157811813775716736e+00
2.000000000000046896e+01,3.000000000093088648e+00,1.000000000003960388e+01,6.599999999998936717e-01,1.570000000000375540e+00,2.869999999999995453e+03,-2.174999999999589484e+00,-4.944999999998790585e+00,1.340870576374177148e+01,-2.165470312116836826e+00
1.999999999999966960e+01,3.000000001129722094e+00,1.000000000002823874e+01,6.599999999999869305e-01,1.570000000000244089e+00,2.869999999999995453e+03,-2.175000000000040679e+00,-4.945000000000071338e+00,1.340499814880474005e+01,-2.162437010093122058e+00
2.000000000000028066e+01,3.000000001152793860e+00,1.000000000002178346e+01,6.599999999999071054e-01,1.570000000000385532e+00,2.869999999999987722e+03,-2.174999999999603251e+00,-4.944999999998948681e+00,1.341183988327527565e+01,-2.172767502318070143e+00
1.999999999999970868e+01,3.000000000634989394e+00,9.999999999987219113e+00,6.600000000000783018e-01,1.569999999999861062e+00,2.870000000000001819e+03,-2.175000000000356426e+00,-4.945000000001005702e+00,1.340869451929210321e+01,-2.178104307598093481e+00
1.999999999999891287e+01,3.000000001233279256e+00,9.999999999966409092e+00,6.600000000000105782e-01,1.570000000000113527e+00,2.869999999999958163e+03,-2.175000000000046896e+00,-4.945000000000106866e+00,1.341174510486005111e+01,-2.160387464168846972e+00
1.999999999999972644e+01,3.000000000487677454e+00,1.000000000002231992e+01,6.600000000000083578e-01,1.570000000000062235e+00,2.870000000000002728e+03,-2.175000000000094857e+00,-4.945000000000259632e+00,1.340333617316836623e+01,-2.168548693461099131e+00
1.999999999999914380e+01,3.000000000881829276e+00,9.999999999986801669e+00,6.600000000000297851e-01,1.570000000000035589e+00,2.869999999999970896e+03,-2.175000000000111289e+00,-4.945000000000358220e+00,1.341213965044628509e+01,-2.171693633362385079e+00
1.999999999999917577e+01,3.000000001354177215e+00,9.999999999999234390e+00,6.599999999999925926e-01,1.570000000000101092e+00,2.869999999999984084e+03,-2.174999999999898570e+00,-4.944999999999810214e+00,1.340082522557383093e+01,-2.166248988793384012e+00
2.000000000000019895e+01,3.000000000858022098e+00,1.000000000001189093e+01,6.599999999999663913e-01,1.570000000000126850e+00,2.870000000000000909e+03,-2.174999999999852385e+00,-4.944999999999625473e+00,1.341003150252595866e+01,-2.171610277587526117e+00
1.999999999999875300e+01,3.000000000107466924e+00,9.999999999996624922e+00,6.600000000000527667e-01,1.569999999999926787e+00,2.869999999999989086e+03,-2.175000000000317790e+00,-4.945000000000803198e+00,1.340892241135007090e+01,-2.170536887929799263e+00
1.999999999999872102e+01,3.000000001025331819e+00,1.000000000000392752e+01,6.599999999999967004e-01,1.569999999999967644e+00,2.869999999999998181e+03,-2.174999999999884803e+00,-4.944999999999829754e+00,1.339238895003183849e+01,-2.175121659599936752e+00
1.999999999999857891e+01,3.000000000710155046e+00,1.000000000000175149e+01,6.600000000000245670e-01,1.569999999999971196e+00,2.869999999999994543e+03,-2.175000000000023359e+00,-4.945000000000230322e+00,1.339463673642492125e+01,-2.169185879555032503e+00
1.999999999999977973e+01,3.000000000216612062e+00,1.000000000001574385e+01,6.599999999999435207e-01,1.570000000000121965e+00,2.869999999999986812e+03,-2.174999999999737366e+00,-4.944999999999264872e+00,1.340083610270405856e+01,-2.153891552722439151e+00
1.999999999999899458e+01,3.000000001377127745e+00,1.000000000000986056e+01,6.600000000000220135e-01,1.569999999999944995e+00,2.869999999999983629e+03,-2.175000000000050893e+00,-4.945000000000219664e+00,1.340339067180650368e+01,-2.161932786964646525e+00
2.000000000000047606e+01,3.000000000906224873e+00,9.999999999992180477e+00,6.599999999999176525e-01,1.570000000000258522e+00,2.869999999999974989e+03,-2.174999999999644995e+00,-4.944999999998983320e+00,1.340352201366697749e+01,-2.161317459257366735e+00
1.999999999999889866e+01,3.000000000551610313e+00,1.000000000000913047e+01,6.600000000000326716e-01,1.570000000000039808e+00,2.869999999999995453e+03,-2.175000000000151257e+00,-4.945000000000455920e+00,1.340511777938012372e+01,-2.169557522866364607e+00
1.999999999999994316e+01,3.000000000900628017e+00,1.000000000003105605e+01,6.599999999999189848e-01,1.570000000000161267e+00,2.869999999999969532e+03,-2.174999999999588596e+00,-4.944999999998795914e+00,1.339526740744689626e+01,-2.161369492022695127e+00
1.999999999999996803e+01,3.000000001099841551e+00,9.999999999961827868e+00,6.600000000000346700e-01,1.569999999999923013e+00,2.869999999999993179e+03,-2.175000000000193001e+00,-4.945000000000480789e+00,1.342020583010804025e+01,-2.172327291982854902e+00
1.999999999999961631e+01,3.000000001077739231e+00,9.999999999980801135e+00,6.599999999999727196e-01,1.570000000000110196e+00,2.869999999999989996e+03,-2.174999999999911449e+00,-4.944999999999708074e+00,1.340615825523248184e+01,-2.175366242846624942e+00
1.999999999999931433e+01,3.000000000892058871e+00,9.999999999995655031e+00,6.599999999999557332e-01,1.570000000000240981e+00,2.869999999999981810e+03,-2.174999999999833289e+00,-4.944999999999497575e+00,1.339868041605271465e+01,-2.182794280339666049e+00
1.999999999999980460e+01,3.000000000534960964e+00,1.000000000002451195e+01,6.599999999999743849e-01,1.570000000000151053e+00,2.869999999999999091e+03,-2.174999999999857714e+00,-4.944999999999692086e+00,1.340808387223530040e+01,-2.179556048854043748e+00
1.999999999999973355e+01,3.000000000762242269e+00,1.000000000001872991e+01,6.599999999999758282e-01,1.570000000000169038e+00,2.870000000000006821e+03,-2.174999999999944755e+00,-4.944999999999865281e+00,1.340297619997710932e+01,-2.156623304852185452e+00
2.000000000000013500e+01,3.000000000964697211e+00,9.999999999997791988e+00,6.599999999999993650e-01,1.570000000000145057e+00,2.869999999999979082e+03,-2.175000000000081091e+00,-4.945000000000137064e+00,1.341967656388172792e+01,-2.162370593491485415e+00
2.000000000000004263e+01,3.000000000163387082e+00,1.000000000000315481e+01,6.600000000000599831e-01,1.569999999999930562e+00,2.870000000000021828e+03,-2.175000000000457234e+00,-4.945000000001162022e+00,1.341411883691986695e+01,-2.164704750511580844e+00
1.999999999999961986e+01,3.000000000459400518e+00,1.000000000001005418e+01,6.599999999999751621e-01,1.570000000000131957e+00,2.869999999999995907e+03,-2.174999999999888356e+00,-4.944999999999701856e+00,1.341143295823870218e+01,-2.166893778362412259e+00
1.999999999999966604e+01,3.000000000210643947e+00,9.999999999987965182e+00,6.599999999999920375e-01,1.570000000000226548e+00,2.869999999999976808e+03,-2.175000000000012257e+00,-4.945000000000060680e+00,1.341512976946480862e+01,-2.158676528407109441e+00
1.999999999999997158e+01,2.999999999749792590e+00,1.000000000002096279e+01,6.600000000000859623e-01,1.569999999999850182e+00,2.869999999999980901e+03,-2.175000000000395950e+00,-4.945000000001106066e+00,1.341482544511300468e+01,-2.169994245694446544e+00
1.999999999999923617e+01,3.000000001628553292e+00,9.999999999999719336e+00,6.599999999999204281e-01,1.570000000000398632e+00,2.869999999999978172e+03,-2.174999999999578826e+00,-4.944999999998992202e+00,1.340326939943549434e+01,-2.164670505128426292e+00
1.999999999999931788e+01,3.000000000632215613e+00,9.999999999969858777e+00,6.600000000000136868e-01,1.570000000000071783e+00,2.869999999999999545e+03,-2.175000000000225864e+00,-4.945000000000476348e+00,1.341611229357346602e+01,-2.173277582281275766e+00
1.999999999999963407e+01,3.000000000722390148e+00,9.999999999991052491e+00,6.599999999998973355e-01,1.570000000000436380e+00,2.869999999999989541e+03,-2.174999999999583267e+00,-4.944999999998853646e+00,1.341390966569241527e+01,-2.167386015262246612e+00
2.000000000000004619e+01,3.000000000993932936e+00,1.000000000000368949e+01,6.599999999999561773e-01,1.570000000000219886e+00,2.869999999999994088e+03,-2.174999999999915445e+00,-4.944999999999668994e+00,1.340524996909217315e+01,-2.170865671989134160e+00
2.000000000000002842e+01,3.000000000950445944e+00,9.999999999988780530e+00,6.599999999998961142e-01,1.570000000000308482e+00,2.870000000000008185e+03,-2.174999999999708500e+00,-4.944999999999025064e+00,1.341395437340040253e+01,-2.165243824996669897e+00
2.000000000000092015e+01,3.000000000397753830e+00,1.000000000001751133e+01,6.599999999999281997e-01,1.570000000000202345e+00,2.869999999999971351e+03,-2.174999999999635669e+00,-4.944999999999017959e+00,1.341603172651400833e+01,-2.170081929437089219e+00
2.000000000000015632e+01,3.000000000243656650e+00,1.000000000002553691e+01,6.600000000000122435e-01,1.569999999999974749e+00,2.869999999999982720e+03,-2.174999999999955858e+00,-4.944999999999958540e+00,1.340995280195538619e+01,-2.177968918566127954e+00
1.999999999999880274e+01,3.000000001531720972e+00,1.000000000002176215e+01,6.600000000000171285e-01,1.569999999999991847e+00,2.869999999999961801e+03,-2.174999999999935874e+00,-4.944999999999945217e+00,1.339478297346177449e+01,-2.164250938133117419e+00
1.999999999999864286e+01,3.000000001276027284e+00,1.000000000002406253e+01,6.600000000000890710e-01,1.569999999999828422e+00,2.869999999999961346e+03,-2.175000000000220979e+00,-4.945000000000789875e+00,1.340026325256060069e+01,-2.167515979850387353e+00
1.999999999999905143e+01,3.000000000235912179e+00,9.999999999986473043e+00,6.600000000000213474e-01,1.569999999999996954e+00,2.869999999999984993e+03,-2.175000000000207656e+00,-4.945000000000417728e+00,1.341448484605278324e+01,-2.162807072104866890e+00
1.999999999999998224e+01,3.000000000844268211e+00,1.000000000001471712e+01,6.599999999998917843e-01,1.570000000000231211e+00,2.869999999999984539e+03,-2.174999999999530864e+00,-4.944999999998668905e+00,1.340033551783842292e+01,-2.157568874462867381e+00
1.999999999999898392e+01,3.000000000204222417e+00,1.000000000000040856e+01,6.600000000000323386e-01,1.569999999999975415e+00,2.870000000000006366e+03,-2.175000000000142375e+00,-4.945000000000439933e+00,1.341110295078317094e+01,-2.169187379669072158e+00
1.999999999999921130e+01,2.999999999442404253e+00,1.000000000003958789e+01,6.600000000000678657e-01,1.569999999999587503e+00,2.870000000000013188e+03,-2.175000000000297362e+00,-4.945000000000758789e+00,1.340001452927755210e+01,-2.164829128332960817e+00
