1.999999999999890576e+01,3.000000000292861735e+00,1.000000000001219469e+01,6.600000000000256772e-01,1.569999999999955431e+00,2.869999999999990905e+03,-2.175000000000008260e+00,-4.945000000000115747e+00,1.338158410600421888e+01,-2.177812619739952549e+00
1.999999999999901235e+01,2.999999999983610888e+00,9.999999999992532196e+00,6.600000000000222355e-01,1.569999999999943441e+00,2.869999999999990450e+03,-2.175000000000016698e+00,-4.945000000000130846e+00,1.339085741895548409e+01,-2.184191844307174613e+00
1.999999999999930722e+01,2.999999999820758934e+00,1.000000000000879652e+01,6.600000000000243450e-01,1.569999999999960316e+00,2.869999999999989086e+03,-2.174999999999989164e+00,-4.945000000000083773e+00,1.340502655247988706e+01,-2.202451580311149737e+00
1.999999999999807798e+01,2.999999999840381015e+00,1.000000000000479794e+01,6.600000000000403322e-01,1.569999999999959872e+00,2.869999999999990905e+03,-2.175000000000028688e+00,-4.945000000000217000e+00,1.338718382590550071e+01,-2.187442383344149643e+00
1.999999999999812061e+01,2.999999999973554932e+00,1.000000000001111289e+01,6.600000000000473266e-01,1.569999999999967866e+00,2.869999999999991360e+03,-2.175000000000020695e+00,-4.945000000000227658e+00,1.339817326822173627e+01,-2.193181419910555263e+00
1.999999999999752731e+01,2.999999999847607679e+00,1.000000000001081091e+01,6.600000000000512124e-01,1.570000000000035145e+00,2.869999999999992724e+03,-2.175000000000025580e+00,-4.945000000000271179e+00,1.339778161338761642e+01,-2.194702039428052309e+00
1.999999999999727507e+01,3.000000001282135287e+00,1.000000000000275335e+01,6.600000000000809663e-01,1.569999999999806217e+00,2.870000000000001364e+03,-2.175000000000034905e+00,-4.945000000000407958e+00,1.342259375737932636e+01,-2.190370193170528168e+00
1.999999999999745981e+01,3.000000001403588801e+00,9.999999999994967581e+00,6.600000000000800782e-01,1.569999999999824647e+00,2.869999999999999545e+03,-2.175000000000027356e+00,-4.945000000000399965e+00,1.343201878624940271e+01,-2.205009577102670981e+00
2.000000000000056488e+01,3.000000000539770006e+00,1.000000000001877432e+01,6.600000000000088018e-01,1.570000000000021600e+00,2.869999999999998181e+03,-2.175000000000089972e+00,-4.945000000000160156e+00,1.337889472987489370e+01,-2.135457301396284535e+00
1.999999999999908695e+01,3.000000001165268770e+00,1.000000000000251532e+01,6.599999999999741629e-01,1.570000000000193241e+00,2.870000000000001364e+03,-2.175000000000003819e+00,-4.944999999999919460e+00,1.343634585888764477e+01,-2.178415284062307666e+00
1.999999999999940314e+01,3.000000001495526369e+00,1.000000000000619238e+01,6.599999999999653921e-01,1.570000000000194795e+00,2.870000000000001364e+03,-2.175000000000000711e+00,-4.944999999999878604e+00,1.343485158921831157e+01,-2.170281678699035322e+00
1.999999999999838707e+01,3.000000001094762947e+00,9.999999999983401722e+00,6.600000000000035838e-01,1.570000000000123519e+00,2.870000000000000909e+03,-2.175000000000043343e+00,-4.945000000000143281e+00,1.342254244727427448e+01,-2.179293531577798593e+00
1.999999999999806377e+01,3.000000000758852980e+00,9.999999999972912335e+00,6.600000000000020295e-01,1.570000000000149498e+00,2.870000000000000909e+03,-2.175000000000041567e+00,-4.945000000000135287e+00,1.341825335152342369e+01,-2.171745060121546445e+00
2.000000000000046896e+01,3.000000001263098071e+00,9.999999999997930544e+00,6.599999999999914824e-01,1.569999999999958540e+00,2.869999999999998636e+03,-2.175000000000071321e+00,-4.945000000000090878e+00,1.342746995150980460e+01,-2.167054852813155019e+00
2.000000000000014921e+01,3.000000001524564031e+00,9.999999999989784172e+00,6.599999999999944800e-01,1.569999999999976970e+00,2.869999999999996817e+03,-2.175000000000069544e+00,-4.945000000000115747e+00,1.342758544504597218e+01,-2.173551448489591476e+00
2.000000000000042988e+01,3.000000000989457405e+00,9.999999999978513188e+00,6.599999999999760503e-01,1.570000000000106422e+00,2.869999999999999091e+03,-2.175000000000038014e+00,-4.944999999999977192e+00,1.340512388614381045e+01,-2.164885970283300320e+00
2.000000000000090594e+01,3.000000000928281008e+00,9.999999999963176123e+00,6.599999999999721645e-01,1.570000000000109974e+00,2.869999999999998181e+03,-2.175000000000024247e+00,-4.944999999999945217e+00,1.340214505977759885e+01,-2.166151695126437460e+00
1.999999999999898037e+01,3.000000001713849951e+00,9.999999999936767026e+00,6.600000000000191269e-01,1.570000000000041362e+00,2.869999999999993179e+03,-2.175000000000073097e+00,-4.945000000000262297e+00,1.343532933559570708e+01,-2.165561660538139588e+00
1.999999999999925393e+01,3.000000001817155759e+00,9.999999999928885330e+00,6.600000000000134648e-01,1.570000000000079110e+00,2.869999999999994543e+03,-2.175000000000052669e+00,-4.945000000000212559e+00,1.341820213814439455e+01,-2.143737600253146969e+00
2.000000000000083134e+01,3.000000001772991531e+00,1.000000000002210143e+01,6.600000000000144640e-01,1.569999999999819318e+00,2.869999999999993634e+03,-2.175000000000026024e+00,-4.945000000000148610e+00,1.344530907609938630e+01,-2.204499901119249206e+00
1.999999999999738165e+01,3.000000001448764664e+00,1.000000000001195488e+01,6.600000000000317835e-01,1.570000000000018714e+00,2.870000000000000909e+03,-2.175000000000032241e+00,-4.945000000000222329e+00,1.343834553200586157e+01,-2.181686813977641304e+00
1.999999999999793587e+01,3.000000001599634203e+00,1.000000000002183853e+01,6.600000000000288969e-01,1.570000000000010498e+00,2.869999999999999545e+03,-2.175000000000032241e+00,-4.945000000000211671e+00,1.344645734239219514e+01,-2.194563686397206670e+00
2.000000000000106937e+01,3.000000001256427851e+00,9.999999999982682297e+00,6.599999999999849321e-01,1.569999999999984297e+00,2.869999999999987267e+03,-2.174999999999950973e+00,-4.944999999999871498e+00,1.353059313346906833e+01,-2.308541392483689947e+00
2.000000000000171951e+01,3.000000001080039613e+00,1.000000000000964917e+01,6.599999999999801581e-01,1.569999999999991847e+00,2.869999999999986358e+03,-2.174999999999949640e+00,-4.944999999999843077e+00,1.355381557367575951e+01,-2.335499878927635997e+00
2.000000000000192912e+01,3.000000002043113678e+00,9.999999999994043876e+00,6.599999999999776046e-01,1.569999999999956763e+00,2.869999999999990450e+03,-2.174999999999914557e+00,-4.944999999999764917e+00,1.353862333003506357e+01,-2.295774145542215372e+00
1.999999999999968026e+01,3.000000002672702948e+00,1.000000000005045919e+01,6.600000000000086908e-01,1.569999999999984741e+00,2.870000000000000455e+03,-2.174999999999967404e+00,-4.944999999999926565e+00,1.345295202745796281e+01,-2.197586772119329623e+00
2.000000000000115818e+01,3.000000001066614352e+00,1.000000000005348078e+01,6.599999999999948130e-01,1.569999999999961871e+00,2.869999999999992724e+03,-2.174999999999926548e+00,-4.944999999999755147e+00,1.343645022183562432e+01,-2.142682724990816467e+00
2.000000000000103739e+01,2.999999999863354194e+00,1.000000000002175682e+01,6.599999999999920375e-01,1.569999999999905027e+00,2.869999999999991360e+03,-2.174999999999998934e+00,-4.944999999999945217e+00,1.343962788079858228e+01,-2.240421021188213402e+00
2.000000000000008171e+01,3.000000001393711369e+00,1.000000000002337153e+01,6.599999999999830447e-01,1.570000000000047136e+00,2.869999999999993179e+03,-2.175000000000012257e+00,-4.944999999999967422e+00,1.350926184112524098e+01,-2.286485143657926766e+00
2.000000000000295231e+01,3.000000000319337889e+00,1.000000000000335199e+01,6.599999999999428546e-01,1.569999999999984519e+00,2.869999999999993179e+03,-2.175000000000010036e+00,-4.944999999999813767e+00,1.357021401275339478e+01,-2.326979210121616237e+00
2.000000000000244071e+01,3.000000000429822844e+00,1.000000000000697042e+01,6.599999999999560663e-01,1.569999999999965201e+00,2.869999999999993634e+03,-2.175000000000021583e+00,-4.944999999999885709e+00,1.357371763956331279e+01,-2.329581721337520950e+00
2.000000000000150280e+01,2.999999999457133359e+00,1.000000000005762857e+01,6.599999999999743849e-01,1.569999999999896367e+00,2.869999999999999091e+03,-2.174999999999938982e+00,-4.944999999999780904e+00,1.356224315354552346e+01,-2.354948361312768856e+00
2.000000000000147082e+01,2.999999999551220764e+00,1.000000000006966694e+01,6.599999999999776046e-01,1.569999999999897033e+00,2.870000000000000455e+03,-2.174999999999959854e+00,-4.944999999999833307e+00,1.355128484293880220e+01,-2.344515646810629850e+00
1.999999999999822009e+01,3.000000000369277497e+00,1.000000000011709567e+01,6.600000000000078026e-01,1.570000000000114637e+00,2.869999999999996362e+03,-2.175000000000037126e+00,-4.945000000000145945e+00,1.344533979934141321e+01,-2.228613255284649153e+00
2.000000000000001421e+01,3.000000001494530277e+00,1.000000000007733192e+01,6.600000000000152411e-01,1.569999999999932783e+00,2.869999999999996817e+03,-2.175000000000074429e+00,-4.945000000000199236e+00,1.341459314960019178e+01,-2.172289580499097816e+00
2.000000000000033751e+01,3.000000001312612685e+00,1.000000000008681766e+01,6.600000000000078026e-01,1.569999999999913243e+00,2.869999999999995453e+03,-2.175000000000054001e+00,-4.945000000000130846e+00,1.343213214368994990e+01,-2.210739411018107337e+00
2.000000000000133227e+01,3.000000001227093982e+00,1.000000000002924949e+01,6.600000000000048050e-01,1.569999999999794893e+00,2.869999999999989996e+03,-2.175000000000117062e+00,-4.945000000000263185e+00,1.346057759064632897e+01,-2.195902479539979080e+00
2.000000000000073541e+01,3.000000001451331055e+00,1.000000000003649880e+01,6.600000000000156852e-01,1.569999999999822204e+00,2.869999999999992269e+03,-2.175000000000132605e+00,-4.945000000000336904e+00,1.341523001369250601e+01,-2.154790539891803469e+00
2.000000000000033396e+01,3.000000002139987298e+00,9.999999999974132692e+00,6.599999999999919265e-01,1.570000000000042251e+00,2.869999999999998636e+03,-2.174999999999964739e+00,-4.944999999999939000e+00,1.341278184837643650e+01,-2.200551163514913089e+00
2.000000000000026645e+01,3.000000002270233335e+00,9.999999999998593125e+00,6.599999999999915934e-01,1.570000000000062901e+00,2.869999999999998636e+03,-2.174999999999990052e+00,-4.944999999999988738e+00,1.339713021757601830e+01,-2.182927748758229480e+00
2.000000000000000000e+01,3.000000002296415946e+00,9.999999999993054445e+00,6.599999999999910383e-01,1.570000000000011608e+00,2.869999999999999545e+03,-2.174999999999971845e+00,-4.944999999999946994e+00,1.341339330733448243e+01,-2.190477127852357597e+00
1.999999999999981881e+01,3.000000002610514471e+00,1.000000000000123812e+01,6.600000000000051381e-01,1.570000000000038476e+00,2.869999999999998181e+03,-2.174999999999986500e+00,-4.945000000000029594e+00,1.339195503997908610e+01,-2.168191840138849802e+00
2.000000000000020606e+01,3.000000002408743871e+00,1.000000000001972111e+01,6.599999999999990319e-01,1.570000000000070006e+00,2.869999999999997726e+03,-2.174999999999993161e+00,-4.945000000000013607e+00,1.340214370219249496e+01,-2.177309452676570167e+00
1.999999999999968736e+01,3.000000002422258394e+00,1.000000000000249045e+01,6.600000000000063594e-01,1.570000000000044915e+00,2.869999999999997272e+03,-2.174999999999978506e+00,-4.945000000000021600e+00,1.339636808511392907e+01,-2.177948053530845751e+00
2.000000000000065370e+01,3.000000000580201220e+00,1.000000000004575007e+01,6.599999999999699440e-01,1.570000000000168372e+00,2.869999999999988177e+03,-2.174999999999872369e+00,-4.944999999999597939e+00,1.346075541127402886e+01,-2.204636939270649076e+00
1.999999999999828404e+01,3.000000001062447019e+00,9.999999999996179056e+00,6.600000000000019185e-01,1.570000000000271845e+00,2.869999999999997272e+03,-2.174999999999917222e+00,-4.944999999999854623e+00,1.338067666708108483e+01,-2.147613424250964353e+00
1.999999999999807798e+01,3.000000000951511314e+00,9.999999999992837729e+00,6.600000000000006972e-01,1.570000000000283391e+00,2.869999999999997272e+03,-2.174999999999925215e+00,-4.944999999999870610e+00,1.338690554773306829e+01,-2.147471244399654644e+00
2.000000000000172307e+01,3.000000001551260453e+00,1.000000000002699707e+01,6.599999999999752731e-01,1.570000000000122853e+00,2.869999999999980446e+03,-2.174999999999992273e+00,-4.944999999999875939e+00,1.350885753594998206e+01,-2.293015509914336114e+00
1.999999999999896971e+01,3.000000000463696193e+00,1.000000000005731948e+01,6.600000000000306732e-01,1.569999999999873275e+00,2.870000000000000455e+03,-2.175000000000050004e+00,-4.945000000000260520e+00,1.343649734513829941e+01,-2.196181925214494068e+00
1.999999999999863931e+01,3.000000001039516029e+00,1.000000000005115552e+01,6.600000000000328937e-01,1.569999999999903473e+00,2.870000000000000000e+03,-2.175000000000023803e+00,-4.945000000000221441e+00,1.341339853441450813e+01,-2.174732240485323764e+00
2.000000000000220268e+01,3.000000001149754958e+00,1.000000000002002487e+01,6.599999999999963674e-01,1.569999999999931450e+00,2.869999999999984539e+03,-2.175000000000030020e+00,-4.945000000000108642e+00,1.353901506729593684e+01,-2.329307201650103298e+00
2.000000000000230926e+01,2.999999999192202171e+00,1.000000000000840394e+01,6.599999999999913713e-01,1.569999999999856177e+00,2.869999999999978627e+03,-2.174999999999994493e+00,-4.945000000000027818e+00,1.355693593871337832e+01,-2.333483614699764619e+00
2.000000000000242295e+01,2.999999999073978518e+00,9.999999999993351096e+00,6.599999999999813793e-01,1.569999999999934337e+00,2.869999999999979991e+03,-2.174999999999983391e+00,-4.944999999999970974e+00,1.356048347434830070e+01,-2.339052602859603258e+00
2.000000000000064304e+01,3.000000000547136558e+00,9.999999999999866773e+00,6.600000000000020295e-01,1.569999999999944995e+00,2.869999999999987267e+03,-2.174999999999962519e+00,-4.945000000000026041e+00,1.355779078621450395e+01,-2.345872119699146996e+00
2.000000000000043343e+01,3.000000000630442809e+00,9.999999999997450928e+00,6.600000000000039169e-01,1.569999999999971863e+00,2.869999999999987267e+03,-2.174999999999948308e+00,-4.945000000000007390e+00,1.355212330831125023e+01,-2.335064683224200799e+00
1.999999999999922906e+01,3.000000000678414214e+00,1.000000000004244427e+01,6.600000000000189049e-01,1.570000000000023377e+00,2.869999999999985903e+03,-2.174999999999972289e+00,-4.945000000000081108e+00,1.348314351346220441e+01,-2.292030113920404233e+00
1.999999999999963052e+01,3.000000000426212843e+00,9.999999999979834797e+00,6.600000000000191269e-01,1.569999999999955431e+00,2.869999999999989996e+03,-2.175000000000005596e+00,-4.945000000000142393e+00,1.345449451575340838e+01,-2.237053631407734056e+00
2.000000000000079226e+01,2.999999999767616998e+00,1.000000000001838174e+01,6.600000000000051381e-01,1.570000000000066454e+00,2.869999999999983174e+03,-2.175000000000011369e+00,-4.945000000000104201e+00,1.350073689202094229e+01,-2.322572100095502634e+00
2.000000000000343192e+01,3.000000000528361799e+00,1.000000000004521716e+01,6.599999999999565103e-01,1.569999999999982077e+00,2.869999999999983174e+03,-2.174999999999973177e+00,-4.944999999999835083e+00,1.352189510677216511e+01,-2.330824757883874554e+00
2.000000000000148859e+01,3.000000000714640791e+00,1.000000000004300027e+01,6.599999999999814904e-01,1.569999999999970308e+00,2.869999999999985903e+03,-2.174999999999970068e+00,-4.944999999999923901e+00,1.350510606330591301e+01,-2.312441171354658653e+00
2.000000000000262546e+01,3.000000000866571703e+00,1.000000000008144418e+01,6.600000000000018074e-01,1.569999999999762474e+00,2.869999999999993634e+03,-2.175000000000031353e+00,-4.945000000000041140e+00,1.346997604740275989e+01,-2.227249649593428860e+00
1.999999999999914024e+01,3.000000000270883760e+00,1.000000000006271073e+01,6.600000000000163514e-01,1.570000000000028928e+00,2.869999999999992269e+03,-2.174999999999977174e+00,-4.945000000000046469e+00,1.345795829764920981e+01,-2.203953316338123969e+00
2.000000000000104450e+01,3.000000001107415937e+00,1.000000000001965361e+01,6.599999999999902611e-01,1.569999999999940332e+00,2.869999999999989541e+03,-2.174999999999999822e+00,-4.944999999999960316e+00,1.342419531421344736e+01,-2.148112842404202194e+00
2.000000000000109424e+01,3.000000000504211339e+00,1.000000000005200285e+01,6.600000000000018074e-01,1.569999999999925233e+00,2.869999999999995907e+03,-2.174999999999968736e+00,-4.944999999999922125e+00,1.342775544743454041e+01,-2.172043230093037014e+00
2.000000000000297362e+01,3.000000000151774149e+00,1.000000000002111555e+01,6.599999999999863753e-01,1.569999999999877049e+00,2.869999999999999545e+03,-2.175000000000070433e+00,-4.945000000000096207e+00,1.342683841698480762e+01,-2.206041740368578363e+00
2.000000000000348166e+01,3.000000000382549992e+00,1.000000000004352607e+01,6.599999999999806022e-01,1.569999999999886597e+00,2.869999999999998636e+03,-2.175000000000059330e+00,-4.945000000000038476e+00,1.344323552680762823e+01,-2.232658362563205934e+00
2.000000000000108358e+01,3.000000001006851935e+00,1.000000000002378897e+01,6.599999999999847100e-01,1.570000000000002949e+00,2.870000000000001364e+03,-2.175000000000022027e+00,-4.944999999999978080e+00,1.339605482517977464e+01,-2.164711115215282700e+00
2.000000000000123634e+01,3.000000000756383844e+00,1.000000000003286260e+01,6.599999999999925926e-01,1.569999999999948548e+00,2.869999999999999545e+03,-2.175000000000029132e+00,-4.945000000000019824e+00,1.339435397452241361e+01,-2.166469863390380279e+00
2.000000000000139977e+01,3.000000000773824560e+00,1.000000000002999911e+01,6.599999999999849321e-01,1.569999999999961648e+00,2.869999999999998636e+03,-2.175000000000006928e+00,-4.944999999999946105e+00,1.342458732649093633e+01,-2.197666673447416841e+00
2.000000000000028777e+01,3.000000000498731723e+00,1.000000000001913136e+01,6.600000000000075806e-01,1.570000000000009832e+00,2.869999999999997272e+03,-2.175000000000034461e+00,-4.945000000000139728e+00,1.340417130437375093e+01,-2.170500332523026099e+00
2.000000000000013145e+01,3.000000000382335053e+00,1.000000000001345057e+01,6.600000000000049161e-01,1.569999999999987850e+00,2.870000000000001364e+03,-2.175000000000039346e+00,-4.945000000000125517e+00,1.339345229583399366e+01,-2.148560316960958616e+00
1.999999999999979750e+01,3.000000000478151296e+00,1.000000000000538769e+01,6.600000000000018074e-01,1.570000000000054019e+00,2.869999999999999091e+03,-2.175000000000013589e+00,-4.945000000000070450e+00,1.338231041583921055e+01,-2.138294747113402394e+00
2.000000000000049738e+01,3.000000000011605383e+00,1.000000000005673328e+01,6.599999999999782707e-01,1.570000000000135509e+00,2.869999999999993634e+03,-2.174999999999903899e+00,-4.944999999999700080e+00,1.343611730929628933e+01,-2.208536231443695375e+00
2.000000000000069278e+01,3.000000000930768795e+00,1.000000000006501288e+01,6.599999999999764944e-01,1.570000000000163043e+00,2.869999999999993634e+03,-2.174999999999925215e+00,-4.944999999999740048e+00,1.344402562804978629e+01,-2.215275679129854236e+00
2.000000000000015632e+01,3.000000001384926396e+00,1.000000000000195222e+01,6.599999999999852651e-01,1.570000000000100204e+00,2.869999999999994088e+03,-2.175000000000012701e+00,-4.944999999999985185e+00,1.339644339545204055e+01,-2.152765551304077984e+00
2.000000000000053291e+01,3.000000000974657244e+00,9.999999999985197618e+00,6.599999999999800471e-01,1.570000000000074891e+00,2.869999999999995453e+03,-2.175000000000004263e+00,-4.944999999999951434e+00,1.340701193829529458e+01,-2.158509667838096835e+00
2.000000000000054357e+01,3.000000001026409624e+00,9.999999999998083311e+00,6.599999999999910383e-01,1.570000000000069340e+00,2.869999999999994543e+03,-2.175000000000030465e+00,-4.945000000000055351e+00,1.340300486347469899e+01,-2.166397901179984320e+00
2.000000000000080291e+01,3.000000000861588134e+00,1.000000000002471978e+01,6.599999999999692779e-01,1.570000000000088658e+00,2.870000000000002274e+03,-2.174999999999927880e+00,-4.944999999999668105e+00,1.341825607733274417e+01,-2.159625224111523245e+00
2.000000000000077094e+01,3.000000001199848221e+00,1.000000000000889244e+01,6.599999999999698330e-01,1.570000000000048024e+00,2.870000000000003183e+03,-2.174999999999950973e+00,-4.944999999999732943e+00,1.341619066012804318e+01,-2.151729330945999497e+00
2.000000000000059330e+01,3.000000001473182465e+00,9.999999999994168220e+00,6.599999999999920375e-01,1.570000000000005835e+00,2.869999999999991360e+03,-2.174999999999930544e+00,-4.944999999999803997e+00,1.342156188218548962e+01,-2.161862698949637007e+00
2.000000000000056488e+01,3.000000001437295172e+00,1.000000000000348876e+01,6.599999999999918154e-01,1.569999999999990292e+00,2.869999999999987267e+03,-2.174999999999934985e+00,-4.944999999999808438e+00,1.342789447297364092e+01,-2.167985497840178688e+00
1.999999999999965894e+01,3.000000000826097857e+00,9.999999999992622790e+00,6.599999999999508482e-01,1.570000000000186358e+00,2.869999999999995453e+03,-2.174999999999962519e+00,-4.944999999999719620e+00,1.344903922661782758e+01,-2.159764802055184951e+00
2.000000000000110489e+01,3.000000002252199316e+00,1.000000000004903455e+01,6.599999999999638378e-01,1.570000000000095985e+00,2.869999999999984993e+03,-2.174999999999943867e+00,-4.944999999999730278e+00,1.343954907464532766e+01,-2.176776513347910669e+00
2.000000000000012434e+01,3.000000002175006397e+00,9.999999999944645168e+00,6.599999999999526246e-01,1.570000000000168150e+00,2.869999999999998181e+03,-2.174999999999864375e+00,-4.944999999999525997e+00,1.344844905414755942e+01,-2.199816805624672966e+00
1.999999999999907985e+01,2.999999999922636551e+00,1.000000000007663914e+01,6.600000000000211253e-01,1.569999999999901474e+00,2.870000000000002274e+03,-2.175000000000013589e+00,-4.945000000000132623e+00,1.344377369851837400e+01,-2.171504448044491831e+00
1.999999999999835154e+01,3.000000001612321832e+00,1.000000000003324097e+01,6.599999999999711653e-01,1.570000000000230322e+00,2.869999999999993179e+03,-2.174999999999924771e+00,-4.944999999999742712e+00,1.341432923231323038e+01,-2.152702722600974283e+00
1.999999999999863931e+01,3.000000001302913333e+00,1.000000000004706102e+01,6.599999999999741629e-01,1.570000000000213225e+00,2.869999999999993634e+03,-2.174999999999931877e+00,-4.944999999999770246e+00,1.343168649155568062e+01,-2.170193292347760039e+00
1.999999999999970512e+01,3.000000001416343043e+00,1.000000000005449685e+01,6.599999999999776046e-01,1.570000000000152829e+00,2.869999999999985448e+03,-2.175000000000002931e+00,-4.944999999999903473e+00,1.345357479852050098e+01,-2.184817800610777017e+00
1.999999999999869615e+01,3.000000001888884160e+00,1.000000000005752554e+01,6.600000000000088018e-01,1.570000000000073337e+00,2.869999999999991360e+03,-2.175000000000015810e+00,-4.945000000000047358e+00,1.338842712715236161e+01,-2.117121763780462462e+00
1.999999999999888800e+01,3.000000001921028669e+00,1.000000000003449330e+01,6.600000000000114664e-01,1.570000000000042695e+00,2.869999999999990905e+03,-2.175000000000017142e+00,-4.945000000000087326e+00,1.339136533690112785e+01,-2.126203031542651445e+00
1.999999999999843681e+01,3.000000000946149825e+00,1.000000000003114131e+01,6.599999999999952571e-01,1.570000000000164375e+00,2.869999999999993179e+03,-2.174999999999966516e+00,-4.944999999999937224e+00,1.341057343972654614e+01,-2.169148418660101996e+00
1.999999999999861799e+01,3.000000001180735953e+00,1.000000000002725820e+01,6.599999999999893729e-01,1.570000000000188134e+00,2.869999999999991815e+03,-2.174999999999967848e+00,-4.944999999999924789e+00,1.340418757566517627e+01,-2.157537648021714105e+00
1.999999999999855405e+01,3.000000001135552097e+00,1.000000000002145484e+01,6.599999999999921485e-01,1.570000000000162599e+00,2.869999999999991360e+03,-2.174999999999956302e+00,-4.944999999999918572e+00,1.340816132770843261e+01,-2.166775108915964143e+00
1.999999999999875300e+01,3.000000003973975371e+00,1.000000000001100808e+01,6.599999999999932587e-01,1.569999999999985851e+00,2.870000000000005002e+03,-2.174999999999987832e+00,-4.944999999999904361e+00,1.342996023371651582e+01,-2.111028443239924890e+00
2.000000000000094502e+01,3.000000000808183742e+00,9.999999999912114745e+00,6.599999999999702771e-01,1.569999999999896145e+00,2.869999999999997272e+03,-2.174999999999935874e+00,-4.944999999999791562e+00,1.340032543054561920e+01,-2.147004205681363853e+00
2.000000000000120437e+01,3.000000000774526221e+00,9.999999999915715421e+00,6.599999999999666134e-01,1.569999999999956319e+00,2.869999999999996817e+03,-2.174999999999963851e+00,-4.944999999999836859e+00,1.339034261977061568e+01,-2.137292058654037596e+00
1.999999999999921840e+01,2.999999999417919394e+00,9.999999999970574649e+00,6.599999999999901501e-01,1.570000000000070450e+00,2.870000000000000455e+03,-2.174999999999970512e+00,-4.944999999999902585e+00,1.339918837054681688e+01,-2.129637890518036869e+00
1.999999999999920064e+01,2.999999998920196198e+00,9.999999999969963582e+00,6.599999999999929257e-01,1.570000000000032037e+00,2.870000000000000000e+03,-2.174999999999984723e+00,-4.944999999999937224e+00,1.341208485383434912e+01,-2.153807396367997118e+00
1.999999999999961275e+01,3.000000001211645451e+00,9.999999999928672167e+00,6.599999999999854872e-01,1.570000000000112861e+00,2.869999999999990905e+03,-2.174999999999907896e+00,-4.944999999999834195e+00,1.342336602671649892e+01,-2.187392241588376418e+00
1.999999999999914380e+01,3.000000001012335105e+00,9.999999999913608661e+00,6.599999999999741629e-01,1.570000000000155271e+00,2.869999999999994543e+03,-2.174999999999884803e+00,-4.944999999999752482e+00,1.342845515900935993e+01,-2.199245424786830050e+00
1.999999999999868194e+01,3.000000000971741798e+00,9.999999999936706629e+00,6.599999999999748290e-01,1.570000000000153717e+00,2.869999999999993634e+03,-2.174999999999895461e+00,-4.944999999999742712e+00,1.340558805984969837e+01,-2.173018942561894651e+00
1.999999999999886668e+01,3.000000000744297513e+00,9.999999999935322847e+00,6.599999999999737188e-01,1.570000000000159934e+00,2.869999999999996817e+03,-2.174999999999911005e+00,-4.944999999999751594e+00,1.339324538695301392e+01,-2.159342197314268574e+00
1.999999999999870681e+01,3.000000000879676332e+00,9.999999999927972283e+00,6.599999999999751621e-01,1.570000000000124185e+00,2.869999999999993634e+03,-2.174999999999892797e+00,-4.944999999999724949e+00,1.339225931682266868e+01,-2.157643109095039424e+00
1.999999999999889511e+01,3.000000000565070213e+00,9.999999999930608396e+00,6.599999999999731637e-01,1.570000000000086215e+00,2.869999999999996817e+03,-2.174999999999914557e+00,-4.944999999999778240e+00,1.340504330216342588e+01,-2.178851206867413737e+00
1.999999999999878142e+01,3.000000000443533654e+00,9.999999999912706272e+00,6.599999999999685008e-01,1.570000000000104423e+00,2.869999999999997726e+03,-2.174999999999908340e+00,-4.944999999999743601e+00,1.340238597919956298e+01,-2.160464586255512742e+00
1.999999999999792522e+01,3.000000000676924294e+00,9.999999999902414061e+00,6.599999999999871525e-01,1.570000000000240759e+00,2.869999999999991360e+03,-2.174999999999919886e+00,-4.944999999999904361e+00,1.343203496947041664e+01,-2.228699941816988606e+00
1.999999999999797851e+01,2.999999999692556152e+00,9.999999999999698019e+00,6.600000000000010303e-01,1.570000000000056906e+00,2.870000000000002728e+03,-2.174999999999953637e+00,-4.944999999999838636e+00,1.342731371305668731e+01,-2.108569089597832846e+00
1.999999999999828404e+01,3.000000001223927182e+00,1.000000000002420641e+01,6.600000000000167955e-01,1.570000000000038920e+00,2.870000000000002274e+03,-2.175000000000037126e+00,-4.945000000000121965e+00,1.345122325794647367e+01,-2.177723171063759899e+00
1.999999999999968736e+01,3.000000001311917242e+00,9.999999999960770936e+00,6.600000000000113554e-01,1.569999999999891704e+00,2.870000000000000000e+03,-2.175000000000048228e+00,-4.945000000000113971e+00,1.341819935339895942e+01,-2.117019237017501165e+00
2.000000000000043343e+01,3.000000000518455057e+00,9.999999999955164753e+00,6.599999999999770495e-01,1.569999999999992069e+00,2.869999999999999091e+03,-2.174999999999923883e+00,-4.944999999999757812e+00,1.343555266041674834e+01,-2.178634836465811020e+00
2.000000000000009237e+01,3.000000000858234817e+00,9.999999999963547381e+00,6.599999999999792699e-01,1.570000000000011608e+00,2.869999999999998636e+03,-2.174999999999924327e+00,-4.944999999999759588e+00,1.340971192978882520e+01,-2.142470991189015184e+00
1.999999999999876366e+01,3.000000001642067815e+00,9.999999999912168036e+00,6.599999999999849321e-01,1.570000000000158158e+00,2.869999999999997272e+03,-2.174999999999989608e+00,-4.944999999999989626e+00,1.344452305883720555e+01,-2.198540952163276163e+00
1.999999999999855760e+01,3.000000001673516881e+00,9.999999999948906648e+00,6.599999999999964784e-01,1.570000000000106866e+00,2.869999999999999091e+03,-2.175000000000001599e+00,-4.945000000000018936e+00,1.345584630512511914e+01,-2.211088042619870908e+00
1.999999999999954525e+01,3.000000002057924497e+00,9.999999999941335815e+00,6.599999999999990319e-01,1.569999999999960760e+00,2.869999999999998636e+03,-2.175000000000012701e+00,-4.945000000000026930e+00,1.340955462069442916e+01,-2.154660836764654253e+00
1.999999999999908695e+01,3.000000002185212455e+00,9.999999999936047601e+00,6.599999999999988098e-01,1.570000000000000728e+00,2.870000000000000000e+03,-2.174999999999990496e+00,-4.944999999999982521e+00,1.340544878061709966e+01,-2.151467036841215208e+00
1.999999999999685585e+01,3.000000001165440189e+00,9.999999999961291408e+00,6.600000000000150191e-01,1.570000000000148610e+00,2.869999999999998636e+03,-2.174999999999987832e+00,-4.945000000000085549e+00,1.343689831092608244e+01,-2.188829083784534113e+00
