2.000000000000126121e+01,2.999999999505293502e+00,1.000000000000011724e+01,6.599999999999994760e-01,1.569999999999918128e+00,2.869999999999993634e+03,-2.175000000000014477e+00,-4.944999999999991402e+00,1.324465539250940616e+01,-1.915589020639882012e+00
2.000000000000070344e+01,2.999999999134388418e+00,9.999999999996692424e+00,6.599999999999969225e-01,1.569999999999990958e+00,2.869999999999996362e+03,-2.174999999999999378e+00,-4.944999999999980744e+00,1.341210321571236008e+01,-1.683116994649501930e+00
1.999999999999917932e+01,2.999999998275630464e+00,9.999999999938655293e+00,6.599999999999989209e-01,1.570000000000074891e+00,2.870000000000002274e+03,-2.174999999999936318e+00,-4.944999999999859952e+00,1.360622426289222453e+01,-1.861500721327386865e+00
1.999999999999980460e+01,2.999999998464373263e+00,9.999999999961252328e+00,6.599999999999983658e-01,1.570000000000036922e+00,2.869999999999999545e+03,-2.174999999999970957e+00,-4.944999999999925677e+00,1.374515809398937449e+01,-1.773404993052436485e+00
2.000000000000003197e+01,3.000000000892764085e+00,9.999999999958479435e+00,6.599999999999974776e-01,1.570000000000013607e+00,2.869999999999990450e+03,-2.174999999999970068e+00,-4.944999999999936335e+00,1.349327167378980619e+01,-2.019916091499442512e+00
1.999999999999982947e+01,3.000000002132830801e+00,1.000000000000769340e+01,6.599999999999938138e-01,1.570000000000064011e+00,2.869999999999982720e+03,-2.174999999999977174e+00,-4.944999999999862617e+00,1.353328299706023508e+01,-2.380888676694929540e+00
1.999999999999905498e+01,3.000000000231473951e+00,1.000000000001904610e+01,6.600000000000025846e-01,1.570000000000031370e+00,2.869999999999993179e+03,-2.174999999999944311e+00,-4.944999999999844853e+00,1.337537439447494592e+01,-2.257155235108132096e+00
1.999999999999897682e+01,3.000000001708570174e+00,1.000000000003447553e+01,6.600000000000043610e-01,1.570000000000066009e+00,2.870000000000003183e+03,-2.174999999999985612e+00,-4.945000000000010942e+00,1.350980294732790199e+01,-2.145486409446147213e+00
2.000000000000003197e+01,2.999999999192727973e+00,9.999999999944931162e+00,6.599999999999960343e-01,1.570000000000046247e+00,2.869999999999996817e+03,-2.174999999999997602e+00,-4.945000000000002061e+00,1.398276412386605649e+01,-2.068832565869932250e+00
1.999999999999903366e+01,3.000000000854066151e+00,9.999999999954383156e+00,6.600000000000032507e-01,1.570000000000074669e+00,2.869999999999999545e+03,-2.174999999999983391e+00,-4.944999999999990514e+00,1.367480785762013440e+01,-2.042172407960018532e+00
1.999999999999982947e+01,3.000000000562975000e+00,9.999999999971945996e+00,6.599999999999972555e-01,1.570000000000049800e+00,2.869999999999992269e+03,-2.175000000000023803e+00,-4.945000000000049134e+00,1.369072942402551440e+01,-2.197051093969851987e+00
2.000000000000044409e+01,2.999999997946978691e+00,1.000000000001718448e+01,6.599999999999981437e-01,1.569999999999997842e+00,2.869999999999999545e+03,-2.175000000000032685e+00,-4.945000000000022489e+00,1.382789082856176854e+01,-1.860941889115851566e+00
1.999999999999971578e+01,2.999999998858016603e+00,9.999999999982348342e+00,6.600000000000011413e-01,1.570000000000025597e+00,2.870000000000000455e+03,-2.175000000000054001e+00,-4.945000000000098872e+00,1.347746657686599292e+01,-1.684110425891802043e+00
2.000000000000055067e+01,2.999999999922849714e+00,1.000000000000440359e+01,6.599999999999986988e-01,1.569999999999973417e+00,2.870000000000000909e+03,-2.175000000000067324e+00,-4.945000000000128182e+00,1.357241696023019095e+01,-1.781275505990485231e+00
2.000000000000022737e+01,2.999999999496876679e+00,1.000000000005597300e+01,6.599999999999988098e-01,1.569999999999988738e+00,2.869999999999999545e+03,-2.175000000000001599e+00,-4.945000000000010054e+00,1.341968929325180504e+01,-2.398239556021698693e+00
2.000000000000130029e+01,3.000000001899884694e+00,1.000000000000178169e+01,6.599999999999990319e-01,1.569999999999918572e+00,2.869999999999994543e+03,-2.175000000000054001e+00,-4.945000000000121965e+00,1.332833785875722654e+01,-2.214758486421223971e+00
1.999999999999987210e+01,2.999999998568467330e+00,9.999999999984616750e+00,6.599999999999974776e-01,1.570000000000041807e+00,2.869999999999993634e+03,-2.174999999999970512e+00,-4.944999999999905249e+00,1.328523603934534769e+01,-2.140608896716121645e+00
2.000000000000051870e+01,2.999999999952490892e+00,1.000000000003589840e+01,6.600000000000022515e-01,1.570000000000000506e+00,2.869999999999990450e+03,-2.175000000000026468e+00,-4.945000000000058904e+00,1.349064186476096339e+01,-2.375395155381105017e+00
1.999999999999977618e+01,3.000000002102134911e+00,9.999999999995216271e+00,6.600000000000038058e-01,1.569999999999996954e+00,2.870000000000000455e+03,-2.174999999999997602e+00,-4.945000000000007390e+00,1.347533037157806213e+01,-2.087086675847853012e+00
2.000000000000043698e+01,3.000000000819247337e+00,1.000000000002250644e+01,6.599999999999990319e-01,1.569999999999963203e+00,2.870000000000000909e+03,-2.175000000000016254e+00,-4.945000000000042917e+00,1.366309088788793957e+01,-1.955062971724584431e+00
1.999999999999870681e+01,3.000000001213464884e+00,1.000000000000382627e+01,6.600000000000060263e-01,1.570000000000053353e+00,2.870000000000002274e+03,-2.174999999999938982e+00,-4.944999999999958540e+00,1.369754795135665226e+01,-2.051759060719802630e+00
1.999999999999998224e+01,3.000000000024613200e+00,1.000000000005307577e+01,6.600000000000041389e-01,1.570000000000001839e+00,2.869999999999998636e+03,-2.174999999999977174e+00,-4.944999999999939000e+00,1.347619949123013328e+01,-2.132346409151344879e+00
2.000000000000091305e+01,2.999999998368444221e+00,1.000000000004388667e+01,6.600000000000015854e-01,1.569999999999978080e+00,2.869999999999997726e+03,-2.175000000000068656e+00,-4.945000000000107754e+00,1.345770950082735418e+01,-1.947035433158101014e+00
1.999999999999974420e+01,2.999999998074163621e+00,1.000000000004650502e+01,6.600000000000061373e-01,1.569999999999972307e+00,2.870000000000001819e+03,-2.174999999999967848e+00,-4.944999999999955875e+00,1.371755808586448744e+01,-2.026253526286364792e+00
1.999999999999935696e+01,2.999999999374147297e+00,1.000000000000963318e+01,6.600000000000064704e-01,1.570000000000021156e+00,2.870000000000007276e+03,-2.174999999999984279e+00,-4.945000000000081997e+00,1.371121439205210457e+01,-2.282933420770095534e+00
2.000000000000058620e+01,3.000000002365643681e+00,1.000000000004703793e+01,6.599999999999982547e-01,1.569999999999974971e+00,2.869999999999996362e+03,-2.175000000000030465e+00,-4.945000000000047358e+00,1.353532741014784868e+01,-1.875675978091973173e+00
2.000000000000032330e+01,3.000000001581224041e+00,1.000000000002018652e+01,6.600000000000041389e-01,1.569999999999943441e+00,2.869999999999997726e+03,-2.175000000000035350e+00,-4.945000000000098872e+00,1.336395297259922188e+01,-2.038408440856249282e+00
2.000000000000057909e+01,3.000000000425509405e+00,1.000000000000059153e+01,6.599999999999988098e-01,1.569999999999950768e+00,2.870000000000002728e+03,-2.175000000000035350e+00,-4.945000000000073115e+00,1.361189077475622078e+01,-1.962842498665394730e+00
1.999999999999979750e+01,2.999999999593155220e+00,1.000000000004435208e+01,6.600000000000011413e-01,1.569999999999990958e+00,2.870000000000001819e+03,-2.174999999999988720e+00,-4.944999999999993179e+00,1.354543831541080401e+01,-2.027547224195790143e+00
2.000000000000080291e+01,3.000000000610589357e+00,9.999999999960955677e+00,6.599999999999965894e-01,1.569999999999996732e+00,2.869999999999991815e+03,-2.175000000000052225e+00,-4.945000000000054463e+00,1.373308087171672831e+01,-2.071561198400648784e+00
2.000000000000066436e+01,2.999999999544359586e+00,1.000000000005145750e+01,6.600000000000001421e-01,1.569999999999946771e+00,2.869999999999996817e+03,-2.175000000000010036e+00,-4.944999999999999396e+00,1.336775342918303267e+01,-2.346662262884039674e+00
2.000000000000007816e+01,2.999999997631638937e+00,1.000000000004088285e+01,6.599999999999980327e-01,1.570000000000013163e+00,2.870000000000000000e+03,-2.174999999999978950e+00,-4.944999999999960316e+00,1.320706249329670001e+01,-2.093380690030665292e+00
2.000000000000064659e+01,2.999999998740246365e+00,1.000000000004125766e+01,6.599999999999986988e-01,1.569999999999970308e+00,2.869999999999998636e+03,-2.175000000000039346e+00,-4.945000000000053575e+00,1.374191496546246150e+01,-2.272962293902805797e+00
2.000000000000007461e+01,2.999999999538248474e+00,1.000000000003497291e+01,6.599999999999985878e-01,1.570000000000030038e+00,2.870000000000000909e+03,-2.175000000000034461e+00,-4.945000000000085549e+00,1.355191606451480801e+01,-2.343302359426342907e+00
2.000000000000057199e+01,2.999999998876787366e+00,1.000000000004515144e+01,6.600000000000015854e-01,1.569999999999958540e+00,2.870000000000002728e+03,-2.175000000000035350e+00,-4.945000000000080220e+00,1.349937210536680432e+01,-2.132391045924832973e+00
2.000000000000119726e+01,2.999999998324517581e+00,1.000000000006356338e+01,6.599999999999959233e-01,1.570000000000010720e+00,2.869999999999996362e+03,-2.175000000000108624e+00,-4.945000000000165485e+00,1.323070861889923755e+01,-2.119776100208457414e+00
2.000000000000122569e+01,2.999999999272477957e+00,1.000000000006569323e+01,6.599999999999965894e-01,1.569999999999939888e+00,2.870000000000001364e+03,-2.175000000000066436e+00,-4.945000000000113083e+00,1.350707871228805956e+01,-2.096740034203274483e+00
1.999999999999975842e+01,2.999999999780649684e+00,1.000000000000320810e+01,6.600000000000064704e-01,1.569999999999967422e+00,2.870000000000000909e+03,-2.175000000000000266e+00,-4.945000000000055351e+00,1.345347940776118278e+01,-2.124283467698828698e+00
1.999999999999925393e+01,2.999999999959694463e+00,1.000000000004393463e+01,6.600000000000072475e-01,1.570000000000016938e+00,2.869999999999999091e+03,-2.174999999999958522e+00,-4.944999999999938112e+00,1.319198652674091932e+01,-2.114533925987619689e+00
2.000000000000105871e+01,3.000000000622110807e+00,1.000000000001778488e+01,6.599999999999982547e-01,1.569999999999986295e+00,2.869999999999997726e+03,-2.175000000000072209e+00,-4.945000000000129070e+00,1.368291322219426576e+01,-1.916850667481212911e+00
2.000000000000003553e+01,3.000000000194893435e+00,1.000000000005795719e+01,6.600000000000014744e-01,1.570000000000013385e+00,2.870000000000002274e+03,-2.175000000000028244e+00,-4.945000000000035811e+00,1.379116970084955796e+01,-2.105940857797567123e+00
1.999999999999921840e+01,3.000000000615204332e+00,1.000000000003511502e+01,6.600000000000029177e-01,1.570000000000049134e+00,2.870000000000000455e+03,-2.174999999999996270e+00,-4.944999999999964757e+00,1.355967718305337399e+01,-2.131699189766780744e+00
2.000000000000016698e+01,3.000000000838014103e+00,1.000000000003327827e+01,6.600000000000016964e-01,1.570000000000005835e+00,2.870000000000001364e+03,-2.175000000000041123e+00,-4.945000000000061569e+00,1.369649097208480448e+01,-1.900281949145294247e+00
1.999999999999985434e+01,3.000000000455401938e+00,1.000000000002147083e+01,6.600000000000010303e-01,1.570000000000012497e+00,2.870000000000000000e+03,-2.174999999999986944e+00,-4.944999999999978080e+00,1.353987450349105437e+01,-1.963232703850483540e+00
2.000000000000040856e+01,3.000000002020993595e+00,9.999999999987025490e+00,6.599999999999989209e-01,1.569999999999979856e+00,2.869999999999999545e+03,-2.175000000000008260e+00,-4.945000000000032259e+00,1.354336057376848679e+01,-2.222638599829530826e+00
1.999999999999957367e+01,3.000000001310154207e+00,9.999999999991656452e+00,6.599999999999942579e-01,1.570000000000068452e+00,2.870000000000002728e+03,-2.175000000000011813e+00,-4.944999999999998508e+00,1.374060781313071899e+01,-2.196552645344226118e+00
1.999999999999860378e+01,2.999999999875557322e+00,1.000000000003376677e+01,6.600000000000029177e-01,1.570000000000073781e+00,2.870000000000001364e+03,-2.174999999999940314e+00,-4.944999999999853735e+00,1.349185309769098318e+01,-2.115511679197278117e+00
1.999999999999877431e+01,2.999999999627272818e+00,1.000000000003073097e+01,6.600000000000062483e-01,1.570000000000022045e+00,2.870000000000004547e+03,-2.174999999999926992e+00,-4.944999999999868834e+00,1.346055737764612203e+01,-2.302974473574035841e+00
1.999999999999878852e+01,3.000000000335876216e+00,1.000000000002077272e+01,6.600000000000071365e-01,1.570000000000041585e+00,2.870000000000000909e+03,-2.174999999999943867e+00,-4.944999999999898144e+00,1.358600192171677179e+01,-2.195045295366573335e+00
1.999999999999855405e+01,2.999999999529121109e+00,9.999999999987574384e+00,6.600000000000035838e-01,1.570000000000081330e+00,2.869999999999997726e+03,-2.174999999999930100e+00,-4.944999999999844853e+00,1.343940758724170337e+01,-2.313960388625386333e+00
2.000000000000013145e+01,3.000000000664418742e+00,1.000000000001271871e+01,6.599999999999994760e-01,1.570000000000012497e+00,2.870000000000001364e+03,-2.175000000000031353e+00,-4.945000000000043805e+00,1.344295730679404244e+01,-2.216547571456527255e+00
2.000000000000084910e+01,2.999999999725881050e+00,1.000000000004390621e+01,6.599999999999978106e-01,1.569999999999977192e+00,2.870000000000000000e+03,-2.175000000000030465e+00,-4.945000000000018936e+00,1.339470334588541611e+01,-1.957622371899872205e+00
2.000000000000043698e+01,2.999999999989632293e+00,9.999999999956076024e+00,6.599999999999996980e-01,1.570000000000006501e+00,2.870000000000000455e+03,-2.175000000000025580e+00,-4.945000000000064233e+00,1.363665856416629651e+01,-1.864134936364200801e+00
2.000000000000026645e+01,2.999999999573182308e+00,9.999999999984723331e+00,6.600000000000023626e-01,1.569999999999997176e+00,2.869999999999995453e+03,-2.175000000000037570e+00,-4.945000000000087326e+00,1.368769164037939312e+01,-1.827448467330183846e+00
2.000000000000087397e+01,3.000000000047648552e+00,9.999999999994077626e+00,6.599999999999984768e-01,1.569999999999968088e+00,2.869999999999999091e+03,-2.175000000000065548e+00,-4.945000000000153939e+00,1.374700396516275447e+01,-1.992586043458357992e+00
1.999999999999974776e+01,3.000000000867423910e+00,1.000000000002667022e+01,6.600000000000030287e-01,1.570000000000007834e+00,2.870000000000001819e+03,-2.175000000000006928e+00,-4.945000000000019824e+00,1.364377031203089707e+01,-2.250552899090874970e+00
2.000000000000004974e+01,3.000000000404059008e+00,1.000000000004365042e+01,6.599999999999999201e-01,1.570000000000022711e+00,2.870000000000001819e+03,-2.175000000000021139e+00,-4.945000000000046469e+00,1.361400196841628407e+01,-2.187715683998366689e+00
1.999999999999996447e+01,2.999999997175604172e+00,9.999999999987334576e+00,6.600000000000074696e-01,1.569999999999970530e+00,2.869999999999999091e+03,-2.175000000000004263e+00,-4.945000000000028706e+00,1.374828454595152749e+01,-1.974125190795949836e+00
1.999999999999976907e+01,2.999999999075560364e+00,1.000000000004413891e+01,6.600000000000114664e-01,1.569999999999915463e+00,2.870000000000003638e+03,-2.174999999999951861e+00,-4.944999999999954099e+00,1.358768403670265101e+01,-2.056826955756448250e+00
2.000000000000008171e+01,2.999999996086068155e+00,1.000000000000100897e+01,6.599999999999930367e-01,1.570000000000101981e+00,2.869999999999999091e+03,-2.175000000000041123e+00,-4.945000000000016271e+00,1.360432857823871622e+01,-1.933699392079717416e+00
1.999999999999939604e+01,2.999999996841237415e+00,1.000000000000709299e+01,6.599999999999965894e-01,1.570000000000070894e+00,2.869999999999997272e+03,-2.174999999999988276e+00,-4.944999999999930118e+00,1.367642656470134810e+01,-1.967035230534206924e+00
2.000000000000040856e+01,3.000000000185278459e+00,1.000000000005748468e+01,6.599999999999968114e-01,1.570000000000016716e+00,2.870000000000000000e+03,-2.175000000000033573e+00,-4.945000000000046469e+00,1.340876088180267800e+01,-1.862603633407822867e+00
2.000000000000065015e+01,2.999999998647148836e+00,1.000000000004143885e+01,6.599999999999960343e-01,1.569999999999965423e+00,2.870000000000000000e+03,-2.175000000000020695e+00,-4.945000000000031370e+00,1.374920290422881664e+01,-1.877868749882150912e+00
1.999999999999954881e+01,2.999999998569331972e+00,1.000000000003604228e+01,6.600000000000015854e-01,1.570000000000008056e+00,2.870000000000002274e+03,-2.174999999999982503e+00,-4.944999999999987850e+00,1.370670378328018835e+01,-2.034322094200890163e+00
1.999999999999992184e+01,2.999999998246723365e+00,1.000000000003777778e+01,6.599999999999995870e-01,1.569999999999983631e+00,2.870000000000001364e+03,-2.174999999999980727e+00,-4.944999999999968310e+00,1.380513030093561788e+01,-2.050809551521913576e+00
1.999999999999889511e+01,2.999999999678706342e+00,1.000000000002856737e+01,6.600000000000061373e-01,1.570000000000002283e+00,2.870000000000004093e+03,-2.174999999999932321e+00,-4.944999999999907914e+00,1.380940206294055983e+01,-1.975275127663922659e+00
2.000000000000116529e+01,3.000000001552054485e+00,1.000000000001797140e+01,6.599999999999981437e-01,1.569999999999895479e+00,2.870000000000000909e+03,-2.175000000000010925e+00,-4.945000000000015383e+00,1.352716214689175978e+01,-2.035408200089978692e+00
2.000000000000034461e+01,3.000000000394209998e+00,1.000000000001276312e+01,6.600000000000019185e-01,1.569999999999968754e+00,2.870000000000003183e+03,-2.175000000000006040e+00,-4.945000000000040252e+00,1.359423123431842306e+01,-2.270098762834190431e+00
2.000000000000088818e+01,3.000000001609083977e+00,9.999999999962103203e+00,6.599999999999928146e-01,1.570000000000031370e+00,2.869999999999992269e+03,-2.175000000000048672e+00,-4.945000000000081108e+00,1.346199764394375364e+01,-1.964770041527302391e+00
1.999999999999966960e+01,3.000000000617937257e+00,9.999999999970881959e+00,6.600000000000006972e-01,1.570000000000041585e+00,2.869999999999999091e+03,-2.175000000000023359e+00,-4.945000000000123741e+00,1.347444801127428171e+01,-2.058885156918558668e+00
1.999999999999989697e+01,3.000000002135409183e+00,1.000000000002598810e+01,6.600000000000008082e-01,1.570000000000026485e+00,2.869999999999998636e+03,-2.175000000000014033e+00,-4.945000000000033147e+00,1.370584086249019329e+01,-2.015244200851296519e+00
2.000000000000112266e+01,3.000000000555080426e+00,1.000000000000340883e+01,6.599999999999972555e-01,1.569999999999894591e+00,2.869999999999997272e+03,-2.174999999999994937e+00,-4.944999999999969198e+00,1.365343495439102561e+01,-2.278052346673925310e+00
1.999999999999976907e+01,2.999999999331386391e+00,1.000000000004095924e+01,6.599999999999984768e-01,1.569999999999987850e+00,2.869999999999999545e+03,-2.174999999999953193e+00,-4.944999999999892815e+00,1.370522905347489839e+01,-2.269423227949330713e+00
1.999999999999940670e+01,2.999999998342056440e+00,1.000000000002406786e+01,6.599999999999940359e-01,1.570000000000085771e+00,2.870000000000000455e+03,-2.174999999999965627e+00,-4.944999999999893703e+00,1.353896986759043664e+01,-1.725269531648887300e+00
1.999999999999979750e+01,3.000000001643562175e+00,1.000000000005256950e+01,6.600000000000064704e-01,1.569999999999930340e+00,2.869999999999999091e+03,-2.174999999999952749e+00,-4.944999999999896367e+00,1.358952939605390320e+01,-2.011055123544315482e+00
1.999999999999976907e+01,3.000000000266545896e+00,1.000000000001709388e+01,6.600000000000012523e-01,1.569999999999957430e+00,2.870000000000000000e+03,-2.174999999999930544e+00,-4.944999999999869722e+00,1.348564638434310403e+01,-2.133988336238807459e+00
1.999999999999975842e+01,3.000000000304642978e+00,1.000000000001598011e+01,6.599999999999980327e-01,1.569999999999984963e+00,2.870000000000000909e+03,-2.174999999999970957e+00,-4.944999999999918572e+00,1.347723114861326366e+01,-1.975717646386160764e+00
1.999999999999974065e+01,3.000000000472857309e+00,1.000000000005509193e+01,6.599999999999959233e-01,1.570000000000001394e+00,2.870000000000001819e+03,-2.174999999999933209e+00,-4.944999999999839524e+00,1.348520812503184452e+01,-1.936324707886369678e+00
2.000000000000017764e+01,3.000000000612722317e+00,1.000000000002727774e+01,6.600000000000063594e-01,1.569999999999943441e+00,2.870000000000001364e+03,-2.174999999999978506e+00,-4.944999999999997620e+00,1.368578885555476710e+01,-2.166445400557412082e+00
2.000000000000049738e+01,3.000000000127120980e+00,1.000000000002123457e+01,6.599999999999969225e-01,1.569999999999996732e+00,2.869999999999999545e+03,-2.175000000000013145e+00,-4.945000000000030482e+00,1.343772430086066727e+01,-2.136603239788968267e+00
1.999999999999959499e+01,2.999999999458060618e+00,1.000000000004670575e+01,6.600000000000016964e-01,1.570000000000012053e+00,2.869999999999997726e+03,-2.174999999999991829e+00,-4.944999999999958540e+00,1.353335807913415501e+01,-2.239693319512656267e+00
2.000000000000002487e+01,2.999999998452669736e+00,1.000000000003342215e+01,6.599999999999992539e-01,1.569999999999999396e+00,2.870000000000000455e+03,-2.174999999999987388e+00,-4.944999999999993179e+00,1.341677115197443726e+01,-2.077370916955470825e+00
1.999999999999932854e+01,2.999999998631567966e+00,1.000000000007343992e+01,6.600000000000049161e-01,1.570000000000015827e+00,2.870000000000002728e+03,-2.174999999999973621e+00,-4.944999999999964757e+00,1.342796413194668759e+01,-2.086965901036042403e+00
2.000000000000110134e+01,2.999999999572477538e+00,1.000000000004374456e+01,6.599999999999979217e-01,1.569999999999923457e+00,2.869999999999998636e+03,-2.175000000000025135e+00,-4.945000000000059792e+00,1.377725533391582502e+01,-2.018176592228791755e+00
2.000000000000201084e+01,2.999999999775794013e+00,1.000000000005994671e+01,6.599999999999961453e-01,1.569999999999881934e+00,2.869999999999995453e+03,-2.175000000000065103e+00,-4.945000000000082885e+00,1.371746219781810261e+01,-2.001196808148908435e+00
1.999999999999934275e+01,3.000000000689213575e+00,1.000000000003157297e+01,6.600000000000042499e-01,1.570000000000010498e+00,2.870000000000002728e+03,-2.174999999999949640e+00,-4.944999999999907025e+00,1.341291262787673233e+01,-2.148985849283551630e+00
1.999999999999911537e+01,2.999999998794718348e+00,1.000000000002249756e+01,6.600000000000109113e-01,1.570000000000019824e+00,2.870000000000002728e+03,-2.174999999999974953e+00,-4.944999999999999396e+00,1.347345637582452760e+01,-2.052125592854920910e+00
1.999999999999938183e+01,2.999999998382834931e+00,1.000000000005277734e+01,6.600000000000084688e-01,1.570000000000012941e+00,2.870000000000002274e+03,-2.174999999999976286e+00,-4.944999999999959428e+00,1.361882598874647066e+01,-2.083065169296312469e+00
1.999999999999993605e+01,3.000000000279960499e+00,9.999999999949261920e+00,6.599999999999960343e-01,1.570000000000007612e+00,2.869999999999991815e+03,-2.174999999999989164e+00,-4.945000000000020712e+00,1.377918937515716280e+01,-2.169744326470033791e+00
1.999999999999929656e+01,2.999999999422006791e+00,9.999999999966389552e+00,6.599999999999984768e-01,1.570000000000059126e+00,2.869999999999996817e+03,-2.174999999999969624e+00,-4.944999999999945217e+00,1.350206422218483304e+01,-2.234547718916275905e+00
2.000000000000124700e+01,3.000000001552298734e+00,1.000000000003250378e+01,6.599999999999975886e-01,1.569999999999935447e+00,2.869999999999990905e+03,-2.175000000000029576e+00,-4.945000000000029594e+00,1.348113341844035595e+01,-2.156322357587146854e+00
1.999999999999922196e+01,3.000000000955263424e+00,1.000000000002144951e+01,6.600000000000065814e-01,1.570000000000023821e+00,2.869999999999992269e+03,-2.174999999999926548e+00,-4.944999999999854623e+00,1.346676760323219746e+01,-2.351186143636635251e+00
2.000000000000123279e+01,3.000000000851817727e+00,1.000000000006494361e+01,6.599999999999937028e-01,1.569999999999992291e+00,2.869999999999997272e+03,-2.175000000000063771e+00,-4.945000000000104201e+00,1.352001395162551844e+01,-2.300102998558050338e+00
1.999999999999997158e+01,3.000000000755864704e+00,1.000000000005186251e+01,6.600000000000084688e-01,1.569999999999932561e+00,2.870000000000001819e+03,-2.174999999999982947e+00,-4.944999999999994067e+00,1.340696257152586135e+01,-2.071447621956226115e+00
2.000000000000168043e+01,3.000000000356400687e+00,1.000000000004277290e+01,6.599999999999950351e-01,1.569999999999907470e+00,2.869999999999995453e+03,-2.175000000000056222e+00,-4.945000000000085549e+00,1.356300470492149124e+01,-2.229442250292201333e+00
2.000000000000106226e+01,2.999999999388024197e+00,1.000000000007165113e+01,6.600000000000061373e-01,1.569999999999897478e+00,2.869999999999999545e+03,-2.175000000000017586e+00,-4.945000000000053575e+00,1.369103210741722521e+01,-2.257188903457693296e+00
2.000000000000116884e+01,3.000000002791741949e+00,1.000000000001583977e+01,6.599999999999992539e-01,1.569999999999884155e+00,2.870000000000001364e+03,-2.175000000000008704e+00,-4.945000000000055351e+00,1.343296905763040172e+01,-2.264266564253756275e+00
2.000000000000049738e+01,3.000000002473546701e+00,9.999999999980978771e+00,6.599999999999972555e-01,1.569999999999957430e+00,2.869999999999997726e+03,-2.175000000000015365e+00,-4.945000000000060680e+00,1.363212029507068834e+01,-1.995132640136111801e+00
1.999999999999979394e+01,3.000000000424746904e+00,1.000000000002868461e+01,6.600000000000033618e-01,1.569999999999934781e+00,2.870000000000003638e+03,-2.174999999999973177e+00,-4.944999999999981632e+00,1.350993062882787044e+01,-1.882002657679048063e+00
2.000000000000104450e+01,3.000000001083831247e+00,1.000000000000174438e+01,6.600000000000018074e-01,1.569999999999921902e+00,2.870000000000000455e+03,-2.175000000000011813e+00,-4.945000000000070450e+00,1.335673752198444220e+01,-2.066366320664641432e+00
2.000000000000095213e+01,2.999999999588714328e+00,1.000000000002737721e+01,6.599999999999951461e-01,1.569999999999985407e+00,2.870000000000000909e+03,-2.175000000000047340e+00,-4.945000000000105089e+00,1.354144337023699407e+01,-2.230096324855299184e+00
1.999999999999843325e+01,2.999999998331435158e+00,9.999999999990448529e+00,6.600000000000075806e-01,1.570000000000071338e+00,2.870000000000000000e+03,-2.174999999999915890e+00,-4.944999999999859952e+00,1.367991117997941863e+01,-1.920430871753540991e+00
1.999999999999958078e+01,2.999999999356105285e+00,1.000000000000948397e+01,6.600000000000026956e-01,1.570000000000009166e+00,2.870000000000000455e+03,-2.174999999999965183e+00,-4.944999999999980744e+00,1.343419170979063004e+01,-2.095067971947223384e+00
2.000000000000023093e+01,3.000000000026530778e+00,9.999999999966215469e+00,6.599999999999964784e-01,1.570000000000017382e+00,2.870000000000000455e+03,-2.175000000000008260e+00,-4.945000000000038476e+00,1.372703810646342681e+01,-2.143812154107331835e+00
2.000000000000001066e+01,2.999999998897044051e+00,9.999999999978793852e+00,6.599999999999980327e-01,1.570000000000058460e+00,2.869999999999991815e+03,-2.175000000000035350e+00,-4.945000000000082885e+00,1.362228004124941450e+01,-2.136807621989111894e+00
1.999999999999923617e+01,3.000000000378240106e+00,1.000000000005122125e+01,6.600000000000064704e-01,1.570000000000042251e+00,2.870000000000002274e+03,-2.174999999999990496e+00,-4.945000000000000284e+00,1.342182922111504695e+01,-1.872015070483845411e+00
1.999999999999884182e+01,3.000000001025587615e+00,1.000000000001843503e+01,6.600000000000021405e-01,1.570000000000106199e+00,2.870000000000001364e+03,-2.174999999999970957e+00,-4.945000000000001172e+00,1.347538044508337229e+01,-1.965138824657126859e+00
1.999999999999890576e+01,3.000000002259277210e+00,1.000000000007261214e+01,6.600000000000083578e-01,1.570000000000006724e+00,2.869999999999994543e+03,-2.174999999999911449e+00,-4.944999999999840412e+00,1.328777916524951763e+01,-2.180321630370997799e+00
1.999999999999875300e+01,3.000000001762871626e+00,1.000000000003828227e+01,6.600000000000054712e-01,1.570000000000023377e+00,2.870000000000003183e+03,-2.174999999999918998e+00,-4.944999999999911466e+00,1.330150703745687402e+01,-2.009581618239713041e+00
1.999999999999840128e+01,3.000000001966990570e+00,9.999999999999671374e+00,6.600000000000030287e-01,1.570000000000136176e+00,2.869999999999998636e+03,-2.174999999999945643e+00,-4.944999999999919460e+00,1.333320981956144635e+01,-2.158633115811319669e+00
2.000000000000068212e+01,2.999999999821298058e+00,1.000000000000941469e+01,6.599999999999960343e-01,1.570000000000025819e+00,2.869999999999998636e+03,-2.175000000000037570e+00,-4.945000000000009166e+00,1.321225854037095182e+01,-2.067617100065481051e+00
1.999999999999943512e+01,3.000000000233715269e+00,1.000000000004822809e+01,6.600000000000054712e-01,1.570000000000034923e+00,2.870000000000001364e+03,-2.175000000000012701e+00,-4.944999999999999396e+00,1.344027847652003871e+01,-1.781176291937655698e+00
1.999999999999903721e+01,3.000000000575379744e+00,1.000000000001815259e+01,6.600000000000109113e-01,1.570000000000009832e+00,2.870000000000004547e+03,-2.174999999999986056e+00,-4.944999999999995843e+00,1.355383010826384016e+01,-1.687103862720792158e+00
1.999999999999916156e+01,3.000000000210842011e+00,9.999999999993070432e+00,6.600000000000002531e-01,1.570000000000091545e+00,2.870000000000000455e+03,-2.174999999999995826e+00,-4.945000000000011831e+00,1.378038111851399528e+01,-1.594039531828515432e+00
2.000000000000060396e+01,3.000000000667618405e+00,1.000000000001223377e+01,6.600000000000034728e-01,1.569999999999996509e+00,2.869999999999999091e+03,-2.175000000000045119e+00,-4.945000000000065121e+00,1.369051126133724772e+01,-1.888145860786354380e+00
2.000000000000020250e+01,3.000000001286527773e+00,1.000000000001680256e+01,6.600000000000004752e-01,1.570000000000021600e+00,2.870000000000001819e+03,-2.175000000000038458e+00,-4.945000000000060680e+00,1.375877039523396839e+01,-1.870715310638794593e+00
1.999999999999990052e+01,3.000000001610064526e+00,9.999999999994845012e+00,6.600000000000029177e-01,1.570000000000006724e+00,2.870000000000000455e+03,-2.175000000000013589e+00,-4.945000000000097984e+00,1.395947375922724909e+01,-1.903356134789973009e+00
1.999999999999963762e+01,3.000000001769036473e+00,1.000000000003130829e+01,6.600000000000054712e-01,1.570000000000009388e+00,2.870000000000004093e+03,-2.174999999999982503e+00,-4.944999999999998508e+00,1.390304982891433205e+01,-1.869164176186632442e+00
2.000000000000018119e+01,3.000000001610731104e+00,9.999999999990667021e+00,6.600000000000020295e-01,1.570000000000017160e+00,2.870000000000000455e+03,-2.175000000000026468e+00,-4.945000000000078444e+00,1.375429100901384771e+01,-1.911082599061506571e+00
1.999999999999891287e+01,3.000000000016454837e+00,9.999999999985826449e+00,6.599999999999999201e-01,1.570000000000050022e+00,2.870000000000001364e+03,-2.174999999999952305e+00,-4.944999999999931006e+00,1.375356159678753798e+01,-2.088894059139897674e+00
2.000000000000022737e+01,3.000000000163222769e+00,1.000000000002689760e+01,6.600000000000014744e-01,1.569999999999957208e+00,2.869999999999990905e+03,-2.174999999999976286e+00,-4.944999999999942553e+00,1.358644905125543012e+01,-2.159863756284518210e+00
2.000000000000089173e+01,3.000000001385302095e+00,1.000000000003428191e+01,6.599999999999919265e-01,1.569999999999996065e+00,2.869999999999981355e+03,-2.175000000000045119e+00,-4.945000000000040252e+00,1.355083893088471214e+01,-2.145856603720853517e+00
2.000000000000040146e+01,2.999999999950620833e+00,1.000000000003736389e+01,6.600000000000052491e-01,1.569999999999917462e+00,2.869999999999991360e+03,-2.174999999999988720e+00,-4.945000000000012719e+00,1.347608605981020169e+01,-2.139193503148753006e+00
1.999999999999978684e+01,3.000000000407686329e+00,9.999999999997179145e+00,6.600000000000024736e-01,1.569999999999988960e+00,2.869999999999990905e+03,-2.174999999999983391e+00,-4.944999999999978080e+00,1.357924293101882718e+01,-2.259256446468481894e+00
1.999999999999988631e+01,3.000000002535986532e+00,9.999999999991278088e+00,6.599999999999992539e-01,1.570000000000055573e+00,2.869999999999994088e+03,-2.175000000000015810e+00,-4.945000000000023377e+00,1.342931295892488741e+01,-2.204590906413140594e+00
1.999999999999914735e+01,3.000000000746186224e+00,9.999999999996401101e+00,6.599999999999981437e-01,1.570000000000132401e+00,2.869999999999992269e+03,-2.175000000000009148e+00,-4.944999999999969198e+00,1.339565347157740405e+01,-2.007131553961591486e+00
2.000000000000061817e+01,3.000000000060145222e+00,1.000000000002975753e+01,6.599999999999993650e-01,1.570000000000020712e+00,2.869999999999988631e+03,-2.175000000000047784e+00,-4.945000000000089990e+00,1.349028670196335433e+01,-1.905366366894376773e+00
1.999999999999947775e+01,3.000000000873090489e+00,1.000000000001984013e+01,6.600000000000063594e-01,1.569999999999991402e+00,2.869999999999987722e+03,-2.174999999999912781e+00,-4.944999999999791562e+00,1.336729207270974307e+01,-2.244525775443706017e+00
1.999999999999979750e+01,2.999999999532112493e+00,9.999999999974360065e+00,6.599999999999976996e-01,1.570000000000072005e+00,2.869999999999986358e+03,-2.174999999999980282e+00,-4.944999999999919460e+00,1.332026187253406668e+01,-2.009548328114687532e+00
1.999999999999924327e+01,3.000000001450411347e+00,1.000000000002035705e+01,6.600000000000064704e-01,1.570000000000003837e+00,2.869999999999994998e+03,-2.174999999999952305e+00,-4.944999999999923013e+00,1.359759530505136738e+01,-2.024887190006766868e+00
2.000000000000048317e+01,3.000000001125608051e+00,1.000000000003266898e+01,6.600000000000022515e-01,1.569999999999978524e+00,2.869999999999993634e+03,-2.175000000000022027e+00,-4.945000000000050910e+00,1.368952239951419081e+01,-2.153807971521178199e+00
1.999999999999974420e+01,3.000000000289374302e+00,1.000000000003494272e+01,6.600000000000015854e-01,1.570000000000034701e+00,2.869999999999990450e+03,-2.174999999999992273e+00,-4.944999999999970086e+00,1.357848528112980091e+01,-1.968845085006035944e+00
1.999999999999964118e+01,3.000000001016494444e+00,1.000000000004511236e+01,6.600000000000003642e-01,1.570000000000018714e+00,2.869999999999998636e+03,-2.174999999999994937e+00,-4.944999999999949658e+00,1.350369524002899801e+01,-2.145756235379328025e+00
1.999999999999988631e+01,3.000000000892833807e+00,1.000000000001955591e+01,6.600000000000008082e-01,1.570000000000019824e+00,2.870000000000000000e+03,-2.175000000000018474e+00,-4.945000000000008278e+00,1.353522766647275688e+01,-2.018955137226765562e+00
1.999999999999961986e+01,3.000000001843632358e+00,9.999999999996385114e+00,6.600000000000014744e-01,1.570000000000017160e+00,2.870000000000000455e+03,-2.174999999999988276e+00,-4.945000000000008278e+00,1.358961179968561517e+01,-2.169358270983217984e+00
2.000000000000084910e+01,3.000000000260667488e+00,9.999999999991889155e+00,6.599999999999974776e-01,1.569999999999984519e+00,2.869999999999998181e+03,-2.175000000000032241e+00,-4.945000000000033147e+00,1.358234826169376497e+01,-2.080690832456599804e+00
2.000000000000107292e+01,3.000000000345194096e+00,1.000000000002593303e+01,6.599999999999980327e-01,1.569999999999982521e+00,2.869999999999998636e+03,-2.175000000000049116e+00,-4.945000000000066009e+00,1.346126910622804829e+01,-2.159667665060755137e+00
1.999999999999907274e+01,3.000000000989752280e+00,1.000000000000474465e+01,6.600000000000069145e-01,1.570000000000020712e+00,2.870000000000002274e+03,-2.174999999999962963e+00,-4.944999999999946105e+00,1.349375278048250415e+01,-2.149104114587144565e+00
2.000000000000148148e+01,3.000000001002641081e+00,1.000000000002310863e+01,6.600000000000012523e-01,1.569999999999891260e+00,2.869999999999997726e+03,-2.175000000000043787e+00,-4.945000000000103313e+00,1.344183630296794973e+01,-2.268896758362584531e+00
2.000000000000125411e+01,2.999999998479217389e+00,9.999999999952567720e+00,6.599999999999935918e-01,1.570000000000008722e+00,2.869999999999997272e+03,-2.175000000000064659e+00,-4.945000000000091767e+00,1.351261459448186741e+01,-2.204048362059011446e+00
1.999999999999990408e+01,3.000000001760352308e+00,9.999999999968597564e+00,6.600000000000026956e-01,1.570000000000016493e+00,2.870000000000000455e+03,-2.175000000000032685e+00,-4.945000000000140616e+00,1.327174083008104333e+01,-2.149761092366355264e+00
2.000000000000108713e+01,2.999999999769799253e+00,1.000000000002004796e+01,6.600000000000008082e-01,1.569999999999952545e+00,2.869999999999986812e+03,-2.175000000000034905e+00,-4.945000000000044693e+00,1.372212173113562095e+01,-2.147797515223152320e+00
2.000000000000046896e+01,3.000000000902047326e+00,9.999999999956333596e+00,6.600000000000001421e-01,1.569999999999962759e+00,2.870000000000000000e+03,-2.175000000000052669e+00,-4.945000000000161933e+00,1.361701203121318926e+01,-2.160624979203577212e+00
1.999999999999993960e+01,3.000000002356755235e+00,9.999999999983931076e+00,6.599999999999964784e-01,1.570000000000041585e+00,2.870000000000001364e+03,-2.175000000000042899e+00,-4.945000000000108642e+00,1.356925368479570970e+01,-1.997746825560444472e+00
2.000000000000072831e+01,3.000000001331817323e+00,9.999999999992345678e+00,6.600000000000023626e-01,1.569999999999925455e+00,2.869999999999998636e+03,-2.175000000000030909e+00,-4.945000000000105977e+00,1.370675858988377804e+01,-1.947236612505910403e+00
2.000000000000018474e+01,2.999999999359655334e+00,9.999999999993324451e+00,6.599999999999973666e-01,1.570000000000006279e+00,2.870000000000001364e+03,-2.175000000000032685e+00,-4.945000000000069562e+00,1.359926708677846641e+01,-1.916802093304845966e+00
2.000000000000030553e+01,2.999999999132277662e+00,1.000000000006216894e+01,6.599999999999999201e-01,1.569999999999963869e+00,2.869999999999996817e+03,-2.175000000000025135e+00,-4.945000000000044693e+00,1.366693799516035490e+01,-2.222120558148077407e+00
1.999999999999979394e+01,2.999999998072559571e+00,1.000000000003906031e+01,6.600000000000014744e-01,1.570000000000012053e+00,2.869999999999991815e+03,-2.174999999999994493e+00,-4.944999999999946994e+00,1.367949489345479464e+01,-2.160661066756396576e+00
1.999999999999909761e+01,2.999999997503858040e+00,1.000000000001485390e+01,6.600000000000066924e-01,1.570000000000054241e+00,2.870000000000002728e+03,-2.174999999999982947e+00,-4.944999999999984297e+00,1.352436957958830455e+01,-2.186650866022520567e+00
1.999999999999972289e+01,2.999999998766591958e+00,1.000000000002296119e+01,6.599999999999993650e-01,1.570000000000034923e+00,2.870000000000005002e+03,-2.175000000000018030e+00,-4.945000000000034923e+00,1.321510180154105640e+01,-2.200448855929340031e+00
1.999999999999831601e+01,3.000000000958846336e+00,9.999999999989601207e+00,6.600000000000063594e-01,1.570000000000060014e+00,2.869999999999997272e+03,-2.174999999999879918e+00,-4.944999999999811990e+00,1.383349771093573111e+01,-2.464898743204323228e+00
2.000000000000001776e+01,3.000000000556372726e+00,1.000000000000088995e+01,6.600000000000018074e-01,1.570000000000011386e+00,2.869999999999994543e+03,-2.174999999999962963e+00,-4.944999999999934559e+00,1.382627619609951353e+01,-2.333521834875460055e+00
1.999999999999976552e+01,3.000000001154150997e+00,9.999999999982186694e+00,6.600000000000024736e-01,1.570000000000031148e+00,2.869999999999999091e+03,-2.174999999999994493e+00,-4.944999999999999396e+00,1.330945737281021479e+01,-2.195742779884058304e+00
1.999999999999963762e+01,3.000000000819667001e+00,9.999999999998410161e+00,6.599999999999998090e-01,1.570000000000072227e+00,2.870000000000000455e+03,-2.175000000000015810e+00,-4.945000000000040252e+00,1.321279967876366790e+01,-2.191933649190230593e+00
1.999999999999835154e+01,3.000000001409803385e+00,9.999999999990844657e+00,6.599999999999951461e-01,1.570000000000192797e+00,2.869999999999999091e+03,-2.174999999999966072e+00,-4.944999999999937224e+00,1.312948954916150512e+01,-2.113583682933723562e+00
1.999999999999915090e+01,3.000000000754097673e+00,9.999999999983465671e+00,6.600000000000006972e-01,1.570000000000106644e+00,2.870000000000000000e+03,-2.174999999999992273e+00,-4.945000000000021600e+00,1.342770654029662758e+01,-2.237306347870493983e+00
2.000000000000064659e+01,2.999999997550035324e+00,1.000000000000927081e+01,6.599999999999981437e-01,1.569999999999949214e+00,2.869999999999991815e+03,-2.175000000000002043e+00,-4.944999999999967422e+00,1.357787330334727471e+01,-2.027494432369953969e+00
1.999999999999835154e+01,2.999999997075303071e+00,1.000000000001539746e+01,6.600000000000100231e-01,1.569999999999994511e+00,2.870000000000002274e+03,-2.174999999999876810e+00,-4.944999999999826201e+00,1.354437817248627596e+01,-1.931115180729447545e+00
2.000000000000055778e+01,2.999999997153102615e+00,9.999999999990510702e+00,6.599999999999954792e-01,1.570000000000021823e+00,2.869999999999997272e+03,-2.175000000000037570e+00,-4.945000000000089990e+00,1.369286384177584104e+01,-2.237869402568373189e+00
1.999999999999928590e+01,2.999999996993642615e+00,9.999999999956848740e+00,6.600000000000024736e-01,1.569999999999998064e+00,2.869999999999996362e+03,-2.174999999999958078e+00,-4.944999999999948770e+00,1.358498616633847078e+01,-2.000071846866156022e+00
1.999999999999837286e+01,2.999999998436484017e+00,1.000000000000307843e+01,6.600000000000018074e-01,1.570000000000112195e+00,2.870000000000000455e+03,-2.174999999999939870e+00,-4.944999999999899032e+00,1.352073376868830401e+01,-1.939126263154310692e+00
1.999999999999914380e+01,2.999999998066045226e+00,1.000000000002011546e+01,6.599999999999957012e-01,1.570000000000120854e+00,2.870000000000001364e+03,-2.175000000000017586e+00,-4.945000000000056239e+00,1.327391210782324826e+01,-2.080616098270818171e+00
2.000000000000020606e+01,2.999999998136762436e+00,9.999999999991969091e+00,6.599999999999881517e-01,1.570000000000069118e+00,2.869999999999996817e+03,-2.175000000000029132e+00,-4.945000000000024265e+00,1.364647902580312255e+01,-1.975029973132321093e+00
2.000000000000016698e+01,2.999999999399056705e+00,1.000000000000712852e+01,6.599999999999970335e-01,1.570000000000010054e+00,2.869999999999998636e+03,-2.175000000000000711e+00,-4.945000000000040252e+00,1.361287107911140382e+01,-1.995199635049690778e+00
2.000000000000122213e+01,2.999999999295251296e+00,1.000000000002602540e+01,6.599999999999955902e-01,1.569999999999943663e+00,2.870000000000001364e+03,-2.175000000000040679e+00,-4.945000000000089102e+00,1.367047020719123473e+01,-1.876275369696605022e+00
2.000000000000036593e+01,3.000000001062775645e+00,1.000000000001792699e+01,6.600000000000015854e-01,1.569999999999965423e+00,2.870000000000002274e+03,-2.175000000000005596e+00,-4.945000000000047358e+00,1.380263811702121757e+01,-2.003349960681492625e+00
2.000000000000061107e+01,3.000000001285227924e+00,1.000000000001982592e+01,6.599999999999965894e-01,1.569999999999986073e+00,2.869999999999994543e+03,-2.175000000000004707e+00,-4.944999999999996732e+00,1.357588116792712718e+01,-2.283526555114806733e+00
2.000000000000023803e+01,3.000000001560397589e+00,9.999999999999182876e+00,6.599999999999937028e-01,1.570000000000033813e+00,2.869999999999997272e+03,-2.174999999999981171e+00,-4.944999999999977192e+00,1.366519415531248960e+01,-2.166925260783749696e+00
1.999999999999977973e+01,3.000000002130798205e+00,9.999999999967313258e+00,6.600000000000012523e-01,1.570000000000018936e+00,2.870000000000000455e+03,-2.174999999999978062e+00,-4.945000000000001172e+00,1.333215434399397381e+01,-2.144705550909313807e+00
1.999999999999921130e+01,3.000000000357771590e+00,9.999999999920405003e+00,6.600000000000069145e-01,1.570000000000036700e+00,2.870000000000000909e+03,-2.174999999999936762e+00,-4.944999999999955875e+00,1.343376147831311762e+01,-2.138774880096485198e+00
2.000000000000076028e+01,3.000000002049043157e+00,9.999999999933184114e+00,6.600000000000019185e-01,1.569999999999974749e+00,2.869999999999996817e+03,-2.175000000000008260e+00,-4.945000000000059792e+00,1.341123362710860967e+01,-2.184399783242275461e+00
1.999999999999858247e+01,3.000000001890929191e+00,9.999999999907828396e+00,6.600000000000084688e-01,1.570000000000053575e+00,2.870000000000000455e+03,-2.174999999999907896e+00,-4.944999999999899032e+00,1.353976646283045149e+01,-2.059341312731976181e+00
1.999999999999950973e+01,3.000000000994556881e+00,9.999999999912388304e+00,6.600000000000039169e-01,1.570000000000010942e+00,2.869999999999998181e+03,-2.174999999999962963e+00,-4.944999999999979856e+00,1.345530743220936465e+01,-2.100924858482450031e+00
1.999999999999982592e+01,2.999999999013424290e+00,9.999999999981948662e+00,6.600000000000024736e-01,1.570000000000016271e+00,2.869999999999999545e+03,-2.174999999999957634e+00,-4.944999999999946105e+00,1.359878832251414238e+01,-2.013106273356430442e+00
1.999999999999981881e+01,2.999999997949398534e+00,9.999999999968311570e+00,6.599999999999968114e-01,1.570000000000035589e+00,2.869999999999996817e+03,-2.174999999999960298e+00,-4.944999999999926565e+00,1.355107708447914128e+01,-2.087897087528272522e+00
1.999999999999865707e+01,2.999999996718842432e+00,9.999999999997744027e+00,6.600000000000050271e-01,1.570000000000026263e+00,2.870000000000001819e+03,-2.174999999999903011e+00,-4.944999999999806661e+00,1.365049850705865531e+01,-2.078747299833954010e+00
1.999999999999976552e+01,3.000000000266866529e+00,9.999999999952823515e+00,6.600000000000045830e-01,1.569999999999993845e+00,2.870000000000003638e+03,-2.175000000000009148e+00,-4.945000000000052687e+00,1.334746448349855363e+01,-2.013599651130423052e+00
2.000000000000074962e+01,2.999999998935497736e+00,1.000000000004805223e+01,6.599999999999953681e-01,1.569999999999957874e+00,2.869999999999994998e+03,-2.175000000000031353e+00,-4.945000000000063345e+00,1.357471009112415672e+01,-1.987789739330348748e+00
1.999999999999962341e+01,2.999999999373221815e+00,1.000000000004551737e+01,6.600000000000076916e-01,1.569999999999943441e+00,2.870000000000001364e+03,-2.174999999999967848e+00,-4.944999999999987850e+00,1.343929736704880717e+01,-2.106152883638730433e+00
2.000000000000003553e+01,2.999999998715784599e+00,1.000000000005870682e+01,6.600000000000070255e-01,1.569999999999921680e+00,2.870000000000002728e+03,-2.174999999999977618e+00,-4.944999999999977192e+00,1.379954868161073911e+01,-1.996857428938927814e+00
1.999999999999983658e+01,3.000000000233171704e+00,1.000000000003330847e+01,6.600000000000045830e-01,1.569999999999957874e+00,2.870000000000002274e+03,-2.175000000000005596e+00,-4.945000000000059792e+00,1.380413997838746276e+01,-2.043235152459738746e+00
1.999999999999976552e+01,2.999999999544331608e+00,1.000000000001533174e+01,6.600000000000006972e-01,1.570000000000001616e+00,2.870000000000000000e+03,-2.174999999999978062e+00,-4.944999999999985185e+00,1.366130975497475220e+01,-2.197737502125832521e+00
2.000000000000103384e+01,2.999999999683574892e+00,9.999999999986519228e+00,6.599999999999965894e-01,1.569999999999957208e+00,2.869999999999996817e+03,-2.175000000000023803e+00,-4.945000000000006501e+00,1.338785075701570371e+01,-1.805961089225370797e+00
1.999999999999935341e+01,3.000000002887043049e+00,9.999999999987933208e+00,6.600000000000014744e-01,1.570000000000037810e+00,2.869999999999995453e+03,-2.174999999999937206e+00,-4.944999999999842188e+00,1.327949391307188698e+01,-1.763447859593093581e+00
2.000000000000131095e+01,2.999999999710861953e+00,1.000000000005288037e+01,6.599999999999999201e-01,1.569999999999911022e+00,2.870000000000001819e+03,-2.175000000000040679e+00,-4.945000000000117524e+00,1.364737439737421099e+01,-2.204335796761322630e+00
1.999999999999965894e+01,2.999999999134033590e+00,9.999999999971970865e+00,6.600000000000002531e-01,1.570000000000052243e+00,2.870000000000000909e+03,-2.175000000000003819e+00,-4.945000000000043805e+00,1.362291165643079793e+01,-1.915090584540700469e+00
1.999999999999910472e+01,2.999999999120041227e+00,1.000000000000579448e+01,6.600000000000038058e-01,1.570000000000009832e+00,2.870000000000001819e+03,-2.174999999999937650e+00,-4.944999999999936335e+00,1.363513942318074079e+01,-2.044580374623973906e+00
1.999999999999940314e+01,3.000000001237637548e+00,9.999999999956186159e+00,6.600000000000050271e-01,1.569999999999991402e+00,2.869999999999999545e+03,-2.174999999999924771e+00,-4.944999999999916795e+00,1.374073830965516052e+01,-2.120456133642125263e+00
2.000000000000066436e+01,3.000000000379111409e+00,1.000000000000152234e+01,6.599999999999986988e-01,1.569999999999959206e+00,2.870000000000000000e+03,-2.175000000000018474e+00,-4.945000000000096207e+00,1.350269188043884228e+01,-2.081643955547568758e+00
2.000000000000014211e+01,3.000000000033259617e+00,9.999999999977520204e+00,6.599999999999984768e-01,1.569999999999994955e+00,2.869999999999999091e+03,-2.175000000000078426e+00,-4.945000000000172591e+00,1.355036909893897779e+01,-1.889074495130121267e+00
1.999999999999975842e+01,3.000000000059441785e+00,1.000000000000005507e+01,6.599999999999976996e-01,1.570000000000028484e+00,2.870000000000000000e+03,-2.175000000000054445e+00,-4.945000000000120188e+00,1.378176097415032508e+01,-1.846128238235663632e+00
2.000000000000031264e+01,2.999999999596020928e+00,1.000000000000692069e+01,6.599999999999985878e-01,1.569999999999986517e+00,2.870000000000000455e+03,-2.175000000000077982e+00,-4.945000000000197460e+00,1.377303910004097531e+01,-1.939535227196126810e+00
1.999999999999950262e+01,3.000000000627879526e+00,9.999999999979349852e+00,6.599999999999978106e-01,1.570000000000022711e+00,2.870000000000000000e+03,-2.174999999999994493e+00,-4.945000000000015383e+00,1.356837710651297257e+01,-2.116264806398204801e+00
1.999999999999872102e+01,3.000000000899036401e+00,1.000000000000181721e+01,6.600000000000058042e-01,1.570000000000002505e+00,2.870000000000000909e+03,-2.174999999999928324e+00,-4.944999999999906137e+00,1.359264152840259854e+01,-2.052769874314693155e+00
1.999999999999921130e+01,3.000000000335958372e+00,1.000000000001456435e+01,6.600000000000054712e-01,1.569999999999976747e+00,2.870000000000003183e+03,-2.174999999999955858e+00,-4.944999999999939888e+00,1.383105530640449921e+01,-1.992127388703868629e+00
1.999999999999938183e+01,3.000000000861703153e+00,9.999999999986730614e+00,6.600000000000042499e-01,1.570000000000017826e+00,2.869999999999999091e+03,-2.174999999999999378e+00,-4.945000000000031370e+00,1.368680910821050212e+01,-1.840191851845540238e+00
1.999999999999986144e+01,2.999999999831253650e+00,9.999999999982090770e+00,6.600000000000016964e-01,1.569999999999989626e+00,2.870000000000000909e+03,-2.175000000000016254e+00,-4.945000000000027818e+00,1.374594230255412697e+01,-2.097441330033530615e+00
2.000000000000169464e+01,2.999999999322053412e+00,9.999999999978948395e+00,6.599999999999958122e-01,1.569999999999903029e+00,2.870000000000000455e+03,-2.175000000000104183e+00,-4.945000000000209894e+00,1.374967774317907221e+01,-2.008697558772408076e+00
1.999999999999964828e+01,3.000000000721145810e+00,1.000000000001337597e+01,6.599999999999996980e-01,1.570000000000018714e+00,2.870000000000000000e+03,-2.175000000000035350e+00,-4.945000000000078444e+00,1.331737237899379522e+01,-2.311542342752513690e+00
1.999999999999948841e+01,3.000000000987343096e+00,1.000000000000756195e+01,6.599999999999973666e-01,1.570000000000064899e+00,2.869999999999999545e+03,-2.175000000000035350e+00,-4.945000000000089102e+00,1.357371771547736472e+01,-2.224339635221804112e+00
1.999999999999965894e+01,2.999999998094235121e+00,9.999999999989439559e+00,6.600000000000005862e-01,1.570000000000057572e+00,2.870000000000000000e+03,-2.174999999999994493e+00,-4.944999999999967422e+00,1.335773529600041876e+01,-1.890258174060424068e+00
1.999999999999993250e+01,3.000000000963035429e+00,1.000000000005529266e+01,6.600000000000018074e-01,1.570000000000006946e+00,2.870000000000000909e+03,-2.174999999999978950e+00,-4.944999999999951434e+00,1.325379309134122430e+01,-2.081676769048591780e+00
1.999999999999928590e+01,3.000000001676535799e+00,1.000000000001947065e+01,6.600000000000046940e-01,1.570000000000012053e+00,2.870000000000001819e+03,-2.174999999999938982e+00,-4.944999999999898144e+00,1.346295994082234593e+01,-2.006009001226357391e+00
2.000000000000062172e+01,3.000000000407534451e+00,1.000000000003982770e+01,6.599999999999988098e-01,1.569999999999951434e+00,2.869999999999999091e+03,-2.175000000000037126e+00,-4.945000000000081997e+00,1.336641942455943877e+01,-2.133150683401079828e+00
2.000000000000004619e+01,3.000000000740343342e+00,1.000000000001888267e+01,6.599999999999999201e-01,1.570000000000020490e+00,2.869999999999990450e+03,-2.175000000000023359e+00,-4.945000000000030482e+00,1.326897132651926015e+01,-2.256401282058061231e+00
2.000000000000079226e+01,3.000000000726616989e+00,1.000000000003685940e+01,6.600000000000011413e-01,1.569999999999954321e+00,2.869999999999994088e+03,-2.175000000000065548e+00,-4.945000000000142393e+00,1.348548515390569946e+01,-2.384980858610345589e+00
1.999999999999845457e+01,3.000000000656902088e+00,9.999999999995731415e+00,6.600000000000104672e-01,1.570000000000042917e+00,2.869999999999998636e+03,-2.174999999999897238e+00,-4.944999999999816431e+00,1.364214315395495092e+01,-2.002322629887710814e+00
1.999999999999995381e+01,3.000000000377623710e+00,1.000000000000175149e+01,6.600000000000042499e-01,1.569999999999990958e+00,2.869999999999994998e+03,-2.174999999999984723e+00,-4.944999999999947882e+00,1.351158022449661189e+01,-1.867823940181427611e+00
2.000000000000040146e+01,2.999999998943939872e+00,9.999999999980262899e+00,6.600000000000000311e-01,1.569999999999994067e+00,2.869999999999989996e+03,-2.175000000000017142e+00,-4.944999999999982521e+00,1.324103372840917814e+01,-2.043687444611080650e+00
2.000000000000039435e+01,2.999999999658172545e+00,9.999999999962010833e+00,6.599999999999957012e-01,1.570000000000012275e+00,2.869999999999986358e+03,-2.175000000000017586e+00,-4.944999999999997620e+00,1.325696789335835213e+01,-2.110723971524222087e+00
1.999999999999955236e+01,2.999999998153958902e+00,9.999999999960781594e+00,6.599999999999993650e-01,1.570000000000061791e+00,2.870000000000000909e+03,-2.174999999999972733e+00,-4.944999999999982521e+00,1.376786909902518907e+01,-1.989974381597351183e+00
1.999999999999939959e+01,2.999999998084414532e+00,9.999999999926856731e+00,6.599999999999973666e-01,1.570000000000092433e+00,2.870000000000000000e+03,-2.174999999999978950e+00,-4.945000000000002061e+00,1.381089191519690829e+01,-1.886141134901172745e+00
1.999999999999927880e+01,2.999999999104022042e+00,9.999999999951576513e+00,6.600000000000051381e-01,1.569999999999997176e+00,2.870000000000002274e+03,-2.174999999999911005e+00,-4.944999999999891926e+00,1.371102734482106200e+01,-1.887098760036822531e+00
2.000000000000024514e+01,3.000000000125615518e+00,1.000000000002345857e+01,6.600000000000015854e-01,1.569999999999964979e+00,2.870000000000001819e+03,-2.175000000000028688e+00,-4.945000000000045581e+00,1.405269705902765942e+01,-2.224182110353220665e+00
2.000000000000020961e+01,3.000000001573102981e+00,9.999999999983611332e+00,6.600000000000004752e-01,1.569999999999993845e+00,2.869999999999998181e+03,-2.175000000000010481e+00,-4.944999999999978968e+00,1.413456497681495883e+01,-2.073086715724727025e+00
2.000000000000052935e+01,3.000000000951400292e+00,9.999999999971032949e+00,6.599999999999971445e-01,1.569999999999991402e+00,2.869999999999998181e+03,-2.175000000000038902e+00,-4.945000000000076668e+00,1.407763961656469576e+01,-1.991953490986458464e+00
2.000000000000014921e+01,3.000000000582735638e+00,1.000000000002401102e+01,6.599999999999929257e-01,1.570000000000040918e+00,2.869999999999995453e+03,-2.175000000000014477e+00,-4.944999999999970086e+00,1.411400338024074408e+01,-2.307706631059558422e+00
1.999999999999976552e+01,2.999999999108495352e+00,1.000000000000991207e+01,6.600000000000034728e-01,1.569999999999974305e+00,2.869999999999999545e+03,-2.174999999999962963e+00,-4.944999999999915907e+00,1.359549356352588134e+01,-1.751042779415333595e+00
1.999999999999927525e+01,3.000000000520648857e+00,9.999999999964233055e+00,6.600000000000001421e-01,1.570000000000028706e+00,2.869999999999997272e+03,-2.174999999999948752e+00,-4.944999999999894591e+00,1.336638730554365040e+01,-1.827177481356505595e+00
2.000000000000032685e+01,2.999999998681753599e+00,9.999999999966625808e+00,6.599999999999981437e-01,1.569999999999993401e+00,2.869999999999996362e+03,-2.175000000000020695e+00,-4.945000000000030482e+00,1.355344535368124959e+01,-1.730668990914363548e+00
2.000000000000023803e+01,3.000000001113848125e+00,9.999999999981756815e+00,6.599999999999985878e-01,1.570000000000010498e+00,2.869999999999994998e+03,-2.175000000000031797e+00,-4.945000000000034035e+00,1.369746556763732670e+01,-1.960111912338400098e+00
1.999999999999971578e+01,2.999999998656701639e+00,9.999999999965561770e+00,6.600000000000008082e-01,1.570000000000006501e+00,2.870000000000000000e+03,-2.174999999999986056e+00,-4.944999999999996732e+00,1.345705149160577108e+01,-2.051795144356215239e+00
1.999999999999942801e+01,2.999999998736520457e+00,9.999999999986947330e+00,6.600000000000049161e-01,1.569999999999980522e+00,2.870000000000001364e+03,-2.174999999999943867e+00,-4.944999999999909690e+00,1.347883730998541729e+01,-1.850056258106203444e+00
2.000000000000004263e+01,2.999999999696760344e+00,1.000000000001105072e+01,6.599999999999943689e-01,1.570000000000060902e+00,2.869999999999991815e+03,-2.174999999999999822e+00,-4.944999999999936335e+00,1.362853082595564835e+01,-1.895903508787644132e+00
2.000000000000057909e+01,2.999999999125580796e+00,9.999999999968085973e+00,6.600000000000030287e-01,1.569999999999965867e+00,2.869999999999995453e+03,-2.175000000000037126e+00,-4.945000000000114859e+00,1.392030871005459147e+01,-1.864930677398434433e+00
1.999999999999907629e+01,3.000000000491596097e+00,1.000000000001190337e+01,6.600000000000028066e-01,1.570000000000026930e+00,2.870000000000003183e+03,-2.174999999999966960e+00,-4.944999999999966533e+00,1.370036251699206709e+01,-1.778109836060152604e+00
2.000000000000019895e+01,2.999999998929922640e+00,1.000000000000898837e+01,6.600000000000041389e-01,1.569999999999983853e+00,2.869999999999999545e+03,-2.175000000000021139e+00,-4.945000000000033147e+00,1.374669497746251245e+01,-1.884188262006574854e+00
2.000000000000156675e+01,3.000000000228862262e+00,9.999999999997392308e+00,6.599999999999963674e-01,1.569999999999952545e+00,2.869999999999998181e+03,-2.175000000000081091e+00,-4.945000000000148610e+00,1.383452717291887346e+01,-2.151244183650780961e+00
2.000000000000071410e+01,3.000000000320566240e+00,9.999999999954308549e+00,6.600000000000031397e-01,1.569999999999929896e+00,2.870000000000003183e+03,-2.174999999999990052e+00,-4.944999999999961204e+00,1.369446100564904256e+01,-1.962813549666527546e+00
1.999999999999977263e+01,2.999999999835082143e+00,1.000000000004176393e+01,6.599999999999991429e-01,1.570000000000046247e+00,2.869999999999999091e+03,-2.175000000000009148e+00,-4.944999999999968310e+00,1.324075802403226199e+01,-2.087374097886497193e+00
2.000000000000001776e+01,3.000000000910400200e+00,1.000000000000491340e+01,6.600000000000004752e-01,1.570000000000044249e+00,2.870000000000000455e+03,-2.175000000000070877e+00,-4.945000000000104201e+00,1.335300498196433949e+01,-1.843279973607819366e+00
2.000000000000079581e+01,3.000000000272780021e+00,1.000000000001647926e+01,6.600000000000030287e-01,1.569999999999980522e+00,2.870000000000000909e+03,-2.175000000000075762e+00,-4.945000000000113971e+00,1.336507148374270670e+01,-1.887596282767446842e+00
2.000000000000015632e+01,3.000000001031742691e+00,1.000000000001985612e+01,6.600000000000006972e-01,1.569999999999980300e+00,2.869999999999997726e+03,-2.174999999999991385e+00,-4.944999999999957652e+00,1.339171006830636301e+01,-2.317745772999223686e+00
2.000000000000055778e+01,3.000000001282203232e+00,1.000000000000015277e+01,6.599999999999986988e-01,1.569999999999985629e+00,2.870000000000001819e+03,-2.175000000000007372e+00,-4.945000000000013607e+00,1.327176801421309982e+01,-2.134839946755145768e+00
2.000000000000057554e+01,3.000000000632427000e+00,1.000000000003378986e+01,6.599999999999980327e-01,1.569999999999977192e+00,2.869999999999997272e+03,-2.175000000000036682e+00,-4.945000000000091767e+00,1.335160304774237972e+01,-1.813772248289190481e+00
1.999999999999998224e+01,3.000000001250833215e+00,1.000000000005268852e+01,6.599999999999992539e-01,1.569999999999978302e+00,2.870000000000003183e+03,-2.174999999999978062e+00,-4.944999999999983409e+00,1.334307962695443450e+01,-1.996993283897887883e+00
2.000000000000038725e+01,3.000000001535324756e+00,1.000000000005805489e+01,6.599999999999931477e-01,1.569999999999993401e+00,2.869999999999998181e+03,-2.175000000000023803e+00,-4.945000000000034923e+00,1.348076018865238268e+01,-1.832962889164366560e+00
1.999999999999967670e+01,2.999999999697872344e+00,1.000000000005836043e+01,6.599999999999940359e-01,1.570000000000070006e+00,2.869999999999999545e+03,-2.175000000000017142e+00,-4.945000000000024265e+00,1.359652958390616462e+01,-1.920644040474501324e+00
1.999999999999952394e+01,3.000000000379864140e+00,9.999999999966634689e+00,6.600000000000003642e-01,1.569999999999998508e+00,2.870000000000000909e+03,-2.174999999999963407e+00,-4.944999999999973639e+00,1.366550120277879365e+01,-2.176090609795199082e+00
1.999999999999928946e+01,2.999999999159435937e+00,9.999999999969968911e+00,6.600000000000049161e-01,1.569999999999937446e+00,2.870000000000002274e+03,-2.174999999999920774e+00,-4.944999999999923013e+00,1.351705340375937325e+01,-2.015566889730812328e+00
1.999999999999980460e+01,3.000000001327526533e+00,1.000000000002982325e+01,6.600000000000010303e-01,1.570000000000052909e+00,2.869999999999998636e+03,-2.175000000000045119e+00,-4.945000000000027818e+00,1.366338304574468943e+01,-2.101130684425393191e+00
2.000000000000026645e+01,3.000000001167655306e+00,1.000000000005719336e+01,6.599999999999984768e-01,1.570000000000022045e+00,2.869999999999999091e+03,-2.175000000000065103e+00,-4.945000000000061569e+00,1.363404517680171502e+01,-2.084694840094612811e+00
2.000000000000012079e+01,3.000000000317962545e+00,9.999999999962883024e+00,6.599999999999968114e-01,1.570000000000061124e+00,2.869999999999999091e+03,-2.175000000000096634e+00,-4.945000000000139728e+00,1.368503180029250998e+01,-1.952668453658973347e+00
1.999999999999912959e+01,3.000000001702208596e+00,9.999999999966380670e+00,6.600000000000052491e-01,1.569999999999989626e+00,2.869999999999998636e+03,-2.174999999999951417e+00,-4.944999999999885709e+00,1.354944120868594304e+01,-1.978941964397537445e+00
1.999999999999973355e+01,3.000000000675220768e+00,9.999999999965849540e+00,6.600000000000006972e-01,1.570000000000000728e+00,2.870000000000000455e+03,-2.175000000000004263e+00,-4.944999999999960316e+00,1.359340648261454554e+01,-1.937347775595797295e+00
2.000000000000049027e+01,3.000000000816667622e+00,1.000000000003701395e+01,6.599999999999964784e-01,1.569999999999932783e+00,2.870000000000000909e+03,-2.175000000000024247e+00,-4.945000000000058904e+00,1.348557744639986034e+01,-2.119371245309002116e+00
2.000000000000000355e+01,3.000000001151285289e+00,1.000000000002293099e+01,6.599999999999980327e-01,1.570000000000024265e+00,2.869999999999997272e+03,-2.175000000000029576e+00,-4.945000000000064233e+00,1.356145645029478253e+01,-2.035253100218544553e+00
2.000000000000046185e+01,2.999999999902925207e+00,9.999999999992219557e+00,6.600000000000025846e-01,1.569999999999956763e+00,2.869999999999993634e+03,-2.174999999999973177e+00,-4.944999999999945217e+00,1.377072276433381326e+01,-2.376624096365338001e+00
1.999999999999974776e+01,3.000000000894644803e+00,1.000000000000388845e+01,6.599999999999963674e-01,1.570000000000054685e+00,2.869999999999994543e+03,-2.174999999999963407e+00,-4.944999999999948770e+00,1.345399976774131012e+01,-2.314608922824907378e+00
1.999999999999967315e+01,3.000000001451370135e+00,9.999999999974273024e+00,6.599999999999990319e-01,1.569999999999986295e+00,2.870000000000000000e+03,-2.174999999999931433e+00,-4.944999999999866169e+00,1.359971273951352799e+01,-2.037178016525432067e+00
1.999999999999965183e+01,3.000000002017264578e+00,9.999999999996930455e+00,6.599999999999990319e-01,1.569999999999994067e+00,2.869999999999998636e+03,-2.174999999999948752e+00,-4.944999999999893703e+00,1.360436658521139286e+01,-2.418024176836534256e+00
1.999999999999876366e+01,3.000000001817283213e+00,1.000000000005449508e+01,6.600000000000070255e-01,1.570000000000074447e+00,2.870000000000001819e+03,-2.174999999999959410e+00,-4.944999999999951434e+00,1.346192864761635377e+01,-2.072791252834776277e+00
2.000000000000120437e+01,3.000000001407578498e+00,1.000000000001172218e+01,6.600000000000046940e-01,1.569999999999892593e+00,2.869999999999994998e+03,-2.175000000000022471e+00,-4.945000000000038476e+00,1.355125771202573937e+01,-2.158832877710329168e+00
1.999999999999987566e+01,3.000000003093109768e+00,1.000000000001970690e+01,6.599999999999965894e-01,1.570000000000070894e+00,2.869999999999994998e+03,-2.175000000000028688e+00,-4.945000000000008278e+00,1.329718566544903524e+01,-2.330771554193269868e+00
2.000000000000053646e+01,3.000000001100476599e+00,9.999999999954020780e+00,6.599999999999968114e-01,1.569999999999995177e+00,2.869999999999997272e+03,-2.175000000000072653e+00,-4.945000000000113971e+00,1.333412749945795994e+01,-2.293164617676533457e+00
2.000000000000060751e+01,3.000000000847542481e+00,9.999999999998371081e+00,6.599999999999974776e-01,1.569999999999983853e+00,2.869999999999995453e+03,-2.175000000000035350e+00,-4.945000000000054463e+00,1.356140062042824823e+01,-2.228300536262155518e+00
2.000000000000061107e+01,3.000000002009815869e+00,1.000000000001554668e+01,6.599999999999979217e-01,1.570000000000010720e+00,2.869999999999992269e+03,-2.175000000000049560e+00,-4.945000000000058904e+00,1.327926352340099392e+01,-2.201594421642504518e+00
1.999999999999958078e+01,3.000000000544316148e+00,1.000000000001985434e+01,6.599999999999995870e-01,1.570000000000060902e+00,2.870000000000000455e+03,-2.174999999999993161e+00,-4.944999999999970974e+00,1.330111254812693034e+01,-2.141883164512694115e+00
1.999999999999992539e+01,3.000000001548816631e+00,1.000000000000188294e+01,6.599999999999968114e-01,1.570000000000008944e+00,2.869999999999996817e+03,-2.174999999999993161e+00,-4.944999999999960316e+00,1.342341607843701290e+01,-2.231337690061566015e+00
2.000000000000148503e+01,3.000000002595036630e+00,1.000000000000569322e+01,6.599999999999992539e-01,1.569999999999905693e+00,2.869999999999995907e+03,-2.175000000000040679e+00,-4.945000000000094431e+00,1.335001846229871525e+01,-2.159707115305964376e+00
2.000000000000003197e+01,3.000000001763050594e+00,9.999999999993249844e+00,6.600000000000023626e-01,1.569999999999982965e+00,2.870000000000000000e+03,-2.174999999999971401e+00,-4.944999999999951434e+00,1.349626299265170104e+01,-2.129427174324943106e+00
2.000000000000105160e+01,2.999999998711726068e+00,1.000000000002364153e+01,6.599999999999931477e-01,1.569999999999965201e+00,2.870000000000003638e+03,-2.175000000000034017e+00,-4.945000000000031370e+00,1.364895628955020079e+01,-1.828417481661770649e+00
2.000000000000018119e+01,2.999999998404479395e+00,1.000000000002419043e+01,6.600000000000029177e-01,1.569999999999932783e+00,2.870000000000003183e+03,-2.174999999999965183e+00,-4.944999999999960316e+00,1.377186764583582779e+01,-1.994972472672598363e+00
2.000000000000133582e+01,2.999999999578686349e+00,1.000000000005489653e+01,6.599999999999988098e-01,1.569999999999934559e+00,2.869999999999998181e+03,-2.175000000000040679e+00,-4.945000000000081997e+00,1.337647885815574256e+01,-2.173454457471104107e+00
2.000000000000007816e+01,2.999999999755710967e+00,9.999999999986242116e+00,6.600000000000032507e-01,1.570000000000002283e+00,2.869999999999999545e+03,-2.174999999999957634e+00,-4.944999999999903473e+00,1.363067360492819802e+01,-2.044940576575413616e+00
2.000000000000043343e+01,2.999999997749042802e+00,1.000000000003553069e+01,6.600000000000025846e-01,1.569999999999924789e+00,2.870000000000000000e+03,-2.174999999999974953e+00,-4.944999999999976303e+00,1.360057621205312905e+01,-1.929515753744582174e+00
1.999999999999986855e+01,2.999999998520906264e+00,1.000000000000905409e+01,6.599999999999996980e-01,1.570000000000002505e+00,2.870000000000001364e+03,-2.174999999999982947e+00,-4.945000000000005613e+00,1.357398196971586302e+01,-2.084640273771386276e+00
1.999999999999980460e+01,3.000000001740973588e+00,1.000000000008151346e+01,6.600000000000045830e-01,1.569999999999988960e+00,2.869999999999996362e+03,-2.174999999999998934e+00,-4.944999999999994955e+00,1.348152216006798021e+01,-2.338932192434448609e+00
1.999999999999966604e+01,3.000000000817792500e+00,1.000000000006978773e+01,6.599999999999976996e-01,1.570000000000068674e+00,2.869999999999994543e+03,-2.175000000000022915e+00,-4.945000000000005613e+00,1.338007911017975182e+01,-2.199828441568774551e+00
1.999999999999991473e+01,3.000000000118413279e+00,9.999999999966878050e+00,6.599999999999990319e-01,1.570000000000009832e+00,2.869999999999992724e+03,-2.174999999999936318e+00,-4.944999999999859952e+00,1.356076647081485831e+01,-2.151130710275710456e+00
2.000000000000020606e+01,3.000000000664131861e+00,9.999999999981415755e+00,6.599999999999968114e-01,1.570000000000033813e+00,2.870000000000002274e+03,-2.175000000000000711e+00,-4.945000000000003837e+00,1.355399959848204183e+01,-1.949669038795024179e+00
1.999999999999975486e+01,3.000000000480848250e+00,1.000000000003637624e+01,6.599999999999996980e-01,1.570000000000037810e+00,2.869999999999999091e+03,-2.174999999999987388e+00,-4.944999999999941664e+00,1.355551547512568611e+01,-2.230651474359484077e+00
1.999999999999863221e+01,3.000000000564351232e+00,1.000000000001288747e+01,6.600000000000044720e-01,1.570000000000071783e+00,2.870000000000000000e+03,-2.174999999999923883e+00,-4.944999999999831530e+00,1.350542338733625769e+01,-2.067446272161575838e+00
1.999999999999987210e+01,3.000000000783427545e+00,9.999999999967231545e+00,6.599999999999974776e-01,1.570000000000035589e+00,2.870000000000002728e+03,-2.174999999999997602e+00,-4.944999999999980744e+00,1.333792803628566404e+01,-1.986924462564540805e+00
1.999999999999966249e+01,3.000000000162356795e+00,9.999999999997601918e+00,6.600000000000016964e-01,1.570000000000008056e+00,2.870000000000000909e+03,-2.174999999999967848e+00,-4.944999999999952323e+00,1.326515211380227832e+01,-1.781305109593136704e+00
2.000000000000082778e+01,3.000000000052229332e+00,1.000000000002185274e+01,6.599999999999982547e-01,1.570000000000008056e+00,2.869999999999993634e+03,-2.174999999999995381e+00,-4.944999999999954987e+00,1.340138870906377377e+01,-1.758799334382958435e+00
2.000000000000023803e+01,3.000000001127053118e+00,9.999999999953690377e+00,6.600000000000036948e-01,1.569999999999951212e+00,2.870000000000000000e+03,-2.174999999999994937e+00,-4.945000000000042029e+00,1.344063984245680032e+01,-1.778373099437449367e+00
1.999999999999964473e+01,3.000000001219045309e+00,9.999999999988350652e+00,6.600000000000009193e-01,1.570000000000007390e+00,2.870000000000000455e+03,-2.174999999999969180e+00,-4.944999999999965645e+00,1.352502190502734614e+01,-1.784478157265402265e+00
2.000000000000124700e+01,3.000000001559260276e+00,9.999999999967901232e+00,6.599999999999945910e-01,1.569999999999924567e+00,2.869999999999995907e+03,-2.175000000000046008e+00,-4.945000000000066898e+00,1.381505549911367403e+01,-1.970531135103204656e+00
2.000000000000096634e+01,3.000000001897303203e+00,9.999999999983410603e+00,6.599999999999952571e-01,1.569999999999948104e+00,2.869999999999999091e+03,-2.175000000000046896e+00,-4.945000000000090878e+00,1.396333790479029879e+01,-1.870091907084637128e+00
2.000000000000054357e+01,3.000000000953980450e+00,9.999999999985384136e+00,6.600000000000001421e-01,1.569999999999987184e+00,2.869999999999998181e+03,-2.175000000000075318e+00,-4.945000000000141505e+00,1.380052447982178876e+01,-1.929528782733510139e+00
2.000000000000142819e+01,3.000000001889367329e+00,9.999999999995257127e+00,6.600000000000006972e-01,1.569999999999887486e+00,2.869999999999995907e+03,-2.175000000000016254e+00,-4.945000000000057128e+00,1.344414216512066140e+01,-2.077669582724020358e+00
2.000000000000039790e+01,3.000000001431924801e+00,9.999999999968535391e+00,6.600000000000036948e-01,1.569999999999948992e+00,2.869999999999998181e+03,-2.175000000000002487e+00,-4.945000000000039364e+00,1.353373813310342477e+01,-2.156704055297711253e+00
2.000000000000008882e+01,3.000000001747377798e+00,9.999999999945037743e+00,6.600000000000043610e-01,1.569999999999950768e+00,2.870000000000002728e+03,-2.174999999999973621e+00,-4.945000000000020712e+00,1.366156660387145649e+01,-2.159597507616058731e+00
2.000000000000036948e+01,2.999999999469440848e+00,9.999999999991658228e+00,6.599999999999954792e-01,1.569999999999980744e+00,2.869999999999996362e+03,-2.175000000000007372e+00,-4.944999999999996732e+00,1.351956596634961194e+01,-2.064436402541473203e+00
2.000000000000036238e+01,3.000000001170141761e+00,9.999999999941485029e+00,6.599999999999989209e-01,1.569999999999984075e+00,2.869999999999995907e+03,-2.174999999999994937e+00,-4.944999999999982521e+00,1.372049284078294562e+01,-2.065457503377338799e+00
2.000000000000103029e+01,3.000000002533594667e+00,9.999999999967258191e+00,6.599999999999975886e-01,1.569999999999925455e+00,2.869999999999995907e+03,-2.175000000000026912e+00,-4.945000000000043805e+00,1.375764628134731815e+01,-2.057239375639331680e+00
2.000000000000002132e+01,3.000000002351170370e+00,9.999999999999735323e+00,6.600000000000014744e-01,1.569999999999976081e+00,2.870000000000001819e+03,-2.175000000000002043e+00,-4.945000000000079332e+00,1.357162305035658179e+01,-1.956095293133962132e+00
1.999999999999999289e+01,3.000000000874812667e+00,1.000000000001930367e+01,6.600000000000040279e-01,1.569999999999935891e+00,2.870000000000000000e+03,-2.174999999999966072e+00,-4.944999999999974527e+00,1.381583209554622016e+01,-2.031359098507704797e+00
1.999999999999969447e+01,3.000000001384953041e+00,9.999999999987242205e+00,6.600000000000041389e-01,1.569999999999984075e+00,2.870000000000001364e+03,-2.174999999999982059e+00,-4.945000000000011831e+00,1.396393020464052803e+01,-2.118932097773569279e+00
1.999999999999939604e+01,3.000000000485680385e+00,9.999999999976653342e+00,6.600000000000020295e-01,1.570000000000026708e+00,2.870000000000002728e+03,-2.174999999999973177e+00,-4.944999999999970086e+00,1.350342155732384519e+01,-1.837248384235232068e+00
1.999999999999943512e+01,3.000000000227835972e+00,1.000000000001859668e+01,6.599999999999961453e-01,1.570000000000067120e+00,2.870000000000001364e+03,-2.175000000000015810e+00,-4.944999999999975415e+00,1.368084732729565545e+01,-1.855993532011457114e+00
2.000000000000043698e+01,3.000000000194246841e+00,9.999999999998745892e+00,6.599999999999985878e-01,1.569999999999972307e+00,2.869999999999998181e+03,-2.175000000000011369e+00,-4.945000000000010054e+00,1.361239319010887527e+01,-1.788034189038182342e+00
1.999999999999997158e+01,3.000000000380996568e+00,9.999999999939683804e+00,6.600000000000036948e-01,1.569999999999951878e+00,2.869999999999998181e+03,-2.174999999999994493e+00,-4.945000000000030482e+00,1.351057366475201782e+01,-2.050677841459974449e+00
2.000000000000018829e+01,2.999999999945006213e+00,9.999999999956887820e+00,6.599999999999957012e-01,1.570000000000025597e+00,2.870000000000000000e+03,-2.175000000000046008e+00,-4.945000000000081108e+00,1.356655710071286336e+01,-2.078110422631239462e+00
1.999999999999825917e+01,3.000000001862725085e+00,9.999999999948764540e+00,6.600000000000060263e-01,1.570000000000013607e+00,2.870000000000003638e+03,-2.174999999999899014e+00,-4.944999999999856399e+00,1.366054524657814895e+01,-2.034162350221667914e+00
2.000000000000106581e+01,3.000000001521204940e+00,9.999999999933280037e+00,6.599999999999914824e-01,1.569999999999987406e+00,2.869999999999986812e+03,-2.175000000000054445e+00,-4.945000000000095319e+00,1.370613094129594955e+01,-2.056187707090536332e+00
2.000000000000013500e+01,3.000000000922819154e+00,9.999999999979932497e+00,6.599999999999970335e-01,1.570000000000032037e+00,2.869999999999992724e+03,-2.175000000000025580e+00,-4.945000000000072227e+00,1.368469252964980676e+01,-2.113861269729965464e+00
1.999999999999930012e+01,3.000000003396728676e+00,1.000000000000753708e+01,6.599999999999960343e-01,1.570000000000099094e+00,2.869999999999998636e+03,-2.174999999999948752e+00,-4.944999999999873275e+00,1.333883954975550878e+01,-2.109311393005240287e+00
2.000000000000004619e+01,3.000000001512163728e+00,9.999999999961994845e+00,6.599999999999957012e-01,1.570000000000062457e+00,2.869999999999996817e+03,-2.174999999999984279e+00,-4.944999999999967422e+00,1.348281096455722583e+01,-2.038618922144579404e+00
1.999999999999966960e+01,3.000000001491164081e+00,9.999999999933262274e+00,6.600000000000011413e-01,1.570000000000024043e+00,2.869999999999997726e+03,-2.174999999999980727e+00,-4.945000000000017160e+00,1.325874929829338811e+01,-2.072849648112358611e+00
1.999999999999899103e+01,3.000000001160005425e+00,9.999999999917999816e+00,6.600000000000030287e-01,1.570000000000055129e+00,2.870000000000001819e+03,-2.174999999999925659e+00,-4.944999999999925677e+00,1.322030191744333116e+01,-2.068608314708693108e+00
2.000000000000046185e+01,3.000000002291102419e+00,9.999999999928245842e+00,6.599999999999940359e-01,1.570000000000008056e+00,2.869999999999997726e+03,-2.174999999999998934e+00,-4.945000000000051799e+00,1.329024660445409545e+01,-2.227094252721672163e+00
1.999999999999973355e+01,3.000000003314130748e+00,9.999999999972381204e+00,6.600000000000026956e-01,1.570000000000000284e+00,2.869999999999998181e+03,-2.174999999999960298e+00,-4.944999999999962981e+00,1.348428549644170182e+01,-2.428903608954408710e+00
2.000000000000032330e+01,3.000000002683109734e+00,9.999999999913734783e+00,6.599999999999957012e-01,1.570000000000023821e+00,2.869999999999992724e+03,-2.175000000000014921e+00,-4.945000000000032259e+00,1.355081642992329982e+01,-2.319221595019965498e+00
2.000000000000000355e+01,2.999999995784039530e+00,1.000000000005191225e+01,6.599999999999988098e-01,1.569999999999990514e+00,2.870000000000000000e+03,-2.175000000000031353e+00,-4.945000000000027818e+00,1.356740439674695686e+01,-1.836695217703449678e+00
2.000000000000028422e+01,2.999999996698500038e+00,1.000000000005718270e+01,6.599999999999970335e-01,1.570000000000018492e+00,2.870000000000001819e+03,-2.175000000000064215e+00,-4.945000000000070450e+00,1.336240645809864880e+01,-1.936847796576539826e+00
1.999999999999988631e+01,2.999999996428662108e+00,1.000000000002272316e+01,6.600000000000004752e-01,1.569999999999986073e+00,2.869999999999994088e+03,-2.175000000000005151e+00,-4.944999999999974527e+00,1.355613179532746670e+01,-2.094611083851454669e+00
1.999999999999974420e+01,2.999999998773847487e+00,1.000000000005009149e+01,6.600000000000041389e-01,1.569999999999976747e+00,2.869999999999995453e+03,-2.174999999999958966e+00,-4.944999999999923013e+00,1.326100562059529153e+01,-2.227176125822722952e+00
1.999999999999918643e+01,2.999999997188381506e+00,1.000000000002144951e+01,6.600000000000043610e-01,1.570000000000064899e+00,2.869999999999997726e+03,-2.174999999999943867e+00,-4.944999999999921236e+00,1.355088819547015433e+01,-2.106239579726555178e+00
2.000000000000065370e+01,2.999999996571584671e+00,1.000000000004762946e+01,6.600000000000032507e-01,1.570000000000007390e+00,2.869999999999993179e+03,-2.175000000000034461e+00,-4.945000000000075779e+00,1.336051759991316423e+01,-2.177939207654394860e+00
1.999999999999972999e+01,2.999999997946890762e+00,1.000000000006769341e+01,6.600000000000033618e-01,1.570000000000013163e+00,2.869999999999998181e+03,-2.174999999999970957e+00,-4.944999999999989626e+00,1.357008864625995948e+01,-2.104899945773899717e+00
2.000000000000045830e+01,2.999999996342243680e+00,1.000000000009083934e+01,6.599999999999982547e-01,1.570000000000003837e+00,2.869999999999994543e+03,-2.175000000000007372e+00,-4.945000000000035811e+00,1.372431087993392218e+01,-2.185840390790265264e+00
2.000000000000102673e+01,2.999999995809301545e+00,1.000000000002435918e+01,6.599999999999980327e-01,1.569999999999946771e+00,2.869999999999996817e+03,-2.175000000000018918e+00,-4.945000000000050910e+00,1.367611921118615115e+01,-2.069179489924355408e+00
2.000000000000078870e+01,2.999999997577381450e+00,1.000000000002698286e+01,6.599999999999979217e-01,1.569999999999946327e+00,2.869999999999996362e+03,-2.175000000000009592e+00,-4.945000000000026930e+00,1.372808148774786119e+01,-2.077586361799365289e+00
1.999999999999988276e+01,2.999999996957489756e+00,1.000000000002764544e+01,6.600000000000003642e-01,1.570000000000009388e+00,2.870000000000000909e+03,-2.174999999999966516e+00,-4.944999999999986073e+00,1.361909027248388959e+01,-2.248608398230549810e+00
2.000000000000134293e+01,2.999999999885054169e+00,1.000000000002034817e+01,6.599999999999988098e-01,1.569999999999930118e+00,2.869999999999999545e+03,-2.175000000000034461e+00,-4.945000000000050022e+00,1.366668072396705114e+01,-2.072475187307815769e+00
2.000000000000009948e+01,3.000000000986079662e+00,1.000000000001015366e+01,6.600000000000011413e-01,1.570000000000011164e+00,2.870000000000000000e+03,-2.174999999999994049e+00,-4.944999999999995843e+00,1.377866913074248423e+01,-1.971176804369133784e+00
2.000000000000020606e+01,3.000000000784630139e+00,9.999999999999817035e+00,6.600000000000021405e-01,1.569999999999985185e+00,2.870000000000000909e+03,-2.174999999999980727e+00,-4.944999999999973639e+00,1.368701527708011056e+01,-2.026646115723778063e+00
2.000000000000033396e+01,2.999999997967044862e+00,9.999999999974230391e+00,6.599999999999962563e-01,1.569999999999986073e+00,2.869999999999998181e+03,-2.175000000000012257e+00,-4.945000000000005613e+00,1.348541547108400174e+01,-2.135026885560861842e+00
2.000000000000029132e+01,2.999999997893982417e+00,9.999999999986982857e+00,6.600000000000010303e-01,1.569999999999958096e+00,2.870000000000000000e+03,-2.175000000000007816e+00,-4.945000000000039364e+00,1.363584078549255985e+01,-1.997770932785340348e+00
1.999999999999979394e+01,2.999999998517061339e+00,9.999999999965819342e+00,6.599999999999988098e-01,1.570000000000037144e+00,2.870000000000000455e+03,-2.175000000000031797e+00,-4.945000000000105089e+00,1.321755551071419355e+01,-2.056410201461581266e+00
1.999999999999903011e+01,2.999999998595141548e+00,9.999999999933534056e+00,6.600000000000003642e-01,1.570000000000063567e+00,2.870000000000001364e+03,-2.175000000000008260e+00,-4.945000000000053575e+00,1.308906390911150197e+01,-1.983182352884158783e+00
1.999999999999954881e+01,2.999999998280050928e+00,1.000000000000948752e+01,6.600000000000051381e-01,1.569999999999978080e+00,2.870000000000002728e+03,-2.174999999999996714e+00,-4.945000000000026041e+00,1.338347507805396219e+01,-2.016823817651807182e+00
2.000000000000016342e+01,2.999999998760180198e+00,9.999999999985563548e+00,6.599999999999989209e-01,1.570000000000028928e+00,2.870000000000006821e+03,-2.175000000000046896e+00,-4.945000000000115747e+00,1.322830510898773682e+01,-1.875198377543601191e+00
1.999999999999912248e+01,2.999999999411762985e+00,9.999999999994434674e+00,6.600000000000078026e-01,1.570000000000001394e+00,2.869999999999999091e+03,-2.174999999999942091e+00,-4.944999999999914131e+00,1.307716975070251131e+01,-1.990990783910485673e+00
1.999999999999947065e+01,2.999999999449136645e+00,1.000000000002776446e+01,6.600000000000054712e-01,1.569999999999972751e+00,2.870000000000003638e+03,-2.174999999999967404e+00,-4.944999999999992291e+00,1.329284872744308466e+01,-2.111929062594816386e+00
1.999999999999951683e+01,2.999999998337398832e+00,9.999999999999541700e+00,6.600000000000058042e-01,1.569999999999984519e+00,2.870000000000000909e+03,-2.174999999999982947e+00,-4.945000000000021600e+00,1.347601237310511912e+01,-2.342059732323488852e+00
1.999999999999922551e+01,2.999999998641828203e+00,9.999999999967775111e+00,6.600000000000029177e-01,1.570000000000038698e+00,2.870000000000003183e+03,-2.175000000000000711e+00,-4.945000000000038476e+00,1.344916114014329089e+01,-1.996325835489686007e+00
1.999999999999991118e+01,2.999999999328495370e+00,1.000000000000018119e+01,6.600000000000038058e-01,1.569999999999958096e+00,2.870000000000000000e+03,-2.174999999999999822e+00,-4.945000000000026930e+00,1.325918282161666717e+01,-2.227395889775854343e+00
2.000000000000029132e+01,2.999999999219888469e+00,1.000000000000238920e+01,6.599999999999980327e-01,1.569999999999995843e+00,2.869999999999999545e+03,-2.175000000000029576e+00,-4.945000000000083773e+00,1.367398272110158253e+01,-2.121119163177706213e+00
1.999999999999931077e+01,3.000000000668434197e+00,9.999999999980790477e+00,6.600000000000072475e-01,1.569999999999974749e+00,2.870000000000001819e+03,-2.174999999999943867e+00,-4.944999999999939888e+00,1.340191304451912302e+01,-2.181745610866612228e+00
1.999999999999981881e+01,2.999999998986622618e+00,9.999999999995363709e+00,6.600000000000062483e-01,1.569999999999966533e+00,2.870000000000001819e+03,-2.174999999999974509e+00,-4.944999999999986073e+00,1.373292638286548772e+01,-2.168592446498948334e+00
1.999999999999924682e+01,2.999999999313759602e+00,1.000000000004018297e+01,6.600000000000106892e-01,1.570000000000015383e+00,2.870000000000000000e+03,-2.174999999999960743e+00,-4.944999999999970974e+00,1.350080138357832027e+01,-2.131700268327746173e+00
