1.999999999999907274e+01,3.000000001323477772e+00,1.000000000007455725e+01,6.599999999999958122e-01,1.570000000000086215e+00,2.869999999999982720e+03,-2.174999999999911005e+00,-4.944999999999716067e+00,1.353239811497976319e+01,-2.389612267140474255e+00
2.000000000000085620e+01,3.000000001921002468e+00,1.000000000003675282e+01,6.600000000000230127e-01,1.569999999999907914e+00,2.869999999999982265e+03,-2.175000000000020250e+00,-4.945000000000122853e+00,1.351618062206226512e+01,-2.321305256687106855e+00
1.999999999999913314e+01,3.000000001757745505e+00,1.000000000002844835e+01,6.600000000000311173e-01,1.569999999999901918e+00,2.869999999999980901e+03,-2.175000000000048228e+00,-4.945000000000117524e+00,1.351754690276903403e+01,-2.304845598944464946e+00
1.999999999999979039e+01,3.000000001647551873e+00,1.000000000003691447e+01,6.600000000000116884e-01,1.570000000000039142e+00,2.869999999999982265e+03,-2.174999999999978950e+00,-4.944999999999966533e+00,1.351384766047872255e+01,-2.305518312826237981e+00
1.999999999999937117e+01,3.000000002115526421e+00,1.000000000003185008e+01,6.600000000000114664e-01,1.570000000000026708e+00,2.869999999999984993e+03,-2.174999999999974509e+00,-4.944999999999937224e+00,1.351978782584733629e+01,-2.299946318307852344e+00
1.999999999999898748e+01,2.999999999879841450e+00,9.999999999993185895e+00,6.600000000000071365e-01,1.569999999999939666e+00,2.869999999999997726e+03,-2.174999999999962075e+00,-4.944999999999918572e+00,1.342565206358965568e+01,-2.244766004778381063e+00
1.999999999999822364e+01,2.999999999752508639e+00,9.999999999991127098e+00,6.599999999999962563e-01,1.570000000000057350e+00,2.869999999999996817e+03,-2.174999999999930544e+00,-4.944999999999782681e+00,1.343965028054386224e+01,-2.256919538851656970e+00
1.999999999999919709e+01,3.000000000550778090e+00,9.999999999915944571e+00,6.600000000000015854e-01,1.570000000000074003e+00,2.869999999999993634e+03,-2.174999999999931877e+00,-4.944999999999858176e+00,1.332942760704714757e+01,-2.219896497922866807e+00
1.999999999999903721e+01,3.000000000521777288e+00,9.999999999948480323e+00,6.599999999999893729e-01,1.570000000000153939e+00,2.869999999999992269e+03,-2.174999999999900346e+00,-4.944999999999727613e+00,1.336764931981437421e+01,-2.271062234955345538e+00
1.999999999999964118e+01,3.000000000347073925e+00,1.000000000006674661e+01,6.600000000000041389e-01,1.569999999999943663e+00,2.870000000000000455e+03,-2.175000000000017142e+00,-4.945000000000027818e+00,1.340335207749394364e+01,-2.474100231162420283e+00
2.000000000000012434e+01,3.000000000313287618e+00,1.000000000005845457e+01,6.599999999999890399e-01,1.570000000000043805e+00,2.870000000000000909e+03,-2.174999999999989164e+00,-4.944999999999946105e+00,1.337647556241110536e+01,-2.523825159798885220e+00
2.000000000000010303e+01,2.999999999919675364e+00,1.000000000007907985e+01,6.599999999999998090e-01,1.569999999999956097e+00,2.869999999999999091e+03,-2.175000000000007372e+00,-4.945000000000000284e+00,1.340463971516547659e+01,-2.539610220256804940e+00
1.999999999999980815e+01,2.999999999740857959e+00,1.000000000008333778e+01,6.599999999999949241e-01,1.570000000000051132e+00,2.869999999999998636e+03,-2.174999999999985167e+00,-4.944999999999928342e+00,1.343500607619958842e+01,-2.454247485359784431e+00
2.000000000000151346e+01,3.000000001201082789e+00,1.000000000004388312e+01,6.599999999999933697e-01,1.569999999999974083e+00,2.869999999999996817e+03,-2.175000000000027800e+00,-4.945000000000059792e+00,1.326461345796915658e+01,-2.315638259966003254e+00
2.000000000000088818e+01,3.000000000822188095e+00,1.000000000005091039e+01,6.600000000000040279e-01,1.569999999999921902e+00,2.869999999999994543e+03,-2.175000000000069544e+00,-4.945000000000136176e+00,1.324649917502868668e+01,-2.324837857607632952e+00
2.000000000000111910e+01,3.000000001978738950e+00,1.000000000006328804e+01,6.600000000000084688e-01,1.569999999999905693e+00,2.869999999999994998e+03,-2.175000000000099742e+00,-4.945000000000218776e+00,1.326019613410732489e+01,-2.340407623947662330e+00
2.000000000000163425e+01,3.000000001389121262e+00,1.000000000007313261e+01,6.600000000000053602e-01,1.569999999999901474e+00,2.869999999999994998e+03,-2.175000000000084199e+00,-4.945000000000205453e+00,1.326872214926002336e+01,-2.368325609032766010e+00
2.000000000000080291e+01,3.000000001236168945e+00,1.000000000006683543e+01,6.600000000000091349e-01,1.569999999999907914e+00,2.869999999999994543e+03,-2.175000000000112621e+00,-4.945000000000224993e+00,1.324466588614841100e+01,-2.328697006405347825e+00
2.000000000000045475e+01,2.999999999731878031e+00,1.000000000006183498e+01,6.599999999999809353e-01,1.570000000000103091e+00,2.869999999999995907e+03,-2.175000000000004263e+00,-4.944999999999915907e+00,1.341991477142012990e+01,-2.418633446281030164e+00
2.000000000000121503e+01,2.999999999840321951e+00,1.000000000006924239e+01,6.600000000000120215e-01,1.569999999999976525e+00,2.869999999999997272e+03,-2.175000000000005596e+00,-4.945000000000073115e+00,1.339255402108931037e+01,-2.150135203533281025e+00
2.000000000000116174e+01,2.999999999832441588e+00,1.000000000006418865e+01,6.600000000000094680e-01,1.570000000000000506e+00,2.869999999999996817e+03,-2.174999999999987832e+00,-4.945000000000035811e+00,1.340089208406762467e+01,-2.165995931594558499e+00
2.000000000000108713e+01,3.000000000081854079e+00,1.000000000005910472e+01,6.600000000000165734e-01,1.569999999999990958e+00,2.869999999999999091e+03,-2.174999999999981615e+00,-4.945000000000066898e+00,1.338238229485345343e+01,-2.176298013700442180e+00
2.000000000000009948e+01,3.000000000394515087e+00,1.000000000005018208e+01,6.600000000000272316e-01,1.569999999999966978e+00,2.869999999999998181e+03,-2.175000000000045119e+00,-4.945000000000179696e+00,1.336742131207417295e+01,-2.185293734824194978e+00
1.999999999999969091e+01,3.000000001064515587e+00,1.000000000008532197e+01,6.600000000000001421e-01,1.569999999999952989e+00,2.869999999999995907e+03,-2.175000000000034017e+00,-4.945000000000000284e+00,1.355291273798679974e+01,-1.961142551980312509e+00
2.000000000000127898e+01,2.999999998168231929e+00,1.000000000001606182e+01,6.600000000000062483e-01,1.569999999999969420e+00,2.869999999999997272e+03,-2.175000000000008260e+00,-4.945000000000077556e+00,1.331340447874275945e+01,-2.023608668579173209e+00
2.000000000000120792e+01,2.999999997635347970e+00,1.000000000001920775e+01,6.599999999999938138e-01,1.570000000000055573e+00,2.869999999999998181e+03,-2.174999999999985612e+00,-4.944999999999982521e+00,1.328745273390308057e+01,-2.010069125026494596e+00
2.000000000000047606e+01,2.999999998091995135e+00,1.000000000001449152e+01,6.600000000000123546e-01,1.569999999999943219e+00,2.870000000000000000e+03,-2.175000000000028244e+00,-4.945000000000112195e+00,1.327945736319499481e+01,-1.998423008415166624e+00
1.999999999999989697e+01,3.000000000504994269e+00,1.000000000000958700e+01,6.600000000000071365e-01,1.569999999999978080e+00,2.869999999999996362e+03,-2.174999999999940314e+00,-4.944999999999957652e+00,1.335468183040045886e+01,-2.083598542433850564e+00
1.999999999999811351e+01,2.999999999859946698e+00,1.000000000006664891e+01,6.599999999999935918e-01,1.570000000000200124e+00,2.870000000000002728e+03,-2.174999999999870592e+00,-4.944999999999691198e+00,1.335786339607769868e+01,-2.299350908301299956e+00
1.999999999999891642e+01,2.999999999953340879e+00,1.000000000006137491e+01,6.599999999999963674e-01,1.569999999999983409e+00,2.870000000000000000e+03,-2.174999999999925659e+00,-4.944999999999804885e+00,1.352565402906889780e+01,-2.345229879570618792e+00
1.999999999999923617e+01,2.999999999142361595e+00,9.999999999932434491e+00,6.600000000000088018e-01,1.569999999999943441e+00,2.869999999999992724e+03,-2.174999999999945643e+00,-4.944999999999901696e+00,1.333725983122458736e+01,-2.310338409866917520e+00
1.999999999999960210e+01,3.000000000692999436e+00,1.000000000002341416e+01,6.600000000000112443e-01,1.570000000000034701e+00,2.870000000000000455e+03,-2.175000000000074873e+00,-4.945000000000145945e+00,1.337861238683707299e+01,-2.223536760477632157e+00
2.000000000000085620e+01,3.000000000716269710e+00,1.000000000004009770e+01,6.599999999999965894e-01,1.570000000000078222e+00,2.870000000000001364e+03,-2.175000000000037126e+00,-4.945000000000064233e+00,1.340702642171325998e+01,-2.218181198805277976e+00
2.000000000000042277e+01,3.000000002462738902e+00,9.999999999980369481e+00,6.599999999999969225e-01,1.569999999999985407e+00,2.870000000000001364e+03,-2.175000000000069100e+00,-4.945000000000125517e+00,1.344938216865828728e+01,-2.188586381029697492e+00
2.000000000000012434e+01,3.000000002522528852e+00,9.999999999972533971e+00,6.599999999999868194e-01,1.570000000000081997e+00,2.870000000000000909e+03,-2.175000000000030465e+00,-4.945000000000011831e+00,1.340994083858351793e+01,-2.178805000408877035e+00
1.999999999999996447e+01,3.000000002442035907e+00,9.999999999969070075e+00,6.599999999999979217e-01,1.570000000000004059e+00,2.869999999999999091e+03,-2.175000000000050004e+00,-4.945000000000081108e+00,1.343961228188069512e+01,-2.198430856265011890e+00
1.999999999999985434e+01,3.000000002791852527e+00,9.999999999974228615e+00,6.599999999999950351e-01,1.570000000000027152e+00,2.870000000000000000e+03,-2.175000000000039346e+00,-4.945000000000047358e+00,1.344088595330626568e+01,-2.148621248990472576e+00
1.999999999999927880e+01,3.000000001738182931e+00,9.999999999965641706e+00,6.600000000000080247e-01,1.569999999999956763e+00,2.869999999999997726e+03,-2.175000000000122835e+00,-4.945000000000206342e+00,1.342878003476630866e+01,-2.195738057380086872e+00
2.000000000000015632e+01,3.000000002622027484e+00,9.999999999969398701e+00,6.599999999999772715e-01,1.570000000000133955e+00,2.870000000000001364e+03,-2.175000000000009592e+00,-4.944999999999935447e+00,1.343885704412372739e+01,-2.199168125206819813e+00
2.000000000000044054e+01,3.000000003089617007e+00,9.999999999957749353e+00,6.599999999999908162e-01,1.570000000000031370e+00,2.870000000000000909e+03,-2.175000000000051337e+00,-4.945000000000079332e+00,1.343967073283772606e+01,-2.187160226206538383e+00
1.999999999999941735e+01,3.000000002103606178e+00,9.999999999977957188e+00,6.599999999999902611e-01,1.570000000000083995e+00,2.870000000000000000e+03,-2.175000000000043343e+00,-4.945000000000012719e+00,1.342497508474967560e+01,-2.184237616223087208e+00
1.999999999999946709e+01,3.000000002353258921e+00,9.999999999963042896e+00,6.599999999999911493e-01,1.570000000000066231e+00,2.869999999999998181e+03,-2.175000000000043343e+00,-4.945000000000009166e+00,1.342871475666052916e+01,-2.174503950360259008e+00
2.000000000000062883e+01,2.999999997409053432e+00,1.000000000002031797e+01,6.600000000000169065e-01,1.569999999999900808e+00,2.869999999999998181e+03,-2.175000000000048672e+00,-4.945000000000202789e+00,1.328379306916014002e+01,-1.974674408871342157e+00
2.000000000000039080e+01,2.999999998006946278e+00,1.000000000001133138e+01,6.600000000000137979e-01,1.569999999999903029e+00,2.870000000000000000e+03,-2.175000000000043343e+00,-4.945000000000174367e+00,1.332967098849067256e+01,-2.045531887449219433e+00
1.999999999999822009e+01,3.000000000172958536e+00,1.000000000007646150e+01,6.599999999999932587e-01,1.570000000000106866e+00,2.870000000000000000e+03,-2.174999999999921663e+00,-4.944999999999724061e+00,1.339329190125144287e+01,-2.167663102240243056e+00
1.999999999999818812e+01,3.000000000114756205e+00,1.000000000008793322e+01,6.599999999999913713e-01,1.570000000000118412e+00,2.869999999999999545e+03,-2.174999999999918110e+00,-4.944999999999700968e+00,1.338606249122079817e+01,-2.161733667041218609e+00
1.999999999999910827e+01,3.000000000316138227e+00,1.000000000008490808e+01,6.600000000000001421e-01,1.570000000000022045e+00,2.870000000000000909e+03,-2.174999999999950084e+00,-4.944999999999837748e+00,1.339957990692908218e+01,-2.144932175413828190e+00
1.999999999999883826e+01,3.000000000298821856e+00,1.000000000009341683e+01,6.599999999999868194e-01,1.570000000000107532e+00,2.870000000000001364e+03,-2.174999999999892797e+00,-4.944999999999672546e+00,1.341238976004986405e+01,-2.178666833295740624e+00
1.999999999999909051e+01,2.999999999735154077e+00,1.000000000009974066e+01,6.600000000000013634e-01,1.570000000000010054e+00,2.870000000000000909e+03,-2.174999999999963851e+00,-4.944999999999859952e+00,1.337837987858368827e+01,-2.136926969746037575e+00
1.999999999999885603e+01,3.000000000364519082e+00,1.000000000007728573e+01,6.600000000000014744e-01,1.570000000000025153e+00,2.870000000000000455e+03,-2.174999999999951417e+00,-4.944999999999839524e+00,1.341639132356278630e+01,-2.156288759611968864e+00
1.999999999999907274e+01,2.999999999869218392e+00,1.000000000007966072e+01,6.600000000000136868e-01,1.569999999999948104e+00,2.869999999999999545e+03,-2.174999999999989164e+00,-4.944999999999964757e+00,1.340072137025845223e+01,-2.112654148873566395e+00
2.000000000000004619e+01,3.000000000678268997e+00,1.000000000003407408e+01,6.599999999999994760e-01,1.570000000000015827e+00,2.869999999999995907e+03,-2.174999999999883471e+00,-4.944999999999821760e+00,1.353076441766157245e+01,-2.305091289377457553e+00
1.999999999999960210e+01,3.000000001058077181e+00,1.000000000004002487e+01,6.599999999999969225e-01,1.570000000000045581e+00,2.869999999999997272e+03,-2.174999999999880806e+00,-4.944999999999794227e+00,1.352959013497486573e+01,-2.315461168355666732e+00
1.999999999999947420e+01,3.000000000646288800e+00,1.000000000005012701e+01,6.600000000000071365e-01,1.569999999999975193e+00,2.869999999999998181e+03,-2.174999999999918110e+00,-4.944999999999889262e+00,1.351672912177674490e+01,-2.313921391351213774e+00
2.000000000000005329e+01,3.000000000887767193e+00,1.000000000003019274e+01,6.599999999999869305e-01,1.570000000000098428e+00,2.869999999999997726e+03,-2.174999999999857270e+00,-4.944999999999739160e+00,1.350536608764632440e+01,-2.314231511785523665e+00
1.999999999999921485e+01,3.000000000375402376e+00,1.000000000007175061e+01,6.600000000000130207e-01,1.569999999999937890e+00,2.869999999999992724e+03,-2.175000000000007372e+00,-4.945000000000013607e+00,1.327761021789722840e+01,-2.298702345993441032e+00
1.999999999999914380e+01,3.000000000790302934e+00,1.000000000006483525e+01,6.600000000000124656e-01,1.569999999999975859e+00,2.869999999999992724e+03,-2.174999999999964295e+00,-4.944999999999937224e+00,1.330275589253877477e+01,-2.320897855746024696e+00
2.000000000000024158e+01,3.000000002157786394e+00,1.000000000003404388e+01,6.600000000000070255e-01,1.569999999999957874e+00,2.870000000000001819e+03,-2.174999999999974509e+00,-4.944999999999995843e+00,1.342720699239878890e+01,-2.151141770624024563e+00
2.000000000000007816e+01,3.000000002307384950e+00,1.000000000003393374e+01,6.600000000000010303e-01,1.570000000000004503e+00,2.870000000000003183e+03,-2.174999999999960298e+00,-4.944999999999939888e+00,1.341659609229165717e+01,-2.136090027123063617e+00
1.999999999999996803e+01,3.000000002144269651e+00,1.000000000003809930e+01,6.600000000000095790e-01,1.569999999999949436e+00,2.869999999999999545e+03,-2.174999999999968292e+00,-4.944999999999979856e+00,1.343944098320470992e+01,-2.197353524351567611e+00
2.000000000000012079e+01,3.000000002457589687e+00,1.000000000003471179e+01,6.600000000000170175e-01,1.569999999999892593e+00,2.870000000000000000e+03,-2.174999999999993161e+00,-4.945000000000061569e+00,1.343529307535266071e+01,-2.194542217270758933e+00
2.000000000000093436e+01,3.000000001777529679e+00,1.000000000002248335e+01,6.600000000000003642e-01,1.569999999999985407e+00,2.870000000000002728e+03,-2.174999999999958078e+00,-4.944999999999973639e+00,1.343430900479138757e+01,-2.165536403563888435e+00
2.000000000000079581e+01,3.000000001656506488e+00,1.000000000002678213e+01,6.599999999999948130e-01,1.570000000000020712e+00,2.870000000000001364e+03,-2.174999999999927880e+00,-4.944999999999886597e+00,1.341835503600477253e+01,-2.162660865031919677e+00
2.000000000000145661e+01,3.000000002215848838e+00,1.000000000003722000e+01,6.599999999999964784e-01,1.569999999999989182e+00,2.870000000000001364e+03,-2.174999999999930100e+00,-4.944999999999930118e+00,1.344135240260756703e+01,-2.140667134786782277e+00
2.000000000000124700e+01,3.000000002100883467e+00,1.000000000003587886e+01,6.599999999999862643e-01,1.570000000000045803e+00,2.870000000000001819e+03,-2.174999999999898126e+00,-4.944999999999813767e+00,1.343914072308812813e+01,-2.146998270879849624e+00
2.000000000000030553e+01,3.000000002379360708e+00,1.000000000001953815e+01,6.600000000000161293e-01,1.569999999999881268e+00,2.870000000000002274e+03,-2.174999999999998934e+00,-4.945000000000075779e+00,1.343256578719172722e+01,-2.176318184230108699e+00
2.000000000000036948e+01,3.000000002248772280e+00,1.000000000003655565e+01,6.600000000000175726e-01,1.569999999999871054e+00,2.870000000000001364e+03,-2.175000000000004707e+00,-4.945000000000087326e+00,1.343992318323360635e+01,-2.171831183676734334e+00
2.000000000000095213e+01,3.000000003233716406e+00,9.999999999956560970e+00,6.600000000000025846e-01,1.569999999999979412e+00,2.870000000000001364e+03,-2.174999999999957190e+00,-4.945000000000042917e+00,1.336378476538792981e+01,-2.107229032367793575e+00
2.000000000000130029e+01,3.000000001086775114e+00,9.999999999995567990e+00,6.599999999999963674e-01,1.569999999999925899e+00,2.869999999999998636e+03,-2.174999999999993605e+00,-4.945000000000006501e+00,1.341534096892308092e+01,-2.201189580025061598e+00
2.000000000000108002e+01,3.000000001471092137e+00,9.999999999971681319e+00,6.599999999999953681e-01,1.569999999999919016e+00,2.870000000000001364e+03,-2.174999999999977618e+00,-4.944999999999968310e+00,1.343147689321285121e+01,-2.222726110646563669e+00
2.000000000000083489e+01,3.000000001463182020e+00,9.999999999975162979e+00,6.599999999999853761e-01,1.570000000000016493e+00,2.869999999999999091e+03,-2.174999999999934985e+00,-4.944999999999843965e+00,1.341160965214408307e+01,-2.210536674121831524e+00
2.000000000000072475e+01,3.000000001578537745e+00,9.999999999998614442e+00,6.599999999999963674e-01,1.569999999999957430e+00,2.869999999999999091e+03,-2.174999999999969180e+00,-4.944999999999943441e+00,1.342319065409128775e+01,-2.220901594452521444e+00
2.000000000000096279e+01,3.000000001245975767e+00,9.999999999996532551e+00,6.600000000000050271e-01,1.569999999999878160e+00,2.870000000000000909e+03,-2.175000000000023803e+00,-4.945000000000084661e+00,1.340456520345799518e+01,-2.217229879655014280e+00
1.999999999999912603e+01,3.000000000048288484e+00,9.999999999992377653e+00,6.600000000000045830e-01,1.570000000000051132e+00,2.870000000000000000e+03,-2.175000000000008704e+00,-4.945000000000034923e+00,1.337288979637863306e+01,-2.100078067920430058e+00
1.999999999999967315e+01,3.000000000560911317e+00,1.000000000001242029e+01,6.600000000000147971e-01,1.569999999999973195e+00,2.870000000000000909e+03,-2.175000000000059774e+00,-4.945000000000191243e+00,1.337272706750078299e+01,-2.137261816557102456e+00
2.000000000000105160e+01,2.999999999745890378e+00,1.000000000006533973e+01,6.599999999999913713e-01,1.569999999999967200e+00,2.870000000000000000e+03,-2.175000000000008260e+00,-4.944999999999935447e+00,1.323252024295843832e+01,-2.047375361854858689e+00
2.000000000000052580e+01,3.000000000405401490e+00,1.000000000009278978e+01,6.599999999999979217e-01,1.569999999999915241e+00,2.869999999999993179e+03,-2.175000000000004707e+00,-4.945000000000016271e+00,1.342974163089295203e+01,-2.249120874999567032e+00
2.000000000000062883e+01,3.000000000005459633e+00,1.000000000009091039e+01,6.600000000000094680e-01,1.569999999999822204e+00,2.869999999999991815e+03,-2.175000000000029576e+00,-4.945000000000094431e+00,1.343524284162803362e+01,-2.206035079370644247e+00
2.000000000000080291e+01,2.999999999969108266e+00,1.000000000007876189e+01,6.599999999999986988e-01,1.569999999999899254e+00,2.869999999999991360e+03,-2.174999999999995381e+00,-4.945000000000005613e+00,1.339157496106981959e+01,-2.203608140992686870e+00
2.000000000000072120e+01,3.000000000108816511e+00,1.000000000008782663e+01,6.599999999999920375e-01,1.569999999999944329e+00,2.869999999999990905e+03,-2.174999999999982503e+00,-4.944999999999944329e+00,1.341385163278975945e+01,-2.209480018519224931e+00
2.000000000000085620e+01,3.000000000313575388e+00,1.000000000008400214e+01,6.600000000000160183e-01,1.569999999999780460e+00,2.869999999999991360e+03,-2.175000000000057110e+00,-4.945000000000191243e+00,1.343039811611043000e+01,-2.210776481469303167e+00
2.000000000000059686e+01,3.000000002322010584e+00,1.000000000001068834e+01,6.599999999999933697e-01,1.570000000000056684e+00,2.869999999999993179e+03,-2.175000000000020695e+00,-4.945000000000008278e+00,1.340608307072958816e+01,-2.170894912777565189e+00
2.000000000000067857e+01,3.000000002123669685e+00,1.000000000001039702e+01,6.599999999999974776e-01,1.570000000000017382e+00,2.869999999999994998e+03,-2.175000000000034017e+00,-4.945000000000055351e+00,1.340479949226565637e+01,-2.195343001206744304e+00
2.000000000000068567e+01,3.000000001897121571e+00,1.000000000000200551e+01,6.600000000000004752e-01,1.570000000000018714e+00,2.869999999999994998e+03,-2.175000000000046452e+00,-4.945000000000104201e+00,1.338461874317334122e+01,-2.134553032322060950e+00
2.000000000000049738e+01,3.000000002150452261e+00,1.000000000000357048e+01,6.599999999999893729e-01,1.570000000000092877e+00,2.869999999999994543e+03,-2.175000000000008260e+00,-4.944999999999980744e+00,1.339553979924038885e+01,-2.175226011485290822e+00
2.000000000000034106e+01,3.000000002120014386e+00,9.999999999997209343e+00,6.600000000000093570e-01,1.569999999999948326e+00,2.869999999999994998e+03,-2.175000000000081091e+00,-4.945000000000178808e+00,1.338980146876533617e+01,-2.127826162668245313e+00
2.000000000000043698e+01,3.000000001814616901e+00,1.000000000001287859e+01,6.600000000000079137e-01,1.569999999999958762e+00,2.869999999999993179e+03,-2.175000000000086864e+00,-4.945000000000176144e+00,1.341166741600929591e+01,-2.181816959441481796e+00
2.000000000000063238e+01,3.000000001938173178e+00,1.000000000001946177e+01,6.599999999999995870e-01,1.570000000000013829e+00,2.869999999999992269e+03,-2.175000000000061551e+00,-4.945000000000094431e+00,1.339644204907167691e+01,-2.149972524172226951e+00
2.000000000000038014e+01,3.000000002019568957e+00,1.000000000002178346e+01,6.599999999999882627e-01,1.570000000000099760e+00,2.869999999999992269e+03,-2.175000000000009148e+00,-4.944999999999952323e+00,1.339423185948531270e+01,-2.187645274469108614e+00
2.000000000000059686e+01,3.000000001962877416e+00,1.000000000001665157e+01,6.600000000000140199e-01,1.569999999999936779e+00,2.869999999999994543e+03,-2.175000000000089084e+00,-4.945000000000222329e+00,1.339357662551759454e+01,-2.200062175773848328e+00
2.000000000000106581e+01,3.000000002330678317e+00,9.999999999991286970e+00,6.599999999999982547e-01,1.570000000000026930e+00,2.869999999999992724e+03,-2.175000000000025135e+00,-4.945000000000063345e+00,1.338784741430496794e+01,-2.169881295768979701e+00
2.000000000000041567e+01,3.000000001994535204e+00,1.000000000003410783e+01,6.599999999999990319e-01,1.570000000000018048e+00,2.869999999999993179e+03,-2.175000000000027800e+00,-4.945000000000024265e+00,1.341354433256080902e+01,-2.195159747746171508e+00
2.000000000000065370e+01,3.000000001958656792e+00,1.000000000004352962e+01,6.600000000000055822e-01,1.569999999999978968e+00,2.869999999999990905e+03,-2.175000000000044675e+00,-4.945000000000089102e+00,1.344363206844496794e+01,-2.233124419942547512e+00
2.000000000000114397e+01,3.000000002419549894e+00,9.999999999976667553e+00,6.599999999999845990e-01,1.570000000000102203e+00,2.869999999999994088e+03,-2.174999999999985612e+00,-4.944999999999954987e+00,1.339862545677637051e+01,-2.183457901456479000e+00
2.000000000000115818e+01,3.000000002627793094e+00,9.999999999980115462e+00,6.599999999999831557e-01,1.570000000000104201e+00,2.869999999999994998e+03,-2.174999999999979394e+00,-4.944999999999943441e+00,1.343039775529267565e+01,-2.203960862396372899e+00
1.999999999999846167e+01,3.000000000565200331e+00,9.999999999982190246e+00,6.600000000000186828e-01,1.569999999999967200e+00,2.869999999999988631e+03,-2.174999999999969180e+00,-4.944999999999950546e+00,1.336642770672250613e+01,-2.256963356680162125e+00
1.999999999999896971e+01,3.000000000600847816e+00,9.999999999969567455e+00,6.600000000000055822e-01,1.570000000000029372e+00,2.869999999999987722e+03,-2.174999999999945199e+00,-4.944999999999871498e+00,1.333845620572598634e+01,-2.227974929111507851e+00
1.999999999999954881e+01,3.000000000559205127e+00,9.999999999957667640e+00,6.600000000000117995e-01,1.569999999999964979e+00,2.869999999999983174e+03,-2.174999999999929656e+00,-4.944999999999826201e+00,1.338890602953449438e+01,-2.116535006743010872e+00
1.999999999999907629e+01,3.000000001144445427e+00,9.999999999931436179e+00,6.600000000000056932e-01,1.570000000000042695e+00,2.869999999999982720e+03,-2.174999999999910116e+00,-4.944999999999762252e+00,1.336536775418523249e+01,-2.107594009257843570e+00
2.000000000000030198e+01,2.999999999175047005e+00,1.000000000001430678e+01,6.600000000000095790e-01,1.569999999999968532e+00,2.869999999999982720e+03,-2.175000000000060663e+00,-4.945000000000097984e+00,1.336196235937060095e+01,-1.979805382096406552e+00
2.000000000000146727e+01,2.999999999515679860e+00,1.000000000002043876e+01,6.600000000000126876e-01,1.569999999999853735e+00,2.870000000000000455e+03,-2.175000000000073541e+00,-4.945000000000250751e+00,1.338095930855813265e+01,-2.207344036896411232e+00
2.000000000000159517e+01,3.000000000129190880e+00,1.000000000002890310e+01,6.599999999999988098e-01,1.569999999999913687e+00,2.870000000000000455e+03,-2.175000000000035350e+00,-4.945000000000117524e+00,1.340616762917367843e+01,-2.214538235257922594e+00
2.000000000000184031e+01,2.999999999210949841e+00,1.000000000002760991e+01,6.600000000000036948e-01,1.569999999999904805e+00,2.870000000000000909e+03,-2.175000000000055334e+00,-4.945000000000200124e+00,1.337711026946797688e+01,-2.192798245402491908e+00
2.000000000000158096e+01,3.000000001149898843e+00,1.000000000002444622e+01,6.599999999999901501e-01,1.569999999999904139e+00,2.869999999999994088e+03,-2.175000000000018918e+00,-4.945000000000002949e+00,1.352324232044374419e+01,-2.381886414720347567e+00
2.000000000000016698e+01,3.000000001165189722e+00,9.999999999989064747e+00,6.600000000000127987e-01,1.569999999999963425e+00,2.869999999999999545e+03,-2.175000000000019362e+00,-4.945000000000196572e+00,1.337712164834712070e+01,-2.134159995829930878e+00
2.000000000000141753e+01,3.000000001742349820e+00,9.999999999977122300e+00,6.600000000000121325e-01,1.569999999999895923e+00,2.870000000000000909e+03,-2.175000000000026468e+00,-4.945000000000254303e+00,1.337218974979325381e+01,-2.182913173913622717e+00
2.000000000000007105e+01,3.000000001614449907e+00,9.999999999969158893e+00,6.600000000000145750e-01,1.569999999999933671e+00,2.870000000000000909e+03,-2.175000000000026024e+00,-4.945000000000209006e+00,1.340483289153184288e+01,-2.158684706206197124e+00
2.000000000000006395e+01,3.000000001493014601e+00,9.999999999986947330e+00,6.600000000000132427e-01,1.569999999999935669e+00,2.870000000000000455e+03,-2.175000000000036682e+00,-4.945000000000202789e+00,1.339548483984508209e+01,-2.134515175422917022e+00
2.000000000000031619e+01,3.000000002145944311e+00,9.999999999983439025e+00,6.600000000000112443e-01,1.569999999999930340e+00,2.869999999999999545e+03,-2.175000000000042455e+00,-4.945000000000204565e+00,1.338150455232137404e+01,-2.162945464914890703e+00
2.000000000000009592e+01,3.000000002237254826e+00,9.999999999988453681e+00,6.600000000000011413e-01,1.570000000000020490e+00,2.869999999999999545e+03,-2.175000000000004263e+00,-4.945000000000096207e+00,1.339635480749718610e+01,-2.160323107212904326e+00
2.000000000000051514e+01,3.000000001816042428e+00,9.999999999972466469e+00,6.600000000000049161e-01,1.569999999999998286e+00,2.869999999999998636e+03,-2.175000000000017586e+00,-4.945000000000158380e+00,1.336975437513054210e+01,-2.128062242851715968e+00
2.000000000000100542e+01,3.000000002127226395e+00,9.999999999976163068e+00,6.600000000000104672e-01,1.569999999999922791e+00,2.870000000000000000e+03,-2.175000000000024247e+00,-4.945000000000215223e+00,1.341548351824322083e+01,-2.155585526224560677e+00
2.000000000000078870e+01,3.000000002230336804e+00,9.999999999971919351e+00,6.599999999999994760e-01,1.570000000000012941e+00,2.869999999999999091e+03,-2.174999999999983391e+00,-4.945000000000091767e+00,1.342753774546747536e+01,-2.160390473663676314e+00
1.999999999999874234e+01,2.999999997934573059e+00,1.000000000004201084e+01,6.599999999999927036e-01,1.570000000000101537e+00,2.870000000000001364e+03,-2.175000000000007372e+00,-4.944999999999952323e+00,1.324244249327363221e+01,-2.030556389935531225e+00
1.999999999999911537e+01,2.999999998076386731e+00,1.000000000003842970e+01,6.599999999999915934e-01,1.570000000000080220e+00,2.870000000000000909e+03,-2.175000000000000711e+00,-4.944999999999946105e+00,1.324184964308842183e+01,-2.041982194161734654e+00
1.999999999999918643e+01,2.999999998053534789e+00,9.999999999992489563e+00,6.600000000000095790e-01,1.569999999999960760e+00,2.870000000000002728e+03,-2.175000000000066880e+00,-4.945000000000165485e+00,1.322402503336651591e+01,-1.962002361103246439e+00
1.999999999999944578e+01,2.999999997695161902e+00,1.000000000000596856e+01,6.599999999999913713e-01,1.570000000000084439e+00,2.870000000000000909e+03,-2.175000000000004263e+00,-4.944999999999989626e+00,1.323391053187286026e+01,-1.955688139996359931e+00
2.000000000000021672e+01,3.000000001258839699e+00,9.999999999958387065e+00,6.600000000000039169e-01,1.570000000000081553e+00,2.869999999999994543e+03,-2.175000000000067324e+00,-4.945000000000163709e+00,1.341159801630855775e+01,-2.251322939989962357e+00
1.999999999999974776e+01,3.000000000807085954e+00,9.999999999983893773e+00,6.600000000000344480e-01,1.569999999999889040e+00,2.869999999999995907e+03,-2.175000000000149480e+00,-4.945000000000402629e+00,1.339572999097340400e+01,-2.202457084103973450e+00
2.000000000000046896e+01,3.000000000509863263e+00,9.999999999980838439e+00,6.600000000000042499e-01,1.570000000000051799e+00,2.869999999999996817e+03,-2.175000000000051781e+00,-4.945000000000147722e+00,1.340160885472657171e+01,-2.206346331828414442e+00
2.000000000000037659e+01,3.000000000502462960e+00,9.999999999977655207e+00,6.600000000000003642e-01,1.570000000000090656e+00,2.869999999999995453e+03,-2.175000000000035350e+00,-4.945000000000099760e+00,1.340867329232503380e+01,-2.175669244634587329e+00
1.999999999999938183e+01,3.000000000538765921e+00,9.999999999950766494e+00,6.599999999999940359e-01,1.570000000000168372e+00,2.869999999999997272e+03,-2.175000000000026024e+00,-4.945000000000023377e+00,1.338283668738854182e+01,-2.151499061700154147e+00
1.999999999999954881e+01,3.000000000790481014e+00,9.999999999959790387e+00,6.599999999999996980e-01,1.570000000000121965e+00,2.869999999999997272e+03,-2.175000000000042899e+00,-4.945000000000079332e+00,1.339344094546127550e+01,-2.175664512448436838e+00
2.000000000000081357e+01,3.000000002252704689e+00,1.000000000000109246e+01,6.599999999999902611e-01,1.569999999999929452e+00,2.869999999999987722e+03,-2.175000000000008260e+00,-4.944999999999923901e+00,1.354083315799577214e+01,-2.307268738271377018e+00
2.000000000000126832e+01,3.000000001627053159e+00,9.999999999985366372e+00,6.599999999999712763e-01,1.570000000000037588e+00,2.869999999999988631e+03,-2.174999999999940758e+00,-4.944999999999762252e+00,1.355104564825975721e+01,-2.301218081254893466e+00
2.000000000000174794e+01,3.000000002117482190e+00,9.999999999988490984e+00,6.599999999999872635e-01,1.569999999999906803e+00,2.869999999999986358e+03,-2.174999999999999822e+00,-4.944999999999939888e+00,1.358840518343069625e+01,-2.328788337491131344e+00
2.000000000000182609e+01,3.000000002024608925e+00,9.999999999988048671e+00,6.599999999999691669e-01,1.570000000000031148e+00,2.869999999999987722e+03,-2.174999999999945643e+00,-4.944999999999780016e+00,1.354308639279523163e+01,-2.323192884694650129e+00
2.000000000000191491e+01,3.000000001407420402e+00,9.999999999998140154e+00,6.599999999999741629e-01,1.569999999999988960e+00,2.869999999999989086e+03,-2.174999999999967848e+00,-4.944999999999839524e+00,1.355148779444509266e+01,-2.306126701095474463e+00
2.000000000000176925e+01,3.000000002150529532e+00,9.999999999990098587e+00,6.599999999999707212e-01,1.570000000000020046e+00,2.869999999999989086e+03,-2.174999999999948752e+00,-4.944999999999790674e+00,1.357685764249417559e+01,-2.293116437650544182e+00
2.000000000000050093e+01,3.000000002670084598e+00,1.000000000001794298e+01,6.599999999999812683e-01,1.570000000000058904e+00,2.870000000000001364e+03,-2.174999999999900346e+00,-4.944999999999780904e+00,1.341741525010055014e+01,-2.189824103674516298e+00
2.000000000000056843e+01,3.000000002097769958e+00,1.000000000001932321e+01,6.599999999999863753e-01,1.570000000000032259e+00,2.870000000000001364e+03,-2.174999999999924771e+00,-4.944999999999848406e+00,1.340634685902907108e+01,-2.147579150401891290e+00
2.000000000000073186e+01,3.000000002531155729e+00,9.999999999987872812e+00,6.599999999999902611e-01,1.570000000000002727e+00,2.870000000000001819e+03,-2.174999999999923883e+00,-4.944999999999891926e+00,1.337621627370317157e+01,-2.154837469488893209e+00
2.000000000000039435e+01,3.000000002266888011e+00,1.000000000000389022e+01,6.599999999999709432e-01,1.570000000000129292e+00,2.870000000000001364e+03,-2.174999999999864375e+00,-4.944999999999681428e+00,1.339272161674813866e+01,-2.192321091917357911e+00
2.000000000000001421e+01,3.000000002382096742e+00,1.000000000002102141e+01,6.600000000000038058e-01,1.569999999999944107e+00,2.870000000000000909e+03,-2.174999999999962519e+00,-4.944999999999971863e+00,1.338991329153055787e+01,-2.169059561271502456e+00
1.999999999999987210e+01,3.000000002668391286e+00,1.000000000000593303e+01,6.599999999999999201e-01,1.569999999999985407e+00,2.870000000000000909e+03,-2.174999999999937206e+00,-4.944999999999916795e+00,1.338386220107290470e+01,-2.150187824215328281e+00
1.999999999999960565e+01,3.000000002995413251e+00,1.000000000000641975e+01,6.599999999999933697e-01,1.570000000000008056e+00,2.870000000000001364e+03,-2.174999999999925659e+00,-4.944999999999847518e+00,1.341466457867103834e+01,-2.211161573796365243e+00
1.999999999999952038e+01,3.000000002475519345e+00,1.000000000001014122e+01,6.599999999999911493e-01,1.570000000000022933e+00,2.870000000000002274e+03,-2.174999999999921663e+00,-4.944999999999826201e+00,1.341245733975361709e+01,-2.184383059345793132e+00
2.000000000000024514e+01,3.000000002955317768e+00,1.000000000000006928e+01,6.599999999999959233e-01,1.569999999999969642e+00,2.870000000000000000e+03,-2.174999999999933209e+00,-4.944999999999893703e+00,1.343184372266500937e+01,-2.169528276600240169e+00
1.999999999999987921e+01,3.000000002625264450e+00,1.000000000000412825e+01,6.599999999999833777e-01,1.570000000000070450e+00,2.870000000000001364e+03,-2.174999999999882139e+00,-4.944999999999747153e+00,1.340605385608993139e+01,-2.160404388394352893e+00
1.999999999999883826e+01,2.999999999447879429e+00,9.999999999954223284e+00,6.600000000000130207e-01,1.570000000000049356e+00,2.870000000000001819e+03,-2.174999999999903455e+00,-4.944999999999911466e+00,1.328208885251605942e+01,-2.061588088176072198e+00
1.999999999999844391e+01,3.000000000039480863e+00,9.999999999941181272e+00,6.600000000000151301e-01,1.570000000000058238e+00,2.870000000000000909e+03,-2.174999999999930544e+00,-4.944999999999958540e+00,1.335057386505474852e+01,-2.063002413096301613e+00
2.000000000000045119e+01,3.000000001666374150e+00,9.999999999921906024e+00,6.599999999999970335e-01,1.570000000000044471e+00,2.869999999999995453e+03,-2.174999999999999822e+00,-4.945000000000007390e+00,1.333637441867912976e+01,-2.117566467617934656e+00
1.999999999999993605e+01,3.000000000954666124e+00,9.999999999913402604e+00,6.600000000000079137e-01,1.569999999999983187e+00,2.870000000000001819e+03,-2.174999999999928768e+00,-4.944999999999970974e+00,1.334174976933174683e+01,-2.075021164457258926e+00
2.000000000000052580e+01,2.999999999444970200e+00,1.000000000006660983e+01,6.600000000000162403e-01,1.569999999999854401e+00,2.870000000000002728e+03,-2.175000000000047340e+00,-4.945000000000120188e+00,1.339593555545233095e+01,-1.814333889621865925e+00
2.000000000000002132e+01,2.999999999700265541e+00,1.000000000003490008e+01,6.600000000000005862e-01,1.569999999999978302e+00,2.870000000000001819e+03,-2.175000000000001155e+00,-4.944999999999957652e+00,1.341053853430429044e+01,-1.771503523977388195e+00
2.000000000000139266e+01,3.000000000500909536e+00,1.000000000005297629e+01,6.600000000000134648e-01,1.569999999999911910e+00,2.870000000000000000e+03,-2.175000000000026468e+00,-4.945000000000140616e+00,1.334926654867131646e+01,-2.168346833573279397e+00
2.000000000000115818e+01,2.999999999989781507e+00,1.000000000002250111e+01,6.599999999999809353e-01,1.570000000000087104e+00,2.869999999999986812e+03,-2.174999999999949196e+00,-4.944999999999843077e+00,1.325207996692742896e+01,-2.283843553278853467e+00
2.000000000000088818e+01,3.000000000085784713e+00,1.000000000000975575e+01,6.599999999999908162e-01,1.570000000000006279e+00,2.869999999999986812e+03,-2.174999999999980727e+00,-4.944999999999937224e+00,1.327260676485306057e+01,-2.285734440388258903e+00
2.000000000000019540e+01,2.999999999986946442e+00,1.000000000003331024e+01,6.600000000000096900e-01,1.569999999999903029e+00,2.869999999999986812e+03,-2.175000000000047340e+00,-4.945000000000088214e+00,1.328130143689333309e+01,-2.327221259565185552e+00
2.000000000000082068e+01,3.000000002288297107e+00,9.999999999997390532e+00,6.600000000000080247e-01,1.570000000000021823e+00,2.869999999999991360e+03,-2.175000000000041123e+00,-4.945000000000137064e+00,1.339369922954564274e+01,-2.189991075879277549e+00
2.000000000000067857e+01,3.000000001115218140e+00,1.000000000000646239e+01,6.600000000000030287e-01,1.570000000000067342e+00,2.869999999999992269e+03,-2.175000000000021139e+00,-4.945000000000074891e+00,1.337634387847965023e+01,-2.182749619598874258e+00
2.000000000000018474e+01,3.000000001830617435e+00,1.000000000000193978e+01,6.600000000000052491e-01,1.570000000000062013e+00,2.869999999999991360e+03,-2.175000000000014921e+00,-4.945000000000054463e+00,1.338083112407415420e+01,-2.158355870394795151e+00
2.000000000000048317e+01,3.000000000854019522e+00,1.000000000002367173e+01,6.600000000000022515e-01,1.569999999999981188e+00,2.869999999999993634e+03,-2.175000000000027800e+00,-4.945000000000089102e+00,1.359485262724765597e+01,-2.356613641264136305e+00
2.000000000000040856e+01,3.000000001132231642e+00,1.000000000001594991e+01,6.599999999999980327e-01,1.569999999999996732e+00,2.869999999999993634e+03,-2.175000000000002931e+00,-4.945000000000025153e+00,1.361098225428423802e+01,-2.366872657551285730e+00
2.000000000000070344e+01,3.000000000584186033e+00,1.000000000001634959e+01,6.600000000000135758e-01,1.569999999999892148e+00,2.869999999999993634e+03,-2.175000000000042011e+00,-4.945000000000171703e+00,1.358361969109010836e+01,-2.347927766311222797e+00
2.000000000000040501e+01,3.000000000783353826e+00,1.000000000001123013e+01,6.600000000000010303e-01,1.569999999999989626e+00,2.869999999999994543e+03,-2.175000000000005596e+00,-4.945000000000046469e+00,1.357779991006167464e+01,-2.333220861893890330e+00
2.000000000000012434e+01,3.000000000727667704e+00,1.000000000001362821e+01,6.600000000000108002e-01,1.569999999999936557e+00,2.869999999999994543e+03,-2.175000000000033573e+00,-4.945000000000121965e+00,1.357644953896120299e+01,-2.299683209175836129e+00
2.000000000000081357e+01,3.000000000474519979e+00,1.000000000003322320e+01,6.599999999999919265e-01,1.570000000000033147e+00,2.869999999999994998e+03,-2.174999999999963407e+00,-4.944999999999955875e+00,1.358827979461597835e+01,-2.336993137754123762e+00
2.000000000000103384e+01,3.000000001110081360e+00,1.000000000001699441e+01,6.599999999999993650e-01,1.569999999999963647e+00,2.869999999999994088e+03,-2.174999999999998490e+00,-4.945000000000048246e+00,1.360649504491849804e+01,-2.324824499449313020e+00
2.000000000000128608e+01,3.000000000335727446e+00,1.000000000002258105e+01,6.600000000000058042e-01,1.569999999999932561e+00,2.869999999999994998e+03,-2.175000000000032241e+00,-4.945000000000149498e+00,1.357628015895054396e+01,-2.330596680172292601e+00
2.000000000000093436e+01,3.000000000950927337e+00,1.000000000001199751e+01,6.599999999999904832e-01,1.570000000000038254e+00,2.869999999999994543e+03,-2.174999999999965627e+00,-4.944999999999959428e+00,1.357575915447611514e+01,-2.336720307919632589e+00
2.000000000000029488e+01,2.999999998497365983e+00,9.999999999998182787e+00,6.600000000000021405e-01,1.570000000000004947e+00,2.869999999999989086e+03,-2.175000000000030909e+00,-4.945000000000002061e+00,1.331053948375098095e+01,-2.001590301138339356e+00
1.999999999999990408e+01,2.999999998339662355e+00,9.999999999982355448e+00,6.600000000000059153e-01,1.569999999999993401e+00,2.869999999999990905e+03,-2.175000000000032685e+00,-4.945000000000022489e+00,1.326913413447845791e+01,-2.007990597496345675e+00
1.999999999999971578e+01,2.999999998676050161e+00,9.999999999964110486e+00,6.600000000000001421e-01,1.569999999999976747e+00,2.869999999999992724e+03,-2.175000000000057110e+00,-4.945000000000020712e+00,1.319594517270438239e+01,-1.929876527391524821e+00
2.000000000000021316e+01,3.000000000006882939e+00,1.000000000005633893e+01,6.599999999999809353e-01,1.570000000000098428e+00,2.870000000000001819e+03,-2.174999999999947864e+00,-4.944999999999797780e+00,1.339750475361081783e+01,-2.125164417774985548e+00
1.999999999999928590e+01,2.999999999671710160e+00,1.000000000005060130e+01,6.600000000000010303e-01,1.569999999999986739e+00,2.870000000000002274e+03,-2.175000000000011369e+00,-4.944999999999948770e+00,1.339117736003585080e+01,-2.132130489305747556e+00
2.000000000000102318e+01,3.000000001113407588e+00,1.000000000002698108e+01,6.600000000000001421e-01,1.570000000000038254e+00,2.870000000000000455e+03,-2.174999999999979394e+00,-4.945000000000011831e+00,1.338235161344869972e+01,-2.112375408041605063e+00
1.999999999999985789e+01,3.000000001356050827e+00,1.000000000001094236e+01,6.600000000000056932e-01,1.569999999999926565e+00,2.870000000000000455e+03,-2.175000000000013145e+00,-4.945000000000028706e+00,1.337042965034912534e+01,-2.108883439030327711e+00
2.000000000000048317e+01,3.000000001153473761e+00,1.000000000001748468e+01,6.599999999999982547e-01,1.569999999999952323e+00,2.869999999999998636e+03,-2.175000000000008704e+00,-4.945000000000004725e+00,1.339209292071623736e+01,-2.177116543249216996e+00
2.000000000000101252e+01,3.000000001500586322e+00,9.999999999977154275e+00,6.600000000000058042e-01,1.569999999999890372e+00,2.870000000000000909e+03,-2.175000000000007372e+00,-4.945000000000081997e+00,1.335826835049968508e+01,-2.101956991405547814e+00
1.999999999999948841e+01,3.000000001843025732e+00,1.000000000008100010e+01,6.600000000000065814e-01,1.570000000000037810e+00,2.869999999999997726e+03,-2.175000000000003819e+00,-4.944999999999972751e+00,1.338913193244162692e+01,-2.236913894560847549e+00
1.999999999999941025e+01,3.000000002239988639e+00,1.000000000006604850e+01,6.600000000000011413e-01,1.570000000000062901e+00,2.869999999999997272e+03,-2.174999999999997158e+00,-4.944999999999937224e+00,1.340083673733487224e+01,-2.263142756136342637e+00
1.999999999999904077e+01,3.000000001983487152e+00,1.000000000002637179e+01,6.600000000000004752e-01,1.570000000000111751e+00,2.869999999999998181e+03,-2.174999999999976730e+00,-4.944999999999913243e+00,1.335614517973726656e+01,-2.230559518508417050e+00
2.000000000000067146e+01,3.000000003047945007e+00,9.999999999973942622e+00,6.599999999999875966e-01,1.570000000000052687e+00,2.869999999999992724e+03,-2.175000000000029132e+00,-4.944999999999999396e+00,1.333999618415612609e+01,-2.248057719618015149e+00
1.999999999999896261e+01,3.000000001401898597e+00,9.999999999950937024e+00,6.599999999999995870e-01,1.570000000000055351e+00,2.870000000000001364e+03,-2.175000000000008260e+00,-4.944999999999972751e+00,1.334358201600892713e+01,-2.255536294522919594e+00
2.000000000000053646e+01,3.000000001405972228e+00,9.999999999972811082e+00,6.599999999999903721e-01,1.570000000000002061e+00,2.869999999999994543e+03,-2.174999999999985612e+00,-4.944999999999903473e+00,1.328037205286264211e+01,-2.307385622389155788e+00
2.000000000000168043e+01,3.000000001225260338e+00,9.999999999969546138e+00,6.599999999999772715e-01,1.570000000000056906e+00,2.869999999999992269e+03,-2.174999999999962963e+00,-4.944999999999849294e+00,1.326247423420576510e+01,-2.318509217651783860e+00
1.999999999999923972e+01,3.000000000520555599e+00,9.999999999986432186e+00,6.600000000000144640e-01,1.569999999999953211e+00,2.869999999999999545e+03,-2.175000000000006040e+00,-4.945000000000044693e+00,1.337117631484493785e+01,-2.135251050229728609e+00
1.999999999999932143e+01,3.000000000044033222e+00,1.000000000000561151e+01,6.600000000000066924e-01,1.569999999999999396e+00,2.870000000000000909e+03,-2.174999999999954081e+00,-4.944999999999936335e+00,1.339534792263111029e+01,-2.146890008641855641e+00
1.999999999999908695e+01,3.000000001626623725e+00,9.999999999998395950e+00,6.600000000000101341e-01,1.569999999999921680e+00,2.869999999999998181e+03,-2.175000000000010925e+00,-4.945000000000014495e+00,1.345324503854580733e+01,-2.181399628933884838e+00
1.999999999999896971e+01,3.000000001866160115e+00,9.999999999998854250e+00,6.600000000000069145e-01,1.569999999999962981e+00,2.869999999999999091e+03,-2.175000000000006040e+00,-4.944999999999995843e+00,1.342768753092660106e+01,-2.183128914005144861e+00
1.999999999999931788e+01,3.000000002093925033e+00,1.000000000000948219e+01,6.599999999999933697e-01,1.570000000000016716e+00,2.870000000000000000e+03,-2.174999999999963407e+00,-4.944999999999872387e+00,1.342456329668979542e+01,-2.115700842834043804e+00
2.000000000000006040e+01,3.000000001988674114e+00,9.999999999999092282e+00,6.599999999999942579e-01,1.569999999999976747e+00,2.869999999999997272e+03,-2.174999999999967404e+00,-4.944999999999903473e+00,1.344923083022507981e+01,-2.218669304614774518e+00
2.000000000000009948e+01,3.000000001864378874e+00,9.999999999984693133e+00,6.599999999999972555e-01,1.569999999999961204e+00,2.869999999999997726e+03,-2.174999999999978062e+00,-4.944999999999942553e+00,1.344978999513825002e+01,-2.202721320742687894e+00
2.000000000000058975e+01,3.000000002228273566e+00,9.999999999994168220e+00,6.599999999999831557e-01,1.570000000000036700e+00,2.869999999999997272e+03,-2.174999999999940758e+00,-4.944999999999831530e+00,1.344175695038443585e+01,-2.170139312770325013e+00
2.000000000000080291e+01,3.000000001989520548e+00,9.999999999999916511e+00,6.599999999999897060e-01,1.569999999999987628e+00,2.869999999999996362e+03,-2.174999999999966072e+00,-4.944999999999908802e+00,1.346778164711964720e+01,-2.188511631103188915e+00
1.999999999999995026e+01,3.000000002143771827e+00,9.999999999986595611e+00,6.599999999999923705e-01,1.570000000000013385e+00,2.869999999999998181e+03,-2.174999999999964739e+00,-4.944999999999897256e+00,1.345108355027689484e+01,-2.205367396269495295e+00
1.999999999999970868e+01,3.000000002243982777e+00,9.999999999983199217e+00,6.599999999999855982e-01,1.570000000000054463e+00,2.869999999999999091e+03,-2.174999999999925659e+00,-4.944999999999794227e+00,1.342861149917054853e+01,-2.174324000060583018e+00
2.000000000000080291e+01,3.000000001592340926e+00,9.999999999990016875e+00,6.599999999999754952e-01,1.570000000000155271e+00,2.869999999999996362e+03,-2.174999999999875477e+00,-4.944999999999724949e+00,1.336626907417373644e+01,-2.194888956734041940e+00
2.000000000000026290e+01,3.000000001778549752e+00,9.999999999985103472e+00,6.599999999999930367e-01,1.570000000000051354e+00,2.869999999999997272e+03,-2.174999999999947864e+00,-4.944999999999905249e+00,1.336270353111038034e+01,-2.124661068060707425e+00
2.000000000000104805e+01,3.000000002569487290e+00,1.000000000002401634e+01,6.599999999999970335e-01,1.569999999999871276e+00,2.869999999999995453e+03,-2.175000000000019362e+00,-4.945000000000012719e+00,1.338465594735080266e+01,-2.154029973460540148e+00
2.000000000000119016e+01,3.000000002616974637e+00,1.000000000002365574e+01,6.600000000000036948e-01,1.569999999999821316e+00,2.869999999999995907e+03,-2.175000000000050004e+00,-4.945000000000097984e+00,1.337868542678866035e+01,-2.151732269862824509e+00
2.000000000000143174e+01,3.000000001634266500e+00,1.000000000002167511e+01,6.599999999999999201e-01,1.569999999999835305e+00,2.869999999999995453e+03,-2.175000000000037570e+00,-4.945000000000066009e+00,1.336709888086606490e+01,-2.159911737711131430e+00
2.000000000000190781e+01,3.000000002783764774e+00,1.000000000002298250e+01,6.599999999999967004e-01,1.569999999999832863e+00,2.869999999999994998e+03,-2.175000000000016698e+00,-4.945000000000036700e+00,1.341302068447961204e+01,-2.174043605549836222e+00
2.000000000000187583e+01,3.000000002511600705e+00,1.000000000001500844e+01,6.599999999999950351e-01,1.569999999999845963e+00,2.869999999999995907e+03,-2.175000000000009592e+00,-4.945000000000026041e+00,1.343245590474418272e+01,-2.188285055142189961e+00
2.000000000000172662e+01,3.000000002182842351e+00,1.000000000002741274e+01,6.599999999999901501e-01,1.569999999999893481e+00,2.869999999999994543e+03,-2.175000000000010925e+00,-4.944999999999982521e+00,1.342135369705011172e+01,-2.162325325660141129e+00
2.000000000000199663e+01,3.000000002457757553e+00,1.000000000001613820e+01,6.600000000000040279e-01,1.569999999999796891e+00,2.869999999999994998e+03,-2.175000000000057998e+00,-4.945000000000140616e+00,1.341624261588468769e+01,-2.149111350061099657e+00
2.000000000000171951e+01,2.999999998997657791e+00,1.000000000009485213e+01,6.599999999999949241e-01,1.569999999999947216e+00,2.869999999999999545e+03,-2.175000000000062883e+00,-4.945000000000130846e+00,1.345118181005029179e+01,-2.190731134297532634e+00
2.000000000000152056e+01,2.999999998921757172e+00,1.000000000008826362e+01,6.599999999999860423e-01,1.570000000000004059e+00,2.869999999999999545e+03,-2.175000000000033573e+00,-4.945000000000031370e+00,1.344986880541551955e+01,-2.187264440846675040e+00
2.000000000000176925e+01,2.999999998928290612e+00,1.000000000008115997e+01,6.600000000000016964e-01,1.569999999999869500e+00,2.870000000000001364e+03,-2.175000000000100187e+00,-4.945000000000215223e+00,1.340924037004220715e+01,-2.124861768176173005e+00
2.000000000000184386e+01,2.999999998894278708e+00,1.000000000009631052e+01,6.600000000000084688e-01,1.569999999999832641e+00,2.870000000000000455e+03,-2.175000000000104183e+00,-4.945000000000253415e+00,1.341562725226936514e+01,-2.120867247878756245e+00
2.000000000000147438e+01,2.999999998839090409e+00,1.000000000009769252e+01,6.599999999999895950e-01,1.569999999999969198e+00,2.870000000000000909e+03,-2.175000000000050449e+00,-4.945000000000065121e+00,1.343996138947845687e+01,-2.126306894232672384e+00
2.000000000000131806e+01,2.999999998727207462e+00,1.000000000007172396e+01,6.599999999999965894e-01,1.569999999999935669e+00,2.869999999999997726e+03,-2.175000000000068212e+00,-4.945000000000120188e+00,1.341893108408513235e+01,-2.140183886017650305e+00
2.000000000000140687e+01,2.999999998730044304e+00,1.000000000008396306e+01,6.600000000000015854e-01,1.569999999999897478e+00,2.869999999999999091e+03,-2.175000000000086420e+00,-4.945000000000177032e+00,1.341795362042132211e+01,-2.132748954316920020e+00
2.000000000000148148e+01,2.999999998670797918e+00,1.000000000011085000e+01,6.600000000000014744e-01,1.569999999999890816e+00,2.869999999999999545e+03,-2.175000000000085532e+00,-4.945000000000165485e+00,1.343388780111905945e+01,-2.199466211167509400e+00
2.000000000000144951e+01,2.999999999090409375e+00,1.000000000011325341e+01,6.599999999999982547e-01,1.569999999999908136e+00,2.869999999999999545e+03,-2.175000000000073541e+00,-4.945000000000128182e+00,1.345389826995713634e+01,-2.206391802798361557e+00
2.000000000000110845e+01,2.999999999803664164e+00,9.999999999998191669e+00,6.599999999999921485e-01,1.569999999999997842e+00,2.869999999999996362e+03,-2.174999999999972289e+00,-4.944999999999926565e+00,1.343371120374640526e+01,-2.238195128708016401e+00
2.000000000000082068e+01,2.999999999293800457e+00,1.000000000002065192e+01,6.599999999999927036e-01,1.570000000000023821e+00,2.869999999999995907e+03,-2.175000000000002931e+00,-4.944999999999959428e+00,1.342563001191051875e+01,-2.239498446357441885e+00
2.000000000000074607e+01,2.999999999944021667e+00,1.000000000002152412e+01,6.599999999999855982e-01,1.570000000000073559e+00,2.869999999999994998e+03,-2.174999999999963851e+00,-4.944999999999858176e+00,1.343415197193108668e+01,-2.231191031238129341e+00
2.000000000000014211e+01,2.999999999478839108e+00,1.000000000004495249e+01,6.599999999999943689e-01,1.570000000000015161e+00,2.869999999999994998e+03,-2.175000000000001155e+00,-4.944999999999918572e+00,1.342487147928326507e+01,-2.231180702005733707e+00
2.000000000000063594e+01,3.000000000026902480e+00,1.000000000005793588e+01,6.599999999999898170e-01,1.570000000000062235e+00,2.869999999999992724e+03,-2.174999999999959410e+00,-4.944999999999926565e+00,1.337009261479614075e+01,-2.262064420066884463e+00
1.999999999999874589e+01,3.000000000294464453e+00,1.000000000008381029e+01,6.600000000000127987e-01,1.569999999999977192e+00,2.869999999999991815e+03,-2.175000000000039346e+00,-4.945000000000065121e+00,1.337078285659926635e+01,-2.211822386270243523e+00
1.999999999999992895e+01,3.000000000949990309e+00,1.000000000008223466e+01,6.600000000000015854e-01,1.570000000000036700e+00,2.869999999999994998e+03,-2.174999999999993605e+00,-4.945000000000010054e+00,1.345517041045573059e+01,-2.160277802202862585e+00
2.000000000000013856e+01,3.000000000709798886e+00,1.000000000007955947e+01,6.600000000000117995e-01,1.569999999999961426e+00,2.869999999999994543e+03,-2.175000000000029132e+00,-4.945000000000121076e+00,1.343969556892188599e+01,-2.164948704224622045e+00
2.000000000000041211e+01,3.000000000882676154e+00,1.000000000008465939e+01,6.599999999999943689e-01,1.570000000000061791e+00,2.869999999999995907e+03,-2.174999999999977174e+00,-4.944999999999969198e+00,1.345006813315720429e+01,-2.231037788736201399e+00
2.000000000000051514e+01,3.000000000767091279e+00,1.000000000007639400e+01,6.599999999999986988e-01,1.570000000000033369e+00,2.869999999999994998e+03,-2.175000000000006928e+00,-4.945000000000035811e+00,1.344530490102271969e+01,-2.204597645116326721e+00
2.000000000000003553e+01,3.000000000798946687e+00,1.000000000007934986e+01,6.600000000000046940e-01,1.570000000000026485e+00,2.869999999999994543e+03,-2.175000000000014921e+00,-4.945000000000062457e+00,1.345234168489463578e+01,-2.206987160186198338e+00
1.999999999999975842e+01,3.000000000789202925e+00,1.000000000007052670e+01,6.599999999999948130e-01,1.570000000000103535e+00,2.869999999999994543e+03,-2.174999999999976286e+00,-4.944999999999946105e+00,1.343944289322907082e+01,-2.172198845820016544e+00
1.999999999999948486e+01,3.000000000992423921e+00,1.000000000007592682e+01,6.600000000000090239e-01,1.569999999999988960e+00,2.869999999999993179e+03,-2.175000000000039790e+00,-4.945000000000075779e+00,1.344646020589818036e+01,-2.163828649280655103e+00
1.999999999999960920e+01,3.000000000860383320e+00,1.000000000008939693e+01,6.600000000000140199e-01,1.569999999999960760e+00,2.869999999999993179e+03,-2.175000000000053113e+00,-4.945000000000130846e+00,1.344361264312803961e+01,-2.204610556733556770e+00
1.999999999999972999e+01,3.000000000769625252e+00,1.000000000007819878e+01,6.599999999999994760e-01,1.570000000000053797e+00,2.869999999999994543e+03,-2.175000000000005596e+00,-4.945000000000010054e+00,1.345061039070178488e+01,-2.209066364243694292e+00
1.999999999999972289e+01,3.000000000668426203e+00,1.000000000008303758e+01,6.600000000000021405e-01,1.570000000000037588e+00,2.869999999999995453e+03,-2.174999999999993161e+00,-4.945000000000010054e+00,1.345192300877834768e+01,-2.192059877923758116e+00
2.000000000000011724e+01,3.000000001434975250e+00,1.000000000005127809e+01,6.600000000000186828e-01,1.569999999999902807e+00,2.869999999999993179e+03,-2.175000000000087752e+00,-4.945000000000185914e+00,1.338504505132890543e+01,-1.904004419069708964e+00
2.000000000000043698e+01,3.000000002052353842e+00,9.999999999966128428e+00,6.600000000000068034e-01,1.569999999999933893e+00,2.869999999999998181e+03,-2.175000000000018918e+00,-4.945000000000116636e+00,1.341501935804396517e+01,-1.909455819253384368e+00
1.999999999999849720e+01,3.000000002158106582e+00,9.999999999982700061e+00,6.600000000000186828e-01,1.569999999999986295e+00,2.870000000000000909e+03,-2.174999999999999822e+00,-4.945000000000034923e+00,1.339266092197986779e+01,-1.962349390170372132e+00
1.999999999999923261e+01,3.000000002310553970e+00,9.999999999987288390e+00,6.600000000000181277e-01,1.569999999999969198e+00,2.870000000000000455e+03,-2.175000000000002931e+00,-4.945000000000072227e+00,1.341002105043044956e+01,-1.946176987003368053e+00
1.999999999999906564e+01,3.000000002344426431e+00,1.000000000001165290e+01,6.599999999999941469e-01,1.570000000000120854e+00,2.869999999999994543e+03,-2.174999999999958966e+00,-4.944999999999886597e+00,1.339121735851164630e+01,-2.200325651250893078e+00
1.999999999999924327e+01,3.000000002606504346e+00,1.000000000001517186e+01,6.600000000000122435e-01,1.569999999999997176e+00,2.869999999999995907e+03,-2.175000000000024247e+00,-4.945000000000087326e+00,1.339014470781696531e+01,-2.196698541428065532e+00
1.999999999999940314e+01,3.000000002672629229e+00,1.000000000000420997e+01,6.599999999999922595e-01,1.570000000000127960e+00,2.869999999999996817e+03,-2.174999999999958078e+00,-4.944999999999899920e+00,1.337691500086126695e+01,-2.128370753986490449e+00
1.999999999999960210e+01,3.000000003313929575e+00,1.000000000000614797e+01,6.599999999999849321e-01,1.570000000000154605e+00,2.869999999999994998e+03,-2.174999999999943423e+00,-4.944999999999838636e+00,1.341353008187732065e+01,-2.175749376547063019e+00
1.999999999999970157e+01,3.000000003613468635e+00,9.999999999997189803e+00,6.599999999999890399e-01,1.570000000000130402e+00,2.869999999999994998e+03,-2.174999999999954969e+00,-4.944999999999886597e+00,1.340581629518191953e+01,-2.212518610326726254e+00
1.999999999999915445e+01,3.000000003232821566e+00,1.000000000000053824e+01,6.599999999999938138e-01,1.570000000000110862e+00,2.869999999999997272e+03,-2.174999999999980727e+00,-4.944999999999929230e+00,1.336091515087201742e+01,-2.171684343048659649e+00
1.999999999999904787e+01,3.000000002504592533e+00,1.000000000000376588e+01,6.600000000000060263e-01,1.570000000000037144e+00,2.869999999999997272e+03,-2.175000000000017142e+00,-4.945000000000042917e+00,1.337168480239438217e+01,-2.175041548228416666e+00
1.999999999999926104e+01,3.000000003160057105e+00,1.000000000000299138e+01,6.600000000000205702e-01,1.569999999999939888e+00,2.869999999999997726e+03,-2.175000000000046008e+00,-4.945000000000167262e+00,1.339894514842128004e+01,-2.163451622700776955e+00
1.999999999999866063e+01,3.000000003305049123e+00,9.999999999991285193e+00,6.599999999999928146e-01,1.570000000000143503e+00,2.869999999999997272e+03,-2.174999999999959854e+00,-4.944999999999874163e+00,1.339678464621992937e+01,-2.158978661510061681e+00
1.999999999999856470e+01,3.000000003347341071e+00,1.000000000000841460e+01,6.599999999999985878e-01,1.570000000000018936e+00,2.869999999999999545e+03,-2.174999999999906564e+00,-4.944999999999780016e+00,1.337976180453888198e+01,-2.173767339222972161e+00
1.999999999999902656e+01,3.000000003596322795e+00,1.000000000001571365e+01,6.600000000000044720e-01,1.569999999999958096e+00,2.870000000000001819e+03,-2.174999999999916334e+00,-4.944999999999850182e+00,1.336280961439974035e+01,-2.129386768501277505e+00
2.000000000000028777e+01,3.000000001433236640e+00,9.999999999944609641e+00,6.600000000000003642e-01,1.570000000000003393e+00,2.869999999999995453e+03,-2.174999999999956302e+00,-4.944999999999983409e+00,1.334215030126689427e+01,-2.115437175880799270e+00
2.000000000000010303e+01,3.000000002283055078e+00,9.999999999985590193e+00,6.600000000000009193e-01,1.569999999999957208e+00,2.870000000000001364e+03,-2.174999999999994493e+00,-4.945000000000022489e+00,1.343180831085648208e+01,-2.365671071870590225e+00
2.000000000000108002e+01,3.000000002173508040e+00,1.000000000002328804e+01,6.600000000000123546e-01,1.569999999999919238e+00,2.869999999999991360e+03,-2.175000000000003819e+00,-4.945000000000089990e+00,1.343252591920572847e+01,-2.436478502737844831e+00
2.000000000000096634e+01,3.000000001936863558e+00,1.000000000001434408e+01,6.600000000000051381e-01,1.569999999999967644e+00,2.869999999999990905e+03,-2.174999999999983835e+00,-4.945000000000017160e+00,1.342396151452705944e+01,-2.441081035197273152e+00
1.999999999999890576e+01,2.999999999619572311e+00,1.000000000005575629e+01,6.600000000000160183e-01,1.570000000000006724e+00,2.869999999999993179e+03,-2.174999999999969624e+00,-4.944999999999983409e+00,1.337355265892256284e+01,-2.186775461393616116e+00
1.999999999999870681e+01,2.999999999651972171e+00,1.000000000004647482e+01,6.600000000000162403e-01,1.570000000000035811e+00,2.869999999999994088e+03,-2.174999999999962519e+00,-4.944999999999972751e+00,1.337332845944171744e+01,-2.158564324979647786e+00
1.999999999999906564e+01,2.999999999311256271e+00,1.000000000003987033e+01,6.600000000000076916e-01,1.570000000000088436e+00,2.869999999999994543e+03,-2.174999999999937650e+00,-4.944999999999909690e+00,1.335395553278813452e+01,-2.101857683845895775e+00
1.999999999999992184e+01,2.999999999515156723e+00,1.000000000006157919e+01,6.600000000000045830e-01,1.570000000000053353e+00,2.869999999999994543e+03,-2.174999999999928324e+00,-4.944999999999908802e+00,1.338308131964151748e+01,-2.193251641788320772e+00
2.000000000000082068e+01,2.999999996399529412e+00,1.000000000009609735e+01,6.599999999999995870e-01,1.569999999999993179e+00,2.869999999999992269e+03,-2.175000000000014033e+00,-4.944999999999993179e+00,1.333337206551395582e+01,-2.081196658242709052e+00
2.000000000000171951e+01,2.999999997565988785e+00,1.000000000005603873e+01,6.600000000000021405e-01,1.569999999999956097e+00,2.869999999999993634e+03,-2.175000000000025135e+00,-4.945000000000105089e+00,1.334598113175448475e+01,-2.321741115477703232e+00
2.000000000000055067e+01,2.999999999601920209e+00,9.999999999968936848e+00,6.599999999999797140e-01,1.570000000000019380e+00,2.870000000000000000e+03,-2.175000000000050893e+00,-4.945000000000051799e+00,1.332081606233074567e+01,-2.025575959037109630e+00
2.000000000000006750e+01,2.999999999693536257e+00,9.999999999975111464e+00,6.600000000000044720e-01,1.570000000000046025e+00,2.870000000000002274e+03,-2.175000000000007816e+00,-4.945000000000105089e+00,1.337289222328165650e+01,-2.031193733248787936e+00
1.999999999999953104e+01,2.999999999660674543e+00,1.000000000002900613e+01,6.600000000000126876e-01,1.569999999999970308e+00,2.870000000000001364e+03,-2.175000000000016698e+00,-4.945000000000094431e+00,1.342976014529853224e+01,-2.424591614953637730e+00
1.999999999999923617e+01,3.000000000444653647e+00,1.000000000000002132e+01,6.600000000000166844e-01,1.569999999999885709e+00,2.869999999999997272e+03,-2.174999999999986500e+00,-4.945000000000046469e+00,1.338690028615405936e+01,-2.123247759166645654e+00
1.999999999999974420e+01,3.000000001056704502e+00,9.999999999979053200e+00,6.599999999999860423e-01,1.570000000000051799e+00,2.869999999999997726e+03,-2.174999999999885691e+00,-4.944999999999765805e+00,1.339931478147809685e+01,-2.185793895411369814e+00
2.000000000000019185e+01,3.000000001017407936e+00,9.999999999979081622e+00,6.600000000000070255e-01,1.569999999999896589e+00,2.869999999999998181e+03,-2.174999999999953193e+00,-4.944999999999989626e+00,1.340204426841695273e+01,-2.178901027036911131e+00
1.999999999999975842e+01,3.000000000817868440e+00,9.999999999982769339e+00,6.599999999999984768e-01,1.569999999999964091e+00,2.869999999999998636e+03,-2.174999999999935429e+00,-4.944999999999905249e+00,1.339390224298858101e+01,-2.171773329475930492e+00
1.999999999999988276e+01,3.000000000468994621e+00,9.999999999991738164e+00,6.600000000000049161e-01,1.569999999999926787e+00,2.869999999999998181e+03,-2.174999999999940314e+00,-4.944999999999952323e+00,1.339882440566022126e+01,-2.177190159883907850e+00
1.999999999999951683e+01,3.000000001660776849e+00,9.999999999994154010e+00,6.600000000000109113e-01,1.569999999999919016e+00,2.870000000000000000e+03,-2.174999999999926992e+00,-4.944999999999942553e+00,1.339930087331624797e+01,-2.185300207359974323e+00
1.999999999999949551e+01,3.000000001215943790e+00,9.999999999999168665e+00,6.600000000000104672e-01,1.569999999999933227e+00,2.870000000000000000e+03,-2.174999999999918554e+00,-4.944999999999931006e+00,1.340514762097835444e+01,-2.188498578823435459e+00
1.999999999999931433e+01,3.000000000705839387e+00,9.999999999965037745e+00,6.600000000000094680e-01,1.569999999999923235e+00,2.870000000000000000e+03,-2.174999999999954081e+00,-4.944999999999957652e+00,1.343189887980834918e+01,-2.105011364703612387e+00
1.999999999999914024e+01,3.000000000634757136e+00,9.999999999977042364e+00,6.600000000000284528e-01,1.569999999999805329e+00,2.869999999999999545e+03,-2.175000000000028244e+00,-4.945000000000153939e+00,1.343386330101997927e+01,-2.138951567271443643e+00
1.999999999999868194e+01,3.000000000769358355e+00,9.999999999973848475e+00,6.600000000000046940e-01,1.569999999999975859e+00,2.870000000000000000e+03,-2.174999999999957634e+00,-4.944999999999913243e+00,1.346539494971726647e+01,-2.153848992040486188e+00
1.999999999999968026e+01,3.000000000014509727e+00,9.999999999975969445e+00,6.600000000000106892e-01,1.569999999999901030e+00,2.870000000000000000e+03,-2.174999999999956746e+00,-4.944999999999980744e+00,1.341429532715012662e+01,-2.112846734856279607e+00
1.999999999999965894e+01,2.999999999961787012e+00,9.999999999974525267e+00,6.600000000000074696e-01,1.569999999999921680e+00,2.869999999999999545e+03,-2.174999999999949640e+00,-4.944999999999952323e+00,1.341421224957997893e+01,-2.159639380556008792e+00
1.999999999999968381e+01,3.000000000106352704e+00,9.999999999994765076e+00,6.600000000000049161e-01,1.569999999999940554e+00,2.870000000000000000e+03,-2.174999999999942535e+00,-4.944999999999922125e+00,1.343329561287390383e+01,-2.145206600557625798e+00
1.999999999999993960e+01,3.000000000308161940e+00,9.999999999994594546e+00,6.600000000000141309e-01,1.569999999999864837e+00,2.870000000000000000e+03,-2.174999999999970068e+00,-4.945000000000020712e+00,1.344800175477035786e+01,-2.193155830092957448e+00
1.999999999999995737e+01,3.000000000558149971e+00,9.999999999977312370e+00,6.600000000000028066e-01,1.569999999999930340e+00,2.870000000000001364e+03,-2.174999999999932765e+00,-4.944999999999916795e+00,1.345419767497940811e+01,-2.151063427848398213e+00
1.999999999999975842e+01,3.000000000680762113e+00,9.999999999967961628e+00,6.599999999999955902e-01,1.570000000000004725e+00,2.870000000000000455e+03,-2.174999999999910116e+00,-4.944999999999844853e+00,1.343278705486812363e+01,-2.141033114450735741e+00
