1.999999999999934630e+01,3.000000001444122155e+00,9.999999999992128963e+00,6.599999999999899281e-01,1.570000000000245866e+00,2.869999999999969077e+03,-2.174999999999973621e+00,-4.944999999999931006e+00,1.341006617230359765e+01,-2.178958448333414122e+00
1.999999999999863221e+01,3.000000000497144104e+00,9.999999999958427921e+00,6.600000000000212363e-01,1.570000000000016716e+00,2.869999999999979082e+03,-2.175000000000077982e+00,-4.945000000000230322e+00,1.340222339397965179e+01,-2.163272086083873003e+00
1.999999999999968026e+01,3.000000000360206975e+00,9.999999999999412026e+00,6.599999999999780487e-01,1.570000000000093987e+00,2.869999999999994998e+03,-2.174999999999895017e+00,-4.944999999999740936e+00,1.340823621142251021e+01,-2.174086274492315951e+00
1.999999999999910472e+01,3.000000000445141257e+00,9.999999999988629540e+00,6.600000000000978417e-01,1.569999999999842411e+00,2.870000000000003638e+03,-2.175000000000364420e+00,-4.945000000001200213e+00,1.341015847273052941e+01,-2.176632656054970028e+00
1.999999999999992184e+01,3.000000001545625850e+00,9.999999999982760457e+00,6.599999999999119904e-01,1.570000000000263407e+00,2.869999999999966349e+03,-2.174999999999619238e+00,-4.944999999998835882e+00,1.341383694435878304e+01,-2.176888355809012410e+00
1.999999999999975131e+01,3.000000000444630555e+00,9.999999999986064481e+00,6.599999999999638378e-01,1.570000000000091767e+00,2.869999999999997726e+03,-2.174999999999888800e+00,-4.944999999999617479e+00,1.341913693412826980e+01,-2.170531529444686747e+00
2.000000000000035172e+01,3.000000000724972971e+00,9.999999999997209343e+00,6.599999999999528466e-01,1.570000000000271845e+00,2.869999999999987267e+03,-2.174999999999823075e+00,-4.944999999999487805e+00,1.342051780018414497e+01,-2.155073710418317745e+00
1.999999999999943867e+01,3.000000000882042439e+00,9.999999999981985965e+00,6.600000000000315614e-01,1.570000000000027596e+00,2.869999999999985903e+03,-2.175000000000159250e+00,-4.945000000000451479e+00,1.341565957664140640e+01,-2.161721934583499927e+00
1.999999999999995381e+01,3.000000000475576911e+00,1.000000000000959233e+01,6.599999999999022204e-01,1.570000000000395746e+00,2.869999999999987267e+03,-2.174999999999602363e+00,-4.944999999998881179e+00,1.340779601832044499e+01,-2.160791607238851775e+00
1.999999999999962697e+01,3.000000000636801722e+00,1.000000000001924150e+01,6.599999999999883737e-01,1.570000000000138174e+00,2.869999999999989541e+03,-2.174999999999998046e+00,-4.944999999999975415e+00,1.340115146293663528e+01,-2.173707309599607118e+00
2.000000000000044054e+01,3.000000000736025463e+00,1.000000000003414158e+01,6.599999999999720535e-01,1.570000000000074669e+00,2.870000000000004093e+03,-2.174999999999920330e+00,-4.944999999999764917e+00,1.341333884261794474e+01,-2.177961665720049123e+00
1.999999999999949196e+01,3.000000000461880312e+00,9.999999999961339370e+00,6.600000000000539879e-01,1.569999999999939444e+00,2.869999999999991815e+03,-2.175000000000292477e+00,-4.945000000000702833e+00,1.340798184687296235e+01,-2.172496726753593954e+00
1.999999999999911537e+01,3.000000001301843966e+00,9.999999999976592946e+00,6.599999999999804912e-01,1.570000000000023377e+00,2.869999999999961346e+03,-2.174999999999825295e+00,-4.944999999999516227e+00,1.340405253372588668e+01,-2.160213966868401503e+00
1.999999999999971578e+01,3.000000000388495902e+00,1.000000000000898837e+01,6.600000000000495470e-01,1.570000000000010054e+00,2.869999999999992724e+03,-2.175000000000242295e+00,-4.945000000000717932e+00,1.340855241939510201e+01,-2.158790063216977639e+00
2.000000000000012434e+01,3.000000001289020002e+00,9.999999999997386979e+00,6.600000000000147971e-01,1.570000000000007834e+00,2.870000000000000000e+03,-2.175000000000064215e+00,-4.945000000000236540e+00,1.342476032663887686e+01,-2.152826663032050725e+00
1.999999999999882050e+01,3.000000000827671709e+00,9.999999999988084198e+00,6.600000000000054712e-01,1.570000000000018936e+00,2.870000000000000000e+03,-2.175000000000002487e+00,-4.945000000000070450e+00,1.340412281650908177e+01,-2.185867377778649256e+00
1.999999999999888090e+01,3.000000001363017699e+00,9.999999999976136422e+00,6.600000000000196820e-01,1.570000000000082441e+00,2.869999999999994998e+03,-2.175000000000069544e+00,-4.945000000000233875e+00,1.340721448857607889e+01,-2.169256450658104907e+00
2.000000000000005684e+01,3.000000001042391506e+00,1.000000000001324629e+01,6.599999999999919265e-01,1.570000000000099760e+00,2.870000000000005457e+03,-2.174999999999953637e+00,-4.944999999999959428e+00,1.340220413592374982e+01,-2.164847876484487177e+00
1.999999999999885247e+01,3.000000000917861342e+00,1.000000000002225242e+01,6.600000000000368905e-01,1.569999999999993623e+00,2.869999999999997726e+03,-2.175000000000156586e+00,-4.945000000000466578e+00,1.340235825898767175e+01,-2.181250116086504320e+00
1.999999999999868194e+01,3.000000000792809374e+00,9.999999999998561151e+00,6.600000000000099121e-01,1.569999999999925455e+00,2.870000000000001364e+03,-2.175000000000003819e+00,-4.945000000000089102e+00,1.339567396591485604e+01,-2.177367267464507705e+00
1.999999999999909406e+01,3.000000000701892766e+00,9.999999999993608668e+00,6.599999999999858202e-01,1.570000000000003837e+00,2.869999999999986358e+03,-2.174999999999877254e+00,-4.944999999999740936e+00,1.340180595294973465e+01,-2.157627145515068179e+00
1.999999999999910116e+01,3.000000001183437348e+00,1.000000000002173195e+01,6.600000000000845191e-01,1.569999999999837970e+00,2.869999999999989996e+03,-2.175000000000296918e+00,-4.945000000001027907e+00,1.340727672561391692e+01,-2.160684771848182972e+00
2.000000000000015987e+01,3.000000001033805042e+00,9.999999999990368593e+00,6.599999999999571765e-01,1.570000000000288276e+00,2.869999999999963165e+03,-2.174999999999796874e+00,-4.944999999999467377e+00,1.340460104729064739e+01,-2.157434724784567770e+00
1.999999999999932143e+01,3.000000000400047551e+00,1.000000000000829203e+01,6.600000000000052491e-01,1.570000000000105977e+00,2.869999999999993179e+03,-2.175000000000019362e+00,-4.945000000000063345e+00,1.341364942857525477e+01,-2.168930465700657617e+00
1.999999999999974065e+01,3.000000000959480495e+00,1.000000000003037748e+01,6.599999999999548450e-01,1.570000000000183027e+00,2.869999999999985448e+03,-2.174999999999767564e+00,-4.944999999999337703e+00,1.339706057173306064e+01,-2.164084698476934854e+00
1.999999999999977618e+01,3.000000001128330762e+00,9.999999999981298515e+00,6.600000000000403322e-01,1.569999999999946994e+00,2.870000000000000909e+03,-2.175000000000226308e+00,-4.945000000000558060e+00,1.341738148392613894e+01,-2.180887214497867710e+00
2.000000000000003197e+01,3.000000001235726632e+00,9.999999999985739407e+00,6.599999999999518474e-01,1.570000000000216778e+00,2.870000000000003183e+03,-2.174999999999891909e+00,-4.944999999999597051e+00,1.340692559402670625e+01,-2.178841370096153973e+00
1.999999999999966604e+01,3.000000000813159762e+00,1.000000000002357758e+01,6.599999999999935918e-01,1.570000000000069562e+00,2.869999999999993634e+03,-2.174999999999945643e+00,-4.944999999999885709e+00,1.339743819090062082e+01,-2.187715962952106352e+00
2.000000000000077094e+01,2.999999999892488223e+00,1.000000000000870060e+01,6.599999999999914824e-01,1.570000000000026708e+00,2.869999999999996362e+03,-2.174999999999972289e+00,-4.944999999999870610e+00,1.341726381830903136e+01,-2.182534417011410710e+00
1.999999999999954525e+01,3.000000001127070881e+00,1.000000000001598011e+01,6.599999999999609512e-01,1.570000000000299822e+00,2.869999999999985448e+03,-2.174999999999838618e+00,-4.944999999999586393e+00,1.340626420431905430e+01,-2.160322414271900637e+00
1.999999999999986855e+01,3.000000001255145321e+00,1.000000000000504130e+01,6.600000000000000311e-01,1.570000000000223217e+00,2.869999999999967258e+03,-2.175000000000010925e+00,-4.945000000000033147e+00,1.341754254806751945e+01,-2.175091694684309296e+00
2.000000000000021672e+01,3.000000000359316576e+00,9.999999999999763745e+00,6.600000000000088018e-01,1.570000000000008278e+00,2.870000000000006821e+03,-2.175000000000134381e+00,-4.945000000000286278e+00,1.340753270664222541e+01,-2.181223584086851019e+00
1.999999999999929301e+01,3.000000000671761757e+00,9.999999999985053734e+00,6.600000000000316724e-01,1.570000000000021156e+00,2.869999999999987267e+03,-2.175000000000177458e+00,-4.945000000000452367e+00,1.341384796259116285e+01,-2.179377407343648265e+00
1.999999999999996803e+01,2.999999999894651381e+00,9.999999999985883292e+00,6.600000000000151301e-01,1.570000000000221219e+00,2.869999999999969077e+03,-2.175000000000158362e+00,-4.945000000000374207e+00,1.342170261361335548e+01,-2.166584185972971088e+00
2.000000000000033040e+01,2.999999999540540863e+00,1.000000000003749534e+01,6.600000000000558753e-01,1.569999999999814433e+00,2.869999999999996362e+03,-2.175000000000198774e+00,-4.945000000000661089e+00,1.340644188819726246e+01,-2.176382391123127480e+00
1.999999999999945999e+01,3.000000001877181521e+00,9.999999999972972731e+00,6.599999999999585087e-01,1.570000000000379980e+00,2.869999999999991360e+03,-2.174999999999867040e+00,-4.944999999999705409e+00,1.341896439844651923e+01,-2.164563676787997881e+00
1.999999999999962341e+01,3.000000000961252855e+00,9.999999999983458565e+00,6.599999999999816014e-01,1.570000000000199902e+00,2.870000000000006366e+03,-2.175000000000058886e+00,-4.945000000000056239e+00,1.340891939819935708e+01,-2.169909329074422022e+00
1.999999999999988276e+01,3.000000000511563236e+00,1.000000000000644995e+01,6.599999999999410782e-01,1.570000000000207896e+00,2.870000000000002274e+03,-2.174999999999772449e+00,-4.944999999999329710e+00,1.341455959490451200e+01,-2.175366280737329294e+00
1.999999999999928946e+01,3.000000001129045302e+00,9.999999999983806731e+00,6.599999999999603961e-01,1.570000000000264295e+00,2.869999999999996362e+03,-2.174999999999883915e+00,-4.944999999999653895e+00,1.340699505335861730e+01,-2.171702570560601231e+00
1.999999999999938183e+01,3.000000001281270645e+00,9.999999999973887554e+00,6.599999999999922595e-01,1.570000000000107532e+00,2.869999999999991815e+03,-2.175000000000046452e+00,-4.945000000000004725e+00,1.341616753526567685e+01,-2.159270521147087507e+00
2.000000000000055422e+01,3.000000000612850659e+00,1.000000000003374012e+01,6.600000000000479927e-01,1.569999999999833751e+00,2.869999999999988177e+03,-2.175000000000133937e+00,-4.945000000000478124e+00,1.341560429621869943e+01,-2.172290800644780528e+00
2.000000000000045475e+01,3.000000000654848620e+00,1.000000000001916689e+01,6.599999999999701661e-01,1.570000000000155271e+00,2.869999999999971806e+03,-2.174999999999844835e+00,-4.944999999999528661e+00,1.341971106937037028e+01,-2.174821745445721710e+00
1.999999999999937828e+01,3.000000001573966291e+00,1.000000000002660094e+01,6.600000000000211253e-01,1.570000000000117746e+00,2.869999999999961801e+03,-2.174999999999982059e+00,-4.945000000000035811e+00,1.340529884851970266e+01,-2.166823001368864521e+00
1.999999999999899103e+01,3.000000000513637133e+00,9.999999999986945554e+00,6.600000000000411093e-01,1.570000000000050244e+00,2.869999999999987267e+03,-2.175000000000250733e+00,-4.945000000000622009e+00,1.341774315361964653e+01,-2.172306730286225562e+00
2.000000000000018474e+01,2.999999999881510782e+00,1.000000000002207123e+01,6.599999999999814904e-01,1.570000000000115525e+00,2.870000000000005912e+03,-2.174999999999975397e+00,-4.944999999999888374e+00,1.341105145784063701e+01,-2.170302174376482096e+00
1.999999999999903366e+01,3.000000001219377044e+00,9.999999999989633181e+00,6.600000000000357803e-01,1.570000000000075557e+00,2.870000000000007731e+03,-2.175000000000152145e+00,-4.945000000000498552e+00,1.340876485486979774e+01,-2.167169543398246301e+00
1.999999999999993960e+01,3.000000001519997461e+00,9.999999999965124786e+00,6.600000000000180167e-01,1.570000000000193685e+00,2.869999999999975444e+03,-2.175000000000098410e+00,-4.945000000000344009e+00,1.342824721554199385e+01,-2.160568428313739631e+00
1.999999999999998934e+01,2.999999999758998115e+00,1.000000000003347544e+01,6.599999999999917044e-01,1.569999999999907914e+00,2.869999999999992724e+03,-2.174999999999932321e+00,-4.944999999999752482e+00,1.340600488663732826e+01,-2.157698329219556399e+00
