1.999999999999922906e+01,3.000000001441614828e+00,9.999999999991549871e+00,6.599999999999799360e-01,1.570000000000246976e+00,2.869999999999970896e+03,-2.174999999999871925e+00,-4.944999999999693863e+00,1.340694936741015120e+01,-2.169410204891335514e+00
1.999999999999911893e+01,3.000000000549503998e+00,9.999999999964414243e+00,6.599999999999950351e-01,1.570000000000070228e+00,2.869999999999984993e+03,-2.174999999999998934e+00,-4.944999999999963869e+00,1.340709014909423047e+01,-2.155664332245079251e+00
1.999999999999927525e+01,3.000000000459385863e+00,9.999999999993065103e+00,6.599999999999869305e-01,1.570000000000047580e+00,2.869999999999990450e+03,-2.174999999999932321e+00,-4.944999999999795115e+00,1.340708015141935761e+01,-2.175896371347467273e+00
1.999999999999914380e+01,3.000000000210187423e+00,9.999999999985398347e+00,6.600000000001158273e-01,1.569999999999770468e+00,2.869999999999995907e+03,-2.175000000000415046e+00,-4.945000000001372520e+00,1.341495398241041137e+01,-2.168481463924313069e+00
2.000000000000050449e+01,3.000000001621731638e+00,9.999999999992112976e+00,6.599999999998586997e-01,1.570000000000441931e+00,2.869999999999977263e+03,-2.174999999999451816e+00,-4.944999999998300311e+00,1.341812645043452079e+01,-2.180480222151904623e+00
2.000000000000008527e+01,3.000000000058840932e+00,1.000000000000849809e+01,6.599999999999904832e-01,1.569999999999974305e+00,2.870000000000001364e+03,-2.174999999999980282e+00,-4.944999999999901696e+00,1.341829340821960415e+01,-2.175475074018612176e+00
2.000000000000051870e+01,3.000000000730993932e+00,1.000000000000387601e+01,6.599999999999219824e-01,1.570000000000233431e+00,2.870000000000002728e+03,-2.174999999999682743e+00,-4.944999999999093454e+00,1.341480946979330113e+01,-2.157617704089446420e+00
1.999999999999961986e+01,3.000000001143044770e+00,9.999999999990764721e+00,6.599999999999878186e-01,1.570000000000112639e+00,2.869999999999995907e+03,-2.175000000000021583e+00,-4.945000000000014495e+00,1.341196754711181072e+01,-2.161334415491454219e+00
1.999999999999979394e+01,3.000000000475368189e+00,9.999999999999298339e+00,6.599999999999315303e-01,1.570000000000287832e+00,2.869999999999983629e+03,-2.174999999999731148e+00,-4.944999999999181384e+00,1.340783147120522756e+01,-2.162016363118690165e+00
1.999999999999972289e+01,3.000000001154512042e+00,1.000000000003396572e+01,6.600000000000272316e-01,1.570000000000069340e+00,2.869999999999993179e+03,-2.175000000000156586e+00,-4.945000000000487894e+00,1.340127111382270542e+01,-2.173159713705056006e+00
2.000000000000058975e+01,3.000000000601384276e+00,1.000000000002855671e+01,6.599999999999291989e-01,1.570000000000247420e+00,2.869999999999999091e+03,-2.174999999999777334e+00,-4.944999999999310170e+00,1.341622909935725794e+01,-2.166127665795831270e+00
1.999999999999966604e+01,2.999999999818316443e+00,9.999999999968872899e+00,6.600000000000818545e-01,1.569999999999814433e+00,2.869999999999992724e+03,-2.175000000000358646e+00,-4.945000000000945306e+00,1.340706505706399554e+01,-2.168873534731156294e+00
1.999999999999923261e+01,3.000000000659713617e+00,9.999999999974253484e+00,6.600000000000140199e-01,1.569999999999944773e+00,2.869999999999975444e+03,-2.174999999999984723e+00,-4.945000000000004725e+00,1.340385467569729983e+01,-2.159278217023260726e+00
1.999999999999994316e+01,3.000000000356735530e+00,1.000000000000968470e+01,6.600000000000200151e-01,1.570000000000060236e+00,2.869999999999999091e+03,-2.175000000000153921e+00,-4.945000000000426610e+00,1.341551844476566124e+01,-2.155992907958754312e+00
2.000000000000012790e+01,3.000000002130168042e+00,9.999999999977619680e+00,6.599999999999601741e-01,1.570000000000182361e+00,2.869999999999993634e+03,-2.174999999999854161e+00,-4.944999999999580176e+00,1.342033298506279593e+01,-2.138732445857552733e+00
1.999999999999853273e+01,3.000000000932459887e+00,9.999999999990787813e+00,6.599999999999844880e-01,1.570000000000037810e+00,2.870000000000000909e+03,-2.174999999999872813e+00,-4.944999999999740048e+00,1.338953713112692334e+01,-2.182652031297544148e+00
1.999999999999888445e+01,3.000000000915704845e+00,9.999999999982058796e+00,6.600000000000098010e-01,1.570000000000114193e+00,2.869999999999994543e+03,-2.174999999999999378e+00,-4.945000000000081108e+00,1.339911225911521697e+01,-2.168935646917916849e+00
2.000000000000075318e+01,3.000000000514002618e+00,1.000000000000184563e+01,6.599999999999498490e-01,1.570000000000208118e+00,2.869999999999989996e+03,-2.174999999999760902e+00,-4.944999999999361684e+00,1.340522852827595379e+01,-2.165399019129523150e+00
1.999999999999867484e+01,3.000000000931451805e+00,1.000000000000535572e+01,6.599999999999999201e-01,1.570000000000060902e+00,2.869999999999992724e+03,-2.174999999999997602e+00,-4.945000000000009166e+00,1.340099191401760947e+01,-2.177599522908920893e+00
1.999999999999864286e+01,3.000000000922928400e+00,9.999999999985259791e+00,6.600000000000310063e-01,1.569999999999890816e+00,2.869999999999993634e+03,-2.175000000000085087e+00,-4.945000000000293383e+00,1.340001485704053685e+01,-2.180441646809872402e+00
1.999999999999939959e+01,3.000000000693344937e+00,9.999999999997990940e+00,6.600000000000064704e-01,1.569999999999940332e+00,2.869999999999980446e+03,-2.174999999999990941e+00,-4.945000000000019824e+00,1.341025112991514234e+01,-2.151600976109027563e+00
1.999999999999938893e+01,3.000000001080213252e+00,1.000000000001119105e+01,6.600000000000170175e-01,1.570000000000000728e+00,2.869999999999996362e+03,-2.175000000000077094e+00,-4.945000000000290719e+00,1.340882473855876533e+01,-2.165617456510315009e+00
1.999999999999974420e+01,3.000000000945859835e+00,9.999999999963822717e+00,6.599999999999558442e-01,1.570000000000313589e+00,2.869999999999966349e+03,-2.174999999999797318e+00,-4.944999999999445173e+00,1.341252321114023438e+01,-2.163163669915064702e+00
1.999999999999908340e+01,3.000000000872524275e+00,1.000000000000454392e+01,6.600000000000078026e-01,1.570000000000123741e+00,2.869999999999992724e+03,-2.175000000000050449e+00,-4.945000000000115747e+00,1.341281750744243695e+01,-2.161609805005991092e+00
2.000000000000004263e+01,3.000000000780573384e+00,1.000000000002838085e+01,6.599999999999436318e-01,1.570000000000267848e+00,2.869999999999992724e+03,-2.174999999999765787e+00,-4.944999999999298623e+00,1.339980281252034899e+01,-2.166389673974956409e+00
2.000000000000001066e+01,3.000000001267017602e+00,9.999999999994143352e+00,6.600000000000452172e-01,1.569999999999997398e+00,2.869999999999999545e+03,-2.175000000000234746e+00,-4.945000000000626450e+00,1.341775552370608260e+01,-2.172506246846513278e+00
1.999999999999987921e+01,3.000000001044769604e+00,9.999999999995996092e+00,6.599999999999531797e-01,1.570000000000299600e+00,2.869999999999995453e+03,-2.174999999999867040e+00,-4.944999999999565077e+00,1.340246327171935903e+01,-2.170089425708483066e+00
1.999999999999992184e+01,3.000000000583445736e+00,1.000000000001524647e+01,6.599999999999900391e-01,1.570000000000050910e+00,2.869999999999985448e+03,-2.174999999999941203e+00,-4.944999999999834195e+00,1.340479517256453157e+01,-2.187242133533873645e+00
2.000000000000044764e+01,2.999999999676894902e+00,1.000000000000793676e+01,6.600000000000113554e-01,1.570000000000005835e+00,2.869999999999993179e+03,-2.175000000000057554e+00,-4.945000000000131735e+00,1.341901258696536381e+01,-2.189777141012208439e+00
1.999999999999951328e+01,3.000000001547262762e+00,1.000000000002113865e+01,6.599999999999304201e-01,1.570000000000386420e+00,2.869999999999992724e+03,-2.174999999999727596e+00,-4.944999999999282636e+00,1.340318254797167441e+01,-2.171664139088274048e+00
2.000000000000001776e+01,3.000000001646030867e+00,9.999999999993839594e+00,6.600000000000029177e-01,1.570000000000257412e+00,2.869999999999962256e+03,-2.175000000000033129e+00,-4.945000000000080220e+00,1.342385814930079668e+01,-2.174332348620459765e+00
2.000000000000029132e+01,3.000000000559250868e+00,9.999999999993749000e+00,6.600000000000311173e-01,1.570000000000011164e+00,2.869999999999995907e+03,-2.175000000000202327e+00,-4.945000000000503881e+00,1.341181093924862111e+01,-2.184093681698289213e+00
1.999999999999938538e+01,3.000000000529990274e+00,9.999999999996044053e+00,6.600000000000090239e-01,1.570000000000077556e+00,2.869999999999984539e+03,-2.175000000000082423e+00,-4.945000000000191243e+00,1.341649675867202163e+01,-2.179418000853482695e+00
1.999999999999993960e+01,2.999999999982799981e+00,9.999999999994216182e+00,6.599999999999920375e-01,1.570000000000218998e+00,2.869999999999972715e+03,-2.175000000000040679e+00,-4.945000000000050022e+00,1.341725895469176422e+01,-2.171411684672566178e+00
2.000000000000038014e+01,2.999999999812918094e+00,1.000000000004230216e+01,6.600000000000345590e-01,1.569999999999855289e+00,2.870000000000004547e+03,-2.175000000000152145e+00,-4.945000000000483453e+00,1.340504305715991684e+01,-2.172139422313245749e+00
1.999999999999901590e+01,3.000000001849152387e+00,9.999999999982479792e+00,6.599999999999434097e-01,1.570000000000441487e+00,2.869999999999995453e+03,-2.174999999999830624e+00,-4.944999999999599716e+00,1.341192795725217302e+01,-2.168334835100451219e+00
1.999999999999923261e+01,3.000000001223997348e+00,9.999999999976935783e+00,6.599999999999880407e-01,1.570000000000173035e+00,2.869999999999997726e+03,-2.175000000000016698e+00,-4.945000000000023377e+00,1.340819482611167679e+01,-2.160566326453793096e+00
2.000000000000025935e+01,3.000000000038387959e+00,1.000000000000157918e+01,6.599999999999737188e-01,1.570000000000216112e+00,2.869999999999990450e+03,-2.174999999999943867e+00,-4.944999999999767581e+00,1.341804545688581563e+01,-2.174720725703243929e+00
1.999999999999938183e+01,3.000000001089606627e+00,9.999999999970087927e+00,6.599999999999208722e-01,1.570000000000344009e+00,2.869999999999998181e+03,-2.174999999999763567e+00,-4.944999999999231122e+00,1.340345505206237320e+01,-2.164859911694168471e+00
1.999999999999949196e+01,3.000000001416485595e+00,9.999999999978381737e+00,6.599999999999718314e-01,1.570000000000170592e+00,2.869999999999994998e+03,-2.174999999999979394e+00,-4.944999999999778240e+00,1.341333192423221377e+01,-2.160463950346203976e+00
2.000000000000087041e+01,3.000000000788667798e+00,1.000000000003329959e+01,6.600000000000039169e-01,1.570000000000018492e+00,2.869999999999978627e+03,-2.174999999999971401e+00,-4.944999999999977192e+00,1.342051334703683096e+01,-2.168788140645874218e+00
2.000000000000044409e+01,3.000000000396255473e+00,1.000000000001028511e+01,6.599999999999670575e-01,1.570000000000148610e+00,2.869999999999986358e+03,-2.174999999999837730e+00,-4.944999999999526885e+00,1.342225050911808815e+01,-2.173171401880934717e+00
1.999999999999882405e+01,3.000000002195618354e+00,9.999999999994861000e+00,6.600000000000114664e-01,1.570000000000258744e+00,2.869999999999960437e+03,-2.174999999999982059e+00,-4.945000000000024265e+00,1.340686029621514130e+01,-2.160168241988127402e+00
1.999999999999906919e+01,3.000000000376655152e+00,1.000000000001224087e+01,6.600000000000210143e-01,1.570000000000069118e+00,2.869999999999997272e+03,-2.175000000000128608e+00,-4.945000000000308482e+00,1.341856543019895476e+01,-2.173854137516083362e+00
1.999999999999941380e+01,3.000000000718660687e+00,1.000000000000394706e+01,6.599999999999642819e-01,1.570000000000209672e+00,2.869999999999998636e+03,-2.174999999999892797e+00,-4.944999999999676987e+00,1.341194188547127730e+01,-2.167867007474092222e+00
1.999999999999889511e+01,3.000000001000773242e+00,9.999999999988524735e+00,6.600000000000503242e-01,1.570000000000034701e+00,2.869999999999999091e+03,-2.175000000000220979e+00,-4.945000000000674412e+00,1.341128672972643265e+01,-2.170511611889423875e+00
1.999999999999995026e+01,3.000000001231613478e+00,9.999999999947318585e+00,6.600000000000236788e-01,1.570000000000120854e+00,2.869999999999983174e+03,-2.175000000000185452e+00,-4.945000000000460361e+00,1.342992010333056463e+01,-2.167502676595766786e+00
2.000000000000024158e+01,3.000000000117148513e+00,1.000000000002263612e+01,6.599999999999619504e-01,1.570000000000065343e+00,2.869999999999985448e+03,-2.174999999999848388e+00,-4.944999999999451390e+00,1.340386015051517354e+01,-2.164828102758719286e+00
