1.999999999999815614e+01,3.000000001361959434e+00,9.999999999981803001e+00,6.600000000000073586e-01,1.570000000000324247e+00,2.869999999999973625e+03,-2.175000000000026468e+00,-4.945000000000143281e+00,1.340067313384278158e+01,-2.161970661114271941e+00
1.999999999999892708e+01,3.000000000301532577e+00,9.999999999956378005e+00,6.599999999999894840e-01,1.570000000000092877e+00,2.869999999999984539e+03,-2.174999999999948308e+00,-4.944999999999883933e+00,1.340799849259242293e+01,-2.150572829767719796e+00
1.999999999999893063e+01,3.000000000065746519e+00,1.000000000000750511e+01,6.599999999999981437e-01,1.570000000000018048e+00,2.869999999999983174e+03,-2.174999999999937206e+00,-4.944999999999851958e+00,1.340345767161822188e+01,-2.183652895961636364e+00
1.999999999999937117e+01,3.000000000090665697e+00,9.999999999999566569e+00,6.600000000000993960e-01,1.569999999999835971e+00,2.869999999999999545e+03,-2.175000000000324896e+00,-4.945000000001164686e+00,1.340857617708214633e+01,-2.160694220622711548e+00
2.000000000000068567e+01,3.000000001197131727e+00,9.999999999989451993e+00,6.599999999998766853e-01,1.570000000000369988e+00,2.869999999999981355e+03,-2.174999999999535749e+00,-4.944999999998492157e+00,1.342159550389484224e+01,-2.174776066191864476e+00
2.000000000000030198e+01,3.000000000288775226e+00,9.999999999978495424e+00,6.599999999999789368e-01,1.570000000000087326e+00,2.869999999999987722e+03,-2.174999999999954081e+00,-4.944999999999762252e+00,1.342715424157985105e+01,-2.172767814807493369e+00
2.000000000000029488e+01,3.000000001369025338e+00,9.999999999981110221e+00,6.599999999999337508e-01,1.570000000000198570e+00,2.869999999999995907e+03,-2.174999999999707168e+00,-4.944999999999112106e+00,1.341201169615976951e+01,-2.157233603648775144e+00
1.999999999999899103e+01,3.000000001396308402e+00,1.000000000000473044e+01,6.600000000000136868e-01,1.570000000000068674e+00,2.870000000000005002e+03,-2.175000000000132161e+00,-4.945000000000394635e+00,1.341399601541613862e+01,-2.153200484951023785e+00
2.000000000000007461e+01,3.000000000921212884e+00,9.999999999976955323e+00,6.599999999999556222e-01,1.570000000000265850e+00,2.869999999999989996e+03,-2.174999999999877698e+00,-4.944999999999619256e+00,1.341605713876920625e+01,-2.150902853168525475e+00
2.000000000000074607e+01,3.000000000915092890e+00,1.000000000003727152e+01,6.599999999999764944e-01,1.570000000000228990e+00,2.870000000000002728e+03,-2.175000000000027800e+00,-4.944999999999978968e+00,1.341202859948032966e+01,-2.175769891506837084e+00
2.000000000000045119e+01,3.000000001039420106e+00,1.000000000003642242e+01,6.599999999998731326e-01,1.570000000000475682e+00,2.869999999999999545e+03,-2.174999999999589484e+00,-4.944999999998706208e+00,1.341408586846439199e+01,-2.170129247733341149e+00
1.999999999999950973e+01,2.999999999860296196e+00,9.999999999966560082e+00,6.600000000000972866e-01,1.569999999999772688e+00,2.869999999999989541e+03,-2.175000000000441691e+00,-4.945000000001224194e+00,1.340989619469452165e+01,-2.164514345871744627e+00
1.999999999999972644e+01,2.999999999710408982e+00,9.999999999971731057e+00,6.600000000000788569e-01,1.569999999999682094e+00,2.869999999999980901e+03,-2.175000000000331557e+00,-4.945000000000842277e+00,1.341040835082780980e+01,-2.171354343129797471e+00
1.999999999999973710e+01,3.000000000656350974e+00,1.000000000000202860e+01,6.600000000000334488e-01,1.570000000000031593e+00,2.869999999999995907e+03,-2.175000000000177458e+00,-4.945000000000515428e+00,1.341000777526538812e+01,-2.163594930132445082e+00
2.000000000000047606e+01,3.000000002183565329e+00,9.999999999979788612e+00,6.599999999999485167e-01,1.570000000000234541e+00,2.870000000000006366e+03,-2.174999999999872813e+00,-4.944999999999549090e+00,1.342322153106772653e+01,-2.138605148885635021e+00
1.999999999999938538e+01,3.000000000756266161e+00,9.999999999969084286e+00,6.600000000000086908e-01,1.570000000000083107e+00,2.869999999999996362e+03,-2.175000000000042455e+00,-4.945000000000168150e+00,1.341093039874942860e+01,-2.186391769326310186e+00
1.999999999999952394e+01,3.000000001237236980e+00,9.999999999982000176e+00,6.599999999999568434e-01,1.570000000000268292e+00,2.869999999999979991e+03,-2.174999999999749356e+00,-4.944999999999388329e+00,1.340996469115680334e+01,-2.178177777301514073e+00
1.999999999999966249e+01,3.000000001090092905e+00,9.999999999986155075e+00,6.599999999999671685e-01,1.570000000000269180e+00,2.869999999999989996e+03,-2.174999999999821743e+00,-4.944999999999580176e+00,1.339608750098801870e+01,-2.164163594302875193e+00
1.999999999999910472e+01,3.000000000474947193e+00,1.000000000002993517e+01,6.600000000000005862e-01,1.569999999999968532e+00,2.869999999999996817e+03,-2.174999999999917666e+00,-4.944999999999850182e+00,1.339116934590853880e+01,-2.190475553641000328e+00
1.999999999999875655e+01,3.000000000976936754e+00,1.000000000002248512e+01,6.600000000000169065e-01,1.570000000000017160e+00,2.869999999999989541e+03,-2.174999999999991385e+00,-4.945000000000082885e+00,1.339786189456291332e+01,-2.181968396502280694e+00
1.999999999999947775e+01,3.000000000954269996e+00,1.000000000000445333e+01,6.599999999999542899e-01,1.570000000000163931e+00,2.869999999999978172e+03,-2.174999999999806644e+00,-4.944999999999483364e+00,1.340379079742146473e+01,-2.167598190587106899e+00
1.999999999999922906e+01,3.000000001122365312e+00,1.000000000002162537e+01,6.599999999999900391e-01,1.570000000000104201e+00,2.869999999999991815e+03,-2.174999999999926548e+00,-4.944999999999887486e+00,1.340581910709328106e+01,-2.175772717387425725e+00
1.999999999999917932e+01,3.000000000555862911e+00,9.999999999972652986e+00,6.599999999999831557e-01,1.570000000000199014e+00,2.869999999999978627e+03,-2.174999999999849720e+00,-4.944999999999669882e+00,1.340656549564991096e+01,-2.163019698892729270e+00
1.999999999999915801e+01,3.000000001037573583e+00,1.000000000000784617e+01,6.600000000000078026e-01,1.570000000000043361e+00,2.869999999999998636e+03,-2.175000000000083311e+00,-4.945000000000185025e+00,1.340863712476237524e+01,-2.157319105483978650e+00
1.999999999999990408e+01,3.000000001383042125e+00,1.000000000004251355e+01,6.599999999999286437e-01,1.570000000000252749e+00,2.869999999999996362e+03,-2.174999999999656097e+00,-4.944999999999037499e+00,1.339900383736972067e+01,-2.164723972629761128e+00
1.999999999999972999e+01,3.000000001229869095e+00,9.999999999991262101e+00,6.600000000001147171e-01,1.569999999999812434e+00,2.869999999999991815e+03,-2.175000000000476330e+00,-4.945000000001317453e+00,1.341578030184362369e+01,-2.177562838967170844e+00
2.000000000000052935e+01,3.000000000214507967e+00,9.999999999995033306e+00,6.599999999999617284e-01,1.570000000000202123e+00,2.869999999999997272e+03,-2.174999999999910116e+00,-4.944999999999636131e+00,1.340048466925420634e+01,-2.175211971352386087e+00
1.999999999999936406e+01,3.000000000833590974e+00,1.000000000002429346e+01,6.600000000000195710e-01,1.570000000000003171e+00,2.869999999999997272e+03,-2.175000000000100631e+00,-4.945000000000267626e+00,1.340482770694006298e+01,-2.189456823093582027e+00
1.999999999999984368e+01,3.000000000103936859e+00,1.000000000001742961e+01,6.600000000000141309e-01,1.570000000000076446e+00,2.869999999999983629e+03,-2.175000000000058442e+00,-4.945000000000121076e+00,1.341084756911360287e+01,-2.184403008650722455e+00
2.000000000000031619e+01,3.000000001275752393e+00,1.000000000001793765e+01,6.599999999999923705e-01,1.570000000000194351e+00,2.869999999999986812e+03,-2.175000000000011369e+00,-4.945000000000056239e+00,1.341497454206131401e+01,-2.185945033552116445e+00
2.000000000000025935e+01,3.000000001498936530e+00,1.000000000001375433e+01,6.600000000000397771e-01,1.570000000000062235e+00,2.869999999999979082e+03,-2.175000000000223199e+00,-4.945000000000584706e+00,1.343275482752351557e+01,-2.174808644354636389e+00
2.000000000000017764e+01,3.000000001158351193e+00,9.999999999973100628e+00,6.599999999999857092e-01,1.570000000000087326e+00,2.869999999999997726e+03,-2.175000000000023359e+00,-4.944999999999945217e+00,1.341680419025724902e+01,-2.187666943418980381e+00
1.999999999999914380e+01,3.000000001106637892e+00,9.999999999992516209e+00,6.600000000000011413e-01,1.570000000000126406e+00,2.870000000000003183e+03,-2.175000000000130385e+00,-4.945000000000337792e+00,1.341580611934770850e+01,-2.179921253197515174e+00
1.999999999999934630e+01,3.000000000400560918e+00,9.999999999966792785e+00,6.600000000000286748e-01,1.570000000000208562e+00,2.869999999999969532e+03,-2.175000000000137490e+00,-4.945000000000431051e+00,1.341633398134755772e+01,-2.172090002497927053e+00
1.999999999999993605e+01,2.999999999894534142e+00,1.000000000003313616e+01,6.600000000000136868e-01,1.569999999999942109e+00,2.870000000000001819e+03,-2.175000000000026024e+00,-4.945000000000170814e+00,1.340030709492077143e+01,-2.169642861840263670e+00
1.999999999999951328e+01,3.000000001430087160e+00,9.999999999989716670e+00,6.599999999999424105e-01,1.570000000000424389e+00,2.870000000000004547e+03,-2.174999999999819078e+00,-4.944999999999613038e+00,1.341333549702485151e+01,-2.168474854105097993e+00
1.999999999999950973e+01,3.000000000466507721e+00,9.999999999987478461e+00,6.599999999999741629e-01,1.570000000000196128e+00,2.870000000000002274e+03,-2.175000000000011813e+00,-4.944999999999924789e+00,1.341151546003912642e+01,-2.165109140183831382e+00
2.000000000000021316e+01,2.999999999895180736e+00,1.000000000003024780e+01,6.599999999999580647e-01,1.570000000000296714e+00,2.869999999999992269e+03,-2.174999999999885691e+00,-4.944999999999609486e+00,1.340717599618059097e+01,-2.175663983583100869e+00
1.999999999999946709e+01,3.000000001481640588e+00,9.999999999961568520e+00,6.599999999998887867e-01,1.570000000000368656e+00,2.869999999999999091e+03,-2.174999999999642775e+00,-4.944999999998848317e+00,1.340533677320347117e+01,-2.161479060364102978e+00
2.000000000000007461e+01,3.000000001169085717e+00,9.999999999988467891e+00,6.599999999999404121e-01,1.570000000000210338e+00,2.870000000000000909e+03,-2.174999999999890576e+00,-4.944999999999500240e+00,1.340963038489894821e+01,-2.166978690915501993e+00
2.000000000000128253e+01,3.000000001678240213e+00,1.000000000001975131e+01,6.599999999999462963e-01,1.570000000000191243e+00,2.869999999999989086e+03,-2.174999999999814637e+00,-4.944999999999472706e+00,1.342036398468935410e+01,-2.171269895086578305e+00
2.000000000000001066e+01,3.000000000320873106e+00,1.000000000000827960e+01,6.600000000000445510e-01,1.569999999999970530e+00,2.869999999999980446e+03,-2.175000000000152145e+00,-4.945000000000419504e+00,1.343159398537008720e+01,-2.174259603255420892e+00
1.999999999999858957e+01,3.000000001726215171e+00,1.000000000001809042e+01,6.600000000000405542e-01,1.570000000000152607e+00,2.869999999999956344e+03,-2.175000000000051337e+00,-4.945000000000203677e+00,1.340583490402716116e+01,-2.161877635631715311e+00
1.999999999999905498e+01,3.000000000302106784e+00,1.000000000003592859e+01,6.600000000000516565e-01,1.570000000000062901e+00,2.869999999999999091e+03,-2.175000000000255618e+00,-4.945000000000688622e+00,1.341914073042028654e+01,-2.165922915331927712e+00
1.999999999999972289e+01,3.000000000117558852e+00,1.000000000000497913e+01,6.600000000000120215e-01,1.570000000000069562e+00,2.869999999999998181e+03,-2.175000000000044675e+00,-4.945000000000169038e+00,1.342388206553927255e+01,-2.168881337823783007e+00
1.999999999999982947e+01,3.000000001023744201e+00,9.999999999985460519e+00,6.600000000000403322e-01,1.569999999999969642e+00,2.870000000000001364e+03,-2.175000000000158806e+00,-4.945000000000494111e+00,1.341511695773319524e+01,-2.173505125331989696e+00
2.000000000000022382e+01,3.000000001041356779e+00,9.999999999976219911e+00,6.600000000000237899e-01,1.570000000000101092e+00,2.869999999999999091e+03,-2.175000000000191225e+00,-4.945000000000518092e+00,1.342282172420501851e+01,-2.171730512571929061e+00
2.000000000000062528e+01,3.000000000522528243e+00,1.000000000001237233e+01,6.599999999999635047e-01,1.570000000000092433e+00,2.869999999999992724e+03,-2.174999999999862599e+00,-4.944999999999526885e+00,1.340898715332998137e+01,-2.157435553398184158e+00
