2.000000000000041922e+01,3.000000002137949373e+00,1.000000000000345324e+01,6.600000000000182387e-01,1.569999999999960760e+00,2.869999999999982720e+03,-2.175000000000060663e+00,-4.945000000000174367e+00,1.338689618241149581e+01,-2.188646203174304805e+00
2.000000000000085265e+01,3.000000001411490480e+00,1.000000000003006484e+01,6.600000000000565414e-01,1.569999999999654339e+00,2.869999999999986812e+03,-2.175000000000125056e+00,-4.945000000000398188e+00,1.350800272048352113e+01,-2.329248431880586612e+00
1.999999999999971223e+01,3.000000002487911654e+00,1.000000000002141576e+01,6.599999999999965894e-01,1.570000000000056462e+00,2.869999999999985448e+03,-2.174999999999914113e+00,-4.944999999999763141e+00,1.351009202988851143e+01,-2.242765975859840388e+00
1.999999999999984013e+01,3.000000001152612672e+00,9.999999999971803888e+00,6.600000000000284528e-01,1.569999999999891038e+00,2.869999999999993179e+03,-2.175000000000010481e+00,-4.945000000000129070e+00,1.343381155535502280e+01,-2.220483130950475559e+00
1.999999999999929656e+01,3.000000000787173438e+00,1.000000000004496492e+01,6.599999999999823785e-01,1.570000000000124185e+00,2.869999999999994543e+03,-2.175000000000017142e+00,-4.944999999999935447e+00,1.343380382888901181e+01,-2.495627574705415075e+00
2.000000000000084555e+01,3.000000001391554871e+00,1.000000000002745182e+01,6.600000000000151301e-01,1.569999999999921236e+00,2.870000000000004093e+03,-2.175000000000059330e+00,-4.945000000000207230e+00,1.323282082961431172e+01,-2.222339004750214286e+00
2.000000000000058620e+01,3.000000002064628912e+00,1.000000000002623501e+01,6.600000000000344480e-01,1.569999999999829532e+00,2.869999999999988177e+03,-2.175000000000113065e+00,-4.945000000000411511e+00,1.326232990405304868e+01,-2.262712320276688782e+00
2.000000000000030553e+01,3.000000000026054270e+00,1.000000000006615508e+01,6.599999999999928146e-01,1.570000000000090878e+00,2.869999999999997272e+03,-2.175000000000005596e+00,-4.944999999999988738e+00,1.345238179170219794e+01,-2.397887788953751542e+00
2.000000000000223821e+01,3.000000000307341264e+00,1.000000000004873790e+01,6.599999999999908162e-01,1.569999999999981188e+00,2.869999999999998181e+03,-2.174999999999946976e+00,-4.944999999999841300e+00,1.344235501860624815e+01,-2.249261096575709828e+00
2.000000000000021316e+01,2.999999999462550360e+00,1.000000000006134648e+01,6.600000000000229017e-01,1.569999999999927232e+00,2.870000000000000455e+03,-2.174999999999973177e+00,-4.945000000000075779e+00,1.339021927267473799e+01,-2.173059423733165296e+00
2.000000000000120437e+01,3.000000003102623491e+00,1.000000000002614797e+01,6.600000000000105782e-01,1.570000000000016493e+00,2.869999999999994998e+03,-2.174999999999917222e+00,-4.944999999999944329e+00,1.345246706427914773e+01,-2.221008791600304288e+00
2.000000000000093081e+01,3.000000000004331646e+00,1.000000000004499334e+01,6.599999999999861533e-01,1.570000000000119078e+00,2.869999999999992724e+03,-2.174999999999966960e+00,-4.944999999999827978e+00,1.343876010906007146e+01,-2.214172219131974817e+00
2.000000000000209965e+01,2.999999998617277175e+00,1.000000000002016698e+01,6.600000000000062483e-01,1.569999999999839524e+00,2.869999999999997272e+03,-2.175000000000007372e+00,-4.945000000000056239e+00,1.332336093839085756e+01,-2.115074353179326572e+00
2.000000000000078515e+01,2.999999999962309705e+00,9.999999999923552707e+00,6.600000000000167955e-01,1.569999999999824425e+00,2.869999999999995907e+03,-2.174999999999987388e+00,-4.944999999999982521e+00,1.336550877629033174e+01,-2.196741882781569455e+00
2.000000000000009237e+01,3.000000001481866629e+00,9.999999999998893330e+00,6.600000000000221245e-01,1.569999999999934115e+00,2.869999999999992724e+03,-2.175000000000073985e+00,-4.945000000000155715e+00,1.337324176683335075e+01,-2.223091771990219900e+00
2.000000000000083489e+01,2.999999999463316858e+00,1.000000000001917577e+01,6.600000000000086908e-01,1.570000000000037588e+00,2.869999999999995453e+03,-2.175000000000020695e+00,-4.945000000000069562e+00,1.341162182722178819e+01,-2.204688739072854897e+00
1.999999999999867129e+01,3.000000001967281005e+00,1.000000000001288392e+01,6.599999999999794920e-01,1.570000000000184803e+00,2.870000000000001364e+03,-2.175000000000048672e+00,-4.945000000000061569e+00,1.341089336683037381e+01,-2.133832222460435801e+00
1.999999999999948841e+01,3.000000000206029860e+00,1.000000000000569678e+01,6.600000000000229017e-01,1.569999999999965645e+00,2.869999999999994543e+03,-2.175000000000047340e+00,-4.945000000000171703e+00,1.348004222766008020e+01,-2.247214902709093742e+00
1.999999999999989342e+01,3.000000002130173815e+00,9.999999999931471706e+00,6.599999999999873745e-01,1.570000000000057350e+00,2.869999999999995907e+03,-2.175000000000023803e+00,-4.944999999999966533e+00,1.334803866498570457e+01,-2.133340239910057612e+00
2.000000000000069278e+01,3.000000002182602543e+00,1.000000000005991296e+01,6.600000000000003642e-01,1.569999999999991624e+00,2.869999999999994543e+03,-2.175000000000047340e+00,-4.945000000000103313e+00,1.342956644935897792e+01,-2.255232502651875581e+00
1.999999999999953104e+01,3.000000003013704841e+00,9.999999999974834353e+00,6.600000000000020295e-01,1.570000000000093543e+00,2.869999999999998636e+03,-2.175000000000009148e+00,-4.945000000000092655e+00,1.351853501531620694e+01,-2.291973901256674218e+00
2.000000000000035882e+01,3.000000001898353030e+00,9.999999999965872632e+00,6.599999999999716094e-01,1.570000000000097984e+00,2.870000000000000909e+03,-2.175000000000025580e+00,-4.944999999999914131e+00,1.342113550251555942e+01,-2.164802315981096292e+00
2.000000000000024514e+01,3.000000001787037629e+00,9.999999999997568167e+00,6.599999999999893729e-01,1.570000000000052021e+00,2.869999999999994543e+03,-2.175000000000003375e+00,-4.944999999999905249e+00,1.342664865864785462e+01,-2.285616902901084657e+00
1.999999999999964828e+01,3.000000000394281940e+00,1.000000000002937384e+01,6.599999999999734968e-01,1.570000000000024487e+00,2.869999999999998181e+03,-2.174999999999907008e+00,-4.944999999999629914e+00,1.342422075660308600e+01,-2.146842877031935881e+00
1.999999999999933564e+01,2.999999999908530501e+00,1.000000000003913314e+01,6.599999999999780487e-01,1.570000000000138840e+00,2.869999999999998181e+03,-2.174999999999858158e+00,-4.944999999999643236e+00,1.341088719059815126e+01,-2.173373866816028954e+00
2.000000000000044764e+01,3.000000001132082428e+00,1.000000000005619505e+01,6.599999999999969225e-01,1.569999999999981188e+00,2.870000000000000000e+03,-2.175000000000000266e+00,-4.944999999999907025e+00,1.338335433781304928e+01,-2.151598773159745903e+00
1.999999999999899458e+01,2.999999998928656986e+00,1.000000000010278889e+01,6.600000000000207923e-01,1.569999999999994511e+00,2.870000000000003183e+03,-2.174999999999979838e+00,-4.945000000000034923e+00,1.339489507041598770e+01,-2.199877678797629521e+00
1.999999999999815614e+01,3.000000000879577300e+00,1.000000000000000000e+01,6.600000000000330047e-01,1.569999999999915463e+00,2.870000000000000455e+03,-2.175000000000043787e+00,-4.945000000000258744e+00,1.337038824262955750e+01,-2.134380512583176515e+00
2.000000000000081357e+01,3.000000000766782637e+00,1.000000000005846701e+01,6.599999999999976996e-01,1.569999999999976747e+00,2.869999999999994998e+03,-2.174999999999926104e+00,-4.944999999999843077e+00,1.355280722582225472e+01,-2.333028164634862289e+00
1.999999999999965894e+01,3.000000000072135187e+00,1.000000000009332979e+01,6.599999999999882627e-01,1.570000000000095319e+00,2.869999999999997726e+03,-2.174999999999926104e+00,-4.944999999999853735e+00,1.348228321769960480e+01,-2.230047762421489388e+00
1.999999999999892353e+01,3.000000000412940349e+00,1.000000000004684075e+01,6.600000000000342260e-01,1.569999999999933449e+00,2.869999999999981810e+03,-2.175000000000060663e+00,-4.945000000000216112e+00,1.332885649033580044e+01,-2.365413885780954573e+00
1.999999999999880274e+01,3.000000001305596964e+00,1.000000000002924416e+01,6.600000000000200151e-01,1.570000000000005169e+00,2.869999999999995453e+03,-2.175000000000040679e+00,-4.945000000000204565e+00,1.343141133180270508e+01,-2.166595195820346209e+00
2.000000000000054357e+01,3.000000003047814001e+00,1.000000000002257394e+01,6.599999999999832667e-01,1.570000000000010498e+00,2.869999999999997726e+03,-2.174999999999877254e+00,-4.944999999999720508e+00,1.342849171761064575e+01,-2.211943250260175020e+00
2.000000000000051870e+01,3.000000001482557632e+00,1.000000000010046008e+01,6.600000000000327827e-01,1.569999999999895701e+00,2.869999999999998636e+03,-2.175000000000045564e+00,-4.945000000000195683e+00,1.345783958088754595e+01,-2.224213046560641338e+00
2.000000000000023093e+01,3.000000002817517331e+00,9.999999999961325159e+00,6.599999999999685008e-01,1.570000000000113083e+00,2.869999999999999091e+03,-2.174999999999909672e+00,-4.944999999999738272e+00,1.348044803534093106e+01,-2.292639650973801402e+00
2.000000000000043343e+01,3.000000000127919897e+00,1.000000000007485390e+01,6.599999999999588418e-01,1.570000000000221885e+00,2.870000000000001364e+03,-2.174999999999904787e+00,-4.944999999999656559e+00,1.340656576807072042e+01,-2.239678939454756712e+00
2.000000000000212808e+01,3.000000000957601998e+00,1.000000000003864287e+01,6.599999999999881517e-01,1.569999999999950324e+00,2.869999999999994088e+03,-2.174999999999931433e+00,-4.944999999999903473e+00,1.343829732178293845e+01,-2.206993755901455412e+00
2.000000000000027711e+01,3.000000003149953187e+00,1.000000000000545697e+01,6.600000000000221245e-01,1.569999999999840190e+00,2.870000000000004093e+03,-2.174999999999967404e+00,-4.945000000000036700e+00,1.339175099719440887e+01,-2.171150778742792831e+00
2.000000000000056843e+01,3.000000002643445907e+00,9.999999999989258370e+00,6.600000000000039169e-01,1.569999999999877272e+00,2.870000000000000000e+03,-2.174999999999887024e+00,-4.944999999999862617e+00,1.349036730689481978e+01,-2.218386490868809791e+00
2.000000000000056488e+01,3.000000001219969903e+00,1.000000000006269829e+01,6.600000000000110223e-01,1.569999999999879492e+00,2.870000000000002274e+03,-2.174999999999902567e+00,-4.944999999999829754e+00,1.344746538362059596e+01,-2.170452741641837324e+00
2.000000000000095213e+01,3.000000000942569578e+00,1.000000000001424283e+01,6.599999999999673905e-01,1.570000000000102647e+00,2.870000000000000909e+03,-2.174999999999926104e+00,-4.944999999999781792e+00,1.336328819870863427e+01,-2.094166452885263485e+00
2.000000000000105160e+01,3.000000000099844577e+00,9.999999999953978147e+00,6.600000000000120215e-01,1.569999999999887041e+00,2.870000000000000000e+03,-2.175000000000027800e+00,-4.945000000000163709e+00,1.341677598857334530e+01,-2.200589091584092216e+00
2.000000000000021672e+01,3.000000002031370627e+00,9.999999999937367434e+00,6.599999999999832667e-01,1.570000000000119522e+00,2.869999999999993179e+03,-2.174999999999978506e+00,-4.944999999999915019e+00,1.336209656809701407e+01,-2.179779658899040573e+00
2.000000000000009592e+01,3.000000001765841251e+00,9.999999999915036852e+00,6.599999999999955902e-01,1.569999999999988960e+00,2.869999999999987722e+03,-2.174999999999985612e+00,-4.945000000000006501e+00,1.341023152510033967e+01,-2.208331698592362002e+00
2.000000000000009237e+01,3.000000000407216039e+00,9.999999999999536371e+00,6.600000000000105782e-01,1.569999999999895257e+00,2.869999999999993179e+03,-2.175000000000034461e+00,-4.945000000000134399e+00,1.342999553611530672e+01,-2.227016807511125851e+00
2.000000000000116529e+01,3.000000000627454089e+00,1.000000000002640377e+01,6.599999999999766054e-01,1.569999999999951656e+00,2.870000000000000000e+03,-2.174999999999998046e+00,-4.944999999999937224e+00,1.351659295301904962e+01,-2.311502657098731373e+00
1.999999999999983302e+01,3.000000001143852124e+00,1.000000000002966871e+01,6.599999999999969225e-01,1.570000000000056017e+00,2.869999999999998181e+03,-2.175000000000025135e+00,-4.945000000000020712e+00,1.338400373118625275e+01,-2.209875171184719100e+00
2.000000000000069278e+01,2.999999999414931118e+00,1.000000000003808509e+01,6.599999999999995870e-01,1.569999999999968088e+00,2.869999999999994998e+03,-2.175000000000046896e+00,-4.945000000000005613e+00,1.329021360886174996e+01,-2.089157439298237051e+00
2.000000000000048672e+01,3.000000000408186374e+00,1.000000000011943868e+01,6.599999999999818234e-01,1.569999999999976081e+00,2.869999999999995907e+03,-2.175000000000006484e+00,-4.944999999999925677e+00,1.340435913135449830e+01,-2.146619779407749729e+00
1.999999999999948130e+01,3.000000001547741491e+00,1.000000000000987477e+01,6.600000000000381117e-01,1.569999999999853069e+00,2.869999999999991815e+03,-2.175000000000082867e+00,-4.945000000000371543e+00,1.342805751414290327e+01,-2.232632379351207064e+00
2.000000000000025580e+01,3.000000001051424725e+00,1.000000000000374456e+01,6.599999999999730527e-01,1.570000000000090212e+00,2.869999999999994998e+03,-2.174999999999949196e+00,-4.944999999999788898e+00,1.341645189895507428e+01,-2.145196004920820076e+00
2.000000000000132161e+01,3.000000001244241155e+00,1.000000000001195843e+01,6.600000000000099121e-01,1.569999999999833307e+00,2.869999999999986358e+03,-2.175000000000080647e+00,-4.945000000000196572e+00,1.341682902510335040e+01,-2.242015775240166153e+00
2.000000000000112621e+01,3.000000002931408005e+00,9.999999999914880533e+00,6.599999999999766054e-01,1.570000000000131957e+00,2.869999999999990450e+03,-2.174999999999910560e+00,-4.944999999999752482e+00,1.342647165471585247e+01,-2.258015608661279039e+00
1.999999999999996803e+01,3.000000003383251901e+00,9.999999999954990670e+00,6.599999999999823785e-01,1.570000000000154605e+00,2.869999999999985903e+03,-2.174999999999944311e+00,-4.944999999999894591e+00,1.344449546213768087e+01,-2.231192458411678903e+00
1.999999999999994671e+01,3.000000001964581831e+00,1.000000000000483169e+01,6.600000000000116884e-01,1.569999999999970308e+00,2.869999999999990905e+03,-2.175000000000060218e+00,-4.945000000000118412e+00,1.334861650346428341e+01,-2.137107645003665901e+00
2.000000000000075318e+01,3.000000002104495245e+00,9.999999999994116706e+00,6.599999999999952571e-01,1.570000000000115081e+00,2.869999999999998636e+03,-2.174999999999990052e+00,-4.944999999999993179e+00,1.343750732168235551e+01,-2.227759611175873733e+00
1.999999999999901590e+01,3.000000002025581924e+00,1.000000000003612044e+01,6.600000000000262323e-01,1.569999999999985185e+00,2.869999999999985903e+03,-2.175000000000172129e+00,-4.945000000000430163e+00,1.339657298401170316e+01,-2.220170341748998410e+00
2.000000000000034817e+01,3.000000002007450206e+00,1.000000000004191847e+01,6.600000000000367795e-01,1.569999999999796447e+00,2.869999999999993634e+03,-2.175000000000145928e+00,-4.945000000000470131e+00,1.345038696407249823e+01,-2.196998221591799361e+00
2.000000000000095568e+01,3.000000000179424919e+00,1.000000000008580869e+01,6.600000000000074696e-01,1.569999999999936557e+00,2.869999999999994998e+03,-2.175000000000058442e+00,-4.945000000000127294e+00,1.337976979790641430e+01,-2.124792231145419041e+00
2.000000000000096989e+01,3.000000000755584484e+00,1.000000000000467715e+01,6.600000000000000311e-01,1.570000000000024487e+00,2.869999999999993634e+03,-2.175000000000088640e+00,-4.945000000000155715e+00,1.335419287001422184e+01,-2.125144810569481457e+00
2.000000000000171596e+01,3.000000002253838893e+00,9.999999999970011544e+00,6.599999999999726086e-01,1.570000000000108642e+00,2.869999999999992724e+03,-2.174999999999901679e+00,-4.944999999999756035e+00,1.343652087164955056e+01,-2.220882594667200394e+00
2.000000000000018474e+01,3.000000002567579482e+00,9.999999999985627497e+00,6.599999999999996980e-01,1.570000000000080886e+00,2.869999999999988631e+03,-2.174999999999975397e+00,-4.945000000000013607e+00,1.343870106261559627e+01,-2.257563044643073891e+00
1.999999999999919709e+01,3.000000001144603523e+00,9.999999999973663733e+00,6.599999999999924816e-01,1.570000000000129958e+00,2.869999999999987722e+03,-2.174999999999967404e+00,-4.944999999999827089e+00,1.332582260388692497e+01,-2.162219728431580723e+00
2.000000000000061107e+01,3.000000000722000681e+00,9.999999999983963050e+00,6.600000000000135758e-01,1.569999999999920792e+00,2.869999999999977717e+03,-2.174999999999997158e+00,-4.944999999999904361e+00,1.327830107904858536e+01,-2.120902959136456101e+00
2.000000000000159872e+01,2.999999999401238515e+00,9.999999999990965449e+00,6.599999999999944800e-01,1.569999999999853069e+00,2.870000000000001364e+03,-2.175000000000005596e+00,-4.945000000000020712e+00,1.345317721887081142e+01,-2.177407492476765682e+00
2.000000000000197176e+01,3.000000000954324175e+00,9.999999999954138019e+00,6.599999999999757172e-01,1.570000000000042695e+00,2.869999999999996817e+03,-2.174999999999934541e+00,-4.944999999999811102e+00,1.343394938031061692e+01,-2.202444974621096563e+00
2.000000000000086331e+01,3.000000002632391638e+00,9.999999999969407583e+00,6.600000000000210143e-01,1.569999999999909912e+00,2.869999999999993634e+03,-2.175000000000094413e+00,-4.945000000000320917e+00,1.346024893464462124e+01,-2.214451542451274513e+00
1.999999999999995737e+01,3.000000001792710425e+00,1.000000000003096901e+01,6.600000000000356692e-01,1.569999999999849072e+00,2.870000000000000455e+03,-2.175000000000106848e+00,-4.945000000000427498e+00,1.338672703898826910e+01,-2.229125625265902855e+00
2.000000000000052225e+01,3.000000002175391867e+00,9.999999999976296294e+00,6.599999999999800471e-01,1.570000000000105089e+00,2.869999999999997272e+03,-2.174999999999918110e+00,-4.944999999999795115e+00,1.338470999435240572e+01,-2.186120719768573029e+00
1.999999999999948486e+01,3.000000002031925295e+00,9.999999999978879117e+00,6.600000000000181277e-01,1.569999999999978968e+00,2.869999999999999091e+03,-2.175000000000069988e+00,-4.945000000000336016e+00,1.336533070316933447e+01,-2.110607623434305857e+00
2.000000000000091305e+01,3.000000001211705403e+00,9.999999999960023089e+00,6.599999999999697220e-01,1.570000000000098206e+00,2.869999999999994543e+03,-2.174999999999924327e+00,-4.944999999999821760e+00,1.336938961014318927e+01,-2.150861171428810170e+00
1.999999999999908695e+01,2.999999997549647190e+00,1.000000000005684520e+01,6.600000000000053602e-01,1.570000000000013163e+00,2.869999999999998636e+03,-2.175000000000058886e+00,-4.945000000000133511e+00,1.328781675608427726e+01,-2.081892558720741082e+00
2.000000000000003908e+01,3.000000000552984325e+00,1.000000000000574119e+01,6.599999999999900391e-01,1.570000000000094875e+00,2.869999999999996817e+03,-2.174999999999974953e+00,-4.944999999999908802e+00,1.340687441251777656e+01,-2.142105643108864310e+00
2.000000000000148503e+01,2.999999999904562120e+00,1.000000000004681944e+01,6.599999999999773825e-01,1.570000000000069118e+00,2.869999999999990450e+03,-2.174999999999934541e+00,-4.944999999999760476e+00,1.341591483139160346e+01,-2.165396297152339056e+00
2.000000000000005684e+01,3.000000002371306707e+00,9.999999999982680521e+00,6.600000000000050271e-01,1.570000000000075335e+00,2.869999999999991360e+03,-2.175000000000014921e+00,-4.944999999999996732e+00,1.347067924991626597e+01,-2.246098779893527464e+00
2.000000000000096279e+01,3.000000001687032292e+00,9.999999999994239275e+00,6.599999999999970335e-01,1.570000000000063123e+00,2.869999999999998181e+03,-2.174999999999958078e+00,-4.944999999999885709e+00,1.345132769188695043e+01,-2.172726640091259043e+00
1.999999999999959144e+01,3.000000002495815110e+00,9.999999999922389193e+00,6.600000000000233458e-01,1.569999999999987406e+00,2.869999999999996362e+03,-2.175000000000093081e+00,-4.945000000000285389e+00,1.340178546338884225e+01,-2.211149089381762245e+00
2.000000000000031619e+01,3.000000001430210173e+00,9.999999999954034990e+00,6.599999999999921485e-01,1.569999999999922569e+00,2.869999999999984084e+03,-2.175000000000002931e+00,-4.944999999999979856e+00,1.351963910545320147e+01,-2.237114375405062638e+00
2.000000000000218137e+01,3.000000002100581931e+00,1.000000000002664535e+01,6.599999999999709432e-01,1.569999999999983853e+00,2.869999999999985903e+03,-2.174999999999942091e+00,-4.944999999999737383e+00,1.348837385177181147e+01,-2.302370831253540917e+00
2.000000000000041567e+01,3.000000000338244988e+00,9.999999999977402965e+00,6.600000000000018074e-01,1.569999999999951212e+00,2.869999999999987722e+03,-2.175000000000031353e+00,-4.945000000000083773e+00,1.349003612290027121e+01,-2.206856026235765267e+00
2.000000000000235900e+01,3.000000000621822149e+00,9.999999999965776709e+00,6.599999999999502931e-01,1.570000000000089990e+00,2.869999999999986358e+03,-2.174999999999905675e+00,-4.944999999999608598e+00,1.348160944359963942e+01,-2.248098316742552782e+00
2.000000000000267519e+01,3.000000002580771152e+00,1.000000000004262013e+01,6.600000000000066924e-01,1.569999999999859730e+00,2.869999999999988631e+03,-2.175000000000023803e+00,-4.945000000000034035e+00,1.354121056457856298e+01,-2.262847144644976716e+00
2.000000000000220979e+01,3.000000001242909775e+00,9.999999999978262721e+00,6.599999999999592859e-01,1.570000000000047580e+00,2.869999999999980901e+03,-2.174999999999895017e+00,-4.944999999999555307e+00,1.353835372355372257e+01,-2.348562120776402917e+00
2.000000000000129319e+01,3.000000002338404581e+00,1.000000000004075318e+01,6.599999999999633937e-01,1.570000000000034701e+00,2.869999999999999091e+03,-2.174999999999873701e+00,-4.944999999999663665e+00,1.341622627640028931e+01,-2.198592102298191353e+00
1.999999999999996092e+01,3.000000002127860110e+00,9.999999999974271248e+00,6.600000000000108002e-01,1.569999999999938778e+00,2.870000000000000455e+03,-2.175000000000014033e+00,-4.945000000000163709e+00,1.339310707407414824e+01,-2.207064760278353521e+00
1.999999999999952394e+01,3.000000003090147693e+00,1.000000000001585221e+01,6.600000000000025846e-01,1.570000000000028262e+00,2.869999999999994543e+03,-2.174999999999956746e+00,-4.944999999999974527e+00,1.342752276036891601e+01,-2.246096240445035086e+00
2.000000000000001421e+01,3.000000001972291663e+00,9.999999999978371079e+00,6.600000000000482148e-01,1.569999999999736051e+00,2.870000000000002274e+03,-2.175000000000028244e+00,-4.945000000000324469e+00,1.346443028481205495e+01,-2.239841703667358352e+00
2.000000000000094502e+01,3.000000002072998218e+00,1.000000000000207301e+01,6.600000000000063594e-01,1.569999999999845075e+00,2.869999999999999091e+03,-2.174999999999915001e+00,-4.944999999999868834e+00,1.348384257783014029e+01,-2.224219912567360957e+00
1.999999999999857181e+01,3.000000001459181220e+00,1.000000000005753620e+01,6.600000000000103562e-01,1.569999999999991847e+00,2.870000000000001364e+03,-2.174999999999956302e+00,-4.944999999999998508e+00,1.344605842150973629e+01,-2.164223561355096415e+00
1.999999999999945999e+01,3.000000001926580673e+00,9.999999999991221244e+00,6.599999999999829337e-01,1.570000000000098872e+00,2.869999999999998636e+03,-2.174999999999951861e+00,-4.944999999999849294e+00,1.344384370861324562e+01,-2.220556461641189916e+00
1.999999999999995026e+01,3.000000003171974683e+00,1.000000000005823253e+01,6.600000000000260103e-01,1.569999999999885043e+00,2.869999999999993634e+03,-2.175000000000047784e+00,-4.945000000000213447e+00,1.349194332613553193e+01,-2.251654332233121281e+00
2.000000000000090239e+01,3.000000003531696269e+00,1.000000000003821299e+01,6.600000000000154632e-01,1.569999999999853957e+00,2.869999999999998181e+03,-2.175000000000009148e+00,-4.945000000000105089e+00,1.345637765474570635e+01,-2.208856071208240124e+00
1.999999999999958789e+01,3.000000002491261863e+00,1.000000000004073897e+01,6.599999999999944800e-01,1.570000000000032259e+00,2.870000000000001364e+03,-2.174999999999970957e+00,-4.944999999999991402e+00,1.342910881480497309e+01,-2.158919914211715696e+00
2.000000000000199663e+01,3.000000001466174737e+00,1.000000000003141132e+01,6.599999999999894840e-01,1.569999999999966089e+00,2.870000000000002274e+03,-2.174999999999943867e+00,-4.944999999999853735e+00,1.334807204176899553e+01,-2.157915833941558503e+00
2.000000000000019185e+01,2.999999999216176327e+00,9.999999999947227991e+00,6.600000000000005862e-01,1.570000000000014717e+00,2.869999999999981810e+03,-2.174999999999957634e+00,-4.944999999999963869e+00,1.336057697168049252e+01,-2.276173053106694599e+00
2.000000000000046185e+01,2.999999999824022101e+00,9.999999999991661781e+00,6.600000000000034728e-01,1.569999999999968754e+00,2.869999999999990450e+03,-2.175000000000003819e+00,-4.945000000000015383e+00,1.329425281492851951e+01,-2.317257240443462152e+00
2.000000000000084910e+01,3.000000001013083395e+00,1.000000000004874323e+01,6.599999999999738298e-01,1.570000000000135065e+00,2.869999999999995907e+03,-2.174999999999947864e+00,-4.944999999999782681e+00,1.333899178116307382e+01,-2.127239912628293261e+00
1.999999999999974420e+01,3.000000000054922733e+00,1.000000000004598633e+01,6.599999999999874856e-01,1.570000000000206120e+00,2.869999999999997272e+03,-2.174999999999986944e+00,-4.944999999999942553e+00,1.337109212770836209e+01,-2.227351795314012950e+00
1.999999999999918643e+01,3.000000000636176889e+00,9.999999999991738164e+00,6.600000000000250111e-01,1.569999999999947216e+00,2.869999999999989996e+03,-2.175000000000067324e+00,-4.945000000000319140e+00,1.353610008090427819e+01,-2.336067789496121261e+00
2.000000000000102318e+01,3.000000000863829452e+00,1.000000000000747136e+01,6.599999999999692779e-01,1.570000000000055573e+00,2.869999999999996817e+03,-2.174999999999958078e+00,-4.944999999999851958e+00,1.354719193736781868e+01,-2.284769409388159644e+00
2.000000000000110489e+01,3.000000001045536546e+00,9.999999999990695443e+00,6.600000000000075806e-01,1.569999999999960316e+00,2.869999999999985903e+03,-2.174999999999983391e+00,-4.945000000000054463e+00,1.349918349932836037e+01,-2.254521044292178367e+00
2.000000000000001776e+01,3.000000001033235719e+00,9.999999999987823074e+00,6.600000000000155742e-01,1.570000000000035811e+00,2.869999999999983629e+03,-2.175000000000006484e+00,-4.945000000000108642e+00,1.355414608893875084e+01,-2.349047776413402566e+00
2.000000000000027356e+01,3.000000000451324311e+00,9.999999999944110485e+00,6.599999999999806022e-01,1.570000000000127072e+00,2.869999999999988177e+03,-2.174999999999932765e+00,-4.944999999999883933e+00,1.354598590984286410e+01,-2.338421772493987305e+00
2.000000000000003553e+01,3.000000000982866677e+00,9.999999999965762498e+00,6.600000000000187939e-01,1.569999999999937446e+00,2.869999999999988631e+03,-2.175000000000038902e+00,-4.945000000000238316e+00,1.357571599877747559e+01,-2.328810437906629893e+00
2.000000000000033751e+01,3.000000001491955892e+00,9.999999999988501642e+00,6.600000000000224576e-01,1.569999999999843299e+00,2.869999999999992724e+03,-2.175000000000079758e+00,-4.945000000000316476e+00,1.357643657520115354e+01,-2.377789578127810888e+00
2.000000000000073896e+01,2.999999999789602523e+00,1.000000000001705303e+01,6.600000000000271205e-01,1.569999999999800000e+00,2.869999999999997726e+03,-2.175000000000090417e+00,-4.945000000000390195e+00,1.355646168104614269e+01,-2.341198575794903203e+00
1.999999999999969447e+01,3.000000002815206734e+00,9.999999999976902032e+00,6.600000000000003642e-01,1.570000000000057794e+00,2.869999999999996362e+03,-2.174999999999947864e+00,-4.944999999999997620e+00,1.355528691811285924e+01,-2.300441159691513082e+00
2.000000000000051870e+01,3.000000000128977717e+00,1.000000000000418865e+01,6.600000000000010303e-01,1.570000000000005391e+00,2.869999999999995453e+03,-2.174999999999986500e+00,-4.945000000000021600e+00,1.357407038205806771e+01,-2.338272223411778761e+00
2.000000000000115108e+01,3.000000002016843137e+00,1.000000000000999556e+01,6.599999999999910383e-01,1.569999999999968532e+00,2.870000000000002274e+03,-2.174999999999923883e+00,-4.944999999999842188e+00,1.340223122071299677e+01,-2.118901024619584739e+00
1.999999999999989342e+01,3.000000001542530992e+00,1.000000000005558398e+01,6.600000000000072475e-01,1.569999999999865503e+00,2.870000000000000909e+03,-2.174999999999932321e+00,-4.944999999999910578e+00,1.350943928899169322e+01,-2.202775136978083914e+00
2.000000000000082778e+01,3.000000002406341792e+00,1.000000000006065548e+01,6.600000000000117995e-01,1.569999999999859730e+00,2.870000000000001819e+03,-2.175000000000039346e+00,-4.945000000000083773e+00,1.332676471027335552e+01,-2.136641452226915927e+00
1.999999999999885958e+01,3.000000002064294069e+00,9.999999999980444088e+00,6.599999999999883737e-01,1.570000000000112417e+00,2.870000000000000000e+03,-2.174999999999904343e+00,-4.944999999999780016e+00,1.343815816798711538e+01,-2.266790022507265689e+00
1.999999999999952038e+01,3.000000001967914276e+00,1.000000000002119016e+01,6.599999999999777156e-01,1.570000000000096874e+00,2.869999999999997272e+03,-2.174999999999886580e+00,-4.944999999999682316e+00,1.341341273923563193e+01,-2.125450651092988252e+00
2.000000000000040146e+01,3.000000002695814683e+00,1.000000000006741097e+01,6.600000000000285638e-01,1.569999999999840856e+00,2.870000000000001364e+03,-2.175000000000069100e+00,-4.945000000000215223e+00,1.341735420513021459e+01,-2.220015319583783953e+00
2.000000000000039435e+01,3.000000001554352203e+00,1.000000000000307487e+01,6.599999999999925926e-01,1.569999999999995177e+00,2.869999999999998181e+03,-2.174999999999964739e+00,-4.944999999999791562e+00,1.336582772781900808e+01,-2.142841445611345375e+00
1.999999999999869615e+01,3.000000001899745250e+00,9.999999999966146191e+00,6.600000000000212363e-01,1.570000000000013163e+00,2.869999999999989541e+03,-2.174999999999993605e+00,-4.945000000000146834e+00,1.340910552039647108e+01,-2.147429883676113427e+00
2.000000000000204992e+01,3.000000002353541362e+00,1.000000000003285017e+01,6.599999999999817124e-01,1.569999999999929008e+00,2.869999999999987267e+03,-2.174999999999985612e+00,-4.944999999999888374e+00,1.344434073688234932e+01,-2.259998058577866509e+00
2.000000000000018474e+01,3.000000002535265331e+00,9.999999999960261121e+00,6.599999999999885958e-01,1.569999999999969642e+00,2.869999999999996362e+03,-2.174999999999982503e+00,-4.944999999999987850e+00,1.342281777438881640e+01,-2.164698638036163025e+00
2.000000000000065725e+01,3.000000002906473728e+00,1.000000000003247003e+01,6.600000000000166844e-01,1.569999999999815099e+00,2.869999999999995453e+03,-2.175000000000010036e+00,-4.945000000000087326e+00,1.339765119717163522e+01,-2.171963578297238850e+00
2.000000000000091305e+01,3.000000000769694530e+00,1.000000000002392220e+01,6.600000000000015854e-01,1.569999999999844631e+00,2.869999999999994543e+03,-2.175000000000018474e+00,-4.945000000000089990e+00,1.342267444202615856e+01,-2.144933009247915301e+00
2.000000000000029488e+01,3.000000001267010052e+00,1.000000000003870504e+01,6.599999999999606182e-01,1.570000000000077112e+00,2.869999999999997272e+03,-2.174999999999955413e+00,-4.944999999999794227e+00,1.335170513609111964e+01,-2.115788778016265415e+00
2.000000000000150280e+01,3.000000000551046320e+00,1.000000000007949730e+01,6.600000000000121325e-01,1.569999999999866391e+00,2.870000000000000909e+03,-2.175000000000101519e+00,-4.945000000000248974e+00,1.341871833466109010e+01,-2.186575483680712750e+00
2.000000000000194689e+01,3.000000000070757622e+00,1.000000000005563727e+01,6.599999999999961453e-01,1.569999999999916351e+00,2.869999999999994998e+03,-2.175000000000032241e+00,-4.945000000000017160e+00,1.342095522310388311e+01,-2.149544117249012842e+00
2.000000000000200728e+01,2.999999998821595071e+00,1.000000000004529177e+01,6.599999999999919265e-01,1.569999999999969420e+00,2.869999999999989541e+03,-2.175000000000045564e+00,-4.944999999999981632e+00,1.339264358570480162e+01,-2.196948981546486213e+00
2.000000000000034106e+01,2.999999999969380493e+00,9.999999999984515497e+00,6.599999999999918154e-01,1.570000000000099316e+00,2.869999999999993179e+03,-2.175000000000001155e+00,-4.944999999999930118e+00,1.343761301262934538e+01,-2.239559460501554522e+00
2.000000000000143885e+01,2.999999999427848785e+00,9.999999999989936939e+00,6.599999999999647260e-01,1.570000000000156382e+00,2.869999999999996362e+03,-2.174999999999965183e+00,-4.944999999999751594e+00,1.334469870529692237e+01,-2.182006564974602991e+00
2.000000000000107292e+01,2.999999999804403572e+00,1.000000000002209788e+01,6.599999999999770495e-01,1.570000000000130402e+00,2.870000000000000455e+03,-2.174999999999968736e+00,-4.944999999999808438e+00,1.343029180983080195e+01,-2.186779568388427908e+00
2.000000000000098765e+01,2.999999999761140401e+00,1.000000000006800427e+01,6.599999999999867084e-01,1.570000000000004503e+00,2.869999999999998636e+03,-2.174999999999932765e+00,-4.944999999999771134e+00,1.338850113971642131e+01,-2.152951179783499480e+00
1.999999999999986500e+01,3.000000001505958025e+00,1.000000000000633271e+01,6.599999999999761613e-01,1.570000000000103757e+00,2.869999999999988177e+03,-2.174999999999910560e+00,-4.944999999999701856e+00,1.341956603819687999e+01,-2.168282361245629897e+00
1.999999999999996092e+01,3.000000000044361848e+00,1.000000000009699086e+01,6.599999999999979217e-01,1.569999999999996954e+00,2.869999999999993634e+03,-2.175000000000057110e+00,-4.945000000000063345e+00,1.341702875395418282e+01,-2.232427707879795165e+00
2.000000000000005329e+01,3.000000002307570579e+00,1.000000000006055423e+01,6.600000000000229017e-01,1.569999999999926787e+00,2.869999999999994088e+03,-2.175000000000002931e+00,-4.945000000000151275e+00,1.346704478526522664e+01,-2.164124965130321154e+00
1.999999999999966249e+01,3.000000001693925444e+00,1.000000000008833645e+01,6.600000000000153522e-01,1.569999999999992735e+00,2.869999999999993179e+03,-2.175000000000003819e+00,-4.945000000000073115e+00,1.339032944803476433e+01,-2.167461652813251760e+00
1.999999999999985079e+01,3.000000000914118559e+00,1.000000000007725376e+01,6.600000000000040279e-01,1.569999999999996732e+00,2.870000000000000455e+03,-2.174999999999994493e+00,-4.945000000000067786e+00,1.345343900450873598e+01,-2.209248658642636975e+00
2.000000000000117595e+01,3.000000001310423769e+00,1.000000000003162981e+01,6.599999999999874856e-01,1.569999999999996065e+00,2.869999999999994998e+03,-2.174999999999887912e+00,-4.944999999999813767e+00,1.349929436723617115e+01,-2.251764227739269764e+00
1.999999999999881339e+01,3.000000001622092682e+00,1.000000000011096191e+01,6.600000000000079137e-01,1.570000000000023599e+00,2.869999999999997272e+03,-2.175000000000058886e+00,-4.945000000000153939e+00,1.350386462212048855e+01,-2.211789723292963306e+00
1.999999999999977973e+01,3.000000001786039316e+00,1.000000000003004885e+01,6.599999999999568434e-01,1.570000000000161267e+00,2.869999999999995907e+03,-2.174999999999900346e+00,-4.944999999999632578e+00,1.355750394078499710e+01,-2.282819077797618501e+00
2.000000000000034817e+01,3.000000000879277540e+00,1.000000000006083312e+01,6.600000000000054712e-01,1.569999999999970752e+00,2.870000000000001364e+03,-2.175000000000091305e+00,-4.945000000000177032e+00,1.340854599149978732e+01,-2.172747423996118421e+00
1.999999999999741362e+01,3.000000002145108091e+00,1.000000000001000977e+01,6.600000000000058042e-01,1.570000000000209450e+00,2.869999999999987267e+03,-2.174999999999999822e+00,-4.945000000000089990e+00,1.343553790220308564e+01,-2.187865620003708322e+00
2.000000000000048672e+01,3.000000001207579370e+00,1.000000000004437695e+01,6.599999999999865974e-01,1.570000000000018714e+00,2.869999999999997726e+03,-2.174999999999915890e+00,-4.944999999999803997e+00,1.346252977971565201e+01,-2.303009942958872625e+00
1.999999999999869260e+01,3.000000001193760646e+00,9.999999999997276845e+00,6.600000000000295630e-01,1.570000000000061569e+00,2.869999999999991360e+03,-2.175000000000045564e+00,-4.945000000000168150e+00,1.335225830427529381e+01,-2.115895294962396811e+00
1.999999999999992184e+01,3.000000003721847719e+00,1.000000000003226930e+01,6.599999999999732747e-01,1.570000000000199014e+00,2.869999999999995907e+03,-2.174999999999958966e+00,-4.944999999999827978e+00,1.338619198353005757e+01,-2.182590622528569391e+00
2.000000000000051870e+01,3.000000003135318227e+00,9.999999999986858512e+00,6.599999999999583977e-01,1.570000000000148610e+00,2.869999999999998636e+03,-2.174999999999837730e+00,-4.944999999999553530e+00,1.344157606995429610e+01,-2.169605858205104543e+00
1.999999999999980815e+01,3.000000001487387546e+00,9.999999999976330045e+00,6.599999999999706102e-01,1.570000000000147500e+00,2.869999999999994543e+03,-2.175000000000000266e+00,-4.944999999999835971e+00,1.335275503643696204e+01,-2.163366951194892085e+00
1.999999999999933209e+01,3.000000002210868377e+00,9.999999999981913135e+00,6.600000000000550981e-01,1.569999999999812879e+00,2.869999999999987722e+03,-2.175000000000074873e+00,-4.945000000000386642e+00,1.337991559453167234e+01,-2.185958667474216188e+00
1.999999999999846523e+01,3.000000004173728030e+00,9.999999999947782214e+00,6.600000000000081357e-01,1.570000000000095319e+00,2.869999999999994998e+03,-2.174999999999994049e+00,-4.945000000000041140e+00,1.342392158304020455e+01,-2.231360755779727700e+00
1.999999999999894484e+01,3.000000002828245194e+00,1.000000000002778400e+01,6.600000000000237899e-01,1.569999999999915019e+00,2.869999999999999545e+03,-2.174999999999980282e+00,-4.945000000000025153e+00,1.330788325692529561e+01,-2.118391560821621944e+00
1.999999999999826983e+01,3.000000000093084207e+00,1.000000000010923173e+01,6.599999999999955902e-01,1.570000000000090434e+00,2.869999999999989086e+03,-2.174999999999914113e+00,-4.944999999999819096e+00,1.345880160204482046e+01,-2.262471708677025184e+00
2.000000000000049738e+01,3.000000000479916995e+00,1.000000000001239542e+01,6.599999999999933697e-01,1.570000000000061124e+00,2.869999999999989996e+03,-2.174999999999966960e+00,-4.944999999999884821e+00,1.336164430880757337e+01,-2.193619902334419614e+00
2.000000000000066791e+01,2.999999999863891098e+00,1.000000000007200462e+01,6.599999999999959233e-01,1.570000000000014495e+00,2.869999999999995907e+03,-2.174999999999905231e+00,-4.944999999999827089e+00,1.342885043023444958e+01,-2.251543334853778777e+00
1.999999999999888800e+01,2.999999999765130543e+00,1.000000000002274625e+01,6.599999999999969225e-01,1.570000000000024043e+00,2.870000000000005912e+03,-2.174999999999921219e+00,-4.944999999999880380e+00,1.342629652902616755e+01,-2.388228211079362229e+00
2.000000000000012079e+01,2.999999999527415806e+00,1.000000000001224620e+01,6.599999999999883737e-01,1.569999999999952767e+00,2.869999999999999091e+03,-2.174999999999929212e+00,-4.944999999999840412e+00,1.338401943816875317e+01,-2.169745611132097629e+00
2.000000000000093792e+01,2.999999999996507682e+00,9.999999999973093523e+00,6.600000000000008082e-01,1.569999999999899254e+00,2.869999999999991815e+03,-2.174999999999970512e+00,-4.944999999999968310e+00,1.342262474654081927e+01,-2.234544844810014474e+00
2.000000000000042988e+01,3.000000002001964816e+00,1.000000000000653344e+01,6.600000000000126876e-01,1.569999999999902363e+00,2.869999999999999545e+03,-2.174999999999889688e+00,-4.944999999999857287e+00,1.334195314413169697e+01,-2.165710905971735212e+00
1.999999999999865707e+01,3.000000001394738991e+00,9.999999999916292737e+00,6.600000000000008082e-01,1.570000000000008944e+00,2.869999999999994543e+03,-2.174999999999900346e+00,-4.944999999999886597e+00,1.343055813288709643e+01,-2.170257583615314623e+00
1.999999999999899103e+01,3.000000001828659446e+00,9.999999999942778217e+00,6.600000000000415534e-01,1.569999999999910134e+00,2.869999999999994998e+03,-2.175000000000014921e+00,-4.945000000000267626e+00,1.334859064168580645e+01,-2.041816991583009333e+00
2.000000000000002842e+01,3.000000001225306967e+00,1.000000000001353051e+01,6.599999999999959233e-01,1.569999999999950768e+00,2.870000000000003183e+03,-2.175000000000002487e+00,-4.944999999999954987e+00,1.346569835940894677e+01,-2.182900500806265409e+00
1.999999999999891642e+01,3.000000000596643623e+00,9.999999999952150276e+00,6.599999999999943689e-01,1.570000000000043583e+00,2.870000000000000455e+03,-2.174999999999962963e+00,-4.944999999999916795e+00,1.344376584156949939e+01,-2.191454602822661357e+00
1.999999999999993605e+01,2.999999999165226860e+00,1.000000000001312195e+01,6.599999999999651701e-01,1.570000000000124851e+00,2.870000000000000909e+03,-2.174999999999911893e+00,-4.944999999999702744e+00,1.335311728668393805e+01,-2.129167299024770532e+00
2.000000000000042277e+01,2.999999999498260017e+00,1.000000000003936407e+01,6.600000000000056932e-01,1.569999999999957208e+00,2.870000000000001819e+03,-2.174999999999984723e+00,-4.944999999999977192e+00,1.345458547068674982e+01,-2.170514804875699255e+00
2.000000000000167688e+01,3.000000000663518573e+00,9.999999999993621103e+00,6.599999999999918154e-01,1.569999999999949436e+00,2.869999999999999545e+03,-2.174999999999887912e+00,-4.944999999999747153e+00,1.344123601926703948e+01,-2.165480812695223189e+00
2.000000000000026290e+01,3.000000000577796477e+00,1.000000000000593481e+01,6.600000000000236788e-01,1.569999999999926787e+00,2.869999999999995453e+03,-2.175000000000024691e+00,-4.945000000000132623e+00,1.340249341427279717e+01,-2.209837959710559296e+00
