2.611938242251394138e-03
2.511320032364783641e-03
2.555666363372401453e-03
2.588177209193520244e-03
2.565205339265509438e-03
2.596311028860596223e-03
2.520895211673793070e-03
2.640690709812910930e-03
2.615827345160531489e-03
2.630079898798790179e-03
2.451766126575309884e-03
2.598345732171016692e-03
2.483270232087258361e-03
2.571598006472278902e-03
2.555355335011162514e-03
2.582677321789710566e-03
2.588554402418302095e-03
2.617629312225873417e-03
2.637259232348119348e-03
2.620559292126557489e-03
2.439072459924200749e-03
2.642436142480023616e-03
2.439490850139490810e-03
2.457119773579913465e-03
2.425324078979303535e-03
2.636182760336400546e-03
2.436313153269907463e-03
2.604119017784562243e-03
2.571748348736341023e-03
2.613702935849134164e-03
2.478710920129076085e-03
2.633124552573485808e-03
2.642251558561512555e-03
2.613978830846172986e-03
2.626450461769219442e-03
2.635498640615235345e-03
2.636614347856009420e-03
2.513163196420633780e-03
2.400330881387140788e-03
2.605343691956940513e-03
2.469316936241522289e-03
2.433905893625410745e-03
2.444567710437303958e-03
2.602248210726423004e-03
2.523651843198832390e-03
2.631928591455097964e-03
2.505621115344493048e-03
2.465510227313400925e-03
2.502843261127373885e-03
2.629897454983682638e-03
2.461577430626452415e-03
2.636476667870415232e-03
2.636831390009465332e-03
2.503548425198668780e-03
2.405120076119197925e-03
2.430585166511725712e-03
2.593634116187319358e-03
2.584139190755923264e-03
2.444521163188287816e-03
2.530236941369923363e-03
2.601470104797474776e-03
2.519750434695128272e-03
2.396490109146521500e-03
2.622854196342395451e-03
2.454611929075475180e-03
2.430490645278092238e-03
2.454575904001524318e-03
2.620834652097745864e-03
2.635112708634891002e-03
2.431327069024772931e-03
2.496500351324724542e-03
2.419366922815048386e-03
2.639957902739326935e-03
2.387016584749155831e-03
2.553521801420625178e-03
2.556328725375635498e-03
2.492302538499701920e-03
2.467926760739310582e-03
2.641555133245780153e-03
2.396803099269213377e-03
2.472696694540740380e-03
2.514233248122143757e-03
2.631314560120382416e-03
2.622892539861699547e-03
2.624833435306288005e-03
2.503481903651224704e-03
2.640159072459210502e-03
2.431794324934431935e-03
2.640813944100534830e-03
2.616712991285480988e-03
2.626919322756431086e-03
2.405274163564214904e-03
2.642269036072637540e-03
2.612239283463418677e-03
2.441651106182888414e-03
2.640334382596308191e-03
2.464535053529425153e-03
2.477948686633700201e-03
2.626692115111810191e-03
2.522329259295766086e-03
2.642473594289576535e-03
2.528213830286269066e-03
2.640448521444468868e-03
2.470552489272864836e-03
2.641786264413306488e-03
2.509220769268371599e-03
2.637262620845173908e-03
2.613023453018675432e-03
2.535584346406267401e-03
2.639074575059730671e-03
2.635803248666265027e-03
2.622836362147370603e-03
2.620388083854316257e-03
2.584043956154488328e-03
2.560366387129332181e-03
2.408809614386003047e-03
2.588180062664723925e-03
2.399374433507941041e-03
2.429184825518349890e-03
2.497428442833834594e-03
2.440762606586735235e-03
2.453905694952478525e-03
2.497904259157105507e-03
2.525298296083555282e-03
2.623252968943157876e-03
2.421799863700381267e-03
2.507561119079329895e-03
2.466956223846041279e-03
2.468959717315168372e-03
2.433647119455596176e-03
2.449147531719765049e-03
2.641972275067419173e-03
2.636760944939116249e-03
2.570753914021737911e-03
2.476997589013008386e-03
2.518992838090458857e-03
2.437797493321851913e-03
2.545325205387061283e-03
2.477028263828452183e-03
2.474329593437244162e-03
2.628977745546235215e-03
2.495929300400019125e-03
2.430779737579450307e-03
2.558354333246593178e-03
2.577591722736334925e-03
2.541543107648074756e-03
2.424861816644250864e-03
2.526962761505253605e-03
2.525646241228496260e-03
2.390414177243399205e-03
2.548954999100532318e-03
2.523359362400419761e-03
2.480263208464066234e-03
2.546018598889638988e-03
2.621471511202094762e-03
2.634070656619570856e-03
2.619014315811527775e-03
2.598980986197813384e-03
2.576880851722632669e-03
2.641627540077582173e-03
2.556023047272904490e-03
2.388894525485305356e-03
2.445645430842674235e-03
2.584905347774203721e-03
2.434891589584451798e-03
2.594832039067159271e-03
2.632451133369335602e-03
2.621380735149416580e-03
2.639658109920953871e-03
2.407444228414876760e-03
2.622129771340473217e-03
2.635344731512168082e-03
2.638942066990693832e-03
2.641983867294184912e-03
2.552606372189983926e-03
2.402485608830080745e-03
2.589933699061548657e-03
2.488073159149484757e-03
2.492851831706477048e-03
2.555853622420165179e-03
2.560895706037678941e-03
2.541375644556788816e-03
2.417740444228753428e-03
2.623752326403862734e-03
2.634537555845329129e-03
2.519892394887528198e-03
2.428866485137151383e-03
2.524302256291399964e-03
2.636177766761793346e-03
2.642313264876300014e-03
2.630452276790915412e-03
2.557131442493718130e-03
2.585250082764040287e-03
2.563307959256782426e-03
2.556230280619096584e-03
2.559075191409510269e-03
2.494340273623276653e-03
2.587118036350975845e-03
2.393665529338436480e-03
2.640627933446422146e-03
2.459258450247330495e-03
2.609308233511033713e-03
2.543563721944425669e-03
2.434018427396019649e-03
2.617587401867564612e-03
2.639531308794324828e-03
2.641541579257561043e-03
2.606425335885215796e-03
2.603718640106247179e-03
2.622237133194524773e-03
2.615664697301902167e-03
2.488294838193647572e-03
2.614221910924366225e-03
2.637400122488818381e-03
2.641464357193102405e-03
2.558529643383690867e-03
2.457446496032774166e-03
2.642564370342254283e-03
2.623063391450040482e-03
2.514472939703282003e-03
2.575920301978577333e-03
2.631678556040845454e-03
2.465800924692311200e-03
2.577622397551778723e-03
2.582077914494914587e-03
2.398727587254378610e-03
2.641355033577597912e-03
2.496016331271742016e-03
2.638927621292723544e-03
2.564344661013595074e-03
2.641851002541247776e-03
2.510855808268278901e-03
2.450755106059333398e-03
2.636724206497364359e-03
2.609172515286892029e-03
2.629819876235323269e-03
2.514162446367893943e-03
2.448900171434766505e-03
2.506585945295354122e-03
2.624867676960736078e-03
2.603802995848716537e-03
2.479894753994846442e-03
2.455849800552171395e-03
2.466040616273449445e-03
2.500546216808132837e-03
2.564682797351272234e-03
2.408857945054521110e-03
2.468366730330581217e-03
2.448541347430859948e-03
2.472866476077379989e-03
2.399637487884562215e-03
2.218507696266608809e-03
2.612104100265128306e-03
2.394911604544844308e-03
2.519711021124122416e-03
2.491107469091066121e-03
2.562996752553593337e-03
2.569013296587282277e-03
2.409075878917728633e-03
2.611970522144390142e-03
2.566406828984354495e-03
2.589982921439817464e-03
2.417311353496448371e-03
2.633780494266511028e-03
2.437903963466151857e-03
2.544023130808273792e-03
2.565736263251408838e-03
2.448254573574855548e-03
2.516354090594535940e-03
2.601004632307318126e-03
2.523737268993003074e-03
2.423332177736943049e-03
2.556565920169470360e-03
2.413701177397504540e-03
2.594450030609720802e-03
2.600592662402236889e-03
2.641957116001647423e-03
2.520084825851849706e-03
2.508754761752364504e-03
2.569378184217496926e-03
2.430711254270553727e-03
2.458767118174387100e-03
2.519484348505352401e-03
2.568432258513362459e-03
2.641754162862261068e-03
2.604135246902035319e-03
2.640889026061590816e-03
2.472581128956977646e-03
2.637166672875938811e-03
2.548222013684998174e-03
2.624476394721884237e-03
2.386808638035162276e-03
2.632879689075790647e-03
2.419746256143233756e-03
2.491010272728179115e-03
2.622839750644424730e-03
2.485844776481090871e-03
2.470037972746389528e-03
2.437833696737752489e-03
2.491383185746155228e-03
2.470494349797082954e-03
2.410056581302162920e-03
2.551713770728974290e-03
2.518614753155925395e-03
2.454296263823529337e-03
2.611227014553790717e-03
2.638590555006747277e-03
2.424200703034667861e-03
2.631444928086015735e-03
2.452410654383519514e-03
2.432289758872230919e-03
2.509847106197655216e-03
2.637887531038855902e-03
2.437007081798336482e-03
2.590740161360586147e-03
2.542319608499470345e-03
2.528722283186435847e-03
2.485403201812268030e-03
2.482929955646178549e-03
2.495925911902964131e-03
2.474440165446400129e-03
2.543581912823351682e-03
2.468567008340714040e-03
2.610552346955989037e-03
2.425927944822854967e-03
2.467763042828979500e-03
2.497527600958173669e-03
2.587066852211253234e-03
2.642240679702547411e-03
2.600433938066513007e-03
2.642108885001312035e-03
2.583259251573381994e-03
2.531989686056996050e-03
2.624440012964032645e-03
2.641797321614221782e-03
2.435793464826873939e-03
2.539321501973790425e-03
2.630515053157404196e-03
2.517358334116402870e-03
2.430595332002890262e-03
2.577118046516466664e-03
2.536400974196469441e-03
2.444009856816916487e-03
2.606584595246790991e-03
2.637442924556878364e-03
2.421504172746863793e-03
2.404453255567206692e-03
2.473170370760608642e-03
2.483808824777018493e-03
2.487183411159679669e-03
2.575623540973358532e-03
2.642531198739507536e-03
2.642457543514053174e-03
2.325785907943416116e-03
2.436652716343186680e-03
2.484170680594078879e-03
2.496948346303756641e-03
2.492093700075957187e-03
2.502345865428122398e-03
2.455077044881731532e-03
2.508347072054089005e-03
2.641857779535357331e-03
2.545430427137709752e-03
2.625780252720173649e-03
2.544982253816727071e-03
2.635753669604095056e-03
2.640575500913048060e-03
2.450630980061958321e-03
2.390203020374301671e-03
2.389313807410347028e-03
2.392497032880387588e-03
2.642293825603722526e-03
2.496205017055108232e-03
2.488036955733584181e-03
2.557683232487796641e-03
2.601803425902494884e-03
2.603765187355263321e-03
2.566470497060594890e-03
2.448874133510030044e-03
2.635471710980747274e-03
2.529755774788144083e-03
2.553630233326378493e-03
2.563678375487455155e-03
2.526201419719629766e-03
2.475785755461048631e-03
2.634985015798510348e-03
2.631322228824242715e-03
2.446685877780442175e-03
2.589029148689872117e-03
2.502950801323375590e-03
2.425456230364439643e-03
2.621288532361136341e-03
2.526856113019003078e-03
2.609868762260674716e-03
