4.483140952927487394e-04
4.278294377092787203e-04
4.537092772615066165e-04
4.540662407771897842e-04
4.412683672699036484e-04
4.456930403040212864e-04
4.210014025324100226e-04
4.259769936550418220e-04
4.541082888036527014e-04
4.364254221826124880e-04
4.542598579843817722e-04
4.543703298963579543e-04
4.544342760197534197e-04
4.253268900686567040e-04
4.161740989429277477e-04
4.275191533301940386e-04
3.548621877961472904e-04
4.505193011269829147e-04
4.269068653649823715e-04
4.471021245693831319e-04
4.482699617332446375e-04
4.363965314160712233e-04
4.455354598809969403e-04
1.468913761221264322e-04
2.986899501509749743e-04
2.505172805337601899e-04
4.418648910588921278e-04
1.547200684539221192e-04
2.057635509763491009e-04
2.988399858515267322e-04
3.555763295147384919e-04
2.169440936101894261e-04
2.955694406684850756e-04
4.515903450220501328e-04
4.312732354827571841e-04
4.511847701847449552e-04
2.788219662860238579e-04
4.181266179135384800e-04
4.404546106789919207e-04
4.397127129691907736e-04
4.534395380983110061e-04
4.430475416412668469e-04
4.422206584600369881e-04
4.444201290784078511e-04
4.375971850557279215e-04
4.519327098064448989e-04
4.268695711270692711e-04
3.885960834423041774e-04
4.314931058705854345e-04
4.543900197818351240e-04
4.150431573121332943e-04
4.485014559008171191e-04
4.544145861342762500e-04
4.541893485658272684e-04
4.336085724448410813e-04
4.280998822733558633e-04
4.527264391462404512e-04
4.471220904812922645e-04
4.209086269816803894e-04
4.438919678357254855e-04
4.536902927769110878e-04
4.100331242247182086e-04
4.471974763668106704e-04
2.615452265551525854e-04
4.355501730365890609e-04
4.319308837916148360e-04
4.520606327228393509e-04
1.655188511976115240e-04
4.294637595430896015e-04
2.019908063700275903e-04
1.806758306097305323e-04
2.201546643834949356e-04
2.291361964430176242e-04
4.134314696457401235e-04
4.412398752082085404e-04
4.241080186844931065e-04
4.284511412427792943e-04
4.539293623365596789e-04
1.770773660255646877e-04
2.437361698503183384e-04
2.975344114981358194e-04
4.055886386267092613e-04
4.356639265961447351e-04
3.664370801923945561e-04
2.858666822119518779e-04
4.142637200075906592e-04
4.440290916331840324e-04
4.222455763394999083e-04
4.314639084080086856e-04
4.371809371963884870e-04
4.383265388976784389e-04
4.542893621429940055e-04
4.333264120922090349e-04
4.132116299275154486e-04
4.310271732534998765e-04
4.274576301054788178e-04
4.509725365282000195e-04
4.352750360231691980e-04
3.737231352286336968e-04
4.233835719791101751e-04
4.168081009874507266e-04
4.193699329717289555e-04
3.757743796530620779e-04
4.543870754998946375e-04
4.242396219533131532e-04
4.509890061053046855e-04
3.578429358952736400e-04
4.148920175058538472e-04
4.253908975312592120e-04
4.388458672945391823e-04
4.409765459921542534e-04
2.495741442202855818e-04
2.014524321493641401e-04
4.122774031338712389e-04
4.536952612526856080e-04
4.352233577411925621e-04
3.856181876163077503e-04
1.646928727696863573e-04
2.441290168021514873e-04
4.155582533037046797e-04
1.951542297085710753e-04
4.371294122624295661e-04
4.298551956931595769e-04
4.367196050198349764e-04
4.355990603846429253e-04
4.375862053376581261e-04
1.556378563400651299e-04
2.638617323806586690e-04
4.142800055670740889e-04
4.477547737328626339e-04
4.541137479930840506e-04
2.816643331339462562e-04
4.542570363808554252e-04
4.426424268480149229e-04
4.317351810513816632e-04
4.538375988827471168e-04
4.358822635037956183e-04
4.125032234247875593e-04
4.508208139994531252e-04
4.509692855502239945e-04
4.428934575530468591e-04
4.286047346173425072e-04
4.184710068917673340e-04
4.523174906525451633e-04
4.385198800784384640e-04
4.516736743348872293e-04
4.136782066062754423e-04
4.224876821898996041e-04
4.522530844850966071e-04
4.393106344666899542e-04
4.434760880116286321e-04
4.290481864150281783e-04
4.510084506339534678e-04
3.554660109507800248e-04
4.203334492367605865e-04
4.435684035183050117e-04
1.833702319553405697e-04
2.228889668833196086e-04
2.318605926608966427e-04
1.906735386435749020e-04
4.213705112110977717e-04
4.534128555432251741e-04
2.556842959869304408e-04
2.326140221416314298e-04
2.457760971910378915e-04
4.417433474200355321e-04
1.639442890863119237e-04
4.435400954742311401e-04
4.523881840887209577e-04
1.536344564971700750e-04
4.540699211296153788e-04
4.544070720814072373e-04
4.279615930309625844e-04
3.579218487851999796e-04
4.494993221218213640e-04
4.250679159363060771e-04
4.456731050617156751e-04
4.150634912592849539e-04
4.178541184860236194e-04
4.343775207449706958e-04
4.317966736064933085e-04
4.017685861569166169e-04
4.539201614554955297e-04
4.544249831298786523e-04
4.536807238606043575e-04
4.248658645881386777e-04
4.227656101372422384e-04
4.486624406498352052e-04
4.180796934201115524e-04
4.130746594780747251e-04
3.645981307637183159e-04
4.470257265869476550e-04
4.494196118222027652e-04
3.605128168928479148e-04
4.518279424407284535e-04
4.543292019580014900e-04
2.104817627860147645e-04
4.372251320950996858e-04
1.531135179461230256e-04
1.831279420873195291e-04
1.572736503148462815e-04
3.411547765260722646e-04
3.891291211519505534e-04
4.253227190025743345e-04
2.079889374097171394e-04
4.532270590849376288e-04
1.926679216230271796e-04
4.182584051999797630e-04
2.056255070907841824e-04
4.316881338795405961e-04
4.130027699273605690e-04
4.532740755871751746e-04
4.405887901945099269e-04
4.520549588461831355e-04
4.288960038422281388e-04
4.309169160287485063e-04
4.514255572421922583e-04
4.497545852321427665e-04
4.502520768712781128e-04
4.200672984171800067e-04
4.544432928831961698e-04
4.102032178459897173e-04
3.719170022757527574e-04
4.450806296603953714e-04
4.184561628036506534e-04
4.543218412531502466e-04
4.242716103498126194e-04
4.541375476054364930e-04
4.543246015174694425e-04
4.452587587177961890e-04
4.007780806407637239e-04
4.391329347837388689e-04
4.060312010058920009e-04
4.014961480686089074e-04
4.246873981650989087e-04
4.341145902337625656e-04
2.127361473295364465e-04
3.538280087645435490e-04
4.540327802397200476e-04
4.508335725545286211e-04
2.117017229411042906e-04
1.882973037651610858e-04
1.858308542479138897e-04
4.269537591888056694e-04
4.525439550051359736e-04
4.254711598837416825e-04
4.479152984378275207e-04
4.333768022508366910e-04
4.255299535137412287e-04
4.276387034448201219e-04
1.626522093584816962e-04
4.386551330300805839e-04
2.806898064812413628e-04
4.508579855589520320e-04
4.372568751347707646e-04
4.300835922307738569e-04
4.509585818585860537e-04
4.540150532088699231e-04
4.190233357820447231e-04
4.476213916270368868e-04
3.947321203543427176e-04
4.538917000634039431e-04
4.415285988559996253e-04
3.926528745818759492e-04
4.045511779475259736e-04
4.318437207783343756e-04
4.087019407523656317e-04
4.258010421394928615e-04
4.470495568689036728e-04
4.092578273166544217e-04
4.523567477450853090e-04
4.376402758487114310e-04
4.249997374076211996e-04
4.464626633354288579e-04
3.900295193728824995e-04
4.405041420887202209e-04
4.459689747271333000e-04
4.354583789131729775e-04
4.359912939444051056e-04
4.513109142641337067e-04
4.426841681784423016e-04
4.291631974283293110e-04
4.436636326373183566e-04
2.039928414155648350e-04
4.177295692260193862e-04
2.093641164283578638e-04
4.155439919380552838e-04
3.124162538968349649e-04
4.459680853086304768e-04
1.857999392875385371e-04
4.344426016436974259e-04
3.747624360840298360e-04
2.278415404684894642e-04
1.668920520268235238e-04
1.587903235494509736e-04
4.161699892160525293e-04
2.756053075964142157e-04
4.200330404700180109e-04
2.444650636482156294e-04
3.440818834885949872e-04
3.845021514128371285e-04
4.506864504663138284e-04
4.537819028827058806e-04
4.450068385942613212e-04
4.352958606839775783e-04
4.386169493736646603e-04
3.984217963394572526e-04
4.531697069263047775e-04
4.339706884539201682e-04
4.335396271760675745e-04
4.430222698879441342e-04
1.568444598828099793e-04
4.236035650453525651e-04
4.470642476090026384e-04
4.178593323186265813e-04
4.524394329962479699e-04
4.279467796124494252e-04
4.540508753058127532e-04
4.353394728602213840e-04
4.074916568571951606e-04
4.074023163020628431e-04
4.522748292340113318e-04
4.512081710922512950e-04
4.250652170111939780e-04
4.479698596625375463e-04
4.072701609803789247e-04
3.599329466985853377e-04
3.670448903954884236e-04
4.458407451147034721e-04
4.405590100094657850e-04
1.505396634772543276e-04
4.389362506161920922e-04
4.505871116204252110e-04
4.311872072448079884e-04
4.363678246671511950e-04
1.684931433451912410e-04
4.185080557728521012e-04
4.330796444620700863e-04
3.890099084029634757e-04
4.543749303368900560e-04
4.543027034205368944e-04
4.086512438977024913e-04
4.540534822221142341e-04
4.494623039103401180e-04
4.148353400784990071e-04
4.356025567194472836e-04
4.391728666075570258e-04
4.222684251941423764e-04
4.370605896720701987e-04
4.455725087620816534e-04
4.439773213423967241e-04
4.171677634282459934e-04
4.431031456324974649e-04
4.306484343192983543e-04
4.354607711422496465e-04
4.318800335889339806e-04
4.513510301055731000e-04
4.050937539038753960e-04
4.431853095003997754e-04
4.541624206539130490e-04
4.521671175863543998e-04
4.463899457054189756e-04
4.305148681958513167e-04
4.359281452307018994e-04
4.101563546917699949e-04
4.467183864898035140e-04
4.285167435247662663e-04
4.344223290357528632e-04
4.230703433180849527e-04
4.486764259890526382e-04
1.860056096489245156e-04
4.475499621203760385e-04
2.116307228088930661e-04
2.113162980333295634e-04
2.061933241308527690e-04
4.225361094939003234e-04
2.410592348439282774e-04
1.906525606347487796e-04
2.830767297164912778e-04
2.857852544145347297e-04
1.846286211236744881e-04
1.804117499883893495e-04
2.489452946691585763e-04
4.114291432389691823e-04
2.048191878787326099e-04
1.844020034230659357e-04
4.535009386446120332e-04
4.359973358563038479e-04
3.993155085868159123e-04
4.504661507040360084e-04
4.023538235317999250e-04
4.221014905420362204e-04
4.398867322997162643e-04
4.544442436409061982e-04
4.541283467243723980e-04
4.374892893904496990e-04
4.529873147940110265e-04
4.498121827476039510e-04
4.062828757725984812e-04
4.453692612993758924e-04
4.467377696792451452e-04
4.455662521629580449e-04
4.183818196846527315e-04
4.193709757382496021e-04
4.298290958605410837e-04
4.296579901423525582e-04
4.484229417157368819e-04
4.145616138668423720e-04
4.101996295023747408e-04
3.643034572128390526e-04
4.271982879378856098e-04
4.091501770082045866e-04
4.170902306704792517e-04
4.217355101629102483e-04
4.523352790226023846e-04
4.229453646836310414e-04
2.361411798975505928e-04
1.668922207096430266e-04
3.280005222255702999e-04
1.607555704055335991e-04
2.023205659473646298e-04
4.116713717677831261e-04
1.662045928633182085e-04
4.126807697597209296e-04
2.421773565804401110e-04
4.526681362298976799e-04
1.583998534918927331e-04
4.277109303611732294e-04
1.552051389036209752e-04
4.543810335879958952e-04
4.510612023520542174e-04
4.392933061406859322e-04
3.915577857176279013e-04
3.977314235636149721e-04
4.336942633171513256e-04
3.951277275704950082e-04
4.532021860364610728e-04
4.451408954313651879e-04
4.542154177288422402e-04
4.326778419860012300e-04
4.271536943343283627e-04
4.340629426213894510e-04
4.539405567418543404e-04
4.525672945734352166e-04
4.423495014645377845e-04
4.455818016519564207e-04
4.237919990895451126e-04
4.390014848629365373e-04
4.194065831479676203e-04
4.303625016054299325e-04
4.461818524453527797e-04
4.533340346621094526e-04
4.251613968879172970e-04
4.503779449242348472e-04
4.450157634488935616e-04
4.417800896050848151e-04
4.473609760233195651e-04
4.221071337490888602e-04
4.149056041402251777e-04
4.542849457200832486e-04
3.747755013351408162e-04
3.752403605161022605e-04
3.073820224922213344e-04
4.366440351166952258e-04
4.132352148526430248e-04
2.643014731563151157e-04
4.404027483793939942e-04
1.574217384955728090e-04
1.887882934483445176e-04
1.996671698616968630e-04
4.182360470589940155e-04
2.516187333407442521e-04
2.383804749961271796e-04
4.533727090321821511e-04
4.534609761511904091e-04
4.434185211657709689e-04
3.170420888606171250e-04
4.265491351092105202e-04
4.497347419986478276e-04
4.352928550628299949e-04
4.544248911210680341e-04
3.898726750203432615e-04
4.519874857183797906e-04
4.437931810427007398e-04
4.500393525010763481e-04
4.424791725483344157e-04
4.128023133985775795e-04
4.130862525882153806e-04
4.192475919231801549e-04
4.113139788776503346e-04
4.454743660307313433e-04
4.309370352886753540e-04
4.539935231471799019e-04
4.475448402965836949e-04
4.544278354030085207e-04
4.534390473846542854e-04
4.369765856279550368e-04
4.218926305418813950e-04
4.434628080732927317e-04
4.436217992980802513e-04
4.077855943375893158e-04
4.477744636183398036e-04
4.536788223451844633e-04
4.009198968875649365e-04
2.112331220685101547e-04
4.033399432946455825e-04
4.431096169188458852e-04
3.230970966800845111e-04
3.626058946565143470e-04
2.034867009482292384e-04
4.541616232442208440e-04
2.292195104210529601e-04
3.861216291585312750e-04
1.497724480097251316e-04
3.896762975488320233e-04
4.517868145023719892e-04
4.372979724035237076e-04
2.106652590240362590e-04
4.222294747976377692e-04
3.924203683173863423e-04
4.524212152517410705e-04
4.509339541669378309e-04
4.360528785083274232e-04
4.105662232735716273e-04
4.528389045824471456e-04
4.520539160796625431e-04
4.375684476372044261e-04
4.421476341339916757e-04
4.469677303666403138e-04
4.514925396563388284e-04
4.140148361748070046e-04
4.145914553910935566e-04
4.216703372553729542e-04
4.226276889300915949e-04
4.449140323739282209e-04
4.506580197438258173e-04
4.515247427400631065e-04
4.146069128712812058e-04
4.386072884485473118e-04
4.370945102535930805e-04
4.312535455972800686e-04
4.381354059283736838e-04
4.172264037102277703e-04
4.207546655718746496e-04
4.173238410406964936e-04
4.523207723001247639e-04
2.046809293059428795e-04
3.189107264655268890e-04
2.077994452642021846e-04
1.953082677923856998e-04
3.840713968310199649e-04
2.466237283590671917e-04
2.016643437750719121e-04
4.519108117095124049e-04
1.537203313871015828e-04
3.713683844075045927e-04
2.957564332413109283e-04
1.881666972584563225e-04
3.702402337106328566e-04
1.627133338783508145e-04
4.381139065362872381e-04
4.156848267575430009e-04
2.177526210336963770e-04
4.119356210719438117e-04
4.539156223541706333e-04
3.969976226291501765e-04
3.995695755825989532e-04
3.877423336883672501e-04
4.399359876830126557e-04
4.320304066551247440e-04
4.489422087733906368e-04
4.301238614202309652e-04
4.137901199896183734e-04
4.543857260373386150e-04
4.123292347638655899e-04
4.502255169946064745e-04
4.161187096389219416e-04
4.380615535230325910e-04
4.184962786450900467e-04
4.135180806061567664e-04
4.311759515003061758e-04
4.350125962256177884e-04
4.204181586817572810e-04
4.444082906114387539e-04
4.509044193387221305e-04
4.214552206560944663e-04
4.188514326541639384e-04
4.372409882801333832e-04
4.301680869885457395e-04
4.430453947690185653e-04
4.331436825942761156e-04
4.418851023276295937e-04
4.317112280910114517e-04
4.540319214908207458e-04
2.051322938613435844e-04
1.791802120579608201e-04
2.630838898955004438e-04
2.355838518618950808e-04
1.999564455623518739e-04
2.669206572992262501e-04
3.795757850038981450e-04
1.938767333772274345e-04
2.320979907271519393e-04
1.783509059780507980e-04
3.849344394748316594e-04
2.156816560541873319e-04
2.056055411788751039e-04
4.161049083173257992e-04
4.463523754410739664e-04
4.340724501984890302e-04
4.398206699736760929e-04
4.352639949658922516e-04
4.078031680204217252e-04
1.689410115657876148e-04
4.212263947440305625e-04
4.048940334455775687e-04
4.334984072289003836e-04
4.533744878691878515e-04
4.415765967855506667e-04
4.090062138891550924e-04
4.536968867416736476e-04
4.190754127688674615e-04
4.348467350096358003e-04
4.538652935347500198e-04
4.086683575364817014e-04
4.516188370837452407e-04
4.196428311040899728e-04
4.411654094107964248e-04
4.529462788644651261e-04
4.394327608280139972e-04
4.463759296965980213e-04
4.137791709411520994e-04
4.201621901705542917e-04
4.344373878110943557e-04
4.258283994258567589e-04
4.418906841954751909e-04
4.515422550836884191e-04
4.257996926769367849e-04
4.483491813192064615e-04
4.303376285569533765e-04
4.135567856458330404e-04
4.297236537635465729e-04
4.181319237549520600e-04
4.388432603782377556e-04
3.487448593422725327e-04
4.353571385518644659e-04
1.640569998793470598e-04
4.399951800178583043e-04
1.771932511225669370e-04
4.512096432332215654e-04
4.327072848054063663e-04
1.538610435281750519e-04
1.979731956489871338e-04
2.129056428935387744e-04
1.910858301240568060e-04
4.112808250362160281e-04
4.184546906626803830e-04
4.490797006060917107e-04
3.195978482633931445e-04
2.339969299003660601e-04
4.106283598903578708e-04
4.484241071606717222e-04
4.534855731732350022e-04
4.415260532789052955e-04
4.375977984477988901e-04
4.295999019132345988e-04
4.133487230553703658e-04
4.380563090208260536e-04
4.543031941341936692e-04
4.324681232369471029e-04
4.514035671364490920e-04
4.335420807443512861e-04
4.523967715777140841e-04
4.383819895408913418e-04
4.089185601622178571e-04
4.512304065548229030e-04
4.542376838610173695e-04
4.324331598889035204e-04
4.191557364605569746e-04
4.440003848842640041e-04
4.474613883053323504e-04
4.236511642700575039e-04
4.505869276028039746e-04
4.393880138764389809e-04
4.509024564840951395e-04
4.311343021786894153e-04
4.299353353672277995e-04
4.186038676143328391e-04
4.158464248986319472e-04
2.049240932576650096e-04
4.342809421634012744e-04
2.733933544493997655e-04
1.783241620837578421e-04
2.182889863953275272e-04
2.132482376999601944e-04
1.765028630119228959e-04
1.814188630948629171e-04
4.340214159781868842e-04
1.598514764973742977e-04
4.185187901340935634e-04
4.073867974826680971e-04
4.337048136607714972e-04
4.251687575927685404e-04
4.161363753305649693e-04
4.390218801492952396e-04
4.303084924335837244e-04
4.384884744044063908e-04
4.410797492080897561e-04
4.540750122838042011e-04
4.391401114709688760e-04
4.154458492067049737e-04
4.422817829799061064e-04
1.591208345320748547e-04
4.326347511930177746e-04
4.293447614813273357e-04
4.424059948742713340e-04
4.478788322792101465e-04
4.537629797373173945e-04
4.525432496042543868e-04
4.374703355754576916e-04
4.514761620880447805e-04
4.436555051923783753e-04
4.332889338366745897e-04
4.528024997630369767e-04
4.321893978799122636e-04
4.290082852608135427e-04
4.444448181092631707e-04
4.232504045605092399e-04
4.513674996826778202e-04
4.515345876828016913e-04
4.341629255289525583e-04
4.427007297643576942e-04
4.277204072686692331e-04
4.271955276735664680e-04
4.443876499682516642e-04
4.182080150413521069e-04
4.279229800000969829e-04
4.179202114816673664e-04
4.160734106344831078e-04
1.638195404738846392e-04
1.506146199883231097e-04
4.525509170051411688e-04
4.449220371404540085e-04
1.588668288754988835e-04
2.020490632819650796e-04
4.411258762918244245e-04
4.376992228267286922e-04
2.760999469624197478e-04
4.066949525658555462e-04
3.866390253703686029e-04
4.124624021824665251e-04
4.476669973275112591e-04
4.476526132834477236e-04
4.542902515614968286e-04
3.955557525575964972e-04
3.907135435407904991e-04
4.544354414646882057e-04
3.899241692846986069e-04
4.544441823016991014e-04
4.513242248720730743e-04
4.399505557446974275e-04
4.221992959077475248e-04
4.526248614192928798e-04
4.507972597439290703e-04
4.450792495282357734e-04
4.163816401501300719e-04
4.543833951474689887e-04
4.521008712426929379e-04
4.409964812344597564e-04
4.524199884675991876e-04
4.497182110823360647e-04
4.498678787476452414e-04
4.325955861092883013e-04
4.445729863824859560e-04
4.330326279598325947e-04
4.201854377300428623e-04
4.521252535775127732e-04
4.382763940958791160e-04
4.204116567258053393e-04
4.245760981738269462e-04
4.345871168156106835e-04
4.409712094811370437e-04
4.348029388157707040e-04
4.328954734927705265e-04
4.246529562003156224e-04
4.464925048596800426e-04
4.129401732665212345e-04
4.270008676998538334e-04
4.402930738771100171e-04
4.364383647553092202e-04
3.695463952695897392e-04
4.056340296399588217e-04
1.569641326758502563e-04
4.266188164484692436e-04
1.594719248186787829e-04
1.910044176614413643e-04
4.444292992898684247e-04
1.576234218084976543e-04
4.458715680662681522e-04
4.448449950963439875e-04
4.382090743160934861e-04
4.076810723287012579e-04
4.384804696378806032e-04
4.104477159254661363e-04
1.941199893377601828e-04
4.542853444249292968e-04
4.477892770368530171e-04
4.429952806368227637e-04
4.272125186339314302e-04
4.539363550061683954e-04
4.243749055745587944e-04
4.475227275124262806e-04
4.399627929165126814e-04
4.248024398480035628e-04
4.239731337680935136e-04
4.274421112860840176e-04
4.532622984594130659e-04
4.519208406698722261e-04
4.405641625028617041e-04
4.115131472830843443e-04
4.378586434259658898e-04
4.449514186206519938e-04
4.467751559259689181e-04
4.191784012975781522e-04
4.201815733599959771e-04
4.367719580330896236e-04
4.409436068379447588e-04
4.187051079756413507e-04
4.177774138075526582e-04
4.377840549501396347e-04
4.134981146942476879e-04
4.324046984968119879e-04
4.377234518135308125e-04
4.240402388606542773e-04
4.306364118347079666e-04
4.337482724889975337e-04
4.277591123083455070e-04
4.256632742803598789e-04
4.148938270124631232e-04
2.437621163349190624e-04
4.204693769196807718e-04
1.632867634558684926e-04
2.975269587844739036e-04
4.182168172175700993e-04
2.305574718757894687e-04
4.147652293647906599e-04
4.107585523574147439e-04
4.026874474791837955e-04
4.497735697167383495e-04
4.443125094395615374e-04
4.448174231227552781e-04
3.984056641279914838e-04
4.235810535563491025e-04
4.326050323471807295e-04
4.443049953866925247e-04
4.158902210924970435e-04
4.308822593767404081e-04
4.122763603673505924e-04
4.382012228975854678e-04
4.347151010712121781e-04
4.504054555586165139e-04
4.532439580364919728e-04
4.542850990681009636e-04
4.360713109400591344e-04
4.465800052385996170e-04
4.395793001937613968e-04
4.411879515694034628e-04
4.415270653758223123e-04
4.437301856770152486e-04
4.510797881318036979e-04
4.452435465944368730e-04
4.224492225070517176e-04
4.400957149782852833e-04
4.441061643468975748e-04
4.434486080468505410e-04
4.462418115202871662e-04
4.278987816828984381e-04
4.425444681342858492e-04
4.447234514574873918e-04
4.139033828355172728e-04
4.105661005951574878e-04
4.221503778900900848e-04
4.329569660478822259e-04
4.289574350581326872e-04
4.268829430742157355e-04
4.377546121307344983e-04
4.125488597948654529e-04
4.280401992248534398e-04
4.278050553744588850e-04
2.168834598039770555e-04
3.411306395480807625e-04
1.899759125064937840e-04
4.499239734525326342e-04
4.541166309358174945e-04
4.508544278849405769e-04
4.531951626972487808e-04
2.943470422799135443e-04
4.432873779410040674e-04
1.736307006441545949e-04
4.184158936141934367e-04
4.500234349768354454e-04
4.105284383220018062e-04
4.243741388344701650e-04
4.077716089983718828e-04
4.132110778746515768e-04
4.245129494601237400e-04
4.542884727244911281e-04
4.473525418823441537e-04
4.544036984250170727e-04
4.322347888931617156e-04
4.434285807957343115e-04
4.110679473179965483e-04
4.175871089175436836e-04
4.518882082116982700e-04
4.315002212186082905e-04
4.307156620902732576e-04
4.199509992805298942e-04
4.284965629256323760e-04
4.502163467831459009e-04
4.336391500395774283e-04
4.457234032115327130e-04
4.329714727703599551e-04
4.524999134544425983e-04
4.217365529294308407e-04
4.360126706580773033e-04
4.398663063437539865e-04
4.337840025771297456e-04
4.383963122457477262e-04
4.185116134468635563e-04
4.366052073986048123e-04
4.339824962512857441e-04
4.210305693253831960e-04
4.417518735698215617e-04
4.195257345577476011e-04
4.127922537686142370e-04
4.270824181756851753e-04
4.197375388398429672e-04
4.308626921696774863e-04
4.143138648093899821e-04
1.816023746676862264e-04
3.838648370511310820e-04
3.931914021505571958e-04
4.183250502484873816e-04
4.511343800261172991e-04
4.539780043277851559e-04
4.356013299353054006e-04
4.326737629287295329e-04
4.513527782729752792e-04
4.288881524237200663e-04
4.515883821674230875e-04
4.394026432773308496e-04
4.498076743158825760e-04
4.526479249611602140e-04
3.832748152180945442e-04
4.324040237655339225e-04
4.330064361184034834e-04
4.319325399502063970e-04
4.071415019934993646e-04
4.111295625515223873e-04
4.351541671155905594e-04
4.260082153114526588e-04
4.291438142388875714e-04
4.238193870455125856e-04
4.244817584733164787e-04
4.439078853599663882e-04
4.296964191555969234e-04
4.151751592857994434e-04
4.319001221792571985e-04
4.264955246422103604e-04
4.297379151291959689e-04
4.523081670930668746e-04
4.187579210329493056e-04
4.169169167408353477e-04
4.201387279238408550e-04
4.535946956226551076e-04
4.402791805467032565e-04
4.305342207156894266e-04
4.089603935014559082e-04
4.288808837276794411e-04
4.357489120675733926e-04
4.221317307711335075e-04
4.257322195491334942e-04
4.101411732380142003e-04
4.333060474754538540e-04
4.315218126195053544e-04
4.260855027123910130e-04
4.135516944916442180e-04
4.347809487100275376e-04
4.305329325923404468e-04
3.806454794364093949e-04
4.531235185033630664e-04
4.070723420375009917e-04
2.943155139274672774e-04
3.966187916861379820e-04
2.408362361565382769e-04
4.403613444146055669e-04
4.214784682155830911e-04
4.357018648957323255e-04
4.205599749285584936e-04
4.316852202672036309e-04
4.066762134380883507e-04
3.939361828030917868e-04
4.540969410503402706e-04
4.355980789573294298e-04
4.465116120226898734e-04
4.242338867374498409e-04
4.504078171180896074e-04
4.422605596142515695e-04
4.408692330493433698e-04
4.375880148442673478e-04
4.412024276222776165e-04
4.506832914971485300e-04
4.107565895027876987e-04
4.515338209427130619e-04
4.212221930083446175e-04
4.316654383729158430e-04
4.544018275792007541e-04
4.418845196051622006e-04
4.298699784420691606e-04
4.234132294857401234e-04
4.438032406726640823e-04
4.358123368077085617e-04
4.192398018438792335e-04
4.364929873192264511e-04
4.362074839798077072e-04
4.121446650897199276e-04
4.062995293673244920e-04
4.226153597494656687e-04
4.178755565389029683e-04
4.282830718153419276e-04
4.126010901297059606e-04
4.155915911627602226e-04
4.348266157497089526e-04
4.054136992080773719e-04
4.137019448794208420e-04
4.077193479939277996e-04
4.304282265658311525e-04
4.195520490775909062e-04
4.217593711144698417e-04
2.178032565491524206e-04
4.540178134731891191e-04
4.087583421532884546e-04
4.439511908401747096e-04
3.853722480654646365e-04
4.133183601478589392e-04
4.397594841145998777e-04
4.120081853539359247e-04
4.414598376048473548e-04
4.333987003477692392e-04
4.294370156487966185e-04
4.497384836902806275e-04
4.161031601499236743e-04
4.455117216078515407e-04
4.507991612593489645e-04
4.504582992855279359e-04
4.179283082570037179e-04
4.321218634129018218e-04
4.513402344051245952e-04
4.369664953283880645e-04
4.466158886747495439e-04
4.517529245904525746e-04
4.244785688345476047e-04
4.184436189357999695e-04
4.403082553308657575e-04
4.244847334248604866e-04
4.383457687391023551e-04
4.445670978186049287e-04
4.144054749151847750e-04
4.390303142902707051e-04
4.363418475129469498e-04
4.489500908615022307e-04
4.229010164369021276e-04
4.429907722051013887e-04
4.155691103433602814e-04
4.284165765995819226e-04
4.150649020610481274e-04
4.241188143849416114e-04
4.146540827215364666e-04
4.262440032235217577e-04
4.075612768572467329e-04
4.234632822787287197e-04
4.149423156556708309e-04
4.327567548759276238e-04
4.114829377235905785e-04
4.174322887588385877e-04
4.124162750987319108e-04
4.179275415169150885e-04
4.272193272859188561e-04
4.125852646142756761e-04
4.496503392496865631e-04
4.398874683702013724e-04
4.167319176922400616e-04
4.228769714677212978e-04
4.156761779293427234e-04
4.488243761565631571e-04
4.236131953008662838e-04
4.145997668536548285e-04
4.171206855868014049e-04
4.236145447634223605e-04
4.469623631860196369e-04
4.090675224266454471e-04
4.232182014767848534e-04
4.298915698429662787e-04
4.219662375903941005e-04
4.179389199398309863e-04
4.184539239225916994e-04
4.083572450781012392e-04
4.222234942249460696e-04
4.540599535084626544e-04
4.544364842312087981e-04
4.387409159112015005e-04
4.334953709381492788e-04
4.544412380197586148e-04
4.345051983045367604e-04
4.214180184269919840e-04
4.208725595279092261e-04
4.352934377852973880e-04
4.162550666962918050e-04
4.353818275827197313e-04
4.294105784505391739e-04
4.101043390441542992e-04
4.238274224816418944e-04
4.177396288559827829e-04
4.378644399810361905e-04
4.135242451964696482e-04
4.227807915909980330e-04
4.073934834562413293e-04
4.145957798051936954e-04
4.143880545803700806e-04
4.317403948839846251e-04
4.320564451485361403e-04
4.287813915337730544e-04
4.309134196939441480e-04
4.309202896851386708e-04
4.100223285242697580e-04
4.120463383407483270e-04
4.209323652548257891e-04
4.147478396995795411e-04
4.115006647544407030e-04
3.866981563660071546e-04
2.881081088479749857e-04
4.514149148897614143e-04
4.372863179541758467e-04
4.190833561961861521e-04
4.355692188603917407e-04
4.441294732455932422e-04
4.146711043515050586e-04
4.283386144673655030e-04
4.398952584495023480e-04
4.544363922223981257e-04
4.445237616687930859e-04
4.314999758617799031e-04
4.538401751294450764e-04
4.188317734382903442e-04
4.537953975082664845e-04
4.482406415922537491e-04
4.197738516504426263e-04
4.437491394920072560e-04
4.332309376163672484e-04
4.274769519557134064e-04
4.401537111985926246e-04
4.277626086431498653e-04
4.181311263452598551e-04
4.170967939656382902e-04
4.233182150539515905e-04
4.398918234539050324e-04
4.423043558081166658e-04
4.221654673350351528e-04
4.300486902219373712e-04
4.172274771463519382e-04
4.335005847707522407e-04
4.338302830088821291e-04
4.176245258338710320e-04
4.157052833831088000e-04
4.314590626106482507e-04
4.244344046054399273e-04
4.108121934940183167e-04
4.126328638389805607e-04
4.361986204643826179e-04
4.126800950284429184e-04
4.242916376009287947e-04
4.227160480579103628e-04
4.106851906657303718e-04
4.327656797305597558e-04
4.318941722761691286e-04
4.233081554239881395e-04
4.207147337480564926e-04
4.059807801776608234e-04
4.228086089214151840e-04
4.391641564401496515e-04
4.365774514073948124e-04
4.327665691490626331e-04
4.346581782870290048e-04
4.540209417727508962e-04
4.370100154958211978e-04
4.237891468164152443e-04
4.544070414118037160e-04
4.145633006950374001e-04
4.373245936194024427e-04
4.516935789075891567e-04
4.162249491456086574e-04
4.521833111370271571e-04
4.320770244525161874e-04
4.182326427330002754e-04
4.514565335417747077e-04
4.448782716161924877e-04
4.258794029765553837e-04
4.448640715897501886e-04
4.536214088473445693e-04
4.338431949119754484e-04
4.228601338553739965e-04
4.341787510443827886e-04
4.267892167657761824e-04
4.271600736118661649e-04
4.363310211428948694e-04
4.349934583930044904e-04
4.312520121171027013e-04
4.362175436097711040e-04
4.184164149974537329e-04
4.131158487556382320e-04
4.196995392010482257e-04
4.247218401298821409e-04
4.299332191645830392e-04
4.223218209739176159e-04
4.200273972629653711e-04
4.235148072126876406e-04
4.237924284639947364e-04
4.171932191991899967e-04
4.214760146472993252e-04
4.346925589126051401e-04
4.323021086729473455e-04
4.188941860815084423e-04
4.199857172717450350e-04
4.126320970988918771e-04
4.122612095831984275e-04
4.251168646235670926e-04
4.130401255044807663e-04
4.182869892704855434e-04
4.163848604585025756e-04
4.430472656148348840e-04
4.099652217224652399e-04
4.113803172301224147e-04
4.505892891622770681e-04
4.371777475576196130e-04
4.088252938978315034e-04
4.477114375830507911e-04
4.182768069621079529e-04
4.540016199225163618e-04
4.242474733718211715e-04
4.506186399728714779e-04
4.516909413216841545e-04
4.536798037724979588e-04
4.211896832285848009e-04
4.398563387226012080e-04
4.408328282299331467e-04
4.211241422858049257e-04
4.495893067386281172e-04
4.187256872796213977e-04
4.168219636482539659e-04
4.286674846261996651e-04
4.168117506702727999e-04
4.167678317979935099e-04
4.271317962373958146e-04
4.163774997536512780e-04
4.211581548761385340e-04
4.404223769256640671e-04
4.372500051435762418e-04
4.140770034611967153e-04
4.099455931761952212e-04
4.142477104745391383e-04
4.269295302020035491e-04
4.258844021219335336e-04
4.164091201149081631e-04
4.353284931421515886e-04
4.132802378306500040e-04
4.174909903800275157e-04
4.226924631327827865e-04
4.210179027791182641e-04
4.231277568159249008e-04
4.264451958227898011e-04
4.255776140776532102e-04
4.261225515934757260e-04
4.220749306653645279e-04
4.089812181622643427e-04
4.297122140014236324e-04
4.228128719963081174e-04
4.057161628382575567e-04
4.191941041345942430e-04
4.191367826455649672e-04
4.373982620071222992e-04
4.320487470780458371e-04
4.162485647403398633e-04
4.260592495317548048e-04
4.125879635393878294e-04
4.540142557991776640e-04
4.269477786161140240e-04
4.243717159357899746e-04
4.273389387397520905e-04
4.392669916208426272e-04
4.352585971156679992e-04
4.512230765195751809e-04
4.402312439563593120e-04
4.164974485731234638e-04
4.366351409316666151e-04
4.304097021252887146e-04
4.394512545989528052e-04
4.457416209560396123e-04
4.193865558968514450e-04
4.094201615282285303e-04
4.206834814220421345e-04
4.191674215795083568e-04
4.155629150834437699e-04
4.176071975078670100e-04
4.300192167329287135e-04
4.334639039249101088e-04
4.336997531761862504e-04
4.170282474017108316e-04
4.355814867018105159e-04
4.174265535429753839e-04
4.135573683683004334e-04
4.330197773959464265e-04
4.201583564701109278e-04
4.133468522095540471e-04
4.039076069866964270e-04
4.303440078344911244e-04
4.063889926008710032e-04
4.194137598351976273e-04
4.302401298872775563e-04
4.207392694308940430e-04
4.282397663351336062e-04
4.216927260659622230e-04
4.260384248709463703e-04
4.101637460662248139e-04
4.064675067859512404e-04
4.078250661173542734e-04
4.280201719737373187e-04
4.273466674798458609e-04
4.024312949503595156e-04
4.062910952263490806e-04
4.356957923142300618e-04
4.485816875836960683e-04
4.382760567302400562e-04
4.379156275493561058e-04
4.094933085326880906e-04
4.402009730576585036e-04
4.532680030056728026e-04
4.449878847792693680e-04
4.418099311293359997e-04
4.384121684307815321e-04
4.202200330428439178e-04
4.419666528034609898e-04
4.404090356481211240e-04
4.300163951294023665e-04
4.325927951753654756e-04
4.180263589795434097e-04
4.365368141826950687e-04
4.218773877489185578e-04
4.331637405149958665e-04
4.092934347263724941e-04
4.408755203180704995e-04
4.328600807702773744e-04
4.339071410353708596e-04
4.233262504900808993e-04
4.184610699402181310e-04
4.312939374651513706e-04
4.128601869404707270e-04
4.303630536582938042e-04
4.249875615750130426e-04
4.104049931677252621e-04
4.158628638061330918e-04
4.339953468151719665e-04
4.414570160013210620e-04
4.171922377718764469e-04
4.217488207708496159e-04
4.341133327800171071e-04
4.228527118113156562e-04
4.169921799479396683e-04
4.288769580184254048e-04
4.299339245654646259e-04
4.271763591713495403e-04
4.236487107017736838e-04
4.280503508636275089e-04
4.068225687862144597e-04
4.100715839075661493e-04
4.183521928476264130e-04
4.260492819106020262e-04
4.024693559283612997e-04
4.283326338946738033e-04
4.057051217809806644e-04
4.377451045536349191e-04
4.515206636827914094e-04
4.507841944928180360e-04
4.541451536671161238e-04
4.244892418565819159e-04
4.203600397830358003e-04
4.365587122796275627e-04
4.522597704586697308e-04
4.161382461763813963e-04
4.390696940612249903e-04
4.500091736111861036e-04
4.191058676851896147e-04
4.120420445962517638e-04
4.422043729005535584e-04
4.352588424724963866e-04
4.184492928124560764e-04
4.116004023051754229e-04
4.267800158847121416e-04
4.369473574957747665e-04
4.319061027519488982e-04
4.306865259669036597e-04
4.464128252296650735e-04
4.363255006142564233e-04
4.237739346930559825e-04
4.113883833358552449e-04
4.189011174119100078e-04
4.049326464764432245e-04
4.148826019375648861e-04
4.360278521118330980e-04
4.107837321019267842e-04
4.117656807986900722e-04
4.206907501180827597e-04
4.195615566546904854e-04
4.253747346501899761e-04
4.144708011707397841e-04
4.233031562786099895e-04
4.218352170440414469e-04
4.239462365257828155e-04
4.076748770687846921e-04
4.383660106774433423e-04
4.184245117727901386e-04
4.255912927208351589e-04
4.155256821847377663e-04
4.254927206150351708e-04
4.136875608353573065e-04
4.187779482840654267e-04
4.065193690855491127e-04
4.232995065957879163e-04
4.031637157526647133e-04
4.214459584358233287e-04
4.544117338611463816e-04
4.508770313827547118e-04
4.458461429649277245e-04
4.489204026852687611e-04
4.504290098141406230e-04
4.098226694051789192e-04
4.161070858591776563e-04
4.080261667078116986e-04
4.386418837613483132e-04
4.309155358965889083e-04
4.405679348640979712e-04
4.461632973352069290e-04
4.338724843833627613e-04
4.338838628062787134e-04
4.320310813864027552e-04
4.303454799754613948e-04
4.121075241998245421e-04
4.140136400602686430e-04
4.423399018786275871e-04
4.195396585577579373e-04
4.236213840850133077e-04
4.127236458654796273e-04
4.277868989691590825e-04
4.201230250868248726e-04
4.327254412107061688e-04
4.090414532636305837e-04
4.272341713740356452e-04
4.182192707858538110e-04
4.163613062029785207e-04
4.276480270042983564e-04
4.300014897020785890e-04
4.209203427702353471e-04
4.103066357491500860e-04
4.273358717793974103e-04
4.231240457938956765e-04
4.263568060253674578e-04
4.179003069089653848e-04
4.175730929087227293e-04
4.253689074255160457e-04
4.114967697147902423e-04
4.108211490182540242e-04
4.240640998122138165e-04
4.078692610160654722e-04
4.267887873913265586e-04
4.161708786345553524e-04
4.094489296163556012e-04
4.160658045728034770e-04
4.086590339770034127e-04
4.173941664416297068e-04
4.107129159873368503e-04
4.321446202587336176e-04
4.508939610039126855e-04
4.333701469468669801e-04
4.446599040389380831e-04
4.441219591927242838e-04
4.283463125378557520e-04
4.260185509678479643e-04
4.230180516440373482e-04
4.421676613851077968e-04
4.136534562362130800e-04
4.234702749483374362e-04
4.180471223011447473e-04
4.289730152167345843e-04
4.165909601943381508e-04
4.334813242597246948e-04
4.167884417715771324e-04
4.156917887575481961e-04
4.338852429384383656e-04
4.154576570040706038e-04
4.202317795010023969e-04
4.101708614142477241e-04
4.152296285016988508e-04
4.188683316057183366e-04
4.103387774936673757e-04
4.181252377813788278e-04
4.133091899363983655e-04
4.271185469686635439e-04
4.159498428017923159e-04
4.117338764198118423e-04
4.330326279598325947e-04
4.267098745014001647e-04
4.099402259955744901e-04
4.113299270714947586e-04
4.174551069438775888e-04
4.216183216077573127e-04
4.124872752309431353e-04
4.284321874277872868e-04
4.282733802206211120e-04
4.143825647213351558e-04
4.167478045468773888e-04
4.083646671221595795e-04
4.198678539853140340e-04
4.072635976852198862e-04
4.266861362282548735e-04
4.130251587379498920e-04
4.230179596352267300e-04
4.119051968252251798e-04
4.218120308237599189e-04
4.245942545791266945e-04
4.054639053490837917e-04
4.501429237522544318e-04
4.411047756045840813e-04
4.487609207468245208e-04
4.191873261522103926e-04
4.518923179385735968e-04
4.307364867510816921e-04
4.304196390768379719e-04
4.512353443609939561e-04
4.294270173580403728e-04
4.179361596755117904e-04
4.382602005452063045e-04
4.189596350154776994e-04
4.319980195537791753e-04
4.261458604921714477e-04
4.508859562373868438e-04
4.095408770877893997e-04
4.217986282070098790e-04
4.245269961385482156e-04
4.250101037336200807e-04
4.167726775953539448e-04
4.147144711709204227e-04
4.295389307413831955e-04
4.182185653849722243e-04
4.320498818533770476e-04
4.172421372168473824e-04
4.084800768403068689e-04
4.248041573458021664e-04
4.059511840102379720e-04
4.122021399267669184e-04
4.069908835704802138e-04
4.168668026086396004e-04
4.191101920992897534e-04
4.234677907104500948e-04
4.248923631256032733e-04
4.225467518463310590e-04
4.210921845589089807e-04
4.090211499860824996e-04
4.079133025667588475e-04
4.083074683115445517e-04
4.062369327064851033e-04
4.151035764311208258e-04
4.230405324634372894e-04
4.213822576692562508e-04
4.281671100443308750e-04
4.117171614858787347e-04
4.214787749116185754e-04
4.090835626293005435e-04
4.195963973243198200e-04
4.029407477348782071e-04
4.167374075512749864e-04
4.242005795479978194e-04
4.500863076641067970e-04
4.218425777488927445e-04
4.344831775291900186e-04
4.193119674210252440e-04
4.511518310305355690e-04
4.337654474669838407e-04
4.337018080396238596e-04
4.316488154477933535e-04
4.176815712964683991e-04
4.349261386132188606e-04
4.115315797148160555e-04
4.146397600166800822e-04
4.253666072052500490e-04
4.218345423127634356e-04
4.323016179592905706e-04
4.185663280195913512e-04
4.116499643845073528e-04
4.116213189747944755e-04
4.189556172974129907e-04
4.286864691107952481e-04
4.389739435589513493e-04
4.202989152631666819e-04
4.318690538708641852e-04
4.254405516194018143e-04
4.119865019442282427e-04
4.246298926584483424e-04
4.087345425409360665e-04
4.054331437367262084e-04
4.046446282295336179e-04
4.191775118790753291e-04
4.206351461268520876e-04
4.146463846510462176e-04
4.204010757125816464e-04
4.265386767744010210e-04
4.150190816733489432e-04
4.109744663663853284e-04
4.083866878975063756e-04
4.223908275818983281e-04
4.073301200553133112e-04
4.062626031646539727e-04
4.014802918835751015e-04
4.166544156040768413e-04
4.183356926009181172e-04
4.028057401400644746e-04
4.090504701270733881e-04
4.081702831748789079e-04
4.084586081178239987e-04
4.200804863467051805e-04
4.055335253491353640e-04
4.178843893847244821e-04
4.250698174517260255e-04
4.383889208712929073e-04
4.402465174189257248e-04
4.351509468072181641e-04
4.342372379783468505e-04
4.448542573166151793e-04
4.119786505257201701e-04
4.176287889087640739e-04
4.382546186773607615e-04
4.301539176317070701e-04
4.266617845630385052e-04
4.279894717005868323e-04
4.116041439968081144e-04
4.330810552638332598e-04
4.113532053005869047e-04
4.231513724106559984e-04
4.307856501255675195e-04
4.246160913368522000e-04
4.230224680669481051e-04
4.149210616204128269e-04
4.235625291158067189e-04
4.287204817011288564e-04
4.076144886194007361e-04
4.296337611555503836e-04
4.084595588755339187e-04
4.144856145892529976e-04
4.205188469902020293e-04
4.197317729543761336e-04
4.162907661148204414e-04
4.264232057170466348e-04
4.187149835879834569e-04
4.240644985170599190e-04
4.213345971053442693e-04
4.116177613007830204e-04
4.067350684072949937e-04
4.079403838266908362e-04
4.187384765043004691e-04
4.148017261930115555e-04
4.223060261280909612e-04
4.042360171014773356e-04
4.143948325627539310e-04
4.099905854845986249e-04
4.117453161819348913e-04
4.173331339305712609e-04
4.217564575021328765e-04
4.132820780068628555e-04
4.184872004424401454e-04
4.066350854997318322e-04
4.230442128158629382e-04
4.459178791676241113e-04
4.190818840552158818e-04
4.379208720515626431e-04
4.151032697350853957e-04
4.298352911204575953e-04
4.315275171657650911e-04
4.248723972136941949e-04
4.137855502186899015e-04
4.151634434972444857e-04
4.300260253849161936e-04
4.124300150811209564e-04
4.096443256605533439e-04
4.375953755491186997e-04
4.167317030050152497e-04
4.119760129398151679e-04
4.316221635623110429e-04
4.224759050621376038e-04
4.159410712951778989e-04
4.236235309572615893e-04
4.165280568374633320e-04
4.092447007263363447e-04
4.205946009109630163e-04
4.289990230405423509e-04
4.208797975543462216e-04
4.187357775791883158e-04
4.216976332025297548e-04
4.076786800996245888e-04
4.217163723302968961e-04
4.129289175220194762e-04
4.204386459769266556e-04
4.112572094414848763e-04
4.221405636169550213e-04
4.115582009306947907e-04
4.200332858268463984e-04
4.235911131863124993e-04
4.105138702603169801e-04
4.046207366083705032e-04
4.219131485066542910e-04
4.060364148384950711e-04
4.187321892355733394e-04
4.240343502967732501e-04
4.184495074996808883e-04
4.234670853095685080e-04
4.102688507975802107e-04
4.150382195059622412e-04
4.172497126089235462e-04
4.046692252515782110e-04
4.137569968177876424e-04
4.069202208039079949e-04
4.079460577033470516e-04
4.102811493086025614e-04
4.455736128678093968e-04
4.361244306934025194e-04
4.403199711194207152e-04
4.336936192554768357e-04
4.406586248817863653e-04
4.133518820245357726e-04
4.230553458819504486e-04
4.192580502579896541e-04
4.087416272193554554e-04
4.245005282706871956e-04
4.138473494698370310e-04
4.190251146190504777e-04
4.077719156944073671e-04
4.148920788450609441e-04
4.254278850731368824e-04
4.131484198746051455e-04
4.112475791859711576e-04
4.071459184164101216e-04
4.272733671273685856e-04
4.067996585923648405e-04
4.313932149718329454e-04
4.176565448999740738e-04
4.175977206003709521e-04
4.140704708356411981e-04
4.208490052723851170e-04
4.113751647367264955e-04
4.232164839789862498e-04
4.093493760832421719e-04
4.176292182832136977e-04
4.239889286139202225e-04
4.194369153858756340e-04
4.154753840349207283e-04
4.086902863030177709e-04
4.225249764278127588e-04
4.241732836008410188e-04
4.077658737825085706e-04
4.081104467783587693e-04
4.021904772233087454e-04
4.134898952404970885e-04
4.113527145869301299e-04
4.198806738795966267e-04
4.090415759420447774e-04
4.114022153270549087e-04
4.132288969143124279e-04
4.161080672864912061e-04
4.071096976146212432e-04
4.057341045563325472e-04
4.066026063895756453e-04
4.023183081308925250e-04
4.114663454680716104e-04
4.335316837487488838e-04
4.358913723760490951e-04
4.288796569435375581e-04
4.442623032985551176e-04
4.346071440667268588e-04
4.312041675355694293e-04
4.328590993429638246e-04
4.200836759854741087e-04
4.299498114201019531e-04
4.172329363357832875e-04
4.325144343383030077e-04
4.127110099888182710e-04
4.263153407213719878e-04
4.184097596934840762e-04
4.291783788820850514e-04
4.235441886928856259e-04
4.071176103723363584e-04
4.283825333396447388e-04
4.070153579141107215e-04
4.110380444545382668e-04
4.282436000355769701e-04
4.282107222205746265e-04
4.195210114388013599e-04
4.278839682643852246e-04
4.300345208650986476e-04
4.194083619849733207e-04
4.246056023324391252e-04
4.233491300143268888e-04
4.229883941374075083e-04
4.171049520801818470e-04
4.083721198358215496e-04
4.083351016243403579e-04
4.153401004136750329e-04
4.227259236702525231e-04
4.113289149745776333e-04
4.228176257848579342e-04
4.159329131806344506e-04
4.109250883046747433e-04
4.165739385643696131e-04
4.091729645236399579e-04
4.062658541426298893e-04
4.105446318726745634e-04
4.076906719146114011e-04
4.077800124697437728e-04
4.044183172249605227e-04
4.122103287109140507e-04
4.182426103541530540e-04
4.181619492968245352e-04
4.196162098882111834e-04
4.237407808516217302e-04
4.138181520072602821e-04
4.305699201342181172e-04
4.151740858496753297e-04
4.323503519593267200e-04
4.156859922024777327e-04
4.247788855924794537e-04
4.167739963883065001e-04
4.095463976164279000e-04
4.266758312414630351e-04
4.311312965575418319e-04
4.237631389926074235e-04
4.277262344933431635e-04
4.260991506859693862e-04
4.071415019934993646e-04
4.082635494392652074e-04
4.071069373503019930e-04
4.159466224934199206e-04
4.292370498336703496e-04
4.200626673070443295e-04
4.075906890070483480e-04
4.078179200997277877e-04
4.038220081231968009e-04
4.093287661096585493e-04
4.198142741879175039e-04
4.136377533991969892e-04
4.135047699982173988e-04
4.289939012167500072e-04
4.114631251596992151e-04
4.070958962930251008e-04
4.123578188343713703e-04
4.114549057059486699e-04
4.233513382257822672e-04
4.065491186009896792e-04
4.187961046893652292e-04
4.156989654447781489e-04
4.073493498967372273e-04
4.080681227254639976e-04
4.064744994555599569e-04
4.186055851121314427e-04
4.107170563838156985e-04
4.049994448729684498e-04
4.140012802100392496e-04
4.141183767563815670e-04
4.166116315071288702e-04
4.115327144901472661e-04
4.016494347471366360e-04
4.043684791191966841e-04
4.060222761512598689e-04
4.123750551515647741e-04
4.199080618355640997e-04
4.391375965634779590e-04
4.135080209761933154e-04
4.359934101470498658e-04
4.178190324595658974e-04
4.374617174168609897e-04
4.445915414926318609e-04
4.208924334310076322e-04
4.092402536338220122e-04
4.127792191871067782e-04
4.227735228949574078e-04
4.149393407041268231e-04
4.090287867173656518e-04
4.289618514810434441e-04
4.302934643278456990e-04
4.206695880916353739e-04
4.137776067913712108e-04
4.063741485127542684e-04
4.161664928812481169e-04
4.240761222968042043e-04
4.283763074101247059e-04
4.191780639319392008e-04
4.126874557332941619e-04
4.112202525692107815e-04
4.113489422256938629e-04
4.168947119478673695e-04
4.195128839938614329e-04
4.075301472096466227e-04
4.249329696806994415e-04
4.100193229031220661e-04
4.054587835252914481e-04
4.181064066448010141e-04
4.205679490254807056e-04
4.213923172992196475e-04
4.232918085252976672e-04
4.168875659302409380e-04
4.112711947807022551e-04
4.160666019824956819e-04
4.157763755241306969e-04
4.018138851613554507e-04
4.211455189994772318e-04
4.046354580180730443e-04
4.135418188793021118e-04
4.142229907740802974e-04
4.031798786337339492e-04
4.035701800084726598e-04
4.036736285812365498e-04
4.024987067389557637e-04
4.075141070069915805e-04
4.130012057775796805e-04
4.197326317032754354e-04
4.136458195049298194e-04
4.131107269318458884e-04
4.240125135390478530e-04
4.201354462762613628e-04
4.302927282573605909e-04
4.167209993133773088e-04
4.116826581818884600e-04
4.214793576340859684e-04
4.125215945173122279e-04
4.178742990851575098e-04
4.184868937464047154e-04
4.200836759854741087e-04
4.209808538980334969e-04
4.100462814846399153e-04
4.057590696136197756e-04
4.051622697981993333e-04
4.096607645680545428e-04
4.039875933127468803e-04
4.093230308937952371e-04
4.207504945057922801e-04
4.058020070585855160e-04
4.042494197182273756e-04
4.081343997387289809e-04
4.113973081904873769e-04
4.070480517114917745e-04
4.183556891824307712e-04
4.196493943992490113e-04
4.039124221144532322e-04
4.179040792702016518e-04
4.031431057790810907e-04
4.095619164358226460e-04
4.165466119476092370e-04
4.161958130222390053e-04
4.070909891564575690e-04
4.130554296366507005e-04
4.164580994717727541e-04
4.166583106437273562e-04
4.192484813416830322e-04
4.078709171746569789e-04
4.054303221331998614e-04
4.145904739637800611e-04
4.198627628311252659e-04
4.118099370366083136e-04
4.170878691110061582e-04
4.067099500019899960e-04
4.067294252002423539e-04
4.024097955582730700e-04
4.067846611562304449e-04
4.130315686850911613e-04
4.373609064300020477e-04
4.357225362085230449e-04
4.341729544893124337e-04
4.191837071389918406e-04
4.172244715252043548e-04
4.112889524811559551e-04
4.256603913376264892e-04
4.163480569342461416e-04
4.102093824363027075e-04
4.045865400004156585e-04
4.221473109297354045e-04
4.102802598900997383e-04
4.325199241973379325e-04
4.137346693464054705e-04
4.228539999346646360e-04
4.112225527894767781e-04
4.079752551659237463e-04
4.151942051096021774e-04
4.125533682265868280e-04
4.285372921591427920e-04
4.079756538707698488e-04
4.217252665153255068e-04
4.227861281020152428e-04
4.071292034824771223e-04
4.108574618288536292e-04
4.066371403631694956e-04
4.161746509957916194e-04
4.100353324361735870e-04
4.122331468959529433e-04
4.047377718155057780e-04
4.141641358048736544e-04
4.182317226448938768e-04
4.169039128289314102e-04
4.161038348812016855e-04
4.269301742636780390e-04
4.074358381787396765e-04
4.080168431483334099e-04
4.015289952140077296e-04
4.158098053919969121e-04
4.145727776025334038e-04
4.091450551844122430e-04
4.067671181430015568e-04
4.207007484088391138e-04
4.047504997009776983e-04
4.062392329267510999e-04
4.181930482748211783e-04
4.007398049755370737e-04
4.159297848810726735e-04
4.162525824584044636e-04
4.115312116795734744e-04
4.085022816332749013e-04
4.244780781208908299e-04
4.275725491099693324e-04
4.124526492485386126e-04
4.221556530619001435e-04
4.170278180272612078e-04
4.254507952669865016e-04
4.264478947479019544e-04
4.331304333255438449e-04
4.116789778294627569e-04
4.151022883077718460e-04
4.134737630290313739e-04
4.048245054543365604e-04
4.086814227875927357e-04
4.126638401385630101e-04
4.215308825680448351e-04
4.087954217039767432e-04
4.152666773827836180e-04
4.138429637165297412e-04
4.063346153937822682e-04
4.247165649580720822e-04
4.055284341949466501e-04
4.202590141089520464e-04
4.169210878069177714e-04
4.172908405472800105e-04
4.030703268098641658e-04
4.196389974036465547e-04
4.173464138689071613e-04
4.100006757841655430e-04
4.223624888682208809e-04
4.077659657913192430e-04
4.111118661902757841e-04
4.198952419412814527e-04
4.021047250117914043e-04
4.062383435082482768e-04
4.143351188446479862e-04
4.011798524472290047e-04
4.173204673843063832e-04
4.094801512727664380e-04
4.111769777586060355e-04
4.062873228651127594e-04
4.086299285232373362e-04
4.075411269277164181e-04
4.020761409412856239e-04
4.103640185773864586e-04
4.158342797356273657e-04
4.060412606358554518e-04
4.036710216649350689e-04
4.038762013126642996e-04
4.137053185358109523e-04
4.263011100253261674e-04
4.315124890600271199e-04
4.182254047065632799e-04
4.215011023830008015e-04
4.261520250824843295e-04
4.212244012197999959e-04
4.317203983024719711e-04
4.077581143728112247e-04
4.189039390154363548e-04
4.108835309918686010e-04
4.092788973342911894e-04
4.292052147851886526e-04
4.181415233408622575e-04
4.170221134810014711e-04
4.083261154305011290e-04
4.151559907835826240e-04
4.163134309518416731e-04
4.253260619893609235e-04
4.068165882135228143e-04
4.063048352087380720e-04
4.105576357845785009e-04
4.033234430479372867e-04
4.127468320857611010e-04
4.234549401465639807e-04
4.185758969358979731e-04
4.181424740985721774e-04
4.105802086127890603e-04
4.123354913629891983e-04
4.254380060423073760e-04
4.210933193342402455e-04
4.094826968498608221e-04
4.226190401018913175e-04
4.037356118500050241e-04
4.192714835443432154e-04
4.028433410740130051e-04
4.085603391927892310e-04
4.054969365121038503e-04
4.090011840741733669e-04
4.080176098884220936e-04
4.169524321417427478e-04
4.124018910546683753e-04
4.063501648827805355e-04
4.110011489214712146e-04
4.139170614786992215e-04
4.078881534918503827e-04
4.112544491771656261e-04
4.163411869430516730e-04
4.008291148610658699e-04
4.081809561969132732e-04
4.123005586845491914e-04
4.095479924358123099e-04
4.306220891298515280e-04
4.067647259139249420e-04
4.077307877560508486e-04
4.176713276488837117e-04
4.047973628551975291e-04
4.156420426605949756e-04
4.275681326870585755e-04
4.207861325851138196e-04
4.182563503365420996e-04
4.279116935859917032e-04
4.052171990581519942e-04
4.050039533046898791e-04
4.167586922561365660e-04
4.162228022733603758e-04
4.071099429714495764e-04
4.155341163257131776e-04
4.078510739411620942e-04
4.133418223945723217e-04
4.030149375058583055e-04
4.038775201056168549e-04
4.183862361075634884e-04
4.067378286716142439e-04
4.204579064879542015e-04
4.129105770990983831e-04
4.049631627319723662e-04
4.174129669086040534e-04
4.211573574664463290e-04
4.062640753056241346e-04
4.153197357969198519e-04
4.019155548971136945e-04
4.017181653286853852e-04
4.040950902731790546e-04
4.169149845558119323e-04
4.046896818771441185e-04
4.167325004147074546e-04
4.176243111466461659e-04
4.087323036598771667e-04
4.161601136037103689e-04
4.049309289786445125e-04
4.031209316557166880e-04
4.138336401570515068e-04
4.166004984410412513e-04
4.088409660652440186e-04
4.135044326325783390e-04
4.138105459455806512e-04
4.183410904511424238e-04
4.106141905335190931e-04
4.058041539308337975e-04
4.102011323129485325e-04
4.244970626054864128e-04
4.251708431258097252e-04
4.298474976226692194e-04
4.116028252038556674e-04
4.147825576907947362e-04
4.040283532158608177e-04
4.183295280106052354e-04
4.068531463809508066e-04
4.132783976544372067e-04
4.055440756927555356e-04
4.096892259601460752e-04
4.199659047078537258e-04
4.184205553939325810e-04
4.113597072565388464e-04
4.041258518855366379e-04
4.026583726950212945e-04
4.048182488552129520e-04
4.185845457640982505e-04
4.110620894237190966e-04
4.247142340682024558e-04
4.177399662216217885e-04
4.040514167577280978e-04
4.035092701758283534e-04
4.119224331424186378e-04
4.162832520619514287e-04
4.101293347710451031e-04
4.184241744071511330e-04
4.044233470399422482e-04
4.142360866947948530e-04
4.152059208981570809e-04
4.160067349163719679e-04
4.148296968714464215e-04
4.213829937397413588e-04
4.148126752414778295e-04
4.100679035551405005e-04
4.143945258667185009e-04
4.178585962481414732e-04
4.037051262640793496e-04
4.135854617251494389e-04
4.135757394608250478e-04
4.047699748992300561e-04
4.054310582036849695e-04
4.147267390123392521e-04
4.165732945026951232e-04
4.087901465321666845e-04
4.060126152261425746e-04
4.047984669609251641e-04
4.028572650740233413e-04
4.111999492916626432e-04
4.063583536669275595e-04
4.169674909170843487e-04
4.100580892820054912e-04
4.134147240422034945e-04
4.273844217618122149e-04
4.211360114223776526e-04
4.084323549371877363e-04
4.247927175836791716e-04
4.279281631630963692e-04
4.242463999356970578e-04
4.196054141877626244e-04
4.205616310871500003e-04
4.183825557551379480e-04
4.231938191419650722e-04
4.314783537912793179e-04
4.057236768911266236e-04
4.102868231852587768e-04
4.179862738077075378e-04
4.180565378694336000e-04
4.058080183008807912e-04
4.126920561738262635e-04
4.054838099217857733e-04
4.127704170108887857e-04
4.179830228297315127e-04
4.053334981948021067e-04
4.130416283150545580e-04
4.156381169513409936e-04
4.117891430454035089e-04
4.150623871535573189e-04
4.187542406805236025e-04
4.109514334941216239e-04
4.054587835252914481e-04
4.177784872436767719e-04
4.111286117938124131e-04
4.151835627571713334e-04
4.035116930745085979e-04
4.036193740525620085e-04
4.094488069379414617e-04
4.200821425052966873e-04
4.132449064473639488e-04
4.072724305310414000e-04
4.078869573773120211e-04
4.089843771314296411e-04
4.122974610545909898e-04
4.132636455751310901e-04
4.151165803430247633e-04
4.168092971019890340e-04
4.096704254931717829e-04
4.049688979478356784e-04
4.056483523448152061e-04
4.029730734970166789e-04
4.157763755241306969e-04
4.249640073194889877e-04
4.213461902154850332e-04
4.045323774805517354e-04
4.204110740033379463e-04
4.175080120099961076e-04
4.094018824445145341e-04
4.042687415684619642e-04
4.220619267534605904e-04
4.019294788971239764e-04
4.211787648497221023e-04
4.200870189722606977e-04
4.127085564205345593e-04
4.159905413656991564e-04
4.158597968457784116e-04
4.076965298088889070e-04
4.088869398009609179e-04
4.082880544524992907e-04
4.120457862878845637e-04
4.143292609503705344e-04
4.101036336432727124e-04
4.013207792755273400e-04
4.049133246262085818e-04
4.160920270838360554e-04
4.157884593479281815e-04
4.126442729315000883e-04
4.144030213469009549e-04
4.067024972883280802e-04
4.008624220505178914e-04
4.038809857708176377e-04
4.124221636626129381e-04
4.072624935794921970e-04
4.027121058404355938e-04
4.160116420529394996e-04
4.173757646795015711e-04
4.159517136476087429e-04
4.021909679369654661e-04
4.023520753643976917e-04
4.126220374689285346e-04
4.009711151254883189e-04
4.141790105625939105e-04
4.044592918152992720e-04
4.127233084998406217e-04
4.127788511518641428e-04
4.078915884874475899e-04
4.147693390916659868e-04
4.123569907550755898e-04
4.065451315525286003e-04
4.038176837090966622e-04
4.019353674610050037e-04
4.050947353311888915e-04
4.098906639162426145e-04
4.105636776964772974e-04
4.181780508386866743e-04
4.089070283912841900e-04
4.173156215869459483e-04
4.258098136461072785e-04
4.200447255889693931e-04
4.147570712502472116e-04
4.059436392877654380e-04
4.232079578292001661e-04
4.047710483353542240e-04
4.187310237906386075e-04
4.143735478578923514e-04
4.149089164574081912e-04
4.120904412306489076e-04
4.111740948158725917e-04
4.029907391886597607e-04
4.212458699422829203e-04
4.050970355514548881e-04
4.147363079286458740e-04
4.066480894116357696e-04
4.157602433126650365e-04
4.142140965890516867e-04
4.077329039586956088e-04
4.137972353376412836e-04
4.172023894106505703e-04
4.137069440247989919e-04
4.115931949483419487e-04
4.110752160140371736e-04
4.041334886168197900e-04
4.012457307556479397e-04
4.157034125372924271e-04
4.041032177181189816e-04
4.077664565049759636e-04
4.093472905502009329e-04
4.104644615290028195e-04
4.062534636227969204e-04
4.116159517941737444e-04
4.077002101613145016e-04
4.104785695466344462e-04
4.006782204116148102e-04
4.038196772333272288e-04
4.080011403113174276e-04
4.161180349076439304e-04
4.138909309764772070e-04
4.075618595797141802e-04
4.070715139582052112e-04
4.130703964031816832e-04
4.103657360751851706e-04
4.115485093359739751e-04
4.178282946798370892e-04
4.258773481131177202e-04
4.241636533453273000e-04
4.083101672366565966e-04
4.233227234856729655e-04
4.049063012869962897e-04
4.014299017249474454e-04
4.099009075638273018e-04
4.217286095021121500e-04
4.196140016767558050e-04
4.150410104398850127e-04
4.023464321573450519e-04
4.070473156410066664e-04
4.056464508293953662e-04
4.064525706890238874e-04
4.089762803560932354e-04
4.064389840546525569e-04
4.169361465822593181e-04
4.091949852989866998e-04
4.069765608656238294e-04
4.178503767943908737e-04
4.129406026409708583e-04
4.102766102072776108e-04
4.049540538597189436e-04
4.114829377235905785e-04
4.168820760712060132e-04
4.179111946182245620e-04
4.069445111299172663e-04
4.143442890561085056e-04
4.144144611090240038e-04
4.032848913562787278e-04
4.042688642468761037e-04
4.101897538900326347e-04
4.147542189771173432e-04
4.130359544383983969e-04
4.132463172491270139e-04
4.079867869368574134e-04
4.021565566417857553e-04
4.075702323814824946e-04
4.073440747249271686e-04
4.042543575243983745e-04
4.051834624942502946e-04
4.121500016007371373e-04
4.050621335426185109e-04
4.108241546394016618e-04
4.109545311240798255e-04
4.061141316138830492e-04
4.074769967866996622e-04
4.084000291750492645e-04
