1.763139418546546405e-02
1.802882619322290769e-02
1.717554837055408623e-02
1.704794017051218177e-02
1.670403498202087736e-02
1.661502850897111222e-02
1.738654696341804251e-02
1.762921299435838557e-02
1.772464984275340730e-02
1.782589386903451686e-02
1.741041591297709523e-02
1.665062257791325578e-02
1.700393658741891287e-02
1.700389033448249099e-02
1.699714227449496476e-02
1.736050290866459483e-02
1.754687303006613810e-02
1.667459863953560384e-02
1.803488289352917287e-02
1.794177086378064695e-02
1.793856602215958621e-02
1.802047510383358170e-02
1.781739915210577702e-02
1.744833723493081218e-02
1.559036408193654154e-02
1.542702427132576319e-02
1.534571039191257209e-02
1.659534301579321247e-02
1.786540483138212079e-02
1.803489019662439866e-02
1.664535704625632120e-02
1.685061540627374316e-02
1.700142310547911664e-02
1.682389338084694722e-02
1.799287305543222082e-02
1.698314954404463867e-02
1.799821892113662516e-02
1.800979189270253411e-02
1.660307942800113429e-02
1.666960940831466523e-02
1.740233990684123336e-02
1.733921925481504700e-02
1.802968308972925995e-02
1.803422804932403381e-02
1.719741018610891625e-02
1.801347995579095571e-02
1.656265679593299511e-02
1.760347080087422064e-02
1.664358117693420791e-02
1.802033756220685484e-02
1.711641886006814300e-02
1.697453554322722949e-02
1.662628866462489974e-02
1.671709291628245206e-02
1.700642816007303867e-02
1.790613054190208150e-02
1.785850584075995492e-02
1.689295510083834231e-02
