2.104878642808108782e-02
2.091040366960684668e-02
2.105117642900268884e-02
2.105347406960329792e-02
2.104515169421815671e-02
2.097961138951614374e-02
2.029001370980974828e-02
2.063320476961372565e-02
2.087983524521542372e-02
2.101906771864276921e-02
2.100212599391729912e-02
2.105265135228248652e-02
2.096665963065741378e-02
2.060839962925203189e-02
1.960291402155410478e-02
2.047534961361891295e-02
2.105388613872771417e-02
2.104220895229863553e-02
2.096492183569480250e-02
2.076830234251677773e-02
2.065336915907770715e-02
2.092226273482187052e-02
2.083937147812600990e-02
2.083502059654340419e-02
2.099094471136553688e-02
2.098180103958759493e-02
2.105266271970661004e-02
2.052424374662262588e-02
2.105143361697344243e-02
2.099405512279085145e-02
2.099512366065829985e-02
2.101489871584611216e-02
2.104119583062378715e-02
2.079767150366335776e-02
2.103181344293928931e-02
2.083689053781143802e-02
2.089809274928298294e-02
2.093203019399849513e-02
2.105446161457387791e-02
2.002605075427839332e-02
2.069488441289838582e-02
2.063333407406310951e-02
2.086567569754375906e-02
2.100294871123811052e-02
2.089744338518002842e-02
2.095228410192743682e-02
2.008052771345390786e-02
2.095136334057357344e-02
