2.713522236253690986e-03
3.619762513143583074e-03
5.226156896136890419e-03
3.726430294175616786e-03
5.591495954439437352e-03
8.853442037491702013e-03
4.585842860612662428e-03
3.572518192359907738e-03
3.675464006755756793e-03
3.179081663419356611e-03
7.072641769420398225e-03
7.061468439088433580e-03
2.875343854917810846e-03
5.951397631537271027e-03
2.931834999890728724e-03
4.390221765708415651e-03
7.307724829824203960e-03
2.722634975075005799e-03
5.394250298780196504e-03
5.903329546994462440e-03
6.402605364756651547e-03
2.689657742734679127e-03
6.854319042261059446e-03
6.189708873166907196e-03
6.134667673998810654e-03
7.220903709724607947e-03
7.008898868944258079e-03
5.842510180384274769e-03
2.667515587587828297e-03
4.885335533120541834e-03
6.631685318536904329e-03
3.223626714025501754e-03
2.871337167966353781e-03
2.788724876109662486e-03
5.388809540110296378e-03
5.413559605001366792e-03
4.733959569913826458e-03
2.979091141802558962e-03
2.932624988997991570e-03
3.172752969151767990e-03
5.540254065860309926e-03
7.347571488608573530e-03
2.607890323794540520e-03
6.471282741871146188e-03
5.991788737709801728e-03
6.905940220180697628e-03
3.500974022794602590e-03
4.785398026966842557e-03
2.772646621959731685e-03
4.719972135587969901e-03
7.364050141256435825e-03
4.401309646171146922e-03
2.854250909331332905e-03
2.817303128917051248e-03
4.856685846924445847e-03
3.972951815928573577e-03
7.482534997485095277e-03
2.744814451212173462e-03
4.907403552906535946e-03
5.218396832123009532e-03
4.469377053072850874e-03
3.813978582529995148e-03
6.795518048846683166e-03
7.220205925416953510e-03
3.884702028054834791e-03
5.522695975338652065e-03
3.573629040659945071e-03
4.912609577745931898e-03
5.510177400622664166e-03
2.733917397532514056e-03
2.711322324304073564e-03
3.529352498536174505e-03
2.823948122799411001e-03
2.741106501056515821e-03
5.565995754530312159e-03
5.438495430477727037e-03
7.605977972608418160e-03
6.160671453967331984e-03
2.754403412624869922e-03
2.869618375932638746e-03
7.629720201887657191e-03
2.741093160069027045e-03
3.984397707701137041e-03
7.345883431508061154e-03
2.638450473173719907e-03
5.905569481906547055e-03
3.476410393981861115e-03
2.566538497649539785e-03
6.559741932586484608e-03
3.678428070203956443e-03
3.513790489940091678e-03
5.007791950662711898e-03
4.612708569696931209e-03
5.950314816198285991e-03
7.425062023382287060e-03
2.896782315192928704e-03
6.306016615335962097e-03
4.843860260622952219e-03
3.189910492302236965e-03
3.969223432108533872e-03
5.952181203460677958e-03
6.589550089341755790e-03
2.680020821316326119e-03
5.624458663679459194e-03
4.161323857301747579e-03
7.435734813373523315e-03
6.909471697780329540e-03
3.294466682099295683e-03
7.598830580779476589e-03
3.692618827934076274e-03
4.758282047712209147e-03
3.235077671995845953e-03
3.073978324261987700e-03
3.211086861278836160e-03
3.094320459337373055e-03
3.341885280086625502e-03
3.331407707583203173e-03
3.091933942436168002e-03
8.399957892736216111e-03
4.311636932214081737e-03
8.502063393793515833e-03
8.933235328029979355e-03
9.104955790537711327e-03
9.146677617993960452e-03
9.037611161186048098e-03
5.673969939096717117e-03
3.122757365226681240e-03
2.799218322699463957e-03
4.570225461587511077e-03
4.839026432447174168e-03
3.242279778760817806e-03
3.355943641181411037e-03
3.868699597998354143e-03
2.694744205306451746e-03
4.309157872766750455e-03
2.783003450082715061e-03
3.140157728124102435e-03
7.180526788905862955e-03
5.310562115388154335e-03
5.178801456748560218e-03
3.062486836709397628e-03
4.044831705533476728e-03
7.537582276090527313e-03
3.349272471943850679e-03
4.631889194494472756e-03
5.629091194930086091e-03
2.958296088645583511e-03
2.751860350212242956e-03
5.733085712266529355e-03
6.774350799026089380e-03
6.374547410461335432e-03
4.828176663280133937e-03
3.752574576695921326e-03
4.067699509075775599e-03
7.171232004710963864e-03
5.701498982343731689e-03
2.867660121617157925e-03
3.538211251975419136e-03
3.227883671147322147e-03
3.811028704435582073e-03
4.984512771860624865e-03
6.460452562002189786e-03
7.545485544628341770e-03
2.836385807224167145e-03
5.365684373720740891e-03
7.483704275932869313e-03
2.622111140964826070e-03
4.141808187957645403e-03
4.904807295417211270e-03
7.513832616387878041e-03
6.560223559122165676e-03
3.437953899868501431e-03
7.750949586327353889e-03
6.942323626162215204e-03
3.546657616915319111e-03
4.769698555537644699e-03
4.255423077133025159e-03
4.209667880750341852e-03
6.136161189104545610e-03
6.148542300987418045e-03
4.278253728558265891e-03
5.367472066044272350e-03
3.220780186365813317e-03
3.175245876206366728e-03
6.137783723380429296e-03
3.639666928730720535e-03
6.731838644716059590e-03
4.599505720534038077e-03
5.038658267261102684e-03
3.568389916661714786e-03
3.704913476708157540e-03
3.277968777899867812e-03
2.901719493803431825e-03
3.909425748717445040e-03
2.933438958108082906e-03
3.535070209351415943e-03
3.126693125409208893e-03
2.791403881496070608e-03
2.782315629297362099e-03
6.659670319584179779e-03
5.928374802342884116e-03
3.413105550740487115e-03
4.533766062639283355e-03
6.391311121170988388e-03
3.243551732150279972e-03
5.194095294608786287e-03
7.703641431451643297e-03
7.670775993209009297e-03
