1.839403620380112084e-02
1.848628508716304228e-02
1.861636895611534781e-02
1.752962255182549667e-02
1.856400872919175896e-02
1.896427729931831133e-02
1.890118074419529573e-02
1.888529283488577654e-02
1.791621287481037078e-02
1.680258310693471049e-02
1.862683842313114096e-02
1.879190818001284444e-02
1.719979630988635946e-02
1.775797966313058876e-02
1.902252909923318400e-02
1.821038414208434389e-02
1.909728632781486704e-02
1.727984564068449705e-02
1.639241360014009885e-02
1.840163723538899496e-02
1.842777158280238872e-02
1.742637434663390703e-02
1.724880465720878345e-02
1.740582216794091253e-02
1.731940297671609799e-02
1.908774378442723921e-02
1.826662997097636479e-02
1.652263283346091377e-02
1.603266151928486524e-02
1.852422320751038673e-02
1.761969915936896849e-02
1.804447125856450604e-02
1.828036752060329187e-02
1.874011132669914370e-02
1.822289052055007727e-02
1.831250044331831153e-02
1.835734601401298183e-02
1.908450922061211835e-02
1.861997609423998723e-02
1.761740570021109661e-02
1.872895859191849727e-02
1.847452901405418485e-02
1.715894592183938444e-02
1.851253288280909140e-02
1.837475902854103504e-02
1.856327905078627299e-02
1.884277810969837638e-02
1.906062321090042783e-02
1.668210495140867028e-02
1.903326542743260727e-02
1.853245336111571107e-02
1.886226284365684000e-02
1.893136699837271592e-02
1.822851781072664865e-02
1.901179148184929321e-02
