1.732116363985332710e-02
1.727247711832629803e-02
1.599614672366229950e-02
1.774890103539279729e-02
1.772851564366155486e-02
1.744946281377771080e-02
1.774332275834897277e-02
1.774817619484049536e-02
1.733451388493479836e-02
1.732647714043093756e-02
1.740596878638897907e-02
1.718872868148837649e-02
1.728094517291086513e-02
1.718059728838347566e-02
1.773284431955488363e-02
1.747547560397863520e-02
1.775140023769378878e-02
1.771348688351599698e-02
1.712945948789775311e-02
1.732891164621982311e-02
1.767847408963096889e-02
1.709951099321036991e-02
1.716997747572959754e-02
1.771918496891557518e-02
1.710847026205352187e-02
1.709162281106764436e-02
1.710316035572658627e-02
1.762955873414445013e-02
1.735107619203398593e-02
1.725148909056562277e-02
1.730393400021260075e-02
1.733418561004003780e-02
1.733604144147063778e-02
1.735286972311959539e-02
1.745718805655661204e-02
1.747571522069013561e-02
1.737539009975034091e-02
1.740259498309099789e-02
1.710807729064665536e-02
1.726260490981231313e-02
1.740858420279505284e-02
1.745899716272847346e-02
1.737805463758227212e-02
1.759004833458448214e-02
1.774716261615083210e-02
1.746811218243409999e-02
1.735757459724998619e-02
1.734245358467049677e-02
1.500839152699733059e-02
1.747514133866608435e-02
1.775055678686929261e-02
1.760359386728582720e-02
1.748932904415426148e-02
1.731022034463891926e-02
1.764841656933984967e-02
1.470169651327433297e-02
1.304150733528155678e-02
1.775205798556686587e-02
