1.937286816252133462e-03
3.897033882660723425e-03
3.960854997861328053e-03
3.993945808403827000e-03
3.622816486155948455e-03
4.002303047624023238e-03
3.958199802196179194e-03
3.721037269091190692e-03
3.912526960231008794e-03
3.891595294485708251e-03
3.930060866384347922e-03
3.984608352207819060e-03
3.418153482807551480e-03
3.631734043364811919e-03
3.480478334411663682e-03
3.651427740427445109e-03
3.942683909933190206e-03
4.019108513231747434e-03
3.839462092036573324e-03
3.495922251751242514e-03
3.082828289913018202e-03
3.911654841442057176e-03
3.543319232636458777e-03
3.085389510772506769e-03
3.683724653984547705e-03
3.515240592798201356e-03
3.916702592202776605e-03
3.894740462837020280e-03
3.912362096915875456e-03
4.023106516524608059e-03
3.954636636082115020e-03
3.924308847788139654e-03
1.689000626634868090e-03
3.891284580099360971e-03
3.684853166462933368e-03
3.691107379902110099e-03
1.487841715642641447e-03
3.961280057314679227e-03
3.398288403946154047e-03
3.968800214595434063e-03
2.167276301329647097e-03
2.934968710930924846e-03
3.337237915891640150e-03
3.821888803377972068e-03
3.954752882373510810e-03
3.983348383642902439e-03
3.987830927552234173e-03
3.727125261197811179e-03
3.993199985235199208e-03
3.890715299195703688e-03
3.961174675162665824e-03
3.954811005519208271e-03
3.829432318558398645e-03
4.021086601409865589e-03
1.683911592144493336e-03
3.520535502729879845e-03
3.508436925509741088e-03
2.304238062096882443e-03
1.619962551702656614e-03
3.916232989777957037e-03
3.394168722292207306e-03
3.989070525855807625e-03
1.486311094205351128e-03
3.882465886558881304e-03
3.574887162440976585e-03
3.863718727639970773e-03
3.926173948916676822e-03
3.910061072194604727e-03
3.690610888732317324e-03
3.966828916504430008e-03
3.858443916366151392e-03
3.979034505497488702e-03
3.988367344434258499e-03
3.385226449166247892e-03
4.021877510756931631e-03
3.830698534003460810e-03
4.008587137446503051e-03
3.208926997711420825e-03
3.542516644339556431e-03
3.436854197530599554e-03
3.612097926240906334e-03
3.873579292147258466e-03
2.818418223632555234e-03
3.621102124961347000e-03
3.996730015724146365e-03
3.884729158395796873e-03
3.407525095249386293e-03
3.501100915391524779e-03
3.675507833765872916e-03
3.753560156747455263e-03
3.657178672609715398e-03
2.967150464610569631e-03
3.987597620158989109e-03
3.994079980525203771e-03
3.967313457120901117e-03
2.357771923715941669e-03
3.567652732025989020e-03
3.635130444939350426e-03
3.947838400863345511e-03
2.544589491714198751e-03
2.062357912266668362e-03
1.787291483269129455e-03
3.987064462518779585e-03
3.941061350716373521e-03
3.814190745814824684e-03
3.891620825213257685e-03
3.823257956543685450e-03
3.679418923943670542e-03
3.385476324372051898e-03
1.506422517427252620e-03
2.251747022056827408e-03
1.469073914858904121e-03
3.911590471416213736e-03
3.949122542138389091e-03
3.963195405087861778e-03
3.916013805765909163e-03
3.602441879157499468e-03
3.565297386607804622e-03
3.589269381759373646e-03
3.875419405755215624e-03
3.927831544983003721e-03
3.536039716043032528e-03
3.913915397244126931e-03
3.906491659200394574e-03
3.941030931126101450e-03
3.752051399390672615e-03
3.903834833914338314e-03
3.298574888259718681e-03
2.912716780647132964e-03
3.693568379075792395e-03
3.881438953783724385e-03
3.842772666909988113e-03
3.960947614649566739e-03
4.019452091639727671e-03
4.008518421764906831e-03
3.991306365740782298e-03
3.982457252610030994e-03
3.846439042348188866e-03
3.692321175874650058e-03
3.942094258768189322e-03
4.021889732913737359e-03
3.918877592907208003e-03
2.747762206742764349e-03
3.909296236782057107e-03
3.297778818446445940e-03
3.268174310231879241e-03
3.412372674241978977e-03
2.537074494899651048e-03
1.200540364475710404e-03
3.734765195615260668e-03
3.975725017038011892e-03
3.895685642963321767e-03
3.941230288083775145e-03
3.961223835393373228e-03
4.024280115181431104e-03
3.915450771742397425e-03
3.900793689697615915e-03
3.978302805710058968e-03
3.875691009239785271e-03
3.880054319219390473e-03
3.619965464378424331e-03
3.803940701910664152e-03
3.565172177401417907e-03
3.625849753871617908e-03
3.980591608274524837e-03
2.363269993054077211e-03
3.858575644056167278e-03
4.024431941529305230e-03
3.880595353360652509e-03
3.928318258427351654e-03
3.754279905981563331e-03
3.937788257123828531e-03
3.978932925794259959e-03
3.583000773335514796e-03
3.857707870922968008e-03
3.541872129270672888e-03
3.963957252862079089e-03
3.673423277021804247e-03
3.952032501872065028e-03
3.801657059812405849e-03
3.943600028486642095e-03
1.682599204107054726e-03
2.150912598789574831e-03
3.233868074095933368e-03
2.167521016069243970e-03
3.657534201571016434e-03
1.842306670293029133e-03
3.942169492933416015e-03
3.546236254060732441e-03
3.724932877870368222e-03
1.844954668465837583e-03
3.555116329988724806e-03
3.972573330203069825e-03
3.817473888736298143e-03
3.672362393811076393e-03
3.920194326600399612e-03
3.628579097288054615e-03
3.913945002023945519e-03
3.410245747354316570e-03
3.935851724278850196e-03
3.756559474027553348e-03
3.849460902717506509e-03
3.390932566773563993e-03
3.553001353654384065e-03
3.891343518055512350e-03
3.975025638065246558e-03
3.556068300202139959e-03
3.985406594848968191e-03
3.846414326431092916e-03
3.914384184858493883e-03
3.861150716693368540e-03
3.896691390666681600e-03
3.955886012111133748e-03
3.952147933353006466e-03
3.615525562216170396e-03
3.922776189324714974e-03
3.931485155057429758e-03
3.898577405263530492e-03
3.938040305157508927e-03
3.933690303748646998e-03
2.041125581463949443e-03
3.342775367735038687e-03
3.342425270843428844e-03
2.305831016533881409e-03
1.795835857290194312e-03
2.590508406436388498e-03
3.830876434285853359e-03
2.052563619009615571e-03
3.777456917733798460e-03
1.431132401883740803e-03
3.373507573617537132e-03
3.841672401193998131e-03
3.956066356824887616e-03
4.014347032543764265e-03
3.869439783438937980e-03
4.017713557734999691e-03
3.943377042025810429e-03
3.414121800682604849e-03
3.809545783021720498e-03
3.960592900498718753e-03
3.609746383271505293e-03
3.760034369009132484e-03
3.890215548784096110e-03
3.613998879029406766e-03
3.927237819765734550e-03
3.989996965341673779e-03
3.933567810577106097e-03
3.980506867987338229e-03
3.922631967874409299e-03
3.672005235228867955e-03
3.879073559036610649e-03
3.678532410170036807e-03
3.976884763917123110e-03
1.545344654783453297e-03
3.975996077315612116e-03
2.943235777794244584e-03
3.678653273720670306e-03
1.329019133609393591e-03
2.267983885769605992e-03
3.923336235709897271e-03
3.862505474874400237e-03
3.980496547054924832e-03
3.957376572034449619e-03
3.678484607956752309e-03
3.766714456712114308e-03
3.654339872988997436e-03
3.510228693697444759e-03
3.954041824450907870e-03
3.902225040061296345e-03
3.803348334710818755e-03
3.988655787334870716e-03
3.731878050574289219e-03
3.716687267682329196e-03
3.743197125793714178e-03
3.921668318711156974e-03
3.974653812894871074e-03
3.900212729844122761e-03
3.904667841801512298e-03
3.815277974563555455e-03
3.966419066846214869e-03
2.507628874723557503e-03
