1.999999999999657874e+01,2.999999998894491426e+00,1.000000000000714095e+01,6.600000000000368905e-01,1.570000000000322915e+00,2.869999999999983174e+03,-2.174999999999672529e+00,-4.945000000001861018e+00,1.340556803100881034e+01,-2.138830207673318107e+00
1.999999999999681322e+01,3.000000000323852056e+00,1.000000000003910117e+01,6.599999999999477396e-01,1.570000000000387530e+00,2.869999999999984084e+03,-2.174999999999638334e+00,-4.945000000002020890e+00,1.340092665477861367e+01,-2.134891818517885120e+00
1.999999999999716138e+01,3.000000001334623079e+00,1.000000000001351275e+01,6.600000000000982858e-01,1.570000000000301821e+00,2.869999999999998181e+03,-2.174999999999704059e+00,-4.945000000002085727e+00,1.340902123362734422e+01,-2.135799651082951112e+00
2.000000000000045119e+01,3.000000001767647806e+00,1.000000000000864020e+01,6.600000000000003642e-01,1.570000000000064899e+00,2.869999999999973170e+03,-2.174999999999954969e+00,-4.945000000000227658e+00,1.341710886105462741e+01,-2.137845292691900490e+00
1.999999999999496225e+01,3.000000001204972122e+00,9.999999999996662225e+00,6.599999999999542899e-01,1.570000000000663309e+00,2.869999999999978172e+03,-2.174999999999357669e+00,-4.945000000003621388e+00,1.338923960118630418e+01,-2.137784093694977905e+00
1.999999999999890576e+01,2.999999999540871709e+00,1.000000000002278178e+01,6.599999999999214273e-01,1.570000000000194351e+00,2.869999999999988177e+03,-2.174999999999726708e+00,-4.945000000000821849e+00,1.339345959496411353e+01,-2.151878751582823046e+00
1.999999999999822009e+01,3.000000000262061928e+00,1.000000000001483613e+01,6.600000000000622036e-01,1.570000000000262519e+00,2.869999999999995907e+03,-2.174999999999724487e+00,-4.945000000001643414e+00,1.339546025307297938e+01,-2.136627103392759519e+00
2.000000000000057199e+01,2.999999999787352323e+00,1.000000000002840927e+01,6.599999999999401901e-01,1.570000000000184803e+00,2.870000000000014552e+03,-2.174999999999883915e+00,-4.945000000000550955e+00,1.340835524331988360e+01,-2.116545568743501526e+00
2.000000000000142464e+01,2.999999996954626713e+00,1.000000000003421441e+01,6.599999999999632827e-01,1.569999999999929452e+00,2.870000000000001819e+03,-2.175000000000139266e+00,-4.944999999999653006e+00,1.342377238956207819e+01,-2.145037823584933445e+00
1.999999999999950262e+01,2.999999999202319856e+00,9.999999999993809396e+00,6.600000000000104672e-01,1.570000000000140172e+00,2.869999999999964530e+03,-2.174999999999921663e+00,-4.945000000000619345e+00,1.343142521938102085e+01,-2.130358831843504497e+00
2.000000000000032330e+01,2.999999999608619738e+00,1.000000000003135803e+01,6.600000000000905143e-01,1.570000000000115747e+00,2.869999999999991360e+03,-2.174999999999853717e+00,-4.945000000000711715e+00,1.342014151863866545e+01,-2.123257908322462750e+00
1.999999999999600320e+01,2.999999999504675774e+00,1.000000000001130829e+01,6.600000000000538769e-01,1.570000000000395080e+00,2.869999999999972715e+03,-2.174999999999531752e+00,-4.945000000002402807e+00,1.341191467153352157e+01,-2.141049289240107179e+00
2.000000000000081712e+01,2.999999999902212000e+00,1.000000000001666045e+01,6.600000000001156053e-01,1.569999999999960094e+00,2.869999999999984084e+03,-2.175000000000165024e+00,-4.945000000000015383e+00,1.340789527837394601e+01,-2.141639078737485047e+00
1.999999999999932143e+01,2.999999997093635962e+00,1.000000000002605027e+01,6.599999999999067724e-01,1.570000000000235207e+00,2.869999999999997726e+03,-2.174999999999789324e+00,-4.945000000000987050e+00,1.340868405541407071e+01,-2.136678135871256323e+00
1.999999999999685585e+01,2.999999998357800735e+00,9.999999999994479083e+00,6.599999999999773825e-01,1.570000000000350893e+00,2.869999999999964530e+03,-2.174999999999685407e+00,-4.945000000001790852e+00,1.340815480191132103e+01,-2.133672380670271096e+00
1.999999999999855760e+01,2.999999997107608340e+00,1.000000000000088640e+01,6.600000000000255662e-01,1.570000000000155271e+00,2.869999999999998636e+03,-2.174999999999882583e+00,-4.945000000000954188e+00,1.342410554108575482e+01,-2.131121934974018028e+00
1.999999999999921485e+01,2.999999998074534435e+00,1.000000000000249756e+01,6.600000000000141309e-01,1.570000000000192353e+00,2.869999999999982720e+03,-2.174999999999873701e+00,-4.945000000000796980e+00,1.342593234299968508e+01,-2.125994140226956652e+00
2.000000000000347100e+01,3.000000002565808011e+00,1.000000000008530776e+01,6.599999999999528466e-01,1.569999999999944329e+00,2.870000000000014097e+03,-2.175000000000083311e+00,-4.944999999999342144e+00,1.340285467875044567e+01,-2.125945376354262617e+00
2.000000000000048672e+01,3.000000000201223482e+00,1.000000000005083756e+01,6.599999999999865974e-01,1.570000000000159934e+00,2.869999999999977717e+03,-2.174999999999875921e+00,-4.945000000001037677e+00,1.340445243804344244e+01,-2.130504902703775905e+00
1.999999999999812772e+01,2.999999999739986212e+00,9.999999999993057997e+00,6.599999999999103251e-01,1.570000000000151941e+00,2.869999999999974079e+03,-2.174999999999892353e+00,-4.945000000000574936e+00,1.341585955831297916e+01,-2.142142841493711369e+00
1.999999999999950617e+01,2.999999998036725124e+00,1.000000000001735323e+01,6.600000000000120215e-01,1.570000000000009166e+00,2.869999999999949523e+03,-2.174999999999952305e+00,-4.945000000000405294e+00,1.342066587902028196e+01,-2.151487679817315257e+00
1.999999999999823785e+01,2.999999999114449700e+00,1.000000000003279155e+01,6.600000000000453282e-01,1.570000000000170370e+00,2.869999999999969987e+03,-2.174999999999811973e+00,-4.945000000001355644e+00,1.340561137457483554e+01,-2.151473607981887248e+00
1.999999999999646150e+01,3.000000000956497992e+00,9.999999999999896971e+00,6.599999999999711653e-01,1.570000000000422391e+00,2.869999999999965439e+03,-2.174999999999568612e+00,-4.945000000002462315e+00,1.341954094697201860e+01,-2.124250696894860013e+00
1.999999999999506528e+01,3.000000000511981568e+00,9.999999999977514875e+00,6.599999999999577316e-01,1.570000000000502993e+00,2.869999999999953616e+03,-2.174999999999498002e+00,-4.945000000003016538e+00,1.342063644846210124e+01,-2.131690366051171015e+00
2.000000000000206413e+01,2.999999997988397560e+00,1.000000000002634160e+01,6.600000000000149081e-01,1.569999999999987406e+00,2.870000000000005002e+03,-2.174999999999984723e+00,-4.945000000000183249e+00,1.341055637930492495e+01,-2.141409489444411118e+00
1.999999999999750599e+01,2.999999999197003220e+00,1.000000000001623413e+01,6.600000000000275646e-01,1.570000000000250973e+00,2.869999999999990450e+03,-2.174999999999768896e+00,-4.945000000001756213e+00,1.337798177768754826e+01,-2.152235464627822115e+00
2.000000000000031264e+01,2.999999998496080345e+00,1.000000000001885070e+01,6.599999999999626166e-01,1.570000000000080442e+00,2.869999999999993634e+03,-2.175000000000002487e+00,-4.945000000000513651e+00,1.338204261077441970e+01,-2.157847523418531033e+00
1.999999999999566924e+01,2.999999998912661781e+00,1.000000000001852030e+01,6.599999999999994760e-01,1.570000000000409512e+00,2.869999999999954980e+03,-2.174999999999561062e+00,-4.945000000002361062e+00,1.339705612745123098e+01,-2.158387442970908676e+00
1.999999999999630163e+01,2.999999997649450467e+00,1.000000000003173461e+01,6.600000000000361133e-01,1.570000000000365548e+00,2.869999999999966803e+03,-2.174999999999586819e+00,-4.945000000002065299e+00,1.338388701752820253e+01,-2.161410996367830073e+00
1.999999999999820588e+01,2.999999997738978408e+00,1.000000000005343104e+01,6.599999999999696110e-01,1.570000000000307816e+00,2.870000000000007276e+03,-2.174999999999702727e+00,-4.945000000001125606e+00,1.340619275701480362e+01,-2.132060671066191571e+00
2.000000000000225953e+01,3.000000000674099887e+00,1.000000000001804246e+01,6.600000000000110223e-01,1.569999999999939222e+00,2.869999999999980901e+03,-2.175000000000103739e+00,-4.944999999999375007e+00,1.341771193287805097e+01,-2.153648342463617915e+00
2.000000000000346745e+01,3.000000000212556195e+00,1.000000000002359002e+01,6.600000000000456613e-01,1.569999999999813101e+00,2.870000000000009550e+03,-2.175000000000241407e+00,-4.944999999999082796e+00,1.339727884371514932e+01,-2.139881654205571415e+00
1.999999999999678479e+01,3.000000000980918902e+00,1.000000000000404832e+01,6.600000000000555422e-01,1.570000000000332907e+00,2.869999999999993634e+03,-2.174999999999636113e+00,-4.945000000002089280e+00,1.338723941372666459e+01,-2.140670019164540694e+00
1.999999999999575451e+01,2.999999999635217574e+00,1.000000000000956746e+01,6.600000000000127987e-01,1.570000000000496332e+00,2.869999999999966349e+03,-2.174999999999426947e+00,-4.945000000002720775e+00,1.340373647106399346e+01,-2.154711823914951641e+00
2.000000000000045475e+01,3.000000001159978780e+00,1.000000000002772715e+01,6.600000000000006972e-01,1.570000000000088658e+00,2.869999999999985448e+03,-2.174999999999906564e+00,-4.945000000000264961e+00,1.339094939414799512e+01,-2.151462142765630414e+00
1.999999999999803535e+01,3.000000000870932215e+00,1.000000000000561684e+01,6.600000000000209033e-01,1.570000000000253415e+00,2.869999999999984993e+03,-2.174999999999733813e+00,-4.945000000001498641e+00,1.339146635860097412e+01,-2.152041506701392048e+00
1.999999999999885958e+01,3.000000000771409159e+00,9.999999999999568345e+00,6.599999999999150990e-01,1.570000000000350004e+00,2.869999999999978627e+03,-2.174999999999733813e+00,-4.945000000001542162e+00,1.340572012330635232e+01,-2.149065421642283980e+00
1.999999999999970868e+01,2.999999999061528921e+00,1.000000000002016165e+01,6.599999999999882627e-01,1.570000000000069562e+00,2.869999999999965894e+03,-2.174999999999883915e+00,-4.945000000000523421e+00,1.342057221638810205e+01,-2.141941693550367898e+00
2.000000000000436273e+01,2.999999998861150985e+00,1.000000000006375700e+01,6.600000000000578737e-01,1.569999999999852403e+00,2.870000000000013642e+03,-2.175000000000167688e+00,-4.944999999998977991e+00,1.339457219815944988e+01,-2.148565987294700275e+00
1.999999999999936051e+01,2.999999998498773301e+00,1.000000000002440892e+01,6.600000000000433298e-01,1.570000000000123297e+00,2.870000000000004547e+03,-2.174999999999815081e+00,-4.945000000000938201e+00,1.341876570244930811e+01,-2.137746151810743012e+00
1.999999999999978328e+01,3.000000000186584082e+00,1.000000000001005773e+01,6.599999999999693889e-01,1.570000000000140616e+00,2.869999999999954980e+03,-2.174999999999860378e+00,-4.945000000000892904e+00,1.339843709078048128e+01,-2.159502662161728814e+00
1.999999999999743494e+01,3.000000000542880407e+00,1.000000000000223999e+01,6.599999999999710543e-01,1.570000000000359330e+00,2.869999999999954071e+03,-2.174999999999612577e+00,-4.945000000002389484e+00,1.339477052433315407e+01,-2.156251824499992420e+00
1.999999999999603517e+01,2.999999999407452211e+00,1.000000000000322409e+01,6.599999999999827116e-01,1.570000000000453921e+00,2.869999999999979082e+03,-2.174999999999534417e+00,-4.945000000002440999e+00,1.341160876969280658e+01,-2.131800374499424056e+00
1.999999999999859313e+01,3.000000000034321435e+00,1.000000000000582823e+01,6.599999999999400790e-01,1.570000000000201679e+00,2.869999999999965894e+03,-2.174999999999830180e+00,-4.945000000000658424e+00,1.340622503365698748e+01,-2.156444213912950048e+00
1.999999999999980105e+01,2.999999999802390960e+00,1.000000000001816325e+01,6.600000000000688649e-01,1.570000000000090878e+00,2.869999999999949068e+03,-2.174999999999917222e+00,-4.945000000000475460e+00,1.341708590159276682e+01,-2.148554576734222010e+00
1.999999999999722888e+01,3.000000001271382111e+00,9.999999999995637268e+00,6.599999999999985878e-01,1.570000000000386642e+00,2.869999999999985448e+03,-2.174999999999605915e+00,-4.945000000002027996e+00,1.339016130019958339e+01,-2.147402279495473021e+00
2.000000000000073541e+01,3.000000000072464701e+00,1.000000000002719780e+01,6.599999999999958122e-01,1.570000000000047358e+00,2.870000000000005457e+03,-2.174999999999950973e+00,-4.945000000000197460e+00,1.340540931785568723e+01,-2.141957662854525157e+00
1.999999999999672085e+01,2.999999998730291217e+00,1.000000000000802913e+01,6.599999999999779376e-01,1.570000000000364659e+00,2.869999999999983629e+03,-2.174999999999623679e+00,-4.945000000002039542e+00,1.340359473945879287e+01,-2.134800882119546550e+00
2.000000000000055067e+01,2.999999998494748965e+00,1.000000000002363620e+01,6.600000000000163514e-01,1.570000000000024487e+00,2.869999999999996817e+03,-2.174999999999974065e+00,-4.945000000000095319e+00,1.341063177434500986e+01,-2.150497892140402545e+00
1.999999999999998579e+01,3.000000001314546694e+00,1.000000000006745715e+01,6.599999999999806022e-01,1.570000000000201901e+00,2.869999999999980901e+03,-2.174999999999744471e+00,-4.945000000000708162e+00,1.336407359128986094e+01,-2.163874946725228288e+00
2.000000000000007461e+01,3.000000000579071013e+00,1.000000000007375967e+01,6.599999999999935918e-01,1.570000000000167262e+00,2.869999999999992724e+03,-2.174999999999776001e+00,-4.945000000000755236e+00,1.337465792650980845e+01,-2.159996220480008944e+00
2.000000000000191847e+01,3.000000000485799845e+00,1.000000000007233503e+01,6.599999999999857092e-01,1.570000000000042695e+00,2.869999999999979991e+03,-2.174999999999917666e+00,-4.944999999999790674e+00,1.337898419977316244e+01,-2.165171170930005218e+00
1.999999999999915801e+01,2.999999999020751762e+00,1.000000000004652989e+01,6.599999999999461853e-01,1.570000000000300266e+00,2.870000000000005912e+03,-2.174999999999714273e+00,-4.945000000001432916e+00,1.336846283974207594e+01,-2.148058372191948173e+00
1.999999999999855405e+01,2.999999998442760774e+00,1.000000000002717115e+01,6.599999999999203171e-01,1.570000000000303597e+00,2.870000000000004093e+03,-2.174999999999724487e+00,-4.945000000001535945e+00,1.337567957327961032e+01,-2.148366617332544859e+00
1.999999999999527134e+01,3.000000004712696011e+00,1.000000000001466915e+01,6.600000000000482148e-01,1.570000000000386420e+00,2.869999999999959527e+03,-2.174999999999559730e+00,-4.945000000002186979e+00,1.340522276123960843e+01,-2.153534071767435609e+00
2.000000000000277822e+01,3.000000000043585580e+00,1.000000000002137313e+01,6.600000000000247891e-01,1.569999999999828866e+00,2.869999999999958618e+03,-2.175000000000223199e+00,-4.944999999998792362e+00,1.341992717727479878e+01,-2.155257168695588366e+00
2.000000000000095568e+01,2.999999998809097956e+00,1.000000000004599165e+01,6.599999999999621725e-01,1.570000000000056684e+00,2.869999999999948159e+03,-2.174999999999936318e+00,-4.945000000000301377e+00,1.340394405151588941e+01,-2.167585019234439248e+00
1.999999999999999289e+01,2.999999998792675981e+00,1.000000000001619149e+01,6.600000000000072475e-01,1.570000000000068674e+00,2.870000000000004093e+03,-2.175000000000046896e+00,-4.945000000000439044e+00,1.340901715363684232e+01,-2.133921845454844313e+00
2.000000000000216716e+01,2.999999998234677889e+00,1.000000000005572431e+01,6.599999999999840439e-01,1.569999999999951878e+00,2.870000000000004547e+03,-2.175000000000019362e+00,-4.944999999999394547e+00,1.340191195794830037e+01,-2.129151133697119391e+00
1.999999999999543121e+01,2.999999998218840780e+00,9.999999999987341681e+00,6.599999999998884537e-01,1.570000000000534079e+00,2.870000000000011369e+03,-2.174999999999465139e+00,-4.945000000002940155e+00,1.342177044782684447e+01,-2.106599733258432305e+00
1.999999999999512923e+01,2.999999998091319675e+00,9.999999999989221067e+00,6.599999999998790168e-01,1.570000000000568274e+00,2.870000000000013188e+03,-2.174999999999436273e+00,-4.945000000003145324e+00,1.341366865498603644e+01,-2.108366953854678982e+00
1.999999999999529976e+01,3.000000002277740219e+00,1.000000000003762857e+01,6.599999999999293099e-01,1.570000000000501661e+00,2.869999999999988177e+03,-2.174999999999441158e+00,-4.945000000002568008e+00,1.338977515439062671e+01,-2.135425187259815782e+00
1.999999999999995026e+01,3.000000003902912660e+00,1.000000000000616396e+01,6.600000000000671996e-01,1.570000000000063789e+00,2.869999999999983629e+03,-2.175000000000036238e+00,-4.945000000000462137e+00,1.340481559334144457e+01,-2.126819665096302714e+00
1.999999999999846878e+01,3.000000004602771941e+00,1.000000000001854517e+01,6.600000000000109113e-01,1.570000000000287832e+00,2.869999999999999091e+03,-2.174999999999848832e+00,-4.945000000001476437e+00,1.339353058170935995e+01,-2.126440364666909666e+00
2.000000000000074252e+01,2.999999998148371816e+00,1.000000000001485034e+01,6.600000000000336708e-01,1.570000000000005835e+00,2.870000000000007276e+03,-2.175000000000017142e+00,-4.944999999999974527e+00,1.340359926567616178e+01,-2.153307559818410155e+00
2.000000000000569500e+01,3.000000000704984071e+00,1.000000000006666490e+01,6.599999999999678346e-01,1.569999999999661000e+00,2.870000000000014552e+03,-2.175000000000396838e+00,-4.944999999997712337e+00,1.340187921834674079e+01,-2.142280919202929290e+00
2.000000000000135358e+01,3.000000000351791041e+00,1.000000000001926814e+01,6.600000000000521005e-01,1.569999999999943441e+00,2.870000000000000455e+03,-2.175000000000120615e+00,-4.944999999999716067e+00,1.339702260735848149e+01,-2.148957165448227791e+00
2.000000000000191847e+01,2.999999999802693385e+00,1.000000000001634604e+01,6.600000000000239009e-01,1.569999999999948104e+00,2.869999999999984993e+03,-2.175000000000179678e+00,-4.944999999999549090e+00,1.337581013147198661e+01,-2.156300234971321395e+00
2.000000000000083489e+01,2.999999998867733275e+00,9.999999999989361399e+00,6.600000000000268985e-01,1.570000000000029150e+00,2.869999999999982265e+03,-2.175000000000076206e+00,-4.945000000000072227e+00,1.338559778415961432e+01,-2.156928823494405290e+00
1.999999999999683808e+01,3.000000001999523214e+00,9.999999999994360067e+00,6.599999999999592859e-01,1.570000000000374651e+00,2.869999999999959073e+03,-2.174999999999557954e+00,-4.945000000002039542e+00,1.343066285015702022e+01,-2.138436917647619673e+00
1.999999999999790390e+01,3.000000000120594201e+00,9.999999999989617194e+00,6.599999999999354161e-01,1.570000000000328244e+00,2.869999999999959073e+03,-2.174999999999633449e+00,-4.945000000001620322e+00,1.343650365779658529e+01,-2.145071034521271791e+00
1.999999999999863931e+01,2.999999998670799251e+00,1.000000000001221245e+01,6.599999999999210942e-01,1.570000000000164375e+00,2.869999999999999091e+03,-2.174999999999877698e+00,-4.945000000000683293e+00,1.342754257848140043e+01,-2.139823520508070676e+00
1.999999999999855049e+01,3.000000001309271802e+00,1.000000000002618883e+01,6.599999999999532907e-01,1.570000000000232321e+00,2.869999999999982720e+03,-2.174999999999824407e+00,-4.945000000001165574e+00,1.339326709404980065e+01,-2.148267630595058542e+00
1.999999999999470290e+01,3.000000004032822520e+00,1.000000000002123990e+01,6.599999999999925926e-01,1.570000000000703055e+00,2.869999999999974534e+03,-2.174999999999319478e+00,-4.945000000003966001e+00,1.338578000621795994e+01,-2.147132588035635337e+00
1.999999999999777955e+01,3.000000000438453274e+00,1.000000000001783107e+01,6.599999999999726086e-01,1.570000000000428830e+00,2.870000000000005912e+03,-2.174999999999669864e+00,-4.945000000002325535e+00,1.338319377551843203e+01,-2.143222699869104186e+00
1.999999999999734257e+01,3.000000000525574251e+00,1.000000000000943423e+01,6.599999999999479616e-01,1.570000000000456586e+00,2.870000000000002274e+03,-2.174999999999633893e+00,-4.945000000002387708e+00,1.338102961187997586e+01,-2.151055647264013437e+00
1.999999999999522160e+01,3.000000001492614032e+00,1.000000000001675815e+01,6.599999999999704992e-01,1.570000000000542073e+00,2.869999999999980901e+03,-2.174999999999530864e+00,-4.945000000003025420e+00,1.338363111301686992e+01,-2.148026566700921514e+00
1.999999999999287681e+01,3.000000001223448454e+00,1.000000000000723155e+01,6.599999999999821565e-01,1.570000000000772777e+00,2.869999999999984084e+03,-2.174999999999256861e+00,-4.945000000004228013e+00,1.338072067397348164e+01,-2.147638463280852505e+00
1.999999999999833378e+01,2.999999999344941770e+00,1.000000000002861889e+01,6.599999999999905942e-01,1.570000000000254969e+00,2.870000000000001819e+03,-2.174999999999782663e+00,-4.945000000001237517e+00,1.338736550825451488e+01,-2.144261391876103318e+00
1.999999999999592148e+01,2.999999998931371703e+00,1.000000000000155609e+01,6.600000000000141309e-01,1.570000000000433049e+00,2.869999999999969077e+03,-2.174999999999597922e+00,-4.945000000002696794e+00,1.339249086816271195e+01,-2.153936145168363403e+00
1.999999999999987921e+01,3.000000000228278729e+00,1.000000000000415135e+01,6.600000000000079137e-01,1.570000000000104867e+00,2.869999999999976808e+03,-2.174999999999915445e+00,-4.945000000000648654e+00,1.340237346814852870e+01,-2.144513523771436780e+00
1.999999999999804601e+01,3.000000002630857310e+00,1.000000000002791722e+01,6.599999999998765743e-01,1.570000000000374651e+00,2.869999999999954071e+03,-2.174999999999648548e+00,-4.945000000001506635e+00,1.339714983936208448e+01,-2.140935821924465188e+00
2.000000000000325073e+01,2.999999999642925630e+00,1.000000000003586997e+01,6.599999999999890399e-01,1.569999999999871054e+00,2.869999999999994088e+03,-2.175000000000187672e+00,-4.944999999998837659e+00,1.341358211101236897e+01,-2.141846470125729596e+00
2.000000000000018119e+01,2.999999999269412854e+00,1.000000000001433698e+01,6.600000000000700862e-01,1.570000000000023377e+00,2.869999999999976808e+03,-2.174999999999956302e+00,-4.945000000000295159e+00,1.342261684003089428e+01,-2.140578957128452586e+00
1.999999999999706191e+01,2.999999996160221283e+00,9.999999999995642597e+00,6.599999999999979217e-01,1.570000000000303153e+00,2.869999999999993634e+03,-2.174999999999625899e+00,-4.945000000001727791e+00,1.342867820873187767e+01,-2.144348306299288076e+00
1.999999999999736033e+01,2.999999996070167096e+00,9.999999999992514432e+00,6.600000000000122435e-01,1.570000000000165041e+00,2.869999999999969077e+03,-2.174999999999792433e+00,-4.945000000001316565e+00,1.343136970424045629e+01,-2.154027512885918760e+00
1.999999999999862865e+01,2.999999998073664464e+00,9.999999999976800780e+00,6.600000000000307843e-01,1.570000000000033147e+00,2.869999999999974989e+03,-2.174999999999978506e+00,-4.945000000000408846e+00,1.341802559570867182e+01,-2.150995673809555697e+00
1.999999999999795719e+01,3.000000001759601354e+00,1.000000000002357048e+01,6.600000000000801892e-01,1.570000000000258744e+00,2.869999999999981810e+03,-2.174999999999746247e+00,-4.945000000001717133e+00,1.340761606075549572e+01,-2.127381651184181433e+00
1.999999999999944578e+01,2.999999998778689392e+00,1.000000000004746425e+01,6.600000000000574296e-01,1.570000000000098428e+00,2.870000000000015916e+03,-2.174999999999888356e+00,-4.945000000000799645e+00,1.339615453597318684e+01,-2.120022200123686140e+00
1.999999999999747402e+01,3.000000000998611860e+00,1.000000000000943245e+01,6.599999999999649480e-01,1.570000000000372875e+00,2.869999999999978627e+03,-2.174999999999652101e+00,-4.945000000002044871e+00,1.340872673539171522e+01,-2.149145693488462072e+00
1.999999999999382183e+01,3.000000000256440646e+00,9.999999999980762055e+00,6.599999999999491829e-01,1.570000000000683515e+00,2.869999999999983629e+03,-2.174999999999332800e+00,-4.945000000003682672e+00,1.338976273653247517e+01,-2.142619717638069243e+00
1.999999999999886313e+01,3.000000001759860702e+00,9.999999999990626165e+00,6.600000000000262323e-01,1.570000000000129070e+00,2.869999999999969987e+03,-2.174999999999949640e+00,-4.945000000001164686e+00,1.341171167838619027e+01,-2.141307329657306635e+00
2.000000000000198952e+01,2.999999997672212704e+00,1.000000000006291678e+01,6.599999999999921485e-01,1.570000000000097762e+00,2.869999999999999091e+03,-2.174999999999845279e+00,-4.945000000000160156e+00,1.340595488554761872e+01,-2.142481790714199974e+00
2.000000000000066080e+01,2.999999999515843729e+00,1.000000000004649792e+01,6.600000000000401101e-01,1.570000000000036922e+00,2.869999999999995453e+03,-2.174999999999879030e+00,-4.945000000000359996e+00,1.339854590835154013e+01,-2.154462356417607971e+00
2.000000000000265388e+01,2.999999999754928481e+00,1.000000000003154454e+01,6.600000000000300071e-01,1.569999999999926121e+00,2.869999999999990450e+03,-2.175000000000145484e+00,-4.944999999999298623e+00,1.339434731857006433e+01,-2.126716495438049748e+00
2.000000000000114753e+01,2.999999999386301130e+00,1.000000000000779998e+01,6.600000000000976197e-01,1.570000000000041585e+00,2.869999999999987722e+03,-2.174999999999974953e+00,-4.945000000000097984e+00,1.342587150271207719e+01,-2.137326930033869754e+00
2.000000000000124345e+01,2.999999995398229924e+00,1.000000000001710454e+01,6.600000000000189049e-01,1.569999999999998064e+00,2.870000000000005912e+03,-2.174999999999950973e+00,-4.944999999999780016e+00,1.341237036866683496e+01,-2.149015832980776253e+00
1.999999999999698019e+01,3.000000000927874222e+00,9.999999999976862952e+00,6.599999999999924816e-01,1.570000000000368878e+00,2.869999999999963620e+03,-2.174999999999681854e+00,-4.945000000001628315e+00,1.341616561570906008e+01,-2.142216208180132586e+00
1.999999999999468159e+01,3.000000001433624774e+00,9.999999999983602450e+00,6.599999999998337197e-01,1.570000000000725038e+00,2.869999999999950433e+03,-2.174999999999381650e+00,-4.945000000003224372e+00,1.339378882762595424e+01,-2.144533779647742389e+00
2.000000000000091305e+01,2.999999999209895574e+00,1.000000000000203748e+01,6.599999999999266453e-01,1.570000000000041585e+00,2.869999999999979991e+03,-2.174999999999963851e+00,-4.944999999999953211e+00,1.341314799979283912e+01,-2.154646799304323235e+00
1.999999999999662847e+01,3.000000000743384021e+00,1.000000000001159961e+01,6.599999999999006661e-01,1.570000000000533413e+00,2.869999999999961346e+03,-2.174999999999455369e+00,-4.945000000002650609e+00,1.340897909018749523e+01,-2.156702046439277431e+00
1.999999999999975131e+01,2.999999998946030200e+00,9.999999999999429789e+00,6.599999999999218714e-01,1.570000000000022933e+00,2.870000000000006366e+03,-2.175000000000014477e+00,-4.945000000000224105e+00,1.342068652096248194e+01,-2.137392640665303212e+00
1.999999999999646860e+01,3.000000001017871565e+00,9.999999999993230304e+00,6.599999999998774625e-01,1.570000000000462803e+00,2.869999999999988631e+03,-2.174999999999540634e+00,-4.945000000002641727e+00,1.339903697341639166e+01,-2.143848037263028417e+00
1.999999999999990408e+01,2.999999999820901930e+00,1.000000000004823342e+01,6.599999999998730216e-01,1.570000000000223661e+00,2.869999999999974989e+03,-2.174999999999839950e+00,-4.945000000000886686e+00,1.340662105294550877e+01,-2.141199095440579292e+00
1.999999999999570832e+01,2.999999998740035867e+00,9.999999999999628741e+00,6.600000000000412204e-01,1.570000000000445484e+00,2.869999999999978172e+03,-2.174999999999582379e+00,-4.945000000002300666e+00,1.340691413314871028e+01,-2.151242337383488135e+00
1.999999999999694822e+01,2.999999998993182260e+00,9.999999999996314060e+00,6.599999999999767164e-01,1.570000000000369100e+00,2.869999999999982720e+03,-2.174999999999605027e+00,-4.945000000002354845e+00,1.340646427959378073e+01,-2.146864001296809654e+00
1.999999999999497646e+01,2.999999998861179851e+00,9.999999999985359267e+00,6.599999999999071054e-01,1.570000000000522977e+00,2.869999999999968168e+03,-2.174999999999473133e+00,-4.945000000002444551e+00,1.341387090471735810e+01,-2.137221815725939944e+00
1.999999999999625899e+01,2.999999998010768998e+00,1.000000000000912337e+01,6.600000000000280087e-01,1.570000000000493001e+00,2.869999999999989996e+03,-2.174999999999421174e+00,-4.945000000002541363e+00,1.342795615483100846e+01,-2.136565779211996752e+00
1.999999999999571187e+01,2.999999998765448872e+00,1.000000000000737188e+01,6.599999999999779376e-01,1.570000000000539186e+00,2.869999999999980901e+03,-2.174999999999418065e+00,-4.945000000002699458e+00,1.342693393768109011e+01,-2.138394424706592911e+00
1.999999999999893419e+01,2.999999999600917899e+00,9.999999999984273913e+00,6.600000000000034728e-01,1.570000000000097096e+00,2.869999999999957254e+03,-2.174999999999974065e+00,-4.945000000000474571e+00,1.343190366444976824e+01,-2.151244440936963098e+00
1.999999999999512923e+01,3.000000001646489611e+00,9.999999999990999200e+00,6.599999999998299449e-01,1.570000000000654872e+00,2.869999999999957254e+03,-2.174999999999465583e+00,-4.945000000003385132e+00,1.338275452674147203e+01,-2.156854920443483703e+00
1.999999999999758771e+01,3.000000000376031650e+00,9.999999999979301890e+00,6.599999999999971445e-01,1.570000000000138618e+00,2.869999999999979082e+03,-2.174999999999917666e+00,-4.945000000000935536e+00,1.343031553331276839e+01,-2.133634021631099387e+00
1.999999999999583977e+01,2.999999999773996784e+00,9.999999999983547383e+00,6.600000000000778577e-01,1.570000000000302265e+00,2.869999999999966349e+03,-2.174999999999633005e+00,-4.945000000001994245e+00,1.341596037786283802e+01,-2.139434062526548441e+00
1.999999999999971578e+01,2.999999999777000159e+00,1.000000000004499334e+01,6.599999999999519584e-01,1.570000000000270513e+00,2.870000000000001364e+03,-2.174999999999733369e+00,-4.945000000001357421e+00,1.338519910884576269e+01,-2.146388654645403182e+00
1.999999999999971578e+01,2.999999999096357950e+00,9.999999999995251798e+00,6.599999999999593969e-01,1.570000000000163043e+00,2.870000000000003638e+03,-2.174999999999870592e+00,-4.945000000000884022e+00,1.340460838525058485e+01,-2.136858624675755269e+00
1.999999999999812417e+01,3.000000001567743713e+00,1.000000000001933387e+01,6.600000000000301181e-01,1.570000000000272289e+00,2.869999999999969987e+03,-2.174999999999675637e+00,-4.945000000001775753e+00,1.340213124674948730e+01,-2.151526133994809076e+00
2.000000000000090239e+01,3.000000004215026106e+00,1.000000000002154188e+01,6.599999999999008882e-01,1.570000000000055573e+00,2.869999999999983629e+03,-2.175000000000040234e+00,-4.944999999999966533e+00,1.339165854839294667e+01,-2.156852677727986833e+00
1.999999999999958078e+01,3.000000003531740234e+00,1.000000000003368861e+01,6.599999999999232037e-01,1.570000000000188356e+00,2.869999999999992724e+03,-2.174999999999813305e+00,-4.945000000000633555e+00,1.338933420386593731e+01,-2.147730485236492903e+00
1.999999999999935341e+01,2.999999997586399569e+00,1.000000000002584954e+01,6.599999999998845679e-01,1.570000000000127294e+00,2.869999999999999545e+03,-2.174999999999937206e+00,-4.945000000000264073e+00,1.341895801487577522e+01,-2.143748630323168314e+00
2.000000000000005684e+01,2.999999999530733596e+00,1.000000000001989164e+01,6.599999999999799360e-01,1.570000000000077778e+00,2.869999999999958163e+03,-2.174999999999950528e+00,-4.945000000000125517e+00,1.342302896685423619e+01,-2.149353767701794204e+00
1.999999999999919709e+01,3.000000000646168008e+00,1.000000000000316902e+01,6.599999999999843769e-01,1.570000000000242979e+00,2.869999999999968168e+03,-2.174999999999782219e+00,-4.945000000000835172e+00,1.341775723766693496e+01,-2.137959082407298705e+00
1.999999999999908695e+01,2.999999997705774746e+00,1.000000000004733458e+01,6.599999999999603961e-01,1.570000000000257190e+00,2.869999999999969532e+03,-2.174999999999743139e+00,-4.945000000001198437e+00,1.339111461296642425e+01,-2.136200841201802092e+00
1.999999999999900879e+01,3.000000002263117249e+00,1.000000000004192557e+01,6.600000000000014744e-01,1.570000000000222107e+00,2.869999999999961801e+03,-2.174999999999768452e+00,-4.945000000001003038e+00,1.340478149050627366e+01,-2.148041534373987371e+00
1.999999999999738876e+01,3.000000000295761637e+00,9.999999999982712495e+00,6.599999999999840439e-01,1.570000000000210338e+00,2.869999999999948159e+03,-2.174999999999820854e+00,-4.945000000001149587e+00,1.342595055705354312e+01,-2.150036064366843913e+00
1.999999999999629097e+01,3.000000000784083909e+00,1.000000000001222666e+01,6.599999999999437428e-01,1.570000000000334239e+00,2.869999999999963620e+03,-2.174999999999654321e+00,-4.945000000001927631e+00,1.340308471274180491e+01,-2.155532020607437094e+00
1.999999999999947065e+01,2.999999997914885252e+00,1.000000000003838885e+01,6.600000000000383338e-01,1.570000000000183471e+00,2.869999999999984993e+03,-2.174999999999823075e+00,-4.945000000001075868e+00,1.340844407122732562e+01,-2.116758695501522958e+00
2.000000000000084199e+01,2.999999999941920681e+00,1.000000000002817302e+01,6.599999999999907052e-01,1.570000000000047136e+00,2.869999999999970441e+03,-2.175000000000026468e+00,-4.945000000000431051e+00,1.340646929043680835e+01,-2.128356220310999358e+00
1.999999999999514344e+01,2.999999997992388145e+00,9.999999999992105870e+00,6.599999999999406342e-01,1.570000000000350893e+00,2.869999999999946795e+03,-2.174999999999621458e+00,-4.945000000002010232e+00,1.340716443404600966e+01,-2.170726363848399121e+00
1.999999999999636557e+01,2.999999998655475952e+00,9.999999999995862865e+00,6.599999999999540679e-01,1.570000000000197682e+00,2.869999999999945430e+03,-2.174999999999814193e+00,-4.945000000001272156e+00,1.340144866871419893e+01,-2.176896822590981273e+00
2.000000000000213873e+01,3.000000001855674725e+00,1.000000000003585399e+01,6.600000000000800782e-01,1.569999999999924789e+00,2.869999999999979082e+03,-2.175000000000026468e+00,-4.944999999999958540e+00,1.339714289970330974e+01,-2.132756375803906757e+00
2.000000000000033751e+01,2.999999996136996305e+00,1.000000000000959233e+01,6.600000000000559863e-01,1.570000000000135287e+00,2.869999999999957708e+03,-2.174999999999876366e+00,-4.945000000000460361e+00,1.341466541983905714e+01,-2.170784114764044315e+00
1.999999999999930722e+01,3.000000000101328723e+00,1.000000000001374012e+01,6.600000000000471045e-01,1.570000000000157492e+00,2.869999999999966349e+03,-2.174999999999872369e+00,-4.945000000000669083e+00,1.341402374357382499e+01,-2.149283328066383003e+00
2.000000000000037303e+01,2.999999996677678471e+00,1.000000000004177814e+01,6.600000000000706413e-01,1.570000000000107532e+00,2.869999999999997726e+03,-2.174999999999823519e+00,-4.945000000000787210e+00,1.340551678141892822e+01,-2.149107579351507979e+00
1.999999999999778311e+01,2.999999999764877412e+00,1.000000000004743050e+01,6.600000000000763034e-01,1.570000000000216112e+00,2.869999999999989541e+03,-2.174999999999716493e+00,-4.945000000001400053e+00,1.338633567842871663e+01,-2.157719294966045087e+00
1.999999999999788258e+01,2.999999999375418724e+00,1.000000000003680611e+01,6.600000000000546541e-01,1.570000000000237872e+00,2.869999999999982265e+03,-2.174999999999748912e+00,-4.945000000001320117e+00,1.339154515070003981e+01,-2.155718493505246247e+00
1.999999999999801048e+01,2.999999999838909304e+00,1.000000000002199840e+01,6.600000000000746381e-01,1.570000000000188578e+00,2.869999999999971351e+03,-2.174999999999778666e+00,-4.945000000001371632e+00,1.340871046437247571e+01,-2.146677976224367512e+00
2.000000000000295941e+01,3.000000003328088027e+00,1.000000000002680878e+01,6.600000000000145750e-01,1.569999999999919682e+00,2.869999999999970896e+03,-2.175000000000172573e+00,-4.944999999998836770e+00,1.339015760351192874e+01,-2.155288060361841840e+00
2.000000000000307665e+01,3.000000002275466038e+00,1.000000000003437428e+01,6.600000000000419975e-01,1.569999999999932117e+00,2.869999999999954980e+03,-2.175000000000149925e+00,-4.944999999999084572e+00,1.338630393893685877e+01,-2.156499080145235947e+00
2.000000000000146727e+01,2.999999999563812025e+00,1.000000000002807887e+01,6.600000000000634248e-01,1.569999999999965201e+00,2.869999999999961801e+03,-2.175000000000080647e+00,-4.944999999999533102e+00,1.338543782847300179e+01,-2.159342768096943921e+00
1.999999999999929656e+01,2.999999999400875694e+00,9.999999999996866507e+00,6.600000000000535438e-01,1.570000000000110196e+00,2.869999999999955890e+03,-2.174999999999936762e+00,-4.945000000000430163e+00,1.339564674783372666e+01,-2.151993425536841809e+00
2.000000000000143174e+01,3.000000000857929283e+00,1.000000000000859934e+01,6.599999999999757172e-01,1.570000000000112639e+00,2.869999999999984539e+03,-2.174999999999915001e+00,-4.945000000000350227e+00,1.339283651049469981e+01,-2.145125454672268894e+00
1.999999999999814548e+01,2.999999998108720867e+00,1.000000000002261658e+01,6.600000000001083889e-01,1.570000000000316254e+00,2.869999999999977263e+03,-2.174999999999643219e+00,-4.945000000001675389e+00,1.339559336918046029e+01,-2.142859211884237336e+00
2.000000000000100897e+01,2.999999996387534118e+00,1.000000000003065459e+01,6.599999999998783506e-01,1.570000000000199902e+00,2.870000000000009095e+03,-2.174999999999885691e+00,-4.945000000000264961e+00,1.339509947978549675e+01,-2.135980270603925479e+00
2.000000000000083489e+01,2.999999998481102104e+00,1.000000000003610090e+01,6.599999999998834577e-01,1.570000000000179474e+00,2.870000000000013642e+03,-2.174999999999948752e+00,-4.945000000000199236e+00,1.338512230243165213e+01,-2.146107303679868572e+00
1.999999999999856470e+01,2.999999998810370272e+00,1.000000000004506440e+01,6.599999999999968114e-01,1.570000000000282059e+00,2.869999999999970441e+03,-2.174999999999681854e+00,-4.945000000001478213e+00,1.340561372682382668e+01,-2.150017328664882488e+00
2.000000000000211031e+01,3.000000000843253911e+00,1.000000000002563816e+01,6.599999999999083267e-01,1.570000000000055795e+00,2.870000000000001364e+03,-2.175000000000061551e+00,-4.944999999999681428e+00,1.340999933943040467e+01,-2.138442959725470160e+00
2.000000000000122924e+01,3.000000002305955871e+00,1.000000000003841905e+01,6.600000000000372236e-01,1.569999999999996954e+00,2.869999999999981355e+03,-2.174999999999967848e+00,-4.944999999999939000e+00,1.341468509474369952e+01,-2.159284036330628709e+00
2.000000000000197531e+01,2.999999998741040841e+00,1.000000000002362022e+01,6.599999999999882627e-01,1.569999999999986073e+00,2.869999999999995453e+03,-2.175000000000094857e+00,-4.944999999999444285e+00,1.341417433010346372e+01,-2.133823977137003780e+00
1.999999999999924327e+01,2.999999999239147730e+00,1.000000000001419664e+01,6.599999999999917044e-01,1.570000000000178808e+00,2.869999999999990450e+03,-2.174999999999789324e+00,-4.945000000000921325e+00,1.340346600862108062e+01,-2.133691925054959082e+00
2.000000000000004974e+01,3.000000002672625676e+00,1.000000000001210054e+01,6.599999999999933697e-01,1.570000000000108420e+00,2.869999999999972260e+03,-2.174999999999917666e+00,-4.945000000000777440e+00,1.339422476059447220e+01,-2.145957671057867167e+00
2.000000000000148503e+01,2.999999997541426655e+00,1.000000000002543388e+01,6.599999999999059952e-01,1.570000000000111084e+00,2.870000000000000000e+03,-2.174999999999897682e+00,-4.945000000000474571e+00,1.342364917124960577e+01,-2.137220542131711642e+00
2.000000000000271072e+01,3.000000000736995798e+00,1.000000000006674306e+01,6.600000000000265654e-01,1.569999999999865725e+00,2.869999999999997272e+03,-2.175000000000210321e+00,-4.944999999999131646e+00,1.338815279875939268e+01,-2.144213467142036311e+00
1.999999999999739941e+01,3.000000002191570481e+00,1.000000000000992628e+01,6.600000000000979528e-01,1.570000000000196350e+00,2.869999999999944521e+03,-2.174999999999822187e+00,-4.945000000001251728e+00,1.340616964940627120e+01,-2.163032231811874428e+00
1.999999999999953104e+01,2.999999998208080054e+00,9.999999999986837196e+00,6.600000000001091660e-01,1.570000000000075113e+00,2.869999999999986358e+03,-2.174999999999927436e+00,-4.945000000000489671e+00,1.342946324100684485e+01,-2.139900243986127215e+00
1.999999999999861799e+01,2.999999999617825264e+00,1.000000000000970068e+01,6.600000000000754152e-01,1.570000000000146168e+00,2.869999999999959527e+03,-2.174999999999881251e+00,-4.945000000000683293e+00,1.342720973893566239e+01,-2.139577640027516381e+00
2.000000000000140687e+01,3.000000000818451085e+00,1.000000000004143708e+01,6.599999999999536238e-01,1.570000000000076001e+00,2.869999999999996362e+03,-2.174999999999998934e+00,-4.944999999999855511e+00,1.339570167014192315e+01,-2.138023357051235251e+00
1.999999999999998934e+01,2.999999998393386491e+00,1.000000000003304201e+01,6.599999999999091038e-01,1.570000000000264295e+00,2.869999999999958163e+03,-2.174999999999860822e+00,-4.945000000000666418e+00,1.339490065359732540e+01,-2.154416069233182185e+00
2.000000000000011013e+01,2.999999997777634597e+00,1.000000000003585754e+01,6.599999999998801270e-01,1.570000000000294937e+00,2.869999999999954525e+03,-2.174999999999840838e+00,-4.945000000000855600e+00,1.339643007716293077e+01,-2.160328009174805164e+00
1.999999999999784706e+01,3.000000000131483269e+00,1.000000000001669065e+01,6.599999999999828226e-01,1.570000000000422613e+00,2.869999999999958618e+03,-2.174999999999568168e+00,-4.945000000002329088e+00,1.341009375333590370e+01,-2.138470844693897366e+00
1.999999999999851497e+01,3.000000001346299960e+00,1.000000000002029843e+01,6.600000000000021405e-01,1.570000000000249862e+00,2.869999999999964530e+03,-2.174999999999799538e+00,-4.945000000001313012e+00,1.338947142877186991e+01,-2.159887934736283377e+00
1.999999999999967315e+01,3.000000000173812520e+00,1.000000000003164224e+01,6.599999999999217604e-01,1.570000000000173479e+00,2.869999999999991360e+03,-2.174999999999807976e+00,-4.945000000000733920e+00,1.341785248072244308e+01,-2.125846598226860618e+00
2.000000000000179412e+01,3.000000000032007286e+00,1.000000000002703615e+01,6.600000000000210143e-01,1.569999999999814433e+00,2.870000000000013642e+03,-2.175000000000221423e+00,-4.944999999999229345e+00,1.340535667754073224e+01,-2.139277642062810791e+00
1.999999999999868194e+01,2.999999999895865965e+00,1.000000000000270894e+01,6.599999999998725775e-01,1.570000000000303597e+00,2.869999999999978172e+03,-2.174999999999724487e+00,-4.945000000000963958e+00,1.339895159689797843e+01,-2.151240418142986499e+00
1.999999999999735323e+01,2.999999999634859638e+00,9.999999999980733634e+00,6.600000000000334488e-01,1.570000000000260965e+00,2.869999999999975444e+03,-2.174999999999739142e+00,-4.945000000001608775e+00,1.340366511465282606e+01,-2.150630852624022982e+00
1.999999999999706191e+01,3.000000001252509652e+00,1.000000000000374811e+01,6.599999999999277556e-01,1.570000000000360219e+00,2.869999999999947249e+03,-2.174999999999679634e+00,-4.945000000001727791e+00,1.340465598758843413e+01,-2.146901762826195714e+00
2.000000000000030909e+01,2.999999998415285418e+00,9.999999999999763745e+00,6.600000000000201261e-01,1.570000000000026485e+00,2.869999999999996817e+03,-2.175000000000046008e+00,-4.945000000000358220e+00,1.341725029984637096e+01,-2.135005576423571139e+00
1.999999999999644018e+01,2.999999999912938975e+00,1.000000000002166267e+01,6.599999999999690559e-01,1.570000000000369100e+00,2.869999999999973625e+03,-2.174999999999675637e+00,-4.945000000002097273e+00,1.340186281567438975e+01,-2.145597567960953800e+00
1.999999999999954881e+01,2.999999999531986816e+00,1.000000000003748823e+01,6.600000000000012523e-01,1.570000000000222773e+00,2.869999999999972715e+03,-2.174999999999852385e+00,-4.945000000000807638e+00,1.340233708264253032e+01,-2.144540803687120967e+00
2.000000000000029843e+01,3.000000001600680033e+00,1.000000000002285994e+01,6.600000000000173506e-01,1.570000000000077556e+00,2.869999999999979991e+03,-2.174999999999945643e+00,-4.945000000000128182e+00,1.339608911358233456e+01,-2.151307056156386732e+00
1.999999999999918288e+01,2.999999998225498121e+00,1.000000000001097078e+01,6.600000000000879607e-01,1.570000000000133289e+00,2.869999999999974989e+03,-2.174999999999853717e+00,-4.945000000000709051e+00,1.340607979858781107e+01,-2.156493205556628823e+00
1.999999999999563727e+01,2.999999999165758435e+00,1.000000000001720224e+01,6.600000000000608713e-01,1.570000000000436602e+00,2.869999999999961346e+03,-2.174999999999510436e+00,-4.945000000002848672e+00,1.340642596993105506e+01,-2.140845378210963101e+00
1.999999999999623057e+01,3.000000002251997255e+00,1.000000000002801670e+01,6.600000000000255662e-01,1.570000000000390195e+00,2.869999999999954980e+03,-2.174999999999546851e+00,-4.945000000002503171e+00,1.340506537200570492e+01,-2.157863040362285378e+00
1.999999999999937117e+01,3.000000001111116088e+00,1.000000000004787637e+01,6.599999999999373035e-01,1.570000000000330020e+00,2.869999999999992724e+03,-2.174999999999696509e+00,-4.945000000001205542e+00,1.340045395455793020e+01,-2.157584630783047075e+00
2.000000000000228795e+01,3.000000001962479512e+00,1.000000000004228973e+01,6.600000000000582068e-01,1.569999999999883267e+00,2.869999999999972260e+03,-2.175000000000131273e+00,-4.944999999999114770e+00,1.341566687794388280e+01,-2.144645929990161459e+00
1.999999999999588240e+01,3.000000003230811618e+00,1.000000000000256328e+01,6.599999999999420774e-01,1.570000000000565166e+00,2.869999999999977717e+03,-2.174999999999447375e+00,-4.945000000002833573e+00,1.339198220171660481e+01,-2.137283435788806418e+00
2.000000000000117595e+01,3.000000003075718791e+00,1.000000000000891021e+01,6.599999999999140998e-01,1.570000000000150608e+00,2.869999999999983174e+03,-2.174999999999982947e+00,-4.945000000000412399e+00,1.340237066514558961e+01,-2.143519032179831640e+00
2.000000000000023803e+01,3.000000000009314771e+00,1.000000000003038814e+01,6.599999999999297540e-01,1.570000000000112639e+00,2.870000000000000455e+03,-2.174999999999978062e+00,-4.945000000000361773e+00,1.340111987327680865e+01,-2.152319549230231388e+00
1.999999999999719336e+01,2.999999999836727049e+00,9.999999999985760724e+00,6.599999999999817124e-01,1.570000000000228546e+00,2.869999999999986358e+03,-2.174999999999759126e+00,-4.945000000001459561e+00,1.343090465379962239e+01,-2.115365559004665830e+00
1.999999999999737099e+01,3.000000001418270834e+00,9.999999999990265565e+00,6.600000000000169065e-01,1.570000000000188578e+00,2.869999999999976353e+03,-2.174999999999798206e+00,-4.945000000001297025e+00,1.342498347024934624e+01,-2.131576579640546143e+00
2.000000000000120437e+01,3.000000000607027317e+00,1.000000000001219114e+01,6.600000000000030287e-01,1.569999999999971196e+00,2.870000000000008185e+03,-2.175000000000038902e+00,-4.944999999999909690e+00,1.341262980175308428e+01,-2.126040767954799016e+00
2.000000000000141043e+01,3.000000001277243644e+00,1.000000000001384493e+01,6.599999999999510703e-01,1.569999999999968976e+00,2.869999999999988631e+03,-2.175000000000066436e+00,-4.944999999999675211e+00,1.342486226833353236e+01,-2.124296405262071641e+00
1.999999999999712941e+01,2.999999998734802720e+00,1.000000000000231282e+01,6.599999999998947819e-01,1.570000000000427942e+00,2.869999999999955890e+03,-2.174999999999622347e+00,-4.945000000001945395e+00,1.341415849773829372e+01,-2.130666773779108958e+00
1.999999999999834088e+01,3.000000002076274264e+00,1.000000000001872635e+01,6.600000000000230127e-01,1.570000000000263629e+00,2.869999999999988177e+03,-2.174999999999741362e+00,-4.945000000001470220e+00,1.339977189700670301e+01,-2.122558525151598374e+00
1.999999999999780442e+01,3.000000001433471564e+00,1.000000000000636469e+01,6.599999999999366374e-01,1.570000000000285612e+00,2.869999999999964075e+03,-2.174999999999799538e+00,-4.945000000001547491e+00,1.339258331752677478e+01,-2.157083475945443585e+00
1.999999999999830180e+01,3.000000001542964867e+00,1.000000000001032596e+01,6.599999999999784928e-01,1.570000000000257634e+00,2.869999999999958618e+03,-2.174999999999850608e+00,-4.945000000001358309e+00,1.339253889324797697e+01,-2.157946342035800047e+00
1.999999999999775824e+01,3.000000002088657247e+00,1.000000000002175149e+01,6.599999999998482636e-01,1.570000000000399965e+00,2.869999999999958163e+03,-2.174999999999628120e+00,-4.945000000001977369e+00,1.340229600997180448e+01,-2.144564484413164163e+00
2.000000000000115463e+01,3.000000000817924839e+00,1.000000000002470202e+01,6.599999999999122124e-01,1.570000000000058238e+00,2.869999999999983174e+03,-2.174999999999972733e+00,-4.945000000000431939e+00,1.338916239916207651e+01,-2.146595387091287943e+00
2.000000000000235190e+01,2.999999998571186044e+00,1.000000000000530775e+01,6.599999999999955902e-01,1.569999999999898366e+00,2.869999999999985903e+03,-2.175000000000148148e+00,-4.944999999999134310e+00,1.340799772872883366e+01,-2.124592869337968981e+00
2.000000000000346390e+01,2.999999998943940760e+00,1.000000000003212364e+01,6.600000000000825207e-01,1.569999999999789564e+00,2.870000000000014097e+03,-2.175000000000199218e+00,-4.944999999998847429e+00,1.340085590670992133e+01,-2.143531047272680290e+00
2.000000000000042988e+01,2.999999996687597204e+00,1.000000000001741896e+01,6.599999999998910072e-01,1.570000000000141060e+00,2.869999999999959982e+03,-2.174999999999959854e+00,-4.945000000000248086e+00,1.341554959033177497e+01,-2.145830771698868045e+00
2.000000000000407141e+01,3.000000002130534416e+00,1.000000000005727507e+01,6.600000000000337819e-01,1.569999999999814433e+00,2.870000000000010914e+03,-2.175000000000197886e+00,-4.944999999999054374e+00,1.337990868110220077e+01,-2.153236105078871532e+00
2.000000000000150280e+01,3.000000001426121887e+00,1.000000000003778133e+01,6.599999999999855982e-01,1.570000000000046914e+00,2.870000000000001364e+03,-2.174999999999961187e+00,-4.945000000000417728e+00,1.339239436747798173e+01,-2.141039528481601728e+00
1.999999999999883116e+01,2.999999998708346105e+00,1.000000000005208101e+01,6.599999999999923705e-01,1.570000000000226548e+00,2.869999999999994998e+03,-2.174999999999704503e+00,-4.945000000001117613e+00,1.341245236756581249e+01,-2.129397719336096007e+00
1.999999999999675637e+01,3.000000000359237973e+00,1.000000000004996892e+01,6.599999999999331957e-01,1.570000000000503215e+00,2.869999999999988631e+03,-2.174999999999407851e+00,-4.945000000002672813e+00,1.338763686503711803e+01,-2.134922368338612486e+00
2.000000000000025935e+01,3.000000001252215220e+00,1.000000000002730083e+01,6.599999999999868194e-01,1.570000000000150608e+00,2.869999999999972715e+03,-2.174999999999871481e+00,-4.945000000000606022e+00,1.339892965948436299e+01,-2.161198234081090241e+00
1.999999999999969447e+01,3.000000001797113569e+00,1.000000000003850609e+01,6.600000000000121325e-01,1.570000000000284501e+00,2.869999999999962256e+03,-2.174999999999705835e+00,-4.945000000001186002e+00,1.338677370522461807e+01,-2.160167588253230075e+00
1.999999999999746692e+01,3.000000002917622144e+00,1.000000000003411316e+01,6.599999999999177636e-01,1.570000000000387086e+00,2.869999999999966349e+03,-2.174999999999643663e+00,-4.945000000002149676e+00,1.338823826044005472e+01,-2.148382911040579657e+00
2.000000000000062172e+01,2.999999998181026584e+00,1.000000000005011636e+01,6.600000000000701972e-01,1.570000000000073781e+00,2.870000000000004093e+03,-2.174999999999902567e+00,-4.945000000000471907e+00,1.338128839017445237e+01,-2.152061605371084596e+00
1.999999999999955946e+01,2.999999997730391499e+00,1.000000000003808687e+01,6.600000000000488809e-01,1.570000000000113749e+00,2.869999999999995453e+03,-2.174999999999848832e+00,-4.945000000000856488e+00,1.339678031220458010e+01,-2.151179854045880191e+00
2.000000000000119726e+01,2.999999997368424598e+00,1.000000000004014389e+01,6.600000000000642020e-01,1.569999999999904139e+00,2.869999999999998636e+03,-2.175000000000060663e+00,-4.944999999999647677e+00,1.339936280138670810e+01,-2.137878301203278042e+00
2.000000000000230926e+01,2.999999997524429585e+00,1.000000000001977440e+01,6.600000000000806333e-01,1.569999999999893703e+00,2.869999999999997272e+03,-2.175000000000194778e+00,-4.944999999999077467e+00,1.338146867001844420e+01,-2.150140621979858668e+00
2.000000000000042277e+01,2.999999997182525746e+00,1.000000000001702460e+01,6.599999999999803801e-01,1.570000000000128182e+00,2.870000000000002274e+03,-2.174999999999975842e+00,-4.945000000000117524e+00,1.338033832962382874e+01,-2.149315452072813937e+00
2.000000000000184741e+01,2.999999999744776602e+00,1.000000000001844747e+01,6.600000000000275646e-01,1.569999999999994511e+00,2.869999999999985448e+03,-2.175000000000060218e+00,-4.944999999999578399e+00,1.339703181473526250e+01,-2.143330384139881417e+00
2.000000000000189360e+01,2.999999999062719969e+00,1.000000000004701484e+01,6.600000000000647571e-01,1.569999999999895035e+00,2.869999999999988177e+03,-2.175000000000178790e+00,-4.944999999998971774e+00,1.343067881074680336e+01,-2.130992118916381628e+00
2.000000000000014211e+01,2.999999999775230464e+00,1.000000000001055334e+01,6.600000000000506573e-01,1.570000000000089990e+00,2.869999999999983629e+03,-2.175000000000005596e+00,-4.945000000000677964e+00,1.339699816562202983e+01,-2.132835450801648047e+00
2.000000000000092015e+01,2.999999998535294754e+00,1.000000000002498624e+01,6.599999999999356382e-01,1.570000000000058238e+00,2.869999999999987722e+03,-2.175000000000035350e+00,-4.944999999999906137e+00,1.341914953411132494e+01,-2.131019705998815184e+00
1.999999999999952749e+01,2.999999999314471921e+00,1.000000000006269651e+01,6.599999999998917843e-01,1.570000000000209894e+00,2.869999999999965439e+03,-2.174999999999890132e+00,-4.945000000000586482e+00,1.340917790251958941e+01,-2.148422630835231217e+00
2.000000000000024158e+01,3.000000002354083595e+00,1.000000000004886047e+01,6.599999999998685807e-01,1.570000000000299378e+00,2.869999999999992724e+03,-2.174999999999806199e+00,-4.945000000000636220e+00,1.339091907176672258e+01,-2.138276559307075164e+00
1.999999999999632294e+01,3.000000002403200750e+00,9.999999999987432275e+00,6.599999999999924816e-01,1.570000000000460805e+00,2.869999999999969532e+03,-2.174999999999646327e+00,-4.945000000002479190e+00,1.341507605140998116e+01,-2.133243633870571809e+00
2.000000000000009237e+01,2.999999997707978761e+00,1.000000000001394262e+01,6.599999999999922595e-01,1.570000000000129736e+00,2.869999999999971351e+03,-2.174999999999830180e+00,-4.945000000000292495e+00,1.342413336062195484e+01,-2.143315213957449838e+00
1.999999999999880629e+01,2.999999999075503077e+00,1.000000000002244072e+01,6.599999999999239808e-01,1.570000000000331131e+00,2.869999999999980446e+03,-2.174999999999709832e+00,-4.945000000001225970e+00,1.342419619648646645e+01,-2.124820089630014674e+00
1.999999999999926459e+01,2.999999999125473771e+00,1.000000000002349232e+01,6.599999999998928946e-01,1.570000000000328244e+00,2.869999999999980901e+03,-2.174999999999732925e+00,-4.945000000000914220e+00,1.342195983266376480e+01,-2.128417863967106527e+00
1.999999999999958789e+01,3.000000002279448630e+00,1.000000000003319478e+01,6.600000000000619815e-01,1.570000000000155493e+00,2.869999999999998181e+03,-2.174999999999746692e+00,-4.945000000001228635e+00,1.340308089325808538e+01,-2.143425457851132254e+00
2.000000000000171951e+01,2.999999999990124788e+00,1.000000000004334311e+01,6.600000000000022515e-01,1.570000000000058238e+00,2.869999999999995907e+03,-2.174999999999950084e+00,-4.944999999999903473e+00,1.341413302244423811e+01,-2.130672395589865875e+00
1.999999999999612399e+01,2.999999999373939019e+00,9.999999999985094590e+00,6.600000000001122746e-01,1.570000000000376872e+00,2.869999999999987267e+03,-2.174999999999583711e+00,-4.945000000002508500e+00,1.340749097555943692e+01,-2.140130281530423062e+00
1.999999999999870681e+01,3.000000000524392529e+00,1.000000000003149125e+01,6.600000000000033618e-01,1.570000000000167040e+00,2.869999999999998181e+03,-2.174999999999781775e+00,-4.945000000001380513e+00,1.341242980192849110e+01,-2.153033264151086090e+00
1.999999999999604228e+01,3.000000000478445727e+00,1.000000000000495959e+01,6.599999999999478506e-01,1.570000000000414841e+00,2.869999999999969532e+03,-2.174999999999561506e+00,-4.945000000002315765e+00,1.341063272639895310e+01,-2.151747729192819314e+00
1.999999999999800337e+01,3.000000000781026355e+00,9.999999999996997957e+00,6.599999999999190958e-01,1.570000000000327134e+00,2.869999999999984993e+03,-2.174999999999828848e+00,-4.945000000001313012e+00,1.339994128591008682e+01,-2.122205807290520774e+00
1.999999999999921840e+01,3.000000002826500811e+00,1.000000000002015632e+01,6.600000000000370015e-01,1.570000000000171925e+00,2.869999999999984539e+03,-2.174999999999845279e+00,-4.945000000001077645e+00,1.341093091235849677e+01,-2.123892080273073191e+00
1.999999999999763034e+01,3.000000002270104993e+00,9.999999999989901411e+00,6.599999999999182076e-01,1.570000000000336460e+00,2.869999999999965439e+03,-2.174999999999730704e+00,-4.945000000001614104e+00,1.341039697576820977e+01,-2.150962538660607493e+00
2.000000000000166978e+01,3.000000000853989324e+00,1.000000000000093792e+01,6.600000000000378897e-01,1.569999999999792895e+00,2.869999999999988177e+03,-2.175000000000224976e+00,-4.944999999998757723e+00,1.343553428750695744e+01,-2.148789585598886109e+00
2.000000000000291678e+01,2.999999999851462373e+00,1.000000000000438227e+01,6.600000000000070255e-01,1.569999999999697415e+00,2.870000000000001819e+03,-2.175000000000314238e+00,-4.944999999998438867e+00,1.342939579457023314e+01,-2.150080606885652834e+00
1.999999999999764455e+01,2.999999998745864982e+00,1.000000000003288214e+01,6.599999999999017763e-01,1.570000000000338902e+00,2.869999999999991815e+03,-2.174999999999745359e+00,-4.945000000001626539e+00,1.338788257606541698e+01,-2.133131916178778287e+00
2.000000000000283862e+01,3.000000000315469872e+00,1.000000000002242295e+01,6.599999999998638067e-01,1.569999999999772244e+00,2.870000000000003638e+03,-2.175000000000360423e+00,-4.944999999998644036e+00,1.341151956077852070e+01,-2.151466161547144651e+00
1.999999999999670308e+01,3.000000000843494607e+00,9.999999999999154454e+00,6.599999999999719424e-01,1.570000000000448592e+00,2.869999999999991815e+03,-2.174999999999616573e+00,-4.945000000002648832e+00,1.338974300820900787e+01,-2.149914686304198241e+00
1.999999999999891998e+01,2.999999998959081537e+00,1.000000000002517986e+01,6.599999999999381917e-01,1.570000000000235874e+00,2.870000000000002728e+03,-2.174999999999783995e+00,-4.945000000001095408e+00,1.341212537627233381e+01,-2.127655177971964573e+00
1.999999999999821654e+01,2.999999999312007670e+00,1.000000000002792611e+01,6.599999999999464073e-01,1.570000000000342677e+00,2.869999999999994088e+03,-2.174999999999649436e+00,-4.945000000001565255e+00,1.341791847758464584e+01,-2.126170839229860388e+00
2.000000000000082778e+01,2.999999998349950570e+00,1.000000000000982681e+01,6.600000000000080247e-01,1.569999999999990958e+00,2.869999999999973625e+03,-2.175000000000021583e+00,-4.944999999999818208e+00,1.340455101507598101e+01,-2.148177693094787788e+00
1.999999999999659650e+01,2.999999998614164110e+00,1.000000000000132694e+01,6.599999999999486278e-01,1.570000000000290274e+00,2.870000000000002274e+03,-2.174999999999672085e+00,-4.945000000002018226e+00,1.341413351864222392e+01,-2.138687500129033747e+00
1.999999999999591438e+01,2.999999995640662664e+00,9.999999999993463007e+00,6.599999999999821565e-01,1.570000000000478568e+00,2.869999999999970441e+03,-2.174999999999470468e+00,-4.945000000002626628e+00,1.341790198513801435e+01,-2.146105794817660950e+00
2.000000000000184386e+01,2.999999997870156587e+00,1.000000000001566747e+01,6.600000000000060263e-01,1.569999999999974083e+00,2.870000000000011369e+03,-2.175000000000081535e+00,-4.945000000000037588e+00,1.340578949052508584e+01,-2.133950949441183020e+00
1.999999999999836220e+01,3.000000001553311701e+00,9.999999999991993960e+00,6.599999999999599520e-01,1.570000000000177254e+00,2.869999999999959982e+03,-2.174999999999921219e+00,-4.945000000000779217e+00,1.341919866040038301e+01,-2.154608635984399889e+00
1.999999999999784350e+01,2.999999998461031048e+00,1.000000000002834177e+01,6.600000000000351141e-01,1.570000000000288054e+00,2.869999999999988631e+03,-2.174999999999704503e+00,-4.945000000001829932e+00,1.339371475787112153e+01,-2.141238991428328742e+00
2.000000000000230926e+01,2.999999998570136217e+00,1.000000000002311928e+01,6.600000000000497691e-01,1.569999999999937890e+00,2.869999999999995907e+03,-2.175000000000185452e+00,-4.944999999999510010e+00,1.340816619136765198e+01,-2.146550919319435202e+00
1.999999999999972644e+01,2.999999998259342604e+00,1.000000000005622347e+01,6.599999999999835998e-01,1.570000000000269624e+00,2.869999999999974079e+03,-2.174999999999706723e+00,-4.945000000001011031e+00,1.341414781047853033e+01,-2.140531836101062346e+00
1.999999999999910116e+01,2.999999998957270986e+00,9.999999999997230660e+00,6.600000000000069145e-01,1.570000000000172813e+00,2.869999999999993179e+03,-2.174999999999814637e+00,-4.945000000001049223e+00,1.341784406956875486e+01,-2.135306579912066294e+00
1.999999999999780087e+01,3.000000002568540491e+00,1.000000000003833200e+01,6.599999999999758282e-01,1.570000000000394857e+00,2.869999999999951797e+03,-2.174999999999592148e+00,-4.945000000001767759e+00,1.339010989868624435e+01,-2.146302842342767470e+00
1.999999999999606004e+01,3.000000001357691737e+00,9.999999999984138910e+00,6.600000000000595390e-01,1.570000000000377982e+00,2.869999999999958163e+03,-2.174999999999633005e+00,-4.945000000002280238e+00,1.341302903463675378e+01,-2.143389386079593617e+00
1.999999999999997158e+01,3.000000000707307102e+00,1.000000000000339639e+01,6.599999999998874545e-01,1.570000000000280060e+00,2.869999999999974079e+03,-2.174999999999820410e+00,-4.945000000000830731e+00,1.341218736952971469e+01,-2.132096191113261430e+00
1.999999999999796430e+01,2.999999996795028601e+00,9.999999999999479527e+00,6.600000000001454703e-01,1.570000000000029372e+00,2.869999999999997726e+03,-2.174999999999926104e+00,-4.945000000000619345e+00,1.341669421183576105e+01,-2.141572625806299701e+00
1.999999999999929301e+01,3.000000000092966079e+00,1.000000000001526068e+01,6.600000000000206812e-01,1.570000000000022045e+00,2.869999999999989541e+03,-2.174999999999978950e+00,-4.945000000000447926e+00,1.339113767873087113e+01,-2.171099730551659945e+00
1.999999999999975486e+01,2.999999999190709143e+00,1.000000000002824052e+01,6.600000000000142419e-01,1.570000000000178364e+00,2.869999999999957254e+03,-2.174999999999808864e+00,-4.945000000001051887e+00,1.341953128977195675e+01,-2.136949637467876695e+00
1.999999999999542766e+01,3.000000001727361809e+00,9.999999999993686828e+00,6.599999999999690559e-01,1.570000000000551177e+00,2.869999999999944521e+03,-2.174999999999378542e+00,-4.945000000002854001e+00,1.341610993093005888e+01,-2.143907964491970297e+00
1.999999999999563371e+01,3.000000001367016278e+00,1.000000000001689493e+01,6.600000000000412204e-01,1.570000000000473239e+00,2.869999999999966803e+03,-2.174999999999481126e+00,-4.945000000002530705e+00,1.342599050467742572e+01,-2.134190905837344499e+00
