1.999999999999592504e+01,2.999999998258927825e+00,9.999999999997035260e+00,6.599999999999950351e-01,1.570000000000347562e+00,2.869999999999979082e+03,-2.174999999999665867e+00,-4.945000000002073293e+00,1.341056814474915981e+01,-2.140113380866091042e+00
1.999999999999705125e+01,3.000000000456856775e+00,1.000000000003506706e+01,6.599999999999563993e-01,1.570000000000386864e+00,2.869999999999985448e+03,-2.174999999999685407e+00,-4.945000000001861906e+00,1.340650993248363854e+01,-2.127005796020323469e+00
1.999999999999671374e+01,2.999999999851270527e+00,1.000000000000110667e+01,6.600000000000622036e-01,1.570000000000342233e+00,2.869999999999993634e+03,-2.174999999999686295e+00,-4.945000000002298002e+00,1.341885045682902522e+01,-2.130869793631839482e+00
1.999999999999964828e+01,3.000000001766411906e+00,1.000000000001045741e+01,6.600000000000398881e-01,1.570000000000088214e+00,2.869999999999970896e+03,-2.174999999999908340e+00,-4.945000000000537632e+00,1.342084114026206976e+01,-2.137683965639813444e+00
1.999999999999599254e+01,3.000000000327896377e+00,1.000000000000437872e+01,6.599999999999508482e-01,1.570000000000538964e+00,2.869999999999990450e+03,-2.174999999999471356e+00,-4.945000000003075158e+00,1.339264819712056109e+01,-2.140488517675689817e+00
2.000000000000020606e+01,3.000000000253826293e+00,1.000000000003771028e+01,6.599999999999300870e-01,1.570000000000084217e+00,2.870000000000000000e+03,-2.174999999999846612e+00,-4.945000000000317364e+00,1.338657128809657060e+01,-2.150465426809364811e+00
1.999999999999891287e+01,2.999999999733020672e+00,1.000000000001166178e+01,6.600000000000417755e-01,1.570000000000195461e+00,2.869999999999986812e+03,-2.174999999999785327e+00,-4.945000000001242846e+00,1.340175246704907153e+01,-2.139364585962391985e+00
2.000000000000184741e+01,2.999999999206760748e+00,1.000000000003541345e+01,6.599999999999410782e-01,1.570000000000066454e+00,2.870000000000016826e+03,-2.174999999999998934e+00,-4.944999999999891926e+00,1.341652017565551702e+01,-2.119156099609011079e+00
2.000000000000188649e+01,2.999999997269053420e+00,1.000000000002697043e+01,6.599999999999940359e-01,1.569999999999855955e+00,2.870000000000005002e+03,-2.175000000000210765e+00,-4.944999999999295959e+00,1.342855996885516667e+01,-2.142287742008956108e+00
1.999999999999853983e+01,2.999999998605273444e+00,9.999999999985618615e+00,6.600000000000414424e-01,1.570000000000181029e+00,2.869999999999957708e+03,-2.174999999999893241e+00,-4.945000000000940865e+00,1.343181783408819285e+01,-2.130980458426074087e+00
1.999999999999973710e+01,2.999999999259638006e+00,1.000000000002603073e+01,6.600000000000639799e-01,1.570000000000142837e+00,2.869999999999988631e+03,-2.174999999999835509e+00,-4.945000000000902673e+00,1.342743941706216937e+01,-2.124449864174470903e+00
1.999999999999584332e+01,2.999999999330015932e+00,1.000000000000867395e+01,6.600000000000396660e-01,1.570000000000399742e+00,2.869999999999973625e+03,-2.174999999999563283e+00,-4.945000000002385931e+00,1.342062248389077617e+01,-2.129948667592582279e+00
2.000000000000094502e+01,3.000000000189319227e+00,1.000000000001801936e+01,6.600000000001212674e-01,1.569999999999943663e+00,2.869999999999984084e+03,-2.175000000000185896e+00,-4.944999999999993179e+00,1.340115284349175084e+01,-2.147221218352820760e+00
1.999999999999928590e+01,2.999999997210522906e+00,1.000000000003016254e+01,6.599999999998932276e-01,1.570000000000299378e+00,2.870000000000001819e+03,-2.174999999999712941e+00,-4.945000000001247287e+00,1.340852288482067678e+01,-2.132679358319674812e+00
1.999999999999731060e+01,2.999999998596467599e+00,1.000000000000669687e+01,6.599999999999858202e-01,1.570000000000334461e+00,2.869999999999974079e+03,-2.174999999999700062e+00,-4.945000000001733120e+00,1.340342438450192653e+01,-2.131641592774145888e+00
1.999999999999927525e+01,2.999999997435780941e+00,1.000000000000763301e+01,6.600000000000353362e-01,1.570000000000138618e+00,2.869999999999994088e+03,-2.174999999999897238e+00,-4.945000000000721485e+00,1.342305296289643302e+01,-2.136272494391724397e+00
1.999999999999869971e+01,2.999999998217577790e+00,1.000000000000758327e+01,6.600000000000246780e-01,1.570000000000235207e+00,2.869999999999977263e+03,-2.174999999999821743e+00,-4.945000000001094520e+00,1.341594191043185091e+01,-2.129746127652368148e+00
2.000000000000422062e+01,3.000000002311566938e+00,1.000000000008323831e+01,6.599999999999826006e-01,1.569999999999854623e+00,2.870000000000017280e+03,-2.175000000000191225e+00,-4.944999999998925588e+00,1.340372236861437116e+01,-2.128019391102285773e+00
1.999999999999899458e+01,3.000000000533327160e+00,1.000000000004876632e+01,6.599999999999793809e-01,1.570000000000279172e+00,2.869999999999969532e+03,-2.174999999999728928e+00,-4.945000000001642526e+00,1.340572404627044989e+01,-2.133861460469013149e+00
1.999999999999885603e+01,2.999999999149325358e+00,9.999999999999783284e+00,6.599999999999559552e-01,1.570000000000082663e+00,2.869999999999978172e+03,-2.174999999999986944e+00,-4.945000000000170814e+00,1.341574040845692295e+01,-2.135259006885816824e+00
1.999999999999880984e+01,2.999999998053909156e+00,1.000000000001037925e+01,6.600000000000127987e-01,1.570000000000056017e+00,2.869999999999954980e+03,-2.174999999999876810e+00,-4.945000000000709051e+00,1.342420424060446038e+01,-2.152004057681959903e+00
1.999999999999737810e+01,2.999999998272083968e+00,1.000000000003446488e+01,6.600000000000134648e-01,1.570000000000228768e+00,2.869999999999979536e+03,-2.174999999999751132e+00,-4.945000000001733120e+00,1.339830914226102365e+01,-2.150247189868192965e+00
1.999999999999469225e+01,3.000000001320637377e+00,9.999999999985552890e+00,6.599999999999633937e-01,1.570000000000572493e+00,2.869999999999957708e+03,-2.174999999999434941e+00,-4.945000000003348717e+00,1.341696893957924175e+01,-2.120134551814385038e+00
1.999999999999549871e+01,2.999999999246540039e+00,9.999999999992279953e+00,6.599999999999913713e-01,1.570000000000481011e+00,2.869999999999962256e+03,-2.174999999999492228e+00,-4.945000000002925056e+00,1.342354247901979214e+01,-2.128274951456475161e+00
2.000000000000176215e+01,2.999999998847473037e+00,1.000000000004005685e+01,6.600000000000579847e-01,1.569999999999958540e+00,2.870000000000010004e+03,-2.174999999999985167e+00,-4.945000000000238316e+00,1.340368426529825641e+01,-2.140000010223277460e+00
1.999999999999658229e+01,2.999999999350933422e+00,1.000000000001429079e+01,6.600000000000444400e-01,1.570000000000313367e+00,2.869999999999974989e+03,-2.174999999999686739e+00,-4.945000000002244711e+00,1.338328102014347465e+01,-2.150515763467562902e+00
1.999999999999998579e+01,2.999999998459937256e+00,1.000000000002646594e+01,6.599999999999563993e-01,1.570000000000115747e+00,2.869999999999989996e+03,-2.174999999999949640e+00,-4.945000000000630003e+00,1.338346750982656275e+01,-2.157264044822056803e+00
1.999999999999713651e+01,3.000000000051265658e+00,1.000000000002498268e+01,6.600000000000089129e-01,1.570000000000299156e+00,2.869999999999955435e+03,-2.174999999999657430e+00,-4.945000000001679830e+00,1.339995555547406703e+01,-2.158492185222229409e+00
1.999999999999572253e+01,2.999999998081747776e+00,1.000000000002596146e+01,6.600000000000445510e-01,1.570000000000379092e+00,2.869999999999964075e+03,-2.174999999999566835e+00,-4.945000000002194973e+00,1.338632984673195736e+01,-2.166493077539051182e+00
1.999999999999940314e+01,2.999999997706231714e+00,1.000000000005564615e+01,6.599999999999482947e-01,1.570000000000212559e+00,2.869999999999997272e+03,-2.174999999999801759e+00,-4.945000000000531415e+00,1.340658343939879060e+01,-2.137626751814738935e+00
2.000000000000140687e+01,3.000000000685628443e+00,1.000000000000676614e+01,6.599999999999749400e-01,1.569999999999992957e+00,2.869999999999993179e+03,-2.175000000000052225e+00,-4.944999999999708074e+00,1.341264385975177120e+01,-2.152945250411901768e+00
2.000000000000149925e+01,3.000000000215661711e+00,1.000000000002692424e+01,6.600000000000896261e-01,1.569999999999931228e+00,2.869999999999999091e+03,-2.175000000000074429e+00,-4.944999999999894591e+00,1.339656125020726485e+01,-2.141138253024840843e+00
1.999999999999793232e+01,3.000000000331471739e+00,1.000000000002033218e+01,6.600000000000887379e-01,1.570000000000221441e+00,2.869999999999999091e+03,-2.174999999999716938e+00,-4.945000000001617657e+00,1.338544707627445973e+01,-2.139871996854271430e+00
1.999999999999746692e+01,2.999999999831722608e+00,1.000000000001456968e+01,6.599999999999682787e-01,1.570000000000339124e+00,2.869999999999969532e+03,-2.174999999999608136e+00,-4.945000000001821050e+00,1.340401509943427705e+01,-2.156691520663852391e+00
2.000000000000068923e+01,3.000000000970086678e+00,1.000000000002933120e+01,6.599999999999917044e-01,1.570000000000071783e+00,2.869999999999979536e+03,-2.174999999999932765e+00,-4.945000000000232099e+00,1.339413521040492050e+01,-2.147902031090327846e+00
1.999999999999796074e+01,3.000000001603934319e+00,9.999999999999968026e+00,6.600000000000071365e-01,1.570000000000246754e+00,2.869999999999980901e+03,-2.174999999999723155e+00,-4.945000000001562590e+00,1.339246423222192028e+01,-2.154743468454481281e+00
1.999999999999833022e+01,3.000000001217478118e+00,1.000000000000709832e+01,6.599999999999145439e-01,1.570000000000398854e+00,2.869999999999966349e+03,-2.174999999999682743e+00,-4.945000000001693152e+00,1.341060731717616328e+01,-2.153833677780537137e+00
1.999999999999841904e+01,2.999999999806528539e+00,1.000000000000867040e+01,6.600000000000206812e-01,1.570000000000162377e+00,2.869999999999960892e+03,-2.174999999999771116e+00,-4.945000000001076756e+00,1.342830345347268306e+01,-2.137861514629163295e+00
2.000000000000553158e+01,2.999999998523614764e+00,1.000000000006338574e+01,6.600000000000612044e-01,1.569999999999782236e+00,2.870000000000023192e+03,-2.175000000000243627e+00,-4.944999999998514362e+00,1.339675489766586480e+01,-2.150641605394526756e+00
1.999999999999856470e+01,2.999999998900027443e+00,1.000000000000948219e+01,6.600000000000023626e-01,1.570000000000195239e+00,2.870000000000003183e+03,-2.174999999999807088e+00,-4.945000000001190443e+00,1.340834060573528497e+01,-2.141944217067966783e+00
2.000000000000063594e+01,2.999999999058117872e+00,1.000000000001409894e+01,6.599999999999873745e-01,1.570000000000063789e+00,2.869999999999954525e+03,-2.174999999999916778e+00,-4.945000000000448814e+00,1.340348016768422035e+01,-2.164086573920414924e+00
1.999999999999742784e+01,2.999999999801686190e+00,1.000000000000767741e+01,6.599999999999741629e-01,1.570000000000372653e+00,2.869999999999940883e+03,-2.174999999999569500e+00,-4.945000000002252705e+00,1.340252325548585688e+01,-2.161408726625296595e+00
1.999999999999660716e+01,2.999999998100106868e+00,1.000000000000505374e+01,6.600000000000013634e-01,1.570000000000406404e+00,2.869999999999981355e+03,-2.174999999999561950e+00,-4.945000000002176321e+00,1.341866267517695910e+01,-2.131574123257010456e+00
1.999999999999894129e+01,3.000000000428529656e+00,1.000000000001127276e+01,6.599999999999597300e-01,1.570000000000165263e+00,2.869999999999961346e+03,-2.174999999999853273e+00,-4.945000000000550067e+00,1.341119579586598931e+01,-2.156041810596639241e+00
1.999999999999881695e+01,3.000000000566343417e+00,1.000000000001393552e+01,6.600000000000639799e-01,1.570000000000156604e+00,2.869999999999953616e+03,-2.174999999999800870e+00,-4.945000000000865370e+00,1.341650914236372749e+01,-2.143508173111622561e+00
1.999999999999705125e+01,3.000000000378205023e+00,1.000000000000204636e+01,6.599999999999672795e-01,1.570000000000391083e+00,2.869999999999984084e+03,-2.174999999999616129e+00,-4.945000000002025331e+00,1.339549472644845274e+01,-2.142874361261524641e+00
2.000000000000081357e+01,3.000000000422591739e+00,1.000000000003089262e+01,6.599999999999520695e-01,1.570000000000050688e+00,2.870000000000002274e+03,-2.174999999999963407e+00,-4.945000000000101537e+00,1.339969157320753901e+01,-2.155558773061652555e+00
1.999999999999555556e+01,2.999999997948897157e+00,1.000000000000285638e+01,6.599999999999361933e-01,1.570000000000499885e+00,2.869999999999976353e+03,-2.174999999999505551e+00,-4.945000000002661267e+00,1.340047674329954752e+01,-2.142708690943562644e+00
1.999999999999828759e+01,2.999999998772373999e+00,1.000000000001737455e+01,6.600000000000102451e-01,1.570000000000202789e+00,2.869999999999985448e+03,-2.174999999999765787e+00,-4.945000000001242846e+00,1.341260626248823229e+01,-2.149133700876534991e+00
2.000000000000180123e+01,2.999999999867276390e+00,1.000000000007792700e+01,6.600000000000108002e-01,1.569999999999998952e+00,2.869999999999992724e+03,-2.174999999999931433e+00,-4.944999999999589058e+00,1.336838573066451019e+01,-2.157843153604677600e+00
2.000000000000000355e+01,3.000000001435278563e+00,1.000000000005998402e+01,6.600000000000075806e-01,1.570000000000139950e+00,2.869999999999989086e+03,-2.174999999999799982e+00,-4.945000000000646878e+00,1.338332911277156079e+01,-2.152410039375062478e+00
2.000000000000265032e+01,3.000000000115540466e+00,1.000000000006370016e+01,6.599999999999915934e-01,1.569999999999958540e+00,2.869999999999980901e+03,-2.175000000000011813e+00,-4.944999999999271090e+00,1.339004404002860582e+01,-2.161521844046779606e+00
1.999999999999932143e+01,2.999999998489366160e+00,1.000000000005249312e+01,6.599999999999456302e-01,1.570000000000337126e+00,2.870000000000003638e+03,-2.174999999999664535e+00,-4.945000000001527951e+00,1.336357527169321102e+01,-2.148892587600104154e+00
1.999999999999874234e+01,2.999999998008379354e+00,1.000000000004395950e+01,6.599999999998888978e-01,1.570000000000326024e+00,2.870000000000008185e+03,-2.174999999999713385e+00,-4.945000000001575025e+00,1.337299165601076112e+01,-2.149596075807069795e+00
1.999999999999446487e+01,3.000000005141485016e+00,1.000000000000821032e+01,6.600000000000214584e-01,1.570000000000439710e+00,2.869999999999957254e+03,-2.174999999999509992e+00,-4.945000000002593765e+00,1.340830860744784125e+01,-2.151923215869104844e+00
2.000000000000335731e+01,3.000000001199095045e+00,1.000000000004378187e+01,6.600000000000283418e-01,1.569999999999821316e+00,2.869999999999960892e+03,-2.175000000000196554e+00,-4.944999999998556994e+00,1.341655351828619480e+01,-2.154605105990459180e+00
2.000000000000096634e+01,2.999999998101778864e+00,1.000000000003639400e+01,6.599999999999818234e-01,1.569999999999979412e+00,2.869999999999960437e+03,-2.175000000000037126e+00,-4.945000000000006501e+00,1.340426373211702327e+01,-2.163753653327171733e+00
1.999999999999925393e+01,2.999999998508594334e+00,1.000000000000474287e+01,6.599999999999870415e-01,1.570000000000132179e+00,2.870000000000000000e+03,-2.174999999999958078e+00,-4.945000000000740137e+00,1.341675662662482615e+01,-2.137441110136751199e+00
2.000000000000176570e+01,2.999999998663943401e+00,1.000000000004302336e+01,6.599999999999842659e-01,1.569999999999961204e+00,2.869999999999997726e+03,-2.174999999999982503e+00,-4.944999999999456719e+00,1.339729657805340324e+01,-2.139076836139502280e+00
1.999999999999633005e+01,2.999999998353277686e+00,9.999999999996310507e+00,6.599999999998743538e-01,1.570000000000484786e+00,2.870000000000006366e+03,-2.174999999999525979e+00,-4.945000000002609752e+00,1.341268825168282142e+01,-2.105775191026087789e+00
1.999999999999764455e+01,3.000000003668153781e+00,1.000000000004267697e+01,6.599999999999478506e-01,1.570000000000335127e+00,2.869999999999986812e+03,-2.174999999999644995e+00,-4.945000000001385843e+00,1.339358374272973684e+01,-2.133280440118578980e+00
2.000000000000150635e+01,3.000000003404218241e+00,1.000000000002054001e+01,6.600000000000462164e-01,1.569999999999933005e+00,2.869999999999978172e+03,-2.175000000000183675e+00,-4.944999999999470042e+00,1.340164883211509483e+01,-2.136941177780243617e+00
1.999999999999863221e+01,3.000000004179864899e+00,1.000000000001405454e+01,6.600000000000029177e-01,1.570000000000245199e+00,2.869999999999997726e+03,-2.174999999999867484e+00,-4.945000000001473772e+00,1.339590592923237899e+01,-2.128468965616820086e+00
1.999999999999992539e+01,2.999999998013333613e+00,1.000000000002013323e+01,6.600000000000104672e-01,1.570000000000097984e+00,2.870000000000001819e+03,-2.174999999999926548e+00,-4.945000000000304041e+00,1.339074092390905157e+01,-2.161976703823085710e+00
2.000000000000425970e+01,3.000000000549410295e+00,1.000000000006081713e+01,6.599999999999647260e-01,1.569999999999745599e+00,2.870000000000005912e+03,-2.175000000000248068e+00,-4.944999999998372253e+00,1.341027262026598521e+01,-2.143640470171598533e+00
2.000000000000039790e+01,3.000000000719236226e+00,1.000000000001563194e+01,6.600000000000352252e-01,1.570000000000043583e+00,2.870000000000000909e+03,-2.175000000000048672e+00,-4.945000000000264073e+00,1.339373627789409049e+01,-2.148556917612849393e+00
2.000000000000236255e+01,2.999999999898303127e+00,1.000000000001181455e+01,6.600000000000583178e-01,1.569999999999878160e+00,2.869999999999985448e+03,-2.175000000000230749e+00,-4.944999999999311058e+00,1.337455738368917402e+01,-2.160741010215044167e+00
1.999999999999959144e+01,3.000000000624371665e+00,9.999999999992718713e+00,6.600000000000073586e-01,1.570000000000144169e+00,2.869999999999979536e+03,-2.174999999999958966e+00,-4.945000000000777440e+00,1.338057395835781449e+01,-2.156071270163048226e+00
1.999999999999638689e+01,3.000000001657057602e+00,9.999999999998925304e+00,6.599999999999544009e-01,1.570000000000457252e+00,2.869999999999953616e+03,-2.174999999999482458e+00,-4.945000000002414353e+00,1.341943466445217759e+01,-2.141092683471464309e+00
1.999999999999823785e+01,2.999999999707949616e+00,9.999999999992553512e+00,6.599999999999162092e-01,1.570000000000292273e+00,2.869999999999968168e+03,-2.174999999999670752e+00,-4.945000000001558149e+00,1.343931400439324086e+01,-2.144380598649045844e+00
1.999999999999752021e+01,2.999999998388502842e+00,1.000000000000985700e+01,6.599999999999064393e-01,1.570000000000247864e+00,2.869999999999985903e+03,-2.174999999999777334e+00,-4.945000000001114948e+00,1.342479704677397123e+01,-2.148995145016937780e+00
1.999999999999727152e+01,3.000000002303148339e+00,1.000000000001958078e+01,6.599999999999515143e-01,1.570000000000314921e+00,2.869999999999963620e+03,-2.174999999999732037e+00,-4.945000000001722462e+00,1.338826986191677371e+01,-2.155904419833656327e+00
1.999999999999463185e+01,3.000000004078867910e+00,1.000000000001965716e+01,6.599999999999970335e-01,1.570000000000722817e+00,2.869999999999974989e+03,-2.174999999999301714e+00,-4.945000000004077023e+00,1.338198113845442982e+01,-2.149368303893208765e+00
1.999999999999910827e+01,3.000000001229070623e+00,1.000000000002077094e+01,6.599999999999586198e-01,1.570000000000304707e+00,2.870000000000001819e+03,-2.174999999999800426e+00,-4.945000000001571472e+00,1.338778984365707636e+01,-2.143202856501752684e+00
1.999999999999709388e+01,2.999999999616307811e+00,1.000000000001378808e+01,6.599999999999572875e-01,1.570000000000388640e+00,2.869999999999992269e+03,-2.174999999999668532e+00,-4.945000000002159446e+00,1.338990948718717533e+01,-2.152958375506964117e+00
1.999999999999362643e+01,3.000000001151500229e+00,1.000000000001332090e+01,6.599999999999582867e-01,1.570000000000677076e+00,2.869999999999961346e+03,-2.174999999999358113e+00,-4.945000000003768825e+00,1.338258983741129882e+01,-2.151581672795799705e+00
1.999999999999420197e+01,3.000000000388628241e+00,1.000000000001315392e+01,6.599999999999895950e-01,1.570000000000681073e+00,2.869999999999993634e+03,-2.174999999999360778e+00,-4.945000000003643592e+00,1.338109507338139892e+01,-2.143353811000684672e+00
1.999999999999761613e+01,2.999999999141912177e+00,1.000000000001140954e+01,6.600000000000053602e-01,1.570000000000268292e+00,2.869999999999986358e+03,-2.174999999999803535e+00,-4.945000000001314788e+00,1.338922583646096953e+01,-2.150275764353631658e+00
1.999999999999733546e+01,3.000000000214692708e+00,9.999999999996973088e+00,6.600000000000265654e-01,1.570000000000309592e+00,2.869999999999952706e+03,-2.174999999999748024e+00,-4.945000000001829044e+00,1.338918674299368305e+01,-2.168576703997922905e+00
1.999999999999982592e+01,2.999999999905222037e+00,1.000000000001615597e+01,6.600000000000082467e-01,1.570000000000088880e+00,2.869999999999976353e+03,-2.174999999999914113e+00,-4.945000000000602469e+00,1.339963777679504275e+01,-2.152409278266314452e+00
1.999999999999911182e+01,3.000000002438964586e+00,1.000000000002758505e+01,6.599999999998935607e-01,1.570000000000219664e+00,2.869999999999954525e+03,-2.174999999999805311e+00,-4.945000000000879581e+00,1.339797690657997720e+01,-2.146340234221220111e+00
2.000000000000272138e+01,2.999999999751415736e+00,1.000000000003475975e+01,6.599999999999991429e-01,1.569999999999932561e+00,2.869999999999995907e+03,-2.175000000000129052e+00,-4.944999999999268425e+00,1.340616950481924619e+01,-2.144533584502299028e+00
1.999999999999911537e+01,2.999999998894050890e+00,1.000000000001404743e+01,6.600000000000563194e-01,1.570000000000133733e+00,2.869999999999969987e+03,-2.174999999999807976e+00,-4.945000000000889351e+00,1.341701217845385230e+01,-2.141765749668893548e+00
1.999999999999624123e+01,2.999999996204373520e+00,1.000000000000905409e+01,6.599999999999707212e-01,1.570000000000422391e+00,2.869999999999995453e+03,-2.174999999999503331e+00,-4.945000000002324647e+00,1.341282036126345290e+01,-2.150823411242729133e+00
1.999999999999876366e+01,2.999999996969354044e+00,1.000000000000921219e+01,6.600000000000202371e-01,1.570000000000085771e+00,2.869999999999973170e+03,-2.174999999999868372e+00,-4.945000000000718821e+00,1.342946412161051128e+01,-2.147725276146999374e+00
1.999999999999732481e+01,2.999999999275263285e+00,9.999999999970018649e+00,6.600000000000161293e-01,1.570000000000144169e+00,2.869999999999978627e+03,-2.174999999999879030e+00,-4.945000000001201101e+00,1.341215548132045221e+01,-2.149056307591018289e+00
1.999999999999749178e+01,3.000000002039578284e+00,1.000000000001658051e+01,6.600000000000517675e-01,1.570000000000307150e+00,2.869999999999977717e+03,-2.174999999999710720e+00,-4.945000000002040430e+00,1.340906936417487749e+01,-2.128011895396145992e+00
2.000000000000100187e+01,2.999999999135592788e+00,1.000000000004314415e+01,6.600000000000099121e-01,1.569999999999994067e+00,2.870000000000006821e+03,-2.175000000000030020e+00,-4.945000000000070450e+00,1.340223962360857435e+01,-2.118658413209088653e+00
1.999999999999863221e+01,3.000000002177457326e+00,1.000000000001304024e+01,6.599999999999689448e-01,1.570000000000260743e+00,2.869999999999979082e+03,-2.174999999999759570e+00,-4.945000000001367191e+00,1.340872000257499508e+01,-2.149278853294951386e+00
1.999999999999360867e+01,3.000000000041794568e+00,9.999999999978669507e+00,6.599999999999469624e-01,1.570000000000688845e+00,2.869999999999977717e+03,-2.174999999999360334e+00,-4.945000000003744844e+00,1.339578251520164009e+01,-2.135368724677149554e+00
1.999999999999861089e+01,3.000000002519659148e+00,1.000000000000205347e+01,6.600000000000385558e-01,1.570000000000127294e+00,2.869999999999970441e+03,-2.174999999999940314e+00,-4.945000000001191331e+00,1.340859881343148530e+01,-2.144237670651516936e+00
2.000000000000349232e+01,2.999999998628943398e+00,1.000000000006546585e+01,6.599999999999905942e-01,1.569999999999968310e+00,2.870000000000009550e+03,-2.175000000000007372e+00,-4.944999999999296847e+00,1.340432327750680841e+01,-2.138951344786258701e+00
2.000000000000048672e+01,2.999999999158144526e+00,1.000000000004216538e+01,6.600000000000189049e-01,1.570000000000097540e+00,2.869999999999995907e+03,-2.174999999999845279e+00,-4.945000000000559837e+00,1.339851348363631089e+01,-2.147478914563859309e+00
2.000000000000225242e+01,3.000000000817230728e+00,1.000000000003545253e+01,6.600000000000140199e-01,1.569999999999974083e+00,2.869999999999994543e+03,-2.175000000000116618e+00,-4.944999999999502016e+00,1.339218313480479061e+01,-2.126321949448442439e+00
2.000000000000189004e+01,2.999999999025291686e+00,1.000000000001669065e+01,6.600000000000826317e-01,1.570000000000000284e+00,2.869999999999996362e+03,-2.174999999999985167e+00,-4.944999999999766693e+00,1.342233989741108147e+01,-2.136305073069570959e+00
2.000000000000108713e+01,2.999999997105843086e+00,1.000000000001318945e+01,6.600000000000318945e-01,1.570000000000030038e+00,2.869999999999993179e+03,-2.174999999999944755e+00,-4.944999999999875939e+00,1.341282571504845755e+01,-2.149800018165223037e+00
1.999999999999500488e+01,3.000000000949910817e+00,9.999999999961653785e+00,6.599999999999749400e-01,1.570000000000504325e+00,2.869999999999953616e+03,-2.174999999999533529e+00,-4.945000000002536922e+00,1.341764533317285846e+01,-2.144778564648671448e+00
1.999999999999347722e+01,3.000000001441770703e+00,9.999999999977841725e+00,6.599999999997990807e-01,1.570000000000872697e+00,2.869999999999947249e+03,-2.174999999999231548e+00,-4.945000000003914487e+00,1.339154495577622583e+01,-2.144804574827216648e+00
2.000000000000153122e+01,2.999999997847474287e+00,1.000000000000032152e+01,6.599999999999798250e-01,1.569999999999921458e+00,2.869999999999983174e+03,-2.175000000000043787e+00,-4.944999999999558860e+00,1.341687704614009746e+01,-2.156887454674655924e+00
1.999999999999645439e+01,3.000000000903273456e+00,1.000000000000121503e+01,6.599999999998771294e-01,1.570000000000539631e+00,2.869999999999955890e+03,-2.174999999999486011e+00,-4.945000000002599094e+00,1.341356683415423312e+01,-2.156004720626887305e+00
1.999999999999978684e+01,2.999999999299726383e+00,1.000000000001734435e+01,6.599999999999542899e-01,1.569999999999993845e+00,2.869999999999995453e+03,-2.174999999999998046e+00,-4.945000000000113971e+00,1.341932919956198234e+01,-2.145088585935963188e+00
1.999999999999869260e+01,2.999999999713421683e+00,1.000000000000664180e+01,6.599999999999089928e-01,1.570000000000260520e+00,2.869999999999994088e+03,-2.174999999999755573e+00,-4.945000000001487983e+00,1.339703168300388114e+01,-2.151683002505447639e+00
1.999999999999983658e+01,2.999999999325104305e+00,1.000000000005878853e+01,6.599999999998901190e-01,1.570000000000265405e+00,2.869999999999970896e+03,-2.174999999999753353e+00,-4.945000000001099849e+00,1.340632449287715033e+01,-2.142039852426685709e+00
1.999999999999642952e+01,2.999999998828095649e+00,9.999999999998681943e+00,6.600000000000022515e-01,1.570000000000421725e+00,2.869999999999968168e+03,-2.174999999999625899e+00,-4.945000000001936513e+00,1.340659066187492954e+01,-2.154428007504701093e+00
1.999999999999738520e+01,2.999999997753249659e+00,1.000000000001137401e+01,6.599999999999631717e-01,1.570000000000350671e+00,2.869999999999993634e+03,-2.174999999999605027e+00,-4.945000000002203855e+00,1.339854281853396323e+01,-2.150147708785685285e+00
1.999999999999455014e+01,2.999999999544928020e+00,9.999999999986597388e+00,6.599999999999244249e-01,1.570000000000565832e+00,2.869999999999955435e+03,-2.174999999999397193e+00,-4.945000000002733209e+00,1.342175518459425909e+01,-2.138755066819431505e+00
1.999999999999597122e+01,2.999999999084644209e+00,9.999999999996106226e+00,6.600000000000201261e-01,1.570000000000466800e+00,2.869999999999994543e+03,-2.174999999999466027e+00,-4.945000000002667484e+00,1.342743364754912783e+01,-2.132340676046017069e+00
1.999999999999444711e+01,2.999999998402340662e+00,1.000000000001257838e+01,6.599999999999318634e-01,1.570000000000648210e+00,2.869999999999982265e+03,-2.174999999999300826e+00,-4.945000000003267004e+00,1.342363093926916306e+01,-2.136414783140341722e+00
1.999999999999963762e+01,2.999999999435261966e+00,1.000000000000109779e+01,6.599999999999541789e-01,1.570000000000054685e+00,2.869999999999966349e+03,-2.175000000000025135e+00,-4.945000000000075779e+00,1.342799132895654068e+01,-2.147815434408095747e+00
1.999999999999495870e+01,3.000000002412496425e+00,9.999999999985336174e+00,6.599999999998511502e-01,1.570000000000700835e+00,2.869999999999958618e+03,-2.174999999999422506e+00,-4.945000000003640039e+00,1.338621860886992998e+01,-2.145699555564045458e+00
1.999999999999700151e+01,3.000000000496945152e+00,9.999999999985826449e+00,6.600000000000045830e-01,1.570000000000210338e+00,2.869999999999980446e+03,-2.174999999999835509e+00,-4.945000000001347651e+00,1.343020798185041542e+01,-2.133775390744892420e+00
1.999999999999785771e+01,2.999999999263691208e+00,9.999999999995569766e+00,6.600000000001001732e-01,1.570000000000188800e+00,2.869999999999977263e+03,-2.174999999999778666e+00,-4.945000000001221530e+00,1.340986219972489835e+01,-2.140953670778360962e+00
2.000000000000002842e+01,2.999999999717755106e+00,1.000000000005261036e+01,6.599999999999662803e-01,1.570000000000270513e+00,2.870000000000005002e+03,-2.174999999999749356e+00,-4.945000000001314788e+00,1.337654484241836528e+01,-2.148171471226073770e+00
1.999999999999798916e+01,3.000000000067928774e+00,9.999999999993427480e+00,6.599999999998944489e-01,1.570000000000342011e+00,2.869999999999990450e+03,-2.174999999999718714e+00,-4.945000000001673612e+00,1.339629180864569591e+01,-2.140128879668822925e+00
1.999999999999602807e+01,3.000000002380786679e+00,1.000000000000917666e+01,6.599999999999767164e-01,1.570000000000427498e+00,2.869999999999952252e+03,-2.174999999999515765e+00,-4.945000000002671925e+00,1.341113995109641799e+01,-2.149189098792890107e+00
1.999999999999936762e+01,3.000000003465458143e+00,1.000000000001805489e+01,6.599999999998847899e-01,1.570000000000149276e+00,2.869999999999990905e+03,-2.174999999999955413e+00,-4.945000000000567830e+00,1.339533747342891168e+01,-2.147736427135242376e+00
2.000000000000053646e+01,3.000000002421186807e+00,1.000000000004223644e+01,6.599999999999459632e-01,1.570000000000086660e+00,2.869999999999999091e+03,-2.174999999999888800e+00,-4.945000000000193907e+00,1.338521981611028799e+01,-2.148528608810443608e+00
1.999999999999854339e+01,2.999999998720455530e+00,1.000000000001354650e+01,6.599999999998965583e-01,1.570000000000197904e+00,2.869999999999991815e+03,-2.174999999999873701e+00,-4.945000000000601581e+00,1.341692798518722363e+01,-2.145868735815221306e+00
1.999999999999978684e+01,2.999999998933126300e+00,1.000000000001226752e+01,6.599999999999119904e-01,1.570000000000140616e+00,2.869999999999953616e+03,-2.174999999999920330e+00,-4.945000000000160156e+00,1.342353460910950069e+01,-2.144485754679868350e+00
1.999999999999767297e+01,3.000000000761920305e+00,9.999999999989309885e+00,6.599999999999722755e-01,1.570000000000310036e+00,2.869999999999968622e+03,-2.174999999999699618e+00,-4.945000000001369855e+00,1.342227835327261509e+01,-2.138906306932710777e+00
1.999999999999911182e+01,2.999999997122536843e+00,1.000000000004707879e+01,6.599999999999677236e-01,1.570000000000218332e+00,2.869999999999980901e+03,-2.174999999999775113e+00,-4.945000000001039453e+00,1.337874552663585526e+01,-2.143227150635158562e+00
1.999999999999918643e+01,3.000000002181049563e+00,1.000000000004813394e+01,6.599999999999970335e-01,1.570000000000254747e+00,2.869999999999968622e+03,-2.174999999999755573e+00,-4.945000000001214424e+00,1.340527139400610679e+01,-2.145283961472750800e+00
1.999999999999800693e+01,2.999999999172927811e+00,9.999999999986451726e+00,6.599999999999780487e-01,1.570000000000169260e+00,2.869999999999959982e+03,-2.174999999999867928e+00,-4.945000000000724150e+00,1.342728075802994425e+01,-2.146872113437762852e+00
1.999999999999704769e+01,3.000000000574408077e+00,1.000000000002339284e+01,6.599999999999804912e-01,1.570000000000273399e+00,2.869999999999977263e+03,-2.174999999999696954e+00,-4.945000000001669171e+00,1.339942121724496893e+01,-2.150402457972108827e+00
1.999999999999989697e+01,2.999999998978571725e+00,1.000000000002516565e+01,6.600000000000142419e-01,1.570000000000179918e+00,2.869999999999984993e+03,-2.174999999999854605e+00,-4.945000000000950635e+00,1.341236107222575136e+01,-2.111005028666159689e+00
2.000000000000159162e+01,2.999999999999601652e+00,1.000000000003900347e+01,6.600000000000250111e-01,1.569999999999969642e+00,2.869999999999975444e+03,-2.175000000000093525e+00,-4.944999999999981632e+00,1.340458255467483006e+01,-2.129939514347662488e+00
1.999999999999648637e+01,2.999999997332274404e+00,1.000000000000075495e+01,6.599999999999681677e-01,1.570000000000215001e+00,2.869999999999944976e+03,-2.174999999999753797e+00,-4.945000000001226859e+00,1.340508488402060117e+01,-2.174664962768435128e+00
1.999999999999754507e+01,2.999999998735552342e+00,1.000000000000284395e+01,6.599999999999672795e-01,1.570000000000145279e+00,2.869999999999956799e+03,-2.174999999999895461e+00,-4.945000000001037677e+00,1.339836075604255861e+01,-2.172282684832722577e+00
2.000000000000184741e+01,3.000000002265979404e+00,1.000000000003980460e+01,6.600000000000502132e-01,1.569999999999975193e+00,2.869999999999978627e+03,-2.174999999999965627e+00,-4.945000000000197460e+00,1.339618042616975835e+01,-2.138312626393735982e+00
2.000000000000094147e+01,2.999999997290689446e+00,1.000000000000947686e+01,6.600000000000819655e-01,1.570000000000078222e+00,2.869999999999966349e+03,-2.174999999999933209e+00,-4.945000000000264073e+00,1.341405355918037046e+01,-2.165154174700123058e+00
1.999999999999986500e+01,3.000000000484297047e+00,1.000000000001309886e+01,6.600000000000547651e-01,1.570000000000102869e+00,2.869999999999953616e+03,-2.174999999999952305e+00,-4.945000000000385754e+00,1.341650345767176944e+01,-2.152650897883549685e+00
2.000000000000018829e+01,2.999999997909775562e+00,1.000000000004481038e+01,6.600000000000758593e-01,1.570000000000096652e+00,2.869999999999992269e+03,-2.174999999999850164e+00,-4.945000000000716156e+00,1.340340768723610232e+01,-2.148930558885478348e+00
1.999999999999598188e+01,3.000000000795013833e+00,1.000000000003545075e+01,6.600000000000050271e-01,1.570000000000434603e+00,2.869999999999986358e+03,-2.174999999999529532e+00,-4.945000000002425011e+00,1.338625450965582253e+01,-2.150458030479275084e+00
1.999999999999877431e+01,2.999999998874297802e+00,1.000000000003946177e+01,6.600000000000203482e-01,1.570000000000196572e+00,2.869999999999982265e+03,-2.174999999999796874e+00,-4.945000000000929319e+00,1.339758545570416537e+01,-2.152243418355122451e+00
1.999999999999770850e+01,2.999999999736782552e+00,1.000000000001858780e+01,6.600000000000512124e-01,1.570000000000202789e+00,2.869999999999965894e+03,-2.174999999999776001e+00,-4.945000000001432028e+00,1.340731237022131594e+01,-2.154990698345187194e+00
2.000000000000062528e+01,3.000000002668163912e+00,1.000000000000807532e+01,6.600000000000332268e-01,1.570000000000061124e+00,2.869999999999958618e+03,-2.174999999999993161e+00,-4.944999999999907025e+00,1.340224248254884998e+01,-2.150392220532090004e+00
2.000000000000113332e+01,3.000000001572910246e+00,1.000000000002368417e+01,6.600000000000193490e-01,1.570000000000064233e+00,2.869999999999945885e+03,-2.174999999999978950e+00,-4.944999999999901696e+00,1.338533812514519461e+01,-2.162737837583653011e+00
2.000000000000117240e+01,3.000000000114517285e+00,1.000000000002095213e+01,6.600000000000543210e-01,1.570000000000029594e+00,2.869999999999966803e+03,-2.175000000000027356e+00,-4.944999999999819984e+00,1.338083990643513665e+01,-2.163501224294218872e+00
2.000000000000052580e+01,2.999999999472821699e+00,1.000000000000715517e+01,6.600000000000604272e-01,1.570000000000023155e+00,2.869999999999976808e+03,-2.175000000000022915e+00,-4.945000000000038476e+00,1.339470209731179473e+01,-2.146934423711383211e+00
1.999999999999952038e+01,3.000000001402149952e+00,9.999999999992299493e+00,6.599999999999978106e-01,1.570000000000234097e+00,2.869999999999973170e+03,-2.174999999999801759e+00,-4.945000000001170015e+00,1.339737329153580880e+01,-2.143882031794511978e+00
1.999999999999862510e+01,2.999999998619807151e+00,1.000000000002388312e+01,6.600000000000991740e-01,1.570000000000266516e+00,2.869999999999991815e+03,-2.174999999999685851e+00,-4.945000000001477325e+00,1.339849161073501627e+01,-2.132840072562549150e+00
2.000000000000192557e+01,2.999999996307288530e+00,1.000000000004340528e+01,6.599999999998853450e-01,1.570000000000106422e+00,2.870000000000013188e+03,-2.174999999999967404e+00,-4.944999999999887486e+00,1.339190970761771737e+01,-2.131428968185352435e+00
2.000000000000160227e+01,3.000000000254879229e+00,1.000000000003123546e+01,6.599999999998839018e-01,1.570000000000120410e+00,2.870000000000011369e+03,-2.175000000000042011e+00,-4.945000000000030482e+00,1.337745796283978272e+01,-2.150281450739788713e+00
1.999999999999722178e+01,2.999999997867697665e+00,1.000000000002847678e+01,6.599999999999675016e-01,1.570000000000412843e+00,2.869999999999972260e+03,-2.174999999999573053e+00,-4.945000000002312213e+00,1.340227458209976419e+01,-2.155621223720404434e+00
2.000000000000023448e+01,3.000000001201332367e+00,1.000000000002354206e+01,6.599999999999088818e-01,1.570000000000231655e+00,2.869999999999993179e+03,-2.174999999999838618e+00,-4.945000000000683293e+00,1.340852992233691054e+01,-2.139909610570944309e+00
2.000000000000133227e+01,3.000000002058016424e+00,1.000000000002494538e+01,6.600000000000427747e-01,1.569999999999961648e+00,2.869999999999987722e+03,-2.175000000000017142e+00,-4.944999999999806661e+00,1.341839935207094925e+01,-2.156487006867938927e+00
2.000000000000289191e+01,2.999999999652608107e+00,1.000000000003373479e+01,6.599999999999996980e-01,1.569999999999942553e+00,2.869999999999985448e+03,-2.175000000000178790e+00,-4.944999999999136975e+00,1.340819822553153173e+01,-2.140871699536857520e+00
1.999999999999824851e+01,2.999999999203290191e+00,1.000000000001045919e+01,6.599999999999656142e-01,1.570000000000242757e+00,2.869999999999990905e+03,-2.174999999999736922e+00,-4.945000000001275708e+00,1.340324705905305436e+01,-2.130816692142417423e+00
1.999999999999914380e+01,3.000000001860918974e+00,1.000000000000350830e+01,6.599999999999742739e-01,1.570000000000175033e+00,2.869999999999977717e+03,-2.174999999999825295e+00,-4.945000000001129159e+00,1.340480650548489017e+01,-2.139663128360385969e+00
2.000000000000017408e+01,2.999999998344748509e+00,1.000000000001441336e+01,6.599999999999015543e-01,1.570000000000156604e+00,2.869999999999984084e+03,-2.174999999999842171e+00,-4.945000000000895568e+00,1.342443728724051155e+01,-2.144911788179004741e+00
2.000000000000203570e+01,3.000000000488000307e+00,1.000000000005639933e+01,6.600000000000174616e-01,1.569999999999905693e+00,2.869999999999992269e+03,-2.175000000000169020e+00,-4.944999999999462936e+00,1.338527723912333656e+01,-2.153654278043104053e+00
1.999999999999644373e+01,3.000000001984284737e+00,1.000000000000704503e+01,6.600000000000656453e-01,1.570000000000343121e+00,2.869999999999946340e+03,-2.174999999999688516e+00,-4.945000000001861018e+00,1.340457689426264487e+01,-2.153611758142125687e+00
2.000000000000047606e+01,2.999999998878270180e+00,9.999999999997619682e+00,6.600000000001153833e-01,1.569999999999982299e+00,2.869999999999997272e+03,-2.175000000000017142e+00,-4.944999999999998508e+00,1.343095350605536709e+01,-2.135268274013049083e+00
1.999999999999879918e+01,3.000000001707436414e+00,1.000000000001304912e+01,6.600000000000649791e-01,1.570000000000190798e+00,2.869999999999965439e+03,-2.174999999999869704e+00,-4.945000000000929319e+00,1.341685621095431280e+01,-2.143216002649367624e+00
2.000000000000049027e+01,3.000000000773672681e+00,1.000000000003565326e+01,6.599999999999753841e-01,1.570000000000150386e+00,2.869999999999996362e+03,-2.174999999999908784e+00,-4.945000000000326246e+00,1.338587509516988838e+01,-2.142065889333275130e+00
2.000000000000007105e+01,2.999999998289923919e+00,1.000000000003265122e+01,6.599999999999135447e-01,1.570000000000224327e+00,2.869999999999950887e+03,-2.174999999999881695e+00,-4.945000000000405294e+00,1.340586351602640036e+01,-2.160238673717143065e+00
2.000000000000121148e+01,2.999999998405900481e+00,1.000000000003017320e+01,6.599999999998676925e-01,1.570000000000205898e+00,2.869999999999948614e+03,-2.174999999999963851e+00,-4.945000000000350227e+00,1.339408711074764824e+01,-2.160457462023146924e+00
1.999999999999706546e+01,3.000000000939329059e+00,1.000000000000721201e+01,6.599999999999476286e-01,1.570000000000500773e+00,2.869999999999951797e+03,-2.174999999999482014e+00,-4.945000000002719887e+00,1.341537022514598476e+01,-2.142560779485331857e+00
1.999999999999902656e+01,3.000000001112373305e+00,1.000000000002351719e+01,6.600000000000103562e-01,1.570000000000224327e+00,2.869999999999966349e+03,-2.174999999999846612e+00,-4.945000000001106955e+00,1.338452551231988608e+01,-2.166129858388506246e+00
1.999999999999996092e+01,3.000000001059177634e+00,1.000000000002923350e+01,6.599999999999314193e-01,1.570000000000095097e+00,2.869999999999986358e+03,-2.174999999999898126e+00,-4.945000000000373319e+00,1.341728538293870088e+01,-2.126768805966045228e+00
2.000000000000174794e+01,3.000000001147243633e+00,1.000000000001427480e+01,6.600000000000580958e-01,1.569999999999795781e+00,2.870000000000011823e+03,-2.175000000000224087e+00,-4.944999999999064144e+00,1.341001630885028817e+01,-2.140940624796682901e+00
1.999999999999936051e+01,2.999999999387183092e+00,1.000000000000719247e+01,6.599999999999118794e-01,1.570000000000239426e+00,2.869999999999984084e+03,-2.174999999999793321e+00,-4.945000000000688622e+00,1.340402721147017573e+01,-2.151466952494261786e+00
1.999999999999724309e+01,2.999999998895652720e+00,9.999999999984188648e+00,6.600000000000421085e-01,1.570000000000260743e+00,2.869999999999975444e+03,-2.174999999999725819e+00,-4.945000000001682494e+00,1.340014019530585898e+01,-2.155988640194129946e+00
1.999999999999673150e+01,3.000000002436865376e+00,1.000000000000074429e+01,6.599999999999249800e-01,1.570000000000407292e+00,2.869999999999939519e+03,-2.174999999999686739e+00,-4.945000000001826379e+00,1.339887370067934569e+01,-2.152179496442547357e+00
2.000000000000206768e+01,2.999999998570845428e+00,1.000000000002319034e+01,6.600000000000376676e-01,1.569999999999903917e+00,2.870000000000003183e+03,-2.175000000000149036e+00,-4.944999999999765805e+00,1.341066795886597340e+01,-2.139142329346275684e+00
1.999999999999689138e+01,3.000000000375249609e+00,1.000000000002100009e+01,6.599999999999952571e-01,1.570000000000308926e+00,2.869999999999979991e+03,-2.174999999999722267e+00,-4.945000000001756213e+00,1.339687953731814396e+01,-2.144885601830239796e+00
1.999999999999886668e+01,3.000000000299083869e+00,1.000000000003047695e+01,6.599999999999988098e-01,1.570000000000247864e+00,2.869999999999980446e+03,-2.174999999999839506e+00,-4.945000000001178897e+00,1.340479684910214964e+01,-2.144494216370296691e+00
2.000000000000076383e+01,3.000000001214314427e+00,1.000000000003303668e+01,6.600000000000464384e-01,1.570000000000028706e+00,2.869999999999978627e+03,-2.174999999999930544e+00,-4.944999999999939888e+00,1.339407260031947722e+01,-2.151409922138806774e+00
1.999999999999837996e+01,2.999999999141912621e+00,1.000000000001078782e+01,6.600000000000899592e-01,1.570000000000223661e+00,2.869999999999975444e+03,-2.174999999999746692e+00,-4.945000000001180673e+00,1.340978715337118032e+01,-2.152524771284823224e+00
1.999999999999683453e+01,2.999999998873737361e+00,1.000000000001567280e+01,6.600000000000377787e-01,1.570000000000300044e+00,2.869999999999958618e+03,-2.174999999999626787e+00,-4.945000000002070628e+00,1.340942940438658759e+01,-2.151831836240647888e+00
1.999999999999573319e+01,3.000000001907362268e+00,1.000000000002725464e+01,6.600000000000032507e-01,1.570000000000454143e+00,2.869999999999957708e+03,-2.174999999999503775e+00,-4.945000000002799823e+00,1.340103797337210700e+01,-2.158056240110875823e+00
1.999999999999895195e+01,3.000000001300216823e+00,1.000000000004363976e+01,6.599999999999842659e-01,1.570000000000296936e+00,2.869999999999977263e+03,-2.174999999999700950e+00,-4.945000000001284590e+00,1.339911845036363758e+01,-2.159438437623746765e+00
2.000000000000164491e+01,3.000000002003983202e+00,1.000000000004366996e+01,6.600000000000483258e-01,1.569999999999945439e+00,2.869999999999967713e+03,-2.175000000000022471e+00,-4.944999999999527773e+00,1.341786903596839942e+01,-2.151036523101148124e+00
1.999999999999619504e+01,3.000000003438674678e+00,1.000000000000427391e+01,6.599999999999425215e-01,1.570000000000545626e+00,2.869999999999980446e+03,-2.174999999999482014e+00,-4.945000000002600871e+00,1.339319944122151895e+01,-2.133377196067758774e+00
2.000000000000109779e+01,3.000000003075253829e+00,1.000000000002526157e+01,6.599999999999135447e-01,1.570000000000189244e+00,2.869999999999982720e+03,-2.174999999999895017e+00,-4.945000000000622897e+00,1.339906890399733719e+01,-2.147913540910641572e+00
1.999999999999982592e+01,3.000000000982842252e+00,1.000000000004524026e+01,6.599999999999111022e-01,1.570000000000191243e+00,2.870000000000010914e+03,-2.174999999999859934e+00,-4.945000000000888463e+00,1.339178452630194904e+01,-2.147648148553666481e+00
1.999999999999818812e+01,3.000000002623373074e+00,1.000000000000554046e+01,6.600000000000337819e-01,1.570000000000138840e+00,2.869999999999974534e+03,-2.174999999999848388e+00,-4.945000000001150475e+00,1.341386752592256748e+01,-2.140301198289535911e+00
1.999999999999993250e+01,3.000000001699158148e+00,1.000000000000601830e+01,6.600000000000014744e-01,1.570000000000056017e+00,2.870000000000002728e+03,-2.174999999999943423e+00,-4.945000000000550955e+00,1.341559578797556007e+01,-2.126775280207634733e+00
2.000000000000011724e+01,3.000000001924161719e+00,1.000000000001422507e+01,6.599999999999571765e-01,1.570000000000077112e+00,2.869999999999987722e+03,-2.174999999999950084e+00,-4.945000000000318252e+00,1.341866540251877460e+01,-2.125471372179602803e+00
1.999999999999614175e+01,2.999999998580924032e+00,1.000000000000225420e+01,6.599999999998744649e-01,1.570000000000489226e+00,2.869999999999955435e+03,-2.174999999999557954e+00,-4.945000000002311324e+00,1.341117780578166219e+01,-2.130684166212514441e+00
1.999999999999625544e+01,3.000000001739397515e+00,1.000000000000449596e+01,6.599999999999693889e-01,1.570000000000454587e+00,2.869999999999981355e+03,-2.174999999999543299e+00,-4.945000000002447216e+00,1.340145016103729780e+01,-2.121136116923195036e+00
1.999999999999737454e+01,3.000000000916411391e+00,1.000000000000536993e+01,6.599999999999677236e-01,1.570000000000274953e+00,2.869999999999962256e+03,-2.174999999999754685e+00,-4.945000000001715357e+00,1.339335280891219249e+01,-2.157147058747773460e+00
1.999999999999883826e+01,3.000000001378091419e+00,1.000000000001089973e+01,6.600000000000062483e-01,1.570000000000210560e+00,2.869999999999954071e+03,-2.174999999999872369e+00,-4.945000000001056328e+00,1.339174258900104775e+01,-2.159835527456406279e+00
1.999999999999741718e+01,3.000000001610267031e+00,1.000000000001451461e+01,6.599999999998351630e-01,1.570000000000428386e+00,2.869999999999960437e+03,-2.174999999999620570e+00,-4.945000000002075957e+00,1.340764182742961630e+01,-2.141528661583207427e+00
2.000000000000270362e+01,3.000000001482622913e+00,1.000000000004707523e+01,6.599999999998976685e-01,1.569999999999993179e+00,2.869999999999984539e+03,-2.175000000000044675e+00,-4.944999999999851070e+00,1.338916986881790017e+01,-2.145576001895072693e+00
2.000000000000155254e+01,2.999999997307563948e+00,1.000000000000377476e+01,6.600000000000005862e-01,1.569999999999960760e+00,2.869999999999990905e+03,-2.175000000000058442e+00,-4.944999999999571294e+00,1.340542106398680922e+01,-2.126967198110671031e+00
2.000000000000126477e+01,2.999999999705988074e+00,1.000000000001526068e+01,6.600000000000565414e-01,1.569999999999941220e+00,2.870000000000000909e+03,-2.175000000000056666e+00,-4.944999999999768470e+00,1.340388190662734225e+01,-2.145405763973408320e+00
1.999999999999961631e+01,2.999999996566217408e+00,1.000000000001490186e+01,6.599999999999278666e-01,1.570000000000194795e+00,2.869999999999963165e+03,-2.174999999999893685e+00,-4.945000000000631779e+00,1.341842078228493662e+01,-2.147414800919790867e+00
2.000000000000315481e+01,3.000000001734984600e+00,1.000000000005137224e+01,6.600000000000209033e-01,1.569999999999922125e+00,2.870000000000005002e+03,-2.175000000000087308e+00,-4.944999999999622808e+00,1.338253554998516925e+01,-2.147338132014742218e+00
2.000000000000227018e+01,3.000000001665553917e+00,1.000000000002762590e+01,6.599999999999890399e-01,1.570000000000011831e+00,2.869999999999999091e+03,-2.175000000000045119e+00,-4.945000000000148610e+00,1.339233569943019475e+01,-2.139706089182457305e+00
2.000000000000029132e+01,2.999999999125799288e+00,1.000000000005327472e+01,6.599999999999941469e-01,1.570000000000095541e+00,2.870000000000000000e+03,-2.174999999999847944e+00,-4.945000000000310258e+00,1.342484897025779489e+01,-2.122220441240272315e+00
1.999999999999704414e+01,3.000000000570513414e+00,1.000000000004426681e+01,6.599999999999592859e-01,1.570000000000471463e+00,2.869999999999988631e+03,-2.174999999999444711e+00,-4.945000000002535145e+00,1.339058434622190141e+01,-2.137996331745689815e+00
2.000000000000138556e+01,3.000000002079068917e+00,1.000000000003700507e+01,6.600000000000132427e-01,1.570000000000066009e+00,2.869999999999972260e+03,-2.174999999999957190e+00,-4.944999999999942553e+00,1.340499603360718872e+01,-2.154901888587791969e+00
1.999999999999846523e+01,3.000000000872553585e+00,1.000000000005051426e+01,6.600000000000034728e-01,1.570000000000335127e+00,2.869999999999962711e+03,-2.174999999999633449e+00,-4.945000000001669171e+00,1.337753833788398872e+01,-2.168539455865489352e+00
1.999999999999755218e+01,3.000000001780566361e+00,1.000000000002989076e+01,6.599999999998944489e-01,1.570000000000393081e+00,2.869999999999969532e+03,-2.174999999999665423e+00,-4.945000000001965823e+00,1.338061737711415589e+01,-2.151702450616497231e+00
2.000000000000219558e+01,2.999999997897336179e+00,1.000000000005386269e+01,6.600000000000751932e-01,1.569999999999939000e+00,2.870000000000005912e+03,-2.175000000000039790e+00,-4.944999999999698304e+00,1.338578143456738090e+01,-2.148438272605551091e+00
2.000000000000084910e+01,2.999999997700973697e+00,1.000000000003899281e+01,6.600000000000807443e-01,1.569999999999955653e+00,2.870000000000005912e+03,-2.175000000000012257e+00,-4.945000000000017160e+00,1.340392608563521826e+01,-2.140877904020762390e+00
2.000000000000070344e+01,2.999999997330697443e+00,1.000000000003249134e+01,6.600000000000932898e-01,1.569999999999936557e+00,2.869999999999994088e+03,-2.175000000000027356e+00,-4.945000000000014495e+00,1.339938946076474835e+01,-2.141852052624414249e+00
2.000000000000216716e+01,2.999999997512750927e+00,1.000000000002711786e+01,6.600000000000804112e-01,1.569999999999931894e+00,2.869999999999999091e+03,-2.175000000000128164e+00,-4.944999999999362572e+00,1.337838892118597478e+01,-2.150699301388847573e+00
2.000000000000229861e+01,2.999999997936079854e+00,1.000000000001923794e+01,6.600000000000141309e-01,1.569999999999978080e+00,2.869999999999998181e+03,-2.175000000000150813e+00,-4.944999999999243556e+00,1.337854024702523859e+01,-2.154979157153698921e+00
2.000000000000132161e+01,2.999999999152800356e+00,1.000000000001230838e+01,6.600000000000054712e-01,1.570000000000067342e+00,2.869999999999983629e+03,-2.174999999999988720e+00,-4.944999999999940776e+00,1.339395000190225460e+01,-2.143687308936518932e+00
2.000000000000203215e+01,2.999999999406555151e+00,1.000000000005407941e+01,6.600000000000700862e-01,1.569999999999924567e+00,2.869999999999997272e+03,-2.175000000000165024e+00,-4.944999999999123652e+00,1.342245519508132112e+01,-2.126580430230328833e+00
2.000000000000088107e+01,2.999999999616611568e+00,1.000000000002522604e+01,6.600000000000399991e-01,1.570000000000032703e+00,2.869999999999985903e+03,-2.175000000000031797e+00,-4.945000000000385754e+00,1.339725073389019450e+01,-2.131940319142267892e+00
2.000000000000036948e+01,2.999999998315937777e+00,1.000000000001737455e+01,6.599999999999847100e-01,1.570000000000016493e+00,2.869999999999989086e+03,-2.175000000000020695e+00,-4.945000000000026930e+00,1.343070288835553150e+01,-2.125743860080905989e+00
1.999999999999826983e+01,2.999999998349435870e+00,1.000000000005507239e+01,6.599999999999318634e-01,1.570000000000269402e+00,2.869999999999955890e+03,-2.174999999999790212e+00,-4.945000000000954188e+00,1.340946288067755354e+01,-2.146886245290177797e+00
2.000000000000001421e+01,3.000000002455645465e+00,1.000000000004687806e+01,6.599999999998727995e-01,1.570000000000307594e+00,2.869999999999995907e+03,-2.174999999999785771e+00,-4.945000000000860041e+00,1.339365641571232857e+01,-2.136161597311973193e+00
1.999999999999747402e+01,3.000000001934326477e+00,9.999999999999937828e+00,6.600000000000265654e-01,1.570000000000367324e+00,2.869999999999962256e+03,-2.174999999999761791e+00,-4.945000000001896545e+00,1.341266868083818942e+01,-2.132666937386538564e+00
1.999999999999980460e+01,2.999999999156186092e+00,1.000000000001332268e+01,6.599999999999702771e-01,1.570000000000172591e+00,2.869999999999955435e+03,-2.174999999999795541e+00,-4.945000000000552731e+00,1.341846460853791001e+01,-2.149230898382449961e+00
1.999999999999713296e+01,2.999999999151025332e+00,1.000000000001146816e+01,6.599999999999324185e-01,1.570000000000422169e+00,2.869999999999966803e+03,-2.174999999999609468e+00,-4.945000000001853913e+00,1.342533073225501816e+01,-2.128699678320308042e+00
1.999999999999975486e+01,2.999999998991429884e+00,1.000000000002079759e+01,6.599999999999217604e-01,1.570000000000260298e+00,2.869999999999986812e+03,-2.174999999999825295e+00,-4.945000000000592699e+00,1.341937920430275533e+01,-2.121687122597094355e+00
2.000000000000112621e+01,3.000000001700038776e+00,1.000000000003120526e+01,6.600000000001018385e-01,1.569999999999943441e+00,2.870000000000000000e+03,-2.174999999999957190e+00,-4.945000000000299600e+00,1.340402296438562324e+01,-2.152856291196450833e+00
2.000000000000348166e+01,2.999999999877324353e+00,1.000000000004911449e+01,6.600000000000264544e-01,1.569999999999886597e+00,2.870000000000005912e+03,-2.175000000000118394e+00,-4.944999999998935358e+00,1.341654300016501722e+01,-2.127024598922363285e+00
1.999999999999753442e+01,2.999999999638998993e+00,9.999999999993681499e+00,6.600000000000928457e-01,1.570000000000319362e+00,2.869999999999985903e+03,-2.174999999999664535e+00,-4.945000000002067964e+00,1.340044256327928629e+01,-2.141795169967561030e+00
1.999999999999731415e+01,3.000000001085030732e+00,1.000000000001391420e+01,6.599999999999711653e-01,1.570000000000264961e+00,2.869999999999997272e+03,-2.174999999999676081e+00,-4.945000000001813056e+00,1.341887330936629041e+01,-2.152834008691680623e+00
1.999999999999619860e+01,3.000000000639746922e+00,9.999999999992404298e+00,6.599999999999182076e-01,1.570000000000385088e+00,2.869999999999972715e+03,-2.174999999999589484e+00,-4.945000000002188756e+00,1.340551631091351581e+01,-2.157817180216152320e+00
1.999999999999594635e+01,3.000000001121113868e+00,9.999999999980289545e+00,6.599999999998719113e-01,1.570000000000483453e+00,2.869999999999972260e+03,-2.174999999999639666e+00,-4.945000000002298890e+00,1.340631992707764120e+01,-2.124626047948949381e+00
1.999999999999870326e+01,3.000000001678731820e+00,1.000000000002565237e+01,6.599999999999884848e-01,1.570000000000263629e+00,2.869999999999972260e+03,-2.174999999999750244e+00,-4.945000000001287255e+00,1.340384423772245981e+01,-2.130907213523117960e+00
1.999999999999682032e+01,3.000000002412386735e+00,9.999999999980033749e+00,6.599999999999188738e-01,1.570000000000425944e+00,2.869999999999954980e+03,-2.174999999999665423e+00,-4.945000000001956941e+00,1.341284062920918174e+01,-2.146496693774819775e+00
1.999999999999984723e+01,3.000000000612235151e+00,9.999999999995486277e+00,6.600000000000212363e-01,1.569999999999927009e+00,2.869999999999979991e+03,-2.175000000000076206e+00,-4.944999999999429185e+00,1.344025925682273126e+01,-2.152874537330840443e+00
2.000000000000165201e+01,2.999999999141377049e+00,1.000000000000493117e+01,6.599999999999487388e-01,1.569999999999843077e+00,2.870000000000009550e+03,-2.175000000000156142e+00,-4.944999999999255103e+00,1.341950726688270734e+01,-2.144595271008633564e+00
1.999999999999743849e+01,2.999999999980039966e+00,1.000000000002566658e+01,6.599999999999092148e-01,1.570000000000321583e+00,2.869999999999993634e+03,-2.174999999999774669e+00,-4.945000000001665619e+00,1.339904024717944964e+01,-2.129865911439801085e+00
2.000000000000166267e+01,3.000000000549289947e+00,1.000000000002213874e+01,6.599999999998632516e-01,1.569999999999905915e+00,2.869999999999992724e+03,-2.175000000000233413e+00,-4.944999999999332374e+00,1.341195737684540390e+01,-2.153144976890023710e+00
1.999999999999750244e+01,3.000000001551642814e+00,1.000000000000564349e+01,6.599999999999704992e-01,1.570000000000394413e+00,2.869999999999987722e+03,-2.174999999999670752e+00,-4.945000000002396590e+00,1.338134380988584837e+01,-2.152951135996457488e+00
1.999999999999753797e+01,2.999999999345255297e+00,1.000000000001367262e+01,6.599999999999397460e-01,1.570000000000356888e+00,2.870000000000005002e+03,-2.174999999999665867e+00,-4.945000000001909868e+00,1.340637546345456244e+01,-2.123980395940684662e+00
1.999999999999970868e+01,3.000000000184212201e+00,1.000000000003156053e+01,6.599999999999097700e-01,1.570000000000224327e+00,2.869999999999994543e+03,-2.174999999999789768e+00,-4.945000000000833396e+00,1.341264571369076819e+01,-2.128226162304288405e+00
1.999999999999953815e+01,2.999999997754708048e+00,1.000000000001359268e+01,6.599999999999978106e-01,1.570000000000105311e+00,2.869999999999979536e+03,-2.174999999999905675e+00,-4.945000000000353779e+00,1.341415521162978486e+01,-2.134633609520045106e+00
1.999999999999603872e+01,3.000000000091263885e+00,1.000000000001128697e+01,6.599999999999882627e-01,1.570000000000387086e+00,2.870000000000003183e+03,-2.174999999999549516e+00,-4.945000000002538698e+00,1.340337979387657619e+01,-2.142291587586707458e+00
1.999999999999722888e+01,2.999999994953328919e+00,9.999999999998372857e+00,6.599999999999702771e-01,1.570000000000388640e+00,2.869999999999974534e+03,-2.174999999999601030e+00,-4.945000000002093721e+00,1.340633442098426009e+01,-2.154408951356589164e+00
2.000000000000211031e+01,2.999999998183908723e+00,1.000000000001395328e+01,6.600000000000245670e-01,1.569999999999983631e+00,2.870000000000005457e+03,-2.175000000000102407e+00,-4.944999999999994067e+00,1.341275625734879284e+01,-2.131804325103242803e+00
1.999999999999726441e+01,3.000000000791992694e+00,9.999999999974894749e+00,6.599999999999481837e-01,1.570000000000234985e+00,2.869999999999963165e+03,-2.174999999999850164e+00,-4.945000000001170903e+00,1.342277698624219262e+01,-2.157139908518663329e+00
1.999999999999884537e+01,2.999999998122001799e+00,1.000000000003310774e+01,6.600000000000519895e-01,1.570000000000206564e+00,2.869999999999998636e+03,-2.174999999999793765e+00,-4.945000000001337881e+00,1.339949195773577628e+01,-2.140574957555489544e+00
2.000000000000182609e+01,2.999999999000887652e+00,1.000000000002847855e+01,6.600000000000242339e-01,1.569999999999984075e+00,2.869999999999995453e+03,-2.175000000000129496e+00,-4.944999999999834195e+00,1.340368898731519387e+01,-2.143754033366913614e+00
2.000000000000072831e+01,2.999999999147765717e+00,1.000000000005997336e+01,6.599999999999988098e-01,1.570000000000185247e+00,2.869999999999973170e+03,-2.174999999999825739e+00,-4.945000000000533191e+00,1.340675277398423404e+01,-2.142354119980688143e+00
1.999999999999894484e+01,2.999999998694898640e+00,9.999999999993770317e+00,6.599999999999849321e-01,1.570000000000176144e+00,2.869999999999991360e+03,-2.174999999999829736e+00,-4.945000000001047447e+00,1.341868378375125914e+01,-2.137361550122279130e+00
1.999999999999672795e+01,3.000000002157432899e+00,1.000000000003360334e+01,6.599999999999445199e-01,1.570000000000485674e+00,2.869999999999949523e+03,-2.174999999999512657e+00,-4.945000000002242047e+00,1.338753502133063478e+01,-2.142439783676310938e+00
1.999999999999635847e+01,3.000000002167695801e+00,9.999999999995079492e+00,6.600000000000376676e-01,1.570000000000393525e+00,2.869999999999972715e+03,-2.174999999999623679e+00,-4.945000000002234941e+00,1.341313123967339216e+01,-2.135239655381698132e+00
1.999999999999958789e+01,3.000000001876288458e+00,1.000000000000352252e+01,6.599999999999055511e-01,1.570000000000300933e+00,2.869999999999968622e+03,-2.174999999999805755e+00,-4.945000000000998597e+00,1.340767068486787927e+01,-2.134588395990015819e+00
1.999999999999823075e+01,2.999999998075655316e+00,9.999999999999724665e+00,6.600000000001631228e-01,1.569999999999983187e+00,2.870000000000000000e+03,-2.174999999999958966e+00,-4.945000000000517204e+00,1.341645544199491979e+01,-2.135609499100823871e+00
1.999999999999970512e+01,3.000000000255947707e+00,1.000000000001788791e+01,6.600000000000315614e-01,1.570000000000001839e+00,2.869999999999986812e+03,-2.174999999999997158e+00,-4.945000000000312035e+00,1.339056333999822712e+01,-2.166045411893549044e+00
2.000000000000108358e+01,2.999999998482400621e+00,1.000000000003032419e+01,6.600000000000426637e-01,1.570000000000070450e+00,2.869999999999959982e+03,-2.174999999999897682e+00,-4.945000000000492335e+00,1.341478217336219458e+01,-2.137935820345221227e+00
1.999999999999448619e+01,3.000000001541023309e+00,1.000000000000091482e+01,6.599999999999265343e-01,1.570000000000657314e+00,2.869999999999951342e+03,-2.174999999999275069e+00,-4.945000000003366480e+00,1.342110677650715722e+01,-2.138197350687403020e+00
1.999999999999528200e+01,3.000000001727926691e+00,1.000000000002313705e+01,6.599999999999714984e-01,1.570000000000538964e+00,2.869999999999963620e+03,-2.174999999999414069e+00,-4.945000000002675478e+00,1.343200127467699545e+01,-2.132554888351142264e+00
