1.999999999999769074e+01,2.999999999250959615e+00,1.000000000000315303e+01,6.599999999999507372e-01,1.570000000000371321e+00,2.869999999999979082e+03,-2.174999999999628120e+00,-4.945000000002103491e+00,1.342642115361908672e+01,-2.150702580308644585e+00
1.999999999999896261e+01,2.999999996696709026e+00,9.999999999993445243e+00,6.599999999999517364e-01,1.570000000000176588e+00,2.870000000000000909e+03,-2.174999999999835509e+00,-4.945000000001110507e+00,1.344186161039982075e+01,-2.145252289424310455e+00
1.999999999999828049e+01,2.999999999734632716e+00,9.999999999993526956e+00,6.599999999999742739e-01,1.570000000000207896e+00,2.869999999999976808e+03,-2.174999999999799538e+00,-4.945000000001090967e+00,1.341840532214913218e+01,-2.167254744356674756e+00
2.000000000000064659e+01,2.999999999034468789e+00,9.999999999988451904e+00,6.599999999999478506e-01,1.570000000000055351e+00,2.869999999999985448e+03,-2.174999999999902123e+00,-4.944999999999935447e+00,1.340784063447591912e+01,-2.198873406209533421e+00
2.000000000000120437e+01,3.000000000195817140e+00,1.000000000000630251e+01,6.599999999999487388e-01,1.569999999999949658e+00,2.869999999999989996e+03,-2.175000000000030909e+00,-4.944999999999359019e+00,1.339195742357611252e+01,-2.187109757151558309e+00
1.999999999999975842e+01,3.000000000535114175e+00,9.999999999977854159e+00,6.599999999999174305e-01,1.570000000000191021e+00,2.869999999999967713e+03,-2.174999999999799982e+00,-4.945000000000810303e+00,1.340542929219907364e+01,-2.193619052160415528e+00
1.999999999999967670e+01,3.000000001079283773e+00,9.999999999982422949e+00,6.599999999999425215e-01,1.570000000000096874e+00,2.869999999999972260e+03,-2.174999999999901679e+00,-4.945000000000419504e+00,1.341170867831738001e+01,-2.179762450014252284e+00
2.000000000000076383e+01,2.999999999035148246e+00,1.000000000001367262e+01,6.599999999999294209e-01,1.570000000000064677e+00,2.869999999999984539e+03,-2.174999999999879918e+00,-4.944999999999936335e+00,1.345204033372139918e+01,-2.157847516590443604e+00
1.999999999999840483e+01,2.999999999694589636e+00,9.999999999961286079e+00,6.599999999999620615e-01,1.570000000000188134e+00,2.869999999999986812e+03,-2.174999999999813305e+00,-4.945000000001369855e+00,1.344970035294578814e+01,-2.125510242500452396e+00
1.999999999999873879e+01,2.999999999089845382e+00,9.999999999976386889e+00,6.599999999999757172e-01,1.570000000000191687e+00,2.869999999999983174e+03,-2.174999999999800426e+00,-4.945000000001104290e+00,1.342402586747579640e+01,-2.157088559158215180e+00
1.999999999999732125e+01,2.999999999720967203e+00,9.999999999997086775e+00,6.599999999999864864e-01,1.570000000000448148e+00,2.869999999999997726e+03,-2.174999999999511768e+00,-4.945000000002462315e+00,1.343828357654305883e+01,-2.122742281824530952e+00
1.999999999999856115e+01,3.000000000711881665e+00,9.999999999997772449e+00,6.599999999999582867e-01,1.570000000000248974e+00,2.869999999999984084e+03,-2.174999999999780886e+00,-4.945000000001563478e+00,1.338787327637172098e+01,-2.195001907396172847e+00
1.999999999999911893e+01,2.999999998697090220e+00,1.000000000001820055e+01,6.599999999999947020e-01,1.570000000000181695e+00,2.870000000000002274e+03,-2.174999999999829736e+00,-4.945000000001126494e+00,1.340129828479658336e+01,-2.172875725516708378e+00
1.999999999999800337e+01,2.999999999586035582e+00,1.000000000003377032e+01,6.599999999999280886e-01,1.570000000000428386e+00,2.869999999999989541e+03,-2.174999999999541966e+00,-4.945000000002757190e+00,1.343536268013440527e+01,-2.162936481964732316e+00
1.999999999999956302e+01,2.999999999860273103e+00,1.000000000002317968e+01,6.599999999999287548e-01,1.570000000000234319e+00,2.869999999999986358e+03,-2.174999999999752909e+00,-4.945000000001458673e+00,1.340252331562869692e+01,-2.186702911970320518e+00
1.999999999999814904e+01,3.000000000792693466e+00,9.999999999976576959e+00,6.600000000000229017e-01,1.570000000000247864e+00,2.869999999999996362e+03,-2.174999999999788880e+00,-4.945000000001570584e+00,1.343339036613032178e+01,-2.115214109463644299e+00
1.999999999999817746e+01,3.000000000205146122e+00,9.999999999996662225e+00,6.599999999999941469e-01,1.570000000000221219e+00,2.869999999999978172e+03,-2.174999999999785327e+00,-4.945000000001253504e+00,1.338764152382377581e+01,-2.164201387432728385e+00
1.999999999999872458e+01,3.000000000963999991e+00,9.999999999988256505e+00,6.599999999999761613e-01,1.570000000000145057e+00,2.869999999999980901e+03,-2.174999999999835953e+00,-4.945000000000860929e+00,1.338672381086242780e+01,-2.171320081043940142e+00
1.999999999999929301e+01,3.000000000422256896e+00,1.000000000000653699e+01,6.599999999999746070e-01,1.570000000000140616e+00,2.869999999999971351e+03,-2.174999999999848832e+00,-4.945000000000526086e+00,1.338833539065842260e+01,-2.156194830991104538e+00
1.999999999999868550e+01,3.000000000745539630e+00,1.000000000000488143e+01,6.599999999999782707e-01,1.570000000000222107e+00,2.869999999999974079e+03,-2.174999999999787104e+00,-4.945000000001074980e+00,1.337692207424879776e+01,-2.158878852157171568e+00
2.000000000000052580e+01,3.000000000129511513e+00,1.000000000001462297e+01,6.599999999999868194e-01,1.570000000000015827e+00,2.869999999999979536e+03,-2.175000000000018918e+00,-4.944999999999871498e+00,1.336786481473214749e+01,-2.160820997182069547e+00
1.999999999999800693e+01,3.000000001614543610e+00,9.999999999960877517e+00,6.600000000000149081e-01,1.570000000000112417e+00,2.869999999999982265e+03,-2.174999999999898570e+00,-4.945000000001012808e+00,1.338104303148817387e+01,-2.180653529794698287e+00
1.999999999999719691e+01,3.000000000978083392e+00,9.999999999976036946e+00,6.600000000000004752e-01,1.570000000000302931e+00,2.869999999999984993e+03,-2.174999999999754241e+00,-4.945000000001992468e+00,1.338639834357615044e+01,-2.165285888706260486e+00
1.999999999999873879e+01,2.999999999990776267e+00,9.999999999978394172e+00,6.600000000000065814e-01,1.570000000000075557e+00,2.869999999999982720e+03,-2.175000000000002043e+00,-4.945000000000660201e+00,1.339045898251982081e+01,-2.156396444287683067e+00
1.999999999999862155e+01,3.000000001244119030e+00,9.999999999972265741e+00,6.600000000000232347e-01,1.570000000000144391e+00,2.869999999999989086e+03,-2.174999999999915445e+00,-4.945000000001071427e+00,1.338908624147442872e+01,-2.166908214925354681e+00
1.999999999999899103e+01,2.999999997554322562e+00,9.999999999999170441e+00,6.599999999999854872e-01,1.570000000000191687e+00,2.869999999999979536e+03,-2.174999999999828404e+00,-4.945000000000964846e+00,1.335756129857609231e+01,-2.170773183959048946e+00
1.999999999999971223e+01,2.999999997313733235e+00,1.000000000000266098e+01,6.599999999999884848e-01,1.570000000000161489e+00,2.869999999999992724e+03,-2.174999999999866152e+00,-4.945000000000907114e+00,1.335117940163883610e+01,-2.174793507249165980e+00
1.999999999999967670e+01,2.999999997768318938e+00,1.000000000000081180e+01,6.600000000000001421e-01,1.570000000000059792e+00,2.869999999999986812e+03,-2.174999999999962519e+00,-4.945000000000405294e+00,1.338324968461329867e+01,-2.151929812696668165e+00
2.000000000000008527e+01,2.999999996859809670e+00,9.999999999993304911e+00,6.599999999999944800e-01,1.570000000000038032e+00,2.869999999999982265e+03,-2.175000000000002931e+00,-4.945000000000200124e+00,1.338164946231733943e+01,-2.159375912329725811e+00
1.999999999999977618e+01,2.999999999206860224e+00,1.000000000001291944e+01,6.600000000000020295e-01,1.570000000000084661e+00,2.869999999999986812e+03,-2.174999999999962519e+00,-4.945000000000395524e+00,1.337690791269706736e+01,-2.129545259309721494e+00
1.999999999999922551e+01,2.999999999773738768e+00,9.999999999996738609e+00,6.600000000000114664e-01,1.570000000000148610e+00,2.869999999999983174e+03,-2.174999999999871481e+00,-4.945000000000795204e+00,1.338753471527760297e+01,-2.137609965781070986e+00
1.999999999999969802e+01,2.999999998640434651e+00,1.000000000001247358e+01,6.600000000000055822e-01,1.570000000000090212e+00,2.869999999999989541e+03,-2.174999999999921219e+00,-4.945000000000530527e+00,1.336472352509143668e+01,-2.147510915288323829e+00
1.999999999999893063e+01,2.999999999028198694e+00,1.000000000000212275e+01,6.599999999999871525e-01,1.570000000000152607e+00,2.869999999999985903e+03,-2.174999999999880806e+00,-4.945000000000884022e+00,1.336354620036843244e+01,-2.154628111788699396e+00
2.000000000000035172e+01,2.999999998721670114e+00,1.000000000000233236e+01,6.599999999999947020e-01,1.570000000000012719e+00,2.869999999999984084e+03,-2.175000000000027356e+00,-4.945000000000001172e+00,1.336282422376607570e+01,-2.156455782193845927e+00
2.000000000000020961e+01,2.999999998324674344e+00,1.000000000000154365e+01,6.600000000000073586e-01,1.570000000000030704e+00,2.869999999999987267e+03,-2.174999999999994493e+00,-4.945000000000209006e+00,1.337469115436017120e+01,-2.153916452420947536e+00
1.999999999999972644e+01,2.999999999177347831e+00,1.000000000000497913e+01,6.600000000000073586e-01,1.570000000000116636e+00,2.869999999999984539e+03,-2.174999999999933653e+00,-4.945000000000554508e+00,1.336171552824987252e+01,-2.137249659710094729e+00
1.999999999999923617e+01,2.999999998548516178e+00,1.000000000000294875e+01,6.600000000000252331e-01,1.570000000000123519e+00,2.869999999999983174e+03,-2.174999999999896794e+00,-4.945000000000715268e+00,1.337792225413725333e+01,-2.142419399603685992e+00
1.999999999999844746e+01,2.999999998481309049e+00,1.000000000000952305e+01,6.600000000000163514e-01,1.570000000000232543e+00,2.869999999999996362e+03,-2.174999999999815081e+00,-4.945000000001359197e+00,1.341336857191533660e+01,-2.100931355963729263e+00
1.999999999999869615e+01,2.999999997634714699e+00,1.000000000000671108e+01,6.600000000000162403e-01,1.570000000000190354e+00,2.869999999999990905e+03,-2.174999999999880806e+00,-4.945000000001086526e+00,1.339553216995287777e+01,-2.113865665831439422e+00
1.999999999999796074e+01,2.999999998075587815e+00,9.999999999994871658e+00,6.600000000000193490e-01,1.570000000000267404e+00,2.869999999999989086e+03,-2.174999999999787992e+00,-4.945000000001696705e+00,1.341193787533624082e+01,-2.115022683981337526e+00
1.999999999999890932e+01,2.999999997677233576e+00,9.999999999985947241e+00,6.600000000000316724e-01,1.570000000000138396e+00,2.869999999999988631e+03,-2.174999999999915445e+00,-4.945000000000970175e+00,1.341106982881337650e+01,-2.119432937405002715e+00
1.999999999999948841e+01,2.999999997077753999e+00,9.999999999984586552e+00,6.599999999999964784e-01,1.570000000000052465e+00,2.869999999999989996e+03,-2.175000000000001599e+00,-4.945000000000457696e+00,1.336777930243713364e+01,-2.156529823433509740e+00
1.999999999999967670e+01,2.999999997164398469e+00,9.999999999987423394e+00,6.600000000000011413e-01,1.570000000000085771e+00,2.869999999999987722e+03,-2.174999999999946532e+00,-4.945000000000613127e+00,1.337301025855788161e+01,-2.162240545492347898e+00
1.999999999999899813e+01,2.999999999502851455e+00,1.000000000001960743e+01,6.600000000000009193e-01,1.570000000000310703e+00,2.870000000000004093e+03,-2.174999999999715161e+00,-4.945000000001254392e+00,1.340000008289297107e+01,-2.152830008630098657e+00
1.999999999999704769e+01,3.000000000703917813e+00,1.000000000001253575e+01,6.599999999999879297e-01,1.570000000000546514e+00,2.869999999999992724e+03,-2.174999999999430500e+00,-4.945000000002899299e+00,1.338430825867960472e+01,-2.195126716957830570e+00
1.999999999999839062e+01,2.999999998542030699e+00,1.000000000003670664e+01,6.599999999999061062e-01,1.570000000000448370e+00,2.869999999999992724e+03,-2.174999999999464251e+00,-4.945000000002552021e+00,1.345378286544560531e+01,-2.128805396024655572e+00
1.999999999999932854e+01,2.999999997060724510e+00,1.000000000003243628e+01,6.599999999999327516e-01,1.570000000000319806e+00,2.870000000000010004e+03,-2.174999999999630340e+00,-4.945000000001980922e+00,1.340107603437752815e+01,-2.177344995526903304e+00
1.999999999999707612e+01,2.999999998064055706e+00,1.000000000001887024e+01,6.599999999999378586e-01,1.570000000000531859e+00,2.870000000000004093e+03,-2.174999999999356337e+00,-4.945000000002965912e+00,1.341207940451061553e+01,-2.179130306354343460e+00
1.999999999999780442e+01,2.999999999831628017e+00,1.000000000002943779e+01,6.599999999999257572e-01,1.570000000000478346e+00,2.869999999999989541e+03,-2.174999999999467803e+00,-4.945000000002799823e+00,1.341688465518163653e+01,-2.149098815152166608e+00
1.999999999999786127e+01,2.999999998486432951e+00,1.000000000001687894e+01,6.599999999999177636e-01,1.570000000000475682e+00,2.870000000000002274e+03,-2.174999999999486011e+00,-4.945000000002915286e+00,1.343065460755879137e+01,-2.137992411907396306e+00
1.999999999999863221e+01,3.000000000757254703e+00,9.999999999995802469e+00,6.599999999999883737e-01,1.570000000000197016e+00,2.870000000000003638e+03,-2.174999999999713385e+00,-4.945000000001138041e+00,1.340715267167777469e+01,-2.205969635550582897e+00
1.999999999999843681e+01,3.000000001415505935e+00,9.999999999987176480e+00,6.599999999999989209e-01,1.570000000000210338e+00,2.869999999999998181e+03,-2.174999999999776890e+00,-4.945000000001091855e+00,1.341277075587408341e+01,-2.193927342629613531e+00
1.999999999999808509e+01,3.000000000596538374e+00,9.999999999967798203e+00,6.599999999999968114e-01,1.570000000000254969e+00,2.870000000000000000e+03,-2.174999999999752909e+00,-4.945000000001645191e+00,1.340822985184574812e+01,-2.182049127102449582e+00
1.999999999999887379e+01,3.000000003813062310e+00,9.999999999999014122e+00,6.600000000000344480e-01,1.569999999999892148e+00,2.869999999999986358e+03,-2.175000000000043343e+00,-4.944999999999614815e+00,1.342122289218448472e+01,-2.152781753724714697e+00
1.999999999999835865e+01,3.000000003492083955e+00,1.000000000002819256e+01,6.600000000000174616e-01,1.570000000000038476e+00,2.869999999999979082e+03,-2.174999999999925659e+00,-4.945000000000185914e+00,1.340330972207802773e+01,-2.148397072595904955e+00
2.000000000000000000e+01,3.000000003249457592e+00,1.000000000002678036e+01,6.600000000000083578e-01,1.569999999999966311e+00,2.869999999999990450e+03,-2.175000000000087752e+00,-4.944999999999884821e+00,1.338688205614511695e+01,-2.136360416050404609e+00
1.999999999999970157e+01,3.000000003716241537e+00,1.000000000002678036e+01,6.600000000000202371e-01,1.569999999999909246e+00,2.869999999999996362e+03,-2.175000000000141043e+00,-4.944999999999757812e+00,1.339518158055258823e+01,-2.130920747896021261e+00
2.000000000000038725e+01,3.000000002283408129e+00,1.000000000002515499e+01,6.600000000000189049e-01,1.569999999999947438e+00,2.869999999999998181e+03,-2.175000000000116174e+00,-4.944999999999780016e+00,1.338672606630347062e+01,-2.136729277946933792e+00
1.999999999999996803e+01,3.000000002992386339e+00,1.000000000002946621e+01,6.600000000000053602e-01,1.569999999999997398e+00,2.869999999999997272e+03,-2.175000000000065103e+00,-4.945000000000089102e+00,1.339495172038006210e+01,-2.127342825643591784e+00
1.999999999999958433e+01,3.000000003204307930e+00,1.000000000001674927e+01,6.600000000000152411e-01,1.569999999999979190e+00,2.869999999999996362e+03,-2.175000000000076206e+00,-4.945000000000027818e+00,1.340661190745800901e+01,-2.116638734375309472e+00
1.999999999999953104e+01,3.000000003285804517e+00,1.000000000001289457e+01,6.600000000000096900e-01,1.570000000000088880e+00,2.869999999999989996e+03,-2.174999999999965627e+00,-4.945000000000476348e+00,1.338108796043529303e+01,-2.141477336708954571e+00
1.999999999999971578e+01,3.000000003795308512e+00,1.000000000001773692e+01,6.599999999999960343e-01,1.570000000000031148e+00,2.869999999999993634e+03,-2.174999999999994049e+00,-4.945000000000157492e+00,1.337438852773051678e+01,-2.161713671747816701e+00
2.000000000000045830e+01,3.000000003052369912e+00,1.000000000002978773e+01,6.600000000000171285e-01,1.569999999999911022e+00,2.870000000000002728e+03,-2.175000000000117506e+00,-4.944999999999615703e+00,1.338229862459408714e+01,-2.146293278597357190e+00
1.999999999999905498e+01,3.000000002713527625e+00,1.000000000002145661e+01,6.600000000000119105e-01,1.570000000000046469e+00,2.869999999999985903e+03,-2.174999999999967848e+00,-4.945000000000258744e+00,1.340206783973939153e+01,-2.133896218717665327e+00
1.999999999999954170e+01,3.000000002398694132e+00,1.000000000002546052e+01,6.600000000000012523e-01,1.569999999999964979e+00,2.869999999999990450e+03,-2.175000000000049560e+00,-4.945000000000028706e+00,1.340305757990597613e+01,-2.134936167677996988e+00
1.999999999999719336e+01,3.000000000085735419e+00,1.000000000000882494e+01,6.600000000000373346e-01,1.570000000000247864e+00,2.869999999999990905e+03,-2.174999999999685407e+00,-4.945000000001662066e+00,1.340635517906295782e+01,-2.164871276007019674e+00
1.999999999999756639e+01,3.000000001371071701e+00,1.000000000001466560e+01,6.600000000000310063e-01,1.570000000000199236e+00,2.870000000000000455e+03,-2.174999999999743583e+00,-4.945000000001441798e+00,1.341906531398113422e+01,-2.141558777126159718e+00
1.999999999999791100e+01,3.000000001013815254e+00,1.000000000002749623e+01,6.600000000000252331e-01,1.570000000000210560e+00,2.869999999999998636e+03,-2.174999999999699618e+00,-4.945000000001464890e+00,1.340722579203116638e+01,-2.141823673757556890e+00
1.999999999999894484e+01,3.000000000860191474e+00,1.000000000002093614e+01,6.599999999999853761e-01,1.570000000000066454e+00,2.869999999999999091e+03,-2.174999999999817302e+00,-4.945000000000864482e+00,1.341730930957350942e+01,-2.182024085046799566e+00
1.999999999999712585e+01,3.000000000885472584e+00,9.999999999995822009e+00,6.599999999999891509e-01,1.570000000000365992e+00,2.869999999999984084e+03,-2.174999999999654765e+00,-4.945000000002067964e+00,1.343053978329508524e+01,-2.126973528670812463e+00
1.999999999999958789e+01,2.999999997954005515e+00,9.999999999978816945e+00,6.599999999999843769e-01,1.570000000000119522e+00,2.870000000000003638e+03,-2.174999999999922551e+00,-4.945000000000999485e+00,1.338694343755330962e+01,-2.171608471981654631e+00
2.000000000000099476e+01,2.999999997886628744e+00,9.999999999978189891e+00,6.599999999999942579e-01,1.569999999999963425e+00,2.870000000000000455e+03,-2.175000000000070877e+00,-4.945000000000140616e+00,1.343621376334080963e+01,-2.140413376294986847e+00
1.999999999999956657e+01,3.000000000205966355e+00,9.999999999950738072e+00,6.600000000000028066e-01,1.569999999999993401e+00,2.869999999999996817e+03,-2.175000000000000266e+00,-4.945000000000276508e+00,1.339263595124417527e+01,-2.193798408395095212e+00
1.999999999999901235e+01,2.999999998699599768e+00,9.999999999977729814e+00,6.599999999999868194e-01,1.570000000000183027e+00,2.870000000000000455e+03,-2.174999999999827072e+00,-4.945000000001259721e+00,1.340511318875662461e+01,-2.173058065851211751e+00
2.000000000000176570e+01,2.999999995106514827e+00,9.999999999982412291e+00,6.599999999999666134e-01,1.569999999999935225e+00,2.870000000000010004e+03,-2.175000000000091749e+00,-4.944999999999788010e+00,1.341019633149584322e+01,-2.160608665705746390e+00
2.000000000000158096e+01,2.999999996607559893e+00,9.999999999993240962e+00,6.599999999999803801e-01,1.569999999999884599e+00,2.870000000000001819e+03,-2.175000000000153033e+00,-4.944999999999502016e+00,1.338470297254507280e+01,-2.167967333148961728e+00
1.999999999999916866e+01,2.999999998426417847e+00,9.999999999990070165e+00,6.599999999999831557e-01,1.570000000000145723e+00,2.869999999999990450e+03,-2.174999999999815525e+00,-4.945000000001014584e+00,1.340383546109060120e+01,-2.178120432482976820e+00
1.999999999999804956e+01,2.999999999421273156e+00,9.999999999992608579e+00,6.599999999999496270e-01,1.570000000000344453e+00,2.869999999999996817e+03,-2.174999999999713829e+00,-4.945000000002011120e+00,1.339758110711047756e+01,-2.143220319193995582e+00
1.999999999999971578e+01,2.999999997119887851e+00,1.000000000001091216e+01,6.599999999999786038e-01,1.570000000000155493e+00,2.870000000000008640e+03,-2.174999999999897238e+00,-4.945000000000947082e+00,1.338087194351647824e+01,-2.148268440332935736e+00
1.999999999999947420e+01,2.999999997240112570e+00,1.000000000000939337e+01,6.599999999999612843e-01,1.570000000000268070e+00,2.870000000000004093e+03,-2.174999999999824851e+00,-4.945000000001363638e+00,1.337615537334477267e+01,-2.141433598655468007e+00
1.999999999999754863e+01,2.999999999127267891e+00,1.000000000000093259e+01,6.599999999999568434e-01,1.570000000000352891e+00,2.869999999999992724e+03,-2.174999999999666755e+00,-4.945000000002026219e+00,1.339851771166107497e+01,-2.143465050645413594e+00
1.999999999999792877e+01,2.999999998137029777e+00,9.999999999966403763e+00,6.599999999999754952e-01,1.570000000000369544e+00,2.869999999999999091e+03,-2.174999999999715161e+00,-4.945000000002109708e+00,1.338667810246796641e+01,-2.154105517381787571e+00
1.999999999999686651e+01,2.999999999903804948e+00,9.999999999952677854e+00,6.599999999999565103e-01,1.570000000000500773e+00,2.869999999999991815e+03,-2.174999999999544631e+00,-4.945000000002929497e+00,1.338844438472549037e+01,-2.164702921690462745e+00
1.999999999999845812e+01,2.999999998726714523e+00,9.999999999993962163e+00,6.599999999999669464e-01,1.570000000000249640e+00,2.870000000000005912e+03,-2.174999999999804423e+00,-4.945000000001656737e+00,1.337853070830621860e+01,-2.167835383724974641e+00
1.999999999999792877e+01,2.999999998064825757e+00,9.999999999996548539e+00,6.599999999999865974e-01,1.570000000000347784e+00,2.870000000000001819e+03,-2.174999999999698730e+00,-4.945000000002075069e+00,1.339719020497047097e+01,-2.140418501668596374e+00
1.999999999999835865e+01,2.999999998644773402e+00,9.999999999976463272e+00,6.600000000000281197e-01,1.570000000000151497e+00,2.869999999999992269e+03,-2.174999999999806644e+00,-4.945000000001159357e+00,1.342561971095786255e+01,-2.165774352648087486e+00
1.999999999999752021e+01,2.999999997563971732e+00,9.999999999974622966e+00,6.600000000000600942e-01,1.570000000000155937e+00,2.869999999999986812e+03,-2.174999999999847056e+00,-4.945000000001317453e+00,1.344922445488446350e+01,-2.137529156725668233e+00
1.999999999999787903e+01,2.999999999077218149e+00,9.999999999969519493e+00,6.600000000000429967e-01,1.570000000000251639e+00,2.869999999999983629e+03,-2.174999999999827516e+00,-4.945000000001410712e+00,1.341898582879271196e+01,-2.133784437263272160e+00
1.999999999999531042e+01,2.999999997980631772e+00,9.999999999936889594e+00,6.600000000000091349e-01,1.570000000000517426e+00,2.869999999999979082e+03,-2.174999999999501554e+00,-4.945000000003278551e+00,1.342193536274697507e+01,-2.169592120565250415e+00
1.999999999999845457e+01,2.999999998740368046e+00,1.000000000000332356e+01,6.599999999999711653e-01,1.570000000000232765e+00,2.869999999999994088e+03,-2.174999999999715605e+00,-4.945000000001358309e+00,1.346047338527493231e+01,-2.128218836053982432e+00
2.000000000000039790e+01,3.000000001841822250e+00,1.000000000002094680e+01,6.599999999999366374e-01,1.570000000000099982e+00,2.869999999999985448e+03,-2.174999999999803091e+00,-4.945000000000636220e+00,1.338883431893551545e+01,-2.214776356170764959e+00
1.999999999999936051e+01,3.000000002315410530e+00,1.000000000000864198e+01,6.599999999999619504e-01,1.570000000000139950e+00,2.869999999999981355e+03,-2.174999999999789324e+00,-4.945000000000959517e+00,1.339447825838008477e+01,-2.203916695119755076e+00
2.000000000000031619e+01,3.000000000103994591e+00,9.999999999982678744e+00,6.600000000000320055e-01,1.569999999999951212e+00,2.870000000000003638e+03,-2.175000000000059774e+00,-4.945000000000299600e+00,1.336798580016146865e+01,-2.229736365995680814e+00
2.000000000000095923e+01,3.000000002046555370e+00,9.999999999999834799e+00,6.600000000000028066e-01,1.569999999999876605e+00,2.869999999999994998e+03,-2.175000000000114841e+00,-4.944999999999622808e+00,1.336517823851816900e+01,-2.233019054143166926e+00
1.999999999999813838e+01,3.000000001805287031e+00,1.000000000003888445e+01,6.599999999999919265e-01,1.570000000000291385e+00,2.869999999999974989e+03,-2.174999999999665867e+00,-4.945000000001248175e+00,1.343586871491202572e+01,-2.138997864942804750e+00
1.999999999999849720e+01,3.000000003104414947e+00,1.000000000002164668e+01,6.599999999999726086e-01,1.570000000000304263e+00,2.869999999999995453e+03,-2.174999999999658762e+00,-4.945000000001659402e+00,1.343452716658373625e+01,-2.142591731062175153e+00
2.000000000000098410e+01,3.000000000266867417e+00,1.000000000004806111e+01,6.599999999999504041e-01,1.569999999999942109e+00,2.869999999999997272e+03,-2.174999999999943423e+00,-4.944999999999605045e+00,1.341625453819916203e+01,-2.197067061225297824e+00
2.000000000000047962e+01,2.999999999292359831e+00,1.000000000003577760e+01,6.599999999999544009e-01,1.569999999999964313e+00,2.869999999999995453e+03,-2.174999999999918554e+00,-4.944999999999818208e+00,1.341954971694859289e+01,-2.205047360028789871e+00
1.999999999999563727e+01,3.000000004107450380e+00,9.999999999962399855e+00,6.599999999999596190e-01,1.570000000000567608e+00,2.869999999999962711e+03,-2.174999999999416289e+00,-4.945000000003197727e+00,1.344310547655318011e+01,-2.165193797535537090e+00
1.999999999999621991e+01,3.000000002843722591e+00,9.999999999961991293e+00,6.599999999999914824e-01,1.570000000000464135e+00,2.869999999999975898e+03,-2.174999999999594813e+00,-4.945000000002740315e+00,1.343254360459609131e+01,-2.144987895325614069e+00
1.999999999999731415e+01,3.000000003658765291e+00,9.999999999966137310e+00,6.599999999999798250e-01,1.570000000000431051e+00,2.869999999999973625e+03,-2.174999999999607692e+00,-4.945000000002338858e+00,1.341317887298447609e+01,-2.137007840217102217e+00
1.999999999999593570e+01,3.000000003509619706e+00,9.999999999969311659e+00,6.599999999999455191e-01,1.570000000000530749e+00,2.869999999999964984e+03,-2.174999999999438938e+00,-4.945000000002780283e+00,1.342092081248510560e+01,-2.152842761292795171e+00
1.999999999999677769e+01,3.000000004132565401e+00,9.999999999969942266e+00,6.599999999999952571e-01,1.570000000000387752e+00,2.869999999999973170e+03,-2.174999999999660982e+00,-4.945000000002350404e+00,1.344195953108855335e+01,-2.151870544419427045e+00
1.999999999999652189e+01,3.000000003073383770e+00,9.999999999995759836e+00,6.599999999999381917e-01,1.570000000000593365e+00,2.869999999999972260e+03,-2.174999999999454037e+00,-4.945000000003254570e+00,1.343992804793557383e+01,-2.136309788554841660e+00
1.999999999999678479e+01,3.000000004384539842e+00,9.999999999989107380e+00,6.599999999999764944e-01,1.570000000000467022e+00,2.869999999999982265e+03,-2.174999999999538858e+00,-4.945000000002827356e+00,1.343875919041585831e+01,-2.154320882974424478e+00
1.999999999999684519e+01,2.999999999093947878e+00,1.000000000001900524e+01,6.599999999999985878e-01,1.570000000000438156e+00,2.869999999999994543e+03,-2.174999999999508216e+00,-4.945000000002409024e+00,1.354236890959312056e+01,-2.010579174181084117e+00
1.999999999999707967e+01,2.999999998922821209e+00,1.000000000002908074e+01,6.599999999999679456e-01,1.570000000000541407e+00,2.869999999999998181e+03,-2.174999999999456701e+00,-4.945000000003165752e+00,1.357335300122748123e+01,-1.995237613471835481e+00
1.999999999999650058e+01,3.000000000025056845e+00,9.999999999993500310e+00,6.600000000000330047e-01,1.570000000000364215e+00,2.869999999999997272e+03,-2.174999999999632561e+00,-4.945000000002425011e+00,1.354532340703249105e+01,-2.036676401808900305e+00
1.999999999999968381e+01,3.000000002153730083e+00,9.999999999972711606e+00,6.599999999999776046e-01,1.570000000000097540e+00,2.869999999999961346e+03,-2.174999999999948752e+00,-4.945000000000146834e+00,1.338603843947994321e+01,-2.176982941820562623e+00
1.999999999999917222e+01,3.000000001818166062e+00,9.999999999982518872e+00,6.599999999999847100e-01,1.570000000000209672e+00,2.869999999999960892e+03,-2.174999999999862599e+00,-4.945000000000582041e+00,1.337424054322802114e+01,-2.170734926829091194e+00
1.999999999999867839e+01,3.000000002350435402e+00,9.999999999970974329e+00,6.599999999999657252e-01,1.570000000000200568e+00,2.869999999999959073e+03,-2.174999999999856382e+00,-4.945000000000801421e+00,1.342632300788682187e+01,-2.153417627151078317e+00
1.999999999999890221e+01,3.000000001456986087e+00,9.999999999986433963e+00,6.599999999999899281e-01,1.570000000000170592e+00,2.869999999999965894e+03,-2.174999999999886136e+00,-4.945000000000849383e+00,1.337400110944617992e+01,-2.180806175587762130e+00
1.999999999999799982e+01,3.000000001799678628e+00,9.999999999993276489e+00,6.599999999999931477e-01,1.570000000000220108e+00,2.869999999999959982e+03,-2.174999999999784883e+00,-4.945000000001103402e+00,1.338167724057577956e+01,-2.185159182844694570e+00
1.999999999999877076e+01,2.999999999235437809e+00,1.000000000004931699e+01,6.599999999999975886e-01,1.570000000000203899e+00,2.870000000000000455e+03,-2.174999999999747136e+00,-4.945000000001555485e+00,1.342033584690881654e+01,-2.152450641553307342e+00
1.999999999999850786e+01,3.000000001423441365e+00,1.000000000003131007e+01,6.599999999999701661e-01,1.570000000000219664e+00,2.869999999999990905e+03,-2.174999999999672085e+00,-4.945000000001439133e+00,1.341451762248657431e+01,-2.162976943472006752e+00
1.999999999999831246e+01,3.000000000566120040e+00,1.000000000004620659e+01,6.599999999999892619e-01,1.570000000000200346e+00,2.869999999999997726e+03,-2.174999999999725819e+00,-4.945000000001464890e+00,1.343532535355774904e+01,-2.147243205486943918e+00
2.000000000000125766e+01,2.999999999779404458e+00,1.000000000004444800e+01,6.599999999999927036e-01,1.569999999999957874e+00,2.870000000000005002e+03,-2.174999999999947420e+00,-4.944999999999847518e+00,1.341670865595054529e+01,-2.166749386062012395e+00
1.999999999999924327e+01,2.999999997962539133e+00,1.000000000003977618e+01,6.599999999999662803e-01,1.570000000000183693e+00,2.869999999999999545e+03,-2.174999999999760902e+00,-4.945000000001262386e+00,1.343824309412691598e+01,-2.170192409716282800e+00
1.999999999999939959e+01,3.000000000070098594e+00,1.000000000005522693e+01,6.599999999999704992e-01,1.570000000000243645e+00,2.870000000000001364e+03,-2.174999999999705835e+00,-4.945000000001518181e+00,1.343227665412441851e+01,-2.147967100800643792e+00
1.999999999999809930e+01,2.999999999698349296e+00,1.000000000000985523e+01,6.599999999999530687e-01,1.570000000000325802e+00,2.869999999999968168e+03,-2.174999999999732481e+00,-4.945000000001910756e+00,1.342092773802038330e+01,-2.143656438114800444e+00
2.000000000000028066e+01,2.999999999924352956e+00,1.000000000002895284e+01,6.599999999999450750e-01,1.570000000000068452e+00,2.869999999999983629e+03,-2.174999999999967404e+00,-4.945000000000577600e+00,1.340657230136284106e+01,-2.171277395134045385e+00
1.999999999999849720e+01,3.000000000374691833e+00,9.999999999980724752e+00,6.599999999999831557e-01,1.570000000000159490e+00,2.869999999999983629e+03,-2.174999999999840394e+00,-4.945000000001393836e+00,1.343561530675663462e+01,-2.146867051138654059e+00
2.000000000000318323e+01,2.999999997289804377e+00,1.000000000003209877e+01,6.600000000000126876e-01,1.569999999999714291e+00,2.869999999999989541e+03,-2.175000000000278710e+00,-4.944999999997745199e+00,1.338895458105470126e+01,-2.178333995718119809e+00
2.000000000000503064e+01,2.999999997824609910e+00,1.000000000002055778e+01,6.599999999999972555e-01,1.569999999999565965e+00,2.869999999999990450e+03,-2.175000000000490985e+00,-4.944999999996888107e+00,1.338065131830313170e+01,-2.175072368509857856e+00
2.000000000000585132e+01,2.999999996199477881e+00,1.000000000002753531e+01,6.599999999999927036e-01,1.569999999999485807e+00,2.869999999999997272e+03,-2.175000000000540723e+00,-4.944999999996531947e+00,1.338737098223614908e+01,-2.182589485951672348e+00
2.000000000000442668e+01,2.999999997189876311e+00,1.000000000005040057e+01,6.599999999999954792e-01,1.569999999999652784e+00,2.870000000000004093e+03,-2.175000000000407940e+00,-4.944999999997742535e+00,1.340646458678737041e+01,-2.166296786765224969e+00
2.000000000000219913e+01,2.999999996926538071e+00,1.000000000004621192e+01,6.600000000000049161e-01,1.569999999999884821e+00,2.869999999999990905e+03,-2.175000000000151701e+00,-4.944999999998692886e+00,1.342208562327589227e+01,-2.126602991915325980e+00
1.999999999999931077e+01,2.999999998491899245e+00,9.999999999993328004e+00,6.599999999999555111e-01,1.570000000000276508e+00,2.870000000000000909e+03,-2.174999999999779110e+00,-4.945000000001312124e+00,1.342118967333788504e+01,-2.142081460163177464e+00
1.999999999999834088e+01,3.000000000284181567e+00,1.000000000004713741e+01,6.599999999999601741e-01,1.570000000000403073e+00,2.869999999999986358e+03,-2.174999999999614797e+00,-4.945000000001763318e+00,1.341103905961779219e+01,-2.134958025512597946e+00
1.999999999999978328e+01,3.000000000553159296e+00,1.000000000006075140e+01,6.599999999999476286e-01,1.570000000000306040e+00,2.870000000000000909e+03,-2.174999999999718270e+00,-4.945000000000986162e+00,1.338452040313029379e+01,-2.122744600887834121e+00
1.999999999999939959e+01,3.000000000212931450e+00,1.000000000005427836e+01,6.599999999999591749e-01,1.570000000000305818e+00,2.869999999999998636e+03,-2.174999999999736922e+00,-4.945000000001103402e+00,1.338800811401739210e+01,-2.117416023920629442e+00
2.000000000000016698e+01,2.999999999892134284e+00,1.000000000005061018e+01,6.599999999999569544e-01,1.570000000000237872e+00,2.870000000000000455e+03,-2.174999999999796874e+00,-4.945000000000653095e+00,1.338112298231344610e+01,-2.137712307394143973e+00
1.999999999999983302e+01,2.999999999886354907e+00,1.000000000004670397e+01,6.599999999999579536e-01,1.570000000000218332e+00,2.869999999999997726e+03,-2.174999999999797762e+00,-4.945000000000639773e+00,1.339205844948030055e+01,-2.136341614394380972e+00
1.999999999999960210e+01,2.999999999347164881e+00,1.000000000004306955e+01,6.599999999999405231e-01,1.570000000000322027e+00,2.869999999999999545e+03,-2.174999999999712053e+00,-4.945000000001115836e+00,1.338738099187893482e+01,-2.130230084608407015e+00
1.999999999999976907e+01,3.000000000313832960e+00,1.000000000004771650e+01,6.599999999999471845e-01,1.570000000000269180e+00,2.869999999999997726e+03,-2.174999999999776445e+00,-4.945000000000908003e+00,1.338489943896170153e+01,-2.130260301876857110e+00
2.000000000000066791e+01,2.999999999510644333e+00,1.000000000006187406e+01,6.599999999999717204e-01,1.570000000000115525e+00,2.869999999999998636e+03,-2.174999999999891021e+00,-4.945000000000110418e+00,1.339368836124816120e+01,-2.134906652669469551e+00
2.000000000000061817e+01,2.999999999116670146e+00,1.000000000004249578e+01,6.599999999999661693e-01,1.570000000000139506e+00,2.870000000000000455e+03,-2.174999999999903011e+00,-4.945000000000233875e+00,1.338852583557232201e+01,-2.142429277793036047e+00
1.999999999999958789e+01,3.000000000712926163e+00,1.000000000003329781e+01,6.599999999999628386e-01,1.570000000000242313e+00,2.869999999999997726e+03,-2.174999999999836398e+00,-4.945000000000904450e+00,1.339433126501989690e+01,-2.119386785716338650e+00
2.000000000000007816e+01,3.000000000659665655e+00,1.000000000002798828e+01,6.599999999999632827e-01,1.570000000000179474e+00,2.869999999999995453e+03,-2.174999999999911005e+00,-4.945000000000534968e+00,1.337991127624191634e+01,-2.135448580791203810e+00
1.999999999999959499e+01,3.000000001058847676e+00,1.000000000003327649e+01,6.599999999999549560e-01,1.570000000000233653e+00,2.869999999999997726e+03,-2.174999999999844391e+00,-4.945000000000950635e+00,1.338471100511141643e+01,-2.131920447775034866e+00
1.999999999999971223e+01,3.000000000687914614e+00,1.000000000002280309e+01,6.599999999999434097e-01,1.570000000000281393e+00,2.869999999999994543e+03,-2.174999999999808420e+00,-4.945000000001127383e+00,1.337887396800833528e+01,-2.140755493892766204e+00
1.999999999999980460e+01,3.000000000153375534e+00,1.000000000002560441e+01,6.599999999999550671e-01,1.570000000000278284e+00,2.869999999999995453e+03,-2.174999999999835065e+00,-4.945000000001103402e+00,1.337895811727453399e+01,-2.132044150044965836e+00
1.999999999999915445e+01,3.000000000929909483e+00,1.000000000003185363e+01,6.599999999999388578e-01,1.570000000000371765e+00,2.869999999999994543e+03,-2.174999999999725819e+00,-4.945000000001651408e+00,1.339538292212375126e+01,-2.124006342380005741e+00
2.000000000000108002e+01,2.999999999930287764e+00,1.000000000004581757e+01,6.600000000000135758e-01,1.569999999999914575e+00,2.870000000000003183e+03,-2.175000000000059330e+00,-4.944999999999301288e+00,1.341244468555085767e+01,-2.112789020406144136e+00
2.000000000000087752e+01,3.000000000179726456e+00,1.000000000002685852e+01,6.599999999999939249e-01,1.569999999999946994e+00,2.870000000000000909e+03,-2.175000000000018030e+00,-4.944999999999589058e+00,1.343729016592318182e+01,-2.120337451908477888e+00
2.000000000000034106e+01,2.999999999184606914e+00,1.000000000001145928e+01,6.599999999999844880e-01,1.570000000000094653e+00,2.869999999999995453e+03,-2.174999999999916334e+00,-4.945000000000248086e+00,1.340334718284096915e+01,-2.151088667969773827e+00
2.000000000000046185e+01,2.999999998223588982e+00,1.000000000005044853e+01,6.599999999999909273e-01,1.570000000000004059e+00,2.870000000000001819e+03,-2.174999999999992717e+00,-4.945000000000044693e+00,1.338608501078174129e+01,-2.156158289791129334e+00
2.000000000000202860e+01,2.999999998503699583e+00,1.000000000004874856e+01,6.599999999999514033e-01,1.569999999999866169e+00,2.870000000000000000e+03,-2.175000000000161915e+00,-4.944999999999243556e+00,1.339457276929834251e+01,-2.145656257989735138e+00
2.000000000000166622e+01,2.999999998108766164e+00,1.000000000003245049e+01,6.599999999999655032e-01,1.569999999999910134e+00,2.869999999999999545e+03,-2.175000000000100631e+00,-4.944999999999632578e+00,1.339559432694253438e+01,-2.156319026741639888e+00
1.999999999999945643e+01,2.999999999086499614e+00,1.000000000003740475e+01,6.600000000000592060e-01,1.570000000000060236e+00,2.869999999999994543e+03,-2.174999999999971401e+00,-4.945000000000367990e+00,1.335375561187196070e+01,-2.189231924575681720e+00
2.000000000000036593e+01,2.999999998410592283e+00,1.000000000002917844e+01,6.600000000000726397e-01,1.569999999999909468e+00,2.869999999999997726e+03,-2.175000000000104183e+00,-4.944999999999537543e+00,1.337970541556534521e+01,-2.176376993780141156e+00
1.999999999999867839e+01,2.999999998400870727e+00,1.000000000002617639e+01,6.600000000000973976e-01,1.570000000000038920e+00,2.870000000000000000e+03,-2.174999999999950528e+00,-4.945000000000383089e+00,1.338065653124244392e+01,-2.175969237805256196e+00
1.999999999999901945e+01,2.999999998916327737e+00,1.000000000004700773e+01,6.600000000000820766e-01,1.570000000000052243e+00,2.870000000000000000e+03,-2.174999999999927880e+00,-4.945000000000278284e+00,1.340776629641317719e+01,-2.148283651619920853e+00
1.999999999999796430e+01,3.000000002815463418e+00,9.999999999955390351e+00,6.599999999999813793e-01,1.570000000000206342e+00,2.869999999999977717e+03,-2.174999999999774669e+00,-4.945000000001356533e+00,1.341705727198354303e+01,-2.186011915783518500e+00
1.999999999999766587e+01,3.000000003477277133e+00,9.999999999972182252e+00,6.599999999999659472e-01,1.570000000000283613e+00,2.869999999999966803e+03,-2.174999999999668088e+00,-4.945000000001561702e+00,1.342209340535393736e+01,-2.182393503224394848e+00
2.000000000000087041e+01,3.000000000651058318e+00,9.999999999963799624e+00,6.599999999999706102e-01,1.569999999999965645e+00,2.869999999999976353e+03,-2.175000000000010481e+00,-4.944999999999668105e+00,1.339333966295330569e+01,-2.214505963242972442e+00
1.999999999999917577e+01,3.000000000619071461e+00,9.999999999945446305e+00,6.599999999999832667e-01,1.570000000000129736e+00,2.869999999999974989e+03,-2.174999999999862599e+00,-4.945000000000766782e+00,1.340137273018633657e+01,-2.204014664560189463e+00
2.000000000000049027e+01,3.000000001766150337e+00,9.999999999951993956e+00,6.600000000000066924e-01,1.570000000000056239e+00,2.869999999999979991e+03,-2.174999999999958966e+00,-4.945000000000206342e+00,1.340515695912816341e+01,-2.194499059161160393e+00
2.000000000000028777e+01,3.000000001803044380e+00,9.999999999975488052e+00,6.599999999999844880e-01,1.569999999999987184e+00,2.869999999999979991e+03,-2.175000000000061995e+00,-4.944999999999811990e+00,1.337952591998495322e+01,-2.186625581952855502e+00
1.999999999999915090e+01,3.000000002260170717e+00,9.999999999962779995e+00,6.599999999999732747e-01,1.570000000000169260e+00,2.869999999999974989e+03,-2.174999999999875477e+00,-4.945000000000840501e+00,1.338234850769872608e+01,-2.182923534968579382e+00
1.999999999999857181e+01,3.000000004201639481e+00,9.999999999949757523e+00,6.599999999999764944e-01,1.570000000000212559e+00,2.869999999999974079e+03,-2.174999999999864375e+00,-4.945000000001209983e+00,1.338128676556302210e+01,-2.180001952800833642e+00
1.999999999999636557e+01,3.000000001096745805e+00,1.000000000002894396e+01,6.599999999999176525e-01,1.570000000000643769e+00,2.869999999999962256e+03,-2.174999999999356781e+00,-4.945000000003106244e+00,1.339723249233633062e+01,-2.172934691862329348e+00
1.999999999999654321e+01,3.000000000749387663e+00,1.000000000005475442e+01,6.599999999998784617e-01,1.570000000000694174e+00,2.869999999999967713e+03,-2.174999999999267519e+00,-4.945000000003620499e+00,1.340718647458274937e+01,-2.161813840129962916e+00
1.999999999999573674e+01,3.000000001034382358e+00,1.000000000001448441e+01,6.599999999999219824e-01,1.570000000000674856e+00,2.869999999999958618e+03,-2.174999999999315037e+00,-4.945000000003576091e+00,1.345004939048980397e+01,-2.142936216120382209e+00
2.000000000000022027e+01,2.999999999872625001e+00,1.000000000002399325e+01,6.599999999999734968e-01,1.570000000000008722e+00,2.870000000000000000e+03,-2.174999999999961187e+00,-4.945000000000145945e+00,1.344177275311368192e+01,-2.102514105924741639e+00
1.999999999999889866e+01,3.000000000978957360e+00,9.999999999988798294e+00,6.599999999999787148e-01,1.570000000000174811e+00,2.869999999999969987e+03,-2.174999999999751576e+00,-4.945000000000532303e+00,1.336984968308444621e+01,-2.218910865044124936e+00
1.999999999999755573e+01,3.000000000677718326e+00,9.999999999992338573e+00,6.599999999999364153e-01,1.570000000000379758e+00,2.869999999999962256e+03,-2.174999999999493561e+00,-4.945000000001873453e+00,1.342441138138452672e+01,-2.196963964115404622e+00
1.999999999999842615e+01,3.000000000173288051e+00,9.999999999980110132e+00,6.599999999999310862e-01,1.570000000000291829e+00,2.869999999999967258e+03,-2.174999999999605027e+00,-4.945000000001393836e+00,1.341503493333004471e+01,-2.190561522468053024e+00
1.999999999999936406e+01,3.000000001679546280e+00,9.999999999994816591e+00,6.599999999999766054e-01,1.570000000000024931e+00,2.869999999999972715e+03,-2.174999999999884359e+00,-4.945000000000023377e+00,1.341708206575986750e+01,-2.191829966296611865e+00
1.999999999999911893e+01,3.000000001293314789e+00,1.000000000002101785e+01,6.599999999999487388e-01,1.570000000000095097e+00,2.869999999999959982e+03,-2.174999999999789768e+00,-4.945000000000627338e+00,1.338566869607650567e+01,-2.191346271921040589e+00
1.999999999999851852e+01,3.000000001571309305e+00,1.000000000000353140e+01,6.599999999999350830e-01,1.570000000000260965e+00,2.869999999999966803e+03,-2.174999999999593481e+00,-4.945000000001452456e+00,1.341637906551562942e+01,-2.183192504275206058e+00
1.999999999999877076e+01,2.999999999594673117e+00,1.000000000000159694e+01,6.599999999999486278e-01,1.570000000000203455e+00,2.869999999999979536e+03,-2.174999999999725375e+00,-4.945000000001233076e+00,1.343804701038530425e+01,-2.137788857725040792e+00
1.999999999999709743e+01,3.000000001036079667e+00,9.999999999991494803e+00,6.599999999999769384e-01,1.570000000000356666e+00,2.869999999999965439e+03,-2.174999999999577494e+00,-4.945000000002077734e+00,1.346731771556369139e+01,-2.132121531555270622e+00
2.000000000000002487e+01,2.999999999490036373e+00,9.999999999991109334e+00,6.599999999999033307e-01,1.570000000000156160e+00,2.869999999999982720e+03,-2.174999999999825739e+00,-4.945000000000504770e+00,1.342683934896893660e+01,-2.131132111241621274e+00
1.999999999999943157e+01,3.000000000794354804e+00,9.999999999998179234e+00,6.599999999999002220e-01,1.570000000000238982e+00,2.869999999999975444e+03,-2.174999999999684519e+00,-4.945000000001078533e+00,1.344837347080411583e+01,-2.123291637445102964e+00
1.999999999999709743e+01,2.999999999174394194e+00,9.999999999978484766e+00,6.600000000000139089e-01,1.570000000000324691e+00,2.869999999999976808e+03,-2.174999999999542410e+00,-4.945000000001908980e+00,1.342434411066084898e+01,-2.165597356554924691e+00
1.999999999999749889e+01,3.000000000239675835e+00,9.999999999964789055e+00,6.600000000000206812e-01,1.570000000000252305e+00,2.869999999999974989e+03,-2.174999999999615241e+00,-4.945000000001500418e+00,1.340271680497077966e+01,-2.202339079964040991e+00
1.999999999999955591e+01,2.999999999213433188e+00,9.999999999975266007e+00,6.599999999999869305e-01,1.569999999999945661e+00,2.869999999999986358e+03,-2.174999999999991385e+00,-4.944999999999926565e+00,1.341617048190448003e+01,-2.198041987474222747e+00
1.999999999999867129e+01,2.999999999130645190e+00,9.999999999969153563e+00,6.599999999999783817e-01,1.570000000000056462e+00,2.869999999999978172e+03,-2.174999999999869704e+00,-4.945000000000464802e+00,1.342768907119119959e+01,-2.185472165805094846e+00
1.999999999999954881e+01,3.000000001091752910e+00,1.000000000001896261e+01,6.599999999999571765e-01,1.570000000000138174e+00,2.869999999999981810e+03,-2.174999999999916778e+00,-4.945000000000453255e+00,1.341868954683663340e+01,-2.153208187975485632e+00
1.999999999999914024e+01,3.000000002413031108e+00,1.000000000003454304e+01,6.599999999999258682e-01,1.570000000000254525e+00,2.869999999999980446e+03,-2.174999999999753797e+00,-4.945000000001158469e+00,1.340960532869495303e+01,-2.152015997394758795e+00
1.999999999999886668e+01,3.000000001446643250e+00,1.000000000003734613e+01,6.599999999999457412e-01,1.570000000000298712e+00,2.869999999999986358e+03,-2.174999999999739142e+00,-4.945000000001356533e+00,1.340222732341712941e+01,-2.139127337475655644e+00
1.999999999999587175e+01,3.000000000282121437e+00,9.999999999944369833e+00,6.599999999999678346e-01,1.570000000000477458e+00,2.869999999999973170e+03,-2.174999999999469136e+00,-4.945000000002901075e+00,1.344058469567478475e+01,-2.150908651900257595e+00
1.999999999999933564e+01,2.999999999881928225e+00,9.999999999980733634e+00,6.599999999999615063e-01,1.570000000000203455e+00,2.869999999999993179e+03,-2.174999999999833733e+00,-4.945000000000979057e+00,1.342478249548561564e+01,-2.165798295656201411e+00
1.999999999999644018e+01,3.000000001981664610e+00,1.000000000002610712e+01,6.599999999999595079e-01,1.570000000000580265e+00,2.869999999999984993e+03,-2.174999999999430056e+00,-4.945000000003173746e+00,1.342502287639785585e+01,-2.121574864401088334e+00
1.999999999999943867e+01,3.000000001892030532e+00,1.000000000001800871e+01,6.599999999999660583e-01,1.570000000000066231e+00,2.869999999999993634e+03,-2.174999999999887024e+00,-4.945000000000662865e+00,1.335163213690376693e+01,-2.177390572332613683e+00
1.999999999999968736e+01,3.000000001475942923e+00,1.000000000001847589e+01,6.599999999999713873e-01,1.570000000000052465e+00,2.869999999999994543e+03,-2.174999999999908784e+00,-4.945000000000544738e+00,1.335179340828954686e+01,-2.174924682374204554e+00
1.999999999999990408e+01,3.000000001157999030e+00,1.000000000000462919e+01,6.599999999999710543e-01,1.569999999999982521e+00,2.869999999999995907e+03,-2.174999999999957190e+00,-4.945000000000274731e+00,1.336162310798046349e+01,-2.181085812065129304e+00
1.999999999999845812e+01,3.000000002278099487e+00,1.000000000001027622e+01,6.599999999999516254e-01,1.570000000000184137e+00,2.869999999999984539e+03,-2.174999999999753353e+00,-4.945000000001244622e+00,1.338230754224796470e+01,-2.155103497949172553e+00
1.999999999999900524e+01,3.000000001037357311e+00,1.000000000001261924e+01,6.599999999999535127e-01,1.570000000000193907e+00,2.869999999999991360e+03,-2.174999999999769784e+00,-4.945000000001181562e+00,1.336404313784306019e+01,-2.164877309479126488e+00
1.999999999999847944e+01,3.000000002500893270e+00,1.000000000000589928e+01,6.599999999999788258e-01,1.570000000000115969e+00,2.869999999999989541e+03,-2.174999999999829292e+00,-4.945000000000856488e+00,1.339558954802946822e+01,-2.132778252737724589e+00
1.999999999999209876e+01,3.000000000921402954e+00,9.999999999986226129e+00,6.599999999999832667e-01,1.570000000000923768e+00,2.869999999999965894e+03,-2.174999999999035705e+00,-4.945000000005275176e+00,1.340288892746117533e+01,-2.137159561787949968e+00
1.999999999999291589e+01,3.000000001600746646e+00,1.000000000000051159e+01,6.599999999999818234e-01,1.570000000000876472e+00,2.869999999999966803e+03,-2.174999999999101430e+00,-4.945000000004842633e+00,1.338459157517645259e+01,-2.140059936659292728e+00
1.999999999999441513e+01,2.999999999972534415e+00,1.000000000001197265e+01,6.599999999999682787e-01,1.570000000000724372e+00,2.869999999999975898e+03,-2.174999999999274181e+00,-4.945000000003915375e+00,1.337351066893383589e+01,-2.144498985357898846e+00
1.999999999999437250e+01,2.999999999212205726e+00,1.000000000001873701e+01,6.599999999999718314e-01,1.570000000000751239e+00,2.869999999999978627e+03,-2.174999999999246647e+00,-4.945000000004013074e+00,1.337900295385372296e+01,-2.137113974380137282e+00
1.999999999999492672e+01,2.999999999984930721e+00,1.000000000001616307e+01,6.599999999999729416e-01,1.570000000000676632e+00,2.869999999999982265e+03,-2.174999999999311484e+00,-4.945000000003640039e+00,1.337579000991101275e+01,-2.148320560645558874e+00
1.999999999999428013e+01,2.999999999694777042e+00,9.999999999994386712e+00,6.599999999999763833e-01,1.570000000000695506e+00,2.869999999999970441e+03,-2.174999999999251532e+00,-4.945000000003822116e+00,1.339012708468266410e+01,-2.161498810628940337e+00
1.999999999999338485e+01,3.000000000247306176e+00,1.000000000000811085e+01,6.599999999999722755e-01,1.570000000000883134e+00,2.869999999999968168e+03,-2.174999999999140954e+00,-4.945000000004935892e+00,1.339402149597820824e+01,-2.125223765126636799e+00
1.999999999999295852e+01,3.000000000437808900e+00,1.000000000001004352e+01,6.599999999999607292e-01,1.570000000000908891e+00,2.869999999999969077e+03,-2.174999999999088995e+00,-4.945000000005069118e+00,1.340501768413114370e+01,-2.124097103284770416e+00
1.999999999999391420e+01,3.000000000284002599e+00,1.000000000000934186e+01,6.599999999999635047e-01,1.570000000000835838e+00,2.869999999999970896e+03,-2.174999999999146283e+00,-4.945000000004585061e+00,1.337863502276273131e+01,-2.143748252003183197e+00
1.999999999999899458e+01,2.999999998564010006e+00,9.999999999987553068e+00,6.599999999999630607e-01,1.570000000000134177e+00,2.869999999999970896e+03,-2.174999999999791100e+00,-4.945000000000590923e+00,1.341434850685201319e+01,-2.180842048077323625e+00
1.999999999999755573e+01,3.000000000306339398e+00,9.999999999993962163e+00,6.599999999999635047e-01,1.570000000000311813e+00,2.869999999999968168e+03,-2.174999999999600142e+00,-4.945000000001552820e+00,1.340189783084099240e+01,-2.178518499617128512e+00
1.999999999999787903e+01,2.999999997707509358e+00,9.999999999978044229e+00,6.599999999999716094e-01,1.570000000000273621e+00,2.869999999999993634e+03,-2.174999999999634337e+00,-4.945000000001519069e+00,1.343231572244941674e+01,-2.139891978269886419e+00
1.999999999999566569e+01,3.000000002391748577e+00,9.999999999967307929e+00,6.600000000000010303e-01,1.570000000000484119e+00,2.869999999999984539e+03,-2.174999999999417621e+00,-4.945000000002601759e+00,1.344114084915025664e+01,-2.144457699461302269e+00
1.999999999999658584e+01,3.000000000851755999e+00,9.999999999944227724e+00,6.599999999999786038e-01,1.570000000000334683e+00,2.869999999999979082e+03,-2.174999999999560174e+00,-4.945000000001771312e+00,1.341028601498438277e+01,-2.175561421169702303e+00
1.999999999999624833e+01,3.000000001473686062e+00,9.999999999961969976e+00,6.599999999999601741e-01,1.570000000000496332e+00,2.869999999999973170e+03,-2.174999999999431832e+00,-4.945000000002495177e+00,1.339382187695735560e+01,-2.179867295431672236e+00
1.999999999999615952e+01,2.999999999877231982e+00,1.000000000002482636e+01,6.599999999999719424e-01,1.570000000000436158e+00,2.869999999999966803e+03,-2.174999999999516209e+00,-4.945000000002465868e+00,1.342440490142858778e+01,-2.129699954726604894e+00
1.999999999999592148e+01,3.000000001121122750e+00,1.000000000000380851e+01,6.599999999999569544e-01,1.570000000000498330e+00,2.869999999999961346e+03,-2.174999999999382094e+00,-4.945000000002730545e+00,1.343829088625968993e+01,-2.161244289991806511e+00
1.999999999999672085e+01,3.000000001899969071e+00,1.000000000001763212e+01,6.599999999999384137e-01,1.570000000000436380e+00,2.869999999999955435e+03,-2.174999999999569500e+00,-4.945000000002140794e+00,1.339981673382688143e+01,-2.156742224989589563e+00
1.999999999999687006e+01,2.999999999150193553e+00,1.000000000004668976e+01,6.599999999999630607e-01,1.570000000000451257e+00,2.869999999999966803e+03,-2.174999999999524203e+00,-4.945000000002237606e+00,1.338207276529372969e+01,-2.152048289977621653e+00
1.999999999999646150e+01,3.000000002128739851e+00,9.999999999989288568e+00,6.599999999999515143e-01,1.570000000000480123e+00,2.869999999999976353e+03,-2.174999999999489564e+00,-4.945000000002929497e+00,1.345759280052146600e+01,-2.156482825664903125e+00
