1.999999999999773692e+01,2.999999999003327034e+00,9.999999999990988542e+00,6.600000000000912914e-01,1.570000000000223439e+00,2.869999999999994088e+03,-2.174999999999782663e+00,-4.945000000001118501e+00,1.341734610153071472e+01,-2.121911400864052055e+00
1.999999999999777600e+01,2.999999998986604410e+00,1.000000000002139089e+01,6.599999999999105471e-01,1.570000000000270513e+00,2.870000000000004093e+03,-2.174999999999784883e+00,-4.945000000001319229e+00,1.341378333602101769e+01,-2.124200503174611399e+00
1.999999999999896616e+01,2.999999999136436557e+00,1.000000000002953371e+01,6.599999999999609512e-01,1.570000000000199902e+00,2.869999999999998636e+03,-2.174999999999873701e+00,-4.945000000000642437e+00,1.341338074943739400e+01,-2.121579569706343982e+00
1.999999999999813838e+01,3.000000000169404046e+00,9.999999999992825295e+00,6.600000000000484368e-01,1.570000000000222773e+00,2.869999999999991815e+03,-2.174999999999755573e+00,-4.945000000001442686e+00,1.341458877331214872e+01,-2.133893863591016071e+00
1.999999999999648281e+01,3.000000001734459687e+00,9.999999999985837107e+00,6.600000000000079137e-01,1.570000000000381979e+00,2.869999999999975898e+03,-2.174999999999617906e+00,-4.945000000002254481e+00,1.340495308814952402e+01,-2.140018856420904836e+00
2.000000000000076739e+01,2.999999999499173953e+00,1.000000000003327294e+01,6.600000000000051381e-01,1.570000000000059792e+00,2.869999999999988177e+03,-2.174999999999867040e+00,-4.945000000000504770e+00,1.342519350136284473e+01,-2.127789619140445065e+00
1.999999999999669242e+01,2.999999998777945098e+00,9.999999999974539477e+00,6.600000000000575406e-01,1.570000000000205898e+00,2.869999999999984084e+03,-2.174999999999724487e+00,-4.945000000001395613e+00,1.340827187941379250e+01,-2.138505118351758494e+00
1.999999999999752376e+01,2.999999998693604120e+00,9.999999999983510079e+00,6.600000000000353362e-01,1.570000000000173257e+00,2.869999999999997272e+03,-2.174999999999782663e+00,-4.945000000001051887e+00,1.341713796005729620e+01,-2.137218001362944264e+00
2.000000000000021672e+01,2.999999999532652506e+00,1.000000000002251888e+01,6.599999999999461853e-01,1.570000000000099538e+00,2.869999999999996362e+03,-2.174999999999950084e+00,-4.945000000000717932e+00,1.341126898881289620e+01,-2.138434973396421412e+00
2.000000000000022382e+01,2.999999998129384338e+00,1.000000000001477041e+01,6.599999999999481837e-01,1.570000000000047802e+00,2.869999999999985903e+03,-2.174999999999991829e+00,-4.945000000000533191e+00,1.342604789219353201e+01,-2.146916922886015211e+00
1.999999999999661071e+01,2.999999998389550893e+00,9.999999999992748911e+00,6.600000000000187939e-01,1.570000000000350671e+00,2.869999999999964075e+03,-2.174999999999597033e+00,-4.945000000002335305e+00,1.342784770742645684e+01,-2.136891525749251564e+00
1.999999999999711164e+01,2.999999997067244184e+00,9.999999999985035970e+00,6.600000000000889600e-01,1.570000000000230989e+00,2.869999999999971351e+03,-2.174999999999717826e+00,-4.945000000001761542e+00,1.342725485830689536e+01,-2.137054640589508558e+00
2.000000000000089884e+01,3.000000000428928892e+00,1.000000000001924860e+01,6.599999999999482947e-01,1.570000000000094875e+00,2.870000000000006821e+03,-2.174999999999965183e+00,-4.945000000000458584e+00,1.341950352327511098e+01,-2.126598328129876148e+00
1.999999999999797495e+01,2.999999998540735735e+00,1.000000000000819966e+01,6.599999999999363043e-01,1.570000000000338014e+00,2.869999999999982720e+03,-2.174999999999719602e+00,-4.945000000001718021e+00,1.341965553485561458e+01,-2.136260423606644920e+00
1.999999999999901590e+01,2.999999998627056019e+00,1.000000000001042544e+01,6.600000000000861844e-01,1.570000000000113971e+00,2.869999999999986358e+03,-2.174999999999930100e+00,-4.945000000001093632e+00,1.340967197548972756e+01,-2.121135695925632447e+00
1.999999999999635847e+01,2.999999998970323656e+00,9.999999999980639487e+00,6.600000000000114664e-01,1.570000000000371765e+00,2.869999999999981810e+03,-2.174999999999726708e+00,-4.945000000002035101e+00,1.341220968728786822e+01,-2.120446069042348114e+00
1.999999999999931433e+01,2.999999999815393448e+00,1.000000000004067680e+01,6.600000000000240119e-01,1.570000000000130846e+00,2.869999999999969532e+03,-2.174999999999899458e+00,-4.945000000000966622e+00,1.341975679475969052e+01,-2.141760979718642766e+00
2.000000000000081712e+01,2.999999999461301137e+00,1.000000000005652012e+01,6.600000000000449951e-01,1.570000000000020490e+00,2.869999999999982265e+03,-2.175000000000012701e+00,-4.945000000000209006e+00,1.341327601076761411e+01,-2.140587324708481898e+00
1.999999999999709388e+01,3.000000000206663575e+00,1.000000000000115996e+01,6.599999999999415223e-01,1.570000000000275175e+00,2.869999999999981810e+03,-2.174999999999764455e+00,-4.945000000001530616e+00,1.341387563749622025e+01,-2.151930639528673250e+00
1.999999999999752021e+01,2.999999999122506811e+00,1.000000000000414424e+01,6.599999999999425215e-01,1.570000000000195461e+00,2.869999999999977263e+03,-2.174999999999791545e+00,-4.945000000001182450e+00,1.341255346882305410e+01,-2.163313814611629748e+00
1.999999999999722888e+01,2.999999998878034813e+00,1.000000000000573763e+01,6.600000000000020295e-01,1.570000000000317586e+00,2.869999999999970896e+03,-2.174999999999638778e+00,-4.945000000001717133e+00,1.339790471280548800e+01,-2.141884239572210191e+00
1.999999999999859668e+01,2.999999998706040838e+00,1.000000000001477218e+01,6.599999999999182076e-01,1.570000000000364659e+00,2.869999999999985448e+03,-2.174999999999671640e+00,-4.945000000001710028e+00,1.340706494697134765e+01,-2.139740875589951852e+00
1.999999999999813483e+01,2.999999998389378586e+00,1.000000000003113598e+01,6.600000000000163514e-01,1.570000000000230544e+00,2.869999999999993179e+03,-2.174999999999705391e+00,-4.945000000001668283e+00,1.337459214689721421e+01,-2.162776486653094743e+00
1.999999999999730704e+01,2.999999997936203755e+00,1.000000000000876987e+01,6.600000000000133538e-01,1.570000000000262519e+00,2.869999999999980446e+03,-2.174999999999714717e+00,-4.945000000001824603e+00,1.342633803048883401e+01,-2.135129893449846605e+00
2.000000000000108002e+01,2.999999998001839696e+00,1.000000000002219558e+01,6.600000000000773026e-01,1.569999999999996509e+00,2.869999999999986812e+03,-2.174999999999974953e+00,-4.945000000000240092e+00,1.341173858599218960e+01,-2.152198993800493287e+00
2.000000000000073541e+01,2.999999997704026811e+00,1.000000000000999556e+01,6.600000000000247891e-01,1.570000000000062235e+00,2.869999999999985448e+03,-2.174999999999956302e+00,-4.945000000000427498e+00,1.340925352682207539e+01,-2.152043110862777553e+00
1.999999999999766231e+01,3.000000000851848814e+00,1.000000000000960121e+01,6.600000000000068034e-01,1.570000000000348228e+00,2.869999999999986812e+03,-2.174999999999586375e+00,-4.945000000001877893e+00,1.338733726626855258e+01,-2.148336612019124292e+00
1.999999999999607425e+01,2.999999999650790450e+00,1.000000000001792522e+01,6.600000000001062794e-01,1.570000000000443707e+00,2.869999999999986358e+03,-2.174999999999499778e+00,-4.945000000002681695e+00,1.340522112295547252e+01,-2.136026310402823647e+00
2.000000000000214584e+01,2.999999997439296795e+00,1.000000000002696865e+01,6.599999999999416334e-01,1.570000000000022489e+00,2.870000000000000455e+03,-2.175000000000017142e+00,-4.944999999999906137e+00,1.339378224034733478e+01,-2.145777833183357686e+00
1.999999999999965183e+01,2.999999999608714774e+00,1.000000000000897593e+01,6.600000000000706413e-01,1.570000000000092877e+00,2.869999999999989996e+03,-2.174999999999925215e+00,-4.945000000000506546e+00,1.340258110553208937e+01,-2.131664881564663272e+00
2.000000000000294165e+01,2.999999998061953388e+00,1.000000000004909850e+01,6.599999999999588418e-01,1.569999999999942775e+00,2.870000000000005912e+03,-2.175000000000017586e+00,-4.944999999999818208e+00,1.339911712300354907e+01,-2.155615001326804059e+00
2.000000000000149214e+01,2.999999999097192838e+00,1.000000000003137401e+01,6.599999999999518474e-01,1.570000000000036922e+00,2.870000000000002274e+03,-2.174999999999920330e+00,-4.945000000000382201e+00,1.340492404773750224e+01,-2.155690186166568711e+00
1.999999999999788614e+01,3.000000000378602927e+00,1.000000000001085176e+01,6.599999999999023315e-01,1.570000000000477458e+00,2.869999999999974079e+03,-2.174999999999525979e+00,-4.945000000002798046e+00,1.339083727883749297e+01,-2.142605928135685289e+00
1.999999999999688427e+01,3.000000000928605193e+00,9.999999999986746602e+00,6.599999999999812683e-01,1.570000000000353335e+00,2.869999999999966349e+03,-2.174999999999642331e+00,-4.945000000001876117e+00,1.342916086672022757e+01,-2.132029707089285964e+00
2.000000000000103384e+01,2.999999999313599286e+00,1.000000000002364864e+01,6.599999999999471845e-01,1.569999999999940554e+00,2.869999999999995453e+03,-2.175000000000134825e+00,-4.944999999999395435e+00,1.339552167887346457e+01,-2.154112644090150130e+00
2.000000000000096279e+01,2.999999999413407448e+00,1.000000000004040146e+01,6.600000000000584288e-01,1.570000000000105755e+00,2.869999999999990905e+03,-2.174999999999929656e+00,-4.945000000000360885e+00,1.340386691774208927e+01,-2.140166236942285138e+00
1.999999999999916866e+01,3.000000001093407587e+00,9.999999999994312105e+00,6.600000000000224576e-01,1.570000000000133955e+00,2.869999999999986812e+03,-2.174999999999938094e+00,-4.945000000000662865e+00,1.339895459285934542e+01,-2.152836833366658986e+00
1.999999999999928235e+01,3.000000000407324841e+00,9.999999999990453858e+00,6.600000000000385558e-01,1.570000000000119522e+00,2.869999999999989086e+03,-2.174999999999943867e+00,-4.945000000000558060e+00,1.341261921901598342e+01,-2.145418335181966896e+00
1.999999999999932498e+01,3.000000000510996578e+00,1.000000000001971578e+01,6.600000000000290079e-01,1.570000000000124629e+00,2.869999999999992724e+03,-2.174999999999856382e+00,-4.945000000000798757e+00,1.341106177856221748e+01,-2.129859767655845726e+00
1.999999999999927880e+01,2.999999998738914986e+00,1.000000000002518163e+01,6.600000000000091349e-01,1.570000000000103757e+00,2.869999999999999091e+03,-2.174999999999868372e+00,-4.945000000000496776e+00,1.342075418231973316e+01,-2.134516459714687731e+00
1.999999999999791811e+01,2.999999999681080443e+00,1.000000000000549605e+01,6.599999999999178746e-01,1.570000000000408402e+00,2.869999999999971351e+03,-2.174999999999572609e+00,-4.945000000002274909e+00,1.340550105618133436e+01,-2.140392495265103001e+00
2.000000000000066080e+01,3.000000000247079246e+00,1.000000000008140155e+01,6.599999999999598410e-01,1.570000000000202345e+00,2.869999999999994998e+03,-2.174999999999773337e+00,-4.945000000000551843e+00,1.337903710922626210e+01,-2.148484005111778838e+00
1.999999999999700862e+01,3.000000002547619449e+00,1.000000000003685763e+01,6.600000000000025846e-01,1.570000000000317364e+00,2.869999999999965439e+03,-2.174999999999592593e+00,-4.945000000001840590e+00,1.342413845632708735e+01,-2.133669831886877422e+00
1.999999999999826628e+01,3.000000000224898322e+00,1.000000000002261125e+01,6.600000000000185718e-01,1.570000000000156604e+00,2.869999999999970896e+03,-2.174999999999875921e+00,-4.945000000000893792e+00,1.341619084766262127e+01,-2.140671673477258175e+00
1.999999999999976197e+01,3.000000000792474530e+00,1.000000000003710277e+01,6.599999999999569544e-01,1.570000000000137730e+00,2.869999999999971806e+03,-2.174999999999906120e+00,-4.945000000000488782e+00,1.341471188501787104e+01,-2.137976298253245311e+00
1.999999999999884537e+01,3.000000001239653269e+00,1.000000000001898215e+01,6.599999999999576206e-01,1.570000000000173701e+00,2.869999999999992269e+03,-2.174999999999915445e+00,-4.945000000000925766e+00,1.342565163077838264e+01,-2.121410973056735205e+00
1.999999999999888445e+01,3.000000000502631714e+00,1.000000000001132783e+01,6.600000000000397771e-01,1.570000000000102869e+00,2.869999999999997726e+03,-2.174999999999997602e+00,-4.945000000000572271e+00,1.341501128625425920e+01,-2.125580031638230061e+00
1.999999999999991473e+01,3.000000000027287061e+00,1.000000000003941203e+01,6.599999999999572875e-01,1.570000000000157270e+00,2.869999999999994088e+03,-2.174999999999836842e+00,-4.945000000000685070e+00,1.340546674152403739e+01,-2.132114800571684565e+00
1.999999999999731770e+01,3.000000001447240994e+00,1.000000000000553335e+01,6.599999999999711653e-01,1.570000000000274287e+00,2.870000000000003638e+03,-2.174999999999788436e+00,-4.945000000001575025e+00,1.341787752013586932e+01,-2.113095814052067922e+00
1.999999999999793232e+01,3.000000001249193637e+00,1.000000000003045386e+01,6.599999999999368594e-01,1.570000000000406182e+00,2.869999999999967258e+03,-2.174999999999567724e+00,-4.945000000001820162e+00,1.339973986326332600e+01,-2.138188526902871534e+00
2.000000000000001066e+01,3.000000001686182749e+00,1.000000000000155076e+01,6.600000000000907363e-01,1.569999999999990514e+00,2.870000000000000455e+03,-2.175000000000086864e+00,-4.944999999999957652e+00,1.339571003137564098e+01,-2.133090982256825363e+00
1.999999999999976552e+01,3.000000001289934826e+00,1.000000000002914469e+01,6.599999999999611733e-01,1.570000000000105089e+00,2.869999999999980446e+03,-2.174999999999861711e+00,-4.945000000000423945e+00,1.341262012576828155e+01,-2.154959875504194766e+00
1.999999999999977973e+01,3.000000000412450518e+00,1.000000000003299228e+01,6.599999999999506262e-01,1.570000000000112195e+00,2.869999999999987267e+03,-2.174999999999887024e+00,-4.945000000000508322e+00,1.341049219770587442e+01,-2.148871210144546851e+00
2.000000000000023803e+01,2.999999999162092923e+00,1.000000000000820144e+01,6.600000000000242339e-01,1.570000000000085105e+00,2.869999999999990905e+03,-2.174999999999912337e+00,-4.945000000000823626e+00,1.340381168515962251e+01,-2.155205052243369668e+00
2.000000000000083844e+01,2.999999998844069093e+00,1.000000000000207834e+01,6.600000000000502132e-01,1.570000000000004947e+00,2.869999999999980901e+03,-2.174999999999982059e+00,-4.945000000000423945e+00,1.339561400077512943e+01,-2.155697048465197163e+00
1.999999999999744205e+01,3.000000001079499601e+00,9.999999999991768362e+00,6.599999999999318634e-01,1.570000000000422613e+00,2.869999999999954980e+03,-2.174999999999524203e+00,-4.945000000002138130e+00,1.341198223118330901e+01,-2.151101020489353033e+00
1.999999999999971223e+01,2.999999998543063651e+00,1.000000000004135181e+01,6.599999999999000000e-01,1.570000000000061346e+00,2.870000000000000909e+03,-2.174999999999948752e+00,-4.945000000000206342e+00,1.340551886925072189e+01,-2.141829325542287776e+00
1.999999999999898392e+01,2.999999997506664684e+00,1.000000000002155787e+01,6.599999999999001110e-01,1.570000000000137730e+00,2.870000000000000000e+03,-2.174999999999907896e+00,-4.945000000000769447e+00,1.340022327519301726e+01,-2.133472552051508320e+00
1.999999999999975486e+01,2.999999999726048472e+00,1.000000000002809486e+01,6.599999999999878186e-01,1.570000000000035145e+00,2.870000000000007731e+03,-2.175000000000043787e+00,-4.945000000000300489e+00,1.339715487374805925e+01,-2.125841653822480470e+00
1.999999999999609201e+01,2.999999999486087976e+00,1.000000000001777778e+01,6.599999999998417133e-01,1.570000000000641771e+00,2.870000000000003638e+03,-2.174999999999501998e+00,-4.945000000003237695e+00,1.338424846666167412e+01,-2.140758309860933295e+00
1.999999999999877787e+01,2.999999998492119957e+00,1.000000000002392575e+01,6.600000000000099121e-01,1.570000000000302265e+00,2.869999999999996362e+03,-2.174999999999731592e+00,-4.945000000001662066e+00,1.338629541332299944e+01,-2.148910572202270775e+00
2.000000000000246203e+01,3.000000001868431188e+00,1.000000000002241940e+01,6.599999999999942579e-01,1.569999999999907692e+00,2.869999999999980446e+03,-2.175000000000124167e+00,-4.944999999999539320e+00,1.340650412313791229e+01,-2.136650139835801099e+00
1.999999999999886668e+01,3.000000002987960102e+00,1.000000000004520473e+01,6.599999999998780176e-01,1.570000000000372875e+00,2.869999999999970896e+03,-2.174999999999688516e+00,-4.945000000001407159e+00,1.338967257797006205e+01,-2.125784003466070882e+00
1.999999999999699085e+01,2.999999998992354033e+00,9.999999999982838617e+00,6.599999999999630607e-01,1.570000000000304707e+00,2.869999999999967713e+03,-2.174999999999713385e+00,-4.945000000001525287e+00,1.342580767276726306e+01,-2.130946910382259585e+00
2.000000000000118305e+01,2.999999999762273273e+00,1.000000000004621548e+01,6.599999999999868194e-01,1.570000000000039586e+00,2.869999999999991360e+03,-2.174999999999940758e+00,-4.944999999999820872e+00,1.341283513820911821e+01,-2.136650511856331924e+00
1.999999999999951683e+01,2.999999997050216916e+00,1.000000000002784795e+01,6.599999999999706102e-01,1.570000000000208784e+00,2.869999999999984993e+03,-2.174999999999721378e+00,-4.945000000001206431e+00,1.342023762784091012e+01,-2.161355710867810309e+00
2.000000000000046541e+01,2.999999997401653573e+00,1.000000000004040857e+01,6.599999999999457412e-01,1.570000000000180362e+00,2.869999999999995453e+03,-2.174999999999770228e+00,-4.945000000000919549e+00,1.341226845822110647e+01,-2.152631112991820306e+00
1.999999999999829114e+01,3.000000000606725781e+00,1.000000000003491074e+01,6.599999999999773825e-01,1.570000000000399965e+00,2.869999999999992724e+03,-2.174999999999647216e+00,-4.945000000002072404e+00,1.338985416820510466e+01,-2.131679481861052938e+00
1.999999999999835154e+01,2.999999998494278675e+00,9.999999999993365307e+00,6.599999999999470734e-01,1.570000000000347562e+00,2.869999999999984993e+03,-2.174999999999700506e+00,-4.945000000002010232e+00,1.341447057577877189e+01,-2.120857372222912485e+00
1.999999999999671729e+01,3.000000001494382396e+00,9.999999999993955058e+00,6.599999999999800471e-01,1.570000000000579155e+00,2.869999999999951797e+03,-2.174999999999422950e+00,-4.945000000002832685e+00,1.340090381543461717e+01,-2.133185561779019412e+00
2.000000000000000711e+01,2.999999998072541807e+00,9.999999999994772182e+00,6.600000000000534328e-01,1.570000000000084439e+00,2.869999999999973170e+03,-2.174999999999948752e+00,-4.945000000000506546e+00,1.341151641204296574e+01,-2.138239565761486549e+00
1.999999999999981171e+01,2.999999998289865299e+00,1.000000000006420109e+01,6.600000000000302292e-01,1.570000000000154605e+00,2.869999999999997726e+03,-2.174999999999754685e+00,-4.945000000000661089e+00,1.339913550083900518e+01,-2.152403709762363615e+00
1.999999999999884182e+01,2.999999998871351714e+00,1.000000000004003731e+01,6.600000000000331157e-01,1.570000000000201013e+00,2.869999999999993634e+03,-2.174999999999711164e+00,-4.945000000001060769e+00,1.341339586125007344e+01,-2.147861685448534619e+00
2.000000000000131806e+01,2.999999998642510324e+00,1.000000000006222045e+01,6.599999999999744960e-01,1.570000000000053131e+00,2.869999999999999091e+03,-2.174999999999910560e+00,-4.945000000000199236e+00,1.340089935082714767e+01,-2.130944726105444609e+00
2.000000000000043698e+01,2.999999995791790219e+00,1.000000000001925571e+01,6.600000000001031708e-01,1.570000000000017160e+00,2.870000000000000909e+03,-2.174999999999926548e+00,-4.945000000000026930e+00,1.342101429974989557e+01,-2.139647506613716832e+00
2.000000000000052580e+01,2.999999997437001742e+00,1.000000000002371081e+01,6.600000000000053602e-01,1.570000000000069562e+00,2.869999999999994543e+03,-2.174999999999902123e+00,-4.945000000000050022e+00,1.342887981003825537e+01,-2.145048986337938057e+00
1.999999999999690914e+01,3.000000000678012313e+00,9.999999999989004351e+00,6.599999999999511813e-01,1.570000000000393969e+00,2.869999999999960437e+03,-2.174999999999635225e+00,-4.945000000001918750e+00,1.342897325041040801e+01,-2.154262386204922386e+00
1.999999999999747402e+01,2.999999999729665578e+00,9.999999999977843501e+00,6.599999999999700551e-01,1.570000000000276508e+00,2.869999999999970441e+03,-2.174999999999743583e+00,-4.945000000001345875e+00,1.342231557567296463e+01,-2.146482275756200320e+00
1.999999999999981171e+01,2.999999999828482977e+00,1.000000000001933387e+01,6.600000000000828537e-01,1.570000000000016493e+00,2.869999999999959527e+03,-2.174999999999974953e+00,-4.945000000000089990e+00,1.344203539923162793e+01,-2.126525312838952075e+00
1.999999999999981526e+01,3.000000000424349889e+00,1.000000000002613021e+01,6.600000000000006972e-01,1.570000000000106422e+00,2.869999999999958163e+03,-2.174999999999891465e+00,-4.945000000000338680e+00,1.343306266543905814e+01,-2.134915897880337088e+00
1.999999999999999289e+01,2.999999998136051893e+00,1.000000000000631672e+01,6.599999999998764633e-01,1.570000000000231655e+00,2.869999999999969987e+03,-2.174999999999765343e+00,-4.945000000001068763e+00,1.341904810842153317e+01,-2.160136558751503344e+00
1.999999999999858247e+01,2.999999998051984473e+00,9.999999999993086419e+00,6.599999999999739408e-01,1.570000000000215223e+00,2.869999999999967713e+03,-2.174999999999718270e+00,-4.945000000001441798e+00,1.341014472948891800e+01,-2.161430759994174888e+00
1.999999999999748113e+01,2.999999998600513695e+00,9.999999999990910382e+00,6.599999999999055511e-01,1.570000000000330687e+00,2.869999999999991360e+03,-2.174999999999720490e+00,-4.945000000001923190e+00,1.341471769459522534e+01,-2.145027431343906166e+00
1.999999999999878497e+01,2.999999998158118686e+00,9.999999999999090505e+00,6.599999999999025535e-01,1.570000000000218776e+00,2.869999999999993179e+03,-2.174999999999773337e+00,-4.945000000001439133e+00,1.341506750101204126e+01,-2.149789766561998494e+00
2.000000000000017408e+01,3.000000001367030933e+00,1.000000000002388489e+01,6.599999999999356382e-01,1.570000000000187912e+00,2.869999999999992724e+03,-2.174999999999895905e+00,-4.945000000000897344e+00,1.340352587045511257e+01,-2.134325013485022904e+00
1.999999999999602096e+01,2.999999997688656883e+00,9.999999999986524557e+00,6.600000000000434408e-01,1.570000000000428608e+00,2.869999999999967713e+03,-2.174999999999536637e+00,-4.945000000002621299e+00,1.341954060350500022e+01,-2.146249311951767602e+00
1.999999999999519673e+01,2.999999998421949421e+00,9.999999999972120079e+00,6.600000000000412204e-01,1.570000000000453255e+00,2.869999999999961346e+03,-2.174999999999517986e+00,-4.945000000002909957e+00,1.342640212904133357e+01,-2.146701367692962492e+00
1.999999999999457856e+01,3.000000001299037322e+00,9.999999999989418242e+00,6.599999999999451861e-01,1.570000000000608020e+00,2.869999999999964530e+03,-2.174999999999394529e+00,-4.945000000003214602e+00,1.342679913137156156e+01,-2.144735691832704738e+00
1.999999999999534595e+01,3.000000000177128090e+00,9.999999999993576694e+00,6.599999999999539568e-01,1.570000000000538742e+00,2.869999999999968622e+03,-2.174999999999454925e+00,-4.945000000002898410e+00,1.342560553988388605e+01,-2.148922947638004288e+00
1.999999999999653610e+01,3.000000001618347234e+00,9.999999999982335908e+00,6.599999999999486278e-01,1.570000000000518314e+00,2.869999999999966349e+03,-2.174999999999525091e+00,-4.945000000002459650e+00,1.341900105349788497e+01,-2.144901062691649152e+00
1.999999999999617728e+01,3.000000000592800475e+00,9.999999999987101873e+00,6.599999999999521805e-01,1.570000000000496554e+00,2.869999999999970896e+03,-2.174999999999519762e+00,-4.945000000002466756e+00,1.341786885393752371e+01,-2.148623946149966546e+00
1.999999999999582556e+01,3.000000000490225638e+00,9.999999999967611686e+00,6.600000000000152411e-01,1.570000000000361773e+00,2.869999999999972260e+03,-2.174999999999683631e+00,-4.945000000002093721e+00,1.340920560442520149e+01,-2.163433203855017251e+00
1.999999999999599254e+01,3.000000000225340635e+00,9.999999999974303222e+00,6.600000000000016964e-01,1.570000000000383755e+00,2.869999999999976353e+03,-2.174999999999658762e+00,-4.945000000002175433e+00,1.339770229959971637e+01,-2.164286664439347252e+00
2.000000000000130029e+01,3.000000001183876996e+00,1.000000000004491163e+01,6.599999999999817124e-01,1.570000000000016716e+00,2.870000000000010459e+03,-2.174999999999990052e+00,-4.945000000000127294e+00,1.339146501822642499e+01,-2.152922446304609938e+00
2.000000000000103384e+01,3.000000000270564016e+00,1.000000000003228351e+01,6.600000000000471045e-01,1.569999999999988738e+00,2.870000000000004547e+03,-2.175000000000049116e+00,-4.944999999999815543e+00,1.339798431361318620e+01,-2.129677346327219833e+00
1.999999999999711875e+01,3.000000000268890243e+00,1.000000000001567635e+01,6.600000000000439959e-01,1.570000000000303819e+00,2.869999999999994088e+03,-2.174999999999648548e+00,-4.945000000001913421e+00,1.339846734897155400e+01,-2.146810885299180072e+00
1.999999999999822720e+01,3.000000001787523018e+00,9.999999999979092280e+00,6.599999999999576206e-01,1.570000000000236096e+00,2.869999999999985903e+03,-2.174999999999835509e+00,-4.945000000001612328e+00,1.339590810266465404e+01,-2.151759711427084110e+00
1.999999999999581846e+01,2.999999998902581400e+00,1.000000000001674749e+01,6.600000000000254552e-01,1.570000000000484341e+00,2.869999999999998181e+03,-2.174999999999479794e+00,-4.945000000002565343e+00,1.340483409947789717e+01,-2.138187532532409119e+00
1.999999999999936762e+01,3.000000000482065055e+00,1.000000000001281286e+01,6.599999999999869305e-01,1.570000000000218332e+00,2.869999999999977263e+03,-2.174999999999803091e+00,-4.945000000000963958e+00,1.340410662146185672e+01,-2.139384146266430697e+00
1.999999999999921130e+01,3.000000000996445149e+00,1.000000000002117417e+01,6.600000000000886269e-01,1.570000000000117524e+00,2.869999999999982265e+03,-2.174999999999849276e+00,-4.945000000000809415e+00,1.341334338506315582e+01,-2.136519921920991827e+00
1.999999999999822009e+01,2.999999999162204389e+00,1.000000000002592948e+01,6.600000000000036948e-01,1.570000000000299600e+00,2.869999999999963165e+03,-2.174999999999661870e+00,-4.945000000001638085e+00,1.341123384562837373e+01,-2.142886481479826966e+00
1.999999999999820233e+01,2.999999999314868493e+00,1.000000000001368150e+01,6.600000000000326716e-01,1.570000000000282947e+00,2.869999999999958163e+03,-2.174999999999677858e+00,-4.945000000001674501e+00,1.341213362799684461e+01,-2.152494401400589563e+00
1.999999999999754152e+01,2.999999999593067290e+00,1.000000000000002309e+01,6.599999999999504041e-01,1.570000000000311369e+00,2.869999999999965894e+03,-2.174999999999652545e+00,-4.945000000001860130e+00,1.340200146908234480e+01,-2.161053369277847747e+00
1.999999999999692335e+01,2.999999999544549212e+00,9.999999999989613642e+00,6.599999999999458522e-01,1.570000000000376428e+00,2.869999999999954071e+03,-2.174999999999581934e+00,-4.945000000002143459e+00,1.340438392542425383e+01,-2.163217835516288989e+00
1.999999999999969447e+01,3.000000001475325639e+00,1.000000000006579981e+01,6.599999999999651701e-01,1.570000000000280505e+00,2.869999999999982720e+03,-2.174999999999735145e+00,-4.945000000001219753e+00,1.339906930142494268e+01,-2.125825148885682303e+00
2.000000000000263611e+01,2.999999998603446905e+00,1.000000000006754775e+01,6.600000000000426637e-01,1.569999999999877272e+00,2.869999999999999545e+03,-2.175000000000181011e+00,-4.944999999999412310e+00,1.341165396273270005e+01,-2.124233629275753099e+00
1.999999999999893063e+01,2.999999998981082605e+00,1.000000000002548184e+01,6.599999999999711653e-01,1.570000000000050244e+00,2.869999999999971351e+03,-2.174999999999921663e+00,-4.945000000000440821e+00,1.341549421928700170e+01,-2.164220218352718828e+00
2.000000000000193623e+01,3.000000000460796290e+00,1.000000000003586820e+01,6.600000000000019185e-01,1.569999999999817764e+00,2.869999999999995907e+03,-2.175000000000141931e+00,-4.944999999999367013e+00,1.341345515801782184e+01,-2.123982002085033294e+00
1.999999999999809930e+01,2.999999999685060814e+00,9.999999999988251176e+00,6.599999999999701661e-01,1.570000000000433049e+00,2.869999999999949978e+03,-2.174999999999667200e+00,-4.945000000001810392e+00,1.342317976903479781e+01,-2.157123239490014832e+00
1.999999999999889866e+01,3.000000001554046669e+00,1.000000000000243361e+01,6.600000000000324496e-01,1.570000000000303375e+00,2.869999999999954525e+03,-2.174999999999766231e+00,-4.945000000001289919e+00,1.341123557257827770e+01,-2.152906482451497183e+00
2.000000000000015987e+01,2.999999998202086626e+00,1.000000000004002310e+01,6.599999999999899281e-01,1.570000000000165929e+00,2.869999999999975898e+03,-2.174999999999847056e+00,-4.945000000000798757e+00,1.338775131450429434e+01,-2.164348284891940200e+00
2.000000000000119016e+01,2.999999999096436110e+00,1.000000000002703970e+01,6.600000000000054712e-01,1.569999999999990736e+00,2.869999999999977263e+03,-2.175000000000022915e+00,-4.944999999999448725e+00,1.339329509866408863e+01,-2.151280298018381387e+00
2.000000000000057554e+01,3.000000000261624500e+00,1.000000000001665335e+01,6.599999999999699440e-01,1.570000000000096652e+00,2.869999999999959527e+03,-2.174999999999886136e+00,-4.945000000000189466e+00,1.338733824656603311e+01,-2.167413424873222638e+00
2.000000000000070699e+01,3.000000000301706216e+00,1.000000000002390088e+01,6.599999999999414113e-01,1.570000000000252083e+00,2.869999999999971351e+03,-2.174999999999707168e+00,-4.945000000000947971e+00,1.339515027318082119e+01,-2.128644890898781394e+00
1.999999999999955591e+01,2.999999997326238343e+00,1.000000000002032152e+01,6.599999999999300870e-01,1.570000000000406626e+00,2.869999999999982720e+03,-2.174999999999751132e+00,-4.945000000001400053e+00,1.340428622619144861e+01,-2.131985731233632997e+00
1.999999999999721467e+01,2.999999999899177094e+00,9.999999999996136424e+00,6.599999999999430766e-01,1.570000000000395302e+00,2.869999999999993634e+03,-2.174999999999613021e+00,-4.945000000002104379e+00,1.341285026085514254e+01,-2.125999984878012672e+00
2.000000000000103029e+01,3.000000001542914685e+00,1.000000000006094325e+01,6.599999999998998890e-01,1.570000000000218332e+00,2.869999999999991360e+03,-2.174999999999747136e+00,-4.945000000000720597e+00,1.339919488289797656e+01,-2.144579255893007907e+00
2.000000000000143530e+01,3.000000001201266198e+00,1.000000000001365841e+01,6.599999999999931477e-01,1.570000000000056462e+00,2.869999999999981355e+03,-2.175000000000001155e+00,-4.944999999999760476e+00,1.342514584407555844e+01,-2.150724019237025164e+00
2.000000000000323652e+01,3.000000000504574604e+00,1.000000000003251799e+01,6.600000000000035838e-01,1.569999999999921902e+00,2.869999999999999545e+03,-2.175000000000133493e+00,-4.944999999999026841e+00,1.341117309885525088e+01,-2.161899599632445046e+00
1.999999999999943512e+01,3.000000000197774241e+00,1.000000000002055245e+01,6.599999999999597300e-01,1.570000000000260520e+00,2.869999999999997726e+03,-2.174999999999793765e+00,-4.945000000000891127e+00,1.338095747981231476e+01,-2.134365411205882079e+00
2.000000000000098410e+01,2.999999998940282797e+00,1.000000000003070788e+01,6.599999999999678346e-01,1.570000000000052909e+00,2.870000000000001819e+03,-2.174999999999977174e+00,-4.945000000000023377e+00,1.338802785501269099e+01,-2.141535989799505213e+00
2.000000000000079581e+01,3.000000000972594449e+00,1.000000000003819167e+01,6.600000000000956213e-01,1.569999999999980744e+00,2.869999999999999091e+03,-2.174999999999965183e+00,-4.945000000000711715e+00,1.339841980837853086e+01,-2.135692462509581890e+00
2.000000000000137845e+01,3.000000000318140625e+00,1.000000000004683542e+01,6.599999999999377476e-01,1.570000000000125073e+00,2.869999999999998181e+03,-2.174999999999902567e+00,-4.945000000000668194e+00,1.340116680773489755e+01,-2.138045912398811144e+00
2.000000000000158451e+01,2.999999998849324001e+00,1.000000000004232703e+01,6.600000000000311173e-01,1.569999999999955431e+00,2.869999999999983629e+03,-2.175000000000085976e+00,-4.944999999999566853e+00,1.340280952321004371e+01,-2.130810214336885000e+00
1.999999999999912603e+01,3.000000000265898414e+00,1.000000000003521805e+01,6.600000000000257883e-01,1.570000000000124185e+00,2.869999999999982720e+03,-2.174999999999859490e+00,-4.945000000000988827e+00,1.340221304589978502e+01,-2.146065650055096530e+00
1.999999999999943512e+01,2.999999998215859165e+00,1.000000000000697931e+01,6.600000000001570166e-01,1.570000000000064011e+00,2.869999999999981810e+03,-2.174999999999872369e+00,-4.945000000000709939e+00,1.341520079645274244e+01,-2.141738711180693144e+00
2.000000000000079226e+01,2.999999998688591685e+00,1.000000000002066614e+01,6.600000000001067235e-01,1.570000000000046247e+00,2.869999999999977263e+03,-2.174999999999922551e+00,-4.945000000000212559e+00,1.340549531781071479e+01,-2.146160065404408623e+00
1.999999999999976197e+01,2.999999999152772823e+00,9.999999999976697751e+00,6.600000000000576517e-01,1.570000000000206120e+00,2.869999999999966803e+03,-2.174999999999774669e+00,-4.945000000001365414e+00,1.342934909973769741e+01,-2.132516526077576025e+00
2.000000000000015277e+01,2.999999999686764340e+00,1.000000000001699973e+01,6.600000000000981748e-01,1.570000000000185469e+00,2.869999999999991815e+03,-2.174999999999754685e+00,-4.945000000001168239e+00,1.343571451201651890e+01,-2.118613727490592069e+00
1.999999999999994671e+01,2.999999998438275917e+00,1.000000000006092549e+01,6.599999999999047740e-01,1.570000000000280282e+00,2.869999999999992269e+03,-2.174999999999748468e+00,-4.945000000000897344e+00,1.339237610523844779e+01,-2.145987079697407651e+00
1.999999999999970157e+01,3.000000000079222851e+00,1.000000000002982325e+01,6.599999999999153211e-01,1.570000000000225215e+00,2.869999999999955890e+03,-2.174999999999900346e+00,-4.945000000000456808e+00,1.339150789256560792e+01,-2.160363391669524180e+00
1.999999999999576872e+01,3.000000000750573381e+00,9.999999999991620925e+00,6.599999999999753841e-01,1.570000000000548068e+00,2.869999999999955890e+03,-2.174999999999390532e+00,-4.945000000003241247e+00,1.343394479107482020e+01,-2.137559388134254501e+00
1.999999999999596056e+01,3.000000001074032863e+00,9.999999999986741273e+00,6.599999999999427436e-01,1.570000000000533413e+00,2.869999999999949523e+03,-2.174999999999435385e+00,-4.945000000003060059e+00,1.342480480176259405e+01,-2.148960172309712924e+00
1.999999999999844746e+01,2.999999999838786735e+00,1.000000000000899547e+01,6.599999999999768274e-01,1.570000000000214779e+00,2.870000000000001364e+03,-2.174999999999840838e+00,-4.945000000001536833e+00,1.337927958489255964e+01,-2.154135617552911608e+00
1.999999999999796074e+01,2.999999999717457566e+00,1.000000000001276490e+01,6.599999999999653921e-01,1.570000000000262741e+00,2.869999999999977263e+03,-2.174999999999710276e+00,-4.945000000001380513e+00,1.342227585611881047e+01,-2.139596565290921237e+00
1.999999999999646860e+01,3.000000003769282220e+00,1.000000000003318590e+01,6.599999999999357492e-01,1.570000000000420837e+00,2.869999999999995907e+03,-2.174999999999597033e+00,-4.945000000001860130e+00,1.342189384728362178e+01,-2.132770270095637244e+00
2.000000000000159162e+01,3.000000000527387023e+00,1.000000000005664624e+01,6.599999999998944489e-01,1.569999999999986517e+00,2.870000000000000000e+03,-2.174999999999977174e+00,-4.944999999999579288e+00,1.339754227110648443e+01,-2.131990481311404562e+00
1.999999999999895550e+01,2.999999998908710719e+00,1.000000000003083933e+01,6.599999999999104361e-01,1.570000000000312257e+00,2.869999999999979991e+03,-2.174999999999670752e+00,-4.945000000001145146e+00,1.340442630236895738e+01,-2.157138595615736509e+00
2.000000000000119371e+01,3.000000000572466075e+00,1.000000000001266187e+01,6.599999999999839329e-01,1.570000000000029594e+00,2.869999999999994543e+03,-2.175000000000003375e+00,-4.945000000000310258e+00,1.339294839752799859e+01,-2.147111793607207719e+00
1.999999999999664269e+01,3.000000001186331477e+00,9.999999999952885688e+00,6.599999999999731637e-01,1.570000000000277840e+00,2.869999999999951342e+03,-2.174999999999753353e+00,-4.945000000001856577e+00,1.340731441679127300e+01,-2.158996501180395544e+00
1.999999999999765876e+01,3.000000000720993043e+00,9.999999999959582553e+00,6.599999999999830447e-01,1.570000000000200790e+00,2.869999999999961346e+03,-2.174999999999846612e+00,-4.945000000001328999e+00,1.341368208052305810e+01,-2.153115105261161677e+00
1.999999999999799982e+01,3.000000000324272165e+00,1.000000000000985878e+01,6.599999999999974776e-01,1.570000000000317142e+00,2.869999999999970896e+03,-2.174999999999664979e+00,-4.945000000001726015e+00,1.343151615327586157e+01,-2.138769601318528224e+00
1.999999999999821299e+01,3.000000000987157911e+00,1.000000000001231193e+01,6.599999999999898170e-01,1.570000000000301821e+00,2.869999999999969532e+03,-2.174999999999676970e+00,-4.945000000001607887e+00,1.343172064737347249e+01,-2.136551163567343981e+00
2.000000000000083489e+01,3.000000001430456198e+00,1.000000000003273648e+01,6.599999999999494049e-01,1.570000000000111973e+00,2.869999999999992724e+03,-2.174999999999918110e+00,-4.945000000000159268e+00,1.341068898338956217e+01,-2.119280038065471938e+00
2.000000000000106226e+01,3.000000001654536508e+00,1.000000000003046274e+01,6.600000000000242339e-01,1.570000000000042473e+00,2.869999999999978627e+03,-2.174999999999989608e+00,-4.944999999999943441e+00,1.341502407929286278e+01,-2.145242221781892944e+00
1.999999999999621281e+01,2.999999999642268822e+00,1.000000000001594280e+01,6.599999999999659472e-01,1.570000000000393525e+00,2.869999999999954980e+03,-2.174999999999617462e+00,-4.945000000002083063e+00,1.340379697800149117e+01,-2.168401063472821910e+00
1.999999999999666045e+01,3.000000000248995935e+00,1.000000000001787193e+01,6.599999999999711653e-01,1.570000000000350227e+00,2.869999999999968168e+03,-2.174999999999662315e+00,-4.945000000001976481e+00,1.339646434953866994e+01,-2.168491185798286036e+00
1.999999999999974776e+01,2.999999999633488290e+00,1.000000000004920331e+01,6.600000000000456613e-01,1.570000000000088214e+00,2.869999999999977717e+03,-2.174999999999861267e+00,-4.945000000000137952e+00,1.341338744777121761e+01,-2.156204694158925683e+00
1.999999999999966249e+01,2.999999999958902652e+00,1.000000000003484857e+01,6.600000000000313394e-01,1.570000000000056906e+00,2.869999999999986358e+03,-2.174999999999931877e+00,-4.945000000000039364e+00,1.342175045961651492e+01,-2.144876638432578364e+00
1.999999999999689848e+01,3.000000001365693780e+00,9.999999999987220889e+00,6.599999999999657252e-01,1.570000000000412177e+00,2.869999999999971351e+03,-2.174999999999555289e+00,-4.945000000002445439e+00,1.338967860837125556e+01,-2.154232391406347258e+00
1.999999999999859313e+01,3.000000002020577927e+00,1.000000000001548628e+01,6.599999999999256461e-01,1.570000000000395968e+00,2.869999999999964075e+03,-2.174999999999694733e+00,-4.945000000001704699e+00,1.340199911172906155e+01,-2.139675988337766288e+00
2.000000000000319389e+01,3.000000001645746650e+00,1.000000000007650414e+01,6.599999999999545119e-01,1.569999999999949214e+00,2.869999999999987722e+03,-2.175000000000062439e+00,-4.944999999999521556e+00,1.339849594404773647e+01,-2.143858342889132906e+00
1.999999999999792522e+01,2.999999999775895709e+00,9.999999999999635847e+00,6.599999999999477396e-01,1.570000000000164153e+00,2.869999999999976808e+03,-2.174999999999720934e+00,-4.945000000001115836e+00,1.341658603441170428e+01,-2.134298056575886893e+00
1.999999999999845457e+01,3.000000001690239948e+00,9.999999999991453947e+00,6.599999999999234257e-01,1.570000000000236096e+00,2.869999999999984993e+03,-2.174999999999806644e+00,-4.945000000001197549e+00,1.340309304663428058e+01,-2.140811264046928564e+00
1.999999999999903721e+01,2.999999999765671888e+00,1.000000000003790923e+01,6.599999999998975575e-01,1.570000000000241869e+00,2.869999999999982265e+03,-2.174999999999751132e+00,-4.945000000001178897e+00,1.339800728703322719e+01,-2.139209409471598988e+00
1.999999999999817035e+01,3.000000001028963581e+00,1.000000000003222134e+01,6.600000000000167955e-01,1.570000000000246088e+00,2.870000000000002728e+03,-2.174999999999630784e+00,-4.945000000001448015e+00,1.340878755269223355e+01,-2.125799604034813051e+00
1.999999999999760902e+01,3.000000002099331819e+00,1.000000000000852829e+01,6.599999999999014433e-01,1.570000000000419282e+00,2.869999999999954525e+03,-2.174999999999674305e+00,-4.945000000001948948e+00,1.338845808597351983e+01,-2.147212910482911408e+00
1.999999999999874589e+01,3.000000002778529407e+00,1.000000000002364864e+01,6.599999999999758282e-01,1.570000000000234985e+00,2.869999999999955435e+03,-2.174999999999758682e+00,-4.945000000001241069e+00,1.339275171566131384e+01,-2.153415458513737946e+00
2.000000000000240519e+01,2.999999998644375054e+00,1.000000000002320810e+01,6.600000000000300071e-01,1.569999999999861728e+00,2.870000000000009095e+03,-2.175000000000138822e+00,-4.944999999999211582e+00,1.341464043899751779e+01,-2.119069847196556999e+00
1.999999999999996092e+01,2.999999999885258450e+00,9.999999999992240873e+00,6.599999999999720535e-01,1.570000000000124629e+00,2.869999999999980901e+03,-2.174999999999875033e+00,-4.945000000000401741e+00,1.341575912127087378e+01,-2.115326223998408750e+00
2.000000000000288125e+01,3.000000002227641627e+00,1.000000000001762679e+01,6.600000000000121325e-01,1.569999999999897033e+00,2.869999999999995453e+03,-2.175000000000085532e+00,-4.944999999998985096e+00,1.340864323119202339e+01,-2.126979586847921766e+00
1.999999999999883826e+01,2.999999997065398549e+00,9.999999999994861000e+00,6.600000000000602052e-01,1.570000000000058682e+00,2.869999999999994088e+03,-2.175000000000010481e+00,-4.945000000000558948e+00,1.340913480421218651e+01,-2.137022345408333468e+00
1.999999999999828404e+01,2.999999999233483816e+00,1.000000000000009415e+01,6.600000000000172395e-01,1.570000000000314921e+00,2.869999999999973170e+03,-2.174999999999724043e+00,-4.945000000001814833e+00,1.336445876297319302e+01,-2.164714777114667754e+00
2.000000000000042277e+01,2.999999999470472023e+00,1.000000000007261391e+01,6.599999999999807132e-01,1.570000000000155493e+00,2.869999999999994543e+03,-2.174999999999783107e+00,-4.945000000000472795e+00,1.339325711875852321e+01,-2.144473365024732292e+00
1.999999999999915801e+01,3.000000003403997528e+00,1.000000000004455813e+01,6.600000000000324496e-01,1.570000000000188356e+00,2.869999999999971351e+03,-2.174999999999803091e+00,-4.945000000000913332e+00,1.336941469574037811e+01,-2.158177532667321596e+00
1.999999999999935341e+01,3.000000001522476811e+00,1.000000000004858158e+01,6.600000000000404432e-01,1.570000000000176144e+00,2.869999999999992269e+03,-2.174999999999757794e+00,-4.945000000001003926e+00,1.337392678999596285e+01,-2.149545739922765542e+00
2.000000000000395062e+01,3.000000000332816441e+00,1.000000000006441425e+01,6.600000000000365574e-01,1.569999999999849516e+00,2.869999999999991360e+03,-2.175000000000156586e+00,-4.944999999998870521e+00,1.338064037159381847e+01,-2.157344823205433748e+00
1.999999999999911537e+01,2.999999998678191560e+00,1.000000000002959055e+01,6.600000000000423306e-01,1.570000000000160156e+00,2.869999999999998636e+03,-2.174999999999904343e+00,-4.945000000000757012e+00,1.342047561538506706e+01,-2.129081033609412366e+00
1.999999999999789679e+01,2.999999997227044801e+00,1.000000000001797495e+01,6.600000000000898481e-01,1.570000000000234763e+00,2.869999999999999091e+03,-2.174999999999744471e+00,-4.945000000001767759e+00,1.340069932155398469e+01,-2.126629035900594822e+00
2.000000000000061107e+01,2.999999999518094373e+00,1.000000000006504131e+01,6.600000000000006972e-01,1.570000000000186802e+00,2.869999999999998636e+03,-2.174999999999865707e+00,-4.945000000000712603e+00,1.339755771087156155e+01,-2.124522858047754426e+00
2.000000000000076028e+01,3.000000001021692952e+00,1.000000000005178968e+01,6.599999999999046629e-01,1.570000000000079998e+00,2.869999999999978172e+03,-2.175000000000031353e+00,-4.944999999999771134e+00,1.339716959666086993e+01,-2.139743740291458529e+00
1.999999999999802469e+01,3.000000003837921092e+00,1.000000000004836487e+01,6.599999999999707212e-01,1.570000000000323359e+00,2.869999999999982265e+03,-2.174999999999724043e+00,-4.945000000001325446e+00,1.340960952361449543e+01,-2.129904121970965125e+00
1.999999999999415579e+01,3.000000002888643547e+00,9.999999999976012077e+00,6.599999999999568434e-01,1.570000000000695728e+00,2.869999999999952252e+03,-2.174999999999382982e+00,-4.945000000003471285e+00,1.342699972531018915e+01,-2.127940161338925051e+00
2.000000000000095213e+01,3.000000000367758268e+00,1.000000000004423661e+01,6.599999999999650591e-01,1.570000000000075557e+00,2.869999999999987267e+03,-2.174999999999917666e+00,-4.944999999999955875e+00,1.340796540874857357e+01,-2.135226200036110633e+00
2.000000000000099476e+01,3.000000000475276263e+00,1.000000000003537437e+01,6.599999999998825695e-01,1.570000000000226326e+00,2.869999999999969532e+03,-2.174999999999858602e+00,-4.945000000000217888e+00,1.342030762153794576e+01,-2.122988078852239280e+00
2.000000000000207834e+01,3.000000000664446720e+00,1.000000000003531930e+01,6.599999999999925926e-01,1.570000000000052687e+00,2.869999999999988631e+03,-2.174999999999960298e+00,-4.944999999999820872e+00,1.343169511771135483e+01,-2.106973112227848333e+00
2.000000000000073186e+01,3.000000002020526413e+00,1.000000000001973177e+01,6.600000000000135758e-01,1.570000000000117080e+00,2.869999999999989996e+03,-2.174999999999863043e+00,-4.945000000000669971e+00,1.341087198822483373e+01,-2.132073253644883426e+00
2.000000000000069988e+01,3.000000003915656244e+00,1.000000000003791456e+01,6.599999999999587308e-01,1.570000000000236762e+00,2.870000000000005457e+03,-2.174999999999743139e+00,-4.945000000001020801e+00,1.341630686515223481e+01,-2.108857687306652906e+00
1.999999999999898748e+01,3.000000002820399470e+00,1.000000000000858513e+01,6.600000000000207923e-01,1.570000000000271401e+00,2.870000000000001364e+03,-2.174999999999693845e+00,-4.945000000001702034e+00,1.341695757399199707e+01,-2.123458992407330381e+00
1.999999999999457856e+01,3.000000003084239530e+00,9.999999999986535215e+00,6.600000000000328937e-01,1.570000000000439266e+00,2.869999999999968168e+03,-2.174999999999524647e+00,-4.945000000003026308e+00,1.341372518259764846e+01,-2.166566259475647183e+00
1.999999999999488409e+01,3.000000002444506375e+00,9.999999999997621458e+00,6.599999999999981437e-01,1.570000000000504992e+00,2.869999999999968168e+03,-2.174999999999471800e+00,-4.945000000003231477e+00,1.341065594581429821e+01,-2.157064552961888371e+00
1.999999999999812772e+01,3.000000002039064473e+00,1.000000000000994582e+01,6.600000000000419975e-01,1.570000000000289386e+00,2.869999999999980901e+03,-2.174999999999788436e+00,-4.945000000001186002e+00,1.340142274624150609e+01,-2.122252724003224955e+00
1.999999999999588596e+01,3.000000002771703311e+00,1.000000000002472866e+01,6.599999999999662803e-01,1.570000000000493001e+00,2.869999999999972260e+03,-2.174999999999485123e+00,-4.945000000002958807e+00,1.339980677392120789e+01,-2.139649159165633474e+00
2.000000000000083844e+01,3.000000002022758405e+00,1.000000000001254286e+01,6.599999999998900080e-01,1.570000000000062013e+00,2.869999999999987722e+03,-2.175000000000024247e+00,-4.944999999999659224e+00,1.342387443153997317e+01,-2.142736364120980674e+00
2.000000000000094502e+01,3.000000002071275595e+00,1.000000000000217426e+01,6.599999999999087708e-01,1.570000000000014273e+00,2.869999999999989996e+03,-2.175000000000067324e+00,-4.944999999999533991e+00,1.342590095335619971e+01,-2.143659509492322979e+00
2.000000000000042988e+01,3.000000000975591163e+00,1.000000000003013234e+01,6.599999999999333067e-01,1.570000000000077112e+00,2.870000000000001364e+03,-2.174999999999995381e+00,-4.945000000000200124e+00,1.340122500343099610e+01,-2.130816538523977233e+00
2.000000000000160227e+01,3.000000000581200421e+00,1.000000000006611423e+01,6.599999999999092148e-01,1.570000000000018936e+00,2.870000000000017280e+03,-2.175000000000042455e+00,-4.944999999999789786e+00,1.339853906354939461e+01,-2.121409651220108827e+00
1.999999999999990052e+01,3.000000001991087739e+00,1.000000000001682920e+01,6.599999999998753530e-01,1.570000000000190576e+00,2.870000000000010004e+03,-2.174999999999929212e+00,-4.945000000000977280e+00,1.338692141378000677e+01,-2.134295034986235962e+00
1.999999999999791100e+01,3.000000000069638517e+00,1.000000000004074252e+01,6.599999999999329736e-01,1.570000000000335350e+00,2.869999999999994543e+03,-2.174999999999664091e+00,-4.945000000001622986e+00,1.340444543043679815e+01,-2.128841802979137388e+00
1.999999999999713296e+01,3.000000000891493546e+00,1.000000000000340705e+01,6.599999999999610623e-01,1.570000000000343343e+00,2.869999999999970441e+03,-2.174999999999613021e+00,-4.945000000001943619e+00,1.339285403333400737e+01,-2.138916834763080477e+00
1.999999999999580780e+01,3.000000000853679349e+00,1.000000000002687806e+01,6.599999999999563993e-01,1.570000000000420615e+00,2.869999999999985903e+03,-2.174999999999510436e+00,-4.945000000002339746e+00,1.340806849420668456e+01,-2.134234092022946783e+00
1.999999999999890576e+01,2.999999997415783159e+00,9.999999999995290878e+00,6.599999999999669464e-01,1.570000000000284279e+00,2.869999999999987722e+03,-2.174999999999762679e+00,-4.945000000001323670e+00,1.340025067415447779e+01,-2.135920784757878277e+00
1.999999999999974065e+01,2.999999997715891986e+00,1.000000000001795897e+01,6.599999999999767164e-01,1.570000000000265405e+00,2.870000000000001364e+03,-2.174999999999697842e+00,-4.945000000001336993e+00,1.338466437390736452e+01,-2.143245434684048156e+00
1.999999999999697664e+01,2.999999998281902780e+00,9.999999999988402166e+00,6.599999999999954792e-01,1.570000000000271179e+00,2.869999999999969987e+03,-2.174999999999794209e+00,-4.945000000001516405e+00,1.340810858282724638e+01,-2.149712635710978592e+00
1.999999999999780798e+01,2.999999998498900311e+00,1.000000000000047784e+01,6.600000000000716405e-01,1.570000000000102425e+00,2.869999999999973625e+03,-2.174999999999925659e+00,-4.945000000000669971e+00,1.339813109353264053e+01,-2.158003040593333477e+00
1.999999999999576517e+01,2.999999996521873324e+00,9.999999999989009680e+00,6.599999999999403011e-01,1.570000000000508766e+00,2.869999999999967713e+03,-2.174999999999554401e+00,-4.945000000002498730e+00,1.342030181796416599e+01,-2.136177667002159719e+00
1.999999999999580425e+01,2.999999997747225144e+00,1.000000000000265921e+01,6.599999999999346390e-01,1.570000000000534968e+00,2.869999999999964075e+03,-2.174999999999519318e+00,-4.945000000002700347e+00,1.341490966123030226e+01,-2.141492532730215448e+00
1.999999999999949196e+01,2.999999998300023840e+00,9.999999999983829824e+00,6.599999999999673905e-01,1.570000000000125517e+00,2.870000000000003638e+03,-2.174999999999849276e+00,-4.945000000001065210e+00,1.340476363424735773e+01,-2.134572444633641819e+00
1.999999999999479883e+01,3.000000000849497805e+00,1.000000000002493650e+01,6.600000000000020295e-01,1.570000000000633111e+00,2.869999999999952706e+03,-2.174999999999322586e+00,-4.945000000003274110e+00,1.340039351784621147e+01,-2.135545470867677764e+00
1.999999999999942801e+01,3.000000000480058659e+00,1.000000000000505906e+01,6.599999999999541789e-01,1.570000000000262741e+00,2.869999999999953616e+03,-2.174999999999740474e+00,-4.945000000001281926e+00,1.341050709153855358e+01,-2.153390846847680340e+00
1.999999999999837641e+01,3.000000001406425199e+00,1.000000000000538236e+01,6.599999999999248690e-01,1.570000000000387752e+00,2.869999999999944521e+03,-2.174999999999610800e+00,-4.945000000001747331e+00,1.340983390073775183e+01,-2.143291141957761603e+00
1.999999999999635847e+01,2.999999997811274799e+00,9.999999999987780441e+00,6.600000000000509903e-01,1.570000000000157936e+00,2.869999999999975444e+03,-2.174999999999753797e+00,-4.945000000001368079e+00,1.340581712739523823e+01,-2.150925321763142328e+00
1.999999999999636913e+01,2.999999998350185937e+00,9.999999999988899546e+00,6.600000000000117995e-01,1.570000000000201901e+00,2.869999999999979991e+03,-2.174999999999718714e+00,-4.945000000001522622e+00,1.340395776245645720e+01,-2.143180899271238893e+00
1.999999999999912248e+01,3.000000000939113232e+00,1.000000000004125589e+01,6.599999999999728306e-01,1.570000000000348006e+00,2.869999999999970441e+03,-2.174999999999613909e+00,-4.945000000001936513e+00,1.342203653052419376e+01,-2.132270887937586679e+00
1.999999999999609557e+01,3.000000002891580309e+00,1.000000000002168932e+01,6.600000000000110223e-01,1.570000000000516982e+00,2.869999999999960437e+03,-2.174999999999319034e+00,-4.945000000002999663e+00,1.343078221525930971e+01,-2.120633799747023485e+00
1.999999999999534950e+01,3.000000001345902056e+00,1.000000000000784439e+01,6.599999999999935918e-01,1.570000000000549178e+00,2.869999999999950887e+03,-2.174999999999466471e+00,-4.945000000002662155e+00,1.340331895020666764e+01,-2.152592115278925355e+00
