1.999999999999599254e+01,2.999999998917200372e+00,9.999999999971544540e+00,6.600000000000482148e-01,1.570000000000338236e+00,2.869999999999980901e+03,-2.174999999999642775e+00,-4.945000000001753548e+00,1.341588388923777053e+01,-2.132936329696465627e+00
1.999999999999641886e+01,2.999999998710467519e+00,1.000000000001173106e+01,6.599999999999330846e-01,1.570000000000411289e+00,2.869999999999991815e+03,-2.174999999999633893e+00,-4.945000000002292673e+00,1.341655809685068412e+01,-2.123188851233479113e+00
1.999999999999620925e+01,2.999999999850639920e+00,1.000000000001346656e+01,6.599999999999900391e-01,1.570000000000412399e+00,2.869999999999976808e+03,-2.174999999999634781e+00,-4.945000000001972928e+00,1.342012581748012678e+01,-2.127605585756007667e+00
1.999999999999796430e+01,3.000000000950006296e+00,1.000000000000354383e+01,6.600000000000220135e-01,1.570000000000304041e+00,2.869999999999995453e+03,-2.174999999999673861e+00,-4.945000000001980922e+00,1.339127655168141118e+01,-2.135024830255120243e+00
1.999999999999619149e+01,3.000000000781078313e+00,9.999999999984547472e+00,6.600000000000089129e-01,1.570000000000341567e+00,2.869999999999989086e+03,-2.174999999999664535e+00,-4.945000000002226948e+00,1.340004873508717509e+01,-2.143172271913018179e+00
2.000000000000262190e+01,2.999999997290896392e+00,1.000000000003900169e+01,6.600000000000461053e-01,1.569999999999823759e+00,2.870000000000003183e+03,-2.175000000000106404e+00,-4.944999999999296847e+00,1.342562604646458801e+01,-2.130019845455024097e+00
1.999999999999665690e+01,2.999999999860923694e+00,9.999999999994793498e+00,6.599999999999756062e-01,1.570000000000299156e+00,2.869999999999987267e+03,-2.174999999999654321e+00,-4.945000000001462226e+00,1.341840931561779726e+01,-2.140959883810235276e+00
2.000000000000028777e+01,2.999999998207158569e+00,9.999999999984765964e+00,6.599999999999085487e-01,1.570000000000119078e+00,2.869999999999984084e+03,-2.174999999999943423e+00,-4.945000000000996820e+00,1.341010719301857534e+01,-2.156384248705042861e+00
1.999999999999742784e+01,2.999999995304218903e+00,1.000000000000682832e+01,6.600000000000048050e-01,1.570000000000272511e+00,2.869999999999984084e+03,-2.174999999999691180e+00,-4.945000000001853913e+00,1.341865718027374754e+01,-2.138158026294461944e+00
2.000000000000016698e+01,2.999999999814884966e+00,1.000000000000677325e+01,6.599999999999316413e-01,1.570000000000208562e+00,2.870000000000008640e+03,-2.174999999999839062e+00,-4.945000000001007479e+00,1.341155825429599702e+01,-2.133659954816177429e+00
2.000000000000167333e+01,3.000000000072960749e+00,1.000000000006238032e+01,6.600000000000263434e-01,1.569999999999999174e+00,2.870000000000010004e+03,-2.175000000000070877e+00,-4.944999999999718732e+00,1.339621027426680833e+01,-2.106073778593524626e+00
2.000000000000076028e+01,3.000000000070556005e+00,1.000000000004325962e+01,6.599999999999731637e-01,1.570000000000115525e+00,2.869999999999990450e+03,-2.174999999999941203e+00,-4.945000000000435492e+00,1.340775979616673474e+01,-2.129004847731095662e+00
1.999999999999914024e+01,2.999999999170252618e+00,1.000000000001459810e+01,6.599999999999685008e-01,1.570000000000188578e+00,2.869999999999993634e+03,-2.174999999999855937e+00,-4.945000000000933760e+00,1.338925648930504764e+01,-2.119261918483112961e+00
1.999999999999883471e+01,2.999999999444626475e+00,1.000000000000441602e+01,6.600000000000578737e-01,1.570000000000140616e+00,2.870000000000000455e+03,-2.174999999999927436e+00,-4.945000000001047447e+00,1.340344941190019767e+01,-2.111096380159096508e+00
1.999999999999866418e+01,2.999999999398647255e+00,9.999999999993718802e+00,6.600000000000423306e-01,1.570000000000128182e+00,2.870000000000001819e+03,-2.174999999999945199e+00,-4.945000000000955964e+00,1.340740610599914007e+01,-2.111103004918520210e+00
2.000000000000104450e+01,3.000000000020002222e+00,1.000000000005654499e+01,6.600000000000294520e-01,1.570000000000034257e+00,2.870000000000020009e+03,-2.175000000000006484e+00,-4.945000000000247198e+00,1.339463007066175138e+01,-2.106814543164050590e+00
2.000000000000002842e+01,3.000000001547117545e+00,1.000000000003830003e+01,6.599999999999883737e-01,1.570000000000138618e+00,2.870000000000007731e+03,-2.174999999999907452e+00,-4.945000000000708162e+00,1.338425057893932646e+01,-2.119087191594614339e+00
1.999999999999945643e+01,2.999999999714790810e+00,1.000000000004745004e+01,6.600000000000358913e-01,1.570000000000161933e+00,2.869999999999983174e+03,-2.174999999999815525e+00,-4.945000000001085638e+00,1.341011143468129951e+01,-2.152728981592967994e+00
1.999999999999895195e+01,3.000000000399787314e+00,1.000000000002328093e+01,6.599999999999295319e-01,1.570000000000094875e+00,2.869999999999997726e+03,-2.174999999999936762e+00,-4.945000000000552731e+00,1.341144757814252486e+01,-2.149019710568633723e+00
1.999999999999878142e+01,2.999999998334088147e+00,1.000000000000484590e+01,6.600000000000048050e-01,1.570000000000224327e+00,2.869999999999960892e+03,-2.174999999999739142e+00,-4.945000000001098073e+00,1.339961871575038010e+01,-2.153384540459127194e+00
1.999999999999716493e+01,2.999999998430107340e+00,1.000000000001862333e+01,6.599999999999459632e-01,1.570000000000433937e+00,2.869999999999988177e+03,-2.174999999999574829e+00,-4.945000000002303331e+00,1.340485850355832831e+01,-2.143889369412609547e+00
1.999999999999683098e+01,2.999999998399659695e+00,1.000000000002121325e+01,6.599999999999732747e-01,1.570000000000359330e+00,2.869999999999989086e+03,-2.174999999999601030e+00,-4.945000000002379714e+00,1.337531197847329700e+01,-2.153094533828968871e+00
1.999999999999955591e+01,2.999999997534565477e+00,1.000000000003334932e+01,6.600000000000910694e-01,1.570000000000082663e+00,2.869999999999980446e+03,-2.174999999999836842e+00,-4.945000000000945306e+00,1.342597391462893164e+01,-2.148563541770914131e+00
2.000000000000065015e+01,2.999999998626015074e+00,1.000000000000932232e+01,6.600000000000190159e-01,1.570000000000052909e+00,2.869999999999984084e+03,-2.174999999999962519e+00,-4.945000000000318252e+00,1.340762781845444174e+01,-2.133885645274503418e+00
1.999999999999814193e+01,2.999999999400841499e+00,9.999999999987380761e+00,6.600000000001158273e-01,1.570000000000170148e+00,2.869999999999983629e+03,-2.174999999999780442e+00,-4.945000000001406271e+00,1.340074321763424336e+01,-2.138755254982672938e+00
2.000000000000493117e+01,3.000000000231193731e+00,1.000000000008199130e+01,6.600000000001146061e-01,1.569999999999675655e+00,2.870000000000033651e+03,-2.175000000000274269e+00,-4.944999999998407780e+00,1.339378096829458897e+01,-2.118082621070914939e+00
1.999999999999415934e+01,3.000000000505813613e+00,9.999999999988562038e+00,6.600000000000281197e-01,1.570000000000666862e+00,2.869999999999974079e+03,-2.174999999999310152e+00,-4.945000000003657803e+00,1.341082844117322637e+01,-2.137950833086067703e+00
2.000000000000245493e+01,2.999999995801858166e+00,1.000000000001056044e+01,6.599999999999826006e-01,1.569999999999996732e+00,2.869999999999990905e+03,-2.175000000000018474e+00,-4.944999999999783569e+00,1.338536486876671106e+01,-2.158597279329967922e+00
1.999999999999901235e+01,2.999999999002504136e+00,1.000000000001757527e+01,6.600000000000993960e-01,1.570000000000128848e+00,2.869999999999989541e+03,-2.174999999999871036e+00,-4.945000000000973728e+00,1.340687695483692110e+01,-2.134728418981625797e+00
2.000000000000135358e+01,2.999999999473304424e+00,1.000000000004549428e+01,6.599999999999230926e-01,1.570000000000140838e+00,2.869999999999996817e+03,-2.174999999999807088e+00,-4.945000000000813856e+00,1.339976159967864966e+01,-2.164630827327882923e+00
1.999999999999703704e+01,3.000000000053008264e+00,1.000000000001222844e+01,6.599999999999212053e-01,1.570000000000523199e+00,2.869999999999975898e+03,-2.174999999999430944e+00,-4.945000000003151541e+00,1.340341021381571096e+01,-2.136746587767282435e+00
1.999999999999632294e+01,3.000000001234051084e+00,9.999999999982939869e+00,6.599999999999952571e-01,1.570000000000405960e+00,2.869999999999951342e+03,-2.174999999999566835e+00,-4.945000000002323759e+00,1.342473486356503543e+01,-2.138298477571779710e+00
2.000000000000137490e+01,3.000000000364608344e+00,1.000000000005530687e+01,6.599999999999324185e-01,1.569999999999978524e+00,2.870000000000004093e+03,-2.175000000000075762e+00,-4.944999999999390994e+00,1.338763800988742858e+01,-2.154291464500440068e+00
2.000000000000000000e+01,2.999999999128242223e+00,1.000000000002159695e+01,6.600000000000534328e-01,1.570000000000126406e+00,2.869999999999983174e+03,-2.174999999999909672e+00,-4.945000000000599805e+00,1.339957931731038165e+01,-2.149803864462528580e+00
1.999999999999924327e+01,3.000000000800380651e+00,1.000000000000884803e+01,6.600000000000175726e-01,1.570000000000085105e+00,2.869999999999990450e+03,-2.174999999999946088e+00,-4.945000000000403517e+00,1.340312921990314798e+01,-2.149579664536290569e+00
1.999999999999970157e+01,3.000000004137999721e+00,1.000000000003062439e+01,6.600000000000757483e-01,1.570000000000042473e+00,2.870000000000007276e+03,-2.174999999999891909e+00,-4.945000000000578488e+00,1.339726247313431706e+01,-2.147440682409091028e+00
1.999999999999828404e+01,3.000000001754944634e+00,1.000000000003563017e+01,6.599999999999323075e-01,1.570000000000331575e+00,2.869999999999984539e+03,-2.174999999999712497e+00,-4.945000000001397389e+00,1.341019367664935302e+01,-2.114342069825230652e+00
1.999999999999933209e+01,3.000000001403746452e+00,1.000000000003169909e+01,6.600000000000236788e-01,1.570000000000150608e+00,2.869999999999999545e+03,-2.174999999999835953e+00,-4.945000000000709939e+00,1.341916649210818591e+01,-2.122676828385050118e+00
1.999999999999753442e+01,3.000000000081387341e+00,1.000000000002102851e+01,6.599999999999895950e-01,1.570000000000155271e+00,2.869999999999991815e+03,-2.174999999999798206e+00,-4.945000000000917773e+00,1.341170242803092627e+01,-2.147387499191507843e+00
1.999999999999893774e+01,2.999999999952053908e+00,1.000000000003163692e+01,6.599999999999661693e-01,1.570000000000307816e+00,2.869999999999986812e+03,-2.174999999999676081e+00,-4.945000000001591012e+00,1.339148112153307757e+01,-2.144641766992706700e+00
1.999999999999912959e+01,3.000000000605145267e+00,1.000000000005731771e+01,6.599999999999219824e-01,1.570000000000352225e+00,2.869999999999983629e+03,-2.174999999999574829e+00,-4.945000000001371632e+00,1.339344275817275154e+01,-2.142739812906574670e+00
1.999999999999993960e+01,3.000000000934768263e+00,1.000000000006894041e+01,6.599999999999985878e-01,1.570000000000233431e+00,2.870000000000002728e+03,-2.174999999999674749e+00,-4.945000000001299689e+00,1.338664578103148983e+01,-2.125268047221245737e+00
1.999999999999891998e+01,3.000000002155569945e+00,1.000000000008369483e+01,6.600000000000024736e-01,1.570000000000249640e+00,2.869999999999986812e+03,-2.174999999999641442e+00,-4.945000000001086526e+00,1.341896077677960619e+01,-2.121673266160091664e+00
2.000000000000066080e+01,3.000000001005878492e+00,1.000000000004861178e+01,6.600000000000434408e-01,1.569999999999989626e+00,2.870000000000003183e+03,-2.175000000000052225e+00,-4.944999999999693863e+00,1.340195150107076749e+01,-2.122446102146507751e+00
1.999999999999796074e+01,3.000000000657259580e+00,1.000000000001199041e+01,6.599999999999874856e-01,1.570000000000205009e+00,2.869999999999974989e+03,-2.174999999999863043e+00,-4.945000000000972840e+00,1.342566264092477901e+01,-2.125145454518995169e+00
1.999999999999841194e+01,3.000000000559700286e+00,1.000000000001755218e+01,6.599999999999861533e-01,1.570000000000191687e+00,2.869999999999976808e+03,-2.174999999999884359e+00,-4.945000000000893792e+00,1.342325623468183871e+01,-2.127369854040976893e+00
1.999999999999902300e+01,3.000000000693682889e+00,1.000000000001164935e+01,6.600000000000444400e-01,1.570000000000117080e+00,2.870000000000001364e+03,-2.174999999999912337e+00,-4.945000000000648654e+00,1.341388099276995405e+01,-2.112663181506955645e+00
1.999999999999898748e+01,3.000000000418122426e+00,1.000000000001590372e+01,6.600000000000513234e-01,1.570000000000139950e+00,2.870000000000003638e+03,-2.174999999999881695e+00,-4.945000000000768559e+00,1.341232377550461230e+01,-2.110226839372391083e+00
1.999999999999691980e+01,3.000000000523013632e+00,1.000000000001544898e+01,6.599999999999677236e-01,1.570000000000339346e+00,2.869999999999996817e+03,-2.174999999999697398e+00,-4.945000000001732232e+00,1.341075046416015404e+01,-2.112247212020524678e+00
1.999999999999720757e+01,3.000000000445791848e+00,1.000000000002265743e+01,6.599999999999590639e-01,1.570000000000315810e+00,2.869999999999999545e+03,-2.174999999999725375e+00,-4.945000000001627427e+00,1.340958816340382675e+01,-2.112663359239253857e+00
1.999999999999841194e+01,3.000000001177423492e+00,1.000000000001548983e+01,6.599999999999833777e-01,1.570000000000228768e+00,2.869999999999973625e+03,-2.174999999999813749e+00,-4.945000000001177121e+00,1.339162799650516256e+01,-2.123046360782760544e+00
1.999999999999797140e+01,3.000000000594298388e+00,1.000000000001500844e+01,6.599999999999495159e-01,1.570000000000335127e+00,2.869999999999968168e+03,-2.174999999999644995e+00,-4.945000000001757989e+00,1.339465949537459011e+01,-2.139628833199019198e+00
2.000000000000083134e+01,3.000000000660314470e+00,1.000000000000091482e+01,6.600000000000350031e-01,1.569999999999962093e+00,2.869999999999989541e+03,-2.175000000000104183e+00,-4.944999999999668994e+00,1.340861457594669837e+01,-2.126698631881011270e+00
1.999999999999986144e+01,3.000000000846278159e+00,1.000000000000338396e+01,6.599999999999910383e-01,1.569999999999979856e+00,2.869999999999984539e+03,-2.175000000000088640e+00,-4.944999999999954987e+00,1.339436158094917673e+01,-2.120582536679327390e+00
2.000000000000116174e+01,3.000000000902578012e+00,1.000000000005875833e+01,6.599999999999887068e-01,1.569999999999917240e+00,2.870000000000004093e+03,-2.175000000000109068e+00,-4.944999999999468265e+00,1.341868442588189581e+01,-2.138343240075602392e+00
2.000000000000008171e+01,2.999999998396996936e+00,1.000000000000492051e+01,6.600000000000317835e-01,1.569999999999980966e+00,2.869999999999995453e+03,-2.175000000000015810e+00,-4.945000000000297824e+00,1.340970892305758966e+01,-2.154707056252761710e+00
1.999999999999798206e+01,3.000000001060281640e+00,9.999999999987425170e+00,6.599999999999378586e-01,1.570000000000331131e+00,2.869999999999969532e+03,-2.174999999999692513e+00,-4.945000000001611440e+00,1.339876262226166048e+01,-2.145823300204668271e+00
1.999999999999992895e+01,2.999999997963504583e+00,1.000000000005429968e+01,6.599999999999476286e-01,1.570000000000093099e+00,2.870000000000000909e+03,-2.174999999999966960e+00,-4.945000000000046469e+00,1.339054985147399002e+01,-2.135965970929920577e+00
1.999999999999863576e+01,2.999999996720748463e+00,1.000000000002956924e+01,6.599999999999233147e-01,1.570000000000206564e+00,2.869999999999989541e+03,-2.174999999999848832e+00,-4.945000000000825402e+00,1.339006248933273113e+01,-2.151897637872582703e+00
1.999999999999818812e+01,2.999999999687178676e+00,1.000000000002659917e+01,6.599999999999556222e-01,1.570000000000259854e+00,2.869999999999996362e+03,-2.174999999999845279e+00,-4.945000000001271268e+00,1.339530506751627925e+01,-2.121191915642608894e+00
1.999999999999910116e+01,2.999999999619520796e+00,1.000000000001365841e+01,6.599999999999962563e-01,1.570000000000134621e+00,2.869999999999999545e+03,-2.174999999999988276e+00,-4.945000000000725926e+00,1.340087832557910019e+01,-2.126541961953539950e+00
1.999999999999588240e+01,3.000000000234761988e+00,1.000000000002254552e+01,6.599999999998892308e-01,1.570000000000596696e+00,2.869999999999998636e+03,-2.174999999999510436e+00,-4.945000000003210161e+00,1.338292929788923225e+01,-2.145710032082902785e+00
1.999999999999769074e+01,3.000000000475499196e+00,1.000000000003467271e+01,6.599999999999531797e-01,1.570000000000442597e+00,2.869999999999988631e+03,-2.174999999999584155e+00,-4.945000000002434781e+00,1.338951352008804108e+01,-2.146738241655421930e+00
1.999999999999987921e+01,3.000000001608611910e+00,1.000000000000408740e+01,6.599999999999606182e-01,1.570000000000114415e+00,2.869999999999968168e+03,-2.174999999999961631e+00,-4.945000000000646878e+00,1.338822549538685891e+01,-2.153238128296843357e+00
1.999999999999972289e+01,3.000000001723375220e+00,1.000000000003255174e+01,6.599999999999620615e-01,1.570000000000129958e+00,2.869999999999983629e+03,-2.174999999999922107e+00,-4.945000000000572271e+00,1.339856167632951767e+01,-2.130045737679787443e+00
1.999999999999796074e+01,3.000000000469827288e+00,9.999999999991606714e+00,6.599999999999743849e-01,1.570000000000260298e+00,2.869999999999967258e+03,-2.174999999999831957e+00,-4.945000000001048335e+00,1.341984777806381857e+01,-2.125887018210139257e+00
1.999999999999969447e+01,3.000000002064316273e+00,1.000000000003776357e+01,6.599999999999510703e-01,1.570000000000093987e+00,2.869999999999994998e+03,-2.174999999999870148e+00,-4.945000000000226770e+00,1.342069750207993195e+01,-2.136611679943509312e+00
1.999999999999767653e+01,2.999999998127182543e+00,1.000000000003424461e+01,6.599999999999479616e-01,1.570000000000370433e+00,2.870000000000003183e+03,-2.174999999999693401e+00,-4.945000000001673612e+00,1.339573845719417911e+01,-2.121418725189023302e+00
2.000000000000055067e+01,2.999999998049345695e+00,1.000000000003998224e+01,6.599999999999771605e-01,1.570000000000098428e+00,2.869999999999997272e+03,-2.174999999999818190e+00,-4.945000000000662865e+00,1.340477365702034085e+01,-2.158199863840374988e+00
2.000000000000073186e+01,3.000000001322751242e+00,1.000000000006167866e+01,6.599999999999501821e-01,1.570000000000171037e+00,2.870000000000002728e+03,-2.174999999999873257e+00,-4.945000000000664642e+00,1.338112611913736316e+01,-2.135688932055936462e+00
2.000000000000035172e+01,2.999999999153611263e+00,1.000000000004366996e+01,6.600000000000154632e-01,1.570000000000165485e+00,2.870000000000003183e+03,-2.174999999999875033e+00,-4.945000000000758789e+00,1.339056377157326949e+01,-2.124616948205638067e+00
1.999999999999837641e+01,2.999999999831524988e+00,9.999999999986870947e+00,6.599999999999467404e-01,1.570000000000345342e+00,2.869999999999986812e+03,-2.174999999999676970e+00,-4.945000000001988916e+00,1.341107144959679154e+01,-2.120505985628118761e+00
1.999999999999990763e+01,2.999999999680868612e+00,1.000000000000924594e+01,6.599999999999658362e-01,1.570000000000122853e+00,2.870000000000002728e+03,-2.174999999999932321e+00,-4.945000000000724150e+00,1.339029111299777064e+01,-2.138089099418860162e+00
1.999999999999992895e+01,2.999999999451332222e+00,1.000000000000080647e+01,6.599999999999980327e-01,1.570000000000259632e+00,2.869999999999990450e+03,-2.174999999999843947e+00,-4.945000000000968399e+00,1.339947383044266083e+01,-2.116018038933421774e+00
1.999999999999965539e+01,3.000000001513841941e+00,1.000000000001215206e+01,6.599999999999949241e-01,1.570000000000289386e+00,2.869999999999992269e+03,-2.174999999999762679e+00,-4.945000000000962181e+00,1.339010993275918437e+01,-2.118326484217156747e+00
1.999999999999734612e+01,2.999999998540118007e+00,9.999999999965252684e+00,6.599999999999991429e-01,1.570000000000306262e+00,2.869999999999962711e+03,-2.174999999999698730e+00,-4.945000000001900986e+00,1.341264546479123254e+01,-2.159486884967698916e+00
1.999999999999950262e+01,2.999999999277211948e+00,1.000000000004745715e+01,6.600000000000282308e-01,1.570000000000182583e+00,2.869999999999999091e+03,-2.174999999999742251e+00,-4.945000000000815632e+00,1.339841457856605089e+01,-2.138319644267903108e+00
2.000000000000099121e+01,2.999999998335885376e+00,1.000000000007158363e+01,6.600000000000076916e-01,1.570000000000043361e+00,2.869999999999999091e+03,-2.174999999999906564e+00,-4.945000000000261409e+00,1.339002105979732882e+01,-2.137779044573286935e+00
2.000000000000007461e+01,2.999999999364019398e+00,1.000000000004137313e+01,6.600000000000044720e-01,1.570000000000186136e+00,2.870000000000003638e+03,-2.174999999999761346e+00,-4.945000000000772111e+00,1.339976274067103112e+01,-2.113995560107884586e+00
2.000000000000070344e+01,3.000000000217596163e+00,1.000000000006083312e+01,6.600000000000453282e-01,1.570000000000105311e+00,2.870000000000015007e+03,-2.174999999999840394e+00,-4.945000000000177032e+00,1.337902459589748183e+01,-2.112766241628400543e+00
1.999999999999964118e+01,2.999999998080423946e+00,9.999999999999509726e+00,6.600000000000414424e-01,1.570000000000056239e+00,2.869999999999996362e+03,-2.174999999999952749e+00,-4.945000000000042029e+00,1.342937095935339542e+01,-2.143622283296046760e+00
1.999999999999729283e+01,3.000000000108212994e+00,9.999999999987272403e+00,6.599999999999874856e-01,1.570000000000291829e+00,2.869999999999971806e+03,-2.174999999999722267e+00,-4.945000000001533280e+00,1.341394086958573162e+01,-2.158506774387021654e+00
1.999999999999866418e+01,3.000000001319759857e+00,1.000000000003171508e+01,6.600000000000190159e-01,1.570000000000225659e+00,2.869999999999964530e+03,-2.174999999999778666e+00,-4.945000000001074980e+00,1.342384858464577491e+01,-2.137889597159587929e+00
1.999999999999925038e+01,2.999999999525421845e+00,9.999999999997237765e+00,6.599999999999680567e-01,1.570000000000230544e+00,2.869999999999980901e+03,-2.174999999999731148e+00,-4.945000000001408047e+00,1.341888186849311282e+01,-2.143807827915337416e+00
1.999999999999829114e+01,2.999999998900423570e+00,1.000000000001921840e+01,6.599999999999647260e-01,1.570000000000232099e+00,2.870000000000002274e+03,-2.174999999999758238e+00,-4.945000000001371632e+00,1.340760798483008820e+01,-2.147806050970037628e+00
2.000000000000018119e+01,3.000000000396385591e+00,1.000000000002830269e+01,6.599999999999531797e-01,1.570000000000189244e+00,2.869999999999991815e+03,-2.174999999999827516e+00,-4.945000000000933760e+00,1.340606494071025345e+01,-2.138926454135906319e+00
1.999999999999513633e+01,2.999999997361512794e+00,9.999999999984957810e+00,6.599999999999904832e-01,1.570000000000521201e+00,2.869999999999961346e+03,-2.174999999999482014e+00,-4.945000000003164864e+00,1.341647493232102129e+01,-2.157939314576303502e+00
1.999999999999338840e+01,2.999999999847891008e+00,9.999999999980790477e+00,6.599999999999236477e-01,1.570000000000697504e+00,2.869999999999955435e+03,-2.174999999999329248e+00,-4.945000000003883400e+00,1.342158794608220518e+01,-2.158859171064275273e+00
1.999999999999639400e+01,3.000000000770828290e+00,9.999999999987831956e+00,6.599999999999685008e-01,1.570000000000473239e+00,2.869999999999972260e+03,-2.174999999999539746e+00,-4.945000000002271356e+00,1.342834440650440975e+01,-2.145666871993672231e+00
1.999999999999652189e+01,3.000000001708487130e+00,9.999999999952043694e+00,6.600000000000265654e-01,1.570000000000340012e+00,2.869999999999959982e+03,-2.174999999999678746e+00,-4.945000000002123919e+00,1.341151506527095805e+01,-2.160971468602981282e+00
1.999999999999920419e+01,3.000000002742891247e+00,1.000000000001851852e+01,6.599999999999540679e-01,1.570000000000174589e+00,2.870000000000011369e+03,-2.174999999999818634e+00,-4.945000000001115836e+00,1.340505417453947778e+01,-2.139094347904769489e+00
2.000000000000157740e+01,3.000000000107426068e+00,1.000000000002568257e+01,6.600000000000776357e-01,1.569999999999938112e+00,2.870000000000009095e+03,-2.175000000000080203e+00,-4.944999999999789786e+00,1.341062451638015318e+01,-2.133608910661696445e+00
1.999999999999999645e+01,3.000000002044524106e+00,1.000000000002950884e+01,6.600000000000154632e-01,1.570000000000231211e+00,2.870000000000005002e+03,-2.174999999999748024e+00,-4.945000000001592788e+00,1.340663142806856811e+01,-2.119494789680439251e+00
1.999999999999790390e+01,3.000000000581986015e+00,1.000000000000230393e+01,6.599999999999311973e-01,1.570000000000332463e+00,2.869999999999990450e+03,-2.174999999999689848e+00,-4.945000000001807727e+00,1.339568953775949822e+01,-2.167220758437866213e+00
1.999999999999752021e+01,3.000000000743854756e+00,9.999999999972564169e+00,6.599999999999301981e-01,1.570000000000299822e+00,2.869999999999984993e+03,-2.174999999999744471e+00,-4.945000000002124807e+00,1.339230105330062770e+01,-2.156127692471614399e+00
1.999999999999757350e+01,2.999999999479722845e+00,1.000000000002409450e+01,6.599999999999418554e-01,1.570000000000416618e+00,2.869999999999985903e+03,-2.174999999999557065e+00,-4.945000000001901874e+00,1.342596962532668314e+01,-2.128378441954685396e+00
1.999999999999907274e+01,2.999999999361721681e+00,1.000000000001639577e+01,6.599999999999853761e-01,1.570000000000305818e+00,2.869999999999979991e+03,-2.174999999999711164e+00,-4.945000000001552820e+00,1.340255446745274348e+01,-2.128298821500691940e+00
1.999999999999998579e+01,3.000000001662220139e+00,1.000000000000290079e+01,6.600000000000346700e-01,1.570000000000089546e+00,2.869999999999988631e+03,-2.174999999999898126e+00,-4.945000000000720597e+00,1.341064119798049248e+01,-2.145439237631945328e+00
1.999999999999709033e+01,2.999999999211296675e+00,9.999999999997404743e+00,6.599999999999667244e-01,1.570000000000423279e+00,2.869999999999954525e+03,-2.174999999999562839e+00,-4.945000000002208296e+00,1.340541658344193188e+01,-2.153141285577411246e+00
1.999999999999654676e+01,2.999999999192127120e+00,9.999999999980662579e+00,6.599999999999280886e-01,1.570000000000427942e+00,2.869999999999959982e+03,-2.174999999999550848e+00,-4.945000000002422347e+00,1.341416523034346930e+01,-2.165658896239345044e+00
1.999999999999662492e+01,3.000000001448839715e+00,1.000000000003822009e+01,6.599999999999240918e-01,1.570000000000461249e+00,2.869999999999974079e+03,-2.174999999999553957e+00,-4.945000000002331753e+00,1.340992889080929906e+01,-2.134443033582025251e+00
2.000000000000009592e+01,2.999999998853304817e+00,1.000000000005468337e+01,6.600000000000761924e-01,1.570000000000122853e+00,2.869999999999979082e+03,-2.174999999999857270e+00,-4.945000000000844054e+00,1.342013797395514274e+01,-2.117148175393655851e+00
2.000000000000070699e+01,2.999999999106099935e+00,1.000000000005457323e+01,6.600000000000925127e-01,1.570000000000058682e+00,2.869999999999979536e+03,-2.174999999999911893e+00,-4.945000000000606022e+00,1.341977953548692071e+01,-2.117876101428186608e+00
1.999999999999938538e+01,2.999999998828487335e+00,1.000000000001963940e+01,6.600000000000136868e-01,1.570000000000018936e+00,2.869999999999975898e+03,-2.174999999999950528e+00,-4.945000000000431939e+00,1.342082146047603963e+01,-2.144622461461195506e+00
2.000000000000156319e+01,2.999999999994561684e+00,1.000000000004335377e+01,6.600000000000323386e-01,1.569999999999891704e+00,2.870000000000000000e+03,-2.175000000000071321e+00,-4.944999999999641460e+00,1.340391660642947436e+01,-2.125088142540847436e+00
2.000000000000233413e+01,3.000000000686980695e+00,1.000000000005459455e+01,6.600000000000021405e-01,1.570000000000064011e+00,2.869999999999997726e+03,-2.175000000000003819e+00,-4.944999999999492246e+00,1.337323652449273581e+01,-2.126000066611788419e+00
1.999999999999978684e+01,3.000000000514790433e+00,1.000000000001103118e+01,6.600000000000130207e-01,1.570000000000346452e+00,2.869999999999958163e+03,-2.174999999999721378e+00,-4.945000000001190443e+00,1.339903261205782314e+01,-2.152680057046383766e+00
2.000000000000007105e+01,2.999999998489762731e+00,1.000000000004077982e+01,6.599999999999723865e-01,1.570000000000171925e+00,2.869999999999974989e+03,-2.174999999999852829e+00,-4.945000000000689511e+00,1.339827459352070527e+01,-2.166773378561314800e+00
1.999999999999985079e+01,2.999999999655623473e+00,1.000000000001562306e+01,6.599999999999984768e-01,1.570000000000114859e+00,2.869999999999964530e+03,-2.174999999999903011e+00,-4.945000000000361773e+00,1.338528319123748389e+01,-2.170895032215350628e+00
2.000000000000058620e+01,3.000000000811600120e+00,1.000000000002324185e+01,6.599999999999560663e-01,1.570000000000176144e+00,2.869999999999964530e+03,-2.174999999999786660e+00,-4.945000000000692175e+00,1.338928931635295960e+01,-2.142517451976730047e+00
2.000000000000104805e+01,2.999999997961115827e+00,1.000000000004431477e+01,6.599999999999547340e-01,1.570000000000230767e+00,2.869999999999994543e+03,-2.174999999999876366e+00,-4.945000000000519869e+00,1.339652292806994360e+01,-2.138587397818014324e+00
1.999999999999742428e+01,2.999999999490448932e+00,1.000000000000878053e+01,6.599999999999744960e-01,1.570000000000338236e+00,2.869999999999994998e+03,-2.174999999999631228e+00,-4.945000000002058194e+00,1.340887393067359667e+01,-2.130610215652729789e+00
2.000000000000081712e+01,3.000000001691363938e+00,1.000000000005325518e+01,6.599999999999648370e-01,1.570000000000228990e+00,2.869999999999976808e+03,-2.174999999999733813e+00,-4.945000000000883134e+00,1.340237675511102999e+01,-2.152344639479395916e+00
2.000000000000328626e+01,3.000000000354824614e+00,1.000000000004097522e+01,6.599999999999835998e-01,1.569999999999994511e+00,2.869999999999987722e+03,-2.175000000000020250e+00,-4.944999999999322604e+00,1.341348139927428917e+01,-2.158263482911884523e+00
1.999999999999966604e+01,2.999999999500491121e+00,1.000000000003682032e+01,6.599999999999397460e-01,1.570000000000221441e+00,2.870000000000008640e+03,-2.174999999999839950e+00,-4.945000000000657536e+00,1.338432028486990255e+01,-2.124938698799491377e+00
2.000000000000046185e+01,3.000000000619089668e+00,1.000000000002783729e+01,6.599999999999318634e-01,1.570000000000191243e+00,2.869999999999998636e+03,-2.174999999999908340e+00,-4.945000000000394635e+00,1.339284766975790752e+01,-2.134258164095488741e+00
2.000000000000115463e+01,3.000000000284630985e+00,1.000000000003406875e+01,6.599999999999287548e-01,1.570000000000067342e+00,2.869999999999999091e+03,-2.174999999999932765e+00,-4.944999999999873275e+00,1.338857036367707387e+01,-2.134905494537376658e+00
2.000000000000069633e+01,2.999999999524414651e+00,1.000000000004433254e+01,6.599999999999353051e-01,1.570000000000133511e+00,2.870000000000011369e+03,-2.174999999999974509e+00,-4.945000000000075779e+00,1.338507112529720011e+01,-2.130749646536794106e+00
1.999999999999961631e+01,3.000000001831340413e+00,1.000000000002047962e+01,6.600000000001186029e-01,1.570000000000036255e+00,2.869999999999988177e+03,-2.174999999999928768e+00,-4.945000000000744578e+00,1.340286500518207369e+01,-2.130262876110360803e+00
2.000000000000064304e+01,2.999999999088357239e+00,1.000000000004064660e+01,6.600000000000029177e-01,1.570000000000099094e+00,2.869999999999997726e+03,-2.174999999999879918e+00,-4.945000000000709051e+00,1.339710314358470633e+01,-2.133057317289492438e+00
2.000000000000220268e+01,2.999999999520728711e+00,1.000000000004063949e+01,6.600000000000104672e-01,1.569999999999954765e+00,2.870000000000001819e+03,-2.175000000000112621e+00,-4.944999999999470930e+00,1.339853918876645444e+01,-2.123650092934999289e+00
1.999999999999976197e+01,3.000000001630745761e+00,1.000000000004003908e+01,6.599999999999771605e-01,1.570000000000254969e+00,2.869999999999983629e+03,-2.174999999999746692e+00,-4.945000000001283702e+00,1.340235945477845192e+01,-2.143059668895715308e+00
1.999999999999967670e+01,2.999999998261210443e+00,1.000000000000529710e+01,6.600000000000946221e-01,1.570000000000130624e+00,2.869999999999970441e+03,-2.174999999999811973e+00,-4.945000000000891127e+00,1.342782629083491841e+01,-2.135338997098216396e+00
2.000000000000042277e+01,2.999999998531909462e+00,9.999999999991519672e+00,6.600000000001096101e-01,1.570000000000097984e+00,2.869999999999968168e+03,-2.174999999999815969e+00,-4.945000000000970175e+00,1.343466899996686337e+01,-2.128730180082343271e+00
2.000000000000091660e+01,2.999999998688622771e+00,9.999999999996150635e+00,6.600000000001093881e-01,1.570000000000070228e+00,2.869999999999970896e+03,-2.174999999999858602e+00,-4.945000000000700169e+00,1.343658297310586924e+01,-2.128371079799054488e+00
1.999999999999920774e+01,2.999999999379132642e+00,1.000000000003686651e+01,6.599999999999079936e-01,1.570000000000302043e+00,2.869999999999991815e+03,-2.174999999999719158e+00,-4.945000000001172680e+00,1.339622398582036666e+01,-2.152247571057788633e+00
1.999999999999973710e+01,3.000000000652605969e+00,1.000000000003122302e+01,6.599999999999555111e-01,1.570000000000236096e+00,2.869999999999958163e+03,-2.174999999999908784e+00,-4.945000000000690399e+00,1.339019848789318878e+01,-2.153589877681928666e+00
1.999999999999761613e+01,2.999999999996110667e+00,9.999999999993987032e+00,6.599999999999510703e-01,1.570000000000321139e+00,2.869999999999959073e+03,-2.174999999999683631e+00,-4.945000000001778417e+00,1.340869674876689999e+01,-2.151021396774728700e+00
2.000000000000011724e+01,2.999999998446184701e+00,1.000000000002459544e+01,6.599999999999992539e-01,1.570000000000054463e+00,2.870000000000005002e+03,-2.174999999999998934e+00,-4.945000000000587370e+00,1.337981661008966228e+01,-2.150317275386052884e+00
1.999999999999782574e+01,3.000000000403850731e+00,1.000000000000935430e+01,6.599999999999517364e-01,1.570000000000356888e+00,2.869999999999984993e+03,-2.174999999999648992e+00,-4.945000000001708251e+00,1.340636414029238921e+01,-2.140220340658317344e+00
1.999999999999735678e+01,3.000000002624650275e+00,1.000000000006606626e+01,6.599999999999685008e-01,1.570000000000299378e+00,2.869999999999994543e+03,-2.174999999999720046e+00,-4.945000000001162022e+00,1.341127527795597985e+01,-2.132755926013010228e+00
2.000000000000122569e+01,2.999999998434964787e+00,1.000000000005053202e+01,6.599999999998950040e-01,1.570000000000050022e+00,2.869999999999994088e+03,-2.174999999999925659e+00,-4.944999999999775575e+00,1.340333026739387812e+01,-2.144188222491761220e+00
1.999999999999967315e+01,2.999999998350373787e+00,1.000000000004275869e+01,6.600000000000012523e-01,1.570000000000180584e+00,2.869999999999996817e+03,-2.174999999999761791e+00,-4.945000000001056328e+00,1.339352949363322232e+01,-2.132152070474279792e+00
2.000000000000008527e+01,3.000000001185676890e+00,1.000000000002929745e+01,6.600000000000020295e-01,1.570000000000116414e+00,2.870000000000008640e+03,-2.174999999999948752e+00,-4.945000000000327134e+00,1.338059855702234024e+01,-2.143250924241697497e+00
1.999999999999797851e+01,2.999999998087515163e+00,1.000000000003130474e+01,6.599999999999580647e-01,1.570000000000327800e+00,2.869999999999981810e+03,-2.174999999999683631e+00,-4.945000000001339657e+00,1.339969651827665231e+01,-2.161344047615071595e+00
1.999999999999891287e+01,3.000000001268439576e+00,9.999999999983744559e+00,6.599999999999920375e-01,1.570000000000204787e+00,2.869999999999972715e+03,-2.174999999999833733e+00,-4.945000000001499529e+00,1.339172654574292665e+01,-2.160389899489311372e+00
1.999999999999732836e+01,3.000000000072170714e+00,9.999999999937140061e+00,6.599999999999660583e-01,1.570000000000263185e+00,2.869999999999960437e+03,-2.174999999999779998e+00,-4.945000000001829932e+00,1.340984736895923213e+01,-2.163473410423087273e+00
1.999999999999770495e+01,2.999999999745394330e+00,1.000000000000902567e+01,6.599999999999816014e-01,1.570000000000311369e+00,2.869999999999973625e+03,-2.174999999999682299e+00,-4.945000000001665619e+00,1.343303781809433417e+01,-2.147873761758394284e+00
1.999999999999892353e+01,3.000000000433366232e+00,1.000000000003226042e+01,6.600000000000093570e-01,1.570000000000148388e+00,2.869999999999989996e+03,-2.174999999999846612e+00,-4.945000000000606022e+00,1.342130953369447788e+01,-2.120573448481387402e+00
1.999999999999896971e+01,3.000000000464496441e+00,1.000000000003176659e+01,6.599999999999995870e-01,1.570000000000127516e+00,2.869999999999990450e+03,-2.174999999999863931e+00,-4.945000000000524309e+00,1.342116137884577043e+01,-2.119822818901834438e+00
2.000000000000048317e+01,3.000000002233027541e+00,1.000000000003724843e+01,6.599999999999809353e-01,1.570000000000065787e+00,2.869999999999996817e+03,-2.174999999999950973e+00,-4.945000000000336016e+00,1.341777471337510796e+01,-2.136872149162662105e+00
1.999999999999615241e+01,2.999999999508915938e+00,1.000000000000406608e+01,6.599999999999850431e-01,1.570000000000341345e+00,2.869999999999959527e+03,-2.174999999999637890e+00,-4.945000000002031548e+00,1.341323302497092307e+01,-2.164858823947195976e+00
1.999999999999661782e+01,2.999999999845331722e+00,1.000000000002082778e+01,6.600000000000372236e-01,1.570000000000284723e+00,2.869999999999962256e+03,-2.174999999999646327e+00,-4.945000000001469331e+00,1.341288216264709732e+01,-2.161857614326788912e+00
1.999999999999636557e+01,3.000000000923456422e+00,1.000000000000412470e+01,6.599999999999840439e-01,1.570000000000425500e+00,2.869999999999979991e+03,-2.174999999999533085e+00,-4.945000000002445439e+00,1.338990183622904873e+01,-2.148116618214651830e+00
1.999999999999762679e+01,3.000000000559629676e+00,9.999999999999884537e+00,6.599999999999459632e-01,1.570000000000470353e+00,2.869999999999965439e+03,-2.174999999999592148e+00,-4.945000000002112372e+00,1.340914794384523390e+01,-2.131068146978484457e+00
1.999999999999974420e+01,2.999999999764858316e+00,1.000000000002028067e+01,6.599999999999862643e-01,1.570000000000114415e+00,2.869999999999966349e+03,-2.174999999999902123e+00,-4.945000000000721485e+00,1.340936736523568484e+01,-2.161031305880315667e+00
1.999999999999855760e+01,3.000000000262987410e+00,1.000000000000320455e+01,6.599999999999169864e-01,1.570000000000229656e+00,2.869999999999967258e+03,-2.174999999999667200e+00,-4.945000000001301466e+00,1.342436068678665784e+01,-2.132334048851308062e+00
1.999999999999766231e+01,2.999999999977431830e+00,9.999999999967791098e+00,6.599999999999477396e-01,1.570000000000234541e+00,2.869999999999978172e+03,-2.174999999999791100e+00,-4.945000000001366303e+00,1.341323712479408670e+01,-2.159012185882609902e+00
1.999999999999839062e+01,3.000000000097672537e+00,1.000000000001295852e+01,6.599999999999386358e-01,1.570000000000248530e+00,2.869999999999971806e+03,-2.174999999999695621e+00,-4.945000000001431140e+00,1.340925897784420151e+01,-2.133413395576792659e+00
1.999999999999809575e+01,3.000000001004676786e+00,1.000000000001005240e+01,6.600000000000817435e-01,1.570000000000213447e+00,2.870000000000003183e+03,-2.174999999999680966e+00,-4.945000000001326335e+00,1.342171461477806993e+01,-2.124845007384388307e+00
1.999999999999807798e+01,3.000000001679556494e+00,1.000000000000163070e+01,6.599999999999313083e-01,1.570000000000342455e+00,2.869999999999958163e+03,-2.174999999999719158e+00,-4.945000000001768647e+00,1.338497334258275906e+01,-2.158567596505608588e+00
1.999999999999912959e+01,3.000000002369328733e+00,1.000000000002346923e+01,6.599999999999498490e-01,1.570000000000192353e+00,2.869999999999963165e+03,-2.174999999999838618e+00,-4.945000000001025242e+00,1.339160831672521468e+01,-2.153345878932638069e+00
2.000000000000415312e+01,2.999999998454411454e+00,1.000000000003507417e+01,6.599999999999927036e-01,1.569999999999786677e+00,2.870000000000016371e+03,-2.175000000000234301e+00,-4.944999999998418438e+00,1.341118518506900159e+01,-2.112808402053691914e+00
2.000000000000386891e+01,2.999999998363977127e+00,1.000000000003517542e+01,6.599999999999840439e-01,1.569999999999824647e+00,2.870000000000012733e+03,-2.175000000000190337e+00,-4.944999999998542783e+00,1.340892182090248141e+01,-2.112063431490847965e+00
2.000000000000227374e+01,3.000000000225197638e+00,1.000000000001284306e+01,6.600000000000025846e-01,1.569999999999964535e+00,2.869999999999991815e+03,-2.175000000000018918e+00,-4.944999999999608598e+00,1.342235949726733324e+01,-2.122421375128041632e+00
2.000000000000294875e+01,2.999999999861799882e+00,1.000000000001030109e+01,6.600000000000053602e-01,1.569999999999913465e+00,2.869999999999993634e+03,-2.175000000000074873e+00,-4.944999999999228457e+00,1.342168693951570901e+01,-2.122503804579242370e+00
2.000000000000130740e+01,2.999999999646075555e+00,1.000000000005566747e+01,6.599999999999802691e-01,1.570000000000003615e+00,2.870000000000010004e+03,-2.175000000000110845e+00,-4.944999999999551754e+00,1.339526106980163789e+01,-2.115809480353122218e+00
1.999999999999884537e+01,2.999999997983566757e+00,1.000000000000952838e+01,6.600000000000116884e-01,1.570000000000251861e+00,2.870000000000003183e+03,-2.174999999999794653e+00,-4.945000000001457785e+00,1.340080986232990590e+01,-2.122486428177051021e+00
1.999999999999836930e+01,2.999999998353340747e+00,9.999999999982438936e+00,6.600000000000812994e-01,1.570000000000262075e+00,2.869999999999976808e+03,-2.174999999999735589e+00,-4.945000000001667395e+00,1.338705884489878883e+01,-2.153762094475405231e+00
2.000000000000159517e+01,3.000000001364580449e+00,1.000000000006769341e+01,6.599999999999810463e-01,1.570000000000113749e+00,2.869999999999994088e+03,-2.174999999999871925e+00,-4.945000000000144169e+00,1.338666587681964160e+01,-2.156279380792726741e+00
2.000000000000155254e+01,3.000000003070224075e+00,1.000000000007735856e+01,6.600000000000079137e-01,1.570000000000028928e+00,2.870000000000003183e+03,-2.175000000000017142e+00,-4.944999999999780904e+00,1.336129485274319073e+01,-2.145261396520108388e+00
2.000000000000206057e+01,2.999999999771191028e+00,1.000000000005784528e+01,6.600000000000245670e-01,1.570000000000002727e+00,2.870000000000007276e+03,-2.175000000000003819e+00,-4.944999999999677875e+00,1.337693931549667781e+01,-2.145154844445120723e+00
2.000000000000308020e+01,2.999999999715214472e+00,1.000000000005084466e+01,6.600000000000036948e-01,1.569999999999964535e+00,2.870000000000001364e+03,-2.175000000000068656e+00,-4.944999999999339479e+00,1.337751964790804315e+01,-2.160053375270204246e+00
2.000000000000033751e+01,3.000000000705064007e+00,1.000000000007794831e+01,6.599999999999438538e-01,1.570000000000282725e+00,2.870000000000000455e+03,-2.174999999999791100e+00,-4.945000000000834284e+00,1.335877187113945119e+01,-2.129812475705186170e+00
2.000000000000046541e+01,2.999999999819638052e+00,1.000000000006491874e+01,6.599999999999803801e-01,1.570000000000177920e+00,2.870000000000000000e+03,-2.174999999999847056e+00,-4.945000000000552731e+00,1.337943204404126973e+01,-2.138113823338072539e+00
1.999999999999833378e+01,2.999999999276803830e+00,1.000000000003584510e+01,6.600000000000257883e-01,1.570000000000239426e+00,2.870000000000006821e+03,-2.174999999999811529e+00,-4.945000000001070539e+00,1.340442766775853656e+01,-2.120975049342746832e+00
1.999999999999666755e+01,2.999999999481532509e+00,9.999999999995170086e+00,6.600000000000543210e-01,1.570000000000343343e+00,2.869999999999990905e+03,-2.174999999999633005e+00,-4.945000000002260698e+00,1.340304388256520340e+01,-2.126659769443790093e+00
1.999999999999948130e+01,2.999999997991897427e+00,1.000000000005638690e+01,6.599999999999852651e-01,1.570000000000239870e+00,2.870000000000000455e+03,-2.174999999999841727e+00,-4.945000000000985274e+00,1.339394405449756320e+01,-2.129682759038001638e+00
2.000000000000092726e+01,2.999999999964469755e+00,1.000000000006108891e+01,6.599999999999270894e-01,1.570000000000069340e+00,2.869999999999995453e+03,-2.175000000000041567e+00,-4.944999999999791562e+00,1.340719006894837584e+01,-2.135688626314638405e+00
1.999999999999660005e+01,3.000000003434946549e+00,1.000000000003897149e+01,6.599999999998902300e-01,1.570000000000538964e+00,2.869999999999983629e+03,-2.174999999999520206e+00,-4.945000000002249152e+00,1.341802517413048257e+01,-2.121174144726405864e+00
1.999999999999652545e+01,3.000000003092655021e+00,1.000000000003570122e+01,6.599999999999093259e-01,1.570000000000550289e+00,2.869999999999984993e+03,-2.174999999999505107e+00,-4.945000000002442775e+00,1.342097920993803051e+01,-2.121338539649300969e+00
2.000000000000077804e+01,3.000000000299548386e+00,1.000000000003958611e+01,6.599999999999697220e-01,1.570000000000106199e+00,2.869999999999964984e+03,-2.174999999999823963e+00,-4.945000000000384865e+00,1.341923185511580918e+01,-2.139321136861209283e+00
2.000000000000246558e+01,3.000000000303503889e+00,1.000000000004749268e+01,6.599999999999350830e-01,1.570000000000074003e+00,2.869999999999978627e+03,-2.174999999999954525e+00,-4.944999999999533991e+00,1.340870988719824730e+01,-2.136675258317302095e+00
2.000000000000012790e+01,3.000000001169608410e+00,1.000000000003650413e+01,6.599999999999852651e-01,1.570000000000245866e+00,2.869999999999993179e+03,-2.174999999999816858e+00,-4.945000000000852047e+00,1.341152262228941083e+01,-2.113530154745788092e+00
1.999999999999994671e+01,3.000000001093751312e+00,1.000000000003749179e+01,6.599999999999957012e-01,1.570000000000241425e+00,2.869999999999994998e+03,-2.174999999999819522e+00,-4.945000000000872475e+00,1.341015194786417908e+01,-2.113575870970954007e+00
2.000000000000212452e+01,3.000000001993764265e+00,1.000000000006146195e+01,6.599999999999713873e-01,1.570000000000076446e+00,2.869999999999999545e+03,-2.174999999999899014e+00,-4.945000000000161045e+00,1.340423439531782890e+01,-2.118538482301136394e+00
1.999999999999898748e+01,3.000000003360878686e+00,1.000000000002936495e+01,6.599999999999709432e-01,1.570000000000326246e+00,2.869999999999996362e+03,-2.174999999999639666e+00,-4.945000000001637197e+00,1.341721542212212093e+01,-2.115360222313027894e+00
1.999999999999924682e+01,3.000000003147673233e+00,1.000000000002581757e+01,6.599999999999933697e-01,1.570000000000309592e+00,2.869999999999995907e+03,-2.174999999999661870e+00,-4.945000000001543938e+00,1.342057918264629457e+01,-2.112016718427796480e+00
1.999999999999894484e+01,3.000000004221273997e+00,1.000000000002842526e+01,6.600000000000092459e-01,1.570000000000360441e+00,2.869999999999996817e+03,-2.174999999999583711e+00,-4.945000000002065299e+00,1.341741786330197250e+01,-2.116419136596360495e+00
1.999999999999948841e+01,3.000000004204778747e+00,1.000000000002761347e+01,6.600000000000200151e-01,1.570000000000295381e+00,2.869999999999997272e+03,-2.174999999999641442e+00,-4.945000000001772200e+00,1.341755674422224942e+01,-2.119878756242393969e+00
1.999999999999644729e+01,3.000000002630492713e+00,1.000000000002120260e+01,6.599999999999952571e-01,1.570000000000503659e+00,2.869999999999971351e+03,-2.174999999999490008e+00,-4.945000000002900187e+00,1.340813207329962253e+01,-2.150314737198235626e+00
1.999999999999884892e+01,3.000000002427038126e+00,1.000000000003110046e+01,6.600000000000117995e-01,1.570000000000258522e+00,2.869999999999989996e+03,-2.174999999999805755e+00,-4.945000000000982610e+00,1.338920203139628740e+01,-2.125814203217015752e+00
1.999999999999693046e+01,3.000000002266651755e+00,1.000000000002118128e+01,6.599999999999174305e-01,1.570000000000465024e+00,2.869999999999987267e+03,-2.174999999999590372e+00,-4.945000000002283791e+00,1.338798467314001783e+01,-2.140703664316234711e+00
1.999999999999802824e+01,3.000000002123387244e+00,1.000000000001570477e+01,6.599999999999536238e-01,1.570000000000431495e+00,2.870000000000002274e+03,-2.174999999999702283e+00,-4.945000000002214513e+00,1.337643167582436909e+01,-2.132952203583306616e+00
2.000000000000013145e+01,3.000000000246281218e+00,1.000000000002502532e+01,6.599999999999615063e-01,1.570000000000167706e+00,2.870000000000019554e+03,-2.174999999999888356e+00,-4.945000000000716156e+00,1.339380004610573316e+01,-2.125634001963883080e+00
1.999999999999885603e+01,3.000000002939757326e+00,9.999999999986540544e+00,6.599999999999000000e-01,1.570000000000191687e+00,2.869999999999979536e+03,-2.174999999999887024e+00,-4.945000000000356444e+00,1.343185757099650779e+01,-2.140816832721372354e+00
2.000000000000082068e+01,3.000000001800072980e+00,1.000000000004132517e+01,6.599999999999582867e-01,1.570000000000036255e+00,2.870000000000016826e+03,-2.174999999999998490e+00,-4.945000000000242757e+00,1.339713901559161613e+01,-2.118880003641729015e+00
1.999999999999942446e+01,3.000000000844257553e+00,1.000000000003431033e+01,6.599999999999037748e-01,1.570000000000158602e+00,2.869999999999999545e+03,-2.174999999999927436e+00,-4.945000000000554508e+00,1.340949299736648292e+01,-2.120745156057548098e+00
1.999999999999831246e+01,3.000000002064823867e+00,1.000000000001553246e+01,6.599999999998787947e-01,1.570000000000305818e+00,2.869999999999998181e+03,-2.174999999999747136e+00,-4.945000000001783746e+00,1.340687316479022506e+01,-2.132967671386972963e+00
2.000000000000035882e+01,2.999999999684667795e+00,1.000000000004279421e+01,6.599999999999418554e-01,1.570000000000133955e+00,2.870000000000004093e+03,-2.174999999999841727e+00,-4.945000000000540297e+00,1.341183219356683765e+01,-2.120776543562586713e+00
1.999999999999558753e+01,3.000000000976982939e+00,9.999999999991429078e+00,6.599999999999363043e-01,1.570000000000523421e+00,2.869999999999969987e+03,-2.174999999999448264e+00,-4.945000000002864660e+00,1.340515951350526613e+01,-2.141296984670430170e+00
1.999999999999708322e+01,3.000000001587297849e+00,1.000000000004342127e+01,6.599999999999686118e-01,1.570000000000382645e+00,2.869999999999990905e+03,-2.174999999999572164e+00,-4.945000000001979146e+00,1.341512642363253782e+01,-2.126110842878847329e+00
2.000000000000052935e+01,2.999999996389969503e+00,1.000000000003572609e+01,6.599999999999698330e-01,1.570000000000278950e+00,2.869999999999993634e+03,-2.174999999999786215e+00,-4.945000000000974616e+00,1.339572266877904561e+01,-2.128652737459115318e+00
2.000000000000000711e+01,2.999999996481885756e+00,1.000000000000494182e+01,6.600000000000031397e-01,1.570000000000251639e+00,2.869999999999987267e+03,-2.174999999999835509e+00,-4.945000000001193996e+00,1.339458820452693821e+01,-2.135150476182623880e+00
2.000000000000053291e+01,2.999999997278796293e+00,9.999999999991752375e+00,6.600000000000079137e-01,1.570000000000151053e+00,2.869999999999989996e+03,-2.174999999999843947e+00,-4.945000000000725926e+00,1.338499164829767452e+01,-2.145459640217945552e+00
1.999999999999702638e+01,2.999999998344760055e+00,9.999999999988592236e+00,6.600000000000083578e-01,1.570000000000284279e+00,2.869999999999983174e+03,-2.174999999999772005e+00,-4.945000000001575913e+00,1.340946998451311956e+01,-2.138937605169033862e+00
1.999999999999579359e+01,2.999999997315091704e+00,1.000000000000238032e+01,6.600000000000096900e-01,1.570000000000452811e+00,2.869999999999963620e+03,-2.174999999999568168e+00,-4.945000000002288232e+00,1.341609963972268282e+01,-2.148661507369604262e+00
1.999999999999824851e+01,2.999999997704974941e+00,9.999999999996168398e+00,6.600000000000431077e-01,1.570000000000217666e+00,2.869999999999998636e+03,-2.174999999999693845e+00,-4.945000000001663842e+00,1.341197741252482523e+01,-2.131728581025445823e+00
1.999999999999615241e+01,2.999999999878646850e+00,1.000000000001659295e+01,6.599999999999752731e-01,1.570000000000564944e+00,2.869999999999969987e+03,-2.174999999999423839e+00,-4.945000000002885976e+00,1.339992227422933979e+01,-2.130824942090160601e+00
1.999999999999991473e+01,3.000000001920900328e+00,1.000000000001012523e+01,6.599999999999911493e-01,1.570000000000196350e+00,2.869999999999963165e+03,-2.174999999999785771e+00,-4.945000000000790763e+00,1.340497634417181594e+01,-2.137708006292484697e+00
1.999999999999569766e+01,2.999999997609606783e+00,9.999999999973333331e+00,6.600000000000195710e-01,1.570000000000277396e+00,2.869999999999977263e+03,-2.174999999999639222e+00,-4.945000000001955165e+00,1.340868031048638009e+01,-2.153267708407316849e+00
1.999999999999830536e+01,3.000000001916037107e+00,1.000000000002440359e+01,6.599999999999156541e-01,1.570000000000420615e+00,2.869999999999963620e+03,-2.174999999999593925e+00,-4.945000000002099050e+00,1.340045687096194982e+01,-2.150108582254308232e+00
1.999999999999570122e+01,3.000000001604779420e+00,1.000000000001195488e+01,6.599999999999657252e-01,1.570000000000568718e+00,2.869999999999955890e+03,-2.174999999999301270e+00,-4.945000000003225260e+00,1.342891475004013202e+01,-2.134712098140075121e+00
1.999999999999750955e+01,3.000000001419765194e+00,1.000000000000449241e+01,6.600000000000163514e-01,1.570000000000353335e+00,2.869999999999952706e+03,-2.174999999999676970e+00,-4.945000000001759766e+00,1.339382719981700731e+01,-2.145157896764160910e+00
