1.999999999999740652e+01,2.999999998827118208e+00,1.000000000000835243e+01,6.599999999999508482e-01,1.570000000000375096e+00,2.869999999999979536e+03,-2.174999999999613909e+00,-4.945000000002250040e+00,1.343907618006048033e+01,-2.144703099119999123e+00
1.999999999999857536e+01,2.999999996231789368e+00,9.999999999998712141e+00,6.599999999999449640e-01,1.570000000000229656e+00,2.869999999999997272e+03,-2.174999999999771116e+00,-4.945000000001433804e+00,1.344010386378588073e+01,-2.159936338709002701e+00
1.999999999999801759e+01,3.000000000241068498e+00,1.000000000000240163e+01,6.599999999999687228e-01,1.570000000000304041e+00,2.869999999999978627e+03,-2.174999999999725375e+00,-4.945000000001585683e+00,1.342256658365896982e+01,-2.148465901762126151e+00
1.999999999999991473e+01,2.999999999500598591e+00,9.999999999993438138e+00,6.599999999999500711e-01,1.570000000000116414e+00,2.869999999999983629e+03,-2.174999999999855049e+00,-4.945000000000296936e+00,1.341360538932900504e+01,-2.184915907540062818e+00
2.000000000000148148e+01,3.000000000084837914e+00,1.000000000000047429e+01,6.599999999999475175e-01,1.569999999999898366e+00,2.869999999999987722e+03,-2.175000000000077094e+00,-4.944999999999037499e+00,1.340064182655448199e+01,-2.179696567506569149e+00
2.000000000000038014e+01,3.000000000510747444e+00,9.999999999990413002e+00,6.599999999999043299e-01,1.570000000000134843e+00,2.869999999999973625e+03,-2.174999999999846612e+00,-4.945000000000400853e+00,1.340637723870767140e+01,-2.193709413840374989e+00
1.999999999999995026e+01,3.000000000917871557e+00,9.999999999977724485e+00,6.599999999999369704e-01,1.570000000000091323e+00,2.869999999999971351e+03,-2.174999999999914557e+00,-4.945000000000312035e+00,1.339505922284783956e+01,-2.188343919869997212e+00
2.000000000000013856e+01,2.999999998855073624e+00,1.000000000000940581e+01,6.599999999999301981e-01,1.570000000000122409e+00,2.869999999999982720e+03,-2.174999999999837730e+00,-4.945000000000282725e+00,1.344723096864580825e+01,-2.149446140398939331e+00
1.999999999999791811e+01,2.999999999144464358e+00,9.999999999952944307e+00,6.599999999999465183e-01,1.570000000000305596e+00,2.869999999999980446e+03,-2.174999999999656985e+00,-4.945000000001888552e+00,1.345396743925633309e+01,-2.148088616616602664e+00
1.999999999999860734e+01,2.999999999236887760e+00,9.999999999970334841e+00,6.599999999999626166e-01,1.570000000000254303e+00,2.869999999999984993e+03,-2.174999999999723599e+00,-4.945000000001493312e+00,1.344050494084285319e+01,-2.157774715828354228e+00
1.999999999999653966e+01,3.000000000637419451e+00,9.999999999990611954e+00,6.599999999999712763e-01,1.570000000000529861e+00,2.869999999999988177e+03,-2.174999999999459810e+00,-4.945000000002823803e+00,1.342881157769118872e+01,-2.125040833106075056e+00
1.999999999999871392e+01,3.000000000873537687e+00,1.000000000000429878e+01,6.599999999999572875e-01,1.570000000000267626e+00,2.869999999999982265e+03,-2.174999999999750688e+00,-4.945000000001474660e+00,1.339029559006684345e+01,-2.190225405526469160e+00
1.999999999999912248e+01,2.999999999370467574e+00,1.000000000001317169e+01,6.599999999999897060e-01,1.570000000000217000e+00,2.869999999999997726e+03,-2.174999999999811529e+00,-4.945000000001310347e+00,1.338634622339511715e+01,-2.181674286564071696e+00
1.999999999999853628e+01,2.999999999584280097e+00,1.000000000002679634e+01,6.599999999999420774e-01,1.570000000000317808e+00,2.869999999999989086e+03,-2.174999999999661870e+00,-4.945000000002110596e+00,1.343447790544793108e+01,-2.170240266722607281e+00
1.999999999999923972e+01,3.000000000214305018e+00,1.000000000001304556e+01,6.599999999999367484e-01,1.570000000000223217e+00,2.869999999999982720e+03,-2.174999999999772005e+00,-4.945000000001444462e+00,1.340045376937169941e+01,-2.189601447707578696e+00
1.999999999999823075e+01,3.000000000408067358e+00,9.999999999968769870e+00,6.600000000000322276e-01,1.570000000000194795e+00,2.869999999999991815e+03,-2.174999999999847056e+00,-4.945000000001280149e+00,1.343050393556677236e+01,-2.119379869627471269e+00
1.999999999999825917e+01,3.000000000439321468e+00,9.999999999994582112e+00,6.599999999999927036e-01,1.570000000000196128e+00,2.869999999999978627e+03,-2.174999999999807532e+00,-4.945000000001163798e+00,1.339730758077775796e+01,-2.157879382519440892e+00
1.999999999999828404e+01,3.000000001091133406e+00,9.999999999984567012e+00,6.599999999999719424e-01,1.570000000000174589e+00,2.869999999999973625e+03,-2.174999999999821299e+00,-4.945000000000934648e+00,1.338708219727672422e+01,-2.164475051391503868e+00
1.999999999999945643e+01,3.000000000442492265e+00,9.999999999997774225e+00,6.599999999999762723e-01,1.570000000000102869e+00,2.869999999999971806e+03,-2.174999999999915001e+00,-4.945000000000332463e+00,1.337528835838726415e+01,-2.158262736756817013e+00
2.000000000000002842e+01,2.999999999834632725e+00,1.000000000001071854e+01,6.599999999999949241e-01,1.570000000000044249e+00,2.869999999999981355e+03,-2.174999999999992717e+00,-4.945000000000068674e+00,1.337394645059542597e+01,-2.150458108876674768e+00
1.999999999999731770e+01,3.000000001399414806e+00,9.999999999953114838e+00,6.600000000000234568e-01,1.570000000000172369e+00,2.869999999999987267e+03,-2.174999999999852829e+00,-4.945000000001463114e+00,1.339423693055390707e+01,-2.169375604060903129e+00
1.999999999999669953e+01,3.000000000932514954e+00,9.999999999965279329e+00,6.600000000000205702e-01,1.570000000000284501e+00,2.869999999999984539e+03,-2.174999999999772449e+00,-4.945000000002064411e+00,1.338513324372519797e+01,-2.163513613502403121e+00
1.999999999999859668e+01,3.000000000646790177e+00,9.999999999968659736e+00,6.600000000000139089e-01,1.570000000000099760e+00,2.869999999999982720e+03,-2.174999999999967404e+00,-4.945000000000745466e+00,1.338289068455800113e+01,-2.171651970194858450e+00
1.999999999999887379e+01,3.000000001260957561e+00,9.999999999959662489e+00,6.600000000000336708e-01,1.570000000000024265e+00,2.869999999999984539e+03,-2.175000000000026024e+00,-4.945000000000485230e+00,1.338547658599070722e+01,-2.182158785644838783e+00
1.999999999999846523e+01,2.999999997481635372e+00,9.999999999991317168e+00,6.599999999999813793e-01,1.570000000000248308e+00,2.869999999999975898e+03,-2.174999999999750244e+00,-4.945000000001347651e+00,1.337253541615737440e+01,-2.164911732629611230e+00
1.999999999999878142e+01,2.999999998223215059e+00,9.999999999982435384e+00,6.599999999999985878e-01,1.570000000000176588e+00,2.869999999999980901e+03,-2.174999999999839062e+00,-4.945000000001103402e+00,1.335252276291982199e+01,-2.184008775974163097e+00
2.000000000000018119e+01,2.999999997747914371e+00,1.000000000000452971e+01,6.599999999999902611e-01,1.570000000000045137e+00,2.869999999999983629e+03,-2.174999999999989608e+00,-4.945000000000186802e+00,1.336681184068688744e+01,-2.163275623379199875e+00
1.999999999999994671e+01,2.999999998499820020e+00,1.000000000001212186e+01,6.600000000000040279e-01,1.570000000000073115e+00,2.869999999999988631e+03,-2.174999999999970512e+00,-4.945000000000357332e+00,1.336466657832396088e+01,-2.140581730186085441e+00
1.999999999999806732e+01,2.999999998070587370e+00,9.999999999991491251e+00,6.600000000000209033e-01,1.570000000000233875e+00,2.869999999999988631e+03,-2.174999999999825295e+00,-4.945000000001495977e+00,1.340389110913668880e+01,-2.118360524200677997e+00
1.999999999999942091e+01,2.999999997112814398e+00,9.999999999978008702e+00,6.599999999999888178e-01,1.570000000000109974e+00,2.869999999999986358e+03,-2.174999999999948752e+00,-4.945000000000709939e+00,1.337374766994924791e+01,-2.159207912923429173e+00
1.999999999999984368e+01,2.999999997179793265e+00,9.999999999993617550e+00,6.599999999999919265e-01,1.570000000000081330e+00,2.869999999999984539e+03,-2.174999999999930544e+00,-4.945000000000507434e+00,1.336785063919950645e+01,-2.177816646575707171e+00
1.999999999999851497e+01,2.999999999355035030e+00,1.000000000001328537e+01,6.600000000000109113e-01,1.570000000000358886e+00,2.870000000000004547e+03,-2.174999999999664091e+00,-4.945000000001635421e+00,1.340506099832502862e+01,-2.154219546181479039e+00
1.999999999999714362e+01,3.000000000420430357e+00,1.000000000001646860e+01,6.599999999999979217e-01,1.570000000000509432e+00,2.869999999999996817e+03,-2.174999999999470912e+00,-4.945000000002777618e+00,1.339316586238876994e+01,-2.180355798756536956e+00
1.999999999999864642e+01,2.999999998918681410e+00,1.000000000003651479e+01,6.599999999999147660e-01,1.570000000000357110e+00,2.869999999999995907e+03,-2.174999999999554401e+00,-4.945000000002157670e+00,1.344022432573799364e+01,-2.149330169459795048e+00
1.999999999999796785e+01,2.999999997006614905e+00,1.000000000003888445e+01,6.599999999999254241e-01,1.570000000000446372e+00,2.870000000000005002e+03,-2.174999999999471356e+00,-4.945000000002782059e+00,1.341412265609040944e+01,-2.170932392252601151e+00
1.999999999999576517e+01,2.999999998565820114e+00,1.000000000002229505e+01,6.599999999999385247e-01,1.570000000000651541e+00,2.869999999999997726e+03,-2.174999999999225775e+00,-4.945000000003745733e+00,1.342086280697845879e+01,-2.172128782681478132e+00
1.999999999999702283e+01,3.000000000174686043e+00,1.000000000002897593e+01,6.599999999999212053e-01,1.570000000000537410e+00,2.869999999999988177e+03,-2.174999999999395861e+00,-4.945000000003206608e+00,1.341938672102152807e+01,-2.157958738259585729e+00
1.999999999999704059e+01,2.999999999219599367e+00,1.000000000002843947e+01,6.599999999998925615e-01,1.570000000000645324e+00,2.869999999999998181e+03,-2.174999999999321254e+00,-4.945000000003795471e+00,1.343953635326785978e+01,-2.128967441315853915e+00
1.999999999999852207e+01,3.000000001239873093e+00,9.999999999995972999e+00,6.599999999999861533e-01,1.570000000000220108e+00,2.870000000000001819e+03,-2.174999999999709832e+00,-4.945000000001178897e+00,1.340506256969365673e+01,-2.205669488068982442e+00
1.999999999999844746e+01,3.000000002062161997e+00,9.999999999985476506e+00,6.599999999999975886e-01,1.570000000000166374e+00,2.869999999999994998e+03,-2.174999999999805755e+00,-4.945000000000956852e+00,1.341027491080995127e+01,-2.200747025288438685e+00
1.999999999999777600e+01,3.000000000903171316e+00,9.999999999966389552e+00,6.599999999999921485e-01,1.570000000000269846e+00,2.869999999999996817e+03,-2.174999999999697842e+00,-4.945000000001742002e+00,1.341810790610548842e+01,-2.187267952537544691e+00
1.999999999999923972e+01,3.000000003259130299e+00,1.000000000001354650e+01,6.600000000000374456e-01,1.569999999999877494e+00,2.869999999999988177e+03,-2.175000000000065103e+00,-4.944999999999359908e+00,1.342278732074965752e+01,-2.141137627307904356e+00
1.999999999999888445e+01,3.000000003740996402e+00,1.000000000003421974e+01,6.600000000000266764e-01,1.569999999999974749e+00,2.869999999999980901e+03,-2.174999999999992717e+00,-4.944999999999831530e+00,1.340515172503878105e+01,-2.136557435335010968e+00
1.999999999999981881e+01,3.000000003482563571e+00,1.000000000002424017e+01,6.600000000000048050e-01,1.569999999999983631e+00,2.869999999999994088e+03,-2.175000000000072653e+00,-4.944999999999943441e+00,1.338910002695025447e+01,-2.128245510317420042e+00
2.000000000000034461e+01,3.000000003073050703e+00,1.000000000002521183e+01,6.600000000000020295e-01,1.569999999999928342e+00,2.870000000000000455e+03,-2.175000000000123279e+00,-4.944999999999646789e+00,1.338208243142461562e+01,-2.138031115789266856e+00
1.999999999999915445e+01,3.000000002838330460e+00,1.000000000002527578e+01,6.600000000000101341e-01,1.570000000000022489e+00,2.869999999999986812e+03,-2.174999999999989608e+00,-4.945000000000264073e+00,1.340274218790266403e+01,-2.138736270603781797e+00
1.999999999999902300e+01,3.000000003052821107e+00,1.000000000002596856e+01,6.599999999999964784e-01,1.570000000000040474e+00,2.869999999999989086e+03,-2.174999999999992273e+00,-4.945000000000360885e+00,1.340247672547594604e+01,-2.129806325257598942e+00
1.999999999999742428e+01,3.000000000631268371e+00,1.000000000001155165e+01,6.600000000000217915e-01,1.570000000000213669e+00,2.869999999999995453e+03,-2.174999999999730260e+00,-4.945000000001422258e+00,1.340369504780181487e+01,-2.161899406698292836e+00
1.999999999999815259e+01,3.000000001398694049e+00,1.000000000002034284e+01,6.600000000000262323e-01,1.570000000000121076e+00,2.869999999999999545e+03,-2.174999999999814193e+00,-4.945000000000973728e+00,1.341551199008704209e+01,-2.146270789587487293e+00
1.999999999999637623e+01,3.000000001072798739e+00,1.000000000001656986e+01,6.600000000000229017e-01,1.570000000000319362e+00,2.869999999999990905e+03,-2.174999999999556177e+00,-4.945000000002151452e+00,1.342864379477821402e+01,-2.136465185442850245e+00
1.999999999999906564e+01,3.000000001288055884e+00,1.000000000001697487e+01,6.600000000000165734e-01,1.569999999999916573e+00,2.870000000000002274e+03,-2.174999999999953193e+00,-4.945000000000355556e+00,1.342983296963825168e+01,-2.183634679370320963e+00
1.999999999999753086e+01,3.000000000565569369e+00,1.000000000000468425e+01,6.599999999999883737e-01,1.570000000000340012e+00,2.869999999999985903e+03,-2.174999999999688516e+00,-4.945000000001858353e+00,1.341699615702556692e+01,-2.122047516202847817e+00
1.999999999999929656e+01,2.999999997711066957e+00,9.999999999984069632e+00,6.599999999999826006e-01,1.570000000000147500e+00,2.869999999999999091e+03,-2.174999999999886136e+00,-4.945000000001207319e+00,1.338519358275210713e+01,-2.174125421235470146e+00
2.000000000000062528e+01,2.999999998382763877e+00,9.999999999981559640e+00,6.599999999999763833e-01,1.569999999999998508e+00,2.869999999999999545e+03,-2.175000000000037570e+00,-4.945000000000320917e+00,1.342952173142862549e+01,-2.146014292484815122e+00
1.999999999999980460e+01,2.999999999540718942e+00,9.999999999957912777e+00,6.599999999999858202e-01,1.570000000000060014e+00,2.869999999999996362e+03,-2.174999999999949640e+00,-4.945000000000512763e+00,1.339335066240662897e+01,-2.190830560185325737e+00
1.999999999999953815e+01,2.999999998777875820e+00,9.999999999970482278e+00,6.599999999999911493e-01,1.570000000000102647e+00,2.869999999999999091e+03,-2.174999999999903899e+00,-4.945000000000860929e+00,1.340218475249252528e+01,-2.191971455242505140e+00
2.000000000000092371e+01,2.999999995662871122e+00,9.999999999978651744e+00,6.599999999999813793e-01,1.569999999999976970e+00,2.870000000000008185e+03,-2.175000000000043787e+00,-4.945000000000208118e+00,1.340378641463871467e+01,-2.159896673984555537e+00
2.000000000000070699e+01,2.999999996841855143e+00,9.999999999984533261e+00,6.599999999999706102e-01,1.569999999999998508e+00,2.869999999999998181e+03,-2.175000000000031353e+00,-4.945000000000234763e+00,1.338347477360781923e+01,-2.175298735659217719e+00
1.999999999999924327e+01,2.999999998586938776e+00,9.999999999991516120e+00,6.599999999999611733e-01,1.570000000000127294e+00,2.869999999999990450e+03,-2.174999999999819078e+00,-4.945000000000942642e+00,1.340923748568176954e+01,-2.177031348799829402e+00
1.999999999999839062e+01,2.999999997951807718e+00,9.999999999999063860e+00,6.599999999999516254e-01,1.570000000000320695e+00,2.869999999999999091e+03,-2.174999999999728928e+00,-4.945000000001845919e+00,1.338287832593436733e+01,-2.150082703539673901e+00
1.999999999999907274e+01,2.999999997691608300e+00,1.000000000000283862e+01,6.599999999999734968e-01,1.570000000000233209e+00,2.870000000000005457e+03,-2.174999999999840394e+00,-4.945000000001360085e+00,1.337596708103770204e+01,-2.144775467014649273e+00
1.999999999999782574e+01,2.999999997909338578e+00,1.000000000000330402e+01,6.599999999999592859e-01,1.570000000000348672e+00,2.870000000000000000e+03,-2.174999999999680078e+00,-4.945000000002008456e+00,1.339539065230796844e+01,-2.140013087044689399e+00
1.999999999999747757e+01,2.999999997957435660e+00,9.999999999971608489e+00,6.599999999999583977e-01,1.570000000000469242e+00,2.870000000000000000e+03,-2.174999999999614797e+00,-4.945000000002674589e+00,1.338997026281355751e+01,-2.144398237891639525e+00
1.999999999999743849e+01,2.999999999251250049e+00,9.999999999962570385e+00,6.599999999999602851e-01,1.570000000000448814e+00,2.869999999999997272e+03,-2.174999999999617906e+00,-4.945000000002576002e+00,1.338122265922675069e+01,-2.162175793139492264e+00
1.999999999999830891e+01,2.999999997988358036e+00,9.999999999994960476e+00,6.599999999999637268e-01,1.570000000000310703e+00,2.870000000000003638e+03,-2.174999999999754241e+00,-4.945000000001873453e+00,1.337729060462828024e+01,-2.163224117799371626e+00
1.999999999999790035e+01,2.999999998828448700e+00,9.999999999988975929e+00,6.599999999999792699e-01,1.570000000000340235e+00,2.870000000000000000e+03,-2.174999999999696954e+00,-4.945000000002044871e+00,1.338918019982243734e+01,-2.153019994680848370e+00
1.999999999999808509e+01,2.999999998982947336e+00,9.999999999976090237e+00,6.600000000000334488e-01,1.570000000000133955e+00,2.869999999999993179e+03,-2.174999999999809308e+00,-4.945000000001074092e+00,1.342941812960480163e+01,-2.164493142808234349e+00
1.999999999999632649e+01,2.999999998438783066e+00,9.999999999971327824e+00,6.600000000000512124e-01,1.570000000000296492e+00,2.869999999999985903e+03,-2.174999999999688960e+00,-4.945000000002107043e+00,1.345501862960240658e+01,-2.140815284863526013e+00
1.999999999999814193e+01,2.999999998985634964e+00,9.999999999968823161e+00,6.600000000000326716e-01,1.570000000000198126e+00,2.869999999999987267e+03,-2.174999999999874589e+00,-4.945000000001242846e+00,1.343328958310794086e+01,-2.136117365013266767e+00
1.999999999999536726e+01,2.999999998244097910e+00,9.999999999944966689e+00,6.600000000000086908e-01,1.570000000000487672e+00,2.869999999999981355e+03,-2.174999999999518874e+00,-4.945000000003210161e+00,1.341294143944854866e+01,-2.171575223696045498e+00
1.999999999999774047e+01,2.999999999172785259e+00,9.999999999987711163e+00,6.599999999999771605e-01,1.570000000000272955e+00,2.869999999999988631e+03,-2.174999999999664979e+00,-4.945000000001642526e+00,1.347241198997740419e+01,-2.122652494375603993e+00
2.000000000000028066e+01,3.000000001593736698e+00,1.000000000001732303e+01,6.599999999999439648e-01,1.570000000000102647e+00,2.869999999999984084e+03,-2.174999999999807532e+00,-4.945000000000657536e+00,1.339419636956082016e+01,-2.215427541042831017e+00
1.999999999999992895e+01,3.000000002433564461e+00,1.000000000000379075e+01,6.599999999999633937e-01,1.570000000000110640e+00,2.869999999999979991e+03,-2.174999999999832845e+00,-4.945000000000836060e+00,1.339095608316235975e+01,-2.204122190824806093e+00
2.000000000000043698e+01,3.000000000857165006e+00,9.999999999984190424e+00,6.600000000000257883e-01,1.569999999999946549e+00,2.869999999999999545e+03,-2.175000000000056666e+00,-4.945000000000230322e+00,1.336666597884371832e+01,-2.235798150090450243e+00
2.000000000000087752e+01,3.000000002209667116e+00,1.000000000000788880e+01,6.599999999999838218e-01,1.569999999999948548e+00,2.869999999999988177e+03,-2.175000000000031797e+00,-4.944999999999991402e+00,1.336822293106685500e+01,-2.229584920642411205e+00
1.999999999999814548e+01,3.000000002495951001e+00,1.000000000003538858e+01,6.599999999999938138e-01,1.570000000000246976e+00,2.869999999999978627e+03,-2.174999999999697398e+00,-4.945000000001004814e+00,1.345475258971354116e+01,-2.134279851357125501e+00
1.999999999999898748e+01,3.000000002765597529e+00,1.000000000001544365e+01,6.599999999999838218e-01,1.570000000000222107e+00,2.869999999999999545e+03,-2.174999999999737810e+00,-4.945000000001243734e+00,1.342289109209825604e+01,-2.150028039606652452e+00
2.000000000000106937e+01,2.999999999518348837e+00,1.000000000004677325e+01,6.599999999999408562e-01,1.569999999999997842e+00,2.869999999999997272e+03,-2.174999999999900346e+00,-4.944999999999857287e+00,1.341959910331460115e+01,-2.198237702470195565e+00
1.999999999999652545e+01,3.000000003760893819e+00,9.999999999974070519e+00,6.599999999999557332e-01,1.570000000000479012e+00,2.869999999999970441e+03,-2.174999999999513989e+00,-4.945000000002670149e+00,1.344071638444554040e+01,-2.155349963200913432e+00
1.999999999999652900e+01,3.000000003078298505e+00,9.999999999964558128e+00,6.599999999999737188e-01,1.570000000000468132e+00,2.869999999999975898e+03,-2.174999999999542855e+00,-4.945000000002718110e+00,1.344064285781065138e+01,-2.152776033017055557e+00
1.999999999999662137e+01,3.000000004045851210e+00,9.999999999963657515e+00,6.599999999999676126e-01,1.570000000000463691e+00,2.869999999999973625e+03,-2.174999999999543743e+00,-4.945000000002587548e+00,1.343424203616493173e+01,-2.133888245345234580e+00
1.999999999999555911e+01,3.000000004109433238e+00,9.999999999973304909e+00,6.599999999999294209e-01,1.570000000000609131e+00,2.869999999999963165e+03,-2.174999999999350120e+00,-4.945000000003182627e+00,1.343036593868873041e+01,-2.151053713612589124e+00
1.999999999999709033e+01,3.000000003712895325e+00,9.999999999980904164e+00,6.599999999999961453e-01,1.570000000000357776e+00,2.869999999999976353e+03,-2.174999999999680522e+00,-4.945000000002209184e+00,1.343883769356385827e+01,-2.154211217198596096e+00
1.999999999999653255e+01,3.000000003176260588e+00,9.999999999989638511e+00,6.599999999999310862e-01,1.570000000000574936e+00,2.869999999999969532e+03,-2.174999999999466915e+00,-4.945000000003296314e+00,1.343433478934379899e+01,-2.151909104267137884e+00
1.999999999999624478e+01,3.000000004555331223e+00,9.999999999989729105e+00,6.599999999999724976e-01,1.570000000000555618e+00,2.869999999999984539e+03,-2.174999999999450928e+00,-4.945000000003352270e+00,1.343631134793749560e+01,-2.152520914543364139e+00
1.999999999999711875e+01,2.999999999129421280e+00,1.000000000002057554e+01,6.600000000000003642e-01,1.570000000000431273e+00,2.869999999999994543e+03,-2.174999999999508660e+00,-4.945000000002294449e+00,1.354162943196287117e+01,-2.013793631318220534e+00
1.999999999999806022e+01,2.999999997787950345e+00,1.000000000002924594e+01,6.600000000000240119e-01,1.570000000000338458e+00,2.870000000000002274e+03,-2.174999999999681410e+00,-4.945000000002145235e+00,1.354589100874554752e+01,-2.022044730682068359e+00
1.999999999999730704e+01,2.999999998654730771e+00,1.000000000002920153e+01,6.599999999999659472e-01,1.570000000000486784e+00,2.869999999999999091e+03,-2.174999999999498446e+00,-4.945000000003018314e+00,1.357566064380695536e+01,-2.005509235557976666e+00
1.999999999999710809e+01,2.999999999127243466e+00,9.999999999992501998e+00,6.600000000000314504e-01,1.570000000000339790e+00,2.870000000000000000e+03,-2.174999999999684963e+00,-4.945000000002232277e+00,1.354037864378439693e+01,-2.030192046851358345e+00
1.999999999999856470e+01,2.999999996384349554e+00,1.000000000001041300e+01,6.600000000000136868e-01,1.570000000000180140e+00,2.869999999999998636e+03,-2.174999999999879918e+00,-4.945000000001319229e+00,1.354419623887596380e+01,-2.024003969645566503e+00
1.999999999999969091e+01,3.000000002257927179e+00,9.999999999971583620e+00,6.599999999999762723e-01,1.570000000000064677e+00,2.869999999999961801e+03,-2.174999999999993161e+00,-4.944999999999962981e+00,1.338110564575946348e+01,-2.181913276941854107e+00
1.999999999999893774e+01,3.000000001903267322e+00,9.999999999969649167e+00,6.599999999999828226e-01,1.570000000000188134e+00,2.869999999999957254e+03,-2.174999999999865263e+00,-4.945000000000539409e+00,1.338457341529924172e+01,-2.176282098882979632e+00
1.999999999999870326e+01,3.000000002185749359e+00,9.999999999966254549e+00,6.599999999999514033e-01,1.570000000000255413e+00,2.869999999999956344e+03,-2.174999999999797762e+00,-4.945000000000987050e+00,1.340700588658744152e+01,-2.175436613988134038e+00
1.999999999999891287e+01,3.000000001752564760e+00,9.999999999976694198e+00,6.599999999999962563e-01,1.570000000000129514e+00,2.869999999999964984e+03,-2.174999999999909672e+00,-4.945000000000587370e+00,1.338922886306412074e+01,-2.187668243028583870e+00
1.999999999999875655e+01,3.000000001677710415e+00,1.000000000000011902e+01,6.599999999999917044e-01,1.570000000000193463e+00,2.869999999999962711e+03,-2.174999999999837286e+00,-4.945000000000852936e+00,1.337654664901278778e+01,-2.190164000788827003e+00
1.999999999999896261e+01,2.999999999083768021e+00,1.000000000003731593e+01,6.599999999999766054e-01,1.570000000000194351e+00,2.869999999999999091e+03,-2.174999999999781330e+00,-4.945000000001540386e+00,1.344214174269477269e+01,-2.140936910825365747e+00
1.999999999999871392e+01,3.000000001742858746e+00,1.000000000004458478e+01,6.599999999999682787e-01,1.570000000000180140e+00,2.869999999999991360e+03,-2.174999999999707612e+00,-4.945000000001254392e+00,1.342647962090528324e+01,-2.150553317367853268e+00
1.999999999999859668e+01,3.000000000003089529e+00,1.000000000003749179e+01,6.599999999999852651e-01,1.570000000000179696e+00,2.869999999999996362e+03,-2.174999999999746247e+00,-4.945000000001336993e+00,1.343150916178121079e+01,-2.155629951445874326e+00
2.000000000000051514e+01,3.000000000030814906e+00,1.000000000004038547e+01,6.599999999999819345e-01,1.569999999999971863e+00,2.870000000000001364e+03,-2.174999999999924771e+00,-4.945000000000001172e+00,1.341620863654969220e+01,-2.175496088517124615e+00
2.000000000000002132e+01,2.999999997647423644e+00,1.000000000004525447e+01,6.599999999999714984e-01,1.570000000000097096e+00,2.870000000000006366e+03,-2.174999999999860378e+00,-4.945000000000834284e+00,1.343685700774247849e+01,-2.165641475202842781e+00
1.999999999999925393e+01,2.999999999932468686e+00,1.000000000005233680e+01,6.599999999999734968e-01,1.570000000000190132e+00,2.869999999999997272e+03,-2.174999999999761791e+00,-4.945000000001204654e+00,1.342745937459219974e+01,-2.147352482150001407e+00
1.999999999999888090e+01,2.999999999461856248e+00,1.000000000001958966e+01,6.599999999999527356e-01,1.570000000000260965e+00,2.869999999999973170e+03,-2.174999999999782663e+00,-4.945000000001482654e+00,1.341162818611232588e+01,-2.157958222993656250e+00
2.000000000000035882e+01,2.999999999024463015e+00,1.000000000002232170e+01,6.599999999999514033e-01,1.570000000000115969e+00,2.869999999999980901e+03,-2.174999999999929212e+00,-4.945000000000780993e+00,1.340654723597046249e+01,-2.164809577864024170e+00
1.999999999999873523e+01,2.999999999913218751e+00,9.999999999989753974e+00,6.599999999999570655e-01,1.570000000000180362e+00,2.869999999999982265e+03,-2.174999999999810196e+00,-4.945000000001415152e+00,1.344030174705959979e+01,-2.155209251698425366e+00
2.000000000000366640e+01,2.999999997320283551e+00,1.000000000003557687e+01,6.600000000000176836e-01,1.569999999999611040e+00,2.869999999999986812e+03,-2.175000000000377742e+00,-4.944999999997231832e+00,1.339022539864549799e+01,-2.175304339821374722e+00
2.000000000000510170e+01,2.999999997013257591e+00,1.000000000002275158e+01,6.599999999999984768e-01,1.569999999999534879e+00,2.869999999999991815e+03,-2.175000000000519851e+00,-4.944999999996727347e+00,1.338294977556848764e+01,-2.172645161486354670e+00
2.000000000000505551e+01,2.999999997292669640e+00,1.000000000002741807e+01,6.599999999999844880e-01,1.569999999999537321e+00,2.869999999999990450e+03,-2.175000000000469225e+00,-4.944999999996846363e+00,1.338754671621224546e+01,-2.187011775958727533e+00
2.000000000000544986e+01,2.999999996526104162e+00,1.000000000004892264e+01,6.599999999999895950e-01,1.569999999999578622e+00,2.870000000000007731e+03,-2.175000000000506972e+00,-4.944999999997109263e+00,1.341151287146407256e+01,-2.148443845366708072e+00
2.000000000000276756e+01,2.999999995944925946e+00,1.000000000004697576e+01,6.600000000000079137e-01,1.569999999999860618e+00,2.869999999999999545e+03,-2.175000000000193445e+00,-4.944999999998537454e+00,1.340575596461312990e+01,-2.130465169741412534e+00
2.000000000000003553e+01,2.999999998547088875e+00,9.999999999991297628e+00,6.599999999999561773e-01,1.570000000000226992e+00,2.869999999999999091e+03,-2.174999999999852829e+00,-4.945000000000957741e+00,1.341590594418220306e+01,-2.150738178971823622e+00
1.999999999999841194e+01,2.999999999882742685e+00,1.000000000005225509e+01,6.599999999999508482e-01,1.570000000000382867e+00,2.869999999999985448e+03,-2.174999999999642331e+00,-4.945000000001641638e+00,1.340283527822595566e+01,-2.140413266477251497e+00
1.999999999999996092e+01,2.999999999721999711e+00,1.000000000005082867e+01,6.599999999999482947e-01,1.570000000000268292e+00,2.869999999999996817e+03,-2.174999999999775113e+00,-4.945000000000806750e+00,1.339291895623155781e+01,-2.127245662863035403e+00
1.999999999999998934e+01,2.999999999657784855e+00,1.000000000004558132e+01,6.599999999999544009e-01,1.570000000000238094e+00,2.869999999999993634e+03,-2.174999999999790656e+00,-4.945000000000748130e+00,1.338994848365095791e+01,-2.136738413157178940e+00
2.000000000000008171e+01,3.000000000562919045e+00,1.000000000002983569e+01,6.599999999999478506e-01,1.570000000000256968e+00,2.869999999999996817e+03,-2.174999999999820854e+00,-4.945000000000895568e+00,1.338610019880782254e+01,-2.131275117234584293e+00
2.000000000000139977e+01,2.999999999408260898e+00,1.000000000004248868e+01,6.600000000000108002e-01,1.569999999999882156e+00,2.870000000000009095e+03,-2.175000000000093081e+00,-4.944999999999213358e+00,1.342596887776184111e+01,-2.108794790158705190e+00
2.000000000000024869e+01,3.000000000021600943e+00,1.000000000003207212e+01,6.599999999999909273e-01,1.570000000000011386e+00,2.870000000000000000e+03,-2.174999999999938982e+00,-4.944999999999961204e+00,1.343847555096754043e+01,-2.106816440274652980e+00
2.000000000000086686e+01,2.999999998893439379e+00,1.000000000002734701e+01,6.599999999999953681e-01,1.569999999999980522e+00,2.870000000000004093e+03,-2.175000000000035794e+00,-4.944999999999711626e+00,1.341212876193234393e+01,-2.139839765984005382e+00
1.999999999999988276e+01,2.999999997917036421e+00,1.000000000004609824e+01,6.599999999999807132e-01,1.570000000000109974e+00,2.869999999999999091e+03,-2.174999999999876810e+00,-4.945000000000667306e+00,1.339893597380742563e+01,-2.150958777150106638e+00
2.000000000000181544e+01,2.999999998440168181e+00,1.000000000004308376e+01,6.599999999999666134e-01,1.569999999999874829e+00,2.869999999999998181e+03,-2.175000000000142819e+00,-4.944999999999357243e+00,1.338404978027535464e+01,-2.150605099221766459e+00
2.000000000000158096e+01,2.999999998367090193e+00,1.000000000004451906e+01,6.599999999999665024e-01,1.569999999999905915e+00,2.869999999999999545e+03,-2.175000000000107292e+00,-4.944999999999594387e+00,1.338958208571647646e+01,-2.153415421563668719e+00
2.000000000000013500e+01,2.999999997958728848e+00,1.000000000004245138e+01,6.600000000000638689e-01,1.569999999999957208e+00,2.870000000000000455e+03,-2.175000000000078426e+00,-4.944999999999848406e+00,1.336002428884269655e+01,-2.182008912339650664e+00
2.000000000000040146e+01,2.999999997518713712e+00,1.000000000003340617e+01,6.600000000000794120e-01,1.569999999999923235e+00,2.870000000000000455e+03,-2.175000000000115286e+00,-4.944999999999570406e+00,1.335162296749865263e+01,-2.182189421097648463e+00
1.999999999999918288e+01,2.999999997854888800e+00,1.000000000003018918e+01,6.600000000000818545e-01,1.570000000000012053e+00,2.870000000000004093e+03,-2.174999999999986056e+00,-4.945000000000195683e+00,1.337331145179501668e+01,-2.184225889108264873e+00
1.999999999999966249e+01,2.999999998596933004e+00,1.000000000004000889e+01,6.600000000000892930e-01,1.569999999999947438e+00,2.870000000000002728e+03,-2.175000000000038458e+00,-4.944999999999713403e+00,1.339400568283377169e+01,-2.167058542918673947e+00
1.999999999999750955e+01,3.000000002780936370e+00,9.999999999960051511e+00,6.599999999999861533e-01,1.570000000000279616e+00,2.869999999999977263e+03,-2.174999999999680078e+00,-4.945000000001791740e+00,1.342310486397284386e+01,-2.187501949682445712e+00
1.999999999999855049e+01,3.000000003162840212e+00,9.999999999978573584e+00,6.599999999999762723e-01,1.570000000000207008e+00,2.869999999999971351e+03,-2.174999999999742695e+00,-4.945000000001132712e+00,1.341831374918625386e+01,-2.182747456386011642e+00
2.000000000000102318e+01,3.000000000922599774e+00,9.999999999963304020e+00,6.599999999999851541e-01,1.569999999999910134e+00,2.869999999999980901e+03,-2.175000000000093969e+00,-4.944999999999470930e+00,1.339714080101438043e+01,-2.206743438820900405e+00
2.000000000000017764e+01,3.000000000721031235e+00,9.999999999940651918e+00,6.599999999999794920e-01,1.569999999999975859e+00,2.869999999999978172e+03,-2.175000000000026468e+00,-4.944999999999954987e+00,1.338922500268088456e+01,-2.220592042711772685e+00
2.000000000000104450e+01,3.000000001520525483e+00,9.999999999952745355e+00,6.600000000000101341e-01,1.569999999999940110e+00,2.869999999999979991e+03,-2.175000000000085976e+00,-4.944999999999569518e+00,1.339818616421458763e+01,-2.201493835093009110e+00
1.999999999999994671e+01,3.000000002656901810e+00,9.999999999960596853e+00,6.599999999999783817e-01,1.570000000000093099e+00,2.869999999999974534e+03,-2.174999999999954081e+00,-4.945000000000378648e+00,1.337322664157631635e+01,-2.195935967281839485e+00
1.999999999999959144e+01,3.000000003147079930e+00,9.999999999960074604e+00,6.599999999999784928e-01,1.570000000000121965e+00,2.869999999999974534e+03,-2.174999999999934097e+00,-4.945000000000616680e+00,1.338458729902894717e+01,-2.184886203359343249e+00
1.999999999999949196e+01,3.000000004216317073e+00,9.999999999952946084e+00,6.599999999999807132e-01,1.570000000000086882e+00,2.869999999999972260e+03,-2.175000000000002487e+00,-4.945000000000444373e+00,1.336969554899940604e+01,-2.194322059573607486e+00
1.999999999999675282e+01,3.000000001355505042e+00,1.000000000003806022e+01,6.599999999999159872e-01,1.570000000000618234e+00,2.869999999999964075e+03,-2.174999999999387423e+00,-4.945000000002836238e+00,1.338993571394613902e+01,-2.172398583604379319e+00
1.999999999999597478e+01,3.000000001881919065e+00,1.000000000004057199e+01,6.599999999998867883e-01,1.570000000000710383e+00,2.869999999999962711e+03,-2.174999999999267075e+00,-4.945000000003697771e+00,1.340354045779049308e+01,-2.161713510610698830e+00
1.999999999999630518e+01,3.000000000768524799e+00,1.000000000003244160e+01,6.599999999999214273e-01,1.570000000000623119e+00,2.869999999999965439e+03,-2.174999999999350564e+00,-4.945000000003292762e+00,1.345142638815360492e+01,-2.136778094294139674e+00
2.000000000000028066e+01,2.999999999973138376e+00,1.000000000001689138e+01,6.599999999999701661e-01,1.570000000000025153e+00,2.869999999999998636e+03,-2.174999999999924327e+00,-4.945000000000243645e+00,1.344860008486874392e+01,-2.108303748671700451e+00
1.999999999999835865e+01,3.000000000178903115e+00,9.999999999994848565e+00,6.599999999999673905e-01,1.570000000000256524e+00,2.869999999999970896e+03,-2.174999999999653877e+00,-4.945000000001042118e+00,1.338039899722070558e+01,-2.206666546650323468e+00
1.999999999999767297e+01,3.000000000957973700e+00,9.999999999983710808e+00,6.599999999999349720e-01,1.570000000000351559e+00,2.869999999999964530e+03,-2.174999999999545519e+00,-4.945000000001698481e+00,1.341691828793101493e+01,-2.190674184482957365e+00
1.999999999999879208e+01,3.000000001357772561e+00,9.999999999990313526e+00,6.599999999999658362e-01,1.570000000000167484e+00,2.869999999999975898e+03,-2.174999999999752465e+00,-4.945000000000838725e+00,1.341134630115444537e+01,-2.197220565449613972e+00
1.999999999999909406e+01,3.000000000975247882e+00,1.000000000001301359e+01,6.599999999999424105e-01,1.570000000000151941e+00,2.869999999999963620e+03,-2.174999999999739142e+00,-4.945000000000840501e+00,1.338454996131077479e+01,-2.198389301528403283e+00
1.999999999999913314e+01,3.000000001840257724e+00,1.000000000000438227e+01,6.599999999999427436e-01,1.570000000000176810e+00,2.869999999999962711e+03,-2.174999999999702727e+00,-4.945000000000802309e+00,1.341376117143700597e+01,-2.185152034315599234e+00
1.999999999999798206e+01,2.999999999970430764e+00,9.999999999998196998e+00,6.599999999999485167e-01,1.570000000000296714e+00,2.869999999999978627e+03,-2.174999999999644107e+00,-4.945000000001793516e+00,1.343424901844932329e+01,-2.143789505363503434e+00
1.999999999999812772e+01,3.000000001407893357e+00,9.999999999991308286e+00,6.599999999999682787e-01,1.570000000000218776e+00,2.869999999999970441e+03,-2.174999999999725375e+00,-4.945000000001372520e+00,1.345729948610444637e+01,-2.138396854612668374e+00
2.000000000000001066e+01,3.000000000076187945e+00,9.999999999995964117e+00,6.599999999998932276e-01,1.570000000000181917e+00,2.869999999999977263e+03,-2.174999999999771116e+00,-4.945000000000651319e+00,1.343371534293626191e+01,-2.129995653519426213e+00
2.000000000000035172e+01,3.000000000806210654e+00,9.999999999996688871e+00,6.599999999999188738e-01,1.570000000000102425e+00,2.869999999999978172e+03,-2.174999999999842171e+00,-4.945000000000328910e+00,1.342893260542297718e+01,-2.141401683810587819e+00
1.999999999999715428e+01,2.999999999608265355e+00,9.999999999966895814e+00,6.600000000000152411e-01,1.570000000000292717e+00,2.869999999999974079e+03,-2.174999999999594369e+00,-4.945000000001634533e+00,1.341422881123145494e+01,-2.178290459686379688e+00
1.999999999999754863e+01,2.999999999781037818e+00,9.999999999969812592e+00,6.600000000000371125e-01,1.570000000000187246e+00,2.869999999999974989e+03,-2.174999999999688960e+00,-4.945000000001169127e+00,1.339575627980185857e+01,-2.205181312646043335e+00
1.999999999999958789e+01,2.999999999352248370e+00,9.999999999972510878e+00,6.599999999999772715e-01,1.569999999999943885e+00,2.869999999999982265e+03,-2.174999999999973621e+00,-4.944999999999873275e+00,1.341043418192952430e+01,-2.201988016799191428e+00
1.999999999999940670e+01,3.000000000836048564e+00,1.000000000002190426e+01,6.599999999999556222e-01,1.570000000000150164e+00,2.869999999999984993e+03,-2.174999999999899902e+00,-4.945000000000570495e+00,1.340649957562553851e+01,-2.156310067603637748e+00
1.999999999999936406e+01,3.000000002145906564e+00,1.000000000002593481e+01,6.599999999999353051e-01,1.570000000000201013e+00,2.869999999999979536e+03,-2.174999999999813749e+00,-4.945000000000836948e+00,1.340551586506292736e+01,-2.160805101155638397e+00
1.999999999999926814e+01,3.000000001168884545e+00,1.000000000002770939e+01,6.599999999999450750e-01,1.570000000000233209e+00,2.869999999999988631e+03,-2.174999999999801759e+00,-4.945000000001064322e+00,1.340336968769271309e+01,-2.146027581141691343e+00
1.999999999999669953e+01,2.999999999393594852e+00,9.999999999951842966e+00,6.599999999999790479e-01,1.570000000000363327e+00,2.869999999999972715e+03,-2.174999999999595701e+00,-4.945000000002220730e+00,1.343240397510558992e+01,-2.155055497435142353e+00
1.999999999999990408e+01,2.999999999913882665e+00,9.999999999980300203e+00,6.599999999999638378e-01,1.570000000000131957e+00,2.869999999999992724e+03,-2.174999999999905231e+00,-4.945000000000569607e+00,1.341298862928274360e+01,-2.170124533117573584e+00
1.999999999999742428e+01,3.000000001450085829e+00,1.000000000001859846e+01,6.599999999999639488e-01,1.570000000000417284e+00,2.869999999999985903e+03,-2.174999999999581934e+00,-4.945000000002305995e+00,1.344427528349171475e+01,-2.119369188862387787e+00
1.999999999999918643e+01,3.000000002319521020e+00,1.000000000000838085e+01,6.599999999999699440e-01,1.570000000000102203e+00,2.869999999999993179e+03,-2.174999999999859490e+00,-4.945000000000867146e+00,1.335858950143044410e+01,-2.169422481017253990e+00
1.999999999999953459e+01,3.000000001754290047e+00,1.000000000000360778e+01,6.599999999999640599e-01,1.570000000000054019e+00,2.869999999999995907e+03,-2.174999999999917222e+00,-4.945000000000607798e+00,1.336523206561982136e+01,-2.165457996372349925e+00
1.999999999999823430e+01,3.000000001961486529e+00,1.000000000000894218e+01,6.599999999999645039e-01,1.570000000000217000e+00,2.869999999999989541e+03,-2.174999999999726708e+00,-4.945000000001415152e+00,1.337897046233488041e+01,-2.145560557833097626e+00
1.999999999999929656e+01,3.000000002234703533e+00,1.000000000000640021e+01,6.599999999999808242e-01,1.570000000000061346e+00,2.869999999999992724e+03,-2.174999999999880806e+00,-4.945000000000479012e+00,1.338906867404018008e+01,-2.140975925242921019e+00
1.999999999999192823e+01,3.000000001209256695e+00,1.000000000000085620e+01,6.599999999999789368e-01,1.570000000000979057e+00,2.869999999999962711e+03,-2.174999999998985523e+00,-4.945000000005404850e+00,1.339996521099614846e+01,-2.134221592583607219e+00
1.999999999999378630e+01,3.000000000506465092e+00,1.000000000000141576e+01,6.599999999999763833e-01,1.570000000000786766e+00,2.869999999999975444e+03,-2.174999999999201794e+00,-4.945000000004311502e+00,1.338433372089535212e+01,-2.142219697822732805e+00
1.999999999999347722e+01,3.000000000678048728e+00,9.999999999995354827e+00,6.599999999999810463e-01,1.570000000000811635e+00,2.869999999999970896e+03,-2.174999999999151168e+00,-4.945000000004484697e+00,1.339652874795101845e+01,-2.143906881489916483e+00
1.999999999999324274e+01,2.999999999980898835e+00,1.000000000000076561e+01,6.599999999999773825e-01,1.570000000000883134e+00,2.869999999999968168e+03,-2.174999999999127631e+00,-4.945000000004860397e+00,1.338736590478395172e+01,-2.132637667329457809e+00
1.999999999999855760e+01,2.999999998980020344e+00,9.999999999984561683e+00,6.599999999999763833e-01,1.570000000000124629e+00,2.869999999999971351e+03,-2.174999999999794209e+00,-4.945000000000590923e+00,1.340132157053900386e+01,-2.183193734806004205e+00
1.999999999999798916e+01,3.000000000524999155e+00,9.999999999978752996e+00,6.599999999999585087e-01,1.570000000000218332e+00,2.869999999999967713e+03,-2.174999999999689404e+00,-4.945000000001191331e+00,1.341042284647604177e+01,-2.198902291802634412e+00
1.999999999999765166e+01,2.999999998216559050e+00,9.999999999978804510e+00,6.599999999999700551e-01,1.570000000000334017e+00,2.869999999999995907e+03,-2.174999999999594813e+00,-4.945000000001742890e+00,1.343435700228916829e+01,-2.127881349979297010e+00
1.999999999999577227e+01,3.000000002026713464e+00,9.999999999966261655e+00,6.600000000000086908e-01,1.570000000000473239e+00,2.869999999999984993e+03,-2.174999999999433165e+00,-4.945000000002526264e+00,1.343193197556224838e+01,-2.150869698638014249e+00
1.999999999999634426e+01,3.000000000819554646e+00,9.999999999955296204e+00,6.599999999999821565e-01,1.570000000000391527e+00,2.869999999999981355e+03,-2.174999999999496225e+00,-4.945000000002063523e+00,1.342465827701868264e+01,-2.160010562341398099e+00
1.999999999999629807e+01,3.000000001119607074e+00,9.999999999967943864e+00,6.599999999999597300e-01,1.570000000000445040e+00,2.869999999999974079e+03,-2.174999999999463807e+00,-4.945000000002280238e+00,1.341203321981354080e+01,-2.178270623878646006e+00
1.999999999999658229e+01,2.999999999851651999e+00,1.000000000002656009e+01,6.599999999999627276e-01,1.570000000000428830e+00,2.869999999999970441e+03,-2.174999999999517097e+00,-4.945000000002384155e+00,1.342276925516744868e+01,-2.136315300954442886e+00
1.999999999999645084e+01,3.000000000990838522e+00,9.999999999999188205e+00,6.599999999999649480e-01,1.570000000000400187e+00,2.869999999999964984e+03,-2.174999999999516209e+00,-4.945000000002210960e+00,1.343338098205611253e+01,-2.156429401589609274e+00
1.999999999999669242e+01,3.000000001180048503e+00,1.000000000002553513e+01,6.599999999999389688e-01,1.570000000000473239e+00,2.869999999999963620e+03,-2.174999999999521094e+00,-4.945000000002418794e+00,1.340765137111415939e+01,-2.149832704518242377e+00
1.999999999999727862e+01,2.999999999512277693e+00,1.000000000003865885e+01,6.599999999999542899e-01,1.570000000000363549e+00,2.869999999999960892e+03,-2.174999999999600586e+00,-4.945000000001694929e+00,1.338760020214871460e+01,-2.172568364440627064e+00
1.999999999999571543e+01,3.000000001910254621e+00,9.999999999997399414e+00,6.599999999999438538e-01,1.570000000000559393e+00,2.869999999999973170e+03,-2.174999999999413625e+00,-4.945000000003333618e+00,1.346061673990183749e+01,-2.142302228692248622e+00
