1.999999999999813127e+01,3.000000000277410539e+00,1.000000000003145750e+01,6.600000000000353362e-01,1.570000000000073559e+00,2.869999999999993634e+03,-2.174999999999915890e+00,-4.945000000000614904e+00,1.345223663627341004e+01,-2.175809579740770161e+00
1.999999999999855760e+01,3.000000000091893604e+00,1.000000000002793676e+01,6.600000000000342260e-01,1.570000000000027152e+00,2.869999999999994543e+03,-2.174999999999967848e+00,-4.945000000000312923e+00,1.340620949456877042e+01,-2.207888786739360398e+00
1.999999999999880274e+01,2.999999999144161933e+00,9.999999999996271427e+00,6.599999999999835998e-01,1.570000000000160378e+00,2.869999999999999091e+03,-2.174999999999814193e+00,-4.945000000000714380e+00,1.346673845704966688e+01,-2.157319855323844848e+00
2.000000000000120792e+01,2.999999998693239966e+00,9.999999999973056219e+00,6.600000000000456613e-01,1.569999999999806883e+00,2.869999999999999545e+03,-2.175000000000252065e+00,-4.944999999998895390e+00,1.340575002362748691e+01,-1.987609957874937106e+00
1.999999999999829114e+01,3.000000006220480575e+00,1.000000000000639133e+01,6.599999999999726086e-01,1.570000000000214557e+00,2.869999999999999545e+03,-2.174999999999716049e+00,-4.945000000001277485e+00,1.355234718707999342e+01,-2.053957080924681211e+00
1.999999999999889866e+01,3.000000006379953899e+00,1.000000000000981082e+01,6.599999999999860423e-01,1.570000000000117524e+00,2.869999999999998181e+03,-2.174999999999833289e+00,-4.945000000000768559e+00,1.354311008262027194e+01,-2.120972361098039105e+00
2.000000000000060396e+01,3.000000003239915447e+00,9.999999999985822896e+00,6.600000000000114664e-01,1.569999999999876827e+00,2.870000000000000455e+03,-2.175000000000129941e+00,-4.944999999999241780e+00,1.366330035633229656e+01,-2.139176259348267717e+00
1.999999999999847233e+01,3.000000004784578067e+00,1.000000000001995204e+01,6.599999999999538458e-01,1.570000000000107754e+00,2.870000000000001819e+03,-2.174999999999794653e+00,-4.945000000000377760e+00,1.354715752045345667e+01,-2.207675025741785202e+00
1.999999999999709743e+01,3.000000004102798101e+00,9.999999999974759746e+00,6.599999999999957012e-01,1.570000000000349560e+00,2.869999999999982720e+03,-2.174999999999595257e+00,-4.945000000002282903e+00,1.358111353245927155e+01,-2.203224400272730588e+00
1.999999999999653255e+01,3.000000003205005594e+00,9.999999999971260323e+00,6.599999999999855982e-01,1.570000000000435492e+00,2.869999999999983629e+03,-2.174999999999493117e+00,-4.945000000002727880e+00,1.360325633724957761e+01,-2.147913324343762476e+00
2.000000000000054712e+01,3.000000004752215066e+00,9.999999999957999819e+00,6.600000000000115774e-01,1.569999999999936779e+00,2.870000000000001819e+03,-2.175000000000083311e+00,-4.944999999999524221e+00,1.370836182690406346e+01,-2.040264068631421956e+00
2.000000000000072475e+01,3.000000004452707980e+00,9.999999999962216890e+00,6.600000000000066924e-01,1.569999999999917017e+00,2.870000000000001819e+03,-2.175000000000099742e+00,-4.944999999999381224e+00,1.370600644663987921e+01,-2.034913981715062103e+00
1.999999999999927525e+01,3.000000003405028259e+00,1.000000000001189981e+01,6.600000000000170175e-01,1.569999999999975415e+00,2.869999999999995453e+03,-2.175000000000014921e+00,-4.944999999999931006e+00,1.371420359846619874e+01,-2.128109380750598856e+00
1.999999999999588596e+01,3.000000005324404029e+00,1.000000000003864287e+01,6.599999999999661693e-01,1.570000000000496776e+00,2.869999999999989086e+03,-2.174999999999401190e+00,-4.945000000002983676e+00,1.368800552511861923e+01,-2.050319621156613703e+00
1.999999999999727507e+01,3.000000005762476274e+00,1.000000000003583267e+01,6.599999999999764944e-01,1.570000000000326690e+00,2.869999999999992269e+03,-2.174999999999603695e+00,-4.945000000001944507e+00,1.366779337484514301e+01,-2.049256749554970725e+00
1.999999999999976907e+01,2.999999998962724401e+00,9.999999999987407406e+00,6.600000000000166844e-01,1.569999999999971418e+00,2.870000000000000455e+03,-2.175000000000042899e+00,-4.944999999999866169e+00,1.349556532799982911e+01,-2.291667086068914116e+00
1.999999999999708322e+01,2.999999997554702702e+00,1.000000000002965095e+01,6.599999999999421885e-01,1.570000000000497886e+00,2.869999999999990450e+03,-2.174999999999422950e+00,-4.945000000002782947e+00,1.340117634881531039e+01,-2.223593262514893976e+00
1.999999999999783284e+01,2.999999999748832025e+00,1.000000000001747935e+01,6.599999999999561773e-01,1.570000000000409290e+00,2.869999999999991815e+03,-2.174999999999540634e+00,-4.945000000002261586e+00,1.344857724233353835e+01,-2.166321844317274703e+00
1.999999999999797495e+01,3.000000000044894755e+00,1.000000000000814815e+01,6.599999999999656142e-01,1.570000000000380425e+00,2.869999999999991815e+03,-2.174999999999581046e+00,-4.945000000002112372e+00,1.344506051868436991e+01,-2.210194431920499802e+00
1.999999999999848654e+01,2.999999997120394557e+00,1.000000000000218492e+01,6.599999999999702771e-01,1.570000000000276508e+00,2.869999999999994088e+03,-2.174999999999685407e+00,-4.945000000001639862e+00,1.336661788956695318e+01,-2.163017380455102945e+00
1.999999999999930367e+01,2.999999997087752668e+00,9.999999999993681499e+00,6.599999999999850431e-01,1.570000000000167040e+00,2.869999999999997272e+03,-2.174999999999822631e+00,-4.945000000001008367e+00,1.338920512082853698e+01,-2.129139913847355903e+00
1.999999999999887024e+01,2.999999997049928258e+00,9.999999999994205524e+00,6.599999999999823785e-01,1.570000000000221219e+00,2.869999999999994998e+03,-2.174999999999759570e+00,-4.945000000001335216e+00,1.337796065014997282e+01,-2.152141079159902493e+00
2.000000000000288125e+01,2.999999998757354014e+00,1.000000000000005862e+01,6.599999999999923705e-01,1.569999999999786677e+00,2.870000000000003183e+03,-2.175000000000268052e+00,-4.944999999998523244e+00,1.333507227689127106e+01,-2.316523670166837245e+00
2.000000000000176925e+01,2.999999998859162798e+00,9.999999999996049382e+00,6.599999999999909273e-01,1.569999999999919460e+00,2.870000000000002274e+03,-2.175000000000117950e+00,-4.944999999999311946e+00,1.330686135941907011e+01,-2.264369691055927447e+00
2.000000000000177636e+01,2.999999999035246390e+00,9.999999999994519939e+00,6.599999999999903721e-01,1.569999999999929674e+00,2.870000000000003183e+03,-2.175000000000109956e+00,-4.944999999999365237e+00,1.331799129273968241e+01,-2.302953546013923880e+00
1.999999999999844746e+01,2.999999998361964515e+00,9.999999999992621014e+00,6.599999999999565103e-01,1.570000000000257190e+00,2.869999999999999091e+03,-2.174999999999676970e+00,-4.945000000001246399e+00,1.342884045680741245e+01,-2.145905397942894144e+00
1.999999999999887734e+01,2.999999999998947509e+00,9.999999999990686561e+00,6.599999999999858202e-01,1.570000000000259188e+00,2.870000000000002274e+03,-2.174999999999735589e+00,-4.945000000001342322e+00,1.345450198710341816e+01,-2.198278746619381163e+00
1.999999999999912603e+01,2.999999999717505084e+00,9.999999999997656985e+00,6.599999999999870415e-01,1.570000000000225659e+00,2.870000000000001364e+03,-2.174999999999773337e+00,-4.945000000001148699e+00,1.342477186683767698e+01,-2.198969872501591372e+00
1.999999999999991829e+01,2.999999996217681097e+00,1.000000000000559552e+01,6.600000000000153522e-01,1.570000000000064677e+00,2.870000000000001364e+03,-2.174999999999957634e+00,-4.945000000000507434e+00,1.350093303582767668e+01,-2.170968283448902802e+00
2.000000000000265032e+01,3.000000001352828516e+00,9.999999999969141129e+00,6.600000000000155742e-01,1.569999999999683427e+00,2.870000000000001819e+03,-2.175000000000362643e+00,-4.944999999998148432e+00,1.364194087895980623e+01,-2.132296144942949390e+00
2.000000000000020606e+01,2.999999996284336667e+00,1.000000000000133582e+01,6.599999999999998090e-01,1.569999999999955209e+00,2.869999999999995907e+03,-2.175000000000041123e+00,-4.944999999999741824e+00,1.365821166706028400e+01,-2.160679935738755386e+00
1.999999999999689138e+01,3.000000000623959995e+00,1.000000000001650236e+01,6.600000000000002531e-01,1.570000000000295381e+00,2.869999999999995907e+03,-2.174999999999642331e+00,-4.945000000001786411e+00,1.344281820235240055e+01,-2.026775484514778736e+00
1.999999999999759126e+01,3.000000000511310549e+00,1.000000000001925571e+01,6.600000000000055822e-01,1.570000000000203677e+00,2.869999999999996817e+03,-2.174999999999748468e+00,-4.945000000001259721e+00,1.343508720896456587e+01,-2.039753261102557946e+00
1.999999999999863931e+01,2.999999999127573869e+00,1.000000000000066791e+01,6.600000000000413314e-01,1.570000000000071116e+00,2.869999999999996817e+03,-2.174999999999937206e+00,-4.945000000000542073e+00,1.361688363515854405e+01,-1.975143297627780292e+00
1.999999999999860378e+01,2.999999999221042657e+00,9.999999999993999467e+00,6.600000000000434408e-01,1.570000000000070228e+00,2.869999999999996362e+03,-2.174999999999938982e+00,-4.945000000000530527e+00,1.360519514703267774e+01,-1.999549902668095402e+00
1.999999999999868194e+01,3.000000002052080728e+00,9.999999999966464159e+00,6.600000000000264544e-01,1.570000000000016716e+00,2.869999999999997726e+03,-2.174999999999975842e+00,-4.945000000000055351e+00,1.370019016532060796e+01,-2.085794673066754701e+00
2.000000000000069988e+01,3.000000000942421696e+00,9.999999999942835061e+00,6.600000000000540989e-01,1.569999999999826645e+00,2.870000000000003638e+03,-2.175000000000240963e+00,-4.944999999998931806e+00,1.358368816069682694e+01,-2.252597328282731404e+00
1.999999999999964828e+01,3.000000003978648078e+00,9.999999999990608401e+00,6.600000000000255662e-01,1.569999999999949214e+00,2.869999999999995453e+03,-2.175000000000069988e+00,-4.944999999999674323e+00,1.335744816319880179e+01,-2.296290772945377423e+00
1.999999999999983302e+01,3.000000001926026449e+00,9.999999999996505906e+00,6.600000000000052491e-01,1.569999999999904361e+00,2.869999999999992724e+03,-2.175000000000081535e+00,-4.944999999999432738e+00,1.350492959514423141e+01,-2.271054383759169681e+00
2.000000000000004619e+01,3.000000001507036274e+00,9.999999999998784972e+00,6.600000000000101341e-01,1.569999999999889262e+00,2.869999999999994998e+03,-2.175000000000108180e+00,-4.944999999999348361e+00,1.345764531395603747e+01,-2.246576805564640011e+00
2.000000000000118305e+01,3.000000003147957006e+00,1.000000000001672973e+01,6.600000000000105782e-01,1.569999999999802442e+00,2.869999999999998636e+03,-2.175000000000230749e+00,-4.944999999998675122e+00,1.349171402372261674e+01,-2.266317626545598429e+00
2.000000000000170175e+01,3.000000002626239226e+00,1.000000000002708234e+01,6.599999999999990319e-01,1.569999999999755591e+00,2.869999999999998181e+03,-2.175000000000273381e+00,-4.944999999998359819e+00,1.350994105941817303e+01,-2.221780423558343820e+00
2.000000000000404654e+01,3.000000003012932570e+00,9.999999999985176302e+00,6.600000000000453282e-01,1.569999999999362572e+00,2.870000000000000909e+03,-2.175000000000719691e+00,-4.944999999996185558e+00,1.357993233694943136e+01,-2.153555271538293958e+00
1.999999999999987566e+01,3.000000002592670967e+00,9.999999999998872013e+00,6.599999999999975886e-01,1.569999999999930118e+00,2.869999999999999545e+03,-2.175000000000052669e+00,-4.944999999999497575e+00,1.355757020529472889e+01,-2.158255595275374805e+00
1.999999999999752021e+01,3.000000005157352323e+00,9.999999999981339371e+00,6.600000000000433298e-01,1.570000000000053353e+00,2.869999999999991360e+03,-2.174999999999913669e+00,-4.945000000000260520e+00,1.355607080816029431e+01,-2.253792666822922897e+00
1.999999999999977263e+01,3.000000001159224716e+00,9.999999999951734608e+00,6.600000000000195710e-01,1.570000000000027374e+00,2.869999999999996817e+03,-2.174999999999998046e+00,-4.945000000000020712e+00,1.325142773183115530e+01,-2.107994229015270449e+00
1.999999999999955236e+01,3.000000000284802404e+00,9.999999999970389908e+00,6.600000000000095790e-01,1.570000000000089102e+00,2.869999999999989996e+03,-2.174999999999925659e+00,-4.945000000000440821e+00,1.320600190331618329e+01,-2.039651944256803962e+00
1.999999999999883471e+01,3.000000000970775016e+00,9.999999999958802732e+00,6.599999999999862643e-01,1.570000000000190576e+00,2.869999999999991360e+03,-2.174999999999785327e+00,-4.945000000001117613e+00,1.344055253306775199e+01,-2.230616593881799226e+00
1.999999999999926459e+01,2.999999999989082067e+00,9.999999999960959229e+00,6.599999999999951461e-01,1.570000000000114415e+00,2.869999999999989996e+03,-2.174999999999873257e+00,-4.945000000000703722e+00,1.343298879516292565e+01,-2.231021300053822376e+00
1.999999999999995026e+01,3.000000000957271151e+00,9.999999999999639400e+00,6.600000000000044720e-01,1.569999999999874607e+00,2.870000000000002274e+03,-2.175000000000103739e+00,-4.944999999999049045e+00,1.357343474925383475e+01,-2.162507374547874672e+00
1.999999999999737454e+01,3.000000001546570427e+00,9.999999999989253041e+00,6.600000000000155742e-01,1.570000000000107088e+00,2.870000000000001364e+03,-2.174999999999827516e+00,-4.945000000000692175e+00,1.346473188808450239e+01,-2.032182170402864863e+00
1.999999999999823785e+01,3.000000001777609615e+00,9.999999999983600674e+00,6.600000000000013634e-01,1.570000000000019158e+00,2.870000000000001364e+03,-2.174999999999913669e+00,-4.945000000000067786e+00,1.350781868024489363e+01,-2.008557820380217240e+00
2.000000000000102673e+01,2.999999998451285510e+00,9.999999999978124166e+00,6.599999999999563993e-01,1.570000000000088880e+00,2.870000000000001364e+03,-2.174999999999906120e+00,-4.945000000000272067e+00,1.374855120711868395e+01,-1.821293850128235192e+00
2.000000000000181188e+01,2.999999999081664814e+00,9.999999999980198950e+00,6.599999999999510703e-01,1.570000000000009166e+00,2.870000000000001364e+03,-2.174999999999992717e+00,-4.944999999999771134e+00,1.372178787462845584e+01,-1.857431028046828470e+00
2.000000000000061462e+01,3.000000001763405422e+00,9.999999999960875741e+00,6.600000000000071365e-01,1.569999999999948992e+00,2.869999999999997272e+03,-2.175000000000059330e+00,-4.944999999999700968e+00,1.352517691498291086e+01,-2.022068394269164404e+00
1.999999999999885603e+01,3.000000002206812066e+00,1.000000000000717648e+01,6.599999999999717204e-01,1.570000000000187246e+00,2.869999999999999545e+03,-2.174999999999764455e+00,-4.945000000000965734e+00,1.336550362133524317e+01,-2.339753356766675729e+00
1.999999999999891998e+01,3.000000002343452099e+00,1.000000000000861888e+01,6.599999999999733857e-01,1.570000000000172591e+00,2.870000000000000000e+03,-2.174999999999780442e+00,-4.945000000000892904e+00,1.338273576375236651e+01,-2.309956794237730815e+00
2.000000000000277822e+01,3.000000002930474086e+00,9.999999999990730970e+00,6.600000000000167955e-01,1.569999999999686535e+00,2.870000000000002728e+03,-2.175000000000375078e+00,-4.944999999998187512e+00,1.349309661801327742e+01,-2.236633491061966517e+00
2.000000000000179057e+01,3.000000002301344892e+00,9.999999999990919264e+00,6.600000000000053602e-01,1.569999999999813767e+00,2.870000000000001364e+03,-2.175000000000221423e+00,-4.944999999998920259e+00,1.350577370768323604e+01,-2.246117738827508425e+00
2.000000000000200018e+01,3.000000002030353219e+00,9.999999999987362997e+00,6.600000000000110223e-01,1.569999999999787343e+00,2.870000000000002274e+03,-2.175000000000257838e+00,-4.944999999998760387e+00,1.347634808558532526e+01,-2.265042848666718012e+00
2.000000000000225953e+01,3.000000003558656481e+00,9.999999999971915798e+00,6.600000000000315614e-01,1.569999999999793561e+00,2.870000000000001364e+03,-2.175000000000287148e+00,-4.944999999998907825e+00,1.354630252255985923e+01,-2.283959735887280740e+00
2.000000000000290967e+01,3.000000003022807338e+00,9.999999999968647302e+00,6.600000000000334488e-01,1.569999999999710294e+00,2.870000000000000909e+03,-2.175000000000379963e+00,-4.944999999998413109e+00,1.353332498351195134e+01,-2.288666509412098815e+00
1.999999999999684164e+01,2.999999998234656129e+00,9.999999999991253219e+00,6.600000000000314504e-01,1.570000000000285834e+00,2.869999999999989541e+03,-2.174999999999696509e+00,-4.945000000001813056e+00,1.368198446828362691e+01,-2.114578060683959482e+00
1.999999999999729994e+01,2.999999996620314580e+00,9.999999999955885954e+00,6.600000000000177947e-01,1.570000000000163709e+00,2.869999999999995907e+03,-2.174999999999785771e+00,-4.945000000001006590e+00,1.373929345853645323e+01,-2.091609713751449107e+00
1.999999999999730704e+01,2.999999996439005834e+00,9.999999999957205787e+00,6.600000000000062483e-01,1.570000000000174811e+00,2.869999999999994543e+03,-2.174999999999762679e+00,-4.945000000001029683e+00,1.371379989084484663e+01,-2.103922391592808250e+00
2.000000000000475708e+01,3.000000002176225422e+00,9.999999999918422589e+00,6.600000000000101341e-01,1.569999999999489138e+00,2.870000000000002274e+03,-2.175000000000601563e+00,-4.944999999996745998e+00,1.358334947827728989e+01,-1.990767926177974712e+00
2.000000000000435918e+01,3.000000002118003550e+00,9.999999999946856732e+00,6.600000000000444400e-01,1.569999999999436513e+00,2.870000000000003183e+03,-2.175000000000662403e+00,-4.944999999996747775e+00,1.354787401987310780e+01,-2.092595501025676263e+00
2.000000000000349587e+01,3.000000002641312946e+00,9.999999999952303043e+00,6.600000000000382228e-01,1.569999999999548423e+00,2.870000000000003183e+03,-2.175000000000533174e+00,-4.944999999997382822e+00,1.354632112209864658e+01,-2.040442911765428580e+00
1.999999999999811351e+01,3.000000002335227567e+00,9.999999999970048847e+00,6.600000000000376676e-01,1.570000000000115303e+00,2.869999999999984539e+03,-2.174999999999875921e+00,-4.945000000001019913e+00,1.369953883415753104e+01,-1.979745796291233040e+00
1.999999999999839062e+01,3.000000002905918173e+00,9.999999999959069186e+00,6.600000000000330047e-01,1.570000000000108420e+00,2.869999999999986358e+03,-2.174999999999887024e+00,-4.945000000000898233e+00,1.365248284342030871e+01,-1.984990442296600932e+00
2.000000000000109779e+01,3.000000000638000763e+00,9.999999999933850248e+00,6.600000000000282308e-01,1.569999999999749152e+00,2.870000000000002728e+03,-2.175000000000271605e+00,-4.944999999998399787e+00,1.345698884060952949e+01,-2.259160400986023998e+00
2.000000000000081002e+01,3.000000000773344055e+00,9.999999999935669237e+00,6.600000000000197931e-01,1.569999999999788898e+00,2.870000000000001364e+03,-2.175000000000218314e+00,-4.944999999998626272e+00,1.350496834067760865e+01,-2.264867566770668805e+00
2.000000000000152767e+01,3.000000000988971127e+00,9.999999999933235628e+00,6.600000000000241229e-01,1.569999999999702522e+00,2.870000000000003183e+03,-2.175000000000320455e+00,-4.944999999998086260e+00,1.349824592055787420e+01,-2.234730604490066774e+00
2.000000000000187939e+01,3.000000001795401161e+00,9.999999999936443729e+00,6.600000000000169065e-01,1.569999999999686091e+00,2.870000000000002274e+03,-2.175000000000335554e+00,-4.944999999997977014e+00,1.353230524559137748e+01,-2.260082170388612255e+00
2.000000000000036593e+01,3.000000000523198818e+00,9.999999999971093345e+00,6.599999999999796030e-01,1.570000000000155493e+00,2.869999999999997726e+03,-2.174999999999860822e+00,-4.945000000000685070e+00,1.326533604323568305e+01,-2.323652954158756501e+00
2.000000000000137135e+01,2.999999999804791262e+00,9.999999999962357222e+00,6.599999999999764944e-01,1.570000000000039142e+00,2.869999999999999091e+03,-2.174999999999989164e+00,-4.944999999999919460e+00,1.331422391596017185e+01,-2.290441548001348693e+00
2.000000000000052580e+01,3.000000000248891130e+00,9.999999999968189002e+00,6.599999999999853761e-01,1.570000000000134177e+00,2.870000000000000000e+03,-2.174999999999892353e+00,-4.945000000000555396e+00,1.333183812352002917e+01,-2.321768338454742509e+00
2.000000000000115108e+01,2.999999999083049929e+00,9.999999999991041832e+00,6.600000000000115774e-01,1.569999999999936335e+00,2.870000000000002728e+03,-2.175000000000102851e+00,-4.944999999999514451e+00,1.355294919395918996e+01,-2.131410401990777803e+00
2.000000000000262190e+01,3.000000002281784095e+00,9.999999999971377562e+00,6.599999999999816014e-01,1.569999999999824203e+00,2.870000000000000000e+03,-2.175000000000208544e+00,-4.944999999998753282e+00,1.349777981298785434e+01,-2.463380827045329013e+00
2.000000000000275335e+01,3.000000000900887365e+00,9.999999999973221421e+00,6.600000000000028066e-01,1.569999999999677431e+00,2.870000000000000455e+03,-2.175000000000359091e+00,-4.944999999998015205e+00,1.368084108809311772e+01,-2.064424342437715332e+00
2.000000000000222400e+01,3.000000000729291294e+00,9.999999999970668796e+00,6.599999999999909273e-01,1.569999999999754037e+00,2.870000000000000909e+03,-2.175000000000263611e+00,-4.944999999998401563e+00,1.374081449020239631e+01,-2.047670636031023950e+00
1.999999999999667821e+01,3.000000001185859411e+00,1.000000000001003997e+01,6.599999999999700551e-01,1.570000000000264295e+00,2.869999999999980446e+03,-2.174999999999622347e+00,-4.945000000001659402e+00,1.344573281714810520e+01,-2.373947943975374120e+00
1.999999999999709033e+01,3.000000001261221350e+00,1.000000000001397105e+01,6.599999999999743849e-01,1.570000000000209672e+00,2.869999999999979991e+03,-2.174999999999686295e+00,-4.945000000001378737e+00,1.341345008159709806e+01,-2.384015643212773483e+00
2.000000000000173372e+01,3.000000002186691717e+00,1.000000000001101697e+01,6.600000000000284528e-01,1.569999999999659446e+00,2.869999999999995453e+03,-2.175000000000367084e+00,-4.944999999998167972e+00,1.327072417450230724e+01,-2.297871693024051254e+00
2.000000000000158451e+01,3.000000003798994008e+00,9.999999999980445864e+00,6.600000000000170175e-01,1.569999999999777796e+00,2.870000000000002274e+03,-2.175000000000262723e+00,-4.944999999998556994e+00,1.335896170037812780e+01,-2.340583132193838622e+00
2.000000000000045830e+01,3.000000003247103475e+00,9.999999999992530419e+00,6.600000000000260103e-01,1.569999999999905471e+00,2.870000000000002274e+03,-2.175000000000129941e+00,-4.944999999999397211e+00,1.336847583704785869e+01,-2.328473149631055783e+00
2.000000000000067857e+01,3.000000003292902839e+00,9.999999999982978949e+00,6.600000000000202371e-01,1.569999999999887930e+00,2.870000000000003638e+03,-2.175000000000145484e+00,-4.944999999999209805e+00,1.336010580185696028e+01,-2.349107505257717499e+00
1.999999999999915445e+01,3.000000000149234403e+00,1.000000000006435918e+01,6.600000000000365574e-01,1.570000000000032037e+00,2.869999999999996817e+03,-2.174999999999972289e+00,-4.945000000000347562e+00,1.330257561661213117e+01,-2.331117916054566752e+00
2.000000000000003197e+01,2.999999999735005307e+00,1.000000000001641531e+01,6.600000000000181277e-01,1.569999999999999840e+00,2.869999999999992724e+03,-2.175000000000005596e+00,-4.945000000000086438e+00,1.334882595885031797e+01,-2.421936846378150765e+00
1.999999999999980105e+01,2.999999999697230635e+00,1.000000000001483613e+01,6.600000000000256772e-01,1.570000000000017826e+00,2.869999999999991815e+03,-2.174999999999992717e+00,-4.945000000000224105e+00,1.344017905777908695e+01,-2.376952427841122706e+00
2.000000000000087752e+01,2.999999999378734294e+00,1.000000000001291234e+01,6.600000000000273426e-01,1.569999999999889706e+00,2.869999999999992724e+03,-2.175000000000137934e+00,-4.944999999999437179e+00,1.339395050414837840e+01,-2.394967006952215982e+00
2.000000000000031619e+01,3.000000002388276243e+00,1.000000000005651835e+01,6.599999999999800471e-01,1.570000000000064011e+00,2.870000000000001819e+03,-2.174999999999927880e+00,-4.945000000000287166e+00,1.340033044470980350e+01,-2.218294313612273250e+00
1.999999999999929301e+01,3.000000002520463838e+00,1.000000000006147793e+01,6.599999999999799360e-01,1.570000000000176144e+00,2.870000000000000455e+03,-2.174999999999798206e+00,-4.945000000001005702e+00,1.336314562254571037e+01,-2.215038353571188168e+00
2.000000000000208189e+01,3.000000000856290150e+00,1.000000000002058265e+01,6.600000000000075806e-01,1.569999999999788898e+00,2.870000000000001364e+03,-2.175000000000236966e+00,-4.944999999998765716e+00,1.354736280543926696e+01,-1.936930791140538455e+00
2.000000000000184741e+01,3.000000002366637109e+00,1.000000000006942180e+01,6.599999999999611733e-01,1.569999999999942553e+00,2.869999999999997272e+03,-2.175000000000059774e+00,-4.944999999999598828e+00,1.352526964805962706e+01,-2.266855733575649179e+00
1.999999999999829114e+01,2.999999999765630587e+00,1.000000000001031353e+01,6.599999999999923705e-01,1.570000000000284501e+00,2.869999999999985448e+03,-2.174999999999692069e+00,-4.945000000001829932e+00,1.325139123793256068e+01,-2.467864448284610823e+00
2.000000000000445155e+01,3.000000003706382312e+00,9.999999999981714183e+00,6.600000000000108002e-01,1.569999999999658780e+00,2.870000000000002274e+03,-2.175000000000443912e+00,-4.944999999998064943e+00,1.353459400673446567e+01,-2.237824323136527571e+00
2.000000000000453682e+01,3.000000003602454779e+00,9.999999999981454835e+00,6.600000000000229017e-01,1.569999999999641016e+00,2.870000000000004093e+03,-2.175000000000477218e+00,-4.944999999997992113e+00,1.354342938202377411e+01,-2.275504920040781531e+00
2.000000000000479972e+01,3.000000003709343055e+00,9.999999999982643217e+00,6.600000000000257883e-01,1.569999999999605489e+00,2.870000000000004093e+03,-2.175000000000518519e+00,-4.944999999997818030e+00,1.352183556282314925e+01,-2.280154403207629077e+00
1.999999999999744205e+01,2.999999998373436227e+00,1.000000000005285905e+01,6.600000000000268985e-01,1.570000000000310481e+00,2.869999999999989541e+03,-2.174999999999684519e+00,-4.945000000002227836e+00,1.312779860204968152e+01,-1.919029992712791621e+00
1.999999999999779732e+01,2.999999997982822464e+00,1.000000000004760459e+01,6.600000000000249001e-01,1.570000000000271401e+00,2.869999999999990450e+03,-2.174999999999727152e+00,-4.945000000001963159e+00,1.314275123254643951e+01,-1.941587576837500606e+00
1.999999999999797495e+01,2.999999999227994429e+00,1.000000000003214318e+01,6.600000000000214584e-01,1.570000000000233209e+00,2.869999999999993179e+03,-2.174999999999758238e+00,-4.945000000001762430e+00,1.324106417253696577e+01,-1.936852585422191408e+00
2.000000000000026645e+01,3.000000001460975785e+00,1.000000000002981970e+01,6.600000000000002531e-01,1.569999999999948104e+00,2.869999999999997272e+03,-2.175000000000049560e+00,-4.944999999999908802e+00,1.347152736617386459e+01,-2.069002959080503690e+00
1.999999999999988987e+01,2.999999999426901987e+00,9.999999999974045650e+00,6.600000000000276756e-01,1.569999999999912133e+00,2.870000000000000000e+03,-2.175000000000100631e+00,-4.944999999999590834e+00,1.347870811278296443e+01,-2.272172925039058544e+00
2.000000000000086331e+01,3.000000000014308998e+00,9.999999999971539211e+00,6.600000000000272316e-01,1.569999999999805107e+00,2.870000000000002274e+03,-2.175000000000223643e+00,-4.944999999998904272e+00,1.350009149566934141e+01,-2.268590900789378306e+00
2.000000000000024514e+01,2.999999999554471497e+00,9.999999999980010656e+00,6.600000000000254552e-01,1.569999999999883711e+00,2.870000000000000909e+03,-2.175000000000134381e+00,-4.944999999999405205e+00,1.342551158882462303e+01,-2.277646488999079288e+00
1.999999999999841904e+01,2.999999997699594356e+00,1.000000000002219025e+01,6.599999999999575095e-01,1.570000000000325358e+00,2.869999999999994088e+03,-2.174999999999630784e+00,-4.945000000001991580e+00,1.325267989233669574e+01,-2.591272734797219979e+00
1.999999999999875655e+01,2.999999997498722148e+00,1.000000000001901945e+01,6.599999999999640599e-01,1.570000000000284057e+00,2.869999999999994998e+03,-2.174999999999685407e+00,-4.945000000001747331e+00,1.324977384204416708e+01,-2.574136826837272629e+00
2.000000000000112621e+01,2.999999997777210492e+00,1.000000000005076295e+01,6.600000000000669775e-01,1.569999999999714957e+00,2.869999999999998181e+03,-2.175000000000342659e+00,-4.944999999998707096e+00,1.322724902186934770e+01,-2.214108211078892996e+00
2.000000000000080647e+01,2.999999998825884528e+00,1.000000000005191225e+01,6.600000000000244560e-01,1.569999999999897922e+00,2.869999999999995907e+03,-2.175000000000141931e+00,-4.944999999999732943e+00,1.331128577261656254e+01,-2.423318494046720950e+00
1.999999999999770850e+01,2.999999999557336761e+00,1.000000000003984013e+01,6.600000000000253442e-01,1.570000000000311147e+00,2.869999999999988177e+03,-2.174999999999692957e+00,-4.945000000002147011e+00,1.333499063679759011e+01,-2.339445441230390443e+00
1.999999999999826628e+01,2.999999999822519303e+00,1.000000000003535661e+01,6.600000000000191269e-01,1.570000000000246088e+00,2.869999999999986812e+03,-2.174999999999758682e+00,-4.945000000001710916e+00,1.336850654647643211e+01,-2.355705144886817592e+00
1.999999999999756284e+01,2.999999999906800330e+00,1.000000000003378808e+01,6.600000000000240119e-01,1.570000000000308704e+00,2.869999999999985448e+03,-2.174999999999686739e+00,-4.945000000002156781e+00,1.340127788850358215e+01,-2.343631075032595934e+00
2.000000000000096279e+01,3.000000001710166231e+00,1.000000000002958345e+01,6.600000000000069145e-01,1.570000000000035367e+00,2.869999999999993179e+03,-2.175000000000019362e+00,-4.945000000000425722e+00,1.326208090021672703e+01,-2.328058220322942073e+00
2.000000000000376943e+01,3.000000000319074545e+00,1.000000000002258638e+01,6.600000000000161293e-01,1.569999999999647233e+00,2.869999999999998636e+03,-2.175000000000447464e+00,-4.944999999998062279e+00,1.338983805240855141e+01,-2.173130266606608796e+00
2.000000000000298073e+01,3.000000000143761447e+00,1.000000000003328005e+01,6.600000000000000311e-01,1.569999999999769136e+00,2.869999999999999091e+03,-2.175000000000300471e+00,-4.944999999998715090e+00,1.336265903850827996e+01,-2.165471624880830781e+00
1.999999999999880629e+01,3.000000001641075720e+00,1.000000000003157474e+01,6.599999999999978106e-01,1.570000000000162155e+00,2.869999999999994543e+03,-2.174999999999828848e+00,-4.945000000001094520e+00,1.315342593705811503e+01,-2.426935793410831987e+00
1.999999999999997158e+01,2.999999999653235161e+00,1.000000000004652101e+01,6.600000000000135758e-01,1.570000000000025597e+00,2.869999999999997272e+03,-2.174999999999990052e+00,-4.945000000000386642e+00,1.326214187067648353e+01,-2.241376445154954489e+00
1.999999999999906919e+01,2.999999999564827657e+00,1.000000000005490008e+01,6.600000000000125766e-01,1.570000000000127738e+00,2.869999999999995453e+03,-2.174999999999872369e+00,-4.945000000001041229e+00,1.324398786204713296e+01,-2.263858402310750417e+00
2.000000000000157030e+01,3.000000001191964305e+00,1.000000000000885692e+01,6.600000000000102451e-01,1.569999999999782236e+00,2.870000000000001819e+03,-2.175000000000244071e+00,-4.944999999998747064e+00,1.380029141414122762e+01,-1.860240514869612394e+00
1.999999999999716138e+01,2.999999999694085595e+00,1.000000000002521006e+01,6.599999999999887068e-01,1.570000000000308926e+00,2.869999999999993179e+03,-2.174999999999636557e+00,-4.945000000001967599e+00,1.346554070895320088e+01,-2.285645192965104044e+00
2.000000000000168399e+01,3.000000002251441256e+00,1.000000000000811085e+01,6.600000000000159073e-01,1.569999999999820428e+00,2.869999999999995453e+03,-2.175000000000229416e+00,-4.944999999999084572e+00,1.356466680285826776e+01,-1.890325026169129341e+00
2.000000000000188649e+01,3.000000001980499320e+00,1.000000000001373657e+01,6.600000000000084688e-01,1.569999999999805995e+00,2.869999999999994543e+03,-2.175000000000239631e+00,-4.944999999998971774e+00,1.357134256787211335e+01,-1.920267559347806019e+00
1.999999999999933564e+01,2.999999997227823290e+00,9.999999999988183674e+00,6.600000000000089129e-01,1.570000000000037366e+00,2.869999999999991815e+03,-2.174999999999945643e+00,-4.945000000000535856e+00,1.337594168648724313e+01,-2.105225678701809322e+00
2.000000000000103384e+01,2.999999998026039894e+00,9.999999999979982235e+00,6.599999999999980327e-01,1.569999999999858842e+00,2.869999999999993179e+03,-2.175000000000140155e+00,-4.944999999999359908e+00,1.337701167936412538e+01,-2.136428885943258749e+00
1.999999999999790035e+01,2.999999996849561423e+00,9.999999999986549426e+00,6.599999999999952571e-01,1.570000000000238760e+00,2.869999999999991815e+03,-2.174999999999721823e+00,-4.945000000001471108e+00,1.341421736883570226e+01,-2.123185882806063685e+00
1.999999999999716138e+01,3.000000000085441876e+00,1.000000000004892442e+01,6.599999999999855982e-01,1.570000000000320028e+00,2.869999999999990905e+03,-2.174999999999621014e+00,-4.945000000002114149e+00,1.350042567593069975e+01,-2.107539486145405316e+00
1.999999999999877076e+01,3.000000001414104389e+00,1.000000000000992451e+01,6.599999999999603961e-01,1.570000000000179696e+00,2.869999999999986812e+03,-2.174999999999752021e+00,-4.945000000001064322e+00,1.382167820034145223e+01,-1.980261648256589568e+00
1.999999999999900879e+01,3.000000002047837455e+00,1.000000000000994937e+01,6.599999999999629496e-01,1.570000000000167040e+00,2.869999999999989086e+03,-2.174999999999775557e+00,-4.945000000000973728e+00,1.385768827065658471e+01,-2.014953802259508375e+00
1.999999999999790745e+01,3.000000000742090833e+00,1.000000000001860556e+01,6.599999999999277556e-01,1.570000000000374207e+00,2.869999999999989541e+03,-2.174999999999537081e+00,-4.945000000002025331e+00,1.384589823328068547e+01,-1.915060510834428076e+00
1.999999999999956302e+01,3.000000000526669819e+00,1.000000000000610001e+01,6.599999999999343059e-01,1.570000000000175921e+00,2.869999999999992269e+03,-2.174999999999765787e+00,-4.945000000000835172e+00,1.383551005462213901e+01,-1.948077283584284114e+00
1.999999999999906919e+01,3.000000002235473140e+00,1.000000000002873435e+01,6.599999999999489608e-01,1.570000000000233431e+00,2.869999999999999545e+03,-2.174999999999708056e+00,-4.945000000001311236e+00,1.348021045345388735e+01,-2.404434310314784273e+00
1.999999999999852207e+01,3.000000002035666302e+00,1.000000000002413181e+01,6.599999999999371925e-01,1.570000000000314033e+00,2.869999999999999091e+03,-2.174999999999608136e+00,-4.945000000001732232e+00,1.344356214507312330e+01,-2.401013324269707372e+00
2.000000000000002132e+01,3.000000003617627531e+00,9.999999999990118127e+00,6.600000000000033618e-01,1.569999999999997176e+00,2.869999999999995907e+03,-2.174999999999998934e+00,-4.945000000000006501e+00,1.349187859846614757e+01,-2.210148522601451226e+00
1.999999999999948841e+01,2.999999999774151771e+00,9.999999999978919973e+00,6.600000000000045830e-01,1.570000000000092211e+00,2.869999999999993634e+03,-2.174999999999905675e+00,-4.945000000000653984e+00,1.339816751747529722e+01,-2.165398155400860780e+00
1.999999999999842970e+01,2.999999999125063876e+00,9.999999999984622079e+00,6.600000000000018074e-01,1.570000000000216112e+00,2.869999999999991815e+03,-2.174999999999763123e+00,-4.945000000001407159e+00,1.343261253330020288e+01,-2.152171064034805070e+00
1.999999999999662492e+01,3.000000002996348059e+00,9.999999999994670929e+00,6.599999999999662803e-01,1.570000000000434826e+00,2.869999999999985448e+03,-2.174999999999466027e+00,-4.945000000002663931e+00,1.335517576061689482e+01,-2.184750789901111823e+00
1.999999999999595701e+01,3.000000003209614352e+00,1.000000000000797939e+01,6.599999999999734968e-01,1.570000000000487006e+00,2.869999999999983629e+03,-2.174999999999407407e+00,-4.945000000003059171e+00,1.335845940757681305e+01,-2.172691496260915400e+00
2.000000000000060396e+01,3.000000001477787670e+00,9.999999999947243978e+00,6.599999999999901501e-01,1.570000000000064677e+00,2.869999999999998636e+03,-2.174999999999945199e+00,-4.945000000000220552e+00,1.357854750662332499e+01,-2.174797737108711715e+00
2.000000000000122569e+01,3.000000001387779225e+00,9.999999999966332709e+00,6.600000000000287859e-01,1.569999999999890594e+00,2.869999999999999545e+03,-2.175000000000160583e+00,-4.944999999999480700e+00,1.343370597956931078e+01,-2.172811582502806704e+00
2.000000000000100187e+01,3.000000000838890735e+00,9.999999999970237141e+00,6.600000000000282308e-01,1.569999999999924345e+00,2.870000000000000455e+03,-2.175000000000124611e+00,-4.944999999999674323e+00,1.342397238005732341e+01,-2.161408242656758016e+00
2.000000000000105871e+01,3.000000001535868321e+00,9.999999999963318231e+00,6.600000000000302292e-01,1.569999999999904583e+00,2.869999999999998181e+03,-2.175000000000144151e+00,-4.944999999999585505e+00,1.342178961227778800e+01,-2.174769058462989069e+00
2.000000000000083134e+01,3.000000000761162688e+00,9.999999999966384223e+00,6.600000000000135758e-01,1.569999999999911022e+00,2.870000000000000455e+03,-2.175000000000109956e+00,-4.944999999999445173e+00,1.347314355294461841e+01,-2.174994825151937761e+00
1.999999999999992539e+01,2.999999999888638413e+00,9.999999999957696062e+00,6.600000000000069145e-01,1.570000000000068896e+00,2.870000000000000455e+03,-2.174999999999938094e+00,-4.945000000000382201e+00,1.321687040027335769e+01,-2.505668363160249879e+00
1.999999999999921130e+01,2.999999999448206278e+00,9.999999999955088370e+00,6.600000000000201261e-01,1.570000000000133067e+00,2.870000000000001364e+03,-2.174999999999876810e+00,-4.945000000000819185e+00,1.325090425460626697e+01,-2.547306571657298679e+00
1.999999999999913314e+01,2.999999999308795573e+00,9.999999999945009321e+00,6.600000000000209033e-01,1.570000000000146390e+00,2.869999999999997272e+03,-2.174999999999863931e+00,-4.945000000000857376e+00,1.321733457680926449e+01,-2.575710600186297494e+00
1.999999999999884537e+01,2.999999999560358344e+00,9.999999999944845896e+00,6.600000000000108002e-01,1.570000000000203677e+00,2.869999999999997726e+03,-2.174999999999795097e+00,-4.945000000001153140e+00,1.323952751028624419e+01,-2.577433066287631025e+00
2.000000000000209610e+01,3.000000000147839518e+00,9.999999999971766584e+00,6.599999999999835998e-01,1.569999999999945439e+00,2.870000000000002274e+03,-2.175000000000090417e+00,-4.944999999999597051e+00,1.342661974157165261e+01,-2.181158899790617056e+00
2.000000000000409983e+01,3.000000000833783265e+00,9.999999999968993691e+00,6.599999999999763833e-01,1.569999999999712514e+00,2.870000000000002728e+03,-2.175000000000343547e+00,-4.944999999998155538e+00,1.347728472968486990e+01,-2.155700265595517084e+00
2.000000000000264677e+01,2.999999999710745602e+00,1.000000000002271605e+01,6.600000000000326716e-01,1.569999999999718066e+00,2.869999999999997272e+03,-2.175000000000355982e+00,-4.944999999998544560e+00,1.359416614598428907e+01,-2.049935217852636882e+00
2.000000000000400036e+01,3.000000000764498242e+00,9.999999999999074518e+00,6.600000000000024736e-01,1.569999999999662332e+00,2.870000000000000455e+03,-2.175000000000426592e+00,-4.944999999997995666e+00,1.358640472043874325e+01,-2.202506929321685902e+00
1.999999999999532818e+01,2.999999999859499500e+00,1.000000000003526068e+01,6.600000000000002531e-01,1.570000000000458584e+00,2.869999999999982265e+03,-2.174999999999450040e+00,-4.945000000002896634e+00,1.346855590375594147e+01,-2.216767504357591623e+00
1.999999999999607425e+01,2.999999999782199112e+00,1.000000000003292122e+01,6.600000000000020295e-01,1.570000000000358442e+00,2.869999999999982265e+03,-2.174999999999561062e+00,-4.945000000002284679e+00,1.348406038219036063e+01,-2.205621697096785905e+00
2.000000000000522604e+01,3.000000001324750976e+00,1.000000000000791545e+01,6.600000000000214584e-01,1.569999999999365015e+00,2.870000000000002274e+03,-2.175000000000734790e+00,-4.944999999996319673e+00,1.358910263251489248e+01,-2.333424499901630700e+00
2.000000000000519762e+01,3.000000000840887804e+00,1.000000000001569056e+01,6.600000000000252331e-01,1.569999999999351248e+00,2.870000000000000000e+03,-2.175000000000749001e+00,-4.944999999996288587e+00,1.359359014863859372e+01,-2.333466186849927571e+00
2.000000000000443023e+01,3.000000001093101165e+00,1.000000000001056577e+01,6.600000000000157963e-01,1.569999999999460716e+00,2.870000000000001364e+03,-2.175000000000620215e+00,-4.944999999996898765e+00,1.354808701224015621e+01,-2.367735222327042699e+00
2.000000000000069988e+01,2.999999998460345374e+00,1.000000000005540102e+01,6.599999999999700551e-01,1.570000000000044915e+00,2.869999999999991815e+03,-2.174999999999950973e+00,-4.945000000000169038e+00,1.339624040964683616e+01,-2.144191607627120799e+00
2.000000000000103384e+01,2.999999998244659238e+00,1.000000000005050538e+01,6.599999999999736078e-01,1.569999999999994955e+00,2.869999999999992269e+03,-2.175000000000007372e+00,-4.944999999999885709e+00,1.337438673646903275e+01,-2.159829192352759719e+00
1.999999999999635136e+01,2.999999996406174763e+00,1.000000000002077627e+01,6.599999999999554001e-01,1.570000000000347562e+00,2.869999999999986812e+03,-2.174999999999522426e+00,-4.945000000001951612e+00,1.352006107265682644e+01,-2.085603887949143864e+00
1.999999999999699796e+01,2.999999996152034054e+00,1.000000000001647216e+01,6.599999999999557332e-01,1.570000000000285389e+00,2.869999999999988631e+03,-2.174999999999597922e+00,-4.945000000001550156e+00,1.350814551912167794e+01,-2.103002473492510571e+00
1.999999999999929656e+01,2.999999997190233803e+00,1.000000000001780087e+01,6.599999999999971445e-01,1.569999999999953211e+00,2.870000000000000455e+03,-2.175000000000001155e+00,-4.944999999999671658e+00,1.345275179625085116e+01,-2.162915572626991079e+00
1.999999999999846523e+01,2.999999996243733147e+00,1.000000000000538058e+01,6.599999999999919265e-01,1.570000000000185247e+00,2.869999999999985448e+03,-2.174999999999778666e+00,-4.945000000001194884e+00,1.332589148080449881e+01,-2.259510718279071906e+00
1.999999999999980815e+01,3.000000001012041118e+00,9.999999999975891285e+00,6.600000000000030287e-01,1.569999999999933893e+00,2.869999999999993179e+03,-2.175000000000049116e+00,-4.944999999999523332e+00,1.335139093256978704e+01,-2.242808725338317988e+00
1.999999999999970512e+01,3.000000001079860645e+00,9.999999999981140419e+00,6.599999999999950351e-01,1.569999999999954987e+00,2.869999999999992269e+03,-2.175000000000018030e+00,-4.944999999999626361e+00,1.335490761626034839e+01,-2.249542317513010925e+00
2.000000000000169464e+01,2.999999999486024915e+00,9.999999999917644544e+00,6.600000000000474376e-01,1.569999999999622142e+00,2.870000000000003183e+03,-2.175000000000413714e+00,-4.944999999997873985e+00,1.340834435456216234e+01,-1.971456089426265823e+00
2.000000000000191847e+01,2.999999999583278232e+00,9.999999999916187932e+00,6.600000000000495470e-01,1.569999999999582396e+00,2.870000000000001364e+03,-2.175000000000456790e+00,-4.944999999997634177e+00,1.340757685430257595e+01,-1.979582964897443897e+00
1.999999999999936762e+01,3.000000000168237424e+00,9.999999999991668886e+00,6.599999999999959233e-01,1.570000000000119078e+00,2.869999999999999091e+03,-2.174999999999868816e+00,-4.945000000000719709e+00,1.347161705162749357e+01,-2.241890174800984514e+00
2.000000000000022027e+01,3.000000000110813136e+00,9.999999999955463181e+00,6.599999999999970335e-01,1.569999999999972529e+00,2.870000000000001819e+03,-2.175000000000024247e+00,-4.944999999999658336e+00,1.370337876938407184e+01,-2.545895400031291000e+00
2.000000000000008882e+01,3.000000000449988047e+00,9.999999999954876984e+00,6.600000000000075806e-01,1.569999999999974083e+00,2.870000000000002728e+03,-2.175000000000032241e+00,-4.944999999999696527e+00,1.376075191489746530e+01,-2.560520264873219709e+00
2.000000000000201084e+01,2.999999997845812061e+00,9.999999999945242024e+00,6.600000000000124656e-01,1.569999999999856177e+00,2.870000000000004093e+03,-2.175000000000215206e+00,-4.944999999998982432e+00,1.348608322126108128e+01,-2.240988355534755616e+00
2.000000000000290967e+01,2.999999998082158115e+00,9.999999999948901319e+00,6.600000000000049161e-01,1.569999999999756479e+00,2.870000000000002728e+03,-2.175000000000319123e+00,-4.944999999998364260e+00,1.346754188361325610e+01,-2.238168239082039879e+00
1.999999999999979750e+01,2.999999997292415621e+00,9.999999999992992272e+00,6.599999999999992539e-01,1.570000000000111973e+00,2.869999999999996817e+03,-2.174999999999905675e+00,-4.945000000000654872e+00,1.360400680187828826e+01,-2.162634912124085762e+00
2.000000000000033396e+01,2.999999997381209038e+00,9.999999999986600940e+00,6.600000000000105782e-01,1.570000000000039808e+00,2.869999999999998636e+03,-2.174999999999998046e+00,-4.945000000000239204e+00,1.356193467965890243e+01,-2.136096031611424362e+00
2.000000000000257216e+01,3.000000002380850184e+00,9.999999999992619237e+00,6.600000000000448841e-01,1.569999999999643236e+00,2.869999999999999545e+03,-2.175000000000434586e+00,-4.944999999997877538e+00,1.348580896735257895e+01,-2.285309216921922459e+00
2.000000000000326494e+01,3.000000003782661295e+00,9.999999999968634867e+00,6.600000000000395550e-01,1.569999999999530438e+00,2.870000000000004547e+03,-2.175000000000548273e+00,-4.944999999997321538e+00,1.327170210559045849e+01,-2.428650676925366181e+00
2.000000000000312639e+01,3.000000003809208060e+00,9.999999999973191223e+00,6.600000000000139089e-01,1.569999999999597273e+00,2.870000000000004547e+03,-2.175000000000463896e+00,-4.944999999997472528e+00,1.376236464824479455e+01,-2.505939628311808498e+00
2.000000000000359535e+01,3.000000003351694478e+00,9.999999999965028863e+00,6.600000000000134648e-01,1.569999999999553530e+00,2.870000000000005002e+03,-2.175000000000516298e+00,-4.944999999997197193e+00,1.377133758198131375e+01,-2.554769307893158370e+00
2.000000000000396838e+01,3.000000004064713899e+00,9.999999999961138641e+00,6.600000000000315614e-01,1.569999999999485807e+00,2.870000000000006366e+03,-2.175000000000607780e+00,-4.944999999996847251e+00,1.377028028308059504e+01,-2.544494219443673710e+00
1.999999999999631584e+01,3.000000004860012837e+00,9.999999999985778487e+00,6.599999999999864864e-01,1.570000000000374207e+00,2.869999999999986812e+03,-2.174999999999542855e+00,-4.945000000002081286e+00,1.350702222752775761e+01,-2.551553386518000899e+00
2.000000000000164846e+01,3.000000000956998036e+00,9.999999999955942798e+00,6.599999999999928146e-01,1.569999999999893481e+00,2.869999999999999545e+03,-2.175000000000145484e+00,-4.944999999999202700e+00,1.333966553143192613e+01,-2.405432996537439916e+00
2.000000000000262546e+01,3.000000000129122490e+00,9.999999999952521534e+00,6.599999999999917044e-01,1.569999999999786011e+00,2.870000000000000000e+03,-2.175000000000267608e+00,-4.944999999998528573e+00,1.339074260053745213e+01,-2.361637473258861419e+00
2.000000000000169109e+01,3.000000000575829162e+00,9.999999999957315922e+00,6.600000000000010303e-01,1.569999999999877049e+00,2.870000000000000909e+03,-2.175000000000170353e+00,-4.944999999999144968e+00,1.339372953486253337e+01,-2.355994978760854952e+00
2.000000000000254730e+01,3.000000000326697336e+00,9.999999999964215291e+00,6.600000000000132427e-01,1.569999999999846851e+00,2.870000000000005002e+03,-2.175000000000229861e+00,-4.944999999998928253e+00,1.356112330185822756e+01,-2.329285690784970164e+00
2.000000000000407852e+01,3.000000000282875501e+00,9.999999999963268493e+00,6.600000000000104672e-01,1.569999999999667217e+00,2.870000000000005002e+03,-2.175000000000427480e+00,-4.944999999997837570e+00,1.357095717513377764e+01,-2.306967980064382306e+00
2.000000000000025580e+01,3.000000000594396088e+00,9.999999999970329512e+00,6.599999999999937028e-01,1.569999999999979634e+00,2.870000000000003183e+03,-2.175000000000015365e+00,-4.944999999999725837e+00,1.351123219881137238e+01,-2.223018155283690511e+00
1.999999999999934275e+01,2.999999999738665935e+00,9.999999999974818365e+00,6.599999999999993650e-01,1.570000000000074447e+00,2.870000000000000455e+03,-2.174999999999911449e+00,-4.945000000000353779e+00,1.347335983667391268e+01,-2.218290634055983812e+00
1.999999999999941380e+01,2.999999999438111686e+00,9.999999999975477394e+00,6.599999999999913713e-01,1.570000000000079776e+00,2.870000000000000909e+03,-2.174999999999900346e+00,-4.945000000000344009e+00,1.348906278543077342e+01,-2.245364647348204290e+00
1.999999999999869260e+01,3.000000000978998660e+00,9.999999999992834177e+00,6.599999999999800471e-01,1.570000000000138396e+00,2.870000000000001364e+03,-2.174999999999808864e+00,-4.945000000000667306e+00,1.345936629006730278e+01,-2.442299548431971612e+00
1.999999999999880274e+01,3.000000000997999017e+00,9.999999999996024513e+00,6.599999999999772715e-01,1.570000000000126628e+00,2.870000000000001364e+03,-2.174999999999818190e+00,-4.945000000000595364e+00,1.341578198784062259e+01,-2.417525152720810144e+00
2.000000000000043698e+01,2.999999999482228397e+00,9.999999999962708941e+00,6.599999999999904832e-01,1.570000000000020046e+00,2.869999999999995453e+03,-2.174999999999980727e+00,-4.945000000000057128e+00,1.369695522877127303e+01,-2.182811751721402072e+00
2.000000000000179767e+01,3.000000000312254667e+00,1.000000000000085798e+01,6.600000000000094680e-01,1.569999999999771356e+00,2.870000000000001819e+03,-2.175000000000250289e+00,-4.944999999998700879e+00,1.343178189873075823e+01,-2.311824095715651506e+00
1.999999999999788969e+01,3.000000001483059897e+00,9.999999999998149036e+00,6.599999999999887068e-01,1.570000000000174589e+00,2.869999999999999545e+03,-2.174999999999769340e+00,-4.945000000000892015e+00,1.354386494472615254e+01,-2.202975383358390271e+00
1.999999999999966249e+01,3.000000002633902429e+00,9.999999999997248423e+00,6.599999999999983658e-01,1.570000000000032037e+00,2.869999999999995907e+03,-2.174999999999958522e+00,-4.945000000000207230e+00,1.334953527193870038e+01,-2.112186307935135066e+00
1.999999999999979039e+01,3.000000002173481395e+00,9.999999999996605382e+00,6.599999999999950351e-01,1.570000000000040918e+00,2.869999999999998181e+03,-2.174999999999952749e+00,-4.945000000000214335e+00,1.330923105011486385e+01,-2.111725725601270920e+00
2.000000000000151346e+01,2.999999998662613354e+00,1.000000000004741096e+01,6.600000000000163514e-01,1.569999999999859064e+00,2.870000000000002728e+03,-2.175000000000190337e+00,-4.944999999999241780e+00,1.328559988064181674e+01,-2.267133292410060008e+00
2.000000000000040501e+01,2.999999999384994620e+00,1.000000000004352252e+01,6.600000000000206812e-01,1.569999999999992735e+00,2.870000000000001364e+03,-2.175000000000046452e+00,-4.945000000000089102e+00,1.329257163564244948e+01,-2.296096855385231450e+00
2.000000000000174083e+01,2.999999998689434122e+00,1.000000000004886580e+01,6.600000000000275646e-01,1.569999999999803109e+00,2.870000000000001364e+03,-2.175000000000256506e+00,-4.944999999998983320e+00,1.327391298585096813e+01,-2.257003003844667344e+00
1.999999999999949196e+01,2.999999997146526098e+00,1.000000000002033040e+01,6.600000000000116884e-01,1.570000000000030260e+00,2.869999999999995453e+03,-2.174999999999970068e+00,-4.945000000000298712e+00,1.360184296395775938e+01,-2.328260908322521860e+00
2.000000000000432721e+01,3.000000000792169441e+00,1.000000000000000355e+01,6.600000000000278977e-01,1.569999999999460938e+00,2.870000000000008640e+03,-2.175000000000626432e+00,-4.944999999996772644e+00,1.355656814564293811e+01,-2.238151161586678484e+00
2.000000000000397193e+01,3.000000000326381144e+00,9.999999999996330047e+00,6.600000000000288969e-01,1.569999999999503570e+00,2.870000000000007731e+03,-2.175000000000580247e+00,-4.944999999997046203e+00,1.358333483788533336e+01,-2.269709124325789418e+00
2.000000000000445155e+01,2.999999999038223564e+00,9.999999999987906563e+00,6.600000000000167955e-01,1.569999999999522444e+00,2.870000000000009095e+03,-2.175000000000566036e+00,-4.944999999997090612e+00,1.348242268654647091e+01,-2.275189508026455698e+00
2.000000000000434852e+01,2.999999999131964135e+00,9.999999999991658228e+00,6.600000000000072475e-01,1.569999999999544427e+00,2.870000000000008640e+03,-2.175000000000532285e+00,-4.944999999997195417e+00,1.349022152570651834e+01,-2.262242780692280242e+00
1.999999999999695532e+01,2.999999997865945289e+00,1.000000000004832934e+01,6.599999999999786038e-01,1.570000000000362661e+00,2.869999999999996362e+03,-2.174999999999578382e+00,-4.945000000002030660e+00,1.316010715557410116e+01,-2.440195851607138255e+00
1.999999999999704769e+01,2.999999998076747776e+00,1.000000000004796696e+01,6.599999999999800471e-01,1.570000000000353557e+00,2.869999999999997272e+03,-2.174999999999591260e+00,-4.945000000001973817e+00,1.318716456621007183e+01,-2.455946482104766737e+00
1.999999999999990763e+01,2.999999996429535631e+00,1.000000000001581846e+01,6.599999999999984768e-01,1.570000000000017826e+00,2.870000000000000000e+03,-2.174999999999976730e+00,-4.945000000000143281e+00,1.355642273589448976e+01,-2.080865281298500680e+00
1.999999999999953815e+01,2.999999996575817729e+00,1.000000000001485745e+01,6.599999999999929257e-01,1.570000000000068896e+00,2.870000000000000909e+03,-2.174999999999914557e+00,-4.945000000000422169e+00,1.353814491826289945e+01,-2.082020595573070398e+00
1.999999999999932498e+01,2.999999997696476850e+00,9.999999999976475706e+00,6.599999999999928146e-01,1.570000000000137952e+00,2.869999999999994088e+03,-2.174999999999859934e+00,-4.945000000000771223e+00,1.365886385341845966e+01,-2.236297432439481536e+00
1.999999999999884537e+01,2.999999998068073825e+00,9.999999999979307219e+00,6.599999999999781597e-01,1.570000000000207896e+00,2.869999999999991815e+03,-2.174999999999766676e+00,-4.945000000001148699e+00,1.365511578639451962e+01,-2.209790231553173001e+00
1.999999999999931077e+01,2.999999997332766455e+00,9.999999999970079045e+00,6.599999999999908162e-01,1.570000000000101537e+00,2.869999999999995453e+03,-2.174999999999886580e+00,-4.945000000000538520e+00,1.342619629057505470e+01,-2.319341803944099834e+00
2.000000000000026290e+01,2.999999998181849481e+00,9.999999999975701215e+00,6.600000000000513234e-01,1.569999999999778462e+00,2.870000000000000455e+03,-2.175000000000252953e+00,-4.944999999998689333e+00,1.367299731296614063e+01,-1.993588666699821710e+00
1.999999999999984723e+01,2.999999998224057496e+00,9.999999999981767473e+00,6.600000000000556533e-01,1.569999999999820206e+00,2.869999999999999091e+03,-2.175000000000209432e+00,-4.944999999998978879e+00,1.368908062824711713e+01,-1.961210633849145957e+00
2.000000000000012079e+01,3.000000001709964170e+00,9.999999999968673947e+00,6.600000000000170175e-01,1.569999999999927898e+00,2.870000000000001819e+03,-2.175000000000083755e+00,-4.944999999999506457e+00,1.366237747712825090e+01,-2.015648439117532220e+00
1.999999999999896616e+01,3.000000000979411663e+00,9.999999999977724485e+00,6.600000000000061373e-01,1.570000000000065565e+00,2.869999999999999545e+03,-2.174999999999915445e+00,-4.945000000000332463e+00,1.367639283918886761e+01,-1.990252489222484433e+00
1.999999999999857891e+01,2.999999999301002696e+00,9.999999999951759477e+00,6.600000000000065814e-01,1.570000000000090212e+00,2.870000000000000000e+03,-2.174999999999874145e+00,-4.945000000000383089e+00,1.365179003993732998e+01,-1.865815451254114077e+00
1.999999999999979394e+01,3.000000000780699949e+00,9.999999999975385023e+00,6.600000000000373346e-01,1.569999999999996065e+00,2.869999999999996817e+03,-2.175000000000038902e+00,-4.945000000000065121e+00,1.339522233792221861e+01,-2.201838687539454664e+00
1.999999999999949907e+01,3.000000000580147486e+00,9.999999999976330045e+00,6.600000000000243450e-01,1.570000000000041362e+00,2.869999999999995453e+03,-2.174999999999974953e+00,-4.945000000000289830e+00,1.336707483612996938e+01,-2.223104462161885397e+00
2.000000000000239098e+01,2.999999998298873649e+00,9.999999999967235098e+00,6.600000000000173506e-01,1.569999999999674767e+00,2.870000000000001819e+03,-2.175000000000373301e+00,-4.944999999997932605e+00,1.347510579551788545e+01,-2.233023826857326366e+00
2.000000000000200018e+01,2.999999998471540863e+00,9.999999999968316899e+00,6.600000000000039169e-01,1.569999999999744711e+00,2.870000000000001364e+03,-2.175000000000285816e+00,-4.944999999998302087e+00,1.345706563439083858e+01,-2.244995991111473188e+00
1.999999999999623057e+01,3.000000000949386791e+00,9.999999999987185362e+00,6.600000000000144640e-01,1.570000000000354889e+00,2.869999999999991360e+03,-2.174999999999588152e+00,-4.945000000002190532e+00,1.345069621157141349e+01,-2.325901628371493057e+00
1.999999999999590727e+01,3.000000000466378491e+00,9.999999999983616661e+00,6.600000000000146860e-01,1.570000000000384199e+00,2.869999999999990450e+03,-2.174999999999551736e+00,-4.945000000002377050e+00,1.345192607713802246e+01,-2.243480887564128778e+00
1.999999999999652900e+01,3.000000000893592755e+00,9.999999999990780708e+00,6.600000000000166844e-01,1.570000000000318696e+00,2.869999999999992269e+03,-2.174999999999631672e+00,-4.945000000001969376e+00,1.348369894028726179e+01,-2.257246447229116271e+00
2.000000000000042633e+01,3.000000000052889249e+00,9.999999999969547915e+00,6.600000000000122435e-01,1.569999999999975193e+00,2.869999999999994088e+03,-2.175000000000043343e+00,-4.945000000000016271e+00,1.324485741017437057e+01,-2.576510355660709628e+00
1.999999999999583977e+01,2.999999999607884771e+00,9.999999999998998135e+00,6.599999999999730527e-01,1.570000000000524976e+00,2.869999999999973625e+03,-2.174999999999386091e+00,-4.945000000003160423e+00,1.347077700282813950e+01,-2.324442736754872119e+00
1.999999999999670663e+01,3.000000002217116712e+00,9.999999999974431120e+00,6.599999999999472955e-01,1.570000000000386420e+00,2.869999999999983629e+03,-2.174999999999501554e+00,-4.945000000002186091e+00,1.342656495129991256e+01,-2.168872792594660925e+00
1.999999999999790745e+01,3.000000002113979214e+00,9.999999999961138641e+00,6.600000000000176836e-01,1.570000000000157048e+00,2.869999999999986358e+03,-2.174999999999805311e+00,-4.945000000001100737e+00,1.373593305553481159e+01,-2.166012679618674497e+00
2.000000000000029488e+01,3.000000000553134427e+00,9.999999999995432987e+00,6.599999999999850431e-01,1.570000000000062235e+00,2.869999999999995907e+03,-2.174999999999937206e+00,-4.945000000000431939e+00,1.367117497170346319e+01,-2.140570721696631651e+00
1.999999999999849720e+01,3.000000000835164382e+00,9.999999999993303135e+00,6.599999999999540679e-01,1.570000000000274287e+00,2.869999999999988631e+03,-2.174999999999657430e+00,-4.945000000001688711e+00,1.378261728223843363e+01,-2.101798127506547598e+00
1.999999999999945288e+01,3.000000000097076125e+00,1.000000000000215650e+01,6.599999999999673905e-01,1.570000000000150164e+00,2.869999999999989996e+03,-2.174999999999808864e+00,-4.945000000001019025e+00,1.370741367291685897e+01,-2.151731398639650461e+00
1.999999999999981171e+01,2.999999997931749540e+00,1.000000000000315836e+01,6.599999999999497380e-01,1.570000000000099538e+00,2.869999999999995907e+03,-2.174999999999843503e+00,-4.945000000000624674e+00,1.367320444319802064e+01,-2.204690373565930450e+00
2.000000000000020250e+01,2.999999999367313208e+00,9.999999999956196817e+00,6.599999999999723865e-01,1.570000000000085993e+00,2.870000000000000455e+03,-2.174999999999898570e+00,-4.945000000000399076e+00,1.369588569398806577e+01,-2.446430594163128802e+00
2.000000000000055067e+01,2.999999999574292975e+00,9.999999999943950613e+00,6.599999999999797140e-01,1.570000000000026041e+00,2.869999999999999545e+03,-2.174999999999968292e+00,-4.945000000000063345e+00,1.369433114097069115e+01,-2.428785149718521552e+00
1.999999999999958078e+01,2.999999999504038062e+00,1.000000000001688427e+01,6.600000000000094680e-01,1.569999999999987184e+00,2.869999999999994998e+03,-2.175000000000002487e+00,-4.945000000000138840e+00,1.372533796128610284e+01,-2.228879874932498950e+00
2.000000000000096989e+01,2.999999997898521897e+00,9.999999999982833288e+00,6.600000000000106892e-01,1.569999999999925233e+00,2.870000000000001364e+03,-2.175000000000105072e+00,-4.944999999999582840e+00,1.364425916034092445e+01,-2.214122435838262071e+00
2.000000000000082778e+01,2.999999997663071127e+00,9.999999999987252863e+00,6.599999999999958122e-01,1.569999999999948326e+00,2.869999999999998181e+03,-2.175000000000061995e+00,-4.944999999999683205e+00,1.365184287887139192e+01,-2.223638232779654444e+00
1.999999999999942801e+01,3.000000000637840891e+00,9.999999999972351006e+00,6.599999999999816014e-01,1.570000000000127738e+00,2.869999999999989541e+03,-2.174999999999839062e+00,-4.945000000000676188e+00,1.315587734498441108e+01,-2.183772443907880945e+00
2.000000000000030909e+01,3.000000000780768339e+00,9.999999999971269204e+00,6.599999999999812683e-01,1.570000000000018270e+00,2.869999999999989086e+03,-2.174999999999958966e+00,-4.945000000000026041e+00,1.318807102286325517e+01,-2.149468111117773361e+00
1.999999999999930367e+01,3.000000000924763377e+00,9.999999999965842434e+00,6.599999999999808242e-01,1.570000000000133289e+00,2.869999999999988177e+03,-2.174999999999827960e+00,-4.945000000000717932e+00,1.318129181676730255e+01,-2.132235654987935103e+00
2.000000000000177991e+01,3.000000000833638047e+00,9.999999999905659465e+00,6.600000000000385558e-01,1.569999999999750706e+00,2.869999999999997272e+03,-2.175000000000309797e+00,-4.944999999998705320e+00,1.343849739684611144e+01,-2.245671946214517156e+00
2.000000000000153122e+01,3.000000000533554978e+00,9.999999999909828574e+00,6.600000000000376676e-01,1.569999999999792228e+00,2.869999999999999091e+03,-2.175000000000267164e+00,-4.944999999998934470e+00,1.343053207719166586e+01,-2.240967290999094974e+00
1.999999999999818101e+01,3.000000000877019346e+00,9.999999999934487960e+00,6.600000000000137979e-01,1.570000000000122187e+00,2.869999999999985903e+03,-2.174999999999847500e+00,-4.945000000000900897e+00,1.339342459271831132e+01,-2.332374567015436106e+00
1.999999999999770850e+01,3.000000001115497472e+00,9.999999999938680162e+00,6.600000000000167955e-01,1.570000000000183915e+00,2.869999999999988177e+03,-2.174999999999783995e+00,-4.945000000001284590e+00,1.335827573469051721e+01,-2.357944855245129645e+00
1.999999999999703348e+01,2.999999998417944624e+00,9.999999999973688602e+00,6.599999999999971445e-01,1.570000000000371987e+00,2.869999999999994998e+03,-2.174999999999575273e+00,-4.945000000002242047e+00,1.330394242275224137e+01,-2.275668833881356878e+00
2.000000000000373745e+01,3.000000000427434532e+00,9.999999999952946084e+00,6.600000000000159073e-01,1.569999999999629026e+00,2.869999999999999091e+03,-2.175000000000462563e+00,-4.944999999997749640e+00,1.355271359912870111e+01,-2.170530929823655697e+00
2.000000000000315481e+01,3.000000000124197541e+00,9.999999999962133401e+00,6.600000000000063594e-01,1.569999999999715623e+00,2.869999999999999545e+03,-2.175000000000359979e+00,-4.944999999998238138e+00,1.356077248648762001e+01,-2.178146422631719314e+00
2.000000000000187228e+01,3.000000002442722025e+00,9.999999999941813655e+00,6.600000000000287859e-01,1.569999999999734053e+00,2.870000000000001819e+03,-2.175000000000324896e+00,-4.944999999998379359e+00,1.371250695688602050e+01,-2.074077448492351650e+00
2.000000000000121148e+01,2.999999999125544381e+00,9.999999999997992717e+00,6.600000000000149081e-01,1.569999999999921236e+00,2.869999999999999545e+03,-2.175000000000124611e+00,-4.944999999999661000e+00,1.348383704439710229e+01,-2.126462599137923348e+00
1.999999999999907629e+01,2.999999998524414568e+00,9.999999999986725285e+00,6.599999999999904832e-01,1.570000000000082663e+00,2.869999999999992269e+03,-2.174999999999869260e+00,-4.945000000000461249e+00,1.326971100465804732e+01,-2.186983977316121930e+00
1.999999999999868905e+01,3.000000003591250408e+00,1.000000000000667377e+01,6.600000000000171285e-01,1.569999999999976303e+00,2.869999999999993179e+03,-2.174999999999977174e+00,-4.944999999999924789e+00,1.338093528262793619e+01,-2.111668375748021909e+00
1.999999999999938538e+01,3.000000003173636021e+00,9.999999999997568167e+00,6.600000000000180167e-01,1.569999999999894813e+00,2.869999999999993179e+03,-2.175000000000068656e+00,-4.944999999999439844e+00,1.334257028074872053e+01,-2.100666068933290109e+00
1.999999999999592859e+01,3.000000001521814230e+00,1.000000000003330669e+01,6.599999999999781597e-01,1.570000000000430385e+00,2.869999999999983174e+03,-2.174999999999470024e+00,-4.945000000002518270e+00,1.363516004971060092e+01,-2.223591391749954127e+00
1.999999999999649702e+01,3.000000001309885977e+00,1.000000000002867040e+01,6.599999999999845990e-01,1.570000000000354667e+00,2.869999999999983174e+03,-2.174999999999560174e+00,-4.945000000002072404e+00,1.365276718001369716e+01,-2.229661368701093771e+00
2.000000000000106226e+01,3.000000000741905204e+00,9.999999999980076382e+00,6.599999999999732747e-01,1.570000000000010720e+00,2.870000000000000909e+03,-2.174999999999993605e+00,-4.944999999999921236e+00,1.352924780899114587e+01,-2.246063413904237471e+00
2.000000000000015632e+01,2.999999997503890903e+00,9.999999999964607866e+00,6.599999999999944800e-01,1.570000000000028262e+00,2.869999999999999091e+03,-2.174999999999969624e+00,-4.945000000000192131e+00,1.337929554340587579e+01,-2.211080442109271349e+00
1.999999999999978328e+01,2.999999997527275308e+00,9.999999999961257657e+00,6.600000000000021405e-01,1.570000000000048468e+00,2.869999999999997726e+03,-2.174999999999947864e+00,-4.945000000000372431e+00,1.338880796240257354e+01,-2.215979624739261133e+00
1.999999999999927880e+01,2.999999996505357647e+00,9.999999999967801756e+00,6.600000000000277867e-01,1.570000000000022045e+00,2.869999999999999545e+03,-2.174999999999975842e+00,-4.945000000000143281e+00,1.336698976407642725e+01,-2.302108490857301071e+00
1.999999999999944933e+01,2.999999996671288027e+00,9.999999999974122034e+00,6.600000000000311173e-01,1.570000000000013163e+00,2.870000000000000000e+03,-2.174999999999994049e+00,-4.945000000000107754e+00,1.334159061297544824e+01,-2.368830426059262084e+00
1.999999999999976552e+01,2.999999996965248883e+00,9.999999999968933295e+00,6.600000000000253442e-01,1.569999999999975637e+00,2.870000000000000000e+03,-2.175000000000028688e+00,-4.944999999999844853e+00,1.336480145772159389e+01,-2.369395132315055719e+00
1.999999999999974065e+01,2.999999999813497631e+00,1.000000000000809308e+01,6.600000000000190159e-01,1.570000000000061124e+00,2.869999999999999091e+03,-2.174999999999954081e+00,-4.945000000000461249e+00,1.335601754191177903e+01,-2.326224743924372174e+00
1.999999999999588951e+01,2.999999998573061433e+00,1.000000000003905676e+01,6.599999999999797140e-01,1.570000000000439710e+00,2.869999999999980901e+03,-2.174999999999466915e+00,-4.945000000002711005e+00,1.337549299953957593e+01,-2.206719272690461864e+00
1.999999999999605649e+01,2.999999998783850597e+00,1.000000000003450573e+01,6.599999999999722755e-01,1.570000000000433271e+00,2.869999999999981810e+03,-2.174999999999470024e+00,-4.945000000002600871e+00,1.340906125317806286e+01,-2.153990931155095101e+00
2.000000000000038725e+01,2.999999996925374113e+00,1.000000000000808775e+01,6.600000000000421085e-01,1.569999999999803331e+00,2.870000000000002728e+03,-2.175000000000222311e+00,-4.944999999998980655e+00,1.344912477783108429e+01,-2.187755237221697069e+00
2.000000000000123279e+01,2.999999997193230072e+00,1.000000000000822631e+01,6.600000000000418865e-01,1.569999999999706963e+00,2.870000000000004093e+03,-2.175000000000331113e+00,-4.944999999998393569e+00,1.343816889824735838e+01,-2.227421672799249297e+00
2.000000000000279954e+01,2.999999996106379463e+00,1.000000000000332889e+01,6.600000000000244560e-01,1.569999999999677431e+00,2.869999999999998636e+03,-2.175000000000387068e+00,-4.944999999998255902e+00,1.340087702336918341e+01,-2.163463656820250769e+00
2.000000000000325784e+01,2.999999996324822504e+00,1.000000000000677502e+01,6.600000000000301181e-01,1.569999999999630802e+00,2.870000000000001364e+03,-2.175000000000450573e+00,-4.944999999997965467e+00,1.343196374039212593e+01,-2.216537101951872035e+00
2.000000000000229150e+01,2.999999995822420384e+00,1.000000000000299671e+01,6.600000000000181277e-01,1.569999999999753593e+00,2.869999999999998636e+03,-2.175000000000300471e+00,-4.944999999998650253e+00,1.340778997886345181e+01,-2.189695212587106532e+00
2.000000000000033396e+01,2.999999998996115025e+00,9.999999999964440889e+00,6.599999999999770495e-01,1.569999999999981410e+00,2.870000000000001364e+03,-2.175000000000006040e+00,-4.944999999999624585e+00,1.386392610951297755e+01,-2.357086404218022846e+00
1.999999999999999289e+01,2.999999998899068210e+00,9.999999999968199660e+00,6.599999999999872635e-01,1.569999999999992957e+00,2.869999999999998636e+03,-2.174999999999994937e+00,-4.944999999999792450e+00,1.382116428478291148e+01,-2.347315728253986489e+00
1.999999999999604938e+01,3.000000003279402527e+00,1.000000000000993694e+01,6.599999999999895950e-01,1.570000000000379758e+00,2.869999999999986812e+03,-2.174999999999522871e+00,-4.945000000002278462e+00,1.326866922832551943e+01,-2.026998277955416317e+00
1.999999999999581490e+01,3.000000002817245992e+00,1.000000000001195133e+01,6.599999999999974776e-01,1.570000000000395746e+00,2.869999999999986358e+03,-2.174999999999510880e+00,-4.945000000002425899e+00,1.323452807058781211e+01,-2.081252426505391107e+00
1.999999999999752021e+01,3.000000001246031722e+00,1.000000000004734879e+01,6.599999999999621725e-01,1.570000000000356666e+00,2.869999999999982720e+03,-2.174999999999569944e+00,-4.945000000002142571e+00,1.355845009399783763e+01,-2.066211234946853104e+00
1.999999999999788614e+01,3.000000001514825154e+00,1.000000000004728129e+01,6.599999999999616174e-01,1.570000000000312701e+00,2.869999999999982265e+03,-2.174999999999617906e+00,-4.945000000001865459e+00,1.351818046778238980e+01,-2.103369214562216705e+00
1.999999999999653610e+01,2.999999999276909968e+00,9.999999999994235722e+00,6.600000000000000311e-01,1.570000000000315143e+00,2.869999999999983174e+03,-2.174999999999607692e+00,-4.945000000001912532e+00,1.340482992820947672e+01,-2.042302541276494576e+00
1.999999999999899813e+01,3.000000000872771633e+00,9.999999999972006393e+00,6.600000000000022515e-01,1.570000000000081553e+00,2.869999999999999091e+03,-2.174999999999895905e+00,-4.945000000000444373e+00,1.366500425330389668e+01,-2.153478074819213717e+00
1.999999999999831601e+01,3.000000000356285224e+00,9.999999999973395504e+00,6.599999999999981437e-01,1.570000000000170370e+00,2.869999999999998636e+03,-2.174999999999793765e+00,-4.945000000000972840e+00,1.366733119234813820e+01,-2.182619173904283283e+00
2.000000000000050449e+01,2.999999999323496258e+00,9.999999999972311926e+00,6.599999999999912603e-01,1.570000000000043361e+00,2.869999999999999091e+03,-2.174999999999974953e+00,-4.945000000000150386e+00,1.356946088282090201e+01,-2.340578434706281019e+00
2.000000000000138556e+01,2.999999999420667862e+00,9.999999999966954434e+00,6.599999999999845990e-01,1.569999999999944107e+00,2.869999999999998636e+03,-2.175000000000079758e+00,-4.944999999999491358e+00,1.358090084984575441e+01,-2.320771636562162676e+00
1.999999999999941025e+01,3.000000000267852407e+00,9.999999999967620568e+00,6.599999999999660583e-01,1.570000000000209006e+00,2.869999999999991360e+03,-2.174999999999768896e+00,-4.945000000001050999e+00,1.367406648919736512e+01,-2.304165049076395633e+00
2.000000000000117950e+01,2.999999998953288394e+00,9.999999999978564702e+00,6.600000000000018074e-01,1.569999999999868390e+00,2.870000000000000000e+03,-2.175000000000141043e+00,-4.944999999999162732e+00,1.330856797036833505e+01,-2.356892177225890173e+00
1.999999999999952038e+01,2.999999999702119613e+00,9.999999999987309707e+00,6.599999999999717204e-01,1.570000000000114415e+00,2.870000000000000000e+03,-2.174999999999845279e+00,-4.945000000000491447e+00,1.334179876706638801e+01,-2.364526879553824568e+00
2.000000000000031264e+01,2.999999997702911703e+00,9.999999999986712851e+00,6.599999999999979217e-01,1.569999999999929452e+00,2.870000000000002728e+03,-2.175000000000059774e+00,-4.944999999999485141e+00,1.336228036166501454e+01,-2.312545293716724348e+00
1.999999999999828049e+01,2.999999996020845217e+00,1.000000000000427569e+01,6.599999999999837108e-01,1.570000000000079998e+00,2.870000000000000455e+03,-2.174999999999851052e+00,-4.945000000000288942e+00,1.360579845706518753e+01,-1.980791855609601804e+00
1.999999999999931077e+01,2.999999996303566618e+00,1.000000000000200728e+01,6.599999999999983658e-01,1.569999999999929674e+00,2.870000000000002728e+03,-2.175000000000028244e+00,-4.944999999999434515e+00,1.363281704055985344e+01,-1.964762206999485228e+00
2.000000000000485301e+01,2.999999999514338267e+00,9.999999999945002216e+00,6.600000000000696421e-01,1.569999999999358353e+00,2.870000000000008640e+03,-2.175000000000783640e+00,-4.944999999996197104e+00,1.365199521282804973e+01,-2.164017378664860658e+00
2.000000000000500222e+01,2.999999999709437315e+00,9.999999999946227902e+00,6.600000000000501021e-01,1.569999999999359686e+00,2.870000000000008185e+03,-2.175000000000763656e+00,-4.944999999996107398e+00,1.363889552380448400e+01,-2.157358279029377268e+00
2.000000000000053646e+01,3.000000001121523319e+00,9.999999999987718269e+00,6.600000000000285638e-01,1.569999999999776463e+00,2.869999999999998636e+03,-2.175000000000232525e+00,-4.944999999998731965e+00,1.344930241461526954e+01,-1.999044963014744436e+00
1.999999999999979039e+01,2.999999997860872902e+00,9.999999999977156051e+00,6.600000000000392220e-01,1.569999999999906803e+00,2.870000000000001364e+03,-2.175000000000116174e+00,-4.944999999999533991e+00,1.357018816199516742e+01,-2.120705475320678435e+00
1.999999999999961631e+01,2.999999997996418699e+00,9.999999999995935696e+00,6.600000000000435518e-01,1.569999999999918572e+00,2.870000000000000455e+03,-2.175000000000105960e+00,-4.944999999999637019e+00,1.354982642844198892e+01,-2.092791284274169161e+00
2.000000000000234124e+01,2.999999994447336782e+00,9.999999999968984810e+00,6.600000000000282308e-01,1.569999999999729834e+00,2.870000000000002728e+03,-2.175000000000339995e+00,-4.944999999998406004e+00,1.346959444440919818e+01,-2.236896565816176352e+00
2.000000000000274625e+01,2.999999994915687473e+00,9.999999999967762676e+00,6.600000000000190159e-01,1.569999999999693197e+00,2.870000000000002274e+03,-2.175000000000373301e+00,-4.944999999998141327e+00,1.347553280002817999e+01,-2.253303181988492110e+00
2.000000000000250111e+01,2.999999995411723130e+00,9.999999999961078245e+00,6.600000000000091349e-01,1.569999999999743601e+00,2.870000000000002728e+03,-2.175000000000312017e+00,-4.944999999998364260e+00,1.346791027689984155e+01,-2.275901641803632192e+00
2.000000000000094857e+01,2.999999996734165730e+00,9.999999999968453679e+00,6.600000000000422196e-01,1.569999999999879936e+00,2.870000000000002274e+03,-2.175000000000190337e+00,-4.944999999999298623e+00,1.349730899997136291e+01,-2.278374289475835646e+00
2.000000000000047962e+01,2.999999993925626551e+00,9.999999999970956566e+00,6.600000000000126876e-01,1.569999999999932339e+00,2.870000000000000000e+03,-2.175000000000081979e+00,-4.944999999999554419e+00,1.333284201457350449e+01,-2.172351626513560063e+00
1.999999999999952038e+01,2.999999995421636534e+00,9.999999999980797583e+00,6.599999999999741629e-01,1.570000000000027596e+00,2.870000000000000455e+03,-2.174999999999917666e+00,-4.944999999999964757e+00,1.308856535285425871e+01,-2.468760441607450229e+00
1.999999999999907629e+01,3.000000000192655669e+00,1.000000000000786393e+01,6.600000000000190159e-01,1.570000000000045137e+00,2.869999999999995453e+03,-2.174999999999951861e+00,-4.945000000000378648e+00,1.370057850482060857e+01,-2.098751714166395832e+00
1.999999999999901945e+01,3.000000000697480740e+00,1.000000000001256062e+01,6.600000000000282308e-01,1.570000000000042473e+00,2.869999999999996362e+03,-2.174999999999963407e+00,-4.945000000000392859e+00,1.369095644997304895e+01,-2.096405374573860225e+00
1.999999999999852562e+01,3.000000002517434705e+00,9.999999999996900257e+00,6.600000000000300071e-01,1.570000000000132179e+00,2.870000000000000000e+03,-2.174999999999872813e+00,-4.945000000000841389e+00,1.338221751602892340e+01,-2.364858879003763459e+00
1.999999999999795364e+01,3.000000002357359641e+00,1.000000000001234568e+01,6.600000000000376676e-01,1.570000000000176810e+00,2.869999999999999091e+03,-2.174999999999824407e+00,-4.945000000001190443e+00,1.334650724817447376e+01,-2.342472410247215642e+00
1.999999999999833733e+01,3.000000002373231389e+00,9.999999999998584244e+00,6.600000000000246780e-01,1.570000000000158380e+00,2.870000000000000909e+03,-2.174999999999838174e+00,-4.945000000000983498e+00,1.340276191934538907e+01,-2.333584588065182430e+00
2.000000000000017764e+01,3.000000000310564463e+00,1.000000000005157297e+01,6.599999999999723865e-01,1.570000000000035811e+00,2.870000000000000000e+03,-2.174999999999940314e+00,-4.945000000000160156e+00,1.341403555699390893e+01,-2.395056600810724134e+00
1.999999999999973710e+01,3.000000001064277555e+00,1.000000000004716050e+01,6.599999999999830447e-01,1.570000000000073337e+00,2.869999999999998636e+03,-2.174999999999907008e+00,-4.945000000000444373e+00,1.343669868300005277e+01,-2.409499671504390594e+00
1.999999999999512923e+01,2.999999996985853734e+00,1.000000000004579448e+01,6.599999999999910383e-01,1.570000000000453699e+00,2.869999999999984993e+03,-2.174999999999433609e+00,-4.945000000002727880e+00,1.344863950091228411e+01,-2.140681925632929250e+00
1.999999999999430855e+01,2.999999998571253101e+00,1.000000000005099210e+01,6.600000000000058042e-01,1.570000000000517648e+00,2.869999999999984084e+03,-2.174999999999369216e+00,-4.945000000003205720e+00,1.338031798130322336e+01,-2.105301520849195196e+00
1.999999999999929656e+01,2.999999999147922480e+00,1.000000000001415934e+01,6.600000000000001421e-01,1.569999999999935225e+00,2.869999999999991815e+03,-2.175000000000013145e+00,-4.944999999999583729e+00,1.350435241798179931e+01,-2.234988342730964472e+00
1.999999999999972644e+01,2.999999998951067948e+00,1.000000000000847677e+01,6.600000000000072475e-01,1.569999999999882823e+00,2.869999999999993179e+03,-2.175000000000079758e+00,-4.944999999999295071e+00,1.346882763520065041e+01,-2.298729681260316848e+00
1.999999999999968736e+01,2.999999998955094505e+00,1.000000000000294698e+01,6.600000000000012523e-01,1.569999999999892371e+00,2.869999999999992724e+03,-2.175000000000063327e+00,-4.944999999999315499e+00,1.348464810863416830e+01,-2.283057992738349640e+00
2.000000000000062172e+01,2.999999999295939634e+00,1.000000000000691003e+01,6.600000000000229017e-01,1.569999999999792006e+00,2.869999999999994998e+03,-2.175000000000207656e+00,-4.944999999998870521e+00,1.351079256745293833e+01,-2.198840805900826645e+00
2.000000000000075673e+01,2.999999997522870387e+00,9.999999999981042720e+00,6.599999999999817124e-01,1.569999999999921458e+00,2.870000000000001819e+03,-2.175000000000057554e+00,-4.944999999999346585e+00,1.356468891039377489e+01,-2.145644984725223026e+00
2.000000000000140687e+01,2.999999998307089744e+00,1.000000000000344080e+01,6.599999999999934808e-01,1.569999999999816209e+00,2.869999999999993634e+03,-2.175000000000177014e+00,-4.944999999998923812e+00,1.344877985774612839e+01,-2.189181219326420624e+00
1.999999999999919709e+01,3.000000000520214538e+00,9.999999999979790388e+00,6.599999999999716094e-01,1.570000000000211449e+00,2.869999999999989541e+03,-2.174999999999750688e+00,-4.945000000001183338e+00,1.361831130115496791e+01,-2.253516686060426100e+00
1.999999999999726441e+01,2.999999997319716449e+00,1.000000000002704148e+01,6.599999999999798250e-01,1.570000000000226770e+00,2.869999999999982720e+03,-2.174999999999675193e+00,-4.945000000001448903e+00,1.358334638594542909e+01,-2.329691021884706448e+00
1.999999999999938893e+01,2.999999998757235886e+00,1.000000000001633538e+01,6.600000000000154632e-01,1.570000000000033813e+00,2.869999999999991360e+03,-2.174999999999958522e+00,-4.945000000000386642e+00,1.323943571064944535e+01,-2.230167696339101280e+00
1.999999999999907985e+01,2.999999999299062914e+00,1.000000000001298694e+01,6.600000000000215694e-01,1.570000000000060458e+00,2.869999999999989996e+03,-2.174999999999933209e+00,-4.945000000000589147e+00,1.325530527288250404e+01,-2.219669770099920392e+00
1.999999999999995737e+01,2.999999997437586607e+00,1.000000000005061374e+01,6.599999999999779376e-01,1.570000000000047358e+00,2.869999999999998636e+03,-2.174999999999924771e+00,-4.945000000000276508e+00,1.338684825786818600e+01,-2.372673843919125503e+00
2.000000000000123634e+01,2.999999997055561529e+00,1.000000000004349054e+01,6.599999999999963674e-01,1.569999999999880380e+00,2.870000000000001364e+03,-2.175000000000129941e+00,-4.944999999999313722e+00,1.334077780881058040e+01,-2.381118436968337360e+00
2.000000000000066080e+01,2.999999998784077082e+00,1.000000000002515854e+01,6.599999999999681677e-01,1.570000000000006946e+00,2.869999999999997726e+03,-2.174999999999969624e+00,-4.944999999999934559e+00,1.328702401808716616e+01,-2.274189875521979154e+00
1.999999999999846878e+01,2.999999997894630788e+00,1.000000000000008349e+01,6.599999999999637268e-01,1.570000000000214335e+00,2.869999999999992724e+03,-2.174999999999711164e+00,-4.945000000001292584e+00,1.346448443935209660e+01,-2.419369764946639911e+00
1.999999999999786482e+01,2.999999997744730251e+00,9.999999999992672528e+00,6.599999999999641709e-01,1.570000000000291385e+00,2.869999999999991815e+03,-2.174999999999627232e+00,-4.945000000001741114e+00,1.344716887298646668e+01,-2.381298382010878623e+00
1.999999999999566924e+01,2.999999999928224081e+00,1.000000000000817835e+01,6.599999999999461853e-01,1.570000000000529417e+00,2.869999999999996362e+03,-2.174999999999346123e+00,-4.945000000003123120e+00,1.332936468435646304e+01,-2.582518088797632227e+00
1.999999999999977618e+01,3.000000000707160108e+00,1.000000000001197087e+01,6.600000000000023626e-01,1.569999999999912133e+00,2.869999999999993634e+03,-2.175000000000062883e+00,-4.944999999999606821e+00,1.320461526295565413e+01,-2.267977566379072218e+00
2.000000000000253308e+01,3.000000002044681313e+00,9.999999999980637710e+00,6.600000000000041389e-01,1.569999999999663221e+00,2.870000000000005002e+03,-2.175000000000370637e+00,-4.944999999997864215e+00,1.353566580950169040e+01,-2.253724685496502733e+00
2.000000000000192557e+01,3.000000001685124484e+00,9.999999999984531485e+00,6.599999999999950351e-01,1.569999999999764917e+00,2.870000000000005912e+03,-2.175000000000255174e+00,-4.944999999998430873e+00,1.347940115315501330e+01,-2.272075676448940040e+00
2.000000000000220624e+01,3.000000001664773208e+00,9.999999999980495602e+00,6.600000000000103562e-01,1.569999999999704077e+00,2.870000000000005457e+03,-2.175000000000334222e+00,-4.944999999998124451e+00,1.351602974881160080e+01,-2.286296772703899638e+00
1.999999999999814904e+01,3.000000001419845130e+00,1.000000000004084910e+01,6.599999999999807132e-01,1.570000000000280949e+00,2.869999999999989086e+03,-2.174999999999682743e+00,-4.945000000001770424e+00,1.330481953667475814e+01,-2.316940228603260987e+00
1.999999999999744915e+01,3.000000000932101507e+00,1.000000000003824141e+01,6.599999999999645039e-01,1.570000000000389084e+00,2.869999999999988631e+03,-2.174999999999549516e+00,-4.945000000002355733e+00,1.330193796780128679e+01,-2.318218627231536821e+00
1.999999999999641531e+01,3.000000000142140522e+00,1.000000000000822631e+01,6.599999999999976996e-01,1.570000000000361995e+00,2.869999999999990450e+03,-2.174999999999567279e+00,-4.945000000002257146e+00,1.336639342494700067e+01,-2.328071646082067403e+00
1.999999999999704059e+01,3.000000000528688204e+00,1.000000000001124789e+01,6.599999999999914824e-01,1.570000000000289386e+00,2.869999999999989996e+03,-2.174999999999640554e+00,-4.945000000001813056e+00,1.332834673157799621e+01,-2.332019566652571374e+00
1.999999999999660005e+01,2.999999999606078216e+00,1.000000000000811262e+01,6.599999999999779376e-01,1.570000000000386198e+00,2.869999999999988177e+03,-2.174999999999530420e+00,-4.945000000002321094e+00,1.338541590591285946e+01,-2.364849365076408638e+00
1.999999999999691980e+01,2.999999999355033253e+00,1.000000000001482015e+01,6.600000000000002531e-01,1.570000000000313145e+00,2.869999999999987722e+03,-2.174999999999627676e+00,-4.945000000002023555e+00,1.339433617968619039e+01,-2.384922245705426214e+00
1.999999999999754507e+01,3.000000001878285971e+00,9.999999999960264674e+00,6.599999999999542899e-01,1.570000000000383311e+00,2.869999999999995453e+03,-2.174999999999550848e+00,-4.945000000002004015e+00,1.364608450217853353e+01,-2.405284006382252482e+00
1.999999999999780442e+01,3.000000001975866137e+00,9.999999999961476149e+00,6.599999999999656142e-01,1.570000000000332019e+00,2.869999999999994543e+03,-2.174999999999614797e+00,-4.945000000001781082e+00,1.363208603694041798e+01,-2.422778312566680192e+00
1.999999999999796785e+01,2.999999999931025396e+00,1.000000000003486278e+01,6.600000000000308953e-01,1.570000000000175033e+00,2.869999999999984539e+03,-2.174999999999817746e+00,-4.945000000001260609e+00,1.358630475044543751e+01,-2.587574817881233447e+00
