1.999999999999540989e+01,3.000000004305496404e+00,9.999999999977891463e+00,6.599999999999232037e-01,1.570000000000548956e+00,2.869999999999992724e+03,-2.174999999999253308e+00,-4.945000000003631158e+00,1.355117594753268939e+01,-2.045210036802370013e+00
1.999999999999906564e+01,2.999999995820632481e+00,1.000000000000746780e+01,6.600000000000290079e-01,1.570000000000224771e+00,2.869999999999998636e+03,-2.174999999999848388e+00,-4.945000000001281037e+00,1.334634935567294001e+01,-2.129375050434305638e+00
2.000000000000194689e+01,2.999999999453185850e+00,1.000000000001224265e+01,6.599999999999502931e-01,1.569999999999935891e+00,2.869999999999997272e+03,-2.175000000000054001e+00,-4.944999999999060591e+00,1.339648146459338740e+01,-2.210462214829903793e+00
1.999999999999693046e+01,2.999999997480803593e+00,1.000000000002434852e+01,6.599999999999801581e-01,1.570000000000368212e+00,2.869999999999992724e+03,-2.174999999999525091e+00,-4.945000000002398366e+00,1.338724341614362245e+01,-2.165348183077187461e+00
2.000000000000135003e+01,2.999999998201145601e+00,1.000000000000445866e+01,6.599999999999656142e-01,1.569999999999889484e+00,2.869999999999987722e+03,-2.175000000000087752e+00,-4.944999999999205365e+00,1.344523678341034945e+01,-2.154419859963554007e+00
2.000000000000223466e+01,2.999999998610856089e+00,9.999999999973063325e+00,6.599999999999730527e-01,1.569999999999858842e+00,2.870000000000000909e+03,-2.175000000000150813e+00,-4.944999999998846540e+00,1.340076255474436628e+01,-2.177965988008536691e+00
2.000000000000003197e+01,2.999999999842049458e+00,9.999999999981582732e+00,6.599999999999613953e-01,1.570000000000084661e+00,2.869999999999999545e+03,-2.174999999999877254e+00,-4.945000000000500329e+00,1.335596785010392473e+01,-2.219817816337350980e+00
2.000000000000235545e+01,3.000000000882194762e+00,9.999999999964694908e+00,6.599999999999656142e-01,1.569999999999772022e+00,2.869999999999995453e+03,-2.175000000000195222e+00,-4.944999999998845652e+00,1.332222353151669836e+01,-2.192882706254181802e+00
1.999999999999637623e+01,2.999999998087016451e+00,9.999999999982554399e+00,6.599999999999212053e-01,1.570000000000517870e+00,2.869999999999984084e+03,-2.174999999999330136e+00,-4.945000000003170193e+00,1.336703020428254085e+01,-2.117271466861589069e+00
1.999999999999743849e+01,2.999999998228664921e+00,1.000000000006371970e+01,6.599999999999750511e-01,1.570000000000480789e+00,2.869999999999993179e+03,-2.174999999999526867e+00,-4.945000000002456098e+00,1.329861655638949536e+01,-2.126727807156549854e+00
1.999999999999816325e+01,2.999999999709850762e+00,1.000000000001499068e+01,6.599999999999897060e-01,1.570000000000220997e+00,2.869999999999987267e+03,-2.174999999999732037e+00,-4.945000000001222418e+00,1.340063161195306840e+01,-2.178690755331774920e+00
2.000000000000174083e+01,2.999999997438468124e+00,9.999999999976553866e+00,6.599999999999934808e-01,1.569999999999803997e+00,2.869999999999997726e+03,-2.175000000000208988e+00,-4.944999999998854534e+00,1.344614577198107952e+01,-2.189783938030721799e+00
1.999999999999943157e+01,3.000000000664751365e+00,1.000000000001367972e+01,6.599999999999849321e-01,1.570000000000097540e+00,2.869999999999982720e+03,-2.174999999999878586e+00,-4.945000000000749907e+00,1.340338635412832602e+01,-2.164841472292653890e+00
1.999999999999979039e+01,2.999999997713536537e+00,9.999999999996131095e+00,6.599999999999465183e-01,1.570000000000218332e+00,2.869999999999999091e+03,-2.174999999999717826e+00,-4.945000000001113172e+00,1.340944054923698481e+01,-2.086640183561609074e+00
1.999999999999826272e+01,2.999999996919497924e+00,9.999999999978731680e+00,6.600000000000345590e-01,1.570000000000316254e+00,2.869999999999999091e+03,-2.174999999999757350e+00,-4.945000000001751772e+00,1.341202202172565094e+01,-2.190302072220702279e+00
1.999999999999881695e+01,2.999999997243947281e+00,9.999999999994955147e+00,6.599999999999890399e-01,1.570000000000204343e+00,2.869999999999985903e+03,-2.174999999999770672e+00,-4.945000000001119389e+00,1.332950848768577501e+01,-2.165487107459301175e+00
1.999999999999583267e+01,2.999999998262083523e+00,9.999999999973422149e+00,6.599999999999760503e-01,1.570000000000592255e+00,2.869999999999993179e+03,-2.174999999999353228e+00,-4.945000000003393126e+00,1.334288013015748042e+01,-2.185954935603686700e+00
2.000000000000137135e+01,2.999999999246330873e+00,1.000000000000819433e+01,6.599999999999731637e-01,1.570000000000018714e+00,2.870000000000005457e+03,-2.174999999999998934e+00,-4.944999999999966533e+00,1.342838604198961683e+01,-2.172654139168201493e+00
1.999999999999946354e+01,2.999999998517032473e+00,1.000000000000565592e+01,6.599999999999695000e-01,1.570000000000040030e+00,2.869999999999984539e+03,-2.174999999999879474e+00,-4.945000000000516316e+00,1.338127253786024795e+01,-2.155545812971042974e+00
1.999999999999900879e+01,2.999999997646915162e+00,9.999999999994868105e+00,6.599999999999952571e-01,1.570000000000133511e+00,2.869999999999978627e+03,-2.174999999999913669e+00,-4.945000000000299600e+00,1.336487750130246788e+01,-2.174220321180505788e+00
1.999999999999833733e+01,2.999999996489147502e+00,1.000000000001399059e+01,6.599999999999937028e-01,1.570000000000246532e+00,2.870000000000004547e+03,-2.174999999999723155e+00,-4.945000000001835261e+00,1.344780070661536975e+01,-2.114623014164624060e+00
1.999999999999885958e+01,2.999999998020406178e+00,9.999999999992253308e+00,6.599999999999779376e-01,1.570000000000062679e+00,2.869999999999997726e+03,-2.174999999999876366e+00,-4.945000000000438156e+00,1.353291622739684286e+01,-2.189527028313396517e+00
2.000000000000110134e+01,3.000000001717039844e+00,9.999999999964854780e+00,6.599999999999883737e-01,1.569999999999803997e+00,2.869999999999984539e+03,-2.175000000000151701e+00,-4.944999999999133422e+00,1.332447742747113573e+01,-2.133525550791635972e+00
2.000000000000005329e+01,2.999999998746439189e+00,9.999999999948476770e+00,6.600000000000454392e-01,1.569999999999996732e+00,2.869999999999998636e+03,-2.175000000000066880e+00,-4.945000000000105089e+00,1.329987617665052291e+01,-2.147603798076396231e+00
1.999999999999930367e+01,2.999999998714512284e+00,1.000000000003161560e+01,6.599999999999679456e-01,1.570000000000109086e+00,2.869999999999996817e+03,-2.174999999999805755e+00,-4.945000000001023466e+00,1.339640658113747307e+01,-2.140178171277292485e+00
1.999999999999916511e+01,2.999999999091993885e+00,9.999999999956648011e+00,6.600000000000170175e-01,1.570000000000066231e+00,2.869999999999990450e+03,-2.174999999999954525e+00,-4.945000000000419504e+00,1.344482583152109889e+01,-2.103901415374018313e+00
2.000000000000055422e+01,2.999999999308005982e+00,9.999999999984868992e+00,6.599999999999089928e-01,1.570000000000016271e+00,2.869999999999992724e+03,-2.174999999999798650e+00,-4.945000000000378648e+00,1.337318558531862855e+01,-2.192484665895709561e+00
2.000000000000078870e+01,2.999999998681135871e+00,1.000000000000129141e+01,6.600000000000230127e-01,1.569999999999954321e+00,2.870000000000000909e+03,-2.175000000000103295e+00,-4.944999999999823537e+00,1.344002129642826660e+01,-2.127680419990756189e+00
1.999999999999872102e+01,2.999999999507094284e+00,9.999999999999904077e+00,6.600000000000242339e-01,1.570000000000326024e+00,2.870000000000003183e+03,-2.174999999999776890e+00,-4.945000000001448015e+00,1.339452613945466375e+01,-2.152252489954641579e+00
1.999999999999648637e+01,3.000000001719444587e+00,9.999999999983872456e+00,6.599999999999778266e-01,1.570000000000535190e+00,2.869999999999996817e+03,-2.174999999999392308e+00,-4.945000000003321183e+00,1.337446967475654702e+01,-2.202367692521251641e+00
1.999999999999965539e+01,2.999999998749771635e+00,1.000000000000654587e+01,6.599999999999632827e-01,1.570000000000233875e+00,2.870000000000003638e+03,-2.174999999999736922e+00,-4.945000000001270379e+00,1.336927239632252551e+01,-2.152149361162884134e+00
2.000000000000021672e+01,3.000000000030062175e+00,9.999999999959666042e+00,6.599999999999960343e-01,1.570000000000014495e+00,2.869999999999993634e+03,-2.174999999999995826e+00,-4.945000000000067786e+00,1.339854962988049003e+01,-2.185515765525018583e+00
1.999999999999735678e+01,2.999999999457073852e+00,1.000000000002684253e+01,6.599999999999675016e-01,1.570000000000453699e+00,2.870000000000000455e+03,-2.174999999999477573e+00,-4.945000000002778506e+00,1.343178998412989422e+01,-2.153067765143767964e+00
1.999999999999799272e+01,3.000000000198947969e+00,9.999999999999431566e+00,6.599999999999695000e-01,1.570000000000237872e+00,2.869999999999990905e+03,-2.174999999999653877e+00,-4.945000000001734008e+00,1.338488576020957055e+01,-2.136757245102748559e+00
1.999999999999992539e+01,2.999999994915145685e+00,1.000000000001093170e+01,6.600000000000564304e-01,1.570000000000026041e+00,2.869999999999997272e+03,-2.175000000000057110e+00,-4.945000000000390195e+00,1.332319513594324967e+01,-2.199999366414280733e+00
2.000000000000004619e+01,2.999999997298284704e+00,1.000000000001016431e+01,6.600000000000414424e-01,1.570000000000020934e+00,2.869999999999994998e+03,-2.175000000000040234e+00,-4.945000000000185025e+00,1.335270494535799202e+01,-2.260250823561988032e+00
1.999999999999874234e+01,3.000000000688284985e+00,1.000000000003644374e+01,6.600000000000283418e-01,1.570000000000123297e+00,2.869999999999994088e+03,-2.174999999999920774e+00,-4.945000000000832507e+00,1.342361918348141891e+01,-2.110577881698321168e+00
1.999999999999794653e+01,2.999999999992617461e+00,1.000000000001086775e+01,6.599999999999947020e-01,1.570000000000176810e+00,2.869999999999979082e+03,-2.174999999999816858e+00,-4.945000000000742801e+00,1.334796874957187640e+01,-2.250280535257257242e+00
2.000000000000073186e+01,2.999999999489876501e+00,1.000000000000835243e+01,6.600000000000402212e-01,1.569999999999873941e+00,2.870000000000000909e+03,-2.175000000000184563e+00,-4.944999999999258655e+00,1.336058143512460639e+01,-2.187618907893468467e+00
1.999999999999894484e+01,3.000000001797435534e+00,1.000000000003311307e+01,6.599999999999738298e-01,1.570000000000158380e+00,2.869999999999992269e+03,-2.174999999999832845e+00,-4.945000000000455032e+00,1.344023856364066560e+01,-2.161985304049878653e+00
1.999999999999931077e+01,3.000000002289224366e+00,1.000000000004155787e+01,6.600000000000003642e-01,1.570000000000020490e+00,2.869999999999989996e+03,-2.174999999999975842e+00,-4.944999999999857287e+00,1.336343563697493586e+01,-2.189736278305374650e+00
1.999999999999630873e+01,3.000000002099644014e+00,9.999999999991343813e+00,6.599999999999979217e-01,1.570000000000413731e+00,2.869999999999985448e+03,-2.174999999999536637e+00,-4.945000000002253593e+00,1.334818242854765380e+01,-2.145484255212069424e+00
1.999999999999732836e+01,3.000000003257669245e+00,1.000000000000552447e+01,6.599999999999962563e-01,1.570000000000301155e+00,2.869999999999989996e+03,-2.174999999999628564e+00,-4.945000000001824603e+00,1.331455727081043960e+01,-2.126320941336377057e+00
2.000000000000045830e+01,3.000000002114300290e+00,1.000000000002729017e+01,6.599999999999984768e-01,1.569999999999788454e+00,2.869999999999989086e+03,-2.175000000000137046e+00,-4.944999999999110329e+00,1.338695413688183855e+01,-2.219971973948100974e+00
2.000000000000065370e+01,3.000000002160585044e+00,1.000000000002693135e+01,6.599999999999807132e-01,1.569999999999875051e+00,2.869999999999994543e+03,-2.175000000000066436e+00,-4.944999999999392770e+00,1.334528370799590569e+01,-2.211303056815745016e+00
2.000000000000046185e+01,3.000000002744741323e+00,1.000000000000659561e+01,6.599999999999700551e-01,1.569999999999679874e+00,2.869999999999971806e+03,-2.175000000000184119e+00,-4.944999999998722195e+00,1.338384598642240952e+01,-2.244344332354160532e+00
1.999999999999869615e+01,3.000000002764366958e+00,1.000000000001891287e+01,6.599999999999764944e-01,1.570000000000009832e+00,2.869999999999974534e+03,-2.174999999999912337e+00,-4.945000000000090878e+00,1.337795647216007389e+01,-2.245846112710586429e+00
1.999999999999875655e+01,3.000000000700490332e+00,9.999999999995933919e+00,6.599999999999592859e-01,1.570000000000096430e+00,2.869999999999989996e+03,-2.174999999999807976e+00,-4.945000000000598028e+00,1.342635200913199434e+01,-2.217491878514068038e+00
1.999999999999679190e+01,2.999999999539847195e+00,9.999999999967776887e+00,6.599999999999991429e-01,1.570000000000463247e+00,2.869999999999997272e+03,-2.174999999999544187e+00,-4.945000000002645280e+00,1.334827765707725611e+01,-2.149043681664451366e+00
1.999999999999863576e+01,3.000000002364943352e+00,9.999999999955765162e+00,6.599999999999955902e-01,1.570000000000158602e+00,2.869999999999992724e+03,-2.174999999999812861e+00,-4.945000000001026130e+00,1.338115012276579030e+01,-2.126967988355363826e+00
1.999999999999929656e+01,3.000000001969140406e+00,9.999999999999905853e+00,6.599999999999991429e-01,1.570000000000078666e+00,2.869999999999989996e+03,-2.174999999999920774e+00,-4.945000000000479901e+00,1.337675980555332700e+01,-2.156548828896158732e+00
1.999999999999744915e+01,3.000000002657641218e+00,9.999999999982748022e+00,6.599999999999641709e-01,1.570000000000264739e+00,2.869999999999981355e+03,-2.174999999999623679e+00,-4.945000000001824603e+00,1.339427011271965462e+01,-2.142808941800164568e+00
2.000000000000191847e+01,2.999999997892845993e+00,9.999999999941618256e+00,6.600000000000475486e-01,1.569999999999726947e+00,2.870000000000000000e+03,-2.175000000000392397e+00,-4.944999999998149320e+00,1.348144502761697616e+01,-2.109165834284218999e+00
1.999999999999890221e+01,3.000000000118318688e+00,9.999999999977664089e+00,6.600000000000307843e-01,1.570000000000072671e+00,2.870000000000000455e+03,-2.174999999999927880e+00,-4.945000000000758789e+00,1.346077819385015317e+01,-2.134322162314450377e+00
2.000000000000207834e+01,3.000000002704375390e+00,9.999999999969293896e+00,6.600000000000090239e-01,1.569999999999646567e+00,2.869999999999985903e+03,-2.175000000000395950e+00,-4.944999999997641282e+00,1.351708779516531322e+01,-2.335368444442194047e+00
2.000000000000396128e+01,3.000000000366997099e+00,9.999999999958044228e+00,6.600000000000328937e-01,1.569999999999344809e+00,2.870000000000000000e+03,-2.175000000000700151e+00,-4.944999999996129603e+00,1.359028127157802501e+01,-2.229734776601574708e+00
1.999999999999839773e+01,3.000000000229356534e+00,1.000000000003796075e+01,6.600000000000222355e-01,1.570000000000200790e+00,2.869999999999991815e+03,-2.174999999999822187e+00,-4.945000000000962181e+00,1.320319061809871997e+01,-2.325039366488913295e+00
1.999999999999872458e+01,3.000000000018769430e+00,1.000000000002911271e+01,6.599999999999804912e-01,1.570000000000088436e+00,2.869999999999983629e+03,-2.174999999999801314e+00,-4.945000000000879581e+00,1.323799856941830377e+01,-2.278375344142249848e+00
2.000000000000315481e+01,3.000000003631066559e+00,9.999999999990604849e+00,6.599999999999867084e-01,1.569999999999746487e+00,2.869999999999993634e+03,-2.175000000000275158e+00,-4.944999999998376694e+00,1.350397931139586660e+01,-2.270436536087875989e+00
1.999999999999849720e+01,2.999999997968331389e+00,1.000000000001348077e+01,6.600000000000358913e-01,1.570000000000185914e+00,2.869999999999994088e+03,-2.174999999999837286e+00,-4.945000000001577689e+00,1.325095721155856410e+01,-2.016499820347177341e+00
1.999999999999812417e+01,3.000000001260030746e+00,1.000000000000689759e+01,6.600000000000162403e-01,1.570000000000171037e+00,2.869999999999981355e+03,-2.174999999999811084e+00,-4.945000000001062546e+00,1.333702143865840739e+01,-2.040631143517661616e+00
1.999999999999834799e+01,2.999999996676801839e+00,1.000000000001529976e+01,6.599999999999920375e-01,1.570000000000246754e+00,2.869999999999994543e+03,-2.174999999999702727e+00,-4.945000000001664731e+00,1.332809062247418730e+01,-2.007621157505386389e+00
2.000000000000117240e+01,3.000000001507070468e+00,9.999999999988919086e+00,6.600000000000134648e-01,1.569999999999859508e+00,2.869999999999989996e+03,-2.175000000000164135e+00,-4.944999999999252438e+00,1.337578204800687409e+01,-1.986899042991641551e+00
1.999999999999852207e+01,3.000000000865858496e+00,1.000000000000863842e+01,6.599999999999562883e-01,1.570000000000179030e+00,2.869999999999981810e+03,-2.174999999999684963e+00,-4.945000000001276597e+00,1.334936919446024817e+01,-2.056575236560775455e+00
1.999999999999797140e+01,3.000000002749507289e+00,9.999999999998582467e+00,6.600000000000358913e-01,1.570000000000172591e+00,2.869999999999985903e+03,-2.174999999999863043e+00,-4.945000000001074980e+00,1.326386037037709720e+01,-2.032391046269536261e+00
1.999999999999692335e+01,2.999999997371059823e+00,1.000000000003315037e+01,6.600000000000384448e-01,1.570000000000292939e+00,2.869999999999989541e+03,-2.174999999999689404e+00,-4.945000000002349516e+00,1.331063293332654140e+01,-2.055930490148727419e+00
2.000000000000314415e+01,2.999999999667261275e+00,1.000000000000445866e+01,6.600000000000345590e-01,1.569999999999681650e+00,2.869999999999995453e+03,-2.175000000000420375e+00,-4.944999999998194617e+00,1.328877200776451240e+01,-2.193516404056590208e+00
1.999999999999930722e+01,3.000000001436570418e+00,1.000000000001156408e+01,6.599999999999859313e-01,1.570000000000208118e+00,2.869999999999994998e+03,-2.174999999999784439e+00,-4.945000000001496865e+00,1.326686359400454585e+01,-2.296524024925702179e+00
1.999999999999968381e+01,3.000000000316398019e+00,1.000000000004021672e+01,6.599999999999933697e-01,1.570000000000240314e+00,2.869999999999998181e+03,-2.174999999999814193e+00,-4.945000000001020801e+00,1.336191378283821862e+01,-2.143508089713832554e+00
2.000000000000274980e+01,3.000000000806894995e+00,1.000000000004122747e+01,6.599999999999851541e-01,1.569999999999706519e+00,2.869999999999992724e+03,-2.175000000000273825e+00,-4.944999999998449525e+00,1.328850441377871050e+01,-2.175479141796931692e+00
2.000000000000284572e+01,3.000000001040981967e+00,1.000000000006002843e+01,6.599999999999760503e-01,1.569999999999741824e+00,2.869999999999991815e+03,-2.175000000000285816e+00,-4.944999999998321627e+00,1.336996934712438545e+01,-2.185637644838929639e+00
2.000000000000115818e+01,3.000000001644611114e+00,1.000000000003646683e+01,6.600000000000126876e-01,1.569999999999993623e+00,2.869999999999999091e+03,-2.175000000000071321e+00,-4.944999999999658336e+00,1.340026977770798666e+01,-2.102566313297034473e+00
2.000000000000558131e+01,2.999999998379808019e+00,1.000000000002745182e+01,6.600000000000016964e-01,1.569999999999460494e+00,2.870000000000002274e+03,-2.175000000000624656e+00,-4.944999999996619877e+00,1.347828182704303579e+01,-2.077174818665523670e+00
2.000000000000356337e+01,2.999999998526334366e+00,1.000000000002185807e+01,6.600000000000194600e-01,1.569999999999685869e+00,2.870000000000001364e+03,-2.175000000000411493e+00,-4.944999999998149320e+00,1.337453082944599991e+01,-2.196764396342738124e+00
2.000000000000189004e+01,2.999999997744043689e+00,1.000000000002243716e+01,6.600000000000024736e-01,1.569999999999947216e+00,2.870000000000001819e+03,-2.175000000000126388e+00,-4.944999999999622808e+00,1.339630070941325890e+01,-2.105261490273144354e+00
2.000000000000370548e+01,2.999999999714849430e+00,1.000000000000806288e+01,6.599999999999948130e-01,1.569999999999550866e+00,2.869999999999998636e+03,-2.175000000000436362e+00,-4.944999999997538254e+00,1.339581627409187270e+01,-2.185396724188220841e+00
2.000000000000059330e+01,2.999999999193509570e+00,1.000000000002795275e+01,6.599999999999679456e-01,1.569999999999997398e+00,2.869999999999986358e+03,-2.174999999999971401e+00,-4.945000000000246310e+00,1.343982874698765428e+01,-2.172766601180510015e+00
2.000000000000107292e+01,3.000000000049228621e+00,9.999999999966478370e+00,6.599999999999861533e-01,1.569999999999979412e+00,2.869999999999998636e+03,-2.175000000000067768e+00,-4.944999999999694751e+00,1.347263003568577666e+01,-2.132514779653615022e+00
2.000000000000022737e+01,3.000000001638512881e+00,1.000000000003957545e+01,6.599999999999726086e-01,1.570000000000163487e+00,2.869999999999995453e+03,-2.174999999999884359e+00,-4.945000000000433715e+00,1.342250908692744638e+01,-2.156975313196752175e+00
2.000000000000449418e+01,2.999999999851362453e+00,1.000000000002493827e+01,6.599999999999678346e-01,1.569999999999640128e+00,2.870000000000001364e+03,-2.175000000000384848e+00,-4.944999999997867768e+00,1.345595982329597717e+01,-2.111320821075855836e+00
2.000000000000476064e+01,3.000000001848009745e+00,1.000000000001554490e+01,6.600000000000260103e-01,1.569999999999593943e+00,2.869999999999998636e+03,-2.175000000000536282e+00,-4.944999999997532925e+00,1.338017971419867536e+01,-2.140019109274122755e+00
1.999999999999991473e+01,3.000000001224983670e+00,1.000000000006926548e+01,6.599999999999326405e-01,1.570000000000235207e+00,2.869999999999991815e+03,-2.174999999999686739e+00,-4.945000000001236629e+00,1.334090216386338490e+01,-2.104793700704821635e+00
2.000000000000250466e+01,3.000000002804644073e+00,1.000000000002236078e+01,6.600000000000003642e-01,1.569999999999818874e+00,2.869999999999997272e+03,-2.175000000000219647e+00,-4.944999999998983320e+00,1.342117076566052702e+01,-2.130372066112549145e+00
2.000000000000171596e+01,2.999999999607258605e+00,1.000000000004421885e+01,6.599999999999396350e-01,1.569999999999911910e+00,2.869999999999992724e+03,-2.175000000000014921e+00,-4.944999999999351914e+00,1.340741744311077177e+01,-2.213743164283118681e+00
1.999999999999972999e+01,3.000000002411240985e+00,1.000000000002266631e+01,6.599999999999663913e-01,1.570000000000173479e+00,2.869999999999991815e+03,-2.174999999999816414e+00,-4.945000000001016360e+00,1.335118551799303255e+01,-2.122622809574551184e+00
1.999999999999904432e+01,2.999999998925592770e+00,1.000000000001326761e+01,6.600000000000169065e-01,1.570000000000109308e+00,2.869999999999988631e+03,-2.174999999999908784e+00,-4.945000000000827178e+00,1.331848507253521063e+01,-2.097389981210254106e+00
1.999999999999722178e+01,2.999999999031462750e+00,9.999999999979294785e+00,6.599999999999909273e-01,1.570000000000417506e+00,2.869999999999993179e+03,-2.174999999999568612e+00,-4.945000000002234941e+00,1.338666777807666008e+01,-2.164134432423081122e+00
1.999999999999842970e+01,3.000000000964103464e+00,9.999999999965618613e+00,6.599999999999980327e-01,1.570000000000219442e+00,2.869999999999992724e+03,-2.174999999999756017e+00,-4.945000000001346763e+00,1.348694606042255550e+01,-2.099797883084223216e+00
1.999999999999725731e+01,3.000000001046622344e+00,9.999999999973455900e+00,6.599999999999628386e-01,1.570000000000327134e+00,2.869999999999989086e+03,-2.174999999999550404e+00,-4.945000000002360174e+00,1.341697001926257471e+01,-2.135866081951699691e+00
1.999999999999687361e+01,2.999999998127707013e+00,9.999999999995965894e+00,6.599999999999107692e-01,1.570000000000434826e+00,2.869999999999987267e+03,-2.174999999999364331e+00,-4.945000000002778506e+00,1.335819587071711823e+01,-2.227849506183811723e+00
1.999999999999931788e+01,2.999999998693043235e+00,1.000000000000479261e+01,6.599999999999522915e-01,1.570000000000114859e+00,2.869999999999993179e+03,-2.174999999999747136e+00,-4.945000000001058993e+00,1.332559661450416755e+01,-2.187189939048207243e+00
1.999999999999623057e+01,3.000000005943648684e+00,9.999999999952420282e+00,6.599999999999599520e-01,1.570000000000329354e+00,2.869999999999977717e+03,-2.174999999999460254e+00,-4.945000000002581331e+00,1.344553012120106139e+01,-2.175065637901048454e+00
1.999999999999672085e+01,3.000000001426456286e+00,1.000000000002856737e+01,6.599999999999928146e-01,1.570000000000379980e+00,2.869999999999981355e+03,-2.174999999999556621e+00,-4.945000000002408136e+00,1.333024323525340726e+01,-2.082390056510762033e+00
1.999999999999513989e+01,3.000000001817359152e+00,9.999999999978905763e+00,6.599999999999656142e-01,1.570000000000529417e+00,2.869999999999980901e+03,-2.174999999999311040e+00,-4.945000000003294538e+00,1.336413891473533333e+01,-2.139005272170632743e+00
1.999999999999645084e+01,3.000000005974516881e+00,9.999999999969974240e+00,6.600000000000041389e-01,1.570000000000354445e+00,2.869999999999979991e+03,-2.174999999999591260e+00,-4.945000000002322871e+00,1.338308417977465758e+01,-2.217321641522615572e+00
2.000000000000035882e+01,2.999999999751954860e+00,9.999999999984447996e+00,6.599999999999762723e-01,1.569999999999960982e+00,2.869999999999990905e+03,-2.175000000000011813e+00,-4.944999999999688534e+00,1.337830005561866464e+01,-2.187947797418766882e+00
1.999999999999765166e+01,3.000000004918946583e+00,9.999999999977463361e+00,6.600000000000215694e-01,1.570000000000307816e+00,2.869999999999997272e+03,-2.174999999999688516e+00,-4.945000000002028884e+00,1.335348482845658147e+01,-2.050500577767129684e+00
1.999999999999857536e+01,3.000000005257917213e+00,9.999999999996266098e+00,6.600000000000416644e-01,1.570000000000149498e+00,2.869999999999987722e+03,-2.174999999999894129e+00,-4.945000000001217977e+00,1.334008678022543926e+01,-2.153210307161001591e+00
2.000000000000140332e+01,3.000000002376346675e+00,9.999999999956274976e+00,6.600000000000810774e-01,1.569999999999805995e+00,2.869999999999995907e+03,-2.175000000000384404e+00,-4.944999999998505480e+00,1.342215476747356107e+01,-2.195548834333980182e+00
1.999999999999881695e+01,3.000000000640982822e+00,9.999999999988791188e+00,6.600000000000132427e-01,1.570000000000163487e+00,2.869999999999993634e+03,-2.174999999999860822e+00,-4.945000000000814744e+00,1.338077681957859433e+01,-2.087906978326946827e+00
2.000000000000541789e+01,3.000000001294843788e+00,9.999999999989528376e+00,6.600000000000629807e-01,1.569999999999369678e+00,2.870000000000007276e+03,-2.175000000000771649e+00,-4.944999999996421813e+00,1.335834699425677918e+01,-2.104316969100080481e+00
2.000000000000450129e+01,2.999999997167361432e+00,9.999999999978911092e+00,6.600000000000443290e-01,1.569999999999436513e+00,2.869999999999997726e+03,-2.175000000000693490e+00,-4.944999999996819717e+00,1.339884133547532308e+01,-2.112110447993583939e+00
2.000000000000358824e+01,2.999999999894618075e+00,1.000000000003361755e+01,6.600000000000199041e-01,1.569999999999742268e+00,2.870000000000001819e+03,-2.175000000000364420e+00,-4.944999999998281659e+00,1.357373857334032508e+01,-2.099465484853018094e+00
1.999999999999909406e+01,2.999999999009405283e+00,1.000000000003953637e+01,6.600000000000033618e-01,1.570000000000291829e+00,2.869999999999997272e+03,-2.174999999999765787e+00,-4.945000000001607887e+00,1.354496277748730471e+01,-2.028245868437054344e+00
2.000000000000045475e+01,3.000000002208691896e+00,1.000000000001138467e+01,6.600000000000111333e-01,1.569999999999986073e+00,2.869999999999988177e+03,-2.175000000000022027e+00,-4.945000000000368878e+00,1.346012887589446194e+01,-1.962494546325206812e+00
2.000000000000349942e+01,3.000000001103798830e+00,1.000000000000773781e+01,6.600000000000252331e-01,1.569999999999575069e+00,2.869999999999993179e+03,-2.175000000000456790e+00,-4.944999999998030304e+00,1.351219102416613715e+01,-1.951479372501834009e+00
2.000000000000664713e+01,2.999999999316499188e+00,1.000000000003532996e+01,6.600000000000221245e-01,1.569999999999271534e+00,2.870000000000000909e+03,-2.175000000000841371e+00,-4.944999999995717488e+00,1.351990870412756607e+01,-2.295635476080456705e+00
2.000000000000423483e+01,3.000000001277610462e+00,9.999999999978866683e+00,6.600000000000048050e-01,1.569999999999474261e+00,2.870000000000001819e+03,-2.175000000000548717e+00,-4.944999999996985807e+00,1.352122656227776964e+01,-2.254138366903961188e+00
2.000000000000189004e+01,3.000000000957056656e+00,1.000000000003321610e+01,6.600000000000164624e-01,1.569999999999712736e+00,2.869999999999985448e+03,-2.175000000000307576e+00,-4.944999999998665352e+00,1.341844403864359059e+01,-2.184269074260044796e+00
2.000000000000087397e+01,2.999999996164813609e+00,1.000000000001526779e+01,6.600000000000211253e-01,1.570000000000032925e+00,2.869999999999996817e+03,-2.175000000000069988e+00,-4.945000000000051799e+00,1.337157973530718813e+01,-2.108005595039755597e+00
2.000000000000170530e+01,3.000000000070543571e+00,1.000000000003174527e+01,6.599999999999949241e-01,1.569999999999877938e+00,2.869999999999986812e+03,-2.175000000000173905e+00,-4.944999999999308393e+00,1.345609737627522051e+01,-2.170610915413426323e+00
1.999999999999995381e+01,3.000000001107199665e+00,1.000000000003653788e+01,6.599999999999545119e-01,1.570000000000161933e+00,2.869999999999990450e+03,-2.174999999999794653e+00,-4.945000000001180673e+00,1.347465121985547221e+01,-2.157583290743467330e+00
2.000000000000240519e+01,2.999999998795304101e+00,1.000000000003879741e+01,6.599999999999808242e-01,1.569999999999940776e+00,2.869999999999999545e+03,-2.175000000000121947e+00,-4.944999999999203588e+00,1.336987819702382119e+01,-2.146950620381887997e+00
2.000000000000293809e+01,2.999999999357591207e+00,1.000000000003807088e+01,6.599999999999970335e-01,1.569999999999614371e+00,2.869999999999994998e+03,-2.175000000000383515e+00,-4.944999999998109352e+00,1.344229882197724812e+01,-2.192648803272545965e+00
1.999999999999734968e+01,3.000000002485030848e+00,1.000000000004066436e+01,6.599999999999710543e-01,1.570000000000361551e+00,2.869999999999991815e+03,-2.174999999999557954e+00,-4.945000000002443663e+00,1.331092539635256600e+01,-2.203898973937686190e+00
1.999999999999825562e+01,3.000000002551142408e+00,9.999999999993891109e+00,6.599999999999883737e-01,1.570000000000200568e+00,2.869999999999991815e+03,-2.174999999999769340e+00,-4.945000000001350315e+00,1.331939619902397709e+01,-2.184353703121789003e+00
2.000000000000127542e+01,3.000000000593560756e+00,1.000000000001490719e+01,6.599999999999743849e-01,1.570000000000000062e+00,2.869999999999999091e+03,-2.175000000000008704e+00,-4.945000000000181473e+00,1.337824293914480300e+01,-2.197251519416026255e+00
2.000000000000155254e+01,3.000000001381351034e+00,1.000000000003204903e+01,6.599999999999869305e-01,1.569999999999978524e+00,2.870000000000001364e+03,-2.175000000000075318e+00,-4.944999999999585505e+00,1.337643210275367700e+01,-2.142705854023205347e+00
1.999999999999893774e+01,2.999999997555053977e+00,1.000000000004100187e+01,6.600000000000006972e-01,1.570000000000257634e+00,2.870000000000001819e+03,-2.174999999999798206e+00,-4.945000000001198437e+00,1.342706722692157406e+01,-2.127164926288983793e+00
2.000000000000385469e+01,2.999999999146013341e+00,1.000000000008617107e+01,6.599999999999760503e-01,1.569999999999742935e+00,2.870000000000000455e+03,-2.175000000000323563e+00,-4.944999999998244355e+00,1.343989397261022134e+01,-2.201546149242483263e+00
1.999999999999927880e+01,2.999999998221849040e+00,1.000000000004459366e+01,6.599999999999529576e-01,1.570000000000076223e+00,2.869999999999981355e+03,-2.174999999999856826e+00,-4.945000000000410623e+00,1.339966929867334677e+01,-2.197554583599945488e+00
1.999999999999651124e+01,2.999999996654324264e+00,9.999999999989665156e+00,6.599999999999295319e-01,1.570000000000440155e+00,2.869999999999991815e+03,-2.174999999999382982e+00,-4.945000000002789164e+00,1.343490926080510128e+01,-2.125534568234712207e+00
1.999999999999855405e+01,2.999999998385322719e+00,1.000000000002382450e+01,6.599999999999813793e-01,1.570000000000149054e+00,2.869999999999997726e+03,-2.174999999999791100e+00,-4.945000000000860929e+00,1.340076969230269732e+01,-2.055582471693031987e+00
1.999999999999887024e+01,2.999999999277112916e+00,1.000000000003528022e+01,6.599999999999477396e-01,1.570000000000087104e+00,2.869999999999997272e+03,-2.174999999999753797e+00,-4.945000000000773888e+00,1.340188306256459150e+01,-2.151112696541167768e+00
2.000000000000275691e+01,3.000000000714493353e+00,9.999999999980881071e+00,6.600000000000049161e-01,1.569999999999688312e+00,2.870000000000003183e+03,-2.175000000000351985e+00,-4.944999999998056950e+00,1.349308540959671632e+01,-2.179522936621189455e+00
2.000000000000419575e+01,3.000000000848253467e+00,9.999999999978602006e+00,6.600000000000300071e-01,1.569999999999452278e+00,2.870000000000000455e+03,-2.175000000000616662e+00,-4.944999999996964490e+00,1.335957274176697496e+01,-2.298988787253430921e+00
2.000000000000120437e+01,2.999999997252323247e+00,1.000000000003081269e+01,6.600000000000226796e-01,1.569999999999944329e+00,2.870000000000000909e+03,-2.175000000000130385e+00,-4.944999999999543761e+00,1.335917237325311824e+01,-2.170909677066939381e+00
1.999999999999900169e+01,2.999999997602902813e+00,1.000000000003529266e+01,6.600000000000072475e-01,1.570000000000243867e+00,2.870000000000002274e+03,-2.174999999999788880e+00,-4.945000000001241958e+00,1.338936307623178479e+01,-2.172042194670642523e+00
2.000000000000220979e+01,3.000000000250631960e+00,1.000000000000789768e+01,6.599999999999707212e-01,1.569999999999675655e+00,2.869999999999998636e+03,-2.175000000000273381e+00,-4.944999999998334062e+00,1.345989004163389602e+01,-2.192206757040759069e+00
1.999999999999968026e+01,2.999999998446761129e+00,1.000000000000537526e+01,6.599999999999650591e-01,1.570000000000128848e+00,2.869999999999995907e+03,-2.174999999999810196e+00,-4.945000000000529639e+00,1.350092219072189259e+01,-2.151006149607462614e+00
1.999999999999802114e+01,2.999999994887903032e+00,1.000000000002246203e+01,6.599999999999581757e-01,1.570000000000340012e+00,2.870000000000001364e+03,-2.174999999999586819e+00,-4.945000000001681606e+00,1.354675491468547932e+01,-2.002132964000845838e+00
1.999999999999630518e+01,2.999999993970139389e+00,1.000000000000690648e+01,6.599999999999967004e-01,1.570000000000503437e+00,2.869999999999998636e+03,-2.174999999999511324e+00,-4.945000000002425011e+00,1.354258042965456355e+01,-2.014528793484095193e+00
1.999999999999838707e+01,2.999999997608147506e+00,1.000000000003887735e+01,6.599999999999683897e-01,1.570000000000291385e+00,2.869999999999995907e+03,-2.174999999999694289e+00,-4.945000000001406271e+00,1.360116755031832270e+01,-2.040036067387514862e+00
1.999999999999995737e+01,3.000000001131243543e+00,9.999999999984252597e+00,6.600000000000006972e-01,1.570000000000020490e+00,2.869999999999984993e+03,-2.175000000000008704e+00,-4.944999999999750706e+00,1.338562514539568582e+01,-2.171495065352770037e+00
1.999999999999658939e+01,3.000000001174240261e+00,9.999999999942817297e+00,6.599999999999685008e-01,1.570000000000375318e+00,2.869999999999978172e+03,-2.174999999999541522e+00,-4.945000000002133689e+00,1.346625547664321942e+01,-2.182491484838203988e+00
1.999999999999830536e+01,3.000000001704498764e+00,9.999999999965369923e+00,6.599999999999462963e-01,1.570000000000142615e+00,2.869999999999975444e+03,-2.174999999999724487e+00,-4.945000000000882245e+00,1.346524667670744968e+01,-2.202120754308881878e+00
1.999999999999562661e+01,3.000000002385697417e+00,1.000000000001251266e+01,6.599999999999269784e-01,1.570000000000565388e+00,2.869999999999970441e+03,-2.174999999999302602e+00,-4.945000000002873541e+00,1.345666140436354397e+01,-2.164063212864330676e+00
1.999999999999865352e+01,3.000000001228398716e+00,9.999999999980026644e+00,6.599999999999243139e-01,1.570000000000266072e+00,2.869999999999979536e+03,-2.174999999999644107e+00,-4.945000000001147811e+00,1.348041761783883352e+01,-2.144958797910078818e+00
1.999999999999853273e+01,2.999999999291034225e+00,9.999999999961397990e+00,6.599999999999869305e-01,1.570000000000139728e+00,2.869999999999983629e+03,-2.174999999999851941e+00,-4.945000000000637996e+00,1.343492548569554756e+01,-2.169583463442064541e+00
1.999999999999668177e+01,3.000000000040285109e+00,9.999999999946538765e+00,6.599999999999579536e-01,1.570000000000290497e+00,2.869999999999973170e+03,-2.174999999999597033e+00,-4.945000000001824603e+00,1.345634855725884904e+01,-2.121847170679775907e+00
2.000000000000034461e+01,3.000000002533371291e+00,9.999999999973967491e+00,6.600000000000065814e-01,1.569999999999983409e+00,2.869999999999991360e+03,-2.175000000000069988e+00,-4.944999999999721396e+00,1.340199825780960552e+01,-2.137974684250746549e+00
1.999999999999333511e+01,3.000000000791462895e+00,9.999999999981492138e+00,6.599999999999190958e-01,1.570000000000696838e+00,2.869999999999956799e+03,-2.174999999999097877e+00,-4.945000000004319496e+00,1.338270495416709949e+01,-2.197027261745367444e+00
1.999999999999836220e+01,3.000000001548931206e+00,1.000000000000409450e+01,6.599999999999430766e-01,1.570000000000293605e+00,2.869999999999987267e+03,-2.174999999999661426e+00,-4.945000000001524398e+00,1.345239653455836226e+01,-2.165697149871953275e+00
1.999999999999707612e+01,3.000000004372266105e+00,9.999999999957360330e+00,6.599999999999840439e-01,1.570000000000278950e+00,2.869999999999983174e+03,-2.174999999999678302e+00,-4.945000000001789964e+00,1.339043285647258941e+01,-2.161026834732348689e+00
1.999999999999476330e+01,3.000000001545092054e+00,9.999999999969841014e+00,6.599999999999843769e-01,1.570000000000542295e+00,2.869999999999974079e+03,-2.174999999999409628e+00,-4.945000000002807816e+00,1.332936146928521204e+01,-2.123060328950304054e+00
1.999999999999731770e+01,2.999999999340558610e+00,1.000000000001281641e+01,6.600000000000096900e-01,1.570000000000190798e+00,2.869999999999979991e+03,-2.174999999999754241e+00,-4.945000000001297025e+00,1.338585936059413051e+01,-2.081923982099920689e+00
1.999999999999523936e+01,3.000000003242696334e+00,1.000000000000701839e+01,6.599999999999573985e-01,1.570000000000551399e+00,2.869999999999983629e+03,-2.174999999999318590e+00,-4.945000000003178187e+00,1.335447043437544501e+01,-2.192143467130309720e+00
1.999999999999632649e+01,3.000000002026142365e+00,9.999999999988032684e+00,6.599999999999309752e-01,1.570000000000337348e+00,2.869999999999974079e+03,-2.174999999999464695e+00,-4.945000000002466756e+00,1.339375086213630617e+01,-2.142285889040750124e+00
1.999999999999632294e+01,3.000000001110298520e+00,9.999999999978067322e+00,6.599999999999789368e-01,1.570000000000301821e+00,2.869999999999974079e+03,-2.174999999999596589e+00,-4.945000000002035101e+00,1.335086080589586466e+01,-2.166076923578531321e+00
1.999999999999877076e+01,3.000000002765318641e+00,9.999999999951944218e+00,6.599999999999515143e-01,1.570000000000166818e+00,2.869999999999981355e+03,-2.174999999999755573e+00,-4.945000000000826290e+00,1.343756797239760026e+01,-2.120654430869729268e+00
2.000000000000264322e+01,3.000000000773176190e+00,9.999999999923144145e+00,6.600000000000493250e-01,1.569999999999648344e+00,2.870000000000005002e+03,-2.175000000000431033e+00,-4.944999999998194617e+00,1.341283085433315314e+01,-2.173648072087047467e+00
1.999999999999917222e+01,3.000000001739367761e+00,9.999999999923806726e+00,6.600000000000757483e-01,1.570000000000006724e+00,2.869999999999994543e+03,-2.175000000000080647e+00,-4.945000000000649543e+00,1.332154497828745399e+01,-2.124169007655871244e+00
2.000000000000158806e+01,3.000000001112060222e+00,9.999999999976889598e+00,6.600000000000419975e-01,1.569999999999779572e+00,2.869999999999993179e+03,-2.175000000000295142e+00,-4.944999999999147633e+00,1.336647728480428299e+01,-2.173798362870741130e+00
2.000000000000218492e+01,2.999999999985727417e+00,1.000000000002594014e+01,6.600000000000577627e-01,1.569999999999601936e+00,2.870000000000001364e+03,-2.175000000000463007e+00,-4.944999999997632401e+00,1.340325637449623031e+01,-2.099441986044487063e+00
2.000000000000154543e+01,3.000000000872041994e+00,1.000000000002964207e+01,6.600000000000275646e-01,1.569999999999725393e+00,2.869999999999998636e+03,-2.175000000000308908e+00,-4.944999999998350937e+00,1.342470739016417625e+01,-2.196156154650046322e+00
1.999999999999555556e+01,3.000000000399869027e+00,9.999999999975583975e+00,6.599999999999964784e-01,1.570000000000332463e+00,2.869999999999988177e+03,-2.174999999999538858e+00,-4.945000000002178986e+00,1.347484626438374811e+01,-2.083637633616039597e+00
2.000000000000536460e+01,3.000000000664446720e+00,1.000000000000627232e+01,6.600000000000251221e-01,1.569999999999272866e+00,2.870000000000000000e+03,-2.175000000000806732e+00,-4.944999999995453699e+00,1.343368474948683478e+01,-2.140790215726529055e+00
1.999999999999504041e+01,2.999999998237433463e+00,1.000000000003239720e+01,6.599999999999667244e-01,1.570000000000581597e+00,2.869999999999977263e+03,-2.174999999999291500e+00,-4.945000000003876295e+00,1.342601460192795138e+01,-2.166198890466056515e+00
1.999999999999671374e+01,2.999999999371147474e+00,1.000000000002322942e+01,6.600000000000016964e-01,1.570000000000369322e+00,2.869999999999976808e+03,-2.174999999999597033e+00,-4.945000000002489848e+00,1.334469560741690408e+01,-2.199871883353394786e+00
1.999999999999714007e+01,3.000000001260290539e+00,1.000000000000483524e+01,6.600000000000237899e-01,1.570000000000334017e+00,2.869999999999981810e+03,-2.174999999999699618e+00,-4.945000000002138130e+00,1.333537808352985010e+01,-2.173075491099654144e+00
1.999999999999791811e+01,3.000000001586079268e+00,1.000000000000561151e+01,6.599999999999648370e-01,1.570000000000236096e+00,2.869999999999979536e+03,-2.174999999999677414e+00,-4.945000000001321006e+00,1.346433791001836688e+01,-2.220533484996601636e+00
1.999999999999843325e+01,2.999999999163193376e+00,1.000000000002857803e+01,6.599999999999762723e-01,1.570000000000112861e+00,2.869999999999978627e+03,-2.174999999999799538e+00,-4.945000000000831619e+00,1.346072821423639709e+01,-2.175523251182408746e+00
1.999999999999786127e+01,2.999999999137582751e+00,1.000000000004623146e+01,6.599999999999766054e-01,1.570000000000242757e+00,2.869999999999981810e+03,-2.174999999999700950e+00,-4.945000000001696705e+00,1.342247674298671356e+01,-2.166869016502544820e+00
1.999999999999680966e+01,2.999999998761065712e+00,1.000000000002085976e+01,6.599999999999784928e-01,1.570000000000395968e+00,2.869999999999980446e+03,-2.174999999999557510e+00,-4.945000000002191420e+00,1.328694321024685721e+01,-2.238085925889280237e+00
1.999999999999614886e+01,2.999999999063349687e+00,1.000000000001785594e+01,6.599999999999759392e-01,1.570000000000508100e+00,2.869999999999982265e+03,-2.174999999999448708e+00,-4.945000000002939267e+00,1.336998684126454506e+01,-2.206296034619244839e+00
1.999999999999838707e+01,2.999999999404415085e+00,1.000000000005205791e+01,6.599999999999945910e-01,1.570000000000111307e+00,2.869999999999980446e+03,-2.174999999999823963e+00,-4.945000000000945306e+00,1.349130725036769540e+01,-2.193744110281903748e+00
1.999999999999646150e+01,2.999999998289413661e+00,1.000000000003127454e+01,6.600000000000461053e-01,1.570000000000413065e+00,2.869999999999988631e+03,-2.174999999999653877e+00,-4.945000000002370832e+00,1.334314662508719351e+01,-2.113258278952826696e+00
2.000000000000181188e+01,2.999999999959787722e+00,9.999999999995713651e+00,6.599999999999915934e-01,1.569999999999753593e+00,2.869999999999994543e+03,-2.175000000000209877e+00,-4.944999999998848317e+00,1.337901895915092254e+01,-2.185810183331535317e+00
1.999999999999889866e+01,2.999999999536616446e+00,1.000000000000082956e+01,6.600000000000100231e-01,1.570000000000030260e+00,2.869999999999970441e+03,-2.174999999999977618e+00,-4.945000000000332463e+00,1.344552014981831256e+01,-2.160293527609487896e+00
2.000000000000187583e+01,2.999999996798201174e+00,1.000000000001247180e+01,6.600000000000517675e-01,1.569999999999724061e+00,2.870000000000000455e+03,-2.175000000000339995e+00,-4.944999999998895390e+00,1.352832339262904604e+01,-2.022543319780132798e+00
2.000000000000045475e+01,2.999999998698847925e+00,1.000000000000751044e+01,6.600000000000743050e-01,1.569999999999873941e+00,2.870000000000005002e+03,-2.175000000000207656e+00,-4.944999999999660112e+00,1.335537830110252600e+01,-2.107634560405100999e+00
1.999999999999528200e+01,2.999999999275806406e+00,1.000000000004994760e+01,6.600000000000130207e-01,1.570000000000393525e+00,2.869999999999970896e+03,-2.174999999999524647e+00,-4.945000000002877094e+00,1.332014191455701990e+01,-2.097648679061066002e+00
1.999999999999836575e+01,3.000000000335447226e+00,1.000000000004165379e+01,6.600000000000103562e-01,1.570000000000107310e+00,2.869999999999987722e+03,-2.174999999999851941e+00,-4.945000000000837836e+00,1.335923608583676980e+01,-2.183827913466939830e+00
1.999999999999726086e+01,2.999999998321690953e+00,1.000000000006347634e+01,6.600000000000184608e-01,1.570000000000278062e+00,2.869999999999994088e+03,-2.174999999999712053e+00,-4.945000000001737561e+00,1.348082644683879927e+01,-2.143607302651835411e+00
1.999999999999492317e+01,3.000000000022539748e+00,1.000000000001996270e+01,6.599999999999796030e-01,1.570000000000496776e+00,2.869999999999976353e+03,-2.174999999999417621e+00,-4.945000000002960583e+00,1.345800830829700701e+01,-2.165412830960950163e+00
1.999999999999486988e+01,3.000000001201097444e+00,1.000000000005592327e+01,6.600000000000015854e-01,1.570000000000582041e+00,2.869999999999985448e+03,-2.174999999999395861e+00,-4.945000000003338947e+00,1.342975763570170677e+01,-2.201408889435443772e+00
