1.999999999999667466e+01,3.000000000299384517e+00,1.000000000003263168e+01,6.600000000000404432e-01,1.570000000000264295e+00,2.869999999999993634e+03,-2.174999999999744915e+00,-4.945000000001786411e+00,1.349386206473615601e+01,-2.185730115328199830e+00
1.999999999999729283e+01,3.000000000221493046e+00,1.000000000002601297e+01,6.600000000000255662e-01,1.570000000000201457e+00,2.869999999999994543e+03,-2.174999999999767120e+00,-4.945000000001303242e+00,1.350812771787222921e+01,-2.231865513969806258e+00
1.999999999999747757e+01,2.999999998548044555e+00,1.000000000001301892e+01,6.599999999999835998e-01,1.570000000000309370e+00,2.869999999999996817e+03,-2.174999999999657874e+00,-4.945000000001684271e+00,1.349143676384062829e+01,-2.115322981432831817e+00
1.999999999999801048e+01,2.999999998798304812e+00,1.000000000000603251e+01,6.599999999999706102e-01,1.570000000000258522e+00,2.869999999999998636e+03,-2.174999999999688960e+00,-4.945000000001271268e+00,1.350427193657213465e+01,-2.163332185539507790e+00
1.999999999999814193e+01,3.000000006505153749e+00,1.000000000001596057e+01,6.599999999999730527e-01,1.570000000000222551e+00,2.869999999999999091e+03,-2.174999999999700506e+00,-4.945000000001359197e+00,1.348964642057604557e+01,-2.065026163331204145e+00
1.999999999999760902e+01,3.000000006306880351e+00,1.000000000001060485e+01,6.599999999999758282e-01,1.570000000000296270e+00,2.869999999999997272e+03,-2.174999999999641886e+00,-4.945000000001879670e+00,1.349089038118426842e+01,-2.083611723824271511e+00
1.999999999999850786e+01,3.000000005965208771e+00,1.000000000001407940e+01,6.599999999999809353e-01,1.570000000000183471e+00,2.869999999999997726e+03,-2.174999999999759570e+00,-4.945000000001139817e+00,1.350534400581816463e+01,-2.101644719646512893e+00
1.999999999999985434e+01,3.000000005288114391e+00,1.000000000000554401e+01,6.599999999999979217e-01,1.570000000000028040e+00,2.870000000000000909e+03,-2.174999999999957634e+00,-4.945000000000267626e+00,1.349492910927246925e+01,-2.121377808768201589e+00
1.999999999999911537e+01,3.000000003403620497e+00,9.999999999991167954e+00,6.600000000000150191e-01,1.570000000000085105e+00,2.870000000000002274e+03,-2.174999999999934541e+00,-4.945000000000508322e+00,1.364644256743730644e+01,-2.121391757404457845e+00
2.000000000000101963e+01,3.000000003356103395e+00,9.999999999988329336e+00,6.599999999999908162e-01,1.569999999999881934e+00,2.870000000000000455e+03,-2.175000000000091749e+00,-4.944999999999086349e+00,1.367414865159381776e+01,-2.095316964439992713e+00
1.999999999999821299e+01,3.000000003842453022e+00,1.000000000000678924e+01,6.599999999999504041e-01,1.570000000000141505e+00,2.870000000000001364e+03,-2.174999999999761791e+00,-4.945000000000548290e+00,1.358177281121313129e+01,-2.236704890729704687e+00
1.999999999999834799e+01,3.000000003980048291e+00,1.000000000001338130e+01,6.599999999999506262e-01,1.570000000000106644e+00,2.870000000000000909e+03,-2.174999999999777334e+00,-4.945000000000295159e+00,1.359872128456979112e+01,-2.229453494049979945e+00
1.999999999999626965e+01,3.000000002921872966e+00,9.999999999975287324e+00,6.599999999999850431e-01,1.570000000000454810e+00,2.869999999999984539e+03,-2.174999999999461142e+00,-4.945000000002814922e+00,1.360122543367757331e+01,-2.168090876941707990e+00
1.999999999999674216e+01,3.000000002052560344e+00,9.999999999987185362e+00,6.599999999999760503e-01,1.570000000000414619e+00,2.869999999999984993e+03,-2.174999999999496225e+00,-4.945000000002576002e+00,1.359297304200366874e+01,-2.145447265401827952e+00
2.000000000000050804e+01,3.000000004976280721e+00,9.999999999953727681e+00,6.599999999999981437e-01,1.569999999999970752e+00,2.870000000000000000e+03,-2.175000000000032241e+00,-4.944999999999614815e+00,1.368545104459530748e+01,-2.050240396725889536e+00
2.000000000000084199e+01,3.000000003972103535e+00,9.999999999974262366e+00,6.599999999999970335e-01,1.569999999999956763e+00,2.870000000000001364e+03,-2.175000000000048228e+00,-4.944999999999566853e+00,1.365795382587490359e+01,-2.079068746906801657e+00
2.000000000000095923e+01,3.000000003338353594e+00,9.999999999975733189e+00,6.600000000000002531e-01,1.569999999999915463e+00,2.870000000000000455e+03,-2.175000000000099298e+00,-4.944999999999360796e+00,1.364246145462262483e+01,-2.080631961318097911e+00
1.999999999999456080e+01,3.000000005518177471e+00,1.000000000004294520e+01,6.599999999999643929e-01,1.570000000000654428e+00,2.869999999999984539e+03,-2.174999999999223999e+00,-4.945000000003923368e+00,1.362230828236877045e+01,-2.049617965191532942e+00
1.999999999999439027e+01,3.000000004478990512e+00,1.000000000003801581e+01,6.599999999999527356e-01,1.570000000000683071e+00,2.869999999999986812e+03,-2.174999999999180034e+00,-4.945000000003997087e+00,1.368651370671159562e+01,-2.090669624020061068e+00
1.999999999999984723e+01,2.999999998824400826e+00,9.999999999988444799e+00,6.600000000000284528e-01,1.569999999999972307e+00,2.870000000000002274e+03,-2.175000000000059330e+00,-4.944999999999903473e+00,1.352332728464017642e+01,-2.265062630633877916e+00
1.999999999999742784e+01,3.000000000534602584e+00,1.000000000001374367e+01,6.599999999999310862e-01,1.570000000000498108e+00,2.869999999999990905e+03,-2.174999999999398526e+00,-4.945000000002682583e+00,1.345697867429167616e+01,-2.211204654765716260e+00
1.999999999999838707e+01,2.999999998813497104e+00,1.000000000001806733e+01,6.599999999999729416e-01,1.570000000000336016e+00,2.869999999999991360e+03,-2.174999999999650768e+00,-4.945000000001940954e+00,1.345253726938585892e+01,-2.196227819745731669e+00
1.999999999999960920e+01,2.999999997167913435e+00,9.999999999996846967e+00,6.599999999999689448e-01,1.570000000000162821e+00,2.869999999999994543e+03,-2.174999999999800870e+00,-4.945000000000869811e+00,1.334075057376430884e+01,-2.170417167184411245e+00
1.999999999999948130e+01,2.999999997224434001e+00,9.999999999999571898e+00,6.599999999999990319e-01,1.570000000000112417e+00,2.869999999999995907e+03,-2.174999999999890132e+00,-4.945000000000740137e+00,1.337635605083948498e+01,-2.158969592823537287e+00
1.999999999999856470e+01,2.999999997156676201e+00,1.000000000000218492e+01,6.599999999999893729e-01,1.570000000000184803e+00,2.869999999999996362e+03,-2.174999999999783551e+00,-4.945000000001112284e+00,1.344776782776834168e+01,-2.128786453721537519e+00
1.999999999999943512e+01,2.999999997392633233e+00,9.999999999982099652e+00,6.599999999999960343e-01,1.570000000000098206e+00,2.869999999999998636e+03,-2.174999999999900790e+00,-4.945000000000570495e+00,1.343202418308816881e+01,-2.188857504330677273e+00
1.999999999999934985e+01,2.999999998206720697e+00,9.999999999989336530e+00,6.599999999999635047e-01,1.570000000000143503e+00,2.869999999999999545e+03,-2.174999999999818190e+00,-4.945000000000537632e+00,1.348200185178961874e+01,-2.194230132851383797e+00
1.999999999999911182e+01,2.999999998839111726e+00,9.999999999998658851e+00,6.599999999999488498e-01,1.570000000000199458e+00,2.870000000000000909e+03,-2.174999999999724043e+00,-4.945000000000816520e+00,1.347839553248824984e+01,-2.160028477011503245e+00
1.999999999999939604e+01,2.999999999807759554e+00,9.999999999989441335e+00,6.599999999999871525e-01,1.570000000000178808e+00,2.870000000000002274e+03,-2.174999999999818634e+00,-4.945000000000879581e+00,1.346110968390600071e+01,-2.194713887212407233e+00
1.999999999999943867e+01,3.000000000533212141e+00,9.999999999991777244e+00,6.599999999999748290e-01,1.570000000000189466e+00,2.870000000000001819e+03,-2.174999999999784883e+00,-4.945000000000915108e+00,1.339280404090217580e+01,-2.200994313862133733e+00
1.999999999999968736e+01,2.999999996027812532e+00,9.999999999991302957e+00,6.600000000000219025e-01,1.570000000000074225e+00,2.870000000000001364e+03,-2.174999999999968736e+00,-4.945000000000546514e+00,1.348581713087684442e+01,-2.181235263097038857e+00
2.000000000000007105e+01,2.999999995624559102e+00,9.999999999999914735e+00,6.600000000000104672e-01,1.570000000000047358e+00,2.870000000000001819e+03,-2.174999999999976286e+00,-4.945000000000337792e+00,1.348448723073911104e+01,-2.178699259435945557e+00
2.000000000000382627e+01,3.000000000848362713e+00,9.999999999966197706e+00,6.600000000000086908e-01,1.569999999999511120e+00,2.870000000000001819e+03,-2.175000000000516742e+00,-4.944999999997033768e+00,1.361559424439688648e+01,-2.159323014957888365e+00
2.000000000000231637e+01,3.000000000171402892e+00,9.999999999967116082e+00,6.600000000000125766e-01,1.569999999999711626e+00,2.870000000000001819e+03,-2.175000000000329781e+00,-4.944999999998271889e+00,1.363271972992012238e+01,-2.161611062674158035e+00
2.000000000000052580e+01,2.999999995009338338e+00,1.000000000000014744e+01,6.600000000000004752e-01,1.569999999999910134e+00,2.869999999999995907e+03,-2.175000000000083311e+00,-4.944999999999435403e+00,1.357892723751963082e+01,-2.198904738377935431e+00
2.000000000000147793e+01,2.999999994595394348e+00,1.000000000001044498e+01,6.600000000000106892e-01,1.569999999999777796e+00,2.869999999999994088e+03,-2.175000000000229416e+00,-4.944999999998717755e+00,1.359207916549791406e+01,-2.186990829524432467e+00
1.999999999999734968e+01,3.000000000155172319e+00,1.000000000002119194e+01,6.600000000000110223e-01,1.570000000000231877e+00,2.869999999999997272e+03,-2.174999999999739586e+00,-4.945000000001449791e+00,1.345691594106190792e+01,-2.039165217529069984e+00
1.999999999999836930e+01,2.999999998948775559e+00,1.000000000001516476e+01,6.600000000000224576e-01,1.570000000000080886e+00,2.869999999999998636e+03,-2.174999999999891909e+00,-4.945000000000582929e+00,1.346860211294382381e+01,-2.015093828805897491e+00
1.999999999999849010e+01,3.000000000170435666e+00,1.000000000001688605e+01,6.600000000000002531e-01,1.570000000000125073e+00,2.870000000000000909e+03,-2.174999999999824407e+00,-4.945000000000718821e+00,1.340605707552456494e+01,-2.086006007053644584e+00
1.999999999999860378e+01,3.000000001076372325e+00,1.000000000000841283e+01,6.599999999999816014e-01,1.570000000000145057e+00,2.870000000000001364e+03,-2.174999999999781330e+00,-4.945000000000696616e+00,1.344408854905416817e+01,-2.072009028206605485e+00
1.999999999999808864e+01,3.000000002246882680e+00,9.999999999969658049e+00,6.600000000000126876e-01,1.570000000000094653e+00,2.869999999999997726e+03,-2.174999999999875477e+00,-4.945000000000457696e+00,1.364308695858730935e+01,-2.091307896660903776e+00
1.999999999999856115e+01,3.000000001850907427e+00,9.999999999965478281e+00,6.600000000000170175e-01,1.570000000000035145e+00,2.869999999999997726e+03,-2.174999999999949640e+00,-4.945000000000134399e+00,1.367552881982720159e+01,-2.113537580586402509e+00
2.000000000000091660e+01,3.000000001190871846e+00,9.999999999947952745e+00,6.600000000000393330e-01,1.569999999999815765e+00,2.870000000000002274e+03,-2.175000000000240963e+00,-4.944999999998865192e+00,1.361852975640735863e+01,-2.228937185216785188e+00
2.000000000000142464e+01,3.000000001214784717e+00,9.999999999940129669e+00,6.600000000000515454e-01,1.569999999999755369e+00,2.870000000000004093e+03,-2.175000000000340883e+00,-4.944999999998559659e+00,1.360334567040130338e+01,-2.282173402591811673e+00
1.999999999999993960e+01,3.000000001436987418e+00,9.999999999999149125e+00,6.600000000000071365e-01,1.569999999999893259e+00,2.869999999999992724e+03,-2.175000000000098854e+00,-4.944999999999401652e+00,1.353366298620124653e+01,-2.321459048879359610e+00
1.999999999999942091e+01,3.000000001419210527e+00,9.999999999998056666e+00,6.600000000000164624e-01,1.569999999999953877e+00,2.869999999999994088e+03,-2.175000000000043343e+00,-4.944999999999765805e+00,1.344444715464190665e+01,-2.200494509752437544e+00
1.999999999999982236e+01,3.000000002258925935e+00,1.000000000000827605e+01,6.600000000000014744e-01,1.569999999999921458e+00,2.869999999999993179e+03,-2.175000000000053113e+00,-4.944999999999509122e+00,1.344171302782875266e+01,-2.193549626450128187e+00
2.000000000000147438e+01,3.000000002664822585e+00,1.000000000003906742e+01,6.600000000000029177e-01,1.569999999999770246e+00,2.869999999999995907e+03,-2.175000000000248956e+00,-4.944999999998478835e+00,1.347149736841070045e+01,-2.197606780169411245e+00
2.000000000000087752e+01,3.000000002585676562e+00,1.000000000002081002e+01,6.600000000000231237e-01,1.569999999999831752e+00,2.869999999999997726e+03,-2.175000000000221867e+00,-4.944999999998936246e+00,1.350399064123487314e+01,-2.220931797327919455e+00
2.000000000000153477e+01,3.000000002230908791e+00,1.000000000003569767e+01,6.599999999999998090e-01,1.569999999999786455e+00,2.869999999999997726e+03,-2.175000000000248068e+00,-4.944999999998582751e+00,1.345759010636516884e+01,-2.270292383330132946e+00
2.000000000000368416e+01,3.000000002597976057e+00,9.999999999983304022e+00,6.600000000000384448e-01,1.569999999999383000e+00,2.870000000000001819e+03,-2.175000000000678835e+00,-4.944999999996340989e+00,1.362123279286765332e+01,-2.123159403566219794e+00
2.000000000000294520e+01,3.000000003116704228e+00,9.999999999987526422e+00,6.600000000000366684e-01,1.569999999999473594e+00,2.870000000000000000e+03,-2.175000000000574030e+00,-4.944999999996859685e+00,1.362564229846119623e+01,-2.126393275929587379e+00
1.999999999999705835e+01,3.000000004882152460e+00,9.999999999985297094e+00,6.600000000000214584e-01,1.570000000000107532e+00,2.869999999999988177e+03,-2.174999999999811529e+00,-4.945000000000458584e+00,1.357118413453929584e+01,-2.266188404323397521e+00
1.999999999999685585e+01,3.000000004890983618e+00,9.999999999973816500e+00,6.600000000000403322e-01,1.570000000000129292e+00,2.869999999999987722e+03,-2.174999999999827960e+00,-4.945000000000724150e+00,1.358219604056678875e+01,-2.263769922378461530e+00
1.999999999999946709e+01,3.000000001416612605e+00,9.999999999952622787e+00,6.600000000000298961e-01,1.570000000000046469e+00,2.869999999999999545e+03,-2.175000000000006040e+00,-4.945000000000192131e+00,1.329987486715477907e+01,-2.108047868249658841e+00
1.999999999999805311e+01,3.000000000716939397e+00,9.999999999973198328e+00,6.599999999999943689e-01,1.570000000000245421e+00,2.869999999999989996e+03,-2.174999999999736922e+00,-4.945000000001544826e+00,1.343037233034334044e+01,-2.143644660356803122e+00
1.999999999999865352e+01,3.000000001421137430e+00,9.999999999968203213e+00,6.599999999999779376e-01,1.570000000000203233e+00,2.869999999999990450e+03,-2.174999999999750244e+00,-4.945000000001183338e+00,1.346239891648406939e+01,-2.114641499783971312e+00
1.999999999999888090e+01,3.000000000970276748e+00,9.999999999969578113e+00,6.600000000000154632e-01,1.570000000000108864e+00,2.869999999999988631e+03,-2.174999999999903899e+00,-4.945000000000846718e+00,1.347650438650933147e+01,-2.208127053736966605e+00
2.000000000000016698e+01,3.000000000397733846e+00,1.000000000001012879e+01,6.599999999999993650e-01,1.569999999999848628e+00,2.870000000000002274e+03,-2.175000000000113953e+00,-4.944999999998843876e+00,1.350401519581025589e+01,-2.203194925493709544e+00
1.999999999999931788e+01,2.999999999886292290e+00,1.000000000000568789e+01,6.600000000000093570e-01,1.569999999999952545e+00,2.870000000000002728e+03,-2.175000000000038902e+00,-4.944999999999541096e+00,1.352292936203549800e+01,-2.220936849563470705e+00
1.999999999999811706e+01,3.000000001375894509e+00,9.999999999981659116e+00,6.599999999999990319e-01,1.570000000000078444e+00,2.870000000000002728e+03,-2.174999999999854605e+00,-4.945000000000356444e+00,1.349387406535566392e+01,-2.051033337561166459e+00
1.999999999999801048e+01,3.000000000540981038e+00,9.999999999991580069e+00,6.599999999999851541e-01,1.570000000000086660e+00,2.870000000000001364e+03,-2.174999999999820854e+00,-4.945000000000355556e+00,1.354541591639834230e+01,-2.002521559805843232e+00
1.999999999999922906e+01,3.000000000591841243e+00,9.999999999965005770e+00,6.600000000000031397e-01,1.570000000000124185e+00,2.869999999999996817e+03,-2.174999999999878142e+00,-4.945000000000838725e+00,1.355882840080126250e+01,-2.034797316257747735e+00
2.000000000000114042e+01,3.000000000900433061e+00,9.999999999967970510e+00,6.600000000000043610e-01,1.569999999999886375e+00,2.869999999999997272e+03,-2.175000000000116174e+00,-4.944999999999312834e+00,1.348205354268550593e+01,-2.031164566990960818e+00
2.000000000000249045e+01,3.000000003340799637e+00,9.999999999977195131e+00,6.600000000000227907e-01,1.569999999999719842e+00,2.870000000000002728e+03,-2.175000000000358202e+00,-4.944999999998370477e+00,1.355838929880506960e+01,-2.287317597385905898e+00
2.000000000000295231e+01,3.000000002557333456e+00,9.999999999983367971e+00,6.600000000000035838e-01,1.569999999999659446e+00,2.870000000000000455e+03,-2.175000000000378630e+00,-4.944999999997976126e+00,1.351227418446559270e+01,-2.192815239819122297e+00
2.000000000000104805e+01,3.000000002151172129e+00,1.000000000000142109e+01,6.600000000000124656e-01,1.569999999999886819e+00,2.870000000000000000e+03,-2.175000000000168132e+00,-4.944999999999489582e+00,1.348032756478733596e+01,-2.221087062261044132e+00
2.000000000000270717e+01,3.000000001860588128e+00,9.999999999988249400e+00,6.600000000000249001e-01,1.569999999999666551e+00,2.870000000000005002e+03,-2.175000000000403499e+00,-4.944999999998038298e+00,1.350037073924842801e+01,-2.249801074946586432e+00
2.000000000000258638e+01,3.000000003306289909e+00,9.999999999971272757e+00,6.600000000000204592e-01,1.569999999999748708e+00,2.870000000000000000e+03,-2.175000000000300471e+00,-4.944999999998545448e+00,1.354441758061824075e+01,-2.270601169034356825e+00
2.000000000000224532e+01,3.000000003628628953e+00,9.999999999964648723e+00,6.600000000000525446e-01,1.569999999999768470e+00,2.870000000000001819e+03,-2.175000000000349321e+00,-4.944999999998868745e+00,1.350550743832871348e+01,-2.265757937968337021e+00
1.999999999999755573e+01,2.999999995223377347e+00,9.999999999945384133e+00,6.600000000000069145e-01,1.570000000000152829e+00,2.869999999999994543e+03,-2.174999999999783995e+00,-4.945000000000847606e+00,1.366818281353630837e+01,-2.106398792819115240e+00
1.999999999999658584e+01,2.999999995930375363e+00,9.999999999960664354e+00,6.599999999999958122e-01,1.570000000000281615e+00,2.869999999999992269e+03,-2.174999999999627676e+00,-4.945000000001620322e+00,1.364406757958658112e+01,-2.104888587455561844e+00
2.000000000000340705e+01,3.000000003324541975e+00,9.999999999962609465e+00,6.600000000000356692e-01,1.569999999999566409e+00,2.870000000000002274e+03,-2.175000000000518519e+00,-4.944999999997478746e+00,1.358160226641622792e+01,-2.130678456926268449e+00
2.000000000000538947e+01,3.000000002991573655e+00,9.999999999956223462e+00,6.600000000000548761e-01,1.569999999999311502e+00,2.870000000000003183e+03,-2.175000000000807177e+00,-4.944999999996034568e+00,1.352685910039432748e+01,-2.119475275649902457e+00
2.000000000000265032e+01,3.000000003204868371e+00,9.999999999950965446e+00,6.600000000000364464e-01,1.569999999999649898e+00,2.870000000000001819e+03,-2.175000000000421263e+00,-4.944999999997995666e+00,1.352912964353571290e+01,-2.022394005854505128e+00
2.000000000000426681e+01,3.000000003553862093e+00,9.999999999951272756e+00,6.600000000000378897e-01,1.569999999999492246e+00,2.870000000000002274e+03,-2.175000000000592237e+00,-4.944999999997031992e+00,1.352921204272089284e+01,-2.084075678650200381e+00
2.000000000000024869e+01,3.000000000182579285e+00,9.999999999945103468e+00,6.600000000000136868e-01,1.569999999999851514e+00,2.869999999999995453e+03,-2.175000000000129052e+00,-4.944999999999009077e+00,1.350613812570806083e+01,-2.236146619604449270e+00
1.999999999999953815e+01,3.000000000162584612e+00,9.999999999955811347e+00,6.600000000000063594e-01,1.569999999999930562e+00,2.869999999999996817e+03,-2.175000000000038902e+00,-4.944999999999473594e+00,1.351412855938758106e+01,-2.220658096811549242e+00
2.000000000000188649e+01,3.000000000812415468e+00,9.999999999945123008e+00,6.600000000000159073e-01,1.569999999999691198e+00,2.870000000000001364e+03,-2.175000000000327560e+00,-4.944999999998013429e+00,1.347262227567213877e+01,-2.224827418961438319e+00
2.000000000000239453e+01,3.000000001681977224e+00,9.999999999931178607e+00,6.600000000000343370e-01,1.569999999999620588e+00,2.870000000000001364e+03,-2.175000000000426592e+00,-4.944999999997634177e+00,1.357622388998503560e+01,-2.282842600124425303e+00
2.000000000000139266e+01,3.000000002295598822e+00,9.999999999939170436e+00,6.600000000000122435e-01,1.569999999999752482e+00,2.870000000000000909e+03,-2.175000000000251177e+00,-4.944999999998300311e+00,1.353465984036126279e+01,-2.297023449084399704e+00
2.000000000000105516e+01,3.000000000277281309e+00,1.000000000006332712e+01,6.600000000000411093e-01,1.569999999999805107e+00,2.869999999999997272e+03,-2.175000000000215650e+00,-4.944999999999003748e+00,1.332365051770620568e+01,-2.401416724511731271e+00
2.000000000000042277e+01,2.999999999552596108e+00,1.000000000000878764e+01,6.600000000000207923e-01,1.569999999999943441e+00,2.869999999999992269e+03,-2.175000000000059330e+00,-4.944999999999759588e+00,1.333922559773960792e+01,-2.480701345653575363e+00
2.000000000000094147e+01,3.000000002495438078e+00,1.000000000004378542e+01,6.599999999999867084e-01,1.569999999999994067e+00,2.870000000000002274e+03,-2.175000000000015365e+00,-4.944999999999925677e+00,1.338755352421828348e+01,-2.195091738214072663e+00
2.000000000000179767e+01,3.000000001298596342e+00,1.000000000002260236e+01,6.600000000000040279e-01,1.569999999999816875e+00,2.870000000000001364e+03,-2.175000000000202327e+00,-4.944999999998939799e+00,1.350450847233753748e+01,-1.949787152183843908e+00
2.000000000000172307e+01,2.999999999751347790e+00,1.000000000002765788e+01,6.599999999999920375e-01,1.569999999999857287e+00,2.870000000000000000e+03,-2.175000000000140599e+00,-4.944999999999125428e+00,1.349131026489748031e+01,-2.004004156792851266e+00
2.000000000000198241e+01,3.000000003296439122e+00,1.000000000007112000e+01,6.599999999999561773e-01,1.569999999999942109e+00,2.870000000000000000e+03,-2.175000000000059774e+00,-4.944999999999571294e+00,1.356879863870436509e+01,-2.290079652392936094e+00
1.999999999999748468e+01,3.000000000112236886e+00,1.000000000001316103e+01,6.599999999999925926e-01,1.570000000000347562e+00,2.869999999999984539e+03,-2.174999999999617906e+00,-4.945000000002243823e+00,1.331104002680043408e+01,-2.422281873736822799e+00
2.000000000000497025e+01,3.000000004147366894e+00,9.999999999986890487e+00,6.600000000000094680e-01,1.569999999999601492e+00,2.870000000000002274e+03,-2.175000000000498979e+00,-4.944999999997773621e+00,1.353415734688638494e+01,-2.232940640882890015e+00
2.000000000000445866e+01,3.000000002606623806e+00,1.000000000000029132e+01,6.600000000000011413e-01,1.569999999999653451e+00,2.870000000000001364e+03,-2.175000000000410605e+00,-4.944999999998008100e+00,1.350677932323443464e+01,-2.215249187426244326e+00
2.000000000000521894e+01,3.000000003024025919e+00,9.999999999977394083e+00,6.600000000000302292e-01,1.569999999999548201e+00,2.870000000000001819e+03,-2.175000000000586908e+00,-4.944999999997493845e+00,1.348836239778521850e+01,-2.228976034641723114e+00
2.000000000000490274e+01,3.000000003976786900e+00,9.999999999983472776e+00,6.600000000000240119e-01,1.569999999999599938e+00,2.870000000000002274e+03,-2.175000000000517630e+00,-4.944999999997770068e+00,1.347151650282015822e+01,-2.272766483242848690e+00
2.000000000000475708e+01,3.000000003631836165e+00,9.999999999986588506e+00,6.600000000000414424e-01,1.569999999999599494e+00,2.870000000000004547e+03,-2.175000000000564704e+00,-4.944999999997862439e+00,1.356510157595214316e+01,-2.255960650511610766e+00
2.000000000000560263e+01,3.000000003969652163e+00,9.999999999980795806e+00,6.600000000000308953e-01,1.569999999999518447e+00,2.870000000000005002e+03,-2.175000000000633094e+00,-4.944999999997291340e+00,1.356356998824042392e+01,-2.336157900156273559e+00
1.999999999999756639e+01,2.999999998495491482e+00,1.000000000005244694e+01,6.600000000000503242e-01,1.570000000000264073e+00,2.869999999999990905e+03,-2.174999999999789768e+00,-4.945000000002071516e+00,1.317540974127125430e+01,-1.905987238581014598e+00
1.999999999999672440e+01,2.999999998533978030e+00,1.000000000005187850e+01,6.600000000000281197e-01,1.570000000000380647e+00,2.869999999999988631e+03,-2.174999999999599698e+00,-4.945000000002623075e+00,1.314982420878929581e+01,-1.924730584993952887e+00
1.999999999999827338e+01,2.999999998158012549e+00,1.000000000003518963e+01,6.600000000000117995e-01,1.570000000000223883e+00,2.869999999999989996e+03,-2.174999999999747580e+00,-4.945000000001577689e+00,1.319497396071266593e+01,-1.913221375636199539e+00
1.999999999999851141e+01,2.999999999013992724e+00,1.000000000002660094e+01,6.600000000000348921e-01,1.570000000000169926e+00,2.869999999999990450e+03,-2.174999999999863487e+00,-4.945000000001356533e+00,1.320270071308316595e+01,-1.925232375195869983e+00
1.999999999999828404e+01,3.000000000604226447e+00,1.000000000003724665e+01,6.600000000000082467e-01,1.570000000000203233e+00,2.869999999999989541e+03,-2.174999999999760902e+00,-4.945000000001505747e+00,1.320918166978074204e+01,-1.976802039642729492e+00
1.999999999999790035e+01,2.999999999661495220e+00,1.000000000003461587e+01,6.600000000000274536e-01,1.570000000000234097e+00,2.869999999999991360e+03,-2.174999999999754241e+00,-4.945000000001816609e+00,1.321474839959724967e+01,-1.941730625424898715e+00
1.999999999999995737e+01,2.999999999511760773e+00,9.999999999976587617e+00,6.600000000000180167e-01,1.569999999999959872e+00,2.870000000000002274e+03,-2.175000000000044231e+00,-4.944999999999837748e+00,1.352449606125160386e+01,-2.218111588036725479e+00
2.000000000000006395e+01,2.999999999955392127e+00,9.999999999970448528e+00,6.600000000000276756e-01,1.569999999999875717e+00,2.869999999999998636e+03,-2.175000000000135714e+00,-4.944999999999358131e+00,1.348131639535488269e+01,-2.262554613886724741e+00
2.000000000000025580e+01,2.999999999113427851e+00,9.999999999976683540e+00,6.600000000000336708e-01,1.569999999999876605e+00,2.870000000000001819e+03,-2.175000000000145928e+00,-4.944999999999392770e+00,1.347835149708845215e+01,-2.266524266642464536e+00
1.999999999999920064e+01,2.999999997810522956e+00,1.000000000001770495e+01,6.599999999999633937e-01,1.570000000000233209e+00,2.869999999999997272e+03,-2.174999999999745803e+00,-4.945000000001467555e+00,1.328672768183194641e+01,-2.588124504785811464e+00
2.000000000000223466e+01,2.999999997413060004e+00,1.000000000004809841e+01,6.600000000000691980e-01,1.569999999999582396e+00,2.869999999999995453e+03,-2.175000000000480771e+00,-4.944999999997933493e+00,1.319666177271022711e+01,-2.249325175088353390e+00
2.000000000000028422e+01,2.999999998527976164e+00,1.000000000003174527e+01,6.600000000000294520e-01,1.569999999999925233e+00,2.869999999999998636e+03,-2.175000000000114397e+00,-4.944999999999883045e+00,1.337120232113787033e+01,-2.426629336854702945e+00
2.000000000000061817e+01,3.000000002425948775e+00,1.000000000001988454e+01,6.600000000000060263e-01,1.570000000000097540e+00,2.869999999999992724e+03,-2.174999999999953193e+00,-4.945000000000750795e+00,1.323050857130190039e+01,-2.338762700699424268e+00
2.000000000000340705e+01,3.000000000508801001e+00,1.000000000002954970e+01,6.599999999999927036e-01,1.569999999999731610e+00,2.869999999999999545e+03,-2.175000000000334222e+00,-4.944999999998488605e+00,1.335592782152970770e+01,-2.141304225604415912e+00
2.000000000000395417e+01,3.000000001185308296e+00,1.000000000002451905e+01,6.599999999999974776e-01,1.569999999999657669e+00,2.870000000000000000e+03,-2.175000000000420819e+00,-4.944999999998056062e+00,1.339882590113083261e+01,-2.156918648252676096e+00
1.999999999999733902e+01,2.999999999144175256e+00,1.000000000005328538e+01,6.600000000000076916e-01,1.570000000000325135e+00,2.869999999999991360e+03,-2.174999999999650324e+00,-4.945000000002207408e+00,1.321198570383651116e+01,-2.263434858948444095e+00
1.999999999999685940e+01,2.999999999217132451e+00,1.000000000001739231e+01,6.600000000000065814e-01,1.570000000000311147e+00,2.869999999999989541e+03,-2.174999999999639222e+00,-4.945000000002086615e+00,1.345355880787188951e+01,-2.275732945869143986e+00
2.000000000000181544e+01,3.000000000885019169e+00,1.000000000001530509e+01,6.600000000000163514e-01,1.569999999999803997e+00,2.869999999999992269e+03,-2.175000000000239186e+00,-4.944999999998974438e+00,1.352325919363163997e+01,-1.965805729335522667e+00
2.000000000000220268e+01,3.000000000500230524e+00,1.000000000001265121e+01,6.600000000000190159e-01,1.569999999999772911e+00,2.869999999999993634e+03,-2.175000000000283151e+00,-4.944999999998747953e+00,1.355884148297978875e+01,-1.932478983979056375e+00
2.000000000000013856e+01,2.999999997196513224e+00,9.999999999981595167e+00,6.599999999999961453e-01,1.569999999999971196e+00,2.869999999999992724e+03,-2.175000000000002931e+00,-4.945000000000030482e+00,1.338044023785788283e+01,-2.099782572654928625e+00
1.999999999999930367e+01,2.999999997334159563e+00,9.999999999986158628e+00,6.600000000000256772e-01,1.570000000000024265e+00,2.869999999999994088e+03,-2.175000000000004263e+00,-4.945000000000574936e+00,1.339990890367614895e+01,-2.062636121391654864e+00
2.000000000000099476e+01,2.999999998957232794e+00,9.999999999983648635e+00,6.600000000000028066e-01,1.569999999999848406e+00,2.869999999999991815e+03,-2.175000000000154365e+00,-4.944999999999329710e+00,1.344217165121908053e+01,-2.126830368196236165e+00
2.000000000000092726e+01,2.999999997446417321e+00,9.999999999988578026e+00,6.600000000000068034e-01,1.569999999999863283e+00,2.869999999999992724e+03,-2.175000000000137934e+00,-4.944999999999413198e+00,1.335327071655133047e+01,-2.117211561147837262e+00
1.999999999999747757e+01,2.999999998001152690e+00,9.999999999991155519e+00,6.599999999999968114e-01,1.570000000000280282e+00,2.869999999999988631e+03,-2.174999999999667644e+00,-4.945000000001779306e+00,1.330430332581612873e+01,-2.167265533485223994e+00
1.999999999999711164e+01,3.000000000864851746e+00,1.000000000004793144e+01,6.599999999999918154e-01,1.570000000000317808e+00,2.869999999999991360e+03,-2.174999999999634337e+00,-4.945000000002171880e+00,1.347387205821415357e+01,-2.080184025666435232e+00
1.999999999999660716e+01,3.000000000346295437e+00,1.000000000004633804e+01,6.599999999999865974e-01,1.570000000000388196e+00,2.869999999999989996e+03,-2.174999999999548184e+00,-4.945000000002610641e+00,1.352762640271567385e+01,-2.071061394629466257e+00
2.000000000000025580e+01,3.000000003720183273e+00,9.999999999993601563e+00,6.600000000000072475e-01,1.569999999999970308e+00,2.869999999999994543e+03,-2.175000000000024247e+00,-4.944999999999845741e+00,1.349947664350025534e+01,-2.192016220388095071e+00
2.000000000000121503e+01,3.000000003534655679e+00,9.999999999997946531e+00,6.600000000000164624e-01,1.569999999999819096e+00,2.869999999999996362e+03,-2.175000000000194778e+00,-4.944999999998990425e+00,1.354188796721382282e+01,-2.214210697588086862e+00
1.999999999999930012e+01,2.999999998699627302e+00,9.999999999983590016e+00,6.599999999999925926e-01,1.570000000000155715e+00,2.869999999999992724e+03,-2.174999999999811529e+00,-4.945000000000954188e+00,1.342482425668079138e+01,-2.152525238289371590e+00
1.999999999999868550e+01,2.999999999197640488e+00,9.999999999967489117e+00,6.600000000000000311e-01,1.570000000000202345e+00,2.869999999999994543e+03,-2.174999999999778666e+00,-4.945000000001260609e+00,1.348541122116921898e+01,-2.176110233981997766e+00
1.999999999999672795e+01,3.000000003389142300e+00,9.999999999995178968e+00,6.599999999999741629e-01,1.570000000000403295e+00,2.869999999999984993e+03,-2.174999999999495337e+00,-4.945000000002472973e+00,1.341557758844994019e+01,-2.189989249255096748e+00
1.999999999999695532e+01,3.000000003651395186e+00,9.999999999985973886e+00,6.599999999999746070e-01,1.570000000000385754e+00,2.869999999999985903e+03,-2.174999999999529976e+00,-4.945000000002355733e+00,1.341789034234400546e+01,-2.181668674394284579e+00
1.999999999999688072e+01,3.000000003248147085e+00,1.000000000000778400e+01,6.599999999999852651e-01,1.570000000000375540e+00,2.869999999999983174e+03,-2.174999999999561062e+00,-4.945000000002496954e+00,1.335077536410129895e+01,-2.122564752082919615e+00
2.000000000000236966e+01,3.000000001308778863e+00,9.999999999946236784e+00,6.600000000000483258e-01,1.569999999999743823e+00,2.870000000000003183e+03,-2.175000000000366640e+00,-4.944999999998699991e+00,1.351896228848037396e+01,-2.139384721811681711e+00
2.000000000000234479e+01,3.000000001470711108e+00,9.999999999952699170e+00,6.600000000000219025e-01,1.569999999999760476e+00,2.870000000000003183e+03,-2.175000000000288924e+00,-4.944999999998623608e+00,1.352028546704954337e+01,-2.202384996532036343e+00
2.000000000000100542e+01,3.000000000448731274e+00,9.999999999982856380e+00,6.600000000000297851e-01,1.569999999999896589e+00,2.869999999999999545e+03,-2.175000000000133493e+00,-4.944999999999477147e+00,1.334773659731523132e+01,-2.101300591934628148e+00
2.000000000000093792e+01,3.000000001040175945e+00,9.999999999968462561e+00,6.600000000000432188e-01,1.569999999999905027e+00,2.870000000000002728e+03,-2.175000000000154809e+00,-4.944999999999599716e+00,1.338126111007766639e+01,-2.124668789643593403e+00
2.000000000000154898e+01,3.000000001925458903e+00,9.999999999968217423e+00,6.600000000000512124e-01,1.569999999999829976e+00,2.869999999999999545e+03,-2.175000000000263611e+00,-4.944999999999263096e+00,1.344588150345642852e+01,-2.225793111053075535e+00
2.000000000000093436e+01,3.000000000448145521e+00,9.999999999964721553e+00,6.600000000000306732e-01,1.569999999999880158e+00,2.869999999999999545e+03,-2.175000000000163691e+00,-4.944999999999380336e+00,1.342194208552673196e+01,-2.209980683549585656e+00
2.000000000000088463e+01,3.000000000517494048e+00,9.999999999963661068e+00,6.600000000000236788e-01,1.569999999999893259e+00,2.869999999999999545e+03,-2.175000000000137934e+00,-4.944999999999395435e+00,1.348088439698278052e+01,-2.169086387196014432e+00
1.999999999999937117e+01,3.000000000362304409e+00,9.999999999957793761e+00,6.600000000000036948e-01,1.570000000000162377e+00,2.869999999999999545e+03,-2.174999999999843503e+00,-4.945000000000931983e+00,1.323947354190811510e+01,-2.544471894624180663e+00
2.000000000000289546e+01,3.000000000388924448e+00,9.999999999970086151e+00,6.599999999999716094e-01,1.569999999999843299e+00,2.869999999999999545e+03,-2.175000000000190781e+00,-4.944999999998933582e+00,1.344651033875687318e+01,-2.164094364108207991e+00
2.000000000000297007e+01,2.999999999705134535e+00,9.999999999961486807e+00,6.599999999999740519e-01,1.569999999999826645e+00,2.869999999999998636e+03,-2.175000000000231193e+00,-4.944999999998895390e+00,1.342197220613576292e+01,-2.228365929465969675e+00
2.000000000000297717e+01,2.999999999462116929e+00,1.000000000001649525e+01,6.600000000000255662e-01,1.569999999999692974e+00,2.869999999999997272e+03,-2.175000000000377742e+00,-4.944999999998412221e+00,1.358061912775361790e+01,-2.014813738436324275e+00
2.000000000000383338e+01,3.000000000417677004e+00,1.000000000001059064e+01,6.600000000000254552e-01,1.569999999999591278e+00,2.869999999999999091e+03,-2.175000000000477662e+00,-4.944999999997734541e+00,1.356667174763486194e+01,-2.057539990720777645e+00
1.999999999999519318e+01,2.999999999451548049e+00,1.000000000003561418e+01,6.599999999999883737e-01,1.570000000000480123e+00,2.869999999999984539e+03,-2.174999999999405187e+00,-4.945000000002941043e+00,1.342937049106971159e+01,-2.223607068187616331e+00
1.999999999999667111e+01,2.999999999541873130e+00,1.000000000004007994e+01,6.599999999999930367e-01,1.570000000000327356e+00,2.869999999999982265e+03,-2.174999999999585043e+00,-4.945000000002038654e+00,1.346371969345931774e+01,-2.253269661380385536e+00
2.000000000000530420e+01,3.000000000784090126e+00,1.000000000001137224e+01,6.600000000000093570e-01,1.569999999999414309e+00,2.870000000000000909e+03,-2.175000000000676170e+00,-4.944999999996488427e+00,1.360424113273530544e+01,-2.332437839076876518e+00
2.000000000000626343e+01,3.000000000711634751e+00,1.000000000000889955e+01,6.600000000000155742e-01,1.569999999999265761e+00,2.870000000000000909e+03,-2.175000000000832046e+00,-4.944999999995604689e+00,1.360123067186639823e+01,-2.342522298037945205e+00
2.000000000000465405e+01,2.999999999950115459e+00,1.000000000002684253e+01,6.600000000000242339e-01,1.569999999999394991e+00,2.869999999999999091e+03,-2.175000000000694822e+00,-4.944999999996534612e+00,1.361735711791849290e+01,-2.367647410900948213e+00
2.000000000000408917e+01,2.999999999352965130e+00,1.000000000002659029e+01,6.600000000000054712e-01,1.569999999999472262e+00,2.869999999999995453e+03,-2.175000000000579359e+00,-4.944999999996952944e+00,1.361152295686420466e+01,-2.300089625439893926e+00
2.000000000000104095e+01,2.999999998048995309e+00,1.000000000004477485e+01,6.599999999999662803e-01,1.570000000000018048e+00,2.869999999999991815e+03,-2.174999999999970957e+00,-4.945000000000004725e+00,1.340899868492390468e+01,-2.094807220593311481e+00
2.000000000000097344e+01,2.999999997482794001e+00,1.000000000004095568e+01,6.599999999999789368e-01,1.570000000000004059e+00,2.869999999999993179e+03,-2.175000000000014921e+00,-4.945000000000001172e+00,1.346321571313335674e+01,-2.119721186909699018e+00
2.000000000000069633e+01,2.999999998250953759e+00,1.000000000005616485e+01,6.599999999999862643e-01,1.570000000000003615e+00,2.869999999999992269e+03,-2.175000000000017142e+00,-4.944999999999987850e+00,1.339374892506259229e+01,-2.202797993941708388e+00
1.999999999999684519e+01,2.999999996466149454e+00,1.000000000001151967e+01,6.599999999999541789e-01,1.570000000000319140e+00,2.869999999999988177e+03,-2.174999999999560618e+00,-4.945000000001805063e+00,1.350236670023086560e+01,-2.101827266239661984e+00
1.999999999999802824e+01,2.999999997148512509e+00,1.000000000001757527e+01,6.599999999999566214e-01,1.570000000000160822e+00,2.869999999999989996e+03,-2.174999999999743139e+00,-4.945000000000783658e+00,1.351515132107815553e+01,-2.134841579258898392e+00
1.999999999999917932e+01,2.999999997435087717e+00,1.000000000002135003e+01,6.600000000000043610e-01,1.569999999999969198e+00,2.869999999999998181e+03,-2.174999999999987832e+00,-4.944999999999808438e+00,1.340040466790940066e+01,-2.139337607164512711e+00
1.999999999999898037e+01,2.999999997040037503e+00,1.000000000002226130e+01,6.599999999999879297e-01,1.570000000000012941e+00,2.869999999999998181e+03,-2.174999999999917222e+00,-4.945000000000010054e+00,1.343996329619467645e+01,-2.124221289298424242e+00
1.999999999999949551e+01,3.000000001331895483e+00,9.999999999984964916e+00,6.599999999999905942e-01,1.569999999999976303e+00,2.869999999999994088e+03,-2.174999999999995826e+00,-4.944999999999737383e+00,1.339549134251454632e+01,-2.255502860459610570e+00
2.000000000000274980e+01,3.000000000772829356e+00,9.999999999932569494e+00,6.600000000000392220e-01,1.569999999999479368e+00,2.870000000000000909e+03,-2.175000000000552269e+00,-4.944999999996996465e+00,1.339715319862065890e+01,-2.018011439842560151e+00
2.000000000000281375e+01,3.000000000383683751e+00,9.999999999932962069e+00,6.600000000000607603e-01,1.569999999999495799e+00,2.870000000000004093e+03,-2.175000000000591793e+00,-4.944999999997173212e+00,1.343638375053867406e+01,-2.014337127966408403e+00
2.000000000000069278e+01,2.999999999096987668e+00,9.999999999982732035e+00,6.599999999999982547e-01,1.569999999999972307e+00,2.870000000000000455e+03,-2.175000000000029132e+00,-4.944999999999802220e+00,1.353736687391694282e+01,-2.275128068212634691e+00
1.999999999999887024e+01,2.999999999621566715e+00,9.999999999996353139e+00,6.599999999999993650e-01,1.570000000000161267e+00,2.869999999999998636e+03,-2.174999999999825295e+00,-4.945000000001011031e+00,1.350678237297793949e+01,-2.230882487588782048e+00
2.000000000000038014e+01,2.999999999470221557e+00,9.999999999940442308e+00,6.600000000000151301e-01,1.569999999999932117e+00,2.870000000000003183e+03,-2.175000000000091305e+00,-4.944999999999476259e+00,1.376738699499564689e+01,-2.525350302014834902e+00
2.000000000000152767e+01,2.999999996833944138e+00,9.999999999946385998e+00,6.600000000000237899e-01,1.569999999999899920e+00,2.870000000000004547e+03,-2.175000000000186784e+00,-4.944999999999275531e+00,1.342270975144152878e+01,-2.234377450770337337e+00
2.000000000000325429e+01,2.999999998276576374e+00,9.999999999949045204e+00,6.600000000000266764e-01,1.569999999999672768e+00,2.870000000000004547e+03,-2.175000000000436806e+00,-4.944999999997899742e+00,1.351732508287520673e+01,-2.234659865817274493e+00
2.000000000000389377e+01,2.999999998274848423e+00,9.999999999934431116e+00,6.600000000000139089e-01,1.569999999999637907e+00,2.870000000000004093e+03,-2.175000000000469225e+00,-4.944999999997644835e+00,1.350510157179382453e+01,-2.223859817458248678e+00
2.000000000000023093e+01,2.999999997949043262e+00,9.999999999988485655e+00,6.600000000000250111e-01,1.570000000000040696e+00,2.869999999999999545e+03,-2.175000000000020250e+00,-4.945000000000314699e+00,1.361308196624163891e+01,-2.193936313053729492e+00
1.999999999999923617e+01,2.999999998576724280e+00,9.999999999985899279e+00,6.600000000000109113e-01,1.570000000000146612e+00,2.869999999999998636e+03,-2.174999999999879030e+00,-4.945000000000874252e+00,1.365961508906894473e+01,-2.175676964982152573e+00
2.000000000000062528e+01,2.999999998113683120e+00,9.999999999966219022e+00,6.599999999999897060e-01,1.569999999999976747e+00,2.869999999999999545e+03,-2.175000000000021583e+00,-4.944999999999726725e+00,1.363603501965283016e+01,-2.061918830187308149e+00
1.999999999999994671e+01,2.999999997324176881e+00,9.999999999974900078e+00,6.599999999999955902e-01,1.570000000000070450e+00,2.869999999999998181e+03,-2.174999999999922551e+00,-4.945000000000330687e+00,1.364283340572752046e+01,-2.067234046242345080e+00
2.000000000000292388e+01,3.000000001982705111e+00,9.999999999982158272e+00,6.600000000000522116e-01,1.569999999999520002e+00,2.869999999999999545e+03,-2.175000000000544276e+00,-4.944999999997341966e+00,1.322320290100156370e+01,-2.327240143062508260e+00
2.000000000000337508e+01,3.000000004837050316e+00,9.999999999973072207e+00,6.600000000000163514e-01,1.569999999999561746e+00,2.870000000000003638e+03,-2.175000000000493205e+00,-4.944999999997238049e+00,1.378333942922090927e+01,-2.453087424921359450e+00
2.000000000000210676e+01,3.000000004422388677e+00,9.999999999976248333e+00,6.600000000000041389e-01,1.569999999999715623e+00,2.870000000000001819e+03,-2.175000000000311573e+00,-4.944999999998108464e+00,1.380561903133991741e+01,-2.465711301413877621e+00
2.000000000000299494e+01,3.000000002792557741e+00,9.999999999960962782e+00,6.600000000000170175e-01,1.569999999999627249e+00,2.870000000000003638e+03,-2.175000000000439471e+00,-4.944999999997646611e+00,1.369891202181445244e+01,-2.533740668038747756e+00
2.000000000000312639e+01,3.000000003844755181e+00,9.999999999963257835e+00,6.600000000000169065e-01,1.569999999999577511e+00,2.870000000000004093e+03,-2.175000000000486544e+00,-4.944999999997349072e+00,1.378935774198610353e+01,-2.503044545733402959e+00
2.000000000000363798e+01,3.000000002815533140e+00,9.999999999964289898e+00,6.600000000000167955e-01,1.569999999999526219e+00,2.870000000000004093e+03,-2.175000000000545164e+00,-4.944999999997061302e+00,1.379065197192400838e+01,-2.484008209394815481e+00
2.000000000000245137e+01,2.999999999972939868e+00,9.999999999961611152e+00,6.599999999999923705e-01,1.569999999999827978e+00,2.870000000000002274e+03,-2.175000000000223643e+00,-4.944999999998818119e+00,1.328028443581592200e+01,-2.402825759838236763e+00
2.000000000000427036e+01,3.000000001229934821e+00,9.999999999960504482e+00,6.600000000000392220e-01,1.569999999999602380e+00,2.870000000000005912e+03,-2.175000000000540723e+00,-4.944999999997594209e+00,1.362672514451734429e+01,-2.229159958353788884e+00
2.000000000000564881e+01,3.000000001401228467e+00,9.999999999963998576e+00,6.600000000000184608e-01,1.569999999999460716e+00,2.870000000000006366e+03,-2.175000000000655298e+00,-4.944999999996549711e+00,1.362552702090537160e+01,-2.267758829747637428e+00
1.999999999999918288e+01,3.000000000253772559e+00,9.999999999974480858e+00,6.599999999999852651e-01,1.570000000000099982e+00,2.870000000000000000e+03,-2.174999999999865263e+00,-4.945000000000415952e+00,1.354969825921874005e+01,-2.204021467123086442e+00
2.000000000000016698e+01,3.000000000663299193e+00,9.999999999974001241e+00,6.599999999999904832e-01,1.569999999999987850e+00,2.870000000000002728e+03,-2.174999999999999822e+00,-4.944999999999737383e+00,1.355170487748389618e+01,-2.176415629900086746e+00
1.999999999999953815e+01,2.999999999677542384e+00,9.999999999976274978e+00,6.600000000000100231e-01,1.570000000000030926e+00,2.870000000000000000e+03,-2.174999999999979394e+00,-4.945000000000139728e+00,1.345103373687500081e+01,-2.209321184027900120e+00
1.999999999999932498e+01,2.999999999747763102e+00,9.999999999982128074e+00,6.599999999999679456e-01,1.570000000000118634e+00,2.870000000000000000e+03,-2.174999999999824851e+00,-4.945000000000400853e+00,1.342795761149940681e+01,-2.274265593741267466e+00
2.000000000000019540e+01,2.999999999825440078e+00,9.999999999973578468e+00,6.599999999999995870e-01,1.570000000000046692e+00,2.869999999999996817e+03,-2.174999999999989608e+00,-4.945000000000291607e+00,1.372456822817415656e+01,-2.208659724392199486e+00
2.000000000000071054e+01,2.999999999705879272e+00,9.999999999980641263e+00,6.599999999999606182e-01,1.570000000000006057e+00,2.869999999999993634e+03,-2.174999999999938538e+00,-4.944999999999841300e+00,1.365774565964727216e+01,-2.215661003799464623e+00
1.999999999999914380e+01,3.000000002723959724e+00,9.999999999999976907e+00,6.599999999999899281e-01,1.570000000000079332e+00,2.869999999999994998e+03,-2.174999999999888356e+00,-4.945000000000415064e+00,1.333347353793715229e+01,-2.097692255619252766e+00
1.999999999999992895e+01,2.999999999142458851e+00,1.000000000004243006e+01,6.600000000000182387e-01,1.570000000000068452e+00,2.870000000000000909e+03,-2.174999999999962075e+00,-4.945000000000451479e+00,1.328330759788323512e+01,-2.282579296399492641e+00
2.000000000000187583e+01,2.999999998648840815e+00,1.000000000004333423e+01,6.600000000000084688e-01,1.569999999999839968e+00,2.870000000000001819e+03,-2.175000000000208544e+00,-4.944999999999130758e+00,1.326973938379120099e+01,-2.298546272928647660e+00
1.999999999999814548e+01,2.999999998247527166e+00,1.000000000001302780e+01,6.599999999999904832e-01,1.570000000000183471e+00,2.869999999999993179e+03,-2.174999999999756017e+00,-4.945000000001128271e+00,1.366369746615161596e+01,-2.286426188563433826e+00
1.999999999999847944e+01,2.999999996865850616e+00,1.000000000002686207e+01,6.600000000000034728e-01,1.570000000000139284e+00,2.869999999999993179e+03,-2.174999999999834177e+00,-4.945000000000964846e+00,1.364562346955691829e+01,-2.274947732053016924e+00
2.000000000000494893e+01,3.000000000233797426e+00,9.999999999993706368e+00,6.600000000000263434e-01,1.569999999999392770e+00,2.870000000000007731e+03,-2.175000000000707701e+00,-4.944999999996378293e+00,1.355941151826957736e+01,-2.275542729345604087e+00
2.000000000000432365e+01,2.999999999543787599e+00,9.999999999996184386e+00,6.600000000000300071e-01,1.569999999999472706e+00,2.870000000000008640e+03,-2.175000000000618439e+00,-4.944999999996885442e+00,1.350755667039560315e+01,-2.251773264102307159e+00
2.000000000000314060e+01,2.999999999668822248e+00,9.999999999995784705e+00,6.600000000000345590e-01,1.569999999999566853e+00,2.870000000000004093e+03,-2.175000000000510525e+00,-4.944999999997515161e+00,1.359340713416090018e+01,-2.278593372592178312e+00
2.000000000000276401e+01,2.999999999804165540e+00,1.000000000000018474e+01,6.600000000000239009e-01,1.569999999999591944e+00,2.870000000000001819e+03,-2.175000000000456790e+00,-4.944999999997602202e+00,1.359515624007375756e+01,-2.282707687205864477e+00
2.000000000000471445e+01,2.999999998994221428e+00,9.999999999992661870e+00,6.600000000000303402e-01,1.569999999999472040e+00,2.870000000000010459e+03,-2.175000000000639755e+00,-4.944999999996875673e+00,1.352155566925520347e+01,-2.241431005963998579e+00
2.000000000000507328e+01,2.999999998281901448e+00,9.999999999985062615e+00,6.600000000000256772e-01,1.569999999999446949e+00,2.870000000000008640e+03,-2.175000000000668621e+00,-4.944999999996672280e+00,1.350791847259212908e+01,-2.233572651545045584e+00
2.000000000000220979e+01,2.999999998728382078e+00,1.000000000000470912e+01,6.600000000000073586e-01,1.569999999999784679e+00,2.870000000000003638e+03,-2.175000000000274269e+00,-4.944999999998744400e+00,1.347358527235364178e+01,-2.246997939159742330e+00
1.999999999999675993e+01,2.999999996808975222e+00,1.000000000004355982e+01,6.599999999999607292e-01,1.570000000000429052e+00,2.869999999999997272e+03,-2.174999999999482903e+00,-4.945000000002353069e+00,1.312013976366168500e+01,-2.459518934971665516e+00
1.999999999999728217e+01,2.999999998048414884e+00,1.000000000005334400e+01,6.599999999999747180e-01,1.570000000000344897e+00,2.869999999999997272e+03,-2.174999999999601474e+00,-4.945000000001942730e+00,1.322475256129685306e+01,-2.523791022779514392e+00
2.000000000000177636e+01,2.999999997271491026e+00,1.000000000001207390e+01,6.600000000000175726e-01,1.569999999999781126e+00,2.870000000000002274e+03,-2.175000000000260503e+00,-4.944999999998807461e+00,1.355422296500374557e+01,-2.108019437952432629e+00
2.000000000000127898e+01,2.999999996900669874e+00,1.000000000001271161e+01,6.600000000000090239e-01,1.569999999999839302e+00,2.870000000000002728e+03,-2.175000000000176126e+00,-4.944999999999106777e+00,1.355069675032678234e+01,-2.111671787419979740e+00
1.999999999999779376e+01,2.999999996745251529e+00,1.000000000002622613e+01,6.599999999999878186e-01,1.570000000000281393e+00,2.869999999999998181e+03,-2.174999999999683187e+00,-4.945000000001749108e+00,1.352106884557850286e+01,-2.019506310304633345e+00
1.999999999999831957e+01,2.999999996753638154e+00,1.000000000001885425e+01,6.599999999999803801e-01,1.570000000000210116e+00,2.869999999999996817e+03,-2.174999999999742695e+00,-4.945000000001265050e+00,1.349135015079557753e+01,-2.056006388834419329e+00
1.999999999999863931e+01,2.999999996691654847e+00,9.999999999970087927e+00,6.599999999999633937e-01,1.570000000000235651e+00,2.869999999999989086e+03,-2.174999999999708500e+00,-4.945000000001284590e+00,1.368953332413030033e+01,-2.211083886581651115e+00
1.999999999999821299e+01,2.999999996498702082e+00,9.999999999963785413e+00,6.599999999999783817e-01,1.570000000000259410e+00,2.869999999999991360e+03,-2.174999999999712941e+00,-4.945000000001459561e+00,1.362409275451651958e+01,-2.177600155266823823e+00
1.999999999999950973e+01,3.000000001703116759e+00,9.999999999977578824e+00,6.599999999999950351e-01,1.570000000000025597e+00,2.869999999999999545e+03,-2.174999999999948752e+00,-4.945000000000016271e+00,1.370573912829868135e+01,-1.990818015400233065e+00
2.000000000000226663e+01,2.999999999008715168e+00,9.999999999971926457e+00,6.600000000000209033e-01,1.569999999999682538e+00,2.870000000000000909e+03,-2.175000000000375522e+00,-4.944999999997966356e+00,1.347485508374611740e+01,-2.179960859479391999e+00
2.000000000000328626e+01,2.999999999517639626e+00,9.999999999978378185e+00,6.600000000000123546e-01,1.569999999999567297e+00,2.870000000000000909e+03,-2.175000000000477218e+00,-4.944999999997223838e+00,1.348179190593883447e+01,-2.249195313747192060e+00
2.000000000000176925e+01,2.999999997979596156e+00,9.999999999973354647e+00,6.600000000000066924e-01,1.569999999999789564e+00,2.870000000000000909e+03,-2.175000000000248512e+00,-4.944999999998575646e+00,1.340040947968877738e+01,-2.289543406115069679e+00
1.999999999999629807e+01,2.999999999626103087e+00,9.999999999976092013e+00,6.600000000000224576e-01,1.570000000000289164e+00,2.869999999999990450e+03,-2.174999999999658318e+00,-4.945000000001791740e+00,1.345948293027527676e+01,-2.189916060309891943e+00
1.999999999999650058e+01,3.000000001091113866e+00,9.999999999972340348e+00,6.600000000000110223e-01,1.570000000000332685e+00,2.869999999999991815e+03,-2.174999999999616573e+00,-4.945000000002020890e+00,1.354970318908192084e+01,-2.226780751629770627e+00
1.999999999999738520e+01,3.000000001142293815e+00,9.999999999982231103e+00,6.600000000000195710e-01,1.570000000000218332e+00,2.869999999999991360e+03,-2.174999999999747136e+00,-4.945000000001359197e+00,1.346836260227805226e+01,-2.217544125660147802e+00
1.999999999999993250e+01,3.000000000337767592e+00,9.999999999970347275e+00,6.600000000000129097e-01,1.570000000000036033e+00,2.869999999999992269e+03,-2.174999999999981615e+00,-4.945000000000374207e+00,1.325773289579253067e+01,-2.549609390660312336e+00
1.999999999999675993e+01,3.000000002277351641e+00,9.999999999973478992e+00,6.599999999999448530e-01,1.570000000000392637e+00,2.869999999999981355e+03,-2.174999999999498890e+00,-4.945000000002194973e+00,1.335688585714034637e+01,-2.175240572845111409e+00
1.999999999999972999e+01,3.000000000659811761e+00,1.000000000000623501e+01,6.599999999999889289e-01,1.570000000000123741e+00,2.869999999999995453e+03,-2.174999999999883027e+00,-4.945000000000850271e+00,1.359146410276068551e+01,-2.207348797987424671e+00
2.000000000000019895e+01,3.000000001021668083e+00,1.000000000000920863e+01,6.599999999999781597e-01,1.570000000000101315e+00,2.869999999999995453e+03,-2.174999999999884803e+00,-4.945000000000654872e+00,1.357879651208090266e+01,-2.168415271864155169e+00
1.999999999999910827e+01,3.000000000071560979e+00,1.000000000000597034e+01,6.599999999999800471e-01,1.570000000000121965e+00,2.869999999999988177e+03,-2.174999999999848388e+00,-4.945000000000953300e+00,1.372909891528837001e+01,-2.154453852879390841e+00
1.999999999999873523e+01,3.000000001075857625e+00,1.000000000001052491e+01,6.599999999999709432e-01,1.570000000000219220e+00,2.869999999999989541e+03,-2.174999999999733813e+00,-4.945000000001483542e+00,1.373749281884076012e+01,-2.202606249207768041e+00
1.999999999999975131e+01,2.999999996957177117e+00,9.999999999995644373e+00,6.599999999999511813e-01,1.570000000000106199e+00,2.869999999999995453e+03,-2.174999999999856826e+00,-4.945000000000689511e+00,1.373500146870523686e+01,-2.204765192074897406e+00
2.000000000000062528e+01,2.999999997486440861e+00,9.999999999998665956e+00,6.599999999999511813e-01,1.569999999999992291e+00,2.869999999999994543e+03,-2.174999999999945643e+00,-4.944999999999967422e+00,1.367974181261935307e+01,-2.176646576114915632e+00
2.000000000000138911e+01,2.999999999839373821e+00,9.999999999952770224e+00,6.599999999999701661e-01,1.569999999999972307e+00,2.870000000000001364e+03,-2.175000000000022027e+00,-4.944999999999671658e+00,1.369772071100037536e+01,-2.394985580432176686e+00
1.999999999999974420e+01,2.999999999443664134e+00,9.999999999951052487e+00,6.599999999999700551e-01,1.570000000000187912e+00,2.870000000000002274e+03,-2.174999999999818634e+00,-4.945000000000987939e+00,1.370378155097314377e+01,-2.418495864060585365e+00
2.000000000000167688e+01,2.999999999231177217e+00,9.999999999942387419e+00,6.599999999999950351e-01,1.569999999999866835e+00,2.870000000000001364e+03,-2.175000000000157474e+00,-4.944999999999085460e+00,1.367859094371767092e+01,-2.424592447353725699e+00
1.999999999999887734e+01,2.999999998912551646e+00,1.000000000003290701e+01,6.600000000000044720e-01,1.570000000000054907e+00,2.869999999999992269e+03,-2.174999999999911449e+00,-4.945000000000549178e+00,1.370794185362796824e+01,-2.252781884408637580e+00
1.999999999999921130e+01,2.999999998890146014e+00,1.000000000002330047e+01,6.600000000000043610e-01,1.570000000000041585e+00,2.869999999999994088e+03,-2.174999999999935874e+00,-4.945000000000439933e+00,1.368578679764254957e+01,-2.246994744601256144e+00
2.000000000000131806e+01,2.999999996579214567e+00,9.999999999993656630e+00,6.600000000000234568e-01,1.569999999999867279e+00,2.869999999999999545e+03,-2.175000000000195666e+00,-4.944999999999313722e+00,1.366619804763053736e+01,-2.228716514585098007e+00
2.000000000000256861e+01,2.999999998790066069e+00,9.999999999993399058e+00,6.600000000000302292e-01,1.569999999999727613e+00,2.870000000000003183e+03,-2.175000000000351541e+00,-4.944999999998485940e+00,1.365702848654024137e+01,-2.221457589161557333e+00
2.000000000000157740e+01,3.000000000985286519e+00,9.999999999917239535e+00,6.600000000000425526e-01,1.569999999999782681e+00,2.869999999999997272e+03,-2.175000000000284928e+00,-4.944999999998946905e+00,1.340993347542482006e+01,-2.219228568510279942e+00
1.999999999999763745e+01,3.000000003421831263e+00,1.000000000001443290e+01,6.600000000000209033e-01,1.570000000000076223e+00,2.869999999999992724e+03,-2.174999999999876810e+00,-4.945000000000574936e+00,1.340586288371452817e+01,-2.116349135131425196e+00
1.999999999999841194e+01,3.000000003514760039e+00,1.000000000000905231e+01,6.600000000000174616e-01,1.569999999999972529e+00,2.869999999999991815e+03,-2.174999999999970068e+00,-4.944999999999905249e+00,1.337690180377248161e+01,-2.121587686014563268e+00
1.999999999999960210e+01,3.000000003023702622e+00,1.000000000000639666e+01,6.600000000000190159e-01,1.569999999999881712e+00,2.869999999999993179e+03,-2.175000000000101963e+00,-4.944999999999417639e+00,1.333968026867384005e+01,-2.107170597155320735e+00
1.999999999999579003e+01,3.000000002317558589e+00,1.000000000002974332e+01,6.599999999999880407e-01,1.570000000000422391e+00,2.869999999999983174e+03,-2.174999999999495781e+00,-4.945000000002522711e+00,1.373528684708944070e+01,-2.179145711227127524e+00
1.999999999999472777e+01,3.000000000951756896e+00,1.000000000003694467e+01,6.599999999999763833e-01,1.570000000000556062e+00,2.869999999999982720e+03,-2.174999999999339906e+00,-4.945000000003297203e+00,1.371382039331885316e+01,-2.152994708619496045e+00
2.000000000000278888e+01,3.000000001991496745e+00,9.999999999978884446e+00,6.599999999999800471e-01,1.569999999999817542e+00,2.870000000000002728e+03,-2.175000000000215650e+00,-4.944999999998719531e+00,1.354494837907809135e+01,-2.245064170806336357e+00
2.000000000000115108e+01,3.000000001286587281e+00,9.999999999986094679e+00,6.599999999999737188e-01,1.569999999999999174e+00,2.870000000000000455e+03,-2.175000000000004263e+00,-4.944999999999774687e+00,1.349858055488325270e+01,-2.242256042113196290e+00
1.999999999999577938e+01,2.999999999614871626e+00,1.000000000002691181e+01,6.600000000000016964e-01,1.570000000000393747e+00,2.869999999999979536e+03,-2.174999999999545519e+00,-4.945000000002547580e+00,1.342732516339017934e+01,-2.195706939040790839e+00
1.999999999999488765e+01,2.999999998607101759e+00,1.000000000003967671e+01,6.599999999999921485e-01,1.570000000000544960e+00,2.869999999999980446e+03,-2.174999999999387423e+00,-4.945000000003375362e+00,1.341378882800539607e+01,-2.177834593113542994e+00
1.999999999999993960e+01,2.999999997298307797e+00,1.000000000000421707e+01,6.600000000000412204e-01,1.569999999999820872e+00,2.870000000000003638e+03,-2.175000000000181899e+00,-4.944999999998985984e+00,1.346244902849636738e+01,-2.190183819039954294e+00
2.000000000000056488e+01,2.999999996841228977e+00,9.999999999994146904e+00,6.600000000000417755e-01,1.569999999999758922e+00,2.870000000000002274e+03,-2.175000000000247180e+00,-4.944999999998633378e+00,1.348392427368975710e+01,-2.161060871237297842e+00
2.000000000000322942e+01,2.999999996921473677e+00,9.999999999994367172e+00,6.600000000000240119e-01,1.569999999999630136e+00,2.869999999999999091e+03,-2.175000000000438583e+00,-4.944999999997944151e+00,1.339203659099780985e+01,-2.211706342304348372e+00
2.000000000000273914e+01,2.999999996750994047e+00,1.000000000001168132e+01,6.600000000000325606e-01,1.569999999999683871e+00,2.870000000000001819e+03,-2.175000000000407052e+00,-4.944999999998301199e+00,1.343727373763140420e+01,-2.196523618045308712e+00
2.000000000000184031e+01,2.999999997048099054e+00,1.000000000001732658e+01,6.600000000000264544e-01,1.569999999999796891e+00,2.869999999999995907e+03,-2.175000000000273825e+00,-4.944999999999035722e+00,1.341902702748794951e+01,-2.202299825870157601e+00
1.999999999999971578e+01,2.999999998474460305e+00,9.999999999963275599e+00,6.599999999999640599e-01,1.570000000000072005e+00,2.870000000000001819e+03,-2.174999999999880362e+00,-4.945000000000094431e+00,1.385112809918931553e+01,-2.350933312859451618e+00
2.000000000000073186e+01,2.999999999632996239e+00,9.999999999966208364e+00,6.599999999999819345e-01,1.569999999999934781e+00,2.870000000000002274e+03,-2.175000000000075762e+00,-4.944999999999346585e+00,1.382516325567132576e+01,-2.369897923508486492e+00
1.999999999999900524e+01,2.999999998525605172e+00,9.999999999971883824e+00,6.599999999999868194e-01,1.570000000000066009e+00,2.869999999999996362e+03,-2.174999999999904343e+00,-4.945000000000243645e+00,1.381878511806578835e+01,-2.300266742500929329e+00
1.999999999999999645e+01,2.999999998117365507e+00,9.999999999980671461e+00,6.599999999999733857e-01,1.570000000000008278e+00,2.869999999999996817e+03,-2.174999999999950973e+00,-4.944999999999820872e+00,1.383050660583055702e+01,-2.319530006126113264e+00
1.999999999999586109e+01,3.000000003126948922e+00,1.000000000000535394e+01,6.599999999999991429e-01,1.570000000000360219e+00,2.869999999999986812e+03,-2.174999999999565947e+00,-4.945000000002190532e+00,1.330157589831791753e+01,-2.061855081739747408e+00
1.999999999999470290e+01,3.000000003688256367e+00,1.000000000001109868e+01,6.599999999999746070e-01,1.570000000000525198e+00,2.869999999999986358e+03,-2.174999999999340794e+00,-4.945000000003070717e+00,1.334658162645860813e+01,-2.033366833759800318e+00
1.999999999999736744e+01,3.000000003381693148e+00,1.000000000000454037e+01,6.600000000000111333e-01,1.570000000000197016e+00,2.869999999999988631e+03,-2.174999999999741807e+00,-4.945000000001185114e+00,1.326726346093906628e+01,-2.137540949281024005e+00
1.999999999999893419e+01,3.000000001494996127e+00,1.000000000003689848e+01,6.599999999999601741e-01,1.570000000000228768e+00,2.869999999999986812e+03,-2.174999999999720490e+00,-4.945000000001265050e+00,1.358446284933546089e+01,-2.112213870016334205e+00
1.999999999999895550e+01,3.000000000874189610e+00,1.000000000003700151e+01,6.599999999999569544e-01,1.570000000000224105e+00,2.869999999999984539e+03,-2.174999999999716493e+00,-4.945000000001233076e+00,1.355018283313723693e+01,-2.128042286290661611e+00
1.999999999999707256e+01,3.000000000789216692e+00,1.000000000004509104e+01,6.599999999999653921e-01,1.570000000000364437e+00,2.869999999999981355e+03,-2.174999999999556177e+00,-4.945000000002202079e+00,1.351452712616488583e+01,-2.092671357921292774e+00
1.999999999999776890e+01,3.000000000693976876e+00,1.000000000004289191e+01,6.599999999999708322e-01,1.570000000000281171e+00,2.869999999999979536e+03,-2.174999999999647216e+00,-4.945000000001706475e+00,1.354964962789437521e+01,-2.095813982007093124e+00
1.999999999999895550e+01,3.000000000854329052e+00,9.999999999974210851e+00,6.599999999999883737e-01,1.570000000000103313e+00,2.870000000000000000e+03,-2.174999999999852829e+00,-4.945000000000510987e+00,1.375460415830586314e+01,-2.131581741561786369e+00
1.999999999999944222e+01,2.999999999808666384e+00,9.999999999972558840e+00,6.600000000000026956e-01,1.570000000000014939e+00,2.869999999999999091e+03,-2.174999999999954081e+00,-4.945000000000028706e+00,1.371180293508689552e+01,-2.163196068975356212e+00
1.999999999999868550e+01,2.999999999380231763e+00,9.999999999983709031e+00,6.600000000000013634e-01,1.570000000000105755e+00,2.870000000000000455e+03,-2.174999999999863043e+00,-4.945000000000689511e+00,1.357607621460174663e+01,-2.139424321900718073e+00
1.999999999999839062e+01,2.999999999667431805e+00,9.999999999984538590e+00,6.600000000000022515e-01,1.570000000000112639e+00,2.869999999999999545e+03,-2.174999999999853717e+00,-4.945000000000733920e+00,1.359323888578404116e+01,-2.204475682271811010e+00
2.000000000000159517e+01,2.999999999899008785e+00,9.999999999965377029e+00,6.599999999999907052e-01,1.569999999999914353e+00,2.869999999999996817e+03,-2.175000000000115286e+00,-4.944999999999335039e+00,1.357100242279226343e+01,-2.265335918623431866e+00
2.000000000000135358e+01,2.999999999851030719e+00,9.999999999969588771e+00,6.599999999999701661e-01,1.569999999999975193e+00,2.869999999999998181e+03,-2.175000000000011813e+00,-4.944999999999592610e+00,1.356843562828910876e+01,-2.297184016333685630e+00
1.999999999999911182e+01,2.999999999369849402e+00,1.000000000000186340e+01,6.599999999999609512e-01,1.570000000000205231e+00,2.869999999999998636e+03,-2.174999999999742251e+00,-4.945000000001011031e+00,1.326730267665531926e+01,-2.371563762639427253e+00
2.000000000000512301e+01,2.999999999772984260e+00,9.999999999943641527e+00,6.600000000000846301e-01,1.569999999999312612e+00,2.870000000000006821e+03,-2.175000000000865796e+00,-4.944999999996017692e+00,1.364046276532983093e+01,-2.122038013458182437e+00
2.000000000000446931e+01,3.000000001090572077e+00,9.999999999954997776e+00,6.600000000000646461e-01,1.569999999999425189e+00,2.870000000000006821e+03,-2.175000000000699707e+00,-4.944999999996614548e+00,1.360230204637895568e+01,-2.176654877025725465e+00
2.000000000000541789e+01,3.000000000236317632e+00,9.999999999950563989e+00,6.600000000000392220e-01,1.569999999999324602e+00,2.870000000000008185e+03,-2.175000000000785860e+00,-4.944999999995832063e+00,1.365999960742099439e+01,-2.174242154186027953e+00
2.000000000000524025e+01,3.000000000277437184e+00,9.999999999944769513e+00,6.600000000000615374e-01,1.569999999999289297e+00,2.870000000000006821e+03,-2.175000000000844036e+00,-4.944999999995768114e+00,1.362857439715575225e+01,-2.194855438959030902e+00
2.000000000000197886e+01,3.000000000984794024e+00,9.999999999992887467e+00,6.600000000000189049e-01,1.569999999999630358e+00,2.869999999999998181e+03,-2.175000000000375966e+00,-4.944999999997731877e+00,1.349262499865238496e+01,-2.004624040722293277e+00
2.000000000000107292e+01,3.000000001582883158e+00,9.999999999992279953e+00,6.600000000000134648e-01,1.569999999999741158e+00,2.869999999999996817e+03,-2.175000000000254285e+00,-4.944999999998413998e+00,1.347304498062625022e+01,-2.048180309414208367e+00
2.000000000000025224e+01,2.999999998822543645e+00,9.999999999987002397e+00,6.600000000000236788e-01,1.569999999999884599e+00,2.870000000000000000e+03,-2.175000000000105960e+00,-4.944999999999334150e+00,1.356932282391649203e+01,-2.044772369260218436e+00
1.999999999999967315e+01,2.999999997816002573e+00,9.999999999981616483e+00,6.600000000000222355e-01,1.569999999999953433e+00,2.870000000000000909e+03,-2.175000000000041123e+00,-4.944999999999740936e+00,1.356298797219581509e+01,-2.086370942714141474e+00
1.999999999999876721e+01,2.999999997690986131e+00,1.000000000000169642e+01,6.600000000000580958e-01,1.569999999999991847e+00,2.869999999999997272e+03,-2.175000000000057998e+00,-4.945000000000165485e+00,1.342643318028863142e+01,-2.079086286094989244e+00
1.999999999999849365e+01,2.999999997098471649e+00,9.999999999989430677e+00,6.600000000000458833e-01,1.570000000000053353e+00,2.869999999999999545e+03,-2.174999999999966516e+00,-4.945000000000427498e+00,1.348340590376323611e+01,-2.056413696764739729e+00
2.000000000000214584e+01,2.999999994933738812e+00,9.999999999963295139e+00,6.600000000000326716e-01,1.569999999999744933e+00,2.870000000000002728e+03,-2.175000000000333333e+00,-4.944999999998531237e+00,1.347465790826902499e+01,-2.236014551227802460e+00
2.000000000000126477e+01,2.999999995045793622e+00,9.999999999979094056e+00,6.600000000000301181e-01,1.569999999999841522e+00,2.870000000000000000e+03,-2.175000000000221867e+00,-4.944999999999149409e+00,1.348536139718845206e+01,-2.215343303815167086e+00
2.000000000000312284e+01,2.999999995163588284e+00,9.999999999966505015e+00,6.600000000000212363e-01,1.569999999999631690e+00,2.870000000000001364e+03,-2.175000000000429257e+00,-4.944999999997773621e+00,1.351707006569444758e+01,-2.222154121889465817e+00
2.000000000000308376e+01,2.999999995655430407e+00,9.999999999966817654e+00,6.600000000000254552e-01,1.569999999999613483e+00,2.869999999999998636e+03,-2.175000000000459011e+00,-4.944999999997694573e+00,1.352236844323345721e+01,-2.208454293165190929e+00
2.000000000000299494e+01,2.999999994689516836e+00,9.999999999974692244e+00,6.599999999999970335e-01,1.569999999999687645e+00,2.870000000000001364e+03,-2.175000000000347988e+00,-4.944999999997989448e+00,1.349277906378017811e+01,-2.223178581386952679e+00
2.000000000000110489e+01,2.999999996107844957e+00,9.999999999961801223e+00,6.600000000000574296e-01,1.569999999999832418e+00,2.870000000000003183e+03,-2.175000000000268052e+00,-4.944999999999069473e+00,1.351150284412771896e+01,-2.237941779502615525e+00
2.000000000000027001e+01,2.999999996871999919e+00,9.999999999966982855e+00,6.600000000000436629e-01,1.569999999999937668e+00,2.870000000000001364e+03,-2.175000000000131273e+00,-4.944999999999660112e+00,1.347702552776419438e+01,-2.260968979202469420e+00
1.999999999999503331e+01,2.999999996209740338e+00,1.000000000004927436e+01,6.599999999999728306e-01,1.570000000000492779e+00,2.869999999999986812e+03,-2.174999999999375433e+00,-4.945000000002869989e+00,1.352827041263719998e+01,-2.170308070391860689e+00
1.999999999999523581e+01,2.999999997079727976e+00,1.000000000004608403e+01,6.599999999999799360e-01,1.570000000000479234e+00,2.869999999999986812e+03,-2.174999999999410072e+00,-4.945000000002838014e+00,1.349303607542270989e+01,-2.142526549815216619e+00
1.999999999999375788e+01,2.999999999230337000e+00,1.000000000006208900e+01,6.600000000000028066e-01,1.570000000000607576e+00,2.869999999999984084e+03,-2.174999999999286171e+00,-4.945000000003761720e+00,1.340275059324365969e+01,-2.146752574909913669e+00
1.999999999999344524e+01,2.999999999426022690e+00,1.000000000006229861e+01,6.599999999999976996e-01,1.570000000000649765e+00,2.869999999999982265e+03,-2.174999999999227107e+00,-4.945000000004020180e+00,1.341034308140485187e+01,-2.127676125303120003e+00
1.999999999999890576e+01,2.999999998887693309e+00,1.000000000001533706e+01,6.599999999999961453e-01,1.569999999999969420e+00,2.869999999999989086e+03,-2.174999999999956746e+00,-4.944999999999817319e+00,1.349392095346959763e+01,-2.165315562161472140e+00
1.999999999999856115e+01,2.999999997309135580e+00,1.000000000002577494e+01,6.600000000000010303e-01,1.570000000000010054e+00,2.869999999999989086e+03,-2.174999999999919442e+00,-4.945000000000123741e+00,1.347380263530887134e+01,-2.212255147936625033e+00
2.000000000000173728e+01,2.999999998761527120e+00,9.999999999999355182e+00,6.600000000000187939e-01,1.569999999999636797e+00,2.869999999999995453e+03,-2.175000000000358646e+00,-4.944999999997871321e+00,1.348871279873146278e+01,-2.288255372225772799e+00
2.000000000000010658e+01,2.999999998687183922e+00,1.000000000001022293e+01,6.600000000000056932e-01,1.569999999999823093e+00,2.869999999999994088e+03,-2.175000000000139710e+00,-4.944999999998931806e+00,1.344634458645994002e+01,-2.213497075628786614e+00
2.000000000000093792e+01,2.999999998238238597e+00,1.000000000000616573e+01,6.600000000000135758e-01,1.569999999999731166e+00,2.869999999999994543e+03,-2.175000000000236078e+00,-4.944999999998384688e+00,1.351402625008293334e+01,-2.235146085484549072e+00
1.999999999999985079e+01,2.999999999326268707e+00,1.000000000000421352e+01,6.600000000000231237e-01,1.569999999999898810e+00,2.869999999999995453e+03,-2.175000000000104183e+00,-4.944999999999525997e+00,1.354084725249239796e+01,-2.289844584329282728e+00
2.000000000000113332e+01,2.999999999773967474e+00,1.000000000001375078e+01,6.600000000000185718e-01,1.569999999999730944e+00,2.869999999999992724e+03,-2.175000000000248512e+00,-4.944999999998466400e+00,1.356446498673594547e+01,-2.211002758690064240e+00
1.999999999999993250e+01,2.999999998345915575e+00,1.000000000001276845e+01,6.599999999999873745e-01,1.569999999999986073e+00,2.869999999999992269e+03,-2.174999999999982059e+00,-4.944999999999959428e+00,1.345849186218213234e+01,-2.185684051498154812e+00
1.999999999999885603e+01,2.999999997119676909e+00,1.000000000002240697e+01,6.599999999999826006e-01,1.570000000000052687e+00,2.869999999999983174e+03,-2.174999999999875921e+00,-4.945000000000415064e+00,1.357666338538598438e+01,-2.333740869211724078e+00
2.000000000000139622e+01,2.999999996571439453e+00,1.000000000004760992e+01,6.599999999999903721e-01,1.569999999999856399e+00,2.869999999999999545e+03,-2.175000000000132161e+00,-4.944999999999113882e+00,1.333424915914378417e+01,-2.336633361516490925e+00
1.999999999999999645e+01,3.000000000699676761e+00,1.000000000002266098e+01,6.599999999999801581e-01,1.569999999999942775e+00,2.869999999999994543e+03,-2.174999999999999822e+00,-4.944999999999654783e+00,1.323599359109846141e+01,-2.266420394040697506e+00
2.000000000000303046e+01,3.000000002490150308e+00,9.999999999975672793e+00,6.599999999999842659e-01,1.569999999999631468e+00,2.870000000000001819e+03,-2.175000000000359979e+00,-4.944999999997563123e+00,1.359149592387239558e+01,-2.222715737520966517e+00
2.000000000000243006e+01,3.000000001762408441e+00,9.999999999978452792e+00,6.600000000000136868e-01,1.569999999999678542e+00,2.870000000000003183e+03,-2.175000000000369305e+00,-4.944999999998031193e+00,1.352676391531811007e+01,-2.206358493046989278e+00
2.000000000000167333e+01,3.000000000883440876e+00,9.999999999969791276e+00,6.599999999999962563e-01,1.569999999999778018e+00,2.870000000000004093e+03,-2.175000000000233857e+00,-4.944999999998496598e+00,1.354472875080958616e+01,-2.322679506206040578e+00
2.000000000000136779e+01,3.000000001018557683e+00,9.999999999999094058e+00,6.600000000000044720e-01,1.569999999999807772e+00,2.870000000000000909e+03,-2.175000000000218314e+00,-4.944999999998765716e+00,1.355752789198842834e+01,-2.265576677264061090e+00
1.999999999999809575e+01,3.000000002030801305e+00,9.999999999953912422e+00,6.599999999999590639e-01,1.570000000000339568e+00,2.869999999999998181e+03,-2.174999999999604139e+00,-4.945000000001799734e+00,1.365110417105667295e+01,-2.358284288395763539e+00
1.999999999999790745e+01,3.000000003168773688e+00,9.999999999966512121e+00,6.599999999999730527e-01,1.570000000000279394e+00,2.869999999999993634e+03,-2.174999999999667200e+00,-4.945000000001509299e+00,1.367284914737948931e+01,-2.320738724199563396e+00
1.999999999999717204e+01,3.000000002472568816e+00,9.999999999970382802e+00,6.599999999999669464e-01,1.570000000000394191e+00,2.869999999999992724e+03,-2.174999999999543743e+00,-4.945000000002170104e+00,1.366447758790433298e+01,-2.362373380903572961e+00
