1.999999999999776890e+01,3.000000005353132160e+00,1.000000000001048051e+01,6.599999999999581757e-01,1.570000000000335572e+00,2.870000000000001819e+03,-2.174999999999585487e+00,-4.945000000002077734e+00,1.355832980379672570e+01,-2.033071633011549473e+00
1.999999999999900169e+01,3.000000005820429472e+00,1.000000000001046985e+01,6.599999999999865974e-01,1.570000000000214113e+00,2.870000000000001819e+03,-2.174999999999781330e+00,-4.945000000001306795e+00,1.351257037109341930e+01,-2.018570339749501841e+00
2.000000000000127542e+01,2.999999994539584325e+00,1.000000000000580869e+01,6.600000000000085798e-01,1.570000000000004947e+00,2.870000000000001819e+03,-2.175000000000058442e+00,-4.944999999999939000e+00,1.338195219911334810e+01,-2.124637040345500161e+00
1.999999999999869971e+01,2.999999998246831723e+00,1.000000000001340084e+01,6.599999999999650591e-01,1.570000000000274287e+00,2.869999999999994543e+03,-2.174999999999672973e+00,-4.945000000001546603e+00,1.338905609028236476e+01,-2.128882938674214742e+00
1.999999999999847233e+01,2.999999997415518482e+00,1.000000000000557954e+01,6.599999999999497380e-01,1.570000000000272289e+00,2.869999999999994088e+03,-2.174999999999637001e+00,-4.945000000001372520e+00,1.336278532627954263e+01,-2.169929686662979584e+00
2.000000000000014921e+01,2.999999998529515821e+00,9.999999999995496935e+00,6.599999999999708322e-01,1.569999999999984741e+00,2.869999999999990905e+03,-2.174999999999956746e+00,-4.944999999999875051e+00,1.337029312951968052e+01,-2.165854970967865167e+00
1.999999999999839062e+01,2.999999997453148382e+00,1.000000000001038103e+01,6.599999999999482947e-01,1.570000000000283613e+00,2.869999999999993634e+03,-2.174999999999621902e+00,-4.945000000001564366e+00,1.340632265758354613e+01,-2.127099412383912203e+00
1.999999999999798916e+01,2.999999998801483603e+00,1.000000000001150546e+01,6.599999999999511813e-01,1.570000000000276286e+00,2.869999999999985903e+03,-2.174999999999613909e+00,-4.945000000001646967e+00,1.331664523624051633e+01,-2.151757407059965654e+00
1.999999999999859668e+01,2.999999997700617094e+00,9.999999999986979304e+00,6.599999999999657252e-01,1.570000000000192575e+00,2.869999999999988177e+03,-2.174999999999724931e+00,-4.945000000001168239e+00,1.334244720960159825e+01,-2.237432116174523866e+00
2.000000000000087041e+01,2.999999998051526617e+00,9.999999999990027533e+00,6.599999999999772715e-01,1.570000000000042917e+00,2.870000000000000000e+03,-2.174999999999961631e+00,-4.945000000000227658e+00,1.334615346199174546e+01,-2.179540361027389572e+00
1.999999999999890576e+01,2.999999997068954816e+00,9.999999999987666754e+00,6.599999999999982547e-01,1.570000000000228324e+00,2.869999999999998181e+03,-2.174999999999771116e+00,-4.945000000001537721e+00,1.337930317040317441e+01,-2.143004806670662177e+00
1.999999999999729283e+01,2.999999997529536611e+00,1.000000000002248512e+01,6.599999999999575095e-01,1.570000000000451479e+00,2.869999999999991815e+03,-2.174999999999468248e+00,-4.945000000002658602e+00,1.336700834057945464e+01,-2.130598418927115656e+00
1.999999999999710099e+01,2.999999999215159363e+00,1.000000000003068656e+01,6.599999999999693889e-01,1.570000000000445040e+00,2.869999999999990450e+03,-2.174999999999494893e+00,-4.945000000002542251e+00,1.334527528375658889e+01,-2.131199222657197634e+00
1.999999999999836930e+01,2.999999998343115148e+00,1.000000000001196376e+01,6.599999999999791589e-01,1.570000000000300044e+00,2.869999999999993634e+03,-2.174999999999671640e+00,-4.945000000001551932e+00,1.339453903724607642e+01,-2.196115197987761558e+00
2.000000000000071765e+01,2.999999998632199461e+00,1.000000000000743761e+01,6.599999999999941469e-01,1.569999999999958762e+00,2.869999999999990905e+03,-2.175000000000038902e+00,-4.944999999999790674e+00,1.339100909180372234e+01,-2.223052865177805426e+00
1.999999999999860734e+01,2.999999998449286664e+00,1.000000000000849099e+01,6.599999999999780487e-01,1.570000000000199458e+00,2.869999999999985448e+03,-2.174999999999747136e+00,-4.945000000001395613e+00,1.337528950147293472e+01,-2.217294413864201008e+00
2.000000000000254019e+01,2.999999997818289632e+00,1.000000000000095213e+01,6.599999999999768274e-01,1.569999999999839080e+00,2.870000000000000000e+03,-2.175000000000174794e+00,-4.944999999998874962e+00,1.340247700993019642e+01,-2.158391616717156403e+00
1.999999999999908340e+01,2.999999996332747276e+00,9.999999999990055954e+00,6.600000000000086908e-01,1.570000000000291385e+00,2.870000000000001364e+03,-2.174999999999760902e+00,-4.945000000001587459e+00,1.340846080645379246e+01,-2.166808120817399708e+00
1.999999999999993605e+01,2.999999997895460790e+00,9.999999999996594724e+00,6.599999999999800471e-01,1.570000000000104423e+00,2.869999999999994088e+03,-2.174999999999872813e+00,-4.945000000000578488e+00,1.333633420775467471e+01,-2.141913900284784233e+00
1.999999999999910116e+01,2.999999997151873377e+00,9.999999999981463716e+00,6.599999999999771605e-01,1.570000000000232765e+00,2.869999999999996817e+03,-2.174999999999744027e+00,-4.945000000001309459e+00,1.337659123550112561e+01,-2.154748299689980051e+00
2.000000000000077449e+01,2.999999998006202873e+00,9.999999999996076028e+00,6.599999999999691669e-01,1.570000000000038254e+00,2.869999999999995453e+03,-2.174999999999948308e+00,-4.945000000000051799e+00,1.342590043290198842e+01,-2.146719215865026786e+00
1.999999999999988631e+01,2.999999997261987073e+00,1.000000000001300293e+01,6.599999999999555111e-01,1.570000000000078666e+00,2.869999999999985903e+03,-2.174999999999853273e+00,-4.945000000000406182e+00,1.343658337425482152e+01,-2.132984140728575895e+00
1.999999999999853983e+01,2.999999996547419556e+00,1.000000000000495426e+01,6.599999999999917044e-01,1.570000000000113083e+00,2.869999999999999545e+03,-2.174999999999850164e+00,-4.945000000000884022e+00,1.351001047708049008e+01,-2.129340406283873222e+00
1.999999999999754863e+01,2.999999997976863231e+00,9.999999999994694022e+00,6.600000000000065814e-01,1.570000000000160822e+00,2.869999999999993634e+03,-2.174999999999812417e+00,-4.945000000001075868e+00,1.348850863734713279e+01,-2.138362865045919659e+00
2.000000000000001066e+01,2.999999998505547438e+00,9.999999999981440624e+00,6.599999999999716094e-01,1.570000000000020268e+00,2.869999999999994088e+03,-2.174999999999929656e+00,-4.945000000000121076e+00,1.339546866528923275e+01,-2.136069358975411170e+00
2.000000000000001066e+01,2.999999997260366147e+00,9.999999999981035614e+00,6.600000000000018074e-01,1.570000000000050022e+00,2.869999999999997272e+03,-2.174999999999952305e+00,-4.945000000000322693e+00,1.333114208214834839e+01,-2.128930317180708354e+00
1.999999999999935696e+01,2.999999997295565102e+00,9.999999999974397369e+00,6.599999999999915934e-01,1.570000000000068674e+00,2.869999999999989086e+03,-2.174999999999901235e+00,-4.945000000000508322e+00,1.332670274101774766e+01,-2.193157722600476589e+00
1.999999999999951328e+01,2.999999995852970613e+00,9.999999999999550582e+00,6.600000000000048050e-01,1.570000000000179696e+00,2.870000000000004093e+03,-2.174999999999851052e+00,-4.945000000001114060e+00,1.333597303470967965e+01,-2.161748977845328046e+00
1.999999999999906208e+01,2.999999996637934263e+00,9.999999999993393729e+00,6.600000000000236788e-01,1.570000000000140616e+00,2.869999999999996817e+03,-2.174999999999899902e+00,-4.945000000000979945e+00,1.335982144393564219e+01,-2.162389193223723360e+00
1.999999999999987921e+01,2.999999998361885023e+00,9.999999999950672347e+00,6.599999999999761613e-01,1.570000000000039586e+00,2.869999999999993634e+03,-2.174999999999918554e+00,-4.945000000000149498e+00,1.338918707930633190e+01,-2.232692350313884688e+00
1.999999999999979750e+01,2.999999998115071342e+00,1.000000000000012790e+01,6.599999999999915934e-01,1.570000000000089102e+00,2.869999999999998181e+03,-2.174999999999913225e+00,-4.945000000000569607e+00,1.342974294984525940e+01,-2.160189960694558042e+00
1.999999999999792522e+01,3.000000000935372668e+00,9.999999999986618704e+00,6.599999999999963674e-01,1.570000000000367102e+00,2.869999999999997272e+03,-2.174999999999637001e+00,-4.945000000002073293e+00,1.338882458730955527e+01,-2.213968986397064853e+00
1.999999999999733191e+01,3.000000001349647061e+00,9.999999999978065546e+00,6.599999999999965894e-01,1.570000000000424167e+00,2.869999999999998636e+03,-2.174999999999566835e+00,-4.945000000002522711e+00,1.341360491264845400e+01,-2.152401808086655155e+00
1.999999999999848299e+01,2.999999999464830314e+00,9.999999999997463362e+00,6.600000000000030287e-01,1.570000000000294271e+00,2.869999999999999545e+03,-2.174999999999722711e+00,-4.945000000001610552e+00,1.338375919261875424e+01,-2.129272362538998209e+00
1.999999999999833022e+01,2.999999999444795229e+00,9.999999999984453325e+00,6.599999999999750511e-01,1.570000000000283835e+00,2.869999999999994998e+03,-2.174999999999671640e+00,-4.945000000001587459e+00,1.340795974379244804e+01,-2.133906684452713254e+00
1.999999999999979394e+01,2.999999999481634649e+00,9.999999999983906207e+00,6.599999999999832667e-01,1.570000000000131513e+00,2.869999999999998636e+03,-2.174999999999859490e+00,-4.945000000000772111e+00,1.342520416210482281e+01,-2.132588734449506696e+00
1.999999999999845457e+01,3.000000000801956279e+00,1.000000000000778044e+01,6.599999999999736078e-01,1.570000000000308038e+00,2.869999999999998636e+03,-2.174999999999666755e+00,-4.945000000001677165e+00,1.337911012360469343e+01,-2.169309528642733742e+00
1.999999999999823075e+01,3.000000001127328897e+00,1.000000000000100719e+01,6.599999999999686118e-01,1.570000000000300044e+00,2.869999999999995453e+03,-2.174999999999637001e+00,-4.945000000001657625e+00,1.336970455970184979e+01,-2.154960832276731075e+00
2.000000000000107647e+01,2.999999994660809577e+00,1.000000000000549427e+01,6.600000000000164624e-01,1.569999999999964979e+00,2.870000000000003638e+03,-2.175000000000085087e+00,-4.944999999999690310e+00,1.337832614867737036e+01,-2.188785655777208294e+00
1.999999999999939249e+01,3.000000001348250400e+00,1.000000000000066791e+01,6.600000000000094680e-01,1.569999999999980522e+00,2.869999999999995907e+03,-2.175000000000006484e+00,-4.944999999999987850e+00,1.346697368957184437e+01,-2.060492858398550453e+00
1.999999999999758415e+01,3.000000000963241487e+00,1.000000000000347811e+01,6.600000000000286748e-01,1.570000000000230989e+00,2.869999999999996817e+03,-2.174999999999801314e+00,-4.945000000001301466e+00,1.340793664454533562e+01,-2.188863909603076419e+00
1.999999999999832667e+01,3.000000001582968423e+00,9.999999999999674927e+00,6.600000000000002531e-01,1.570000000000091100e+00,2.869999999999988177e+03,-2.174999999999881251e+00,-4.945000000000370655e+00,1.336367107826657907e+01,-2.141321268104005249e+00
2.000000000000038369e+01,3.000000000141601841e+00,1.000000000000674127e+01,6.600000000000231237e-01,1.569999999999809104e+00,2.869999999999992724e+03,-2.175000000000203215e+00,-4.944999999999006413e+00,1.337410649320553446e+01,-2.191946092677168334e+00
1.999999999999974420e+01,3.000000002133790034e+00,1.000000000001265477e+01,6.600000000000284528e-01,1.569999999999835305e+00,2.869999999999991360e+03,-2.175000000000167688e+00,-4.944999999999224904e+00,1.345507722752291180e+01,-2.150716249499529997e+00
1.999999999999766587e+01,3.000000002012173539e+00,1.000000000003404210e+01,6.599999999999839329e-01,1.570000000000148388e+00,2.869999999999984993e+03,-2.174999999999784439e+00,-4.945000000000686846e+00,1.339928732345714479e+01,-2.187476494208283384e+00
2.000000000000014921e+01,3.000000002969735569e+00,1.000000000001755573e+01,6.599999999999912603e-01,1.569999999999873941e+00,2.869999999999989996e+03,-2.175000000000084199e+00,-4.944999999999136975e+00,1.337941235853460853e+01,-2.202852662774724468e+00
1.999999999999914024e+01,3.000000003617778077e+00,1.000000000000825828e+01,6.599999999999779376e-01,1.569999999999970308e+00,2.869999999999984993e+03,-2.174999999999966072e+00,-4.944999999999585505e+00,1.344289820563255411e+01,-2.126682352610853144e+00
1.999999999999633715e+01,3.000000001828472485e+00,1.000000000000651923e+01,6.599999999999786038e-01,1.570000000000352447e+00,2.869999999999984539e+03,-2.174999999999567279e+00,-4.945000000001855689e+00,1.331465409618590812e+01,-2.262955387091350801e+00
1.999999999999718625e+01,3.000000001491683665e+00,1.000000000003579537e+01,6.599999999999835998e-01,1.570000000000226326e+00,2.869999999999989086e+03,-2.174999999999681410e+00,-4.945000000001457785e+00,1.336348083025910860e+01,-2.176401712757653151e+00
1.999999999999914380e+01,3.000000003990261899e+00,9.999999999998927080e+00,6.600000000000104672e-01,1.570000000000009166e+00,2.869999999999991815e+03,-2.174999999999982947e+00,-4.944999999999992291e+00,1.333144443486071218e+01,-2.221354123532084390e+00
1.999999999999800337e+01,3.000000001013691797e+00,1.000000000001438494e+01,6.599999999999791589e-01,1.570000000000041362e+00,2.869999999999980901e+03,-2.174999999999847500e+00,-4.945000000000372431e+00,1.335876544249565612e+01,-2.224564727551388899e+00
1.999999999999542766e+01,3.000000001745005918e+00,1.000000000000709299e+01,6.599999999999882627e-01,1.570000000000400853e+00,2.869999999999987267e+03,-2.174999999999495781e+00,-4.945000000002499618e+00,1.338542375550251506e+01,-2.235942669690522244e+00
1.999999999999650413e+01,2.999999999309157062e+00,9.999999999975448972e+00,6.599999999999898170e-01,1.570000000000401741e+00,2.869999999999988177e+03,-2.174999999999539302e+00,-4.945000000002648832e+00,1.337512031744717866e+01,-2.091898567443245316e+00
1.999999999999966960e+01,3.000000001324656829e+00,9.999999999976422416e+00,6.599999999999986988e-01,1.570000000000000062e+00,2.869999999999988631e+03,-2.174999999999983835e+00,-4.945000000000172591e+00,1.341931811717578960e+01,-2.104917041083623097e+00
1.999999999999920064e+01,3.000000001384278026e+00,9.999999999977150722e+00,6.599999999999981437e-01,1.570000000000070672e+00,2.869999999999989996e+03,-2.174999999999909228e+00,-4.945000000000568718e+00,1.342377343070671358e+01,-2.121465081569689826e+00
1.999999999999788969e+01,3.000000000776731124e+00,9.999999999981190157e+00,6.599999999999964784e-01,1.570000000000252971e+00,2.869999999999990450e+03,-2.174999999999728040e+00,-4.945000000001502194e+00,1.342507207265212976e+01,-2.163497449620528812e+00
2.000000000000190425e+01,3.000000002436293389e+00,9.999999999956713737e+00,6.600000000000260103e-01,1.569999999999662332e+00,2.869999999999990905e+03,-2.175000000000365308e+00,-4.944999999998179518e+00,1.343418728584858890e+01,-2.029623319773134593e+00
2.000000000000206768e+01,2.999999999305642984e+00,9.999999999959346297e+00,6.600000000000589839e-01,1.569999999999668550e+00,2.870000000000004547e+03,-2.175000000000419931e+00,-4.944999999998045404e+00,1.344728095632652831e+01,-2.151872623033417309e+00
1.999999999999936406e+01,3.000000000465814054e+00,9.999999999974045650e+00,6.600000000000335598e-01,1.570000000000037366e+00,2.870000000000003183e+03,-2.175000000000005596e+00,-4.945000000000109530e+00,1.345717398225642469e+01,-2.155677603316940694e+00
2.000000000000279954e+01,3.000000002432551494e+00,9.999999999953892882e+00,6.600000000000152411e-01,1.569999999999595941e+00,2.870000000000000000e+03,-2.175000000000440359e+00,-4.944999999997389040e+00,1.357416453901280740e+01,-2.309961823273098069e+00
2.000000000000305889e+01,3.000000002266555388e+00,9.999999999950965446e+00,6.600000000000102451e-01,1.569999999999549090e+00,2.869999999999999091e+03,-2.175000000000471001e+00,-4.944999999997133244e+00,1.355921451460905658e+01,-2.290342602615811352e+00
1.999999999999907985e+01,2.999999999911599158e+00,1.000000000007646506e+01,6.600000000000268985e-01,1.570000000000115747e+00,2.869999999999994088e+03,-2.174999999999892353e+00,-4.945000000000844942e+00,1.326680210514235903e+01,-2.327145044545170904e+00
1.999999999999917222e+01,2.999999999304535425e+00,1.000000000002901857e+01,6.599999999999341949e-01,1.570000000000227658e+00,2.869999999999993179e+03,-2.174999999999674749e+00,-4.945000000001062546e+00,1.352386077476743509e+01,-2.033179277643794691e+00
2.000000000000203926e+01,3.000000005244147339e+00,9.999999999995974775e+00,6.600000000000011413e-01,1.569999999999944329e+00,2.869999999999999545e+03,-2.175000000000117062e+00,-4.944999999999732054e+00,1.358348198373957949e+01,-2.301457104248267882e+00
2.000000000000547473e+01,3.000000004546443666e+00,9.999999999989125143e+00,6.599999999999928146e-01,1.569999999999465157e+00,2.869999999999995453e+03,-2.175000000000588241e+00,-4.944999999996885442e+00,1.355604517078334226e+01,-2.291464003693501450e+00
1.999999999999797140e+01,3.000000000299294811e+00,1.000000000001096545e+01,6.600000000000441069e-01,1.570000000000246976e+00,2.869999999999994998e+03,-2.174999999999819966e+00,-4.945000000001748219e+00,1.322187659614972333e+01,-2.006063885009260250e+00
1.999999999999777600e+01,2.999999998641235344e+00,1.000000000003671019e+01,6.599999999999932587e-01,1.570000000000261187e+00,2.869999999999984993e+03,-2.174999999999668088e+00,-4.945000000001607887e+00,1.328465712800980825e+01,-2.005450876898762669e+00
1.999999999999776534e+01,2.999999998203181306e+00,1.000000000002890665e+01,6.599999999999948130e-01,1.570000000000286722e+00,2.869999999999988177e+03,-2.174999999999645883e+00,-4.945000000001868123e+00,1.328301036687645897e+01,-1.966020652235075827e+00
1.999999999999851141e+01,3.000000001866787613e+00,1.000000000001957368e+01,6.599999999999819345e-01,1.570000000000200790e+00,2.869999999999986812e+03,-2.174999999999721378e+00,-4.945000000001410712e+00,1.320297199884197958e+01,-2.019904173988495977e+00
1.999999999999687006e+01,3.000000000539520872e+00,1.000000000003784528e+01,6.599999999999635047e-01,1.570000000000382201e+00,2.869999999999980446e+03,-2.174999999999493561e+00,-4.945000000002388596e+00,1.325312065395579353e+01,-2.040058038214846103e+00
1.999999999999842260e+01,3.000000001036059682e+00,1.000000000000605915e+01,6.600000000000434408e-01,1.570000000000174589e+00,2.869999999999994543e+03,-2.174999999999850164e+00,-4.945000000001477325e+00,1.324048889012843233e+01,-1.967907642192642692e+00
1.999999999999566214e+01,3.000000002668462784e+00,1.000000000001596412e+01,6.600000000000197931e-01,1.570000000000495888e+00,2.869999999999989086e+03,-2.174999999999467803e+00,-4.945000000003191509e+00,1.323026668647006510e+01,-2.029433734187760852e+00
1.999999999999700506e+01,2.999999998759547815e+00,1.000000000004005329e+01,6.600000000000296740e-01,1.570000000000361107e+00,2.869999999999991360e+03,-2.174999999999637890e+00,-4.945000000002600871e+00,1.328155627596221322e+01,-1.997585327518042853e+00
2.000000000000217071e+01,3.000000001252758786e+00,1.000000000000258993e+01,6.600000000000179057e-01,1.569999999999788676e+00,2.869999999999991360e+03,-2.175000000000275158e+00,-4.944999999998938023e+00,1.329394963284160802e+01,-2.302551145415564271e+00
1.999999999999908695e+01,3.000000001615982459e+00,1.000000000001101519e+01,6.600000000000041389e-01,1.570000000000195017e+00,2.869999999999988631e+03,-2.174999999999818190e+00,-4.945000000001490648e+00,1.321433352824590735e+01,-2.303850942156267401e+00
1.999999999999987566e+01,2.999999999772060999e+00,1.000000000002242118e+01,6.599999999999588418e-01,1.570000000000229656e+00,2.869999999999996817e+03,-2.174999999999769784e+00,-4.945000000000963958e+00,1.339694970151687059e+01,-2.206969395647599086e+00
2.000000000000365219e+01,3.000000002130925658e+00,1.000000000004904166e+01,6.599999999999806022e-01,1.569999999999756035e+00,2.870000000000001819e+03,-2.175000000000290701e+00,-4.944999999998431761e+00,1.338015201173818269e+01,-2.161356747735355910e+00
2.000000000000303757e+01,3.000000000937260047e+00,1.000000000004161116e+01,6.599999999999623945e-01,1.569999999999750262e+00,2.869999999999995907e+03,-2.175000000000248512e+00,-4.944999999998379359e+00,1.338075369899704370e+01,-2.141211188409435362e+00
2.000000000000295231e+01,3.000000000007884804e+00,1.000000000004730438e+01,6.599999999999776046e-01,1.569999999999765361e+00,2.869999999999995453e+03,-2.175000000000261391e+00,-4.944999999998541007e+00,1.336322683073108131e+01,-2.158771804248155846e+00
2.000000000000391154e+01,2.999999999635460046e+00,1.000000000001574918e+01,6.599999999999871525e-01,1.569999999999682316e+00,2.870000000000002274e+03,-2.175000000000372857e+00,-4.944999999998039186e+00,1.344007387627600458e+01,-2.161913395277814232e+00
2.000000000000319389e+01,3.000000000900788333e+00,1.000000000003871747e+01,6.600000000000052491e-01,1.569999999999774687e+00,2.870000000000000000e+03,-2.175000000000319123e+00,-4.944999999998652029e+00,1.338159234969528377e+01,-2.215165072625294052e+00
2.000000000000432365e+01,3.000000000491704455e+00,1.000000000003723422e+01,6.599999999999884848e-01,1.569999999999668994e+00,2.870000000000002274e+03,-2.175000000000412825e+00,-4.944999999997785167e+00,1.339972698288406860e+01,-2.167676832020855926e+00
2.000000000000325429e+01,2.999999998776885946e+00,1.000000000003607781e+01,6.599999999999819345e-01,1.569999999999696083e+00,2.869999999999999091e+03,-2.175000000000331113e+00,-4.944999999998120899e+00,1.342463537479773095e+01,-2.138959779732343858e+00
2.000000000000274980e+01,3.000000001013165996e+00,1.000000000004194334e+01,6.599999999999718314e-01,1.569999999999775131e+00,2.869999999999994998e+03,-2.175000000000241851e+00,-4.944999999998512585e+00,1.343452120248265302e+01,-2.240076752689011741e+00
2.000000000000269651e+01,2.999999999563610853e+00,1.000000000001568523e+01,6.599999999999880407e-01,1.569999999999781792e+00,2.869999999999996362e+03,-2.175000000000259615e+00,-4.944999999998807461e+00,1.345911853121738488e+01,-2.134551796002049251e+00
2.000000000000288125e+01,2.999999999971965980e+00,9.999999999996097344e+00,6.599999999999933697e-01,1.569999999999757589e+00,2.869999999999999091e+03,-2.175000000000295586e+00,-4.944999999998598739e+00,1.346197455767992857e+01,-2.137817702287959420e+00
2.000000000000317613e+01,2.999999999340751788e+00,1.000000000000964917e+01,6.599999999999857092e-01,1.569999999999817986e+00,2.870000000000002274e+03,-2.175000000000252509e+00,-4.944999999998877627e+00,1.342554375301834391e+01,-2.148042986143019917e+00
2.000000000000477129e+01,3.000000002035847046e+00,1.000000000003047695e+01,6.599999999999580647e-01,1.569999999999636131e+00,2.870000000000000455e+03,-2.175000000000389289e+00,-4.944999999997693685e+00,1.345918023750922110e+01,-2.116863647557368111e+00
2.000000000000105871e+01,3.000000002018564871e+00,1.000000000003023004e+01,6.599999999999374145e-01,1.570000000000117746e+00,2.869999999999997272e+03,-2.174999999999843503e+00,-4.945000000000522533e+00,1.343050052253808424e+01,-2.139747224095101874e+00
2.000000000000285993e+01,3.000000000531171551e+00,1.000000000003673506e+01,6.599999999999438538e-01,1.569999999999861728e+00,2.869999999999998181e+03,-2.175000000000106404e+00,-4.944999999999046381e+00,1.340863794407792575e+01,-2.187172064882446421e+00
2.000000000000497025e+01,3.000000001164028429e+00,1.000000000001167422e+01,6.600000000000054712e-01,1.569999999999585949e+00,2.870000000000003638e+03,-2.175000000000508749e+00,-4.944999999997611084e+00,1.341794008201514643e+01,-2.199100541359934269e+00
1.999999999999954525e+01,3.000000001938731842e+00,1.000000000004179590e+01,6.599999999999597300e-01,1.570000000000213891e+00,2.869999999999989996e+03,-2.174999999999756461e+00,-4.945000000001167351e+00,1.337773057148083566e+01,-2.155983228279995334e+00
2.000000000000162359e+01,3.000000002108574204e+00,1.000000000003867129e+01,6.599999999999696110e-01,1.569999999999923457e+00,2.869999999999993179e+03,-2.175000000000076206e+00,-4.944999999999496687e+00,1.341447503343882630e+01,-2.192347461052496449e+00
2.000000000000239098e+01,3.000000000398343580e+00,1.000000000001753442e+01,6.599999999999338618e-01,1.569999999999832418e+00,2.869999999999993179e+03,-2.175000000000094857e+00,-4.944999999998871409e+00,1.342913343899338763e+01,-2.206315231565002755e+00
2.000000000000058620e+01,3.000000000836755110e+00,1.000000000001843325e+01,6.599999999999570655e-01,1.570000000000085549e+00,2.869999999999992724e+03,-2.174999999999882139e+00,-4.945000000000526086e+00,1.337098118353783072e+01,-2.130006028055553724e+00
2.000000000000226663e+01,3.000000000328984839e+00,1.000000000001468514e+01,6.599999999999890399e-01,1.569999999999890372e+00,2.869999999999997272e+03,-2.175000000000153921e+00,-4.944999999999253326e+00,1.345040509963201458e+01,-2.156240563389148601e+00
2.000000000000154898e+01,3.000000002850887082e+00,1.000000000002872369e+01,6.599999999999552891e-01,1.570000000000012275e+00,2.869999999999996362e+03,-2.174999999999972289e+00,-4.944999999999975415e+00,1.338065761808308096e+01,-2.115804830744326903e+00
1.999999999999985079e+01,2.999999998846966331e+00,1.000000000000805045e+01,6.600000000000105782e-01,1.570000000000004059e+00,2.869999999999991815e+03,-2.175000000000003819e+00,-4.945000000000184137e+00,1.338092408827355051e+01,-2.111425229289513705e+00
1.999999999999922906e+01,2.999999999603022882e+00,9.999999999987336352e+00,6.600000000000030287e-01,1.570000000000133733e+00,2.869999999999994998e+03,-2.174999999999840838e+00,-4.945000000000906226e+00,1.342233245945806175e+01,-2.202654738471905294e+00
1.999999999999810996e+01,2.999999997283782971e+00,9.999999999983371524e+00,6.599999999999786038e-01,1.570000000000292273e+00,2.869999999999990450e+03,-2.174999999999646327e+00,-4.945000000001929408e+00,1.342210474372681261e+01,-2.237427018594383199e+00
1.999999999999973710e+01,2.999999999995937472e+00,9.999999999955074159e+00,6.600000000000252331e-01,1.570000000000003615e+00,2.869999999999993179e+03,-2.175000000000026024e+00,-4.945000000000173479e+00,1.347991304971857396e+01,-2.119568200893864773e+00
1.999999999999898748e+01,3.000000000294760660e+00,9.999999999975687004e+00,6.599999999999952571e-01,1.570000000000176810e+00,2.869999999999995453e+03,-2.174999999999808864e+00,-4.945000000001239293e+00,1.341037337625827597e+01,-2.157225475968091999e+00
2.000000000000017408e+01,2.999999998636469378e+00,9.999999999996379785e+00,6.599999999999829337e-01,1.569999999999992513e+00,2.869999999999992724e+03,-2.174999999999960743e+00,-4.945000000000088214e+00,1.342080265318216625e+01,-2.159796679834690369e+00
1.999999999999689493e+01,3.000000005340507148e+00,9.999999999984828136e+00,6.599999999999863753e-01,1.570000000000350227e+00,2.869999999999984084e+03,-2.174999999999557510e+00,-4.945000000002146123e+00,1.340155532272303773e+01,-2.147120930623658275e+00
1.999999999999766587e+01,3.000000002601028726e+00,9.999999999987648991e+00,6.599999999999953681e-01,1.570000000000273621e+00,2.869999999999987267e+03,-2.174999999999654765e+00,-4.945000000001784635e+00,1.337469644714090933e+01,-2.100493540731343423e+00
1.999999999999641531e+01,3.000000003044034358e+00,9.999999999971640463e+00,6.599999999999843769e-01,1.570000000000455476e+00,2.869999999999985903e+03,-2.174999999999478018e+00,-4.945000000002706564e+00,1.341960580673219638e+01,-2.133520034483570083e+00
1.999999999999702283e+01,3.000000004799936892e+00,9.999999999961540098e+00,6.599999999999953681e-01,1.570000000000295159e+00,2.869999999999984539e+03,-2.174999999999638778e+00,-4.945000000001954277e+00,1.340073872202250627e+01,-2.176919343688607178e+00
1.999999999999880984e+01,3.000000002718054670e+00,9.999999999986922461e+00,6.600000000000105782e-01,1.570000000000131068e+00,2.869999999999989996e+03,-2.174999999999850164e+00,-4.945000000001011031e+00,1.338465530809056325e+01,-2.144373034043244530e+00
1.999999999999805667e+01,3.000000003776939650e+00,9.999999999979612753e+00,6.600000000000186828e-01,1.570000000000240092e+00,2.869999999999995907e+03,-2.174999999999757794e+00,-4.945000000001657625e+00,1.342675123989897301e+01,-2.121271729928279726e+00
1.999999999999760902e+01,3.000000002817932998e+00,9.999999999990320632e+00,6.600000000000044720e-01,1.570000000000383977e+00,2.869999999999993179e+03,-2.174999999999623679e+00,-4.945000000002408136e+00,1.333487408474663916e+01,-2.218272123037182020e+00
1.999999999999876721e+01,3.000000002769964258e+00,1.000000000000384404e+01,6.600000000000117995e-01,1.570000000000167262e+00,2.869999999999989541e+03,-2.174999999999843059e+00,-4.945000000001113172e+00,1.338574563138719853e+01,-2.180828011205442785e+00
2.000000000000097700e+01,3.000000001539715022e+00,9.999999999949613638e+00,6.600000000000340039e-01,1.569999999999834639e+00,2.869999999999994998e+03,-2.175000000000206324e+00,-4.944999999999264872e+00,1.342997742338861400e+01,-2.176439935484841826e+00
2.000000000000119016e+01,3.000000001023877871e+00,9.999999999981062260e+00,6.600000000000256772e-01,1.569999999999837081e+00,2.869999999999995907e+03,-2.175000000000196998e+00,-4.944999999999249773e+00,1.336204402538067448e+01,-2.113650189258993617e+00
2.000000000000066791e+01,3.000000000940965528e+00,9.999999999993498534e+00,6.600000000000393330e-01,1.569999999999950102e+00,2.869999999999999091e+03,-2.175000000000113953e+00,-4.944999999999856399e+00,1.333307038974143133e+01,-2.120323686343382530e+00
2.000000000000041211e+01,3.000000000073931972e+00,9.999999999968036235e+00,6.600000000000719735e-01,1.569999999999944551e+00,2.870000000000000000e+03,-2.175000000000168576e+00,-4.944999999999946105e+00,1.348366399069141153e+01,-2.107497849421914093e+00
2.000000000000279954e+01,2.999999999151673258e+00,9.999999999969379161e+00,6.600000000000075806e-01,1.569999999999697859e+00,2.869999999999993179e+03,-2.175000000000365308e+00,-4.944999999998398899e+00,1.341248020895477033e+01,-2.084768491316770334e+00
2.000000000000385825e+01,3.000000000171712422e+00,1.000000000002532019e+01,6.600000000000124656e-01,1.569999999999589058e+00,2.869999999999994088e+03,-2.175000000000463007e+00,-4.944999999997780726e+00,1.361563870021903355e+01,-2.012092254269569835e+00
2.000000000000071054e+01,2.999999999821831409e+00,1.000000000002856382e+01,6.600000000000196820e-01,1.570000000000026485e+00,2.869999999999996362e+03,-2.175000000000034461e+00,-4.945000000000308482e+00,1.357428382066494699e+01,-2.019991238546496870e+00
2.000000000000032685e+01,2.999999999256228289e+00,1.000000000001659650e+01,6.600000000000109113e-01,1.570000000000052909e+00,2.869999999999994998e+03,-2.174999999999979838e+00,-4.945000000000633555e+00,1.356130297835881215e+01,-1.991572408423316842e+00
1.999999999999957012e+01,3.000000000678880063e+00,1.000000000000666311e+01,6.600000000000090239e-01,1.570000000000089546e+00,2.869999999999989086e+03,-2.174999999999925659e+00,-4.945000000000828955e+00,1.356418299169856034e+01,-1.925328427488559591e+00
2.000000000000283151e+01,3.000000000022731594e+00,1.000000000001778311e+01,6.600000000000484368e-01,1.569999999999694307e+00,2.869999999999992269e+03,-2.175000000000407052e+00,-4.944999999998557882e+00,1.353738106214047221e+01,-1.948692335507350881e+00
2.000000000000370548e+01,3.000000001827052287e+00,1.000000000002022027e+01,6.600000000000296740e-01,1.569999999999578399e+00,2.869999999999990450e+03,-2.175000000000505640e+00,-4.944999999997763851e+00,1.356660843857848775e+01,-2.051969621994859327e+00
2.000000000000510170e+01,3.000000001091548629e+00,1.000000000002246914e+01,6.600000000000257883e-01,1.569999999999380780e+00,2.869999999999998181e+03,-2.175000000000721911e+00,-4.944999999996289475e+00,1.353829204475680470e+01,-2.313164522625261732e+00
2.000000000000460076e+01,3.000000000012532642e+00,9.999999999990610178e+00,6.600000000000297851e-01,1.569999999999413420e+00,2.869999999999998636e+03,-2.175000000000676614e+00,-4.944999999996475992e+00,1.354412325866432987e+01,-2.279363334413614162e+00
2.000000000000159517e+01,2.999999997941999563e+00,1.000000000005299583e+01,6.600000000000103562e-01,1.569999999999819762e+00,2.869999999999988177e+03,-2.175000000000219202e+00,-4.944999999999243556e+00,1.340625977740548969e+01,-2.115881668464382859e+00
2.000000000000036238e+01,2.999999997160035736e+00,1.000000000003849721e+01,6.600000000000021405e-01,1.570000000000072449e+00,2.869999999999993634e+03,-2.174999999999974953e+00,-4.945000000000523421e+00,1.338761993837467479e+01,-2.105395079838447536e+00
2.000000000000054001e+01,2.999999998658823941e+00,1.000000000003412204e+01,6.599999999999803801e-01,1.570000000000066676e+00,2.869999999999990905e+03,-2.174999999999945643e+00,-4.945000000000450591e+00,1.342395493467120282e+01,-2.146921359153253661e+00
1.999999999999845102e+01,2.999999999793381278e+00,1.000000000004403233e+01,6.599999999999464073e-01,1.570000000000330243e+00,2.869999999999987722e+03,-2.174999999999599698e+00,-4.945000000002172769e+00,1.340453188674881524e+01,-2.134900326617241717e+00
2.000000000000079581e+01,2.999999996876892450e+00,1.000000000005955592e+01,6.599999999999652811e-01,1.570000000000085771e+00,2.869999999999994543e+03,-2.174999999999915001e+00,-4.945000000000260520e+00,1.340367596548476925e+01,-2.146195964993905747e+00
1.999999999999869971e+01,2.999999998799948386e+00,1.000000000006301981e+01,6.599999999999560663e-01,1.570000000000256524e+00,2.869999999999990905e+03,-2.174999999999688072e+00,-4.945000000001622098e+00,1.336066250039716685e+01,-2.173418223789379322e+00
2.000000000000217781e+01,3.000000000096621822e+00,1.000000000006445333e+01,6.600000000000004752e-01,1.569999999999784235e+00,2.869999999999994998e+03,-2.175000000000256062e+00,-4.944999999998933582e+00,1.338567545371049228e+01,-2.147299641001359394e+00
2.000000000000134293e+01,2.999999998188382033e+00,1.000000000006503420e+01,6.600000000000068034e-01,1.569999999999967200e+00,2.869999999999998636e+03,-2.175000000000105960e+00,-4.944999999999818208e+00,1.337347748686004323e+01,-2.140687669319244701e+00
2.000000000000065370e+01,2.999999999157009878e+00,1.000000000006249756e+01,6.599999999999958122e-01,1.570000000000044249e+00,2.869999999999994543e+03,-2.175000000000001599e+00,-4.945000000000277396e+00,1.331542566323607168e+01,-2.167946591954818203e+00
2.000000000000012434e+01,2.999999999244606474e+00,1.000000000004637535e+01,6.599999999999938138e-01,1.570000000000085993e+00,2.869999999999996362e+03,-2.174999999999945199e+00,-4.945000000000439044e+00,1.342632526242279489e+01,-2.152842917810354084e+00
2.000000000000175859e+01,2.999999997773765248e+00,1.000000000007478995e+01,6.599999999999937028e-01,1.569999999999881934e+00,2.869999999999996817e+03,-2.175000000000151701e+00,-4.944999999999440732e+00,1.340663990089646340e+01,-2.197578317605421994e+00
2.000000000000257572e+01,2.999999997076264968e+00,1.000000000005276668e+01,6.599999999999858202e-01,1.569999999999731832e+00,2.869999999999994088e+03,-2.175000000000287148e+00,-4.944999999998466400e+00,1.336817150124748288e+01,-2.190023545084921697e+00
1.999999999999635492e+01,2.999999997583486788e+00,9.999999999992175148e+00,6.599999999999486278e-01,1.570000000000482121e+00,2.869999999999987722e+03,-2.174999999999399858e+00,-4.945000000002645280e+00,1.344424299313818416e+01,-2.081207612060790524e+00
1.999999999999661071e+01,2.999999997467310386e+00,9.999999999989560351e+00,6.599999999999557332e-01,1.570000000000465912e+00,2.869999999999989541e+03,-2.174999999999449152e+00,-4.945000000002393037e+00,1.347340848033954686e+01,-2.017579924810774639e+00
1.999999999999941735e+01,3.000000000016530777e+00,1.000000000003225686e+01,6.599999999999932587e-01,1.570000000000031593e+00,2.870000000000000455e+03,-2.174999999999931433e+00,-4.945000000000102425e+00,1.337988044048655922e+01,-2.141878526277089190e+00
2.000000000000122213e+01,2.999999999031194076e+00,1.000000000003948131e+01,6.599999999999724976e-01,1.569999999999840634e+00,2.869999999999999545e+03,-2.175000000000106404e+00,-4.944999999998827889e+00,1.338348057557183601e+01,-2.194351432760210940e+00
1.999999999999710454e+01,2.999999998174226246e+00,1.000000000002147793e+01,6.599999999999637268e-01,1.570000000000265850e+00,2.869999999999992269e+03,-2.174999999999605471e+00,-4.945000000001501306e+00,1.340363348752845241e+01,-2.033380950276911125e+00
2.000000000000191491e+01,3.000000001095850077e+00,9.999999999965170971e+00,6.599999999999991429e-01,1.569999999999739160e+00,2.870000000000000455e+03,-2.175000000000267608e+00,-4.944999999998390905e+00,1.345165825677701221e+01,-2.120382284893050251e+00
2.000000000000365574e+01,2.999999999552124041e+00,9.999999999944698459e+00,6.600000000000201261e-01,1.569999999999466267e+00,2.869999999999998636e+03,-2.175000000000581579e+00,-4.944999999996800177e+00,1.353166797612601790e+01,-2.044960537700307501e+00
2.000000000000521183e+01,3.000000000365555142e+00,9.999999999941636020e+00,6.600000000000274536e-01,1.569999999999383444e+00,2.870000000000003183e+03,-2.175000000000713474e+00,-4.944999999996124274e+00,1.351466980278376440e+01,-2.069554617426725862e+00
2.000000000000490274e+01,3.000000001704262509e+00,9.999999999951224794e+00,6.600000000000544320e-01,1.569999999999317053e+00,2.870000000000000455e+03,-2.175000000000792522e+00,-4.944999999996030127e+00,1.324510642825947215e+01,-2.366689712358023723e+00
1.999999999999950973e+01,2.999999997493771442e+00,1.000000000000615508e+01,6.599999999999929257e-01,1.570000000000131513e+00,2.870000000000000455e+03,-2.174999999999861267e+00,-4.945000000000857376e+00,1.343943482419866697e+01,-2.152167368819293713e+00
2.000000000000114397e+01,2.999999998311091431e+00,1.000000000003060308e+01,6.599999999999791589e-01,1.569999999999890150e+00,2.869999999999999091e+03,-2.175000000000111733e+00,-4.944999999999416751e+00,1.340777260864923548e+01,-2.213843564405265862e+00
2.000000000000095923e+01,2.999999997483244307e+00,1.000000000002118661e+01,6.599999999999633937e-01,1.570000000000028262e+00,2.870000000000003183e+03,-2.174999999999933209e+00,-4.945000000000012719e+00,1.350554031909179109e+01,-2.132922527119436307e+00
1.999999999999840128e+01,2.999999995395085772e+00,1.000000000000877165e+01,6.599999999999823785e-01,1.570000000000218998e+00,2.870000000000003638e+03,-2.174999999999749800e+00,-4.945000000001138041e+00,1.357274381904936611e+01,-2.017601704495829651e+00
1.999999999999725020e+01,2.999999995779291329e+00,1.000000000001967493e+01,6.599999999999819345e-01,1.570000000000360885e+00,2.870000000000002274e+03,-2.174999999999588596e+00,-4.945000000002027107e+00,1.354986719967748776e+01,-1.997432862023234446e+00
1.999999999999855049e+01,2.999999995871792446e+00,1.000000000002134826e+01,6.599999999999923705e-01,1.570000000000220775e+00,2.870000000000002728e+03,-2.174999999999775557e+00,-4.945000000001147811e+00,1.356540366488099991e+01,-2.055730050277176701e+00
1.999999999999873523e+01,3.000000001905661406e+00,9.999999999975692333e+00,6.599999999999711653e-01,1.570000000000120632e+00,2.869999999999980446e+03,-2.174999999999824851e+00,-4.945000000000653095e+00,1.343878640878694775e+01,-2.182470026300542099e+00
1.999999999999575095e+01,3.000000001116514436e+00,9.999999999965705655e+00,6.599999999999515143e-01,1.570000000000516094e+00,2.869999999999977717e+03,-2.174999999999383427e+00,-4.945000000002845120e+00,1.341191568707457549e+01,-2.217123565575950028e+00
1.999999999999637623e+01,3.000000001501256452e+00,9.999999999976909137e+00,6.599999999999407452e-01,1.570000000000412843e+00,2.869999999999974534e+03,-2.174999999999454925e+00,-4.945000000002344187e+00,1.339346239114656001e+01,-2.138602243073113307e+00
1.999999999999619504e+01,3.000000001854996601e+00,9.999999999988807176e+00,6.599999999999421885e-01,1.570000000000492113e+00,2.869999999999976808e+03,-2.174999999999402078e+00,-4.945000000002688800e+00,1.339811824124664774e+01,-2.142007096184013193e+00
1.999999999999765876e+01,3.000000002241671293e+00,9.999999999992603250e+00,6.599999999999364153e-01,1.570000000000416174e+00,2.869999999999984084e+03,-2.174999999999509104e+00,-4.945000000002075957e+00,1.343378713897889476e+01,-2.154850440572532833e+00
1.999999999999957723e+01,2.999999999963224084e+00,9.999999999960403230e+00,6.599999999999889289e-01,1.570000000000111973e+00,2.869999999999992724e+03,-2.174999999999894573e+00,-4.945000000000439044e+00,1.339907571221685778e+01,-2.226803167108345693e+00
1.999999999999761258e+01,3.000000000942593115e+00,9.999999999945158535e+00,6.599999999999534017e-01,1.570000000000255413e+00,2.869999999999978627e+03,-2.174999999999649880e+00,-4.945000000001321006e+00,1.340601071810606015e+01,-2.235068043402706817e+00
1.999999999999718625e+01,3.000000002703874014e+00,9.999999999981577403e+00,6.599999999999857092e-01,1.570000000000281837e+00,2.869999999999986812e+03,-2.174999999999679634e+00,-4.945000000001764207e+00,1.342929476903641550e+01,-2.166737585776867814e+00
1.999999999999494094e+01,3.000000001992515486e+00,9.999999999973884002e+00,6.599999999999408562e-01,1.570000000000549845e+00,2.869999999999976353e+03,-2.174999999999318145e+00,-4.945000000003314078e+00,1.345239937441611033e+01,-2.155614832772839051e+00
1.999999999999537081e+01,3.000000002661364906e+00,9.999999999994122035e+00,6.599999999999349720e-01,1.570000000000559615e+00,2.869999999999980901e+03,-2.174999999999319478e+00,-4.945000000003208385e+00,1.340123109305018900e+01,-2.175290575177304842e+00
1.999999999999662847e+01,3.000000002334898941e+00,9.999999999958470553e+00,6.599999999999827116e-01,1.570000000000329354e+00,2.869999999999983174e+03,-2.174999999999613021e+00,-4.945000000002104379e+00,1.344369929063938507e+01,-2.155133993621647814e+00
1.999999999999554490e+01,3.000000001934824745e+00,9.999999999952205343e+00,6.599999999999639488e-01,1.570000000000443485e+00,2.869999999999981355e+03,-2.174999999999451372e+00,-4.945000000002593765e+00,1.330601827966031614e+01,-2.166290558311440240e+00
1.999999999999690559e+01,3.000000001913229131e+00,9.999999999954583885e+00,6.599999999999712763e-01,1.570000000000198570e+00,2.869999999999977263e+03,-2.174999999999688960e+00,-4.945000000001352980e+00,1.338426890622142729e+01,-2.155827364505597199e+00
1.999999999999439027e+01,3.000000003805621596e+00,9.999999999960019537e+00,6.599999999999494049e-01,1.570000000000619123e+00,2.869999999999980901e+03,-2.174999999999239098e+00,-4.945000000003614282e+00,1.335914236410636668e+01,-2.188628415976766828e+00
1.999999999999661426e+01,3.000000000944986311e+00,9.999999999995653255e+00,6.599999999999661693e-01,1.570000000000392193e+00,2.869999999999987722e+03,-2.174999999999533973e+00,-4.945000000002464091e+00,1.336748182735358093e+01,-2.134219123327885104e+00
1.999999999999656808e+01,3.000000001767137991e+00,9.999999999968146369e+00,6.599999999999661693e-01,1.570000000000338014e+00,2.869999999999982720e+03,-2.174999999999576161e+00,-4.945000000002133689e+00,1.335990524459809059e+01,-2.137369710454153360e+00
1.999999999999546674e+01,3.000000001447860054e+00,9.999999999971564080e+00,6.599999999999396350e-01,1.570000000000501883e+00,2.869999999999980446e+03,-2.174999999999359002e+00,-4.945000000003032525e+00,1.337146019270848285e+01,-2.139765031608580337e+00
2.000000000000375877e+01,3.000000001022585128e+00,9.999999999930166084e+00,6.600000000000457723e-01,1.569999999999505791e+00,2.869999999999998636e+03,-2.175000000000588685e+00,-4.944999999997333084e+00,1.340345571641148759e+01,-2.160023143494414821e+00
2.000000000000223466e+01,3.000000001722027854e+00,9.999999999937537964e+00,6.600000000000652012e-01,1.569999999999634133e+00,2.869999999999993634e+03,-2.175000000000471001e+00,-4.944999999998325180e+00,1.339152334177302173e+01,-2.140659843069268486e+00
2.000000000000324363e+01,3.000000000346890516e+00,9.999999999960834884e+00,6.600000000000446621e-01,1.569999999999525775e+00,2.869999999999994088e+03,-2.175000000000541167e+00,-4.944999999997720330e+00,1.338747726368968571e+01,-2.156950547252080241e+00
1.999999999999741362e+01,3.000000003547439231e+00,1.000000000002300560e+01,6.600000000000303402e-01,1.570000000000131068e+00,2.869999999999988631e+03,-2.174999999999860378e+00,-4.945000000001039453e+00,1.345797481589594113e+01,-2.133211745348233546e+00
2.000000000000169820e+01,3.000000000909825992e+00,1.000000000002158096e+01,6.600000000000334488e-01,1.569999999999592832e+00,2.869999999999995453e+03,-2.175000000000405720e+00,-4.944999999997802043e+00,1.339287845182817804e+01,-2.082665534112726480e+00
2.000000000000209965e+01,3.000000001065000976e+00,1.000000000003087486e+01,6.600000000000338929e-01,1.569999999999666107e+00,2.870000000000004093e+03,-2.175000000000382627e+00,-4.944999999998033857e+00,1.339674928925902186e+01,-2.215423039754488510e+00
1.999999999999799627e+01,3.000000003137511140e+00,9.999999999975649700e+00,6.600000000000217915e-01,1.570000000000022267e+00,2.869999999999995453e+03,-2.174999999999925215e+00,-4.945000000000152163e+00,1.345238219226744114e+01,-2.115823865865583908e+00
2.000000000000135714e+01,3.000000001068817035e+00,9.999999999995640820e+00,6.600000000000495470e-01,1.569999999999718288e+00,2.870000000000004093e+03,-2.175000000000332445e+00,-4.944999999998227480e+00,1.341175137930464523e+01,-2.144466807863883773e+00
1.999999999999489475e+01,2.999999997404947827e+00,1.000000000002390266e+01,6.599999999999667244e-01,1.570000000000578044e+00,2.869999999999977263e+03,-2.174999999999302158e+00,-4.945000000003828333e+00,1.341457889454704144e+01,-2.181466400550711171e+00
1.999999999999448974e+01,2.999999998724427908e+00,1.000000000002838618e+01,6.599999999999925926e-01,1.570000000000583373e+00,2.869999999999975444e+03,-2.174999999999341682e+00,-4.945000000003743956e+00,1.337171219928515420e+01,-2.169664282563639635e+00
1.999999999999281641e+01,2.999999998930641620e+00,1.000000000005403145e+01,6.599999999999635047e-01,1.570000000000932205e+00,2.869999999999981810e+03,-2.174999999998972644e+00,-4.945000000005253860e+00,1.344486907828393996e+01,-2.219760361710715113e+00
1.999999999999587530e+01,2.999999999652364746e+00,1.000000000003481659e+01,6.599999999999878186e-01,1.570000000000442597e+00,2.869999999999977717e+03,-2.174999999999498002e+00,-4.945000000002562679e+00,1.344724190396741115e+01,-2.173372795673711888e+00
1.999999999999667821e+01,2.999999997951400488e+00,1.000000000006705569e+01,6.599999999999678346e-01,1.570000000000385976e+00,2.869999999999980446e+03,-2.174999999999533085e+00,-4.945000000002277574e+00,1.341714823113910349e+01,-2.210415083992664176e+00
1.999999999999690203e+01,2.999999999776434390e+00,1.000000000003884892e+01,6.599999999999965894e-01,1.570000000000354223e+00,2.869999999999982720e+03,-2.174999999999616573e+00,-4.945000000002428564e+00,1.335948051859142360e+01,-2.156039533701884281e+00
1.999999999999557687e+01,3.000000000115834453e+00,1.000000000003555733e+01,6.599999999999792699e-01,1.570000000000540963e+00,2.869999999999981355e+03,-2.174999999999397193e+00,-4.945000000003266116e+00,1.331250424352228379e+01,-2.175878710923788706e+00
1.999999999999582201e+01,2.999999999144969287e+00,1.000000000004952128e+01,6.600000000000030287e-01,1.570000000000373319e+00,2.869999999999977263e+03,-2.174999999999567279e+00,-4.945000000002388596e+00,1.343989394571158691e+01,-2.200862121938929494e+00
1.999999999999532463e+01,2.999999998966877079e+00,1.000000000003812239e+01,6.599999999999850431e-01,1.570000000000516982e+00,2.869999999999984539e+03,-2.174999999999403855e+00,-4.945000000003251905e+00,1.338427539194854177e+01,-2.169943590824396473e+00
2.000000000000240519e+01,2.999999999114351112e+00,9.999999999982975396e+00,6.600000000000274536e-01,1.569999999999769802e+00,2.870000000000001364e+03,-2.175000000000319123e+00,-4.944999999998574758e+00,1.335913770204872186e+01,-2.186770517774934586e+00
1.999999999999833378e+01,2.999999997403765661e+00,1.000000000001837108e+01,6.600000000000416644e-01,1.570000000000171481e+00,2.869999999999984993e+03,-2.174999999999895461e+00,-4.945000000001323670e+00,1.337713143284505080e+01,-2.189477380033332476e+00
2.000000000000198597e+01,2.999999995782685058e+00,1.000000000001790923e+01,6.600000000000523226e-01,1.569999999999726503e+00,2.870000000000005912e+03,-2.175000000000367972e+00,-4.944999999998619167e+00,1.353792825674774747e+01,-2.092861698491657929e+00
1.999999999999777600e+01,2.999999998610165530e+00,1.000000000000608047e+01,6.600000000000389999e-01,1.570000000000105089e+00,2.869999999999998636e+03,-2.174999999999872813e+00,-4.945000000001150475e+00,1.355055477392919450e+01,-2.039446450187218929e+00
2.000000000000128253e+01,2.999999996647170875e+00,9.999999999989132249e+00,6.600000000000750822e-01,1.569999999999683871e+00,2.870000000000004093e+03,-2.175000000000407940e+00,-4.944999999998441531e+00,1.334914506714206972e+01,-2.114059947219343094e+00
1.999999999999372235e+01,2.999999998887210140e+00,1.000000000005279510e+01,6.600000000000288969e-01,1.570000000000553841e+00,2.869999999999976808e+03,-2.174999999999372324e+00,-4.945000000003695995e+00,1.334146556453448262e+01,-2.150623467875666606e+00
1.999999999999701572e+01,2.999999998163477510e+00,1.000000000006168577e+01,6.599999999999982547e-01,1.570000000000213447e+00,2.869999999999986812e+03,-2.174999999999699174e+00,-4.945000000001487095e+00,1.337973842754728260e+01,-2.151229422907174893e+00
1.999999999999459988e+01,3.000000000700213665e+00,1.000000000004677503e+01,6.599999999999884848e-01,1.570000000000495000e+00,2.869999999999983174e+03,-2.174999999999371436e+00,-4.945000000003224372e+00,1.343035330338848432e+01,-2.169428750474984291e+00
1.999999999999591438e+01,3.000000000954674118e+00,1.000000000004690826e+01,6.599999999999940359e-01,1.570000000000357110e+00,2.869999999999987722e+03,-2.174999999999543299e+00,-4.945000000002302443e+00,1.345903574856913032e+01,-2.118740073322241901e+00
1.999999999999516831e+01,2.999999998985058980e+00,1.000000000004973622e+01,6.599999999999989209e-01,1.570000000000386420e+00,2.869999999999982265e+03,-2.174999999999492672e+00,-4.945000000002778506e+00,1.342828908855883796e+01,-2.172856282902911218e+00
1.999999999999367262e+01,2.999999999219121971e+00,1.000000000003856648e+01,6.599999999999980327e-01,1.570000000000617346e+00,2.869999999999979991e+03,-2.174999999999284395e+00,-4.945000000003799911e+00,1.343096146753701881e+01,-2.165468324937847466e+00
