1.999999999999813483e+01,2.999999998736860629e+00,1.000000000001744205e+01,6.599999999999741629e-01,1.570000000000318696e+00,2.869999999999979536e+03,-2.174999999999686739e+00,-4.945000000001819274e+00,1.341998853355799781e+01,-2.132658151648115563e+00
1.999999999999689138e+01,2.999999999358124114e+00,9.999999999998172129e+00,6.599999999999532907e-01,1.570000000000314033e+00,2.869999999999989996e+03,-2.174999999999768896e+00,-4.945000000001541274e+00,1.340909656351205648e+01,-2.147055915277023441e+00
1.999999999999624123e+01,2.999999998674520274e+00,1.000000000000599876e+01,6.600000000000052491e-01,1.570000000000378204e+00,2.869999999999986358e+03,-2.174999999999656097e+00,-4.945000000002194085e+00,1.342004821378054302e+01,-2.130927562358879257e+00
1.999999999999809575e+01,2.999999998833737802e+00,1.000000000000660449e+01,6.599999999999633937e-01,1.570000000000353557e+00,2.869999999999978627e+03,-2.174999999999599254e+00,-4.945000000001772200e+00,1.343175915365212525e+01,-2.142998101005609168e+00
1.999999999999968381e+01,2.999999998987887384e+00,1.000000000000263611e+01,6.599999999999722755e-01,1.570000000000109974e+00,2.869999999999976353e+03,-2.174999999999831513e+00,-4.945000000000445262e+00,1.342388034588930523e+01,-2.151339086753355279e+00
2.000000000000222045e+01,2.999999999388280880e+00,1.000000000000383160e+01,6.599999999999096589e-01,1.569999999999960538e+00,2.869999999999963620e+03,-2.175000000000048228e+00,-4.944999999999223128e+00,1.340785922865411450e+01,-2.178313568392641564e+00
2.000000000000079936e+01,2.999999999497954484e+00,1.000000000001584333e+01,6.599999999999306421e-01,1.570000000000107754e+00,2.869999999999994543e+03,-2.174999999999928324e+00,-4.945000000000669971e+00,1.342020944301643937e+01,-2.145254318151368356e+00
2.000000000000088107e+01,2.999999996978733208e+00,1.000000000002521716e+01,6.600000000000310063e-01,1.569999999999869056e+00,2.870000000000027740e+03,-2.175000000000127276e+00,-4.944999999999815543e+00,1.337434204269385241e+01,-2.186077789228058954e+00
2.000000000000044764e+01,2.999999998234300413e+00,1.000000000000611955e+01,6.600000000000288969e-01,1.569999999999887930e+00,2.870000000000020464e+03,-2.175000000000084199e+00,-4.944999999999899032e+00,1.340815742628999097e+01,-2.174018966353936655e+00
1.999999999999585754e+01,2.999999999693382602e+00,1.000000000000754419e+01,6.599999999999747180e-01,1.570000000000567608e+00,2.869999999999988177e+03,-2.174999999999486899e+00,-4.945000000003685336e+00,1.340236994657519709e+01,-2.148050986085617176e+00
1.999999999999486988e+01,2.999999999336707468e+00,9.999999999971139530e+00,6.600000000000366684e-01,1.570000000000479456e+00,2.869999999999967258e+03,-2.174999999999487343e+00,-4.945000000003060947e+00,1.343782499381633500e+01,-2.164547103853995402e+00
1.999999999999532463e+01,2.999999998419451419e+00,9.999999999979131360e+00,6.600000000000126876e-01,1.570000000000459472e+00,2.869999999999973170e+03,-2.174999999999483791e+00,-4.945000000003006768e+00,1.345779402021500637e+01,-2.169871859205326547e+00
1.999999999999792166e+01,2.999999998597886020e+00,1.000000000000266276e+01,6.599999999999920375e-01,1.570000000000307150e+00,2.869999999999976353e+03,-2.174999999999680966e+00,-4.945000000001591012e+00,1.336330454118419908e+01,-2.159824301411550351e+00
1.999999999999790745e+01,2.999999997310454081e+00,9.999999999993411492e+00,6.599999999999934808e-01,1.570000000000238982e+00,2.869999999999974989e+03,-2.174999999999757794e+00,-4.945000000001241069e+00,1.335567661922821259e+01,-2.173872756016422603e+00
1.999999999999485922e+01,3.000000000879375683e+00,9.999999999986398436e+00,6.599999999999915934e-01,1.570000000000591589e+00,2.869999999999971806e+03,-2.174999999999448264e+00,-4.945000000003482832e+00,1.341846409503372151e+01,-2.113503648681793745e+00
1.999999999999759481e+01,3.000000000097170716e+00,9.999999999980724752e+00,6.600000000000052491e-01,1.570000000000296270e+00,2.870000000000009550e+03,-2.174999999999768452e+00,-4.945000000001916973e+00,1.340646007883099777e+01,-2.139387644321197879e+00
1.999999999999780442e+01,3.000000001411148087e+00,1.000000000000458478e+01,6.599999999999476286e-01,1.570000000000247198e+00,2.869999999999972715e+03,-2.174999999999835509e+00,-4.945000000001593676e+00,1.338026046608777797e+01,-2.143134132961181493e+00
1.999999999999936051e+01,2.999999998615028307e+00,9.999999999981126209e+00,6.599999999999843769e-01,1.570000000000205898e+00,2.869999999999972260e+03,-2.174999999999833733e+00,-4.945000000000943530e+00,1.338817872742677828e+01,-2.175932427919988754e+00
2.000000000000108002e+01,2.999999997388933082e+00,1.000000000001641176e+01,6.599999999999842659e-01,1.570000000000141283e+00,2.870000000000000000e+03,-2.174999999999863931e+00,-4.945000000000691287e+00,1.337317308656178128e+01,-2.162082023088038873e+00
1.999999999999763745e+01,2.999999997120551321e+00,9.999999999987077004e+00,6.600000000000036948e-01,1.570000000000182805e+00,2.869999999999983629e+03,-2.174999999999797762e+00,-4.945000000001232188e+00,1.342160271294135221e+01,-2.172965791375812472e+00
2.000000000000242295e+01,2.999999996117076240e+00,1.000000000001663558e+01,6.599999999999872635e-01,1.569999999999969198e+00,2.869999999999988631e+03,-2.175000000000061107e+00,-4.944999999999626361e+00,1.341816650894327267e+01,-2.134762201543400462e+00
2.000000000000058620e+01,2.999999998547968616e+00,1.000000000001364597e+01,6.600000000000459943e-01,1.569999999999863727e+00,2.869999999999999091e+03,-2.175000000000177458e+00,-4.944999999999465601e+00,1.337780723232077662e+01,-2.140496616289310428e+00
1.999999999999997868e+01,2.999999998468302564e+00,1.000000000002468603e+01,6.600000000000079137e-01,1.570000000000118412e+00,2.869999999999986358e+03,-2.174999999999884803e+00,-4.945000000000495000e+00,1.341925621288992510e+01,-2.124451901392656161e+00
1.999999999999761968e+01,2.999999997729101420e+00,9.999999999990604849e+00,6.599999999999737188e-01,1.570000000000226992e+00,2.869999999999986358e+03,-2.174999999999756461e+00,-4.945000000001680718e+00,1.340805952943685142e+01,-2.141321231551386095e+00
2.000000000000031619e+01,2.999999997893845638e+00,1.000000000000133404e+01,6.599999999999742739e-01,1.570000000000301599e+00,2.870000000000004093e+03,-2.174999999999729816e+00,-4.945000000001563478e+00,1.337216400734673272e+01,-2.146625661982933142e+00
1.999999999999958433e+01,2.999999998466863271e+00,9.999999999964707342e+00,6.599999999999858202e-01,1.570000000000314255e+00,2.869999999999986812e+03,-2.174999999999707612e+00,-4.945000000001606999e+00,1.335948987137182087e+01,-2.180392663971364442e+00
1.999999999999912248e+01,2.999999999424813435e+00,9.999999999984247268e+00,6.599999999999990319e-01,1.570000000000380647e+00,2.869999999999980446e+03,-2.174999999999679634e+00,-4.945000000001911644e+00,1.336042229276232618e+01,-2.138924663195064468e+00
2.000000000000130029e+01,2.999999997059044077e+00,9.999999999991445065e+00,6.599999999999809353e-01,1.570000000000106199e+00,2.869999999999989996e+03,-2.174999999999977174e+00,-4.945000000000344009e+00,1.335075604401670368e+01,-2.138359906313460623e+00
1.999999999999705480e+01,2.999999998966111026e+00,1.000000000000415312e+01,6.600000000000252331e-01,1.570000000000324469e+00,2.869999999999992724e+03,-2.174999999999726708e+00,-4.945000000001669171e+00,1.342173636969789641e+01,-2.118739906944616003e+00
1.999999999999522871e+01,3.000000000980334480e+00,9.999999999995049293e+00,6.599999999999964784e-01,1.570000000000562057e+00,2.869999999999978627e+03,-2.174999999999452704e+00,-4.945000000003155094e+00,1.341563336508567161e+01,-2.118450066582188374e+00
2.000000000000303046e+01,2.999999996370943833e+00,1.000000000002810197e+01,6.599999999999910383e-01,1.569999999999936113e+00,2.870000000000006821e+03,-2.175000000000125944e+00,-4.944999999999462936e+00,1.340606243915483020e+01,-2.123030073208469481e+00
1.999999999999768008e+01,3.000000000419461799e+00,9.999999999995441868e+00,6.600000000000081357e-01,1.570000000000268070e+00,2.869999999999978172e+03,-2.174999999999803535e+00,-4.945000000001417817e+00,1.340096595333253759e+01,-2.141759905337248693e+00
2.000000000000075318e+01,2.999999997265286655e+00,1.000000000001346834e+01,6.600000000000484368e-01,1.569999999999972307e+00,2.870000000000004093e+03,-2.175000000000113065e+00,-4.944999999999785345e+00,1.338527979942960222e+01,-2.104420913795296499e+00
1.999999999999906564e+01,2.999999997196269863e+00,9.999999999991221244e+00,6.600000000000099121e-01,1.570000000000058016e+00,2.869999999999976353e+03,-2.174999999999995826e+00,-4.945000000000376872e+00,1.337903012939712610e+01,-2.145522140086473684e+00
2.000000000000008527e+01,2.999999998692631564e+00,9.999999999990484056e+00,6.600000000000270095e-01,1.570000000000063345e+00,2.869999999999974534e+03,-2.174999999999899014e+00,-4.945000000000434603e+00,1.338828983775835013e+01,-2.145870477268935428e+00
1.999999999999963762e+01,3.000000000410901091e+00,9.999999999998497202e+00,6.600000000000210143e-01,1.569999999999974305e+00,2.869999999999995907e+03,-2.175000000000077094e+00,-4.944999999999883045e+00,1.341304621397181407e+01,-2.156262082607590003e+00
1.999999999999792877e+01,2.999999999503486947e+00,9.999999999958784969e+00,6.600000000000030287e-01,1.570000000000395746e+00,2.869999999999984993e+03,-2.174999999999584599e+00,-4.945000000001949836e+00,1.340981456953548268e+01,-2.184045927309359758e+00
1.999999999999938183e+01,3.000000000798157096e+00,1.000000000003640466e+01,6.599999999999373035e-01,1.570000000000213003e+00,2.869999999999997726e+03,-2.174999999999711608e+00,-4.945000000000939977e+00,1.343620217505650771e+01,-2.168624183777052128e+00
2.000000000000015277e+01,3.000000002280674316e+00,1.000000000004292389e+01,6.599999999999391909e-01,1.570000000000167262e+00,2.869999999999998181e+03,-2.174999999999730704e+00,-4.945000000000683293e+00,1.343167636064514170e+01,-2.167235731749437733e+00
1.999999999999854339e+01,2.999999998842757254e+00,1.000000000002085621e+01,6.599999999999162092e-01,1.570000000000196128e+00,2.869999999999985903e+03,-2.174999999999746247e+00,-4.945000000001013696e+00,1.346343485145229124e+01,-2.144317060331681901e+00
1.999999999999899813e+01,2.999999998230478138e+00,1.000000000000685141e+01,6.599999999999041078e-01,1.570000000000246310e+00,2.869999999999997726e+03,-2.174999999999724043e+00,-4.945000000001380513e+00,1.344410434155193990e+01,-2.150831600176891012e+00
1.999999999999874234e+01,2.999999998455042949e+00,9.999999999994296118e+00,6.599999999999180966e-01,1.570000000000341789e+00,2.869999999999994998e+03,-2.174999999999645439e+00,-4.945000000001778417e+00,1.340592654995286992e+01,-2.174387815269922530e+00
1.999999999999807443e+01,2.999999999399967532e+00,9.999999999992050803e+00,6.599999999999328626e-01,1.570000000000376206e+00,2.869999999999992724e+03,-2.174999999999605027e+00,-4.945000000002101714e+00,1.342136941678466933e+01,-2.178147299207407794e+00
1.999999999999572609e+01,2.999999998953210678e+00,1.000000000000386358e+01,6.599999999999601741e-01,1.570000000000618012e+00,2.869999999999968622e+03,-2.174999999999315037e+00,-4.945000000003755503e+00,1.342523053862946725e+01,-2.131112017934649661e+00
1.999999999999916866e+01,2.999999997110705863e+00,1.000000000000302158e+01,6.599999999999232037e-01,1.570000000000312479e+00,2.870000000000003638e+03,-2.174999999999711608e+00,-4.945000000001912532e+00,1.341691970284889557e+01,-2.142815535220636392e+00
1.999999999999820943e+01,3.000000000453499904e+00,9.999999999961110220e+00,6.599999999999845990e-01,1.570000000000183471e+00,2.869999999999983629e+03,-2.174999999999792433e+00,-4.945000000001380513e+00,1.340137725357640619e+01,-2.212827391664031751e+00
1.999999999999877431e+01,3.000000000052594373e+00,9.999999999968540720e+00,6.600000000000153522e-01,1.570000000000122631e+00,2.869999999999980901e+03,-2.174999999999874589e+00,-4.945000000000766782e+00,1.338299785632491989e+01,-2.198984894619366859e+00
1.999999999999574740e+01,3.000000006125164820e+00,1.000000000000366995e+01,6.599999999999999201e-01,1.570000000000404183e+00,2.869999999999947704e+03,-2.174999999999493117e+00,-4.945000000002140794e+00,1.343086409590428332e+01,-2.138332358251948229e+00
1.999999999999652545e+01,3.000000002496537199e+00,1.000000000001966427e+01,6.600000000000699751e-01,1.570000000000211227e+00,2.869999999999998636e+03,-2.174999999999835509e+00,-4.945000000001482654e+00,1.342011858578828054e+01,-2.118512191483924667e+00
1.999999999999832312e+01,3.000000002689537482e+00,1.000000000001310774e+01,6.600000000000070255e-01,1.570000000000129292e+00,2.869999999999997272e+03,-2.174999999999929212e+00,-4.945000000000830731e+00,1.340797174212649345e+01,-2.140536913252682361e+00
2.000000000000121858e+01,3.000000001361020630e+00,1.000000000000292921e+01,6.600000000000461053e-01,1.569999999999896367e+00,2.869999999999996362e+03,-2.175000000000121059e+00,-4.944999999999740048e+00,1.335826475789457568e+01,-2.149900635951377037e+00
1.999999999999901590e+01,3.000000003180900432e+00,1.000000000000540901e+01,6.599999999999968114e-01,1.570000000000078666e+00,2.869999999999986812e+03,-2.174999999999919886e+00,-4.945000000000681517e+00,1.339179869670751799e+01,-2.168689783399017301e+00
1.999999999999878497e+01,3.000000000628199714e+00,1.000000000003676170e+01,6.599999999999701661e-01,1.570000000000159268e+00,2.870000000000000909e+03,-2.174999999999867040e+00,-4.945000000000923990e+00,1.339509302631514487e+01,-2.150696800099831663e+00
1.999999999999981881e+01,3.000000003240699709e+00,1.000000000003297984e+01,6.600000000000093570e-01,1.570000000000052021e+00,2.870000000000003183e+03,-2.174999999999984723e+00,-4.945000000000257856e+00,1.339701825037012206e+01,-2.129970548672222019e+00
1.999999999999992539e+01,3.000000000076386009e+00,1.000000000004138911e+01,6.600000000000020295e-01,1.569999999999945217e+00,2.869999999999997726e+03,-2.175000000000104183e+00,-4.944999999999637019e+00,1.339465058296553224e+01,-2.139636724212557350e+00
2.000000000000020961e+01,3.000000000125714550e+00,1.000000000003180567e+01,6.599999999999873745e-01,1.570000000000058016e+00,2.869999999999993634e+03,-2.175000000000012701e+00,-4.945000000000185914e+00,1.341957361598827347e+01,-2.113611633287325819e+00
1.999999999999884537e+01,2.999999999417503727e+00,9.999999999997951861e+00,6.599999999999702771e-01,1.570000000000111529e+00,2.869999999999979991e+03,-2.174999999999958078e+00,-4.945000000000457696e+00,1.341550187901439450e+01,-2.137624711166052904e+00
1.999999999999779376e+01,3.000000000873325412e+00,9.999999999970235365e+00,6.600000000000002531e-01,1.570000000000193019e+00,2.869999999999994543e+03,-2.174999999999772449e+00,-4.945000000001452456e+00,1.341190403370877604e+01,-2.183972665918885170e+00
1.999999999999821654e+01,3.000000000387275989e+00,9.999999999962639663e+00,6.600000000000008082e-01,1.570000000000188356e+00,2.869999999999991360e+03,-2.174999999999743583e+00,-4.945000000001390283e+00,1.341522862134617533e+01,-2.183530809321740040e+00
1.999999999999716849e+01,3.000000000889019525e+00,1.000000000001365486e+01,6.599999999999917044e-01,1.570000000000276064e+00,2.869999999999990450e+03,-2.174999999999697398e+00,-4.945000000001430251e+00,1.343160245191623936e+01,-2.122436461428407473e+00
1.999999999999496225e+01,3.000000002274521904e+00,1.000000000001920419e+01,6.600000000000012523e-01,1.570000000000413731e+00,2.869999999999990450e+03,-2.174999999999545075e+00,-4.945000000002753637e+00,1.341159321223754652e+01,-2.111499170566689898e+00
2.000000000000017053e+01,3.000000001814194128e+00,1.000000000005407230e+01,6.599999999999703881e-01,1.570000000000167928e+00,2.870000000000004093e+03,-2.174999999999756461e+00,-4.945000000000819185e+00,1.342088502592298660e+01,-2.148104588282844229e+00
1.999999999999842615e+01,3.000000000799894373e+00,1.000000000001678302e+01,6.600000000000219025e-01,1.570000000000218110e+00,2.869999999999995907e+03,-2.174999999999760458e+00,-4.945000000001360085e+00,1.341245228068463469e+01,-2.118133789070807627e+00
1.999999999999782219e+01,2.999999997738520996e+00,1.000000000002073719e+01,6.600000000000271205e-01,1.570000000000210560e+00,2.869999999999996362e+03,-2.174999999999791545e+00,-4.945000000001294360e+00,1.341329319419389066e+01,-2.131952652193370934e+00
2.000000000000005329e+01,2.999999997773672433e+00,9.999999999985952570e+00,6.599999999999426326e-01,1.570000000000061791e+00,2.869999999999979082e+03,-2.174999999999932765e+00,-4.945000000000496776e+00,1.343973646996606242e+01,-2.168485893981566548e+00
2.000000000000064304e+01,2.999999997197619006e+00,9.999999999990292210e+00,6.599999999999474065e-01,1.570000000000071116e+00,2.869999999999978627e+03,-2.174999999999924327e+00,-4.945000000000409734e+00,1.342534701052868051e+01,-2.169047366201347415e+00
2.000000000000193268e+01,2.999999995554571974e+00,1.000000000005399592e+01,6.599999999999125455e-01,1.569999999999935225e+00,2.870000000000016826e+03,-2.175000000000049116e+00,-4.944999999999638796e+00,1.342412394382060192e+01,-2.131201051113714051e+00
1.999999999999659650e+01,2.999999999432545916e+00,1.000000000001194245e+01,6.599999999999868194e-01,1.570000000000276508e+00,2.869999999999991360e+03,-2.174999999999818634e+00,-4.945000000001652296e+00,1.340454612666353817e+01,-2.144849558425538927e+00
1.999999999999895550e+01,2.999999998977649796e+00,1.000000000001949729e+01,6.599999999999696110e-01,1.570000000000130402e+00,2.870000000000000000e+03,-2.174999999999912337e+00,-4.945000000000878693e+00,1.338167196202919484e+01,-2.157137589646300757e+00
2.000000000000001066e+01,2.999999999640497350e+00,1.000000000001067946e+01,6.600000000000028066e-01,1.569999999999959206e+00,2.870000000000005002e+03,-2.175000000000077982e+00,-4.944999999999864393e+00,1.342469335692627297e+01,-2.125241096832747978e+00
1.999999999999831246e+01,3.000000000372371467e+00,1.000000000000684786e+01,6.599999999999716094e-01,1.570000000000290497e+00,2.870000000000000000e+03,-2.174999999999696954e+00,-4.945000000001496865e+00,1.340636602033397118e+01,-2.119226913472702201e+00
1.999999999999952394e+01,2.999999999684928031e+00,9.999999999991816324e+00,6.599999999999817124e-01,1.570000000000153717e+00,2.869999999999996362e+03,-2.174999999999813749e+00,-4.945000000000724150e+00,1.342514689334101341e+01,-2.118271006782632249e+00
1.999999999999861799e+01,2.999999998826640812e+00,1.000000000003374900e+01,6.599999999999631717e-01,1.570000000000195461e+00,2.870000000000006366e+03,-2.174999999999808864e+00,-4.945000000001132712e+00,1.338194935057149415e+01,-2.122240305699681695e+00
1.999999999999909406e+01,2.999999998814031787e+00,1.000000000002954259e+01,6.599999999999478506e-01,1.570000000000265850e+00,2.870000000000002274e+03,-2.174999999999770228e+00,-4.945000000001216200e+00,1.341968514938123036e+01,-2.132804924147743808e+00
1.999999999999996092e+01,2.999999997762719417e+00,1.000000000001747225e+01,6.599999999999084377e-01,1.570000000000169704e+00,2.869999999999999091e+03,-2.174999999999808864e+00,-4.945000000001048335e+00,1.341581301419683747e+01,-2.140198181393535570e+00
2.000000000000012790e+01,2.999999997853321165e+00,1.000000000002622258e+01,6.599999999999519584e-01,1.570000000000296048e+00,2.870000000000001819e+03,-2.174999999999723155e+00,-4.945000000001635421e+00,1.338427707665106503e+01,-2.154465564657003007e+00
2.000000000000143174e+01,2.999999998042883753e+00,1.000000000001485922e+01,6.599999999999602851e-01,1.570000000000205231e+00,2.870000000000002728e+03,-2.174999999999788436e+00,-4.945000000001265050e+00,1.337528286032248559e+01,-2.175884096714119753e+00
1.999999999999754863e+01,3.000000000349363649e+00,1.000000000000069456e+01,6.599999999999784928e-01,1.570000000000246310e+00,2.869999999999967258e+03,-2.174999999999716049e+00,-4.945000000001198437e+00,1.342946506922236694e+01,-2.157013051361492462e+00
1.999999999999791100e+01,2.999999997919568173e+00,1.000000000000383871e+01,6.600000000000244560e-01,1.570000000000152385e+00,2.869999999999996817e+03,-2.174999999999860378e+00,-4.945000000000916884e+00,1.344269243581520357e+01,-2.130040325844443583e+00
1.999999999999684164e+01,3.000000000428559854e+00,9.999999999963335995e+00,6.600000000000272316e-01,1.570000000000345786e+00,2.869999999999987267e+03,-2.174999999999729816e+00,-4.945000000001855689e+00,1.340835148146125633e+01,-2.124020509522625222e+00
1.999999999999721112e+01,2.999999998759848019e+00,9.999999999944444440e+00,6.600000000000129097e-01,1.570000000000243201e+00,2.869999999999969077e+03,-2.174999999999832845e+00,-4.945000000001389395e+00,1.343913207488854233e+01,-2.142037696156001036e+00
1.999999999999582556e+01,2.999999998907676435e+00,9.999999999968201436e+00,6.599999999999573985e-01,1.570000000000536522e+00,2.869999999999969987e+03,-2.174999999999499778e+00,-4.945000000002946372e+00,1.340808782868936611e+01,-2.171440194364000487e+00
1.999999999999918998e+01,2.999999997972601751e+00,9.999999999991795008e+00,6.600000000000426637e-01,1.570000000000139506e+00,2.870000000000002274e+03,-2.174999999999868816e+00,-4.945000000000792539e+00,1.341200417750153839e+01,-2.120380504758883067e+00
1.999999999999872102e+01,2.999999997252917439e+00,1.000000000000741807e+01,6.600000000000310063e-01,1.570000000000186358e+00,2.870000000000006821e+03,-2.174999999999814637e+00,-4.945000000001038565e+00,1.343277160677155990e+01,-2.108458486818554523e+00
1.999999999999864642e+01,3.000000002216178352e+00,9.999999999990471622e+00,6.600000000000169065e-01,1.570000000000185914e+00,2.869999999999983629e+03,-2.174999999999771116e+00,-4.945000000001217089e+00,1.339374139961616983e+01,-2.182439007767290828e+00
1.999999999999793587e+01,3.000000001425112472e+00,1.000000000001301537e+01,6.600000000000225686e-01,1.570000000000122187e+00,2.869999999999981355e+03,-2.174999999999925215e+00,-4.945000000000566942e+00,1.341523181652511099e+01,-2.138797307373966561e+00
1.999999999999981526e+01,3.000000001868048827e+00,1.000000000001949907e+01,6.599999999999682787e-01,1.570000000000109974e+00,2.869999999999975898e+03,-2.174999999999938094e+00,-4.945000000000399965e+00,1.342735278293478096e+01,-2.139634280505015695e+00
1.999999999999894840e+01,2.999999999858589117e+00,1.000000000002175682e+01,6.600000000000278977e-01,1.570000000000206786e+00,2.869999999999994998e+03,-2.174999999999847500e+00,-4.945000000001160245e+00,1.340498199996834394e+01,-2.121223484091212530e+00
2.000000000000012079e+01,3.000000001766390145e+00,1.000000000007159251e+01,6.599999999999880407e-01,1.570000000000162155e+00,2.870000000000022283e+03,-2.174999999999870148e+00,-4.945000000001114948e+00,1.340384258486128743e+01,-2.115797316360726210e+00
2.000000000000168399e+01,2.999999997814315922e+00,1.000000000005390888e+01,6.599999999999633937e-01,1.569999999999906359e+00,2.870000000000015461e+03,-2.175000000000069544e+00,-4.944999999999532214e+00,1.342192352030605562e+01,-2.148796433739836864e+00
2.000000000000105516e+01,2.999999999421312680e+00,1.000000000002724576e+01,6.599999999999375255e-01,1.569999999999982299e+00,2.870000000000001364e+03,-2.174999999999972289e+00,-4.944999999999997620e+00,1.342401311174921830e+01,-2.165553787498602389e+00
2.000000000000029488e+01,2.999999998459879968e+00,1.000000000003106670e+01,6.599999999999721645e-01,1.569999999999974305e+00,2.869999999999992724e+03,-2.175000000000026468e+00,-4.944999999999720508e+00,1.340477784111290305e+01,-2.177032281454561957e+00
2.000000000000154898e+01,2.999999997032106069e+00,1.000000000001048939e+01,6.599999999999632827e-01,1.569999999999846851e+00,2.869999999999992269e+03,-2.175000000000143707e+00,-4.944999999998882068e+00,1.339964288098501655e+01,-2.193388580004152821e+00
1.999999999999748113e+01,3.000000002178854430e+00,9.999999999973164577e+00,6.599999999999464073e-01,1.570000000000341123e+00,2.869999999999966803e+03,-2.174999999999676081e+00,-4.945000000001595453e+00,1.340313619886508789e+01,-2.173236334843408279e+00
1.999999999999737099e+01,3.000000001727246346e+00,9.999999999982048138e+00,6.599999999999404121e-01,1.570000000000291163e+00,2.869999999999969532e+03,-2.174999999999752021e+00,-4.945000000001331664e+00,1.340838531013308810e+01,-2.176955397265027958e+00
1.999999999999689848e+01,3.000000003908157797e+00,9.999999999958234298e+00,6.599999999999759392e-01,1.570000000000498108e+00,2.869999999999959982e+03,-2.174999999999613909e+00,-4.945000000002578666e+00,1.340913592384347020e+01,-2.183500559566127652e+00
1.999999999999685585e+01,3.000000001928608828e+00,9.999999999950658136e+00,6.599999999999589528e-01,1.570000000000575380e+00,2.869999999999958618e+03,-2.174999999999529532e+00,-4.945000000002940155e+00,1.341819247172968055e+01,-2.167650943526439722e+00
1.999999999999720757e+01,3.000000002193417004e+00,9.999999999995752731e+00,6.599999999999370814e-01,1.570000000000507656e+00,2.869999999999963620e+03,-2.174999999999514433e+00,-4.945000000002484519e+00,1.341457845758123391e+01,-2.140685552116607493e+00
1.999999999999824141e+01,3.000000004149564692e+00,9.999999999999051425e+00,6.599999999999611733e-01,1.570000000000317586e+00,2.869999999999981355e+03,-2.174999999999700506e+00,-4.945000000002043983e+00,1.343656983508894598e+01,-2.151165110769514222e+00
1.999999999999986855e+01,3.000000002834778190e+00,1.000000000000964917e+01,6.599999999999569544e-01,1.570000000000115303e+00,2.869999999999987267e+03,-2.174999999999870592e+00,-4.945000000000854712e+00,1.342063147344984131e+01,-2.172333071575612173e+00
1.999999999999607780e+01,3.000000002142109601e+00,1.000000000000025935e+01,6.599999999999706102e-01,1.570000000000530971e+00,2.869999999999979991e+03,-2.174999999999463363e+00,-4.945000000003009433e+00,1.342412389518830906e+01,-2.172469079500263245e+00
1.999999999999651124e+01,3.000000003238732393e+00,9.999999999998019362e+00,6.599999999999752731e-01,1.570000000000452367e+00,2.869999999999982720e+03,-2.174999999999543299e+00,-4.945000000002693241e+00,1.343837028444702852e+01,-2.174081002338762225e+00
1.999999999999757350e+01,3.000000003104829727e+00,1.000000000002505551e+01,6.599999999999888178e-01,1.570000000000306706e+00,2.870000000000002274e+03,-2.174999999999704947e+00,-4.945000000001742002e+00,1.342426943877013557e+01,-2.121079144927776383e+00
1.999999999999705835e+01,3.000000002365821761e+00,9.999999999984574117e+00,6.599999999999470734e-01,1.570000000000531859e+00,2.869999999999956799e+03,-2.174999999999472244e+00,-4.945000000002374385e+00,1.339945558706079787e+01,-2.140744864810611325e+00
1.999999999999744205e+01,3.000000001860363419e+00,1.000000000000947509e+01,6.600000000000189049e-01,1.570000000000381313e+00,2.869999999999973625e+03,-2.174999999999659206e+00,-4.945000000001967599e+00,1.343189982900512547e+01,-2.112475826319595740e+00
1.999999999999933920e+01,3.000000000630397956e+00,1.000000000002471268e+01,6.599999999999942579e-01,1.570000000000125073e+00,2.869999999999979991e+03,-2.174999999999893685e+00,-4.945000000000579377e+00,1.338768355137110611e+01,-2.153338819812993687e+00
1.999999999999705125e+01,3.000000000419704715e+00,1.000000000004812684e+01,6.599999999999474065e-01,1.570000000000441043e+00,2.869999999999984539e+03,-2.174999999999498890e+00,-4.945000000002443663e+00,1.340933236582812604e+01,-2.144352569347148130e+00
2.000000000000001776e+01,2.999999998480021191e+00,1.000000000009975132e+01,6.599999999999116573e-01,1.570000000000151941e+00,2.870000000000016826e+03,-2.174999999999852385e+00,-4.945000000000891127e+00,1.343085514741352071e+01,-2.086666320182600565e+00
2.000000000000039790e+01,2.999999998642562282e+00,1.000000000007143086e+01,6.600000000000143530e-01,1.570000000000256524e+00,2.870000000000000000e+03,-2.174999999999593037e+00,-4.945000000001325446e+00,1.342487721497686692e+01,-2.143354745700384090e+00
2.000000000000201084e+01,2.999999999027941122e+00,1.000000000005348966e+01,6.599999999999365263e-01,1.569999999999989404e+00,2.869999999999997726e+03,-2.174999999999893685e+00,-4.944999999999814655e+00,1.342308212440127946e+01,-2.150010599692488977e+00
2.000000000000195755e+01,2.999999996754418419e+00,1.000000000001820588e+01,6.599999999999731637e-01,1.569999999999957652e+00,2.869999999999990450e+03,-2.175000000000012257e+00,-4.944999999999724061e+00,1.341974063448702026e+01,-2.165148699712375002e+00
2.000000000000186873e+01,2.999999996413332592e+00,1.000000000003387690e+01,6.599999999999651701e-01,1.569999999999986073e+00,2.869999999999999091e+03,-2.174999999999945643e+00,-4.944999999999891038e+00,1.342091237190902575e+01,-2.150479297981501503e+00
1.999999999999799982e+01,2.999999999565424069e+00,9.999999999977152498e+00,6.599999999999551781e-01,1.570000000000202789e+00,2.869999999999965894e+03,-2.174999999999827516e+00,-4.945000000001155804e+00,1.340582102395652697e+01,-2.153236416046215407e+00
1.999999999999809575e+01,3.000000000727525595e+00,1.000000000001445954e+01,6.599999999999796030e-01,1.570000000000217000e+00,2.869999999999980901e+03,-2.174999999999824851e+00,-4.945000000001556373e+00,1.342008971733885225e+01,-2.145117701065681004e+00
2.000000000000269296e+01,2.999999997964350129e+00,9.999999999996393996e+00,6.600000000000381117e-01,1.569999999999923679e+00,2.869999999999968168e+03,-2.175000000000052225e+00,-4.944999999999005524e+00,1.340984574847744426e+01,-2.176702173782620431e+00
2.000000000000208900e+01,2.999999998693801739e+00,9.999999999995138111e+00,6.600000000000485478e-01,1.569999999999944551e+00,2.869999999999960892e+03,-2.175000000000051337e+00,-4.944999999999152074e+00,1.340936855498540048e+01,-2.162160644429369061e+00
2.000000000000061107e+01,2.999999998277594671e+00,1.000000000004580514e+01,6.599999999999487388e-01,1.570000000000020268e+00,2.869999999999994998e+03,-2.175000000000031353e+00,-4.944999999999857287e+00,1.340953041493266262e+01,-2.167019003612201900e+00
2.000000000000101252e+01,2.999999997667065710e+00,1.000000000002730083e+01,6.599999999999367484e-01,1.570000000000080442e+00,2.869999999999991815e+03,-2.174999999999942091e+00,-4.945000000000093543e+00,1.340280999256623140e+01,-2.181767854576075916e+00
2.000000000000180123e+01,3.000000000109949827e+00,1.000000000001127454e+01,6.600000000000506573e-01,1.569999999999772466e+00,2.869999999999994088e+03,-2.175000000000243627e+00,-4.944999999998424656e+00,1.341217390807543453e+01,-2.167795754969805255e+00
2.000000000000125056e+01,2.999999999771389092e+00,1.000000000003472600e+01,6.599999999999549560e-01,1.570000000000065787e+00,2.870000000000004547e+03,-2.174999999999952749e+00,-4.945000000000132623e+00,1.341083707790733115e+01,-2.144013663633170363e+00
1.999999999999610267e+01,2.999999999498224490e+00,1.000000000001561418e+01,6.600000000000409983e-01,1.570000000000475904e+00,2.869999999999988631e+03,-2.174999999999553513e+00,-4.945000000002675478e+00,1.339943430001001090e+01,-2.146066011473973134e+00
2.000000000000041211e+01,3.000000003372952584e+00,1.000000000008077272e+01,6.599999999999859313e-01,1.570000000000144613e+00,2.870000000000011823e+03,-2.174999999999811973e+00,-4.945000000000431051e+00,1.341256698536628278e+01,-2.116000776564437746e+00
2.000000000000041567e+01,3.000000000215871765e+00,1.000000000006184209e+01,6.599999999999265343e-01,1.570000000000107754e+00,2.869999999999994088e+03,-2.174999999999934985e+00,-4.944999999999901696e+00,1.338591881186103016e+01,-2.135587890760367369e+00
2.000000000000184741e+01,3.000000000831783531e+00,1.000000000001161027e+01,6.599999999999167644e-01,1.570000000000120632e+00,2.869999999999994998e+03,-2.174999999999895461e+00,-4.945000000000012719e+00,1.338472975218623162e+01,-2.133215775661808422e+00
2.000000000000232347e+01,2.999999999530203798e+00,1.000000000003025846e+01,6.599999999999567324e-01,1.570000000000093987e+00,2.870000000000008640e+03,-2.174999999999891021e+00,-4.945000000000124629e+00,1.338596121653348270e+01,-2.123643479910288345e+00
2.000000000000083844e+01,3.000000001222797419e+00,1.000000000002675016e+01,6.599999999999635047e-01,1.570000000000189688e+00,2.870000000000000000e+03,-2.174999999999806644e+00,-4.945000000000506546e+00,1.338600713483502780e+01,-2.134278889391645784e+00
1.999999999999943867e+01,3.000000000403828970e+00,1.000000000004833645e+01,6.599999999999738298e-01,1.570000000000267404e+00,2.869999999999997272e+03,-2.174999999999740918e+00,-4.945000000000980833e+00,1.339368313064813343e+01,-2.117495114233776565e+00
1.999999999999782929e+01,3.000000000314878346e+00,1.000000000000428280e+01,6.599999999999633937e-01,1.570000000000320695e+00,2.869999999999977717e+03,-2.174999999999685851e+00,-4.945000000001812168e+00,1.342726130648208560e+01,-2.140387409876603364e+00
1.999999999999825917e+01,3.000000000230999220e+00,1.000000000002258105e+01,6.599999999999872635e-01,1.570000000000228768e+00,2.869999999999993179e+03,-2.174999999999887468e+00,-4.945000000001095408e+00,1.337758099355291641e+01,-2.128810061658040986e+00
1.999999999999885603e+01,3.000000000790253196e+00,9.999999999994050981e+00,6.600000000000368905e-01,1.570000000000254969e+00,2.869999999999994088e+03,-2.174999999999730260e+00,-4.945000000001535057e+00,1.338850810769146804e+01,-2.132779741222147862e+00
1.999999999999877431e+01,2.999999999636670189e+00,9.999999999985632826e+00,6.600000000000217915e-01,1.570000000000303819e+00,2.869999999999994543e+03,-2.174999999999718714e+00,-4.945000000001535057e+00,1.336955297785618768e+01,-2.143206523706040034e+00
1.999999999999953459e+01,3.000000000157913682e+00,9.999999999984451549e+00,6.599999999999686118e-01,1.570000000000225215e+00,2.869999999999987267e+03,-2.174999999999790656e+00,-4.945000000000944418e+00,1.339991917004391908e+01,-2.159797341336138210e+00
1.999999999999842615e+01,2.999999999709051401e+00,1.000000000003675460e+01,6.599999999999436318e-01,1.570000000000368878e+00,2.869999999999999091e+03,-2.174999999999705391e+00,-4.945000000001811280e+00,1.341107367692171692e+01,-2.121542502566385213e+00
2.000000000000011013e+01,3.000000001056543741e+00,1.000000000004249756e+01,6.599999999999915934e-01,1.570000000000187912e+00,2.869999999999992269e+03,-2.174999999999782663e+00,-4.945000000000719709e+00,1.342933890279036646e+01,-2.097380633756077195e+00
1.999999999999887379e+01,3.000000000763835661e+00,1.000000000002823342e+01,6.600000000000113554e-01,1.570000000000211449e+00,2.869999999999988631e+03,-2.174999999999742251e+00,-4.945000000000860929e+00,1.341595536270574662e+01,-2.129625785337931454e+00
1.999999999999942091e+01,2.999999999279103324e+00,1.000000000001112532e+01,6.599999999999652811e-01,1.570000000000036922e+00,2.869999999999994998e+03,-2.174999999999938982e+00,-4.945000000000074003e+00,1.342865931516597300e+01,-2.154886036144454842e+00
1.999999999999998934e+01,2.999999998138752844e+00,1.000000000003062439e+01,6.599999999999685008e-01,1.569999999999982077e+00,2.870000000000005457e+03,-2.174999999999996714e+00,-4.944999999999965645e+00,1.344138784370395712e+01,-2.148154214174122778e+00
1.999999999999615952e+01,2.999999999835820663e+00,1.000000000000571632e+01,6.599999999999801581e-01,1.570000000000464802e+00,2.869999999999983629e+03,-2.174999999999501998e+00,-4.945000000002662155e+00,1.341803203244453435e+01,-2.146547799045008365e+00
2.000000000000018474e+01,2.999999997318127498e+00,1.000000000005024781e+01,6.599999999999410782e-01,1.570000000000201235e+00,2.869999999999999545e+03,-2.174999999999786215e+00,-4.945000000000881357e+00,1.336894002404855897e+01,-2.148535640159683791e+00
2.000000000000034817e+01,2.999999997102799298e+00,1.000000000002590994e+01,6.599999999999369704e-01,1.570000000000268514e+00,2.870000000000000000e+03,-2.174999999999767564e+00,-4.945000000001305018e+00,1.334975635367210067e+01,-2.134553553641740820e+00
1.999999999999911182e+01,2.999999997808930008e+00,1.000000000002143530e+01,6.600000000000242339e-01,1.569999999999991180e+00,2.870000000000005002e+03,-2.175000000000077538e+00,-4.945000000000224993e+00,1.340906337078964583e+01,-2.122506534785958632e+00
1.999999999999937117e+01,2.999999999525228667e+00,1.000000000005831957e+01,6.599999999999859313e-01,1.570000000000103979e+00,2.869999999999995907e+03,-2.174999999999911893e+00,-4.945000000000764118e+00,1.343204273112829128e+01,-2.113329157202310071e+00
1.999999999999969802e+01,2.999999999089467462e+00,1.000000000001734790e+01,6.600000000000352252e-01,1.570000000000044915e+00,2.869999999999993634e+03,-2.174999999999994493e+00,-4.945000000000162821e+00,1.342260886277559173e+01,-2.143918259093354095e+00
1.999999999999801403e+01,3.000000001141846617e+00,9.999999999947396745e+00,6.600000000000079137e-01,1.570000000000214113e+00,2.869999999999977263e+03,-2.174999999999807088e+00,-4.945000000001341434e+00,1.340455688272873935e+01,-2.181854504650583060e+00
1.999999999999670663e+01,3.000000003368934465e+00,9.999999999979582554e+00,6.599999999999999201e-01,1.570000000000396412e+00,2.869999999999984539e+03,-2.174999999999586375e+00,-4.945000000002499618e+00,1.340301486397822117e+01,-2.170139737442531302e+00
1.999999999999415223e+01,3.000000002301108193e+00,9.999999999942890128e+00,6.599999999999605071e-01,1.570000000000534524e+00,2.869999999999949978e+03,-2.174999999999426947e+00,-4.945000000003180851e+00,1.342448869878167628e+01,-2.211282893120916082e+00
1.999999999999609201e+01,3.000000001634799407e+00,9.999999999978660625e+00,6.599999999999570655e-01,1.570000000000458584e+00,2.869999999999959073e+03,-2.174999999999487343e+00,-4.945000000002626628e+00,1.341787828712435626e+01,-2.199980760924851175e+00
1.999999999999576517e+01,3.000000002724391379e+00,9.999999999984636290e+00,6.599999999999530687e-01,1.570000000000471241e+00,2.869999999999957254e+03,-2.174999999999494005e+00,-4.945000000002666596e+00,1.342602014901175167e+01,-2.185016384724607796e+00
2.000000000000200373e+01,2.999999998900716225e+00,9.999999999994903632e+00,6.600000000000224576e-01,1.569999999999774465e+00,2.869999999999994088e+03,-2.175000000000208544e+00,-4.944999999998624496e+00,1.336516873220552704e+01,-2.199944910693689692e+00
1.999999999999835509e+01,3.000000002828900669e+00,9.999999999978188114e+00,6.600000000000180167e-01,1.570000000000195239e+00,2.869999999999985448e+03,-2.174999999999871036e+00,-4.945000000001170903e+00,1.340291316860716542e+01,-2.147874896798086297e+00
1.999999999999599609e+01,3.000000001396669891e+00,1.000000000000290079e+01,6.599999999999502931e-01,1.570000000000695284e+00,2.869999999999966349e+03,-2.174999999999349676e+00,-4.945000000003663132e+00,1.343089186958114034e+01,-2.118068160007497980e+00
1.999999999999621281e+01,3.000000001414563133e+00,1.000000000000089173e+01,6.599999999999610623e-01,1.570000000000572937e+00,2.869999999999959527e+03,-2.174999999999477573e+00,-4.945000000002843343e+00,1.342157521582227098e+01,-2.127939672251953684e+00
1.999999999999702638e+01,3.000000000587171645e+00,1.000000000000786926e+01,6.599999999999093259e-01,1.570000000000492779e+00,2.869999999999951797e+03,-2.174999999999471356e+00,-4.945000000002436558e+00,1.342350864668797250e+01,-2.147926068837905600e+00
1.999999999999633005e+01,3.000000000879139428e+00,1.000000000002016520e+01,6.599999999999583977e-01,1.570000000000531637e+00,2.869999999999967713e+03,-2.174999999999418954e+00,-4.945000000002813145e+00,1.343397294139878895e+01,-2.138157406301020469e+00
1.999999999999831957e+01,2.999999999619787694e+00,9.999999999998529177e+00,6.599999999999687228e-01,1.570000000000242535e+00,2.869999999999984084e+03,-2.174999999999727596e+00,-4.945000000001500418e+00,1.340963220196617733e+01,-2.150275125253954478e+00
1.999999999999947065e+01,2.999999999359113545e+00,1.000000000000941824e+01,6.600000000000131317e-01,1.570000000000073115e+00,2.869999999999989086e+03,-2.174999999999856826e+00,-4.945000000000495888e+00,1.339490866624098153e+01,-2.186000891094514564e+00
1.999999999999939249e+01,2.999999998560837433e+00,9.999999999990993871e+00,6.600000000000171285e-01,1.570000000000066676e+00,2.869999999999987722e+03,-2.174999999999874589e+00,-4.945000000000637108e+00,1.340113424250068341e+01,-2.187794727644107873e+00
2.000000000000159517e+01,3.000000003674113458e+00,1.000000000003796963e+01,6.599999999999190958e-01,1.569999999999989182e+00,2.869999999999977717e+03,-2.174999999999894129e+00,-4.944999999999706297e+00,1.337559392200989983e+01,-2.172285693460845657e+00
1.999999999999877431e+01,3.000000001247521642e+00,9.999999999974058085e+00,6.599999999999548450e-01,1.570000000000210560e+00,2.869999999999960892e+03,-2.174999999999741807e+00,-4.945000000001088303e+00,1.339530969359861068e+01,-2.183693154838056927e+00
1.999999999999979394e+01,3.000000002396099763e+00,9.999999999983637977e+00,6.599999999999371925e-01,1.570000000000063345e+00,2.869999999999972715e+03,-2.174999999999878142e+00,-4.945000000000272067e+00,1.339963029576742315e+01,-2.198232992493484694e+00
2.000000000000027356e+01,3.000000000327788907e+00,1.000000000002688871e+01,6.599999999999163203e-01,1.570000000000178586e+00,2.869999999999969987e+03,-2.174999999999645439e+00,-4.945000000000775664e+00,1.344431400993704528e+01,-2.139311003672147660e+00
1.999999999999938183e+01,2.999999999943145479e+00,1.000000000001347189e+01,6.599999999999411893e-01,1.570000000000132401e+00,2.869999999999976353e+03,-2.174999999999720490e+00,-4.945000000000696616e+00,1.343163084595124701e+01,-2.153337403032575370e+00
2.000000000000008171e+01,2.999999998779054433e+00,1.000000000000377653e+01,6.599999999999408562e-01,1.570000000000134621e+00,2.869999999999979082e+03,-2.174999999999845723e+00,-4.945000000000334239e+00,1.339801443226935440e+01,-2.153211929221638510e+00
2.000000000000079226e+01,3.000000000746621875e+00,9.999999999999872102e+00,6.599999999999248690e-01,1.570000000000108420e+00,2.869999999999987267e+03,-2.174999999999849720e+00,-4.945000000000637996e+00,1.340226440703004762e+01,-2.165262766273582162e+00
1.999999999999541345e+01,3.000000000744099449e+00,9.999999999975457854e+00,6.600000000000699751e-01,1.570000000000464802e+00,2.869999999999979991e+03,-2.174999999999439382e+00,-4.945000000002854890e+00,1.340621892431573592e+01,-2.173608800758211501e+00
1.999999999999650413e+01,3.000000000013481660e+00,9.999999999986433963e+00,6.600000000000407763e-01,1.570000000000421503e+00,2.869999999999984539e+03,-2.174999999999466027e+00,-4.945000000002536922e+00,1.342265273290128746e+01,-2.175163219510058976e+00
1.999999999999576872e+01,3.000000001419658169e+00,9.999999999926822980e+00,6.600000000000375566e-01,1.570000000000437268e+00,2.869999999999963620e+03,-2.174999999999469136e+00,-4.945000000002969465e+00,1.342858484311475031e+01,-2.197145160997465485e+00
1.999999999999502620e+01,3.000000000323334692e+00,9.999999999926894034e+00,6.600000000000439959e-01,1.570000000000520535e+00,2.869999999999956344e+03,-2.174999999999365219e+00,-4.945000000003266116e+00,1.343564364983992299e+01,-2.202257705652804098e+00
1.999999999999537437e+01,2.999999998969641091e+00,9.999999999924277461e+00,6.600000000000616485e-01,1.570000000000496998e+00,2.869999999999964530e+03,-2.174999999999409184e+00,-4.945000000003185292e+00,1.343109254996522139e+01,-2.191472989750370193e+00
1.999999999999821654e+01,3.000000002811153532e+00,1.000000000000289724e+01,6.599999999999098810e-01,1.570000000000316254e+00,2.869999999999971351e+03,-2.174999999999656985e+00,-4.945000000001601670e+00,1.342672367216269258e+01,-2.168907196722756670e+00
1.999999999999862865e+01,3.000000004093170247e+00,9.999999999999532818e+00,6.599999999999212053e-01,1.570000000000169038e+00,2.869999999999971806e+03,-2.174999999999823519e+00,-4.945000000000720597e+00,1.343108682759486960e+01,-2.159718766385023692e+00
2.000000000000109779e+01,2.999999998077562680e+00,1.000000000001984901e+01,6.599999999999696110e-01,1.570000000000001394e+00,2.869999999999996362e+03,-2.174999999999982503e+00,-4.944999999999652118e+00,1.339429830173809854e+01,-2.151133512986277196e+00
1.999999999999964473e+01,2.999999998691804670e+00,1.000000000001258726e+01,6.599999999999889289e-01,1.570000000000169260e+00,2.869999999999984539e+03,-2.174999999999791100e+00,-4.945000000000786322e+00,1.339101725796941622e+01,-2.161904570461615993e+00
1.999999999999856115e+01,2.999999999472974022e+00,1.000000000002657252e+01,6.599999999999910383e-01,1.570000000000225659e+00,2.869999999999989541e+03,-2.174999999999767120e+00,-4.945000000001043894e+00,1.342283349208037357e+01,-2.138678134181272839e+00
1.999999999999864997e+01,2.999999999330110079e+00,1.000000000003676703e+01,6.600000000000428857e-01,1.570000000000160822e+00,2.870000000000004547e+03,-2.174999999999947420e+00,-4.945000000000870699e+00,1.339348996344568121e+01,-2.115420565770011141e+00
1.999999999999866418e+01,3.000000001242216552e+00,1.000000000004929213e+01,6.599999999999600631e-01,1.570000000000337792e+00,2.869999999999975444e+03,-2.174999999999664091e+00,-4.945000000001441798e+00,1.340665569799529599e+01,-2.117024234567709051e+00
1.999999999999823430e+01,3.000000001151023277e+00,1.000000000006964740e+01,6.599999999999429656e-01,1.570000000000381535e+00,2.869999999999962256e+03,-2.174999999999609468e+00,-4.945000000001710916e+00,1.343133038414744718e+01,-2.104081774390116344e+00
1.999999999999681322e+01,3.000000003122826442e+00,1.000000000003720224e+01,6.599999999999600631e-01,1.570000000000660423e+00,2.869999999999984084e+03,-2.174999999999391864e+00,-4.945000000003244800e+00,1.338786520142048353e+01,-2.117446913784949647e+00
1.999999999999860378e+01,3.000000000536723110e+00,1.000000000003515410e+01,6.599999999999814904e-01,1.570000000000344675e+00,2.870000000000006366e+03,-2.174999999999688960e+00,-4.945000000001571472e+00,1.340583760915559708e+01,-2.120735603902325739e+00
1.999999999999617373e+01,3.000000000281148882e+00,9.999999999941023177e+00,6.599999999999629496e-01,1.570000000000490781e+00,2.869999999999964984e+03,-2.174999999999523315e+00,-4.945000000002735874e+00,1.341761259396178119e+01,-2.183098672877918922e+00
1.999999999999568345e+01,3.000000000310188319e+00,9.999999999941907802e+00,6.599999999999539568e-01,1.570000000000574714e+00,2.869999999999967713e+03,-2.174999999999403855e+00,-4.945000000003289209e+00,1.342865745241631714e+01,-2.186338647173073912e+00
1.999999999999814904e+01,2.999999998412187452e+00,9.999999999981650234e+00,6.599999999999833777e-01,1.570000000000334017e+00,2.869999999999988631e+03,-2.174999999999712053e+00,-4.945000000001573248e+00,1.344759354117133476e+01,-2.144286757534612509e+00
1.999999999999810285e+01,2.999999998752401531e+00,9.999999999971990405e+00,6.599999999999734968e-01,1.570000000000270735e+00,2.869999999999986812e+03,-2.174999999999728484e+00,-4.945000000001450680e+00,1.344680953989109540e+01,-2.170684128663303625e+00
2.000000000000152411e+01,2.999999998438860782e+00,9.999999999989695354e+00,6.600000000000217915e-01,1.569999999999912355e+00,2.869999999999999091e+03,-2.175000000000117950e+00,-4.944999999999398099e+00,1.342358246751894058e+01,-2.148980263461205631e+00
1.999999999999988631e+01,2.999999998182929506e+00,9.999999999975285547e+00,6.600000000000131317e-01,1.570000000000152607e+00,2.869999999999995453e+03,-2.174999999999879030e+00,-4.945000000000772999e+00,1.343366637221048343e+01,-2.160388992353604376e+00
1.999999999999520384e+01,3.000000003923194214e+00,1.000000000001411671e+01,6.599999999999407452e-01,1.570000000000422391e+00,2.869999999999998181e+03,-2.174999999999610800e+00,-4.945000000002420570e+00,1.338942008082322488e+01,-2.137761389361183095e+00
1.999999999999900524e+01,3.000000001614499201e+00,1.000000000002092015e+01,6.599999999999278666e-01,1.570000000000237872e+00,2.869999999999994543e+03,-2.174999999999736033e+00,-4.945000000001379625e+00,1.339662614282637421e+01,-2.132199675220148638e+00
1.999999999999411671e+01,3.000000000357626373e+00,1.000000000002849454e+01,6.599999999999989209e-01,1.570000000000701723e+00,2.869999999999969532e+03,-2.174999999999305711e+00,-4.945000000003953566e+00,1.336632241378153907e+01,-2.129679977205204633e+00
1.999999999999276312e+01,3.000000001011597472e+00,1.000000000000065725e+01,6.600000000000187939e-01,1.570000000000681739e+00,2.869999999999969987e+03,-2.174999999999354561e+00,-4.945000000003920704e+00,1.336264260313388696e+01,-2.135443526416602733e+00
1.999999999999610978e+01,2.999999998830708670e+00,1.000000000002950351e+01,6.599999999999945910e-01,1.570000000000690177e+00,2.869999999999974534e+03,-2.174999999999353228e+00,-4.945000000003586749e+00,1.337639793198241556e+01,-2.138093754153210124e+00
1.999999999999877431e+01,2.999999998302744331e+00,1.000000000003423750e+01,6.600000000000227907e-01,1.570000000000405738e+00,2.869999999999993634e+03,-2.174999999999583711e+00,-4.945000000002179874e+00,1.337206255598006699e+01,-2.149554117647202833e+00
1.999999999999321076e+01,3.000000001346569078e+00,1.000000000004166800e+01,6.599999999999680567e-01,1.570000000000849605e+00,2.869999999999984993e+03,-2.174999999999133404e+00,-4.945000000004704965e+00,1.341710476404125707e+01,-2.119674528075952136e+00
1.999999999999628031e+01,2.999999998929137490e+00,1.000000000001608313e+01,6.600000000000175726e-01,1.570000000000588702e+00,2.869999999999980901e+03,-2.174999999999418065e+00,-4.945000000003279439e+00,1.341625470638175521e+01,-2.107950237672566729e+00
1.999999999999620570e+01,3.000000001041287057e+00,1.000000000000719957e+01,6.599999999999973666e-01,1.570000000000612017e+00,2.869999999999974079e+03,-2.174999999999428280e+00,-4.945000000003246576e+00,1.337589983118453141e+01,-2.133892283971985382e+00
1.999999999999618439e+01,2.999999999139915996e+00,1.000000000001546141e+01,6.599999999999641709e-01,1.570000000000596030e+00,2.869999999999956799e+03,-2.174999999999368772e+00,-4.945000000003131113e+00,1.340890176184405291e+01,-2.152568478780314543e+00
1.999999999999767297e+01,2.999999998295707737e+00,1.000000000007361223e+01,6.599999999999819345e-01,1.570000000000450591e+00,2.869999999999992724e+03,-2.174999999999531752e+00,-4.945000000002208296e+00,1.338765090756973386e+01,-2.105018831606227714e+00
1.999999999999573319e+01,2.999999999210134938e+00,1.000000000000408562e+01,6.599999999999586198e-01,1.570000000000429941e+00,2.869999999999964530e+03,-2.174999999999514433e+00,-4.945000000002168328e+00,1.343441632721759582e+01,-2.160917053402496624e+00
1.999999999999656808e+01,2.999999998748238195e+00,9.999999999986364685e+00,6.599999999999789368e-01,1.570000000000384865e+00,2.869999999999958618e+03,-2.174999999999617906e+00,-4.945000000001848584e+00,1.342255587224646973e+01,-2.163781499603591563e+00
1.999999999999588240e+01,2.999999998520820998e+00,9.999999999998573585e+00,6.599999999999673905e-01,1.570000000000356888e+00,2.869999999999974534e+03,-2.174999999999564615e+00,-4.945000000002266916e+00,1.345486927265614874e+01,-2.133736361659090530e+00
1.999999999999748823e+01,2.999999997767655913e+00,9.999999999995440092e+00,6.599999999999505151e-01,1.570000000000258522e+00,2.869999999999976808e+03,-2.174999999999682299e+00,-4.945000000001477325e+00,1.345394121042064661e+01,-2.127564715122472805e+00
1.999999999999625899e+01,2.999999997999295065e+00,9.999999999983218757e+00,6.599999999999660583e-01,1.570000000000338236e+00,2.869999999999969532e+03,-2.174999999999612577e+00,-4.945000000001824603e+00,1.343585464377912686e+01,-2.143700284913137910e+00
1.999999999999545253e+01,2.999999998173167981e+00,9.999999999973645970e+00,6.599999999999632827e-01,1.570000000000427720e+00,2.869999999999970441e+03,-2.174999999999494893e+00,-4.945000000002457874e+00,1.344354045878571569e+01,-2.152087791837755670e+00
2.000000000000011013e+01,2.999999999739960010e+00,1.000000000002397371e+01,6.599999999999855982e-01,1.570000000000195683e+00,2.870000000000002728e+03,-2.174999999999729816e+00,-4.945000000000677076e+00,1.343093353941487145e+01,-2.134181584907148377e+00
1.999999999999355893e+01,3.000000000952381285e+00,1.000000000001790923e+01,6.599999999999237588e-01,1.570000000000782547e+00,2.869999999999974989e+03,-2.174999999999120526e+00,-4.945000000004445617e+00,1.342424881868505615e+01,-2.132183016061264702e+00
2.000000000000017764e+01,3.000000003110238733e+00,1.000000000001079492e+01,6.599999999999321965e-01,1.570000000000360219e+00,2.869999999999958163e+03,-2.174999999999653433e+00,-4.945000000001305906e+00,1.338491235969919302e+01,-2.152413904759120644e+00
