1.999999999999853983e+01,3.000000000065247363e+00,1.000000000002906830e+01,6.599999999999049960e-01,1.570000000000175033e+00,2.870000000000007276e+03,-2.174999999999903899e+00,-4.945000000000484341e+00,1.340790887664600994e+01,-2.124311570950638828e+00
1.999999999999938538e+01,2.999999999804810358e+00,1.000000000003468514e+01,6.599999999999068834e-01,1.570000000000132623e+00,2.870000000000014097e+03,-2.174999999999969180e+00,-4.945000000000153051e+00,1.342563580208176965e+01,-2.114483763815213191e+00
1.999999999999672440e+01,2.999999998951697222e+00,1.000000000001073097e+01,6.600000000000008082e-01,1.570000000000362439e+00,2.869999999999981810e+03,-2.174999999999693845e+00,-4.945000000001907203e+00,1.341689177434417424e+01,-2.119367173834145746e+00
1.999999999999684874e+01,3.000000000652293775e+00,1.000000000002062706e+01,6.600000000000075806e-01,1.570000000000341123e+00,2.869999999999995453e+03,-2.174999999999691624e+00,-4.945000000001811280e+00,1.340798291011364363e+01,-2.114760915967658139e+00
1.999999999999719336e+01,2.999999999794889405e+00,9.999999999996909139e+00,6.599999999999482947e-01,1.570000000000459028e+00,2.869999999999960437e+03,-2.174999999999527756e+00,-4.945000000002205631e+00,1.342435819567887201e+01,-2.121325918864207960e+00
1.999999999999998934e+01,2.999999998153548564e+00,9.999999999983504750e+00,6.600000000000354472e-01,1.570000000000123963e+00,2.869999999999991815e+03,-2.174999999999840838e+00,-4.945000000000811191e+00,1.340661552115586375e+01,-2.144774967049639436e+00
2.000000000000155964e+01,2.999999998739820484e+00,1.000000000002971490e+01,6.599999999999542899e-01,1.570000000000002061e+00,2.869999999999975444e+03,-2.175000000000043787e+00,-4.944999999999632578e+00,1.336864569061932784e+01,-2.176593030711153176e+00
1.999999999999979394e+01,2.999999999513534021e+00,1.000000000001659473e+01,6.599999999998813482e-01,1.570000000000265405e+00,2.869999999999966349e+03,-2.174999999999774225e+00,-4.945000000001178009e+00,1.337048586353995638e+01,-2.186236893541032789e+00
2.000000000000154543e+01,2.999999998528869671e+00,1.000000000000999556e+01,6.599999999999570655e-01,1.570000000000018936e+00,2.869999999999994088e+03,-2.175000000000025580e+00,-4.945000000000185025e+00,1.340747895603362316e+01,-2.150483291027546873e+00
1.999999999999954881e+01,2.999999999715889043e+00,1.000000000000054179e+01,6.599999999999976996e-01,1.570000000000046914e+00,2.870000000000003638e+03,-2.174999999999968736e+00,-4.945000000000758789e+00,1.340122499310661119e+01,-2.168069011185183026e+00
2.000000000000051870e+01,2.999999999820680330e+00,9.999999999995134559e+00,6.600000000000113554e-01,1.569999999999907025e+00,2.870000000000009550e+03,-2.175000000000069100e+00,-4.944999999999862617e+00,1.342831889214401109e+01,-2.151976685384886512e+00
1.999999999999642597e+01,3.000000000429314806e+00,9.999999999992242650e+00,6.599999999999175415e-01,1.570000000000558948e+00,2.869999999999992269e+03,-2.174999999999593037e+00,-4.945000000003086704e+00,1.339377045645768050e+01,-2.147107478717137585e+00
1.999999999999523226e+01,3.000000000075700779e+00,1.000000000000070521e+01,6.600000000000044720e-01,1.570000000000476348e+00,2.869999999999977263e+03,-2.174999999999502442e+00,-4.945000000002935714e+00,1.343488250405524731e+01,-2.141641888559150608e+00
1.999999999999942801e+01,2.999999999238498916e+00,9.999999999993256949e+00,6.599999999999323075e-01,1.570000000000243867e+00,2.869999999999964530e+03,-2.174999999999750244e+00,-4.945000000001167351e+00,1.337900927793615047e+01,-2.175879967137294813e+00
1.999999999999875655e+01,3.000000001701570440e+00,9.999999999999532818e+00,6.599999999999985878e-01,1.570000000000254747e+00,2.869999999999953616e+03,-2.174999999999707168e+00,-4.945000000001520846e+00,1.339017654002112856e+01,-2.177748630442848388e+00
2.000000000000024514e+01,2.999999999430913000e+00,1.000000000002588685e+01,6.600000000000381117e-01,1.570000000000125295e+00,2.870000000000003183e+03,-2.174999999999923883e+00,-4.945000000000715268e+00,1.340672792625230691e+01,-2.111557158963905056e+00
2.000000000000149925e+01,3.000000000329085204e+00,1.000000000001476330e+01,6.600000000000648681e-01,1.569999999999969642e+00,2.870000000000002728e+03,-2.175000000000067768e+00,-4.944999999999973639e+00,1.339612711625749952e+01,-2.131285145148529736e+00
1.999999999999921840e+01,2.999999998646104338e+00,1.000000000000238387e+01,6.600000000000435518e-01,1.570000000000168594e+00,2.869999999999976353e+03,-2.174999999999905675e+00,-4.945000000000897344e+00,1.337434028818082332e+01,-2.165059159528964106e+00
1.999999999999933920e+01,2.999999997702550214e+00,1.000000000001751488e+01,6.599999999999971445e-01,1.570000000000290719e+00,2.869999999999986358e+03,-2.174999999999684075e+00,-4.945000000001537721e+00,1.340083801219774351e+01,-2.142300570349798594e+00
1.999999999999845812e+01,2.999999997834146281e+00,1.000000000001340972e+01,6.599999999999867084e-01,1.570000000000388196e+00,2.869999999999986358e+03,-2.174999999999555733e+00,-4.945000000002030660e+00,1.339339697980795130e+01,-2.139073559561777138e+00
1.999999999999895905e+01,2.999999998129482481e+00,1.000000000003263345e+01,6.599999999999695000e-01,1.570000000000175921e+00,2.870000000000005912e+03,-2.174999999999805755e+00,-4.945000000000893792e+00,1.342911569613211142e+01,-2.135416800785146840e+00
2.000000000000185452e+01,2.999999997458038248e+00,1.000000000002270539e+01,6.600000000000200151e-01,1.569999999999915907e+00,2.870000000000009095e+03,-2.175000000000108624e+00,-4.944999999999589058e+00,1.342120983878498919e+01,-2.125701363748770500e+00
1.999999999999810285e+01,3.000000000859902372e+00,1.000000000000610001e+01,6.600000000000739719e-01,1.570000000000121965e+00,2.869999999999991815e+03,-2.174999999999837730e+00,-4.945000000001084750e+00,1.339915832004385621e+01,-2.141094832131722026e+00
2.000000000000010303e+01,3.000000000147855506e+00,9.999999999999563016e+00,6.600000000000575406e-01,1.570000000000036033e+00,2.869999999999989541e+03,-2.174999999999934541e+00,-4.944999999999872387e+00,1.343316013737163495e+01,-2.147889239173211173e+00
1.999999999999710454e+01,2.999999996621523390e+00,9.999999999964231279e+00,6.599999999999766054e-01,1.570000000000317586e+00,2.869999999999944066e+03,-2.174999999999632116e+00,-4.945000000001932960e+00,1.342206364279452124e+01,-2.173628870829556803e+00
1.999999999999647216e+01,3.000000001787003434e+00,9.999999999972047249e+00,6.600000000000383338e-01,1.570000000000418172e+00,2.869999999999985448e+03,-2.174999999999527756e+00,-4.945000000002512941e+00,1.342189801617781519e+01,-2.149733954015289772e+00
2.000000000000230926e+01,2.999999996656676604e+00,1.000000000003549516e+01,6.600000000000215694e-01,1.569999999999935447e+00,2.870000000000016371e+03,-2.175000000000078426e+00,-4.944999999999666329e+00,1.340226669306005824e+01,-2.137600881173675305e+00
1.999999999999744205e+01,3.000000000215307328e+00,1.000000000000103384e+01,6.600000000000277867e-01,1.570000000000188134e+00,2.869999999999974079e+03,-2.174999999999853717e+00,-4.945000000001122054e+00,1.340709473431097365e+01,-2.132245071917744372e+00
1.999999999999901945e+01,2.999999998762152842e+00,9.999999999992146726e+00,6.600000000000623146e-01,1.569999999999976970e+00,2.869999999999999545e+03,-2.175000000000093969e+00,-4.945000000000090878e+00,1.337850783131666077e+01,-2.154612304593758410e+00
1.999999999999816680e+01,2.999999998299355930e+00,9.999999999975315745e+00,6.600000000000302292e-01,1.570000000000131291e+00,2.869999999999967258e+03,-2.174999999999892353e+00,-4.945000000000836060e+00,1.339323591102972877e+01,-2.170254798006309382e+00
2.000000000000190425e+01,3.000000000690654645e+00,1.000000000000625278e+01,6.600000000000213474e-01,1.569999999999833085e+00,2.869999999999997726e+03,-2.175000000000195666e+00,-4.944999999998977991e+00,1.341162184138091895e+01,-2.169898524513486748e+00
2.000000000000085976e+01,3.000000001429889984e+00,1.000000000004744471e+01,6.599999999999655032e-01,1.569999999999984075e+00,2.869999999999999545e+03,-2.174999999999965627e+00,-4.944999999999482476e+00,1.342574084555782399e+01,-2.158714447628425681e+00
1.999999999999993960e+01,3.000000002712081670e+00,1.000000000004846612e+01,6.599999999999806022e-01,1.570000000000196128e+00,2.870000000000004093e+03,-2.174999999999632561e+00,-4.945000000001061657e+00,1.340139897868023944e+01,-2.177020847735707587e+00
1.999999999999699796e+01,3.000000000435094183e+00,9.999999999999598543e+00,6.599999999999350830e-01,1.570000000000485896e+00,2.869999999999969532e+03,-2.174999999999448708e+00,-4.945000000002561791e+00,1.343063384554534245e+01,-2.160398274595784596e+00
1.999999999999572609e+01,3.000000000109598552e+00,9.999999999981694643e+00,6.599999999999849321e-01,1.570000000000489448e+00,2.869999999999992269e+03,-2.174999999999494893e+00,-4.945000000002966800e+00,1.339035089619526175e+01,-2.167247829913883095e+00
1.999999999999564793e+01,3.000000001644032910e+00,1.000000000000945199e+01,6.599999999999072164e-01,1.570000000000688622e+00,2.869999999999961346e+03,-2.174999999999264411e+00,-4.945000000003784812e+00,1.341452292885879949e+01,-2.131486164412887963e+00
1.999999999999650768e+01,2.999999999130250394e+00,9.999999999993178790e+00,6.599999999999244249e-01,1.570000000000598694e+00,2.869999999999956799e+03,-2.174999999999348788e+00,-4.945000000003148877e+00,1.343980001094174526e+01,-2.128760617696493718e+00
2.000000000000019540e+01,2.999999996621043774e+00,9.999999999970144771e+00,6.599999999999655032e-01,1.570000000000225659e+00,2.869999999999984539e+03,-2.174999999999790212e+00,-4.945000000001400942e+00,1.339889677266156909e+01,-2.190003819328520507e+00
1.999999999999842260e+01,2.999999997785844030e+00,9.999999999985460519e+00,6.599999999999743849e-01,1.570000000000116858e+00,2.869999999999991815e+03,-2.174999999999932765e+00,-4.945000000000859153e+00,1.341585954475743137e+01,-2.159902334124929713e+00
1.999999999999614531e+01,3.000000001679651973e+00,9.999999999970787812e+00,6.600000000000576517e-01,1.570000000000388862e+00,2.869999999999982265e+03,-2.174999999999644551e+00,-4.945000000002493401e+00,1.339879232656165797e+01,-2.162295306539936401e+00
2.000000000000036593e+01,3.000000002286554945e+00,1.000000000001118750e+01,6.600000000000764144e-01,1.569999999999947438e+00,2.869999999999995453e+03,-2.175000000000070433e+00,-4.944999999999828866e+00,1.339110717275698015e+01,-2.156967802566333692e+00
1.999999999999736744e+01,3.000000002070636107e+00,9.999999999991802113e+00,6.600000000000459943e-01,1.570000000000205898e+00,2.869999999999998636e+03,-2.174999999999723599e+00,-4.945000000001920526e+00,1.340645698048983192e+01,-2.174051706316592281e+00
1.999999999999713296e+01,3.000000000312911030e+00,1.000000000001808509e+01,6.599999999999270894e-01,1.570000000000301599e+00,2.869999999999993634e+03,-2.174999999999775113e+00,-4.945000000001500418e+00,1.340918663979046599e+01,-2.122390970990875925e+00
1.999999999999836575e+01,2.999999999792022809e+00,1.000000000002438405e+01,6.599999999999749400e-01,1.570000000000236762e+00,2.869999999999992269e+03,-2.174999999999820854e+00,-4.945000000001016360e+00,1.341784624284679239e+01,-2.120034458521613097e+00
1.999999999999948130e+01,3.000000002133843768e+00,1.000000000005163692e+01,6.599999999999932587e-01,1.570000000000155937e+00,2.869999999999989541e+03,-2.174999999999809308e+00,-4.945000000000439044e+00,1.339880561018873983e+01,-2.132573687769375059e+00
1.999999999999894840e+01,3.000000002130642773e+00,1.000000000005926992e+01,6.599999999999873745e-01,1.570000000000229878e+00,2.869999999999998181e+03,-2.174999999999745803e+00,-4.945000000000993268e+00,1.339088594574428370e+01,-2.130025922995034016e+00
1.999999999999841549e+01,3.000000002432134494e+00,1.000000000006884093e+01,6.599999999999826006e-01,1.570000000000275175e+00,2.869999999999987722e+03,-2.174999999999707168e+00,-4.945000000001154028e+00,1.339641824061146025e+01,-2.123048613825363251e+00
1.999999999999927169e+01,3.000000001990126286e+00,1.000000000006791900e+01,6.599999999999923705e-01,1.570000000000176810e+00,2.869999999999995453e+03,-2.174999999999825739e+00,-4.945000000000633555e+00,1.339328676721529021e+01,-2.113069233579835782e+00
1.999999999999878497e+01,3.000000000636177777e+00,1.000000000002687628e+01,6.600000000000117995e-01,1.570000000000215445e+00,2.869999999999978627e+03,-2.174999999999817746e+00,-4.945000000001015472e+00,1.343290594699390184e+01,-2.133408790889379958e+00
1.999999999999686295e+01,3.000000001540476191e+00,1.000000000002828671e+01,6.600000000000061373e-01,1.570000000000393525e+00,2.869999999999979082e+03,-2.174999999999660538e+00,-4.945000000001956941e+00,1.343231673386108938e+01,-2.112486379415334348e+00
1.999999999999817035e+01,2.999999999948558482e+00,9.999999999978591347e+00,6.600000000000083578e-01,1.570000000000175477e+00,2.869999999999975898e+03,-2.174999999999868372e+00,-4.945000000001094520e+00,1.340890372227300453e+01,-2.133417241547085119e+00
1.999999999999799627e+01,3.000000000575797632e+00,9.999999999992807531e+00,6.600000000000382228e-01,1.570000000000151497e+00,2.869999999999995453e+03,-2.174999999999846612e+00,-4.945000000001300577e+00,1.342222020794871007e+01,-2.166737598492289418e+00
1.999999999999674216e+01,2.999999998642540078e+00,1.000000000001046097e+01,6.599999999999855982e-01,1.570000000000474127e+00,2.870000000000000455e+03,-2.174999999999426059e+00,-4.945000000002728768e+00,1.343850718124530097e+01,-2.142538568026041812e+00
1.999999999999784706e+01,2.999999999565889475e+00,1.000000000001542233e+01,6.600000000000204592e-01,1.570000000000169038e+00,2.869999999999982265e+03,-2.174999999999838174e+00,-4.945000000001123830e+00,1.339736460315609889e+01,-2.119980769196759152e+00
1.999999999999680611e+01,3.000000000050942361e+00,1.000000000000144773e+01,6.600000000000075806e-01,1.570000000000260076e+00,2.869999999999975444e+03,-2.174999999999764899e+00,-4.945000000001702034e+00,1.339556978847772761e+01,-2.121889274646425960e+00
2.000000000000362377e+01,3.000000002092085172e+00,1.000000000006616219e+01,6.599999999999780487e-01,1.569999999999765583e+00,2.870000000000002728e+03,-2.175000000000183231e+00,-4.944999999998660911e+00,1.340307064470771259e+01,-2.163020486752561311e+00
1.999999999999734968e+01,3.000000000139293466e+00,9.999999999983735677e+00,6.599999999999766054e-01,1.570000000000372209e+00,2.869999999999977263e+03,-2.174999999999612577e+00,-4.945000000002099050e+00,1.344824202131661650e+01,-2.119101148727490003e+00
1.999999999999569766e+01,2.999999998441591487e+00,1.000000000001008793e+01,6.599999999999852651e-01,1.570000000000475238e+00,2.869999999999981355e+03,-2.174999999999523315e+00,-4.945000000002587548e+00,1.344497678018484699e+01,-2.128581783229726909e+00
2.000000000000023093e+01,2.999999998879382623e+00,9.999999999991997512e+00,6.599999999999869305e-01,1.569999999999895923e+00,2.870000000000000455e+03,-2.175000000000141043e+00,-4.944999999999781792e+00,1.343877976869170432e+01,-2.147626320808837086e+00
1.999999999999962341e+01,2.999999999884003454e+00,1.000000000000370903e+01,6.599999999999746070e-01,1.570000000000162821e+00,2.869999999999969987e+03,-2.174999999999890132e+00,-4.945000000000705498e+00,1.339682587831355320e+01,-2.150120534500484570e+00
2.000000000000158096e+01,2.999999998241618560e+00,1.000000000006283685e+01,6.599999999999626166e-01,1.569999999999888818e+00,2.870000000000000000e+03,-2.175000000000119282e+00,-4.944999999999297735e+00,1.340121549748973528e+01,-2.141067290506553533e+00
1.999999999999558042e+01,2.999999999624480385e+00,1.000000000002087930e+01,6.599999999999549560e-01,1.570000000000491891e+00,2.869999999999996362e+03,-2.174999999999596589e+00,-4.945000000002985452e+00,1.337734610712586658e+01,-2.135656848190244261e+00
1.999999999999527844e+01,2.999999999398927031e+00,1.000000000001756995e+01,6.599999999999195399e-01,1.570000000000576490e+00,2.869999999999977717e+03,-2.174999999999509992e+00,-4.945000000003165752e+00,1.340497865634284480e+01,-2.135871785768023390e+00
1.999999999999982236e+01,2.999999998691218472e+00,1.000000000002673772e+01,6.599999999999419664e-01,1.570000000000177476e+00,2.870000000000002728e+03,-2.174999999999851052e+00,-4.945000000001049223e+00,1.340416627190650090e+01,-2.160780468246221719e+00
2.000000000000133937e+01,2.999999999568110365e+00,1.000000000003244338e+01,6.599999999999935918e-01,1.569999999999934115e+00,2.869999999999995453e+03,-2.175000000000116174e+00,-4.944999999999418527e+00,1.341547797080286486e+01,-2.123096851163491561e+00
1.999999999999985079e+01,2.999999999504945780e+00,1.000000000001880807e+01,6.600000000000022515e-01,1.570000000000002061e+00,2.869999999999988177e+03,-2.175000000000040679e+00,-4.944999999999868834e+00,1.341174381448427688e+01,-2.125887552384590151e+00
1.999999999999903366e+01,2.999999999416633312e+00,1.000000000001472955e+01,6.599999999999389688e-01,1.570000000000221441e+00,2.869999999999997726e+03,-2.174999999999747580e+00,-4.945000000001072316e+00,1.342826617408466916e+01,-2.128574180514383851e+00
2.000000000000111910e+01,3.000000001364750091e+00,1.000000000001538503e+01,6.599999999999629496e-01,1.570000000000094209e+00,2.869999999999996817e+03,-2.174999999999879030e+00,-4.945000000000445262e+00,1.342627478873692226e+01,-2.134814164816783766e+00
1.999999999999890576e+01,2.999999998871199391e+00,1.000000000000433964e+01,6.599999999999798250e-01,1.570000000000209228e+00,2.869999999999997272e+03,-2.174999999999780886e+00,-4.945000000000938201e+00,1.342342848577816383e+01,-2.145584562286358299e+00
1.999999999999891287e+01,2.999999996820374104e+00,1.000000000000864198e+01,6.599999999999920375e-01,1.570000000000111307e+00,2.869999999999998181e+03,-2.174999999999823963e+00,-4.945000000001069651e+00,1.340822737952371568e+01,-2.151221551284375977e+00
2.000000000000012079e+01,2.999999998303355842e+00,1.000000000004129319e+01,6.600000000000320055e-01,1.570000000000176588e+00,2.869999999999998636e+03,-2.174999999999811084e+00,-4.945000000001277485e+00,1.338226153991603162e+01,-2.144076915126491567e+00
2.000000000000168399e+01,2.999999998658150702e+00,1.000000000002589395e+01,6.599999999999478506e-01,1.570000000000123075e+00,2.869999999999991815e+03,-2.174999999999944755e+00,-4.945000000000271179e+00,1.338593076207476606e+01,-2.163759554422076903e+00
1.999999999999967315e+01,3.000000000392483379e+00,1.000000000000473044e+01,6.599999999999872635e-01,1.570000000000284723e+00,2.869999999999989086e+03,-2.174999999999717826e+00,-4.945000000001781970e+00,1.339346133379122961e+01,-2.155786968066337739e+00
1.999999999999602807e+01,3.000000000260222066e+00,9.999999999998818723e+00,6.599999999999243139e-01,1.570000000000433271e+00,2.869999999999960892e+03,-2.174999999999619238e+00,-4.945000000001839702e+00,1.341968294416069796e+01,-2.153668199074869172e+00
1.999999999999969447e+01,2.999999999138048601e+00,9.999999999998026468e+00,6.600000000000060263e-01,1.570000000000228546e+00,2.869999999999987722e+03,-2.174999999999860822e+00,-4.945000000000830731e+00,1.339623456548477165e+01,-2.128437115534789648e+00
1.999999999999898037e+01,2.999999999145314789e+00,9.999999999982948751e+00,6.599999999999947020e-01,1.570000000000263629e+00,2.869999999999981810e+03,-2.174999999999867484e+00,-4.945000000000957741e+00,1.339523094828663119e+01,-2.128858737478726226e+00
1.999999999999667821e+01,2.999999999070400047e+00,9.999999999954464869e+00,6.599999999999612843e-01,1.570000000000395968e+00,2.869999999999959982e+03,-2.174999999999732037e+00,-4.945000000002139906e+00,1.341054273127893204e+01,-2.144033195095246480e+00
1.999999999999571187e+01,3.000000000289497759e+00,9.999999999969576336e+00,6.599999999999668354e-01,1.570000000000537854e+00,2.869999999999959982e+03,-2.174999999999500666e+00,-4.945000000002775842e+00,1.339790604783347838e+01,-2.163784785709569558e+00
2.000000000000082068e+01,2.999999996819148862e+00,1.000000000001906386e+01,6.600000000000977307e-01,1.570000000000016271e+00,2.870000000000010004e+03,-2.174999999999928324e+00,-4.945000000000438156e+00,1.340076837803254683e+01,-2.125769680174744103e+00
2.000000000000078870e+01,2.999999996224647969e+00,1.000000000001440448e+01,6.600000000000825207e-01,1.570000000000053353e+00,2.870000000000003638e+03,-2.174999999999923439e+00,-4.945000000000489671e+00,1.339939529362985127e+01,-2.131277206415676417e+00
1.999999999999934275e+01,2.999999999065024792e+00,1.000000000002330403e+01,6.600000000000419975e-01,1.570000000000153939e+00,2.869999999999994088e+03,-2.174999999999809308e+00,-4.945000000000526974e+00,1.341651111767580495e+01,-2.131362314073225406e+00
1.999999999999786482e+01,2.999999998942361135e+00,1.000000000000341061e+01,6.600000000000172395e-01,1.570000000000158602e+00,2.869999999999993179e+03,-2.174999999999908784e+00,-4.945000000000989715e+00,1.341298140203250711e+01,-2.140532892428986145e+00
1.999999999999783640e+01,3.000000002023357037e+00,1.000000000002455280e+01,6.599999999999841549e-01,1.570000000000339346e+00,2.869999999999958618e+03,-2.174999999999676525e+00,-4.945000000001471996e+00,1.343620207089456819e+01,-2.130298798818224704e+00
1.999999999999858247e+01,2.999999998645312083e+00,9.999999999984357402e+00,6.599999999999851541e-01,1.570000000000236096e+00,2.869999999999992269e+03,-2.174999999999767120e+00,-4.945000000001482654e+00,1.341246989071653850e+01,-2.136055267775866184e+00
2.000000000000039790e+01,2.999999995988151369e+00,1.000000000002397016e+01,6.599999999999554001e-01,1.570000000000071561e+00,2.869999999999995453e+03,-2.174999999999996270e+00,-4.945000000000359996e+00,1.341489380154686017e+01,-2.162824124616804511e+00
1.999999999999989342e+01,3.000000000543051382e+00,1.000000000003048584e+01,6.599999999999175415e-01,1.570000000000121743e+00,2.870000000000000455e+03,-2.174999999999890132e+00,-4.945000000000681517e+00,1.343087107062640762e+01,-2.138519832151128508e+00
2.000000000000086686e+01,2.999999998455270767e+00,1.000000000004479439e+01,6.599999999999862643e-01,1.570000000000016493e+00,2.869999999999996362e+03,-2.174999999999944755e+00,-4.945000000000034923e+00,1.341099675945971903e+01,-2.170592638120081741e+00
1.999999999999442224e+01,2.999999999508496273e+00,9.999999999978330223e+00,6.599999999999656142e-01,1.570000000000563167e+00,2.869999999999978172e+03,-2.174999999999443379e+00,-4.945000000003385132e+00,1.339687279831512612e+01,-2.175888323104418820e+00
1.999999999999529621e+01,3.000000002752087003e+00,9.999999999938093964e+00,6.600000000000172395e-01,1.570000000000478790e+00,2.869999999999957254e+03,-2.174999999999556177e+00,-4.945000000002871765e+00,1.341231501944669269e+01,-2.179559290710477271e+00
1.999999999999581135e+01,3.000000001756938151e+00,9.999999999956107999e+00,6.599999999999657252e-01,1.570000000000508544e+00,2.869999999999957708e+03,-2.174999999999569500e+00,-4.945000000002479190e+00,1.340373435184105411e+01,-2.185404758406600312e+00
1.999999999999672795e+01,3.000000000694200253e+00,9.999999999943591789e+00,6.599999999999943689e-01,1.570000000000525198e+00,2.869999999999963620e+03,-2.174999999999543743e+00,-4.945000000002898410e+00,1.339961945671609911e+01,-2.172736202996683019e+00
1.999999999999781153e+01,3.000000002152075851e+00,9.999999999982742693e+00,6.599999999999992539e-01,1.570000000000267848e+00,2.869999999999966803e+03,-2.174999999999731592e+00,-4.945000000001430251e+00,1.341454525687526456e+01,-2.158926777458183288e+00
1.999999999999808509e+01,3.000000003120150804e+00,1.000000000000227729e+01,6.600000000000020295e-01,1.570000000000358886e+00,2.870000000000000455e+03,-2.174999999999630784e+00,-4.945000000002408136e+00,1.341530597864707097e+01,-2.135787914786783759e+00
1.999999999999831246e+01,3.000000002154350920e+00,9.999999999988620658e+00,6.599999999999575095e-01,1.570000000000341123e+00,2.869999999999994543e+03,-2.174999999999694733e+00,-4.945000000001893881e+00,1.340519106109325520e+01,-2.143786113015390349e+00
1.999999999999721467e+01,3.000000001147931528e+00,9.999999999984483523e+00,6.599999999999228706e-01,1.570000000000481011e+00,2.869999999999975444e+03,-2.174999999999540190e+00,-4.945000000002252705e+00,1.341049917429151073e+01,-2.142139367652887927e+00
1.999999999999607070e+01,3.000000000656985133e+00,9.999999999981151078e+00,6.600000000000427747e-01,1.570000000000449036e+00,2.869999999999967258e+03,-2.174999999999557954e+00,-4.945000000002779394e+00,1.343074419602879743e+01,-2.133913402285438909e+00
1.999999999999655032e+01,3.000000001819523199e+00,9.999999999981826093e+00,6.600000000000040279e-01,1.570000000000447482e+00,2.869999999999959073e+03,-2.174999999999597478e+00,-4.945000000002433005e+00,1.342475428310153518e+01,-2.121467088656027400e+00
2.000000000000013145e+01,2.999999998259461176e+00,1.000000000001972111e+01,6.599999999999698330e-01,1.570000000000151719e+00,2.869999999999975444e+03,-2.174999999999853717e+00,-4.945000000000598916e+00,1.340715328433557474e+01,-2.155570658177855314e+00
1.999999999999724309e+01,3.000000000270867329e+00,1.000000000005371525e+01,6.599999999999945910e-01,1.570000000000395524e+00,2.869999999999982720e+03,-2.174999999999605915e+00,-4.945000000002169216e+00,1.341156379526126585e+01,-2.125413215166802150e+00
1.999999999999703704e+01,3.000000000447791138e+00,1.000000000006251710e+01,6.599999999999890399e-01,1.570000000000478124e+00,2.869999999999979536e+03,-2.174999999999507327e+00,-4.945000000002448104e+00,1.342447549097945547e+01,-2.112044592818538291e+00
1.999999999999872458e+01,3.000000000601193317e+00,1.000000000002213341e+01,6.600000000000089129e-01,1.570000000000387086e+00,2.869999999999972260e+03,-2.174999999999527756e+00,-4.945000000002081286e+00,1.344788229019515846e+01,-2.132842102238611037e+00
2.000000000000085976e+01,2.999999997821758857e+00,1.000000000003695533e+01,6.599999999999951461e-01,1.569999999999905915e+00,2.869999999999994088e+03,-2.175000000000057110e+00,-4.944999999999664553e+00,1.342359553310483555e+01,-2.142989448227982319e+00
2.000000000000150635e+01,2.999999998059688089e+00,1.000000000001718625e+01,6.599999999999652811e-01,1.570000000000163487e+00,2.870000000000001819e+03,-2.174999999999801759e+00,-4.945000000000725926e+00,1.339763356342322886e+01,-2.130699865066762122e+00
1.999999999999983658e+01,3.000000000640573372e+00,9.999999999983907983e+00,6.599999999999494049e-01,1.570000000000137730e+00,2.869999999999967258e+03,-2.174999999999954525e+00,-4.945000000000528750e+00,1.339940468220513026e+01,-2.168103137077372455e+00
2.000000000000062528e+01,3.000000000660086208e+00,1.000000000003862155e+01,6.599999999999999201e-01,1.569999999999978080e+00,2.869999999999985448e+03,-2.175000000000022027e+00,-4.945000000000198348e+00,1.342595246911407614e+01,-2.155138928947452293e+00
2.000000000000160227e+01,2.999999998681722957e+00,9.999999999975806020e+00,6.600000000000303402e-01,1.570000000000045137e+00,2.869999999999960892e+03,-2.175000000000021583e+00,-4.944999999999651230e+00,1.341064480556805272e+01,-2.160736279313811625e+00
2.000000000000209965e+01,3.000000000498355579e+00,9.999999999999651834e+00,6.600000000000584288e-01,1.569999999999897033e+00,2.869999999999971806e+03,-2.175000000000118838e+00,-4.944999999999442508e+00,1.338999955646420581e+01,-2.171408727366490155e+00
1.999999999999774758e+01,2.999999999719065613e+00,1.000000000000123457e+01,6.599999999999983658e-01,1.570000000000207008e+00,2.870000000000000909e+03,-2.174999999999752465e+00,-4.945000000001495088e+00,1.343807424089834335e+01,-2.149278652271441548e+00
1.999999999999828404e+01,2.999999999040478205e+00,1.000000000001487344e+01,6.599999999999831557e-01,1.570000000000249196e+00,2.869999999999986358e+03,-2.174999999999786660e+00,-4.945000000000975504e+00,1.340167055177116495e+01,-2.171925827437434453e+00
2.000000000000060396e+01,3.000000001262224547e+00,9.999999999986350474e+00,6.600000000000111333e-01,1.570000000000025597e+00,2.869999999999978172e+03,-2.174999999999974065e+00,-4.944999999999859952e+00,1.340905214699760251e+01,-2.155356844856023191e+00
1.999999999999944933e+01,2.999999999980796250e+00,1.000000000002084910e+01,6.599999999999690559e-01,1.570000000000241647e+00,2.869999999999993634e+03,-2.174999999999806644e+00,-4.945000000001137153e+00,1.340661532249140819e+01,-2.125464264937931169e+00
1.999999999999919353e+01,2.999999999485599034e+00,1.000000000003191047e+01,6.599999999999797140e-01,1.570000000000243201e+00,2.869999999999991815e+03,-2.174999999999771116e+00,-4.945000000001316565e+00,1.340940673080478440e+01,-2.117594754147363201e+00
1.999999999999811351e+01,3.000000000193336458e+00,1.000000000001569589e+01,6.600000000000337819e-01,1.570000000000245199e+00,2.869999999999977717e+03,-2.174999999999807976e+00,-4.945000000001241958e+00,1.344002237434888691e+01,-2.134536810601279200e+00
2.000000000000158096e+01,3.000000001493277058e+00,1.000000000005390000e+01,6.599999999999726086e-01,1.570000000000106866e+00,2.869999999999997272e+03,-2.174999999999864375e+00,-4.945000000000255191e+00,1.340708065404277249e+01,-2.159911707907121947e+00
1.999999999999989697e+01,2.999999999846440613e+00,1.000000000002599698e+01,6.599999999999707212e-01,1.570000000000203455e+00,2.869999999999987267e+03,-2.174999999999853717e+00,-4.945000000000365326e+00,1.338474222184175311e+01,-2.131024506055814616e+00
2.000000000000122569e+01,2.999999999801955752e+00,1.000000000003111644e+01,6.599999999999496270e-01,1.570000000000093987e+00,2.869999999999994088e+03,-2.175000000000011369e+00,-4.944999999999645901e+00,1.338389179658810413e+01,-2.133018649686736712e+00
2.000000000000114042e+01,2.999999999378003324e+00,1.000000000005005774e+01,6.600000000000197931e-01,1.570000000000110640e+00,2.870000000000003183e+03,-2.174999999999841283e+00,-4.945000000000536744e+00,1.340249711665049404e+01,-2.126518522416021906e+00
2.000000000000234124e+01,2.999999999083525104e+00,1.000000000004787992e+01,6.600000000000365574e-01,1.569999999999982299e+00,2.870000000000013188e+03,-2.175000000000018474e+00,-4.944999999999852847e+00,1.339381837922983642e+01,-2.125915638996136892e+00
2.000000000000139622e+01,3.000000000533733058e+00,1.000000000002474643e+01,6.600000000000183498e-01,1.570000000000075557e+00,2.869999999999991360e+03,-2.174999999999928768e+00,-4.945000000000324469e+00,1.338834500557703322e+01,-2.135050383925648276e+00
2.000000000000114753e+01,3.000000000016977975e+00,1.000000000002111022e+01,6.600000000000253442e-01,1.570000000000169260e+00,2.869999999999993634e+03,-2.174999999999835509e+00,-4.945000000000909779e+00,1.338874345728741666e+01,-2.131345028585865720e+00
1.999999999999991829e+01,3.000000000332609496e+00,1.000000000002063061e+01,6.599999999999025535e-01,1.570000000000250084e+00,2.869999999999988177e+03,-2.174999999999772893e+00,-4.945000000000781881e+00,1.341779237130289282e+01,-2.136691737636588595e+00
1.999999999999768718e+01,3.000000002083121231e+00,9.999999999999994671e+00,6.599999999999922595e-01,1.570000000000275842e+00,2.869999999999966803e+03,-2.174999999999799982e+00,-4.945000000001369855e+00,1.340221550110800841e+01,-2.150083506471958561e+00
1.999999999999822009e+01,2.999999999737472667e+00,9.999999999948141038e+00,6.599999999999894840e-01,1.570000000000222773e+00,2.869999999999981810e+03,-2.174999999999774669e+00,-4.945000000001423146e+00,1.343132437014621772e+01,-2.160247058898038919e+00
1.999999999999666755e+01,3.000000000403566958e+00,1.000000000000953015e+01,6.599999999999529576e-01,1.570000000000443041e+00,2.869999999999977263e+03,-2.174999999999558842e+00,-4.945000000002354845e+00,1.341246588881727675e+01,-2.134375707899442975e+00
1.999999999999883471e+01,2.999999999157701325e+00,1.000000000001125144e+01,6.600000000000240119e-01,1.570000000000244089e+00,2.869999999999997272e+03,-2.174999999999681854e+00,-4.945000000001322782e+00,1.342559898803665774e+01,-2.128995345791692806e+00
1.999999999999621281e+01,3.000000000778153098e+00,1.000000000001895728e+01,6.600000000000276756e-01,1.570000000000432827e+00,2.869999999999989541e+03,-2.174999999999475353e+00,-4.945000000002633733e+00,1.345644998374925905e+01,-2.111211772754278293e+00
1.999999999999937472e+01,2.999999999897819070e+00,1.000000000007508483e+01,6.599999999999399680e-01,1.570000000000115303e+00,2.870000000000006821e+03,-2.174999999999846612e+00,-4.945000000000230322e+00,1.341870487829328162e+01,-2.130470561263706930e+00
1.999999999999928235e+01,2.999999998162483639e+00,1.000000000002983924e+01,6.599999999999789368e-01,1.570000000000210560e+00,2.869999999999997272e+03,-2.174999999999851941e+00,-4.945000000001104290e+00,1.339285033037668171e+01,-2.136781049515235509e+00
1.999999999999983302e+01,2.999999997930944851e+00,1.000000000002928680e+01,6.599999999999783817e-01,1.570000000000156382e+00,2.870000000000003638e+03,-2.174999999999892797e+00,-4.945000000000809415e+00,1.338379827086475515e+01,-2.145569417934646950e+00
1.999999999999927169e+01,2.999999998146844593e+00,1.000000000002714806e+01,6.600000000000039169e-01,1.570000000000103979e+00,2.869999999999996362e+03,-2.174999999999889244e+00,-4.945000000000504770e+00,1.337033092422439218e+01,-2.174419924205368115e+00
1.999999999999984013e+01,2.999999999454453725e+00,1.000000000000306599e+01,6.600000000000004752e-01,1.570000000000006946e+00,2.870000000000006821e+03,-2.175000000000095302e+00,-4.945000000000125517e+00,1.340872488652594541e+01,-2.134326755342446980e+00
1.999999999999945999e+01,3.000000001160171070e+00,1.000000000006980905e+01,6.599999999999990319e-01,1.570000000000137730e+00,2.869999999999988177e+03,-2.174999999999863043e+00,-4.945000000000879581e+00,1.343790496997266537e+01,-2.123570816481080481e+00
1.999999999999795008e+01,2.999999999672642303e+00,1.000000000005703882e+01,6.599999999999301981e-01,1.570000000000283835e+00,2.869999999999995907e+03,-2.174999999999723599e+00,-4.945000000001488871e+00,1.342567835177084135e+01,-2.134377148665872692e+00
1.999999999999979394e+01,2.999999998841422322e+00,1.000000000000690115e+01,6.600000000000098010e-01,1.570000000000151497e+00,2.869999999999989541e+03,-2.174999999999893241e+00,-4.945000000000474571e+00,1.342275201626756598e+01,-2.144425904797035098e+00
1.999999999999769074e+01,3.000000003261456438e+00,1.000000000001459632e+01,6.599999999999502931e-01,1.570000000000276730e+00,2.869999999999989086e+03,-2.174999999999752465e+00,-4.945000000001542162e+00,1.340858513044049083e+01,-2.169521483897281389e+00
1.999999999999701217e+01,3.000000004174400825e+00,9.999999999965584863e+00,6.599999999999924816e-01,1.570000000000212781e+00,2.869999999999966803e+03,-2.174999999999851941e+00,-4.945000000001253504e+00,1.340690210719298392e+01,-2.175031760331322950e+00
1.999999999999677769e+01,3.000000002416649103e+00,1.000000000001468337e+01,6.599999999999938138e-01,1.570000000000540519e+00,2.869999999999968622e+03,-2.174999999999452260e+00,-4.945000000002894858e+00,1.341515085686458342e+01,-2.139362744001562788e+00
2.000000000000040146e+01,3.000000000120809140e+00,1.000000000005053558e+01,6.600000000000020295e-01,1.570000000000100870e+00,2.869999999999981355e+03,-2.174999999999909228e+00,-4.945000000000189466e+00,1.340378902283897489e+01,-2.134630346733283002e+00
1.999999999999840838e+01,3.000000000012017054e+00,9.999999999986888710e+00,6.599999999999258682e-01,1.570000000000283169e+00,2.869999999999948159e+03,-2.174999999999683631e+00,-4.945000000001433804e+00,1.340735047841641858e+01,-2.177668915338170752e+00
1.999999999999833022e+01,2.999999999112056948e+00,1.000000000001962519e+01,6.599999999999140998e-01,1.570000000000252527e+00,2.869999999999991815e+03,-2.174999999999797318e+00,-4.945000000001070539e+00,1.341152215927430902e+01,-2.129942351064748163e+00
1.999999999999820588e+01,2.999999999385619898e+00,9.999999999997269740e+00,6.599999999999773825e-01,1.570000000000341567e+00,2.869999999999971351e+03,-2.174999999999593925e+00,-4.945000000001967599e+00,1.343071852447725156e+01,-2.156730297615817804e+00
1.999999999999965539e+01,2.999999998613126273e+00,1.000000000001870504e+01,6.600000000000448841e-01,1.570000000000053353e+00,2.869999999999981355e+03,-2.174999999999761346e+00,-4.945000000000583817e+00,1.341376238010060895e+01,-2.177026766602091268e+00
2.000000000000105516e+01,2.999999999809405793e+00,1.000000000002015099e+01,6.600000000000201261e-01,1.570000000000028706e+00,2.869999999999983174e+03,-2.174999999999929656e+00,-4.945000000000155715e+00,1.341857792688538886e+01,-2.167896339746132828e+00
1.999999999999947420e+01,2.999999999692631647e+00,9.999999999998102851e+00,6.599999999999583977e-01,1.570000000000231655e+00,2.869999999999982720e+03,-2.174999999999673417e+00,-4.945000000001147811e+00,1.343117542391926023e+01,-2.122870146788400803e+00
1.999999999999867129e+01,2.999999998853294603e+00,1.000000000001032596e+01,6.599999999999954792e-01,1.570000000000151719e+00,2.869999999999970896e+03,-2.174999999999750244e+00,-4.945000000000930207e+00,1.341689062440687508e+01,-2.148386444911623894e+00
1.999999999999464961e+01,2.999999998482731467e+00,9.999999999944101603e+00,6.599999999999049960e-01,1.570000000000545626e+00,2.869999999999952706e+03,-2.174999999999432720e+00,-4.945000000002833573e+00,1.342325716943587111e+01,-2.171770047459778308e+00
1.999999999999967670e+01,2.999999999811445495e+00,1.000000000002363088e+01,6.599999999999351941e-01,1.570000000000181029e+00,2.869999999999986358e+03,-2.174999999999843059e+00,-4.945000000000910667e+00,1.339836622797001375e+01,-2.136422585029318810e+00
1.999999999999923617e+01,3.000000000386026322e+00,1.000000000002260592e+01,6.599999999999182076e-01,1.570000000000292939e+00,2.869999999999979991e+03,-2.174999999999724043e+00,-4.945000000001351204e+00,1.339806067253532085e+01,-2.121374615326089508e+00
1.999999999999772271e+01,2.999999997930631768e+00,9.999999999988014920e+00,6.600000000000595390e-01,1.570000000000290719e+00,2.870000000000003183e+03,-2.174999999999638778e+00,-4.945000000001797069e+00,1.340282796928045350e+01,-2.152500809156017603e+00
1.999999999999898037e+01,2.999999997539446905e+00,9.999999999980591525e+00,6.600000000000315614e-01,1.570000000000182361e+00,2.870000000000000909e+03,-2.174999999999851052e+00,-4.945000000000963958e+00,1.343364039517182462e+01,-2.160171029113273633e+00
1.999999999999251443e+01,3.000000001308118502e+00,9.999999999959570118e+00,6.599999999999883737e-01,1.570000000000854490e+00,2.869999999999947704e+03,-2.174999999999034372e+00,-4.945000000004986518e+00,1.344132102508927673e+01,-2.149051220080638647e+00
1.999999999999957723e+01,3.000000001718015508e+00,1.000000000002919620e+01,6.599999999999348610e-01,1.570000000000239426e+00,2.869999999999980446e+03,-2.174999999999802203e+00,-4.945000000000911555e+00,1.339688669040918789e+01,-2.138732815217263550e+00
2.000000000000158806e+01,2.999999997115795569e+00,1.000000000003363176e+01,6.599999999999600631e-01,1.570000000000032481e+00,2.870000000000014097e+03,-2.175000000000000711e+00,-4.944999999999814655e+00,1.339438894487270559e+01,-2.119932054371715058e+00
2.000000000000084910e+01,2.999999998012590652e+00,1.000000000003816147e+01,6.599999999999468514e-01,1.570000000000118856e+00,2.870000000000007276e+03,-2.174999999999934541e+00,-4.945000000000243645e+00,1.339712435241535715e+01,-2.127202191661776709e+00
1.999999999999979394e+01,2.999999998530854750e+00,1.000000000001492140e+01,6.599999999999732747e-01,1.570000000000217666e+00,2.870000000000003638e+03,-2.174999999999825739e+00,-4.945000000000805862e+00,1.338335977519569120e+01,-2.146391870609238417e+00
2.000000000000126477e+01,2.999999999095333436e+00,1.000000000002420109e+01,6.599999999999921485e-01,1.570000000000157492e+00,2.870000000000001819e+03,-2.174999999999880362e+00,-4.945000000000474571e+00,1.336815367173454483e+01,-2.150130219369515761e+00
2.000000000000013500e+01,2.999999999396749217e+00,1.000000000003002754e+01,6.599999999999767164e-01,1.570000000000143725e+00,2.870000000000001819e+03,-2.174999999999917666e+00,-4.945000000000302265e+00,1.337032021670713000e+01,-2.147903114656498857e+00
1.999999999999955591e+01,3.000000000668947120e+00,1.000000000001723954e+01,6.599999999999693889e-01,1.570000000000281171e+00,2.869999999999989541e+03,-2.174999999999756017e+00,-4.945000000001117613e+00,1.337860596446045669e+01,-2.159862399616125472e+00
1.999999999999536016e+01,2.999999998777906907e+00,1.000000000000116174e+01,6.600000000000381117e-01,1.570000000000376650e+00,2.869999999999988631e+03,-2.174999999999632561e+00,-4.945000000002065299e+00,1.340941965154599735e+01,-2.137553756490767842e+00
1.999999999999926459e+01,2.999999997731380486e+00,1.000000000006085799e+01,6.599999999999696110e-01,1.570000000000278062e+00,2.869999999999998636e+03,-2.174999999999827072e+00,-4.945000000000986162e+00,1.340489637891065833e+01,-2.111700335786338645e+00
2.000000000000050093e+01,2.999999997608890467e+00,1.000000000005270273e+01,6.600000000000056932e-01,1.570000000000056684e+00,2.870000000000003638e+03,-2.175000000000057998e+00,-4.944999999999799556e+00,1.341005379851043067e+01,-2.119151623225866476e+00
1.999999999999958789e+01,3.000000000748589635e+00,1.000000000002839684e+01,6.599999999999236477e-01,1.570000000000287832e+00,2.869999999999981355e+03,-2.174999999999750244e+00,-4.945000000000804974e+00,1.342287568080677751e+01,-2.119304918889505007e+00
2.000000000000049383e+01,3.000000001000013405e+00,1.000000000003167955e+01,6.599999999999223155e-01,1.570000000000200790e+00,2.869999999999958618e+03,-2.174999999999799094e+00,-4.945000000000544738e+00,1.343104926390930665e+01,-2.132235070568339719e+00
1.999999999999971934e+01,3.000000002079039607e+00,1.000000000003662315e+01,6.599999999999607292e-01,1.570000000000273177e+00,2.869999999999957708e+03,-2.174999999999740030e+00,-4.945000000000795204e+00,1.343459661162006746e+01,-2.127532061404083574e+00
1.999999999999909051e+01,3.000000003092193612e+00,1.000000000002974687e+01,6.599999999999620615e-01,1.570000000000396634e+00,2.869999999999986812e+03,-2.174999999999679190e+00,-4.945000000001465779e+00,1.339877449416523447e+01,-2.119712683471655978e+00
1.999999999999770850e+01,3.000000002443872660e+00,1.000000000002509637e+01,6.599999999999400790e-01,1.570000000000573825e+00,2.869999999999979991e+03,-2.174999999999464695e+00,-4.945000000002555574e+00,1.339445209800033965e+01,-2.123556192287761046e+00
1.999999999999714717e+01,3.000000004597199066e+00,1.000000000002342126e+01,6.599999999999686118e-01,1.570000000000493001e+00,2.869999999999970441e+03,-2.174999999999557510e+00,-4.945000000002266027e+00,1.340046503064259475e+01,-2.139298681097106414e+00
1.999999999999725731e+01,3.000000003923382508e+00,1.000000000003713119e+01,6.599999999999386358e-01,1.570000000000500995e+00,2.869999999999978172e+03,-2.174999999999590816e+00,-4.945000000002176321e+00,1.339888493368921374e+01,-2.124302857143892886e+00
1.999999999999743849e+01,2.999999999903969261e+00,9.999999999981973531e+00,6.599999999999736078e-01,1.570000000000404849e+00,2.869999999999988177e+03,-2.174999999999616573e+00,-4.945000000002027996e+00,1.341547848707213397e+01,-2.131934777266379477e+00
1.999999999999885603e+01,2.999999997980782318e+00,9.999999999995962341e+00,6.599999999999810463e-01,1.570000000000242979e+00,2.869999999999982720e+03,-2.174999999999776001e+00,-4.945000000001078533e+00,1.343885055715187349e+01,-2.146263232167443746e+00
2.000000000000001776e+01,3.000000000148474566e+00,9.999999999974528819e+00,6.599999999999468514e-01,1.570000000000074891e+00,2.869999999999992269e+03,-2.174999999999996714e+00,-4.944999999999971863e+00,1.343538438167879612e+01,-2.144607620444667351e+00
1.999999999999761258e+01,3.000000002788271836e+00,1.000000000004239276e+01,6.599999999999001110e-01,1.570000000000180362e+00,2.870000000000002274e+03,-2.174999999999893241e+00,-4.945000000001097185e+00,1.338500516235662552e+01,-2.134990902799885237e+00
1.999999999999642597e+01,3.000000002510905706e+00,1.000000000003724487e+01,6.599999999998908962e-01,1.570000000000329132e+00,2.870000000000000000e+03,-2.174999999999722711e+00,-4.945000000001961382e+00,1.338906686917046684e+01,-2.137090398430641081e+00
1.999999999999835865e+01,3.000000002327423143e+00,1.000000000002116707e+01,6.599999999999328626e-01,1.570000000000317808e+00,2.869999999999994998e+03,-2.174999999999685851e+00,-4.945000000001755325e+00,1.340387928486570956e+01,-2.126780412457904834e+00
1.999999999999510436e+01,3.000000000556130697e+00,9.999999999981232790e+00,6.599999999999613953e-01,1.570000000000478568e+00,2.869999999999986358e+03,-2.174999999999535305e+00,-4.945000000002717222e+00,1.340254718492285768e+01,-2.140749429634793977e+00
1.999999999999443290e+01,3.000000000353017171e+00,9.999999999952416729e+00,6.599999999999541789e-01,1.570000000000573381e+00,2.869999999999974989e+03,-2.174999999999350564e+00,-4.945000000003227036e+00,1.337689015185602770e+01,-2.180764814930687745e+00
1.999999999999820943e+01,2.999999996776988365e+00,1.000000000001724842e+01,6.600000000000237899e-01,1.570000000000373985e+00,2.869999999999970441e+03,-2.174999999999655209e+00,-4.945000000002250928e+00,1.337531504441862573e+01,-2.172769810040297678e+00
1.999999999999833733e+01,2.999999999073443835e+00,1.000000000000788347e+01,6.600000000000250111e-01,1.570000000000382645e+00,2.869999999999978627e+03,-2.174999999999634337e+00,-4.945000000002328200e+00,1.339093273783565508e+01,-2.162533882723396417e+00
1.999999999999419487e+01,3.000000001588735810e+00,1.000000000004298961e+01,6.600000000000080247e-01,1.570000000000716600e+00,2.869999999999993179e+03,-2.174999999999215117e+00,-4.945000000004282192e+00,1.341934145488514751e+01,-2.131368365753818050e+00
1.999999999999978328e+01,2.999999997483373981e+00,1.000000000001827161e+01,6.600000000000183498e-01,1.570000000000195017e+00,2.869999999999996817e+03,-2.174999999999857270e+00,-4.945000000001043006e+00,1.340383739894355131e+01,-2.109707684443547837e+00
2.000000000000056488e+01,2.999999998268980672e+00,9.999999999998625100e+00,6.600000000000288969e-01,1.570000000000142615e+00,2.869999999999988177e+03,-2.174999999999891021e+00,-4.945000000000685958e+00,1.340219775686660064e+01,-2.131659477061260688e+00
2.000000000000045475e+01,3.000000001580753306e+00,1.000000000001884537e+01,6.599999999999629496e-01,1.570000000000162821e+00,2.869999999999956344e+03,-2.174999999999837286e+00,-4.945000000000583817e+00,1.342659802306627448e+01,-2.165234379879300342e+00
1.999999999999507239e+01,2.999999998829462111e+00,9.999999999967835507e+00,6.600000000000022515e-01,1.570000000000406626e+00,2.869999999999976808e+03,-2.174999999999579714e+00,-4.945000000002488960e+00,1.341207348809803968e+01,-2.156533260151951570e+00
1.999999999999520384e+01,3.000000000630083541e+00,9.999999999983668175e+00,6.600000000000050271e-01,1.570000000000552953e+00,2.869999999999955435e+03,-2.174999999999486899e+00,-4.945000000003119567e+00,1.341933054675723369e+01,-2.149674972506946613e+00
1.999999999999980815e+01,2.999999998124960765e+00,1.000000000001020517e+01,6.600000000000176836e-01,1.570000000000057128e+00,2.869999999999994543e+03,-2.174999999999894129e+00,-4.945000000000545626e+00,1.342078038088297021e+01,-2.139077210395974316e+00
1.999999999999728928e+01,2.999999999007763041e+00,9.999999999996743938e+00,6.599999999999741629e-01,1.570000000000391749e+00,2.869999999999973625e+03,-2.174999999999609024e+00,-4.945000000002046647e+00,1.340164249790617035e+01,-2.131556995468820492e+00
1.999999999999794298e+01,2.999999998069801777e+00,1.000000000001698375e+01,6.599999999999657252e-01,1.570000000000291163e+00,2.869999999999987267e+03,-2.174999999999700506e+00,-4.945000000001505747e+00,1.339920339585200892e+01,-2.126469864644911834e+00
1.999999999999853628e+01,2.999999998695969339e+00,9.999999999984364507e+00,6.599999999999880407e-01,1.570000000000164153e+00,2.869999999999989086e+03,-2.174999999999875477e+00,-4.945000000000606022e+00,1.339940723006586687e+01,-2.150112562721222531e+00
1.999999999999866418e+01,3.000000002556515888e+00,1.000000000003379874e+01,6.599999999999353051e-01,1.570000000000376206e+00,2.869999999999988177e+03,-2.174999999999681854e+00,-4.945000000001463114e+00,1.341254975271027838e+01,-2.142996773405031696e+00
1.999999999999015543e+01,3.000000000509537745e+00,9.999999999992539301e+00,6.599999999999878186e-01,1.570000000000954854e+00,2.869999999999958618e+03,-2.174999999998974864e+00,-4.945000000005674856e+00,1.343083370030743673e+01,-2.125058498215026237e+00
1.999999999999923972e+01,3.000000003032597284e+00,1.000000000001507594e+01,6.599999999999678346e-01,1.570000000000296048e+00,2.869999999999963165e+03,-2.174999999999728040e+00,-4.945000000001408047e+00,1.338901740880470470e+01,-2.156184783032535801e+00
