1.999999999999782219e+01,3.000000004892247496e+00,1.000000000001117328e+01,6.599999999999586198e-01,1.570000000000306928e+00,2.870000000000000455e+03,-2.174999999999606803e+00,-4.945000000001967599e+00,1.354724594037129393e+01,-2.034896068469673303e+00
1.999999999999887379e+01,3.000000005787308410e+00,1.000000000001552003e+01,6.599999999999860423e-01,1.570000000000235207e+00,2.870000000000001364e+03,-2.174999999999762679e+00,-4.945000000001401830e+00,1.351444719542434569e+01,-2.030599976880077318e+00
2.000000000000117595e+01,2.999999995191572122e+00,1.000000000000785150e+01,6.600000000000084688e-01,1.570000000000013163e+00,2.870000000000001364e+03,-2.175000000000047784e+00,-4.944999999999995843e+00,1.337173714517238388e+01,-2.131619709152615894e+00
1.999999999999906919e+01,2.999999998513766641e+00,1.000000000001186251e+01,6.599999999999642819e-01,1.570000000000240314e+00,2.869999999999995453e+03,-2.174999999999714273e+00,-4.945000000001281926e+00,1.339836763105590300e+01,-2.132797980085293421e+00
1.999999999999823075e+01,2.999999997655327100e+00,1.000000000000307132e+01,6.599999999999501821e-01,1.570000000000279838e+00,2.869999999999992269e+03,-2.174999999999621902e+00,-4.945000000001471108e+00,1.335765472286076339e+01,-2.194846747233841100e+00
2.000000000000017408e+01,2.999999998091994691e+00,9.999999999993672617e+00,6.599999999999710543e-01,1.569999999999963203e+00,2.869999999999989996e+03,-2.174999999999972733e+00,-4.944999999999787121e+00,1.339394941888548018e+01,-2.145364165324832761e+00
1.999999999999843681e+01,2.999999997187280609e+00,1.000000000000791012e+01,6.599999999999456302e-01,1.570000000000269624e+00,2.869999999999992724e+03,-2.174999999999630340e+00,-4.945000000001467555e+00,1.341197598674096803e+01,-2.130880843654885837e+00
1.999999999999862865e+01,2.999999998530517686e+00,1.000000000001622524e+01,6.599999999999479616e-01,1.570000000000220552e+00,2.869999999999988177e+03,-2.174999999999674305e+00,-4.945000000001274820e+00,1.330865124702691205e+01,-2.153085829749848301e+00
1.999999999999798561e+01,2.999999998010754343e+00,9.999999999979063858e+00,6.599999999999651701e-01,1.570000000000266072e+00,2.869999999999988177e+03,-2.174999999999644107e+00,-4.945000000001614993e+00,1.332704942906230450e+01,-2.240418159826380595e+00
2.000000000000135358e+01,2.999999998194882167e+00,9.999999999996115108e+00,6.599999999999783817e-01,1.569999999999977414e+00,2.870000000000000000e+03,-2.175000000000031353e+00,-4.944999999999857287e+00,1.334002006612952052e+01,-2.191174473821364099e+00
1.999999999999885958e+01,2.999999997396614049e+00,9.999999999992967403e+00,6.599999999999974776e-01,1.570000000000259632e+00,2.869999999999999545e+03,-2.174999999999746247e+00,-4.945000000001675389e+00,1.335103107991484883e+01,-2.165132602288871499e+00
1.999999999999712230e+01,2.999999997623567172e+00,1.000000000002405187e+01,6.599999999999496270e-01,1.570000000000477014e+00,2.869999999999991360e+03,-2.174999999999429168e+00,-4.945000000002768736e+00,1.336023426085051291e+01,-2.122262721904512706e+00
1.999999999999716849e+01,2.999999999441556042e+00,1.000000000003427125e+01,6.599999999999667244e-01,1.570000000000446372e+00,2.869999999999990450e+03,-2.174999999999493117e+00,-4.945000000002513829e+00,1.333657812438909396e+01,-2.141184613043780161e+00
1.999999999999803890e+01,2.999999998305851179e+00,1.000000000001504752e+01,6.599999999999742739e-01,1.570000000000340901e+00,2.869999999999992724e+03,-2.174999999999619238e+00,-4.945000000001789964e+00,1.338732624175110253e+01,-2.196932507725837702e+00
2.000000000000111555e+01,2.999999998233689791e+00,1.000000000000548184e+01,6.599999999999984768e-01,1.569999999999893925e+00,2.869999999999990450e+03,-2.175000000000109956e+00,-4.944999999999441620e+00,1.339144974011529676e+01,-2.226436867918160090e+00
1.999999999999853273e+01,2.999999998575533233e+00,1.000000000001101341e+01,6.599999999999752731e-01,1.570000000000188800e+00,2.869999999999982720e+03,-2.174999999999748468e+00,-4.945000000001331664e+00,1.337632336340236350e+01,-2.204302544388342611e+00
2.000000000000196820e+01,2.999999998088171527e+00,1.000000000000301448e+01,6.599999999999738298e-01,1.569999999999932117e+00,2.870000000000001364e+03,-2.175000000000078870e+00,-4.944999999999400764e+00,1.340238984823728963e+01,-2.171360408785122154e+00
1.999999999999871392e+01,2.999999996540995806e+00,9.999999999986901145e+00,6.600000000000051381e-01,1.570000000000308482e+00,2.869999999999998636e+03,-2.174999999999727152e+00,-4.945000000001710028e+00,1.340532741599073141e+01,-2.165183969572874734e+00
1.999999999999998579e+01,2.999999997385642825e+00,9.999999999996413536e+00,6.599999999999811573e-01,1.570000000000103535e+00,2.869999999999994998e+03,-2.174999999999876366e+00,-4.945000000000582929e+00,1.334305615317208193e+01,-2.124912087660879578e+00
1.999999999999859313e+01,2.999999997629805293e+00,9.999999999977978504e+00,6.599999999999776046e-01,1.570000000000290274e+00,2.869999999999995907e+03,-2.174999999999683631e+00,-4.945000000001646967e+00,1.336215885636220868e+01,-2.163843405472696269e+00
2.000000000000101608e+01,2.999999997904618354e+00,9.999999999994898303e+00,6.599999999999734968e-01,1.570000000000015605e+00,2.869999999999997272e+03,-2.174999999999978950e+00,-4.944999999999948770e+00,1.342689456945224258e+01,-2.127282416577048529e+00
2.000000000000023803e+01,2.999999997358093307e+00,1.000000000000974865e+01,6.599999999999646150e-01,1.570000000000044471e+00,2.869999999999987722e+03,-2.174999999999910116e+00,-4.945000000000201901e+00,1.343300345124912809e+01,-2.140763056669789499e+00
1.999999999999803180e+01,2.999999996385481094e+00,1.000000000000796518e+01,6.599999999999867084e-01,1.570000000000169260e+00,2.869999999999997726e+03,-2.174999999999780442e+00,-4.945000000001222418e+00,1.351827262928516227e+01,-2.141578355744041762e+00
1.999999999999798916e+01,2.999999998003191060e+00,9.999999999997822187e+00,6.600000000000102451e-01,1.570000000000107754e+00,2.869999999999993634e+03,-2.174999999999876810e+00,-4.945000000000762341e+00,1.349139381353152878e+01,-2.150332751753344596e+00
1.999999999999979750e+01,2.999999997949995389e+00,9.999999999986714627e+00,6.599999999999721645e-01,1.570000000000051799e+00,2.869999999999994088e+03,-2.174999999999897682e+00,-4.945000000000323581e+00,1.338111987109673606e+01,-2.141919043592292571e+00
1.999999999999990763e+01,2.999999997088422798e+00,9.999999999985769605e+00,6.599999999999972555e-01,1.570000000000078444e+00,2.869999999999997726e+03,-2.174999999999920330e+00,-4.945000000000453255e+00,1.332708321679884556e+01,-2.141201428311664934e+00
1.999999999999970157e+01,2.999999997493813186e+00,9.999999999971679543e+00,6.599999999999891509e-01,1.570000000000025375e+00,2.869999999999989086e+03,-2.174999999999943423e+00,-4.945000000000222329e+00,1.333799972709177339e+01,-2.189199947436387017e+00
1.999999999999935696e+01,2.999999995996607272e+00,1.000000000000115996e+01,6.600000000000002531e-01,1.570000000000191021e+00,2.870000000000003183e+03,-2.174999999999827960e+00,-4.945000000001196661e+00,1.336536198449256219e+01,-2.152526372395486831e+00
1.999999999999906208e+01,2.999999997459147583e+00,9.999999999993173461e+00,6.600000000000226796e-01,1.570000000000132401e+00,2.869999999999996362e+03,-2.174999999999903899e+00,-4.945000000000946194e+00,1.336767682417413283e+01,-2.163458129160213073e+00
2.000000000000000711e+01,2.999999999388787586e+00,9.999999999948583351e+00,6.599999999999759392e-01,1.570000000000026708e+00,2.869999999999994088e+03,-2.174999999999932765e+00,-4.945000000000058904e+00,1.338815144765252718e+01,-2.231692078367761400e+00
1.999999999999961631e+01,2.999999998241737131e+00,1.000000000000712852e+01,6.599999999999923705e-01,1.570000000000116192e+00,2.869999999999998181e+03,-2.174999999999887468e+00,-4.945000000000745466e+00,1.342082693621189016e+01,-2.171548408910954464e+00
1.999999999999773692e+01,3.000000000889262886e+00,9.999999999989794830e+00,6.599999999999933697e-01,1.570000000000396634e+00,2.869999999999997726e+03,-2.174999999999601030e+00,-4.945000000002247376e+00,1.339550137597359303e+01,-2.194950524395278713e+00
1.999999999999744560e+01,3.000000001127438143e+00,9.999999999978109955e+00,6.600000000000035838e-01,1.570000000000413953e+00,2.870000000000000000e+03,-2.174999999999590372e+00,-4.945000000002495177e+00,1.342125624591364286e+01,-2.133526213657303661e+00
1.999999999999843325e+01,2.999999999666173256e+00,1.000000000000273559e+01,6.599999999999942579e-01,1.570000000000307816e+00,2.870000000000000000e+03,-2.174999999999691624e+00,-4.945000000001687823e+00,1.337840658941839678e+01,-2.111940502431190136e+00
1.999999999999849010e+01,2.999999999057789690e+00,9.999999999989663380e+00,6.599999999999749400e-01,1.570000000000270068e+00,2.869999999999995453e+03,-2.174999999999687628e+00,-4.945000000001506635e+00,1.339785050295091295e+01,-2.137585958474664594e+00
1.999999999999932143e+01,2.999999999377107152e+00,9.999999999978927079e+00,6.599999999999848210e-01,1.570000000000177698e+00,2.869999999999997272e+03,-2.174999999999808864e+00,-4.945000000001068763e+00,1.340526345148947307e+01,-2.136245788103713128e+00
1.999999999999824496e+01,3.000000001244806036e+00,1.000000000000959588e+01,6.599999999999783817e-01,1.570000000000318474e+00,2.869999999999997726e+03,-2.174999999999659206e+00,-4.945000000001794405e+00,1.339695386368456731e+01,-2.170449376198272606e+00
1.999999999999793232e+01,3.000000000990071136e+00,1.000000000000055067e+01,6.599999999999662803e-01,1.570000000000345564e+00,2.869999999999995453e+03,-2.174999999999588596e+00,-4.945000000001896545e+00,1.335938634773466127e+01,-2.160256124389961396e+00
2.000000000000164491e+01,2.999999995122756502e+00,1.000000000000641442e+01,6.600000000000233458e-01,1.569999999999873275e+00,2.870000000000002274e+03,-2.175000000000188560e+00,-4.944999999999191154e+00,1.339491011053351599e+01,-2.191159552242698094e+00
1.999999999999910472e+01,3.000000001104799807e+00,1.000000000000055422e+01,6.600000000000070255e-01,1.570000000000022489e+00,2.869999999999995453e+03,-2.174999999999959854e+00,-4.945000000000211671e+00,1.344370100515961042e+01,-2.058980380189909365e+00
1.999999999999799272e+01,3.000000000991342564e+00,1.000000000001401723e+01,6.600000000000312284e-01,1.570000000000159268e+00,2.869999999999995453e+03,-2.174999999999871481e+00,-4.945000000000962181e+00,1.340205011434885662e+01,-2.180419393514405169e+00
1.999999999999833022e+01,3.000000001367213454e+00,1.000000000000522604e+01,6.599999999999984768e-01,1.570000000000079998e+00,2.869999999999986812e+03,-2.174999999999886580e+00,-4.945000000000323581e+00,1.337527713331666668e+01,-2.141671734071314948e+00
2.000000000000028777e+01,3.000000000403335587e+00,1.000000000000382450e+01,6.600000000000200151e-01,1.569999999999852847e+00,2.869999999999994998e+03,-2.175000000000162803e+00,-4.944999999999192042e+00,1.338622629495593053e+01,-2.180921501898686721e+00
1.999999999999993960e+01,3.000000002569807478e+00,1.000000000000815348e+01,6.600000000000328937e-01,1.569999999999793561e+00,2.869999999999990905e+03,-2.175000000000212097e+00,-4.944999999999030393e+00,1.345978146049794333e+01,-2.135640977862821810e+00
1.999999999999751310e+01,3.000000001768094116e+00,1.000000000003140954e+01,6.599999999999818234e-01,1.570000000000172591e+00,2.869999999999985448e+03,-2.174999999999756906e+00,-4.945000000000820073e+00,1.341508252921455302e+01,-2.175115283495989260e+00
2.000000000000059686e+01,3.000000002776912034e+00,1.000000000001847411e+01,6.599999999999922595e-01,1.569999999999827978e+00,2.869999999999990905e+03,-2.175000000000138822e+00,-4.944999999998840323e+00,1.337806028893201393e+01,-2.199927603433441181e+00
1.999999999999974420e+01,3.000000003339498900e+00,1.000000000001065814e+01,6.599999999999870415e-01,1.569999999999879936e+00,2.869999999999984993e+03,-2.175000000000071765e+00,-4.944999999999128981e+00,1.344727160180438830e+01,-2.137487532679576585e+00
1.999999999999641531e+01,3.000000001758420964e+00,1.000000000001019096e+01,6.599999999999824896e-01,1.570000000000332463e+00,2.869999999999983629e+03,-2.174999999999590816e+00,-4.945000000001785523e+00,1.331243348470663257e+01,-2.247163487086027533e+00
1.999999999999771561e+01,3.000000001439647512e+00,1.000000000003143619e+01,6.599999999999879297e-01,1.570000000000155715e+00,2.869999999999989541e+03,-2.174999999999763123e+00,-4.945000000001040341e+00,1.337128542548885868e+01,-2.175743524973544396e+00
1.999999999999872102e+01,3.000000003781857494e+00,9.999999999999152678e+00,6.600000000000084688e-01,1.570000000000089768e+00,2.869999999999993179e+03,-2.174999999999905231e+00,-4.945000000000409734e+00,1.333153088377082973e+01,-2.223256782159641620e+00
1.999999999999739941e+01,3.000000000366169317e+00,1.000000000002677325e+01,6.599999999999728306e-01,1.570000000000131068e+00,2.869999999999980446e+03,-2.174999999999746692e+00,-4.945000000000888463e+00,1.337072284232155539e+01,-2.210841204781295311e+00
1.999999999999543832e+01,3.000000001757766377e+00,1.000000000001119282e+01,6.599999999999855982e-01,1.570000000000393747e+00,2.869999999999985903e+03,-2.174999999999496225e+00,-4.945000000002462315e+00,1.338111289435528839e+01,-2.228706903607138745e+00
1.999999999999705835e+01,2.999999999628679248e+00,9.999999999969436004e+00,6.599999999999964784e-01,1.570000000000333573e+00,2.869999999999989541e+03,-2.174999999999622791e+00,-4.945000000002258922e+00,1.337023743860039993e+01,-2.102684336295510992e+00
1.999999999999911537e+01,3.000000001464511623e+00,9.999999999981707077e+00,6.599999999999921485e-01,1.570000000000062235e+00,2.869999999999986812e+03,-2.174999999999903899e+00,-4.945000000000538520e+00,1.342567244675332105e+01,-2.091365624785407107e+00
1.999999999999871747e+01,3.000000002029184376e+00,9.999999999976564524e+00,6.599999999999960343e-01,1.570000000000116636e+00,2.869999999999988177e+03,-2.174999999999850608e+00,-4.945000000000876028e+00,1.340776082168050110e+01,-2.132113737829562261e+00
1.999999999999811351e+01,3.000000000729019067e+00,9.999999999982037480e+00,6.599999999999924816e-01,1.570000000000198126e+00,2.869999999999987722e+03,-2.174999999999770672e+00,-4.945000000001178897e+00,1.342730153486898104e+01,-2.149842591687509241e+00
2.000000000000122924e+01,3.000000001990131615e+00,9.999999999952084551e+00,6.600000000000216804e-01,1.569999999999751816e+00,2.869999999999990905e+03,-2.175000000000265388e+00,-4.944999999998689333e+00,1.343007951045524351e+01,-2.040741209485595231e+00
2.000000000000156675e+01,2.999999999727321232e+00,9.999999999958887997e+00,6.600000000000582068e-01,1.569999999999748930e+00,2.870000000000005457e+03,-2.175000000000339551e+00,-4.944999999998503704e+00,1.344232525502603082e+01,-2.155725613195925039e+00
1.999999999999923261e+01,3.000000000839328163e+00,9.999999999971823428e+00,6.600000000000311173e-01,1.570000000000078000e+00,2.870000000000004547e+03,-2.174999999999966516e+00,-4.945000000000311147e+00,1.344883405248882724e+01,-2.171715252785586525e+00
2.000000000000300560e+01,3.000000002159940671e+00,9.999999999955921481e+00,6.600000000000206812e-01,1.569999999999552864e+00,2.869999999999998636e+03,-2.175000000000490985e+00,-4.944999999997163442e+00,1.357156053111600080e+01,-2.300280691840877356e+00
2.000000000000256861e+01,3.000000002232666940e+00,9.999999999954431118e+00,6.600000000000074696e-01,1.569999999999592832e+00,2.869999999999996817e+03,-2.175000000000413269e+00,-4.944999999997429008e+00,1.355379646233516056e+01,-2.274778587351247605e+00
1.999999999999906919e+01,2.999999999952068119e+00,1.000000000006845546e+01,6.600000000000249001e-01,1.570000000000111751e+00,2.869999999999993634e+03,-2.174999999999891909e+00,-4.945000000000802309e+00,1.325630007878570460e+01,-2.340139073285713689e+00
1.999999999999934630e+01,2.999999998964939962e+00,1.000000000003687539e+01,6.599999999999309752e-01,1.570000000000198792e+00,2.869999999999992269e+03,-2.174999999999696509e+00,-4.945000000000903562e+00,1.352213522204101182e+01,-2.030070460778023111e+00
2.000000000000280309e+01,3.000000004980560409e+00,9.999999999995736744e+00,6.600000000000081357e-01,1.569999999999859508e+00,2.870000000000001819e+03,-2.175000000000222755e+00,-4.944999999999229345e+00,1.357796260361711127e+01,-2.309783049965341117e+00
2.000000000000540368e+01,3.000000004529620679e+00,9.999999999992811084e+00,6.599999999999940359e-01,1.569999999999487583e+00,2.869999999999996362e+03,-2.175000000000573142e+00,-4.944999999996994688e+00,1.357155359715317466e+01,-2.287074396972033519e+00
1.999999999999823430e+01,2.999999999952596585e+00,1.000000000001719869e+01,6.600000000000449951e-01,1.570000000000218554e+00,2.869999999999994998e+03,-2.174999999999855049e+00,-4.945000000001561702e+00,1.322248883945663778e+01,-2.012822472267847385e+00
1.999999999999797140e+01,2.999999998540086033e+00,1.000000000004206591e+01,6.599999999999901501e-01,1.570000000000253859e+00,2.869999999999985903e+03,-2.174999999999676970e+00,-4.945000000001533280e+00,1.328460156203648879e+01,-2.025146089242765957e+00
1.999999999999843325e+01,2.999999997465555790e+00,1.000000000002850875e+01,6.599999999999983658e-01,1.570000000000229656e+00,2.869999999999991360e+03,-2.174999999999722267e+00,-4.945000000001487095e+00,1.329857370662087668e+01,-1.956130618531903842e+00
1.999999999999829114e+01,3.000000002326322246e+00,1.000000000000960476e+01,6.599999999999816014e-01,1.570000000000230989e+00,2.869999999999987722e+03,-2.174999999999689404e+00,-4.945000000001575025e+00,1.320580815348562886e+01,-2.015964026295813838e+00
1.999999999999761968e+01,3.000000001008972905e+00,1.000000000003415934e+01,6.599999999999658362e-01,1.570000000000279394e+00,2.869999999999980901e+03,-2.174999999999602363e+00,-4.945000000001789076e+00,1.326708980188083409e+01,-2.027480531694956678e+00
1.999999999999828759e+01,3.000000000997014915e+00,1.000000000000575717e+01,6.600000000000431077e-01,1.570000000000190798e+00,2.869999999999994088e+03,-2.174999999999834177e+00,-4.945000000001556373e+00,1.324882626454404644e+01,-1.974733636677796778e+00
1.999999999999634070e+01,3.000000002619155115e+00,1.000000000002060929e+01,6.600000000000310063e-01,1.570000000000417728e+00,2.869999999999990450e+03,-2.174999999999572609e+00,-4.945000000002766960e+00,1.322444915776749674e+01,-2.045054254285774586e+00
1.999999999999715072e+01,2.999999998469803586e+00,1.000000000003798029e+01,6.600000000000323386e-01,1.570000000000345564e+00,2.869999999999991360e+03,-2.174999999999661426e+00,-4.945000000002489848e+00,1.327493249172099077e+01,-2.000538615324471525e+00
2.000000000000172307e+01,3.000000001126561511e+00,1.000000000000477662e+01,6.600000000000215694e-01,1.569999999999832196e+00,2.869999999999989996e+03,-2.175000000000231193e+00,-4.944999999999242668e+00,1.329817806729178109e+01,-2.289553148452600606e+00
1.999999999999865352e+01,3.000000001800828375e+00,1.000000000001415579e+01,6.599999999999996980e-01,1.570000000000255858e+00,2.869999999999988177e+03,-2.174999999999750244e+00,-4.945000000001817497e+00,1.321468917743776750e+01,-2.321873217131577682e+00
2.000000000000016342e+01,3.000000000045272674e+00,1.000000000001456613e+01,6.599999999999681677e-01,1.570000000000183915e+00,2.869999999999997272e+03,-2.174999999999832401e+00,-4.945000000000705498e+00,1.339221132380231261e+01,-2.203884918597200038e+00
2.000000000000395417e+01,3.000000001837978214e+00,1.000000000005422862e+01,6.599999999999783817e-01,1.569999999999707407e+00,2.870000000000001364e+03,-2.175000000000332445e+00,-4.944999999998185736e+00,1.338270020583617459e+01,-2.168519724640513235e+00
2.000000000000306244e+01,3.000000001105379788e+00,1.000000000004032685e+01,6.599999999999618394e-01,1.569999999999778240e+00,2.869999999999998636e+03,-2.175000000000229416e+00,-4.944999999998483275e+00,1.338779092060082476e+01,-2.153723015099610727e+00
2.000000000000309441e+01,2.999999999745248669e+00,1.000000000004548539e+01,6.599999999999814904e-01,1.569999999999756479e+00,2.869999999999997272e+03,-2.175000000000279599e+00,-4.944999999998499263e+00,1.336148633174407507e+01,-2.154338538730172559e+00
2.000000000000436629e+01,2.999999999566812736e+00,1.000000000001881517e+01,6.599999999999844880e-01,1.569999999999652784e+00,2.870000000000005002e+03,-2.175000000000405720e+00,-4.944999999997841122e+00,1.344369242507153928e+01,-2.167818719765272739e+00
2.000000000000334310e+01,3.000000001442618469e+00,1.000000000003087308e+01,6.600000000000064704e-01,1.569999999999770912e+00,2.870000000000001819e+03,-2.175000000000331113e+00,-4.944999999998587192e+00,1.337843335739533757e+01,-2.227892338279857221e+00
2.000000000000400036e+01,3.000000000038076209e+00,1.000000000004634693e+01,6.599999999999887068e-01,1.569999999999712736e+00,2.870000000000001364e+03,-2.175000000000367972e+00,-4.944999999998061391e+00,1.340465049942791964e+01,-2.155449818673729645e+00
2.000000000000337508e+01,2.999999998549716551e+00,1.000000000003600675e+01,6.599999999999799360e-01,1.569999999999693197e+00,2.869999999999999545e+03,-2.175000000000336442e+00,-4.944999999998048068e+00,1.341008583764814155e+01,-2.159296555420199493e+00
2.000000000000244427e+01,2.999999999575118537e+00,1.000000000001550937e+01,6.599999999999822675e-01,1.569999999999807105e+00,2.869999999999995453e+03,-2.175000000000218758e+00,-4.944999999998969109e+00,1.344679304128367647e+01,-2.144595126964599974e+00
2.000000000000287415e+01,2.999999999837703601e+00,9.999999999989492849e+00,6.599999999999963674e-01,1.569999999999766027e+00,2.870000000000000455e+03,-2.175000000000294698e+00,-4.944999999998630713e+00,1.345923317225407523e+01,-2.136687967420713097e+00
2.000000000000246203e+01,2.999999999220686497e+00,1.000000000001241851e+01,6.599999999999783817e-01,1.569999999999928786e+00,2.870000000000002728e+03,-2.175000000000130385e+00,-4.944999999999478035e+00,1.343280696172217858e+01,-2.148110830673787053e+00
2.000000000000425970e+01,3.000000001934086669e+00,1.000000000003073630e+01,6.599999999999532907e-01,1.569999999999714291e+00,2.870000000000000909e+03,-2.175000000000304468e+00,-4.944999999998098694e+00,1.345173255310564286e+01,-2.110353384656576292e+00
2.000000000000163070e+01,3.000000001701824015e+00,1.000000000003293721e+01,6.599999999999432987e-01,1.570000000000040918e+00,2.869999999999997726e+03,-2.174999999999933209e+00,-4.945000000000094431e+00,1.343213843551028219e+01,-2.147147412371593678e+00
2.000000000000335731e+01,3.000000000236632047e+00,1.000000000003640821e+01,6.599999999999477396e-01,1.569999999999797335e+00,2.869999999999998636e+03,-2.175000000000181011e+00,-4.944999999998665352e+00,1.340742462458706896e+01,-2.187929689199278105e+00
2.000000000000492051e+01,3.000000000928382260e+00,1.000000000002041922e+01,6.600000000000041389e-01,1.569999999999615259e+00,2.870000000000004547e+03,-2.175000000000481659e+00,-4.944999999997765627e+00,1.339333674564791288e+01,-2.200739471583846196e+00
2.000000000000027001e+01,3.000000002174375346e+00,1.000000000004648548e+01,6.599999999999632827e-01,1.570000000000122187e+00,2.869999999999990905e+03,-2.174999999999857270e+00,-4.945000000000655760e+00,1.338585607751420348e+01,-2.143651470639952095e+00
2.000000000000142819e+01,3.000000001784800308e+00,1.000000000004408740e+01,6.599999999999643929e-01,1.569999999999944107e+00,2.869999999999992724e+03,-2.175000000000041567e+00,-4.944999999999632578e+00,1.341946230388793815e+01,-2.163051688075491530e+00
2.000000000000203215e+01,3.000000000512240028e+00,1.000000000001606182e+01,6.599999999999309752e-01,1.569999999999892371e+00,2.869999999999994543e+03,-2.175000000000030020e+00,-4.944999999999216911e+00,1.343547681625584111e+01,-2.204088309103179988e+00
2.000000000000066080e+01,3.000000000713868520e+00,1.000000000002174971e+01,6.599999999999567324e-01,1.570000000000076446e+00,2.869999999999992724e+03,-2.174999999999890132e+00,-4.945000000000487006e+00,1.337134575114182411e+01,-2.135722475931082887e+00
2.000000000000141398e+01,3.000000000521010790e+00,1.000000000000725286e+01,6.599999999999860423e-01,1.569999999999981855e+00,2.869999999999995453e+03,-2.175000000000047340e+00,-4.944999999999792450e+00,1.345113128813871306e+01,-2.144313656198193030e+00
2.000000000000185096e+01,3.000000003162684781e+00,1.000000000002827072e+01,6.599999999999605071e-01,1.569999999999988960e+00,2.869999999999998636e+03,-2.175000000000010925e+00,-4.944999999999827978e+00,1.338689551979653736e+01,-2.116403545088739513e+00
1.999999999999945999e+01,2.999999998840201076e+00,1.000000000000577494e+01,6.600000000000022515e-01,1.570000000000060458e+00,2.869999999999991815e+03,-2.174999999999933653e+00,-4.945000000000472795e+00,1.338807316303649486e+01,-2.133184787990451081e+00
1.999999999999913314e+01,2.999999999812245299e+00,9.999999999988055777e+00,6.600000000000019185e-01,1.570000000000141060e+00,2.869999999999994543e+03,-2.174999999999828404e+00,-4.945000000000971951e+00,1.342155565911055604e+01,-2.200021235893737881e+00
2.000000000000008527e+01,3.000000000041286530e+00,9.999999999951940666e+00,6.600000000000242339e-01,1.569999999999950990e+00,2.869999999999992269e+03,-2.175000000000076650e+00,-4.944999999999846629e+00,1.346163877092904926e+01,-2.114318816061277140e+00
1.999999999999806732e+01,3.000000000529370769e+00,9.999999999971823428e+00,6.599999999999949241e-01,1.570000000000277618e+00,2.869999999999994088e+03,-2.174999999999695621e+00,-4.945000000001876117e+00,1.341528259165621328e+01,-2.132610863234689180e+00
2.000000000000012079e+01,2.999999998602312257e+00,9.999999999992454036e+00,6.599999999999778266e-01,1.570000000000008278e+00,2.869999999999993179e+03,-2.174999999999938538e+00,-4.945000000000131735e+00,1.342290085014695578e+01,-2.147302681635483435e+00
1.999999999999713651e+01,3.000000005347540188e+00,9.999999999980223819e+00,6.599999999999891509e-01,1.570000000000320917e+00,2.869999999999984993e+03,-2.174999999999593925e+00,-4.945000000001973817e+00,1.341473737677733169e+01,-2.137596541990678389e+00
1.999999999999796430e+01,3.000000002399829224e+00,9.999999999980287768e+00,6.599999999999920375e-01,1.570000000000218998e+00,2.869999999999985903e+03,-2.174999999999702727e+00,-4.945000000001441798e+00,1.338266409917886257e+01,-2.109676422141523844e+00
1.999999999999641176e+01,3.000000003220025580e+00,9.999999999969375608e+00,6.599999999999831557e-01,1.570000000000486118e+00,2.869999999999989086e+03,-2.174999999999452260e+00,-4.945000000002865548e+00,1.341995738684024531e+01,-2.152879320031619415e+00
1.999999999999733902e+01,3.000000005358145483e+00,9.999999999958422592e+00,6.599999999999985878e-01,1.570000000000243423e+00,2.869999999999983629e+03,-2.174999999999697398e+00,-4.945000000001638085e+00,1.339403255044696195e+01,-2.186020775566757113e+00
1.999999999999896616e+01,3.000000002549364719e+00,9.999999999989549693e+00,6.600000000000078026e-01,1.570000000000096652e+00,2.869999999999988177e+03,-2.174999999999877254e+00,-4.945000000000812079e+00,1.338534914000604026e+01,-2.141310779224587790e+00
1.999999999999841194e+01,3.000000003788977576e+00,9.999999999980481391e+00,6.600000000000159073e-01,1.570000000000229434e+00,2.869999999999999545e+03,-2.174999999999772449e+00,-4.945000000001556373e+00,1.342231937353108684e+01,-2.110339645846850853e+00
1.999999999999772626e+01,3.000000002817958755e+00,9.999999999988897770e+00,6.600000000000058042e-01,1.570000000000375984e+00,2.869999999999994543e+03,-2.174999999999634337e+00,-4.945000000002371721e+00,1.333648979129272227e+01,-2.202515354363518529e+00
1.999999999999946709e+01,3.000000003045586450e+00,9.999999999996912692e+00,6.600000000000197931e-01,1.570000000000075113e+00,2.869999999999989541e+03,-2.174999999999957190e+00,-4.945000000000534079e+00,1.337972406797280911e+01,-2.197560832628247862e+00
2.000000000000082778e+01,3.000000001425665364e+00,9.999999999951215912e+00,6.600000000000352252e-01,1.569999999999854179e+00,2.869999999999994998e+03,-2.175000000000189004e+00,-4.944999999999384777e+00,1.343741949484018150e+01,-2.173063282928094697e+00
2.000000000000098765e+01,3.000000001217892454e+00,9.999999999983080201e+00,6.600000000000246780e-01,1.569999999999876161e+00,2.869999999999997272e+03,-2.175000000000157030e+00,-4.944999999999481588e+00,1.335394912044071170e+01,-2.116697821590238782e+00
2.000000000000070344e+01,3.000000000954535118e+00,9.999999999995377920e+00,6.600000000000397771e-01,1.569999999999946327e+00,2.869999999999999545e+03,-2.175000000000117506e+00,-4.944999999999860840e+00,1.333417607435193020e+01,-2.128342383172432406e+00
2.000000000000075673e+01,3.000000000540010703e+00,9.999999999960664354e+00,6.600000000000791900e-01,1.569999999999894591e+00,2.870000000000000455e+03,-2.175000000000231637e+00,-4.944999999999668994e+00,1.347198298190561339e+01,-2.113879983702744436e+00
2.000000000000270362e+01,2.999999998841886395e+00,9.999999999971482367e+00,6.600000000000035838e-01,1.569999999999713847e+00,2.869999999999992724e+03,-2.175000000000343103e+00,-4.944999999998458406e+00,1.339280627580107641e+01,-2.084274087545715304e+00
2.000000000000413181e+01,3.000000000442009096e+00,1.000000000003349676e+01,6.600000000000123546e-01,1.569999999999540208e+00,2.869999999999992269e+03,-2.175000000000510081e+00,-4.944999999997509832e+00,1.360634156809314455e+01,-2.014287955259150831e+00
2.000000000000039080e+01,2.999999999741396639e+00,1.000000000002722800e+01,6.600000000000187939e-01,1.570000000000079776e+00,2.869999999999997272e+03,-2.174999999999981615e+00,-4.945000000000593587e+00,1.356650279650699886e+01,-2.022374217059885293e+00
2.000000000000027001e+01,2.999999999278067708e+00,1.000000000001766409e+01,6.600000000000079137e-01,1.570000000000058460e+00,2.869999999999994543e+03,-2.174999999999968736e+00,-4.945000000000661089e+00,1.356789247118652320e+01,-1.999940104473991509e+00
2.000000000000034106e+01,3.000000000871914096e+00,1.000000000001275779e+01,6.600000000000139089e-01,1.570000000000005169e+00,2.869999999999991360e+03,-2.175000000000026024e+00,-4.945000000000342233e+00,1.357660882620634091e+01,-1.914156298030396997e+00
2.000000000000266454e+01,2.999999999989505728e+00,1.000000000001647571e+01,6.600000000000463274e-01,1.569999999999691420e+00,2.869999999999989541e+03,-2.175000000000398170e+00,-4.944999999998558771e+00,1.351423361528214429e+01,-1.943825973495003856e+00
2.000000000000266809e+01,3.000000002103212271e+00,1.000000000001619149e+01,6.600000000000210143e-01,1.569999999999695639e+00,2.869999999999987722e+03,-2.175000000000363531e+00,-4.944999999998427320e+00,1.356339179687888752e+01,-2.044121492409318286e+00
2.000000000000529354e+01,3.000000001379850012e+00,1.000000000002313527e+01,6.600000000000278977e-01,1.569999999999360574e+00,2.869999999999998636e+03,-2.175000000000748557e+00,-4.944999999996163353e+00,1.352560915170701250e+01,-2.318647037022187440e+00
2.000000000000455458e+01,2.999999999754447533e+00,9.999999999986940225e+00,6.600000000000312284e-01,1.569999999999420970e+00,2.869999999999999091e+03,-2.175000000000671729e+00,-4.944999999996517737e+00,1.354356568578482012e+01,-2.270997324986884447e+00
2.000000000000116174e+01,2.999999998250403532e+00,1.000000000004633449e+01,6.600000000000126876e-01,1.569999999999858620e+00,2.869999999999986812e+03,-2.175000000000177014e+00,-4.944999999999491358e+00,1.339596615262818169e+01,-2.099393421295767226e+00
2.000000000000013145e+01,2.999999997345100144e+00,1.000000000003581668e+01,6.600000000000043610e-01,1.570000000000107310e+00,2.869999999999994088e+03,-2.174999999999944311e+00,-4.945000000000716156e+00,1.338263062838218076e+01,-2.105074881690073507e+00
2.000000000000019895e+01,2.999999998986996097e+00,1.000000000004316014e+01,6.599999999999751621e-01,1.570000000000105977e+00,2.869999999999989541e+03,-2.174999999999893685e+00,-4.945000000000683293e+00,1.342748358570720946e+01,-2.134698781477505580e+00
1.999999999999877787e+01,2.999999999667920747e+00,1.000000000004095568e+01,6.599999999999478506e-01,1.570000000000298490e+00,2.869999999999988631e+03,-2.174999999999638778e+00,-4.945000000001946283e+00,1.338773663813293702e+01,-2.118291103952621324e+00
2.000000000000056488e+01,2.999999996972166461e+00,1.000000000005569234e+01,6.599999999999626166e-01,1.570000000000099316e+00,2.869999999999993179e+03,-2.174999999999890576e+00,-4.945000000000356444e+00,1.339398915895970177e+01,-2.156753520205644481e+00
1.999999999999950973e+01,2.999999998543864788e+00,1.000000000006375878e+01,6.599999999999646150e-01,1.570000000000160600e+00,2.869999999999992269e+03,-2.174999999999807088e+00,-4.945000000001064322e+00,1.336533102848760279e+01,-2.180896215738686195e+00
2.000000000000180123e+01,3.000000000385517396e+00,1.000000000005717027e+01,6.599999999999983658e-01,1.569999999999830420e+00,2.869999999999994088e+03,-2.175000000000206768e+00,-4.944999999999151186e+00,1.338170677165853384e+01,-2.157482069371893019e+00
2.000000000000074252e+01,2.999999997822096809e+00,1.000000000005943157e+01,6.600000000000082467e-01,1.570000000000047358e+00,2.869999999999998636e+03,-2.175000000000025580e+00,-4.945000000000283613e+00,1.334667110669284007e+01,-2.152889656823405495e+00
2.000000000000092371e+01,2.999999999617847912e+00,1.000000000006806289e+01,6.599999999999938138e-01,1.570000000000032925e+00,2.869999999999996362e+03,-2.175000000000018918e+00,-4.945000000000166374e+00,1.332921872947461317e+01,-2.175358529340505331e+00
1.999999999999969802e+01,2.999999999607355861e+00,1.000000000004503953e+01,6.599999999999883737e-01,1.570000000000119744e+00,2.869999999999994088e+03,-2.174999999999893685e+00,-4.945000000000645102e+00,1.341971567980723812e+01,-2.153790363637205552e+00
2.000000000000165912e+01,2.999999998129826206e+00,1.000000000008052226e+01,6.599999999999903721e-01,1.569999999999895479e+00,2.869999999999996362e+03,-2.175000000000130829e+00,-4.944999999999514451e+00,1.339825894204162005e+01,-2.192471470562400881e+00
2.000000000000169820e+01,2.999999997102787752e+00,1.000000000005136513e+01,6.599999999999781597e-01,1.569999999999859286e+00,2.869999999999994543e+03,-2.175000000000145484e+00,-4.944999999999160956e+00,1.336937894382671388e+01,-2.187426887208011816e+00
1.999999999999688072e+01,2.999999997622928571e+00,9.999999999985915267e+00,6.599999999999486278e-01,1.570000000000417728e+00,2.869999999999989086e+03,-2.174999999999467359e+00,-4.945000000002258922e+00,1.345742667463364661e+01,-2.084501405455315481e+00
1.999999999999686295e+01,2.999999997604375856e+00,9.999999999990354382e+00,6.599999999999549560e-01,1.570000000000447482e+00,2.869999999999990450e+03,-2.174999999999473577e+00,-4.945000000002245599e+00,1.349134463968201203e+01,-2.018505398627257197e+00
1.999999999999912959e+01,3.000000000231858088e+00,1.000000000002821565e+01,6.599999999999922595e-01,1.570000000000065565e+00,2.870000000000000909e+03,-2.174999999999890576e+00,-4.945000000000336904e+00,1.339254703684275860e+01,-2.124963011377554611e+00
2.000000000000129319e+01,2.999999999123322159e+00,1.000000000003606004e+01,6.599999999999756062e-01,1.569999999999841744e+00,2.870000000000000909e+03,-2.175000000000114397e+00,-4.944999999998814566e+00,1.338247540335772001e+01,-2.179894770012329897e+00
1.999999999999721823e+01,2.999999998074023733e+00,1.000000000002622258e+01,6.599999999999641709e-01,1.570000000000243867e+00,2.869999999999990905e+03,-2.174999999999626787e+00,-4.945000000001387619e+00,1.337544266943337057e+01,-2.045151153700407676e+00
2.000000000000164135e+01,3.000000001210278100e+00,9.999999999962380315e+00,6.600000000000046940e-01,1.569999999999781570e+00,2.870000000000002274e+03,-2.175000000000233413e+00,-4.944999999998682227e+00,1.345451798221762907e+01,-2.116374921700539424e+00
2.000000000000352074e+01,2.999999999514514126e+00,9.999999999945151430e+00,6.600000000000149081e-01,1.569999999999492024e+00,2.869999999999999091e+03,-2.175000000000546940e+00,-4.944999999996935180e+00,1.353608218360233195e+01,-2.032035956658830855e+00
2.000000000000494182e+01,3.000000000638335607e+00,9.999999999936843409e+00,6.600000000000284528e-01,1.569999999999402762e+00,2.870000000000001819e+03,-2.175000000000690381e+00,-4.944999999996266382e+00,1.351119006598426608e+01,-2.084582759161011545e+00
2.000000000000530420e+01,3.000000001577619368e+00,9.999999999948721907e+00,6.600000000000590950e-01,1.569999999999270202e+00,2.870000000000001364e+03,-2.175000000000854694e+00,-4.944999999995731699e+00,1.327182084975889964e+01,-2.369665372536672976e+00
2.000000000000002132e+01,2.999999997636316973e+00,1.000000000001493383e+01,6.599999999999972555e-01,1.570000000000092877e+00,2.870000000000003638e+03,-2.174999999999915001e+00,-4.945000000000652207e+00,1.343515952479261699e+01,-2.148404605736947026e+00
2.000000000000116884e+01,2.999999998483303010e+00,1.000000000002173550e+01,6.599999999999813793e-01,1.569999999999881046e+00,2.869999999999998636e+03,-2.175000000000124167e+00,-4.944999999999345697e+00,1.340401815217762937e+01,-2.218895657991207138e+00
2.000000000000048317e+01,2.999999997778440175e+00,1.000000000001908518e+01,6.599999999999617284e-01,1.570000000000082885e+00,2.870000000000001364e+03,-2.174999999999873257e+00,-4.945000000000312035e+00,1.350683297718981102e+01,-2.138240481643862267e+00
1.999999999999830536e+01,2.999999995399762920e+00,1.000000000001186962e+01,6.599999999999786038e-01,1.570000000000252527e+00,2.870000000000004547e+03,-2.174999999999715161e+00,-4.945000000001295248e+00,1.357450395820702838e+01,-2.021309706563520159e+00
1.999999999999732125e+01,2.999999995618864546e+00,1.000000000002490275e+01,6.599999999999792699e-01,1.570000000000367546e+00,2.870000000000002274e+03,-2.174999999999584155e+00,-4.945000000002019114e+00,1.353846840885378988e+01,-2.015311761651934930e+00
1.999999999999862865e+01,2.999999996009258485e+00,1.000000000002576961e+01,6.599999999999931477e-01,1.570000000000205009e+00,2.870000000000001819e+03,-2.174999999999791100e+00,-4.945000000001078533e+00,1.356417595474163917e+01,-2.046516102984465402e+00
1.999999999999895905e+01,3.000000002107730435e+00,9.999999999975573317e+00,6.599999999999648370e-01,1.570000000000104423e+00,2.869999999999980901e+03,-2.174999999999835065e+00,-4.945000000000509210e+00,1.342500255037086809e+01,-2.201377588134745711e+00
1.999999999999543832e+01,3.000000000667335076e+00,9.999999999971114661e+00,6.599999999999481837e-01,1.570000000000560725e+00,2.869999999999977263e+03,-2.174999999999331912e+00,-4.945000000003111573e+00,1.341145992883789440e+01,-2.217461506196380938e+00
1.999999999999656453e+01,3.000000001558769558e+00,9.999999999977216447e+00,6.599999999999427436e-01,1.570000000000404849e+00,2.869999999999976353e+03,-2.174999999999471800e+00,-4.945000000002288232e+00,1.340028161597914469e+01,-2.137058485017486742e+00
1.999999999999664624e+01,3.000000001983232689e+00,9.999999999988434141e+00,6.599999999999418554e-01,1.570000000000431051e+00,2.869999999999976808e+03,-2.174999999999464251e+00,-4.945000000002325535e+00,1.340704678761011337e+01,-2.141703325904343647e+00
1.999999999999791100e+01,3.000000002372742447e+00,9.999999999987235100e+00,6.599999999999406342e-01,1.570000000000385310e+00,2.869999999999985448e+03,-2.174999999999548628e+00,-4.945000000001900986e+00,1.344015333100528231e+01,-2.140609697881132867e+00
2.000000000000007105e+01,2.999999999551054675e+00,9.999999999957251973e+00,6.599999999999913713e-01,1.570000000000044249e+00,2.869999999999992724e+03,-2.174999999999969180e+00,-4.945000000000039364e+00,1.340328641680975785e+01,-2.231836193071499608e+00
1.999999999999781153e+01,3.000000000877983908e+00,9.999999999937692508e+00,6.599999999999558442e-01,1.570000000000232321e+00,2.869999999999979536e+03,-2.174999999999677858e+00,-4.945000000001182450e+00,1.340725269245973017e+01,-2.213912751903413856e+00
1.999999999999681677e+01,3.000000002438683921e+00,9.999999999985309529e+00,6.599999999999809353e-01,1.570000000000347340e+00,2.869999999999986812e+03,-2.174999999999609912e+00,-4.945000000002087504e+00,1.342361639574779453e+01,-2.164458172229267507e+00
1.999999999999506883e+01,3.000000001993850862e+00,9.999999999972159159e+00,6.599999999999447420e-01,1.570000000000524754e+00,2.869999999999975898e+03,-2.174999999999347899e+00,-4.945000000003197727e+00,1.345891489408593600e+01,-2.155473248537927766e+00
1.999999999999521449e+01,3.000000002866589188e+00,9.999999999990523136e+00,6.599999999999304201e-01,1.570000000000585372e+00,2.869999999999980446e+03,-2.174999999999288391e+00,-4.945000000003300755e+00,1.339477464855685085e+01,-2.192043208386047493e+00
1.999999999999640110e+01,3.000000003005952376e+00,9.999999999954072294e+00,6.599999999999854872e-01,1.570000000000347784e+00,2.869999999999982265e+03,-2.174999999999595257e+00,-4.945000000002224283e+00,1.343970500879046170e+01,-2.143629022563383835e+00
1.999999999999609201e+01,3.000000002175118308e+00,9.999999999953052665e+00,6.599999999999615063e-01,1.570000000000350004e+00,2.869999999999979536e+03,-2.174999999999536637e+00,-4.945000000002066187e+00,1.331313483215517302e+01,-2.172010371421249086e+00
1.999999999999722533e+01,3.000000002171525182e+00,9.999999999955129226e+00,6.599999999999784928e-01,1.570000000000150608e+00,2.869999999999977263e+03,-2.174999999999748468e+00,-4.945000000001127383e+00,1.337381581489415083e+01,-2.170429780151647670e+00
1.999999999999514699e+01,3.000000003383530789e+00,9.999999999963089081e+00,6.599999999999484057e-01,1.570000000000554063e+00,2.869999999999984084e+03,-2.174999999999315481e+00,-4.945000000003186180e+00,1.338024523567970014e+01,-2.186645841822500547e+00
1.999999999999650768e+01,3.000000001129802030e+00,9.999999999987641885e+00,6.599999999999617284e-01,1.570000000000401075e+00,2.869999999999987722e+03,-2.174999999999515321e+00,-4.945000000002496066e+00,1.337518928244987215e+01,-2.144300889816372013e+00
1.999999999999703704e+01,3.000000001736311983e+00,9.999999999966435738e+00,6.599999999999756062e-01,1.570000000000259188e+00,2.869999999999981355e+03,-2.174999999999670752e+00,-4.945000000001697593e+00,1.336244061258209648e+01,-2.126860794268532917e+00
1.999999999999565858e+01,3.000000001638515101e+00,9.999999999959879204e+00,6.599999999999465183e-01,1.570000000000473683e+00,2.869999999999981355e+03,-2.174999999999400746e+00,-4.945000000002864660e+00,1.338677237591589098e+01,-2.147934100892141096e+00
2.000000000000392575e+01,3.000000000842213410e+00,9.999999999926671990e+00,6.600000000000506573e-01,1.569999999999494911e+00,2.870000000000000455e+03,-2.175000000000611777e+00,-4.944999999997269136e+00,1.340316318336384782e+01,-2.152254356974687699e+00
2.000000000000219913e+01,3.000000001936239613e+00,9.999999999931029393e+00,6.600000000000708633e-01,1.569999999999629692e+00,2.869999999999993634e+03,-2.175000000000482991e+00,-4.944999999998310081e+00,1.338721410888156171e+01,-2.133428792970921251e+00
2.000000000000284928e+01,3.000000000434635883e+00,9.999999999965696773e+00,6.600000000000424416e-01,1.569999999999594387e+00,2.869999999999994543e+03,-2.175000000000472333e+00,-4.944999999998090701e+00,1.337006878186966929e+01,-2.173965167762040185e+00
1.999999999999699440e+01,3.000000003420925765e+00,1.000000000001563727e+01,6.600000000000284528e-01,1.570000000000192575e+00,2.869999999999989086e+03,-2.174999999999795985e+00,-4.945000000001363638e+00,1.345981032003718880e+01,-2.128185122389258055e+00
2.000000000000187583e+01,3.000000001607160627e+00,1.000000000001547384e+01,6.600000000000325606e-01,1.569999999999564411e+00,2.869999999999994543e+03,-2.175000000000435918e+00,-4.944999999997592433e+00,1.340813756096886600e+01,-2.092886647881557316e+00
2.000000000000153833e+01,3.000000001019595075e+00,1.000000000002743583e+01,6.600000000000287859e-01,1.569999999999760032e+00,2.870000000000005457e+03,-2.175000000000280043e+00,-4.944999999998564100e+00,1.339142394846028061e+01,-2.209319352763993383e+00
1.999999999999768363e+01,3.000000002954272382e+00,9.999999999976477483e+00,6.600000000000209033e-01,1.570000000000042473e+00,2.869999999999993179e+03,-2.174999999999895905e+00,-4.945000000000306706e+00,1.343887199440907487e+01,-2.124524601693657644e+00
2.000000000000178346e+01,3.000000000996924765e+00,9.999999999996866507e+00,6.600000000000498801e-01,1.569999999999686535e+00,2.870000000000005912e+03,-2.175000000000373745e+00,-4.944999999998011653e+00,1.341830589989535838e+01,-2.139682025625848638e+00
1.999999999999469935e+01,2.999999997252785988e+00,1.000000000003295675e+01,6.599999999999672795e-01,1.570000000000608464e+00,2.869999999999977263e+03,-2.174999999999272404e+00,-4.945000000004024621e+00,1.342490847330347670e+01,-2.157836412620587563e+00
1.999999999999441869e+01,2.999999999229168601e+00,1.000000000002560974e+01,6.599999999999881517e-01,1.570000000000590035e+00,2.869999999999974989e+03,-2.174999999999325695e+00,-4.945000000003770602e+00,1.337585278013004064e+01,-2.170382823845188103e+00
1.999999999999625544e+01,2.999999999252698668e+00,1.000000000003777956e+01,6.599999999999889289e-01,1.570000000000423501e+00,2.869999999999980901e+03,-2.174999999999529976e+00,-4.945000000002425011e+00,1.348111932749595177e+01,-2.163705018681116865e+00
1.999999999999715783e+01,2.999999998114486033e+00,1.000000000006599521e+01,6.599999999999690559e-01,1.570000000000320028e+00,2.869999999999979991e+03,-2.174999999999602363e+00,-4.945000000001887663e+00,1.340527539249585232e+01,-2.201814381969638301e+00
1.999999999999676703e+01,2.999999999984483967e+00,1.000000000002819434e+01,6.600000000000004752e-01,1.570000000000366658e+00,2.869999999999982720e+03,-2.174999999999611688e+00,-4.945000000002475637e+00,1.337502968389177482e+01,-2.161496203053964393e+00
1.999999999999659295e+01,2.999999999873050438e+00,1.000000000003691270e+01,6.599999999999855982e-01,1.570000000000411289e+00,2.869999999999981810e+03,-2.174999999999546851e+00,-4.945000000002492513e+00,1.332720882598068712e+01,-2.184912192270225262e+00
1.999999999999571543e+01,2.999999998689940384e+00,1.000000000005556444e+01,6.600000000000012523e-01,1.570000000000408846e+00,2.869999999999978627e+03,-2.174999999999533085e+00,-4.945000000002591101e+00,1.345067773029413338e+01,-2.192266244056096269e+00
1.999999999999535305e+01,2.999999998644914179e+00,1.000000000003872636e+01,6.599999999999882627e-01,1.570000000000498774e+00,2.869999999999983629e+03,-2.174999999999420286e+00,-4.945000000003210161e+00,1.337375250805192195e+01,-2.146963197138880730e+00
2.000000000000247979e+01,2.999999999200619882e+00,9.999999999987032595e+00,6.600000000000232347e-01,1.569999999999765583e+00,2.870000000000001364e+03,-2.175000000000316458e+00,-4.944999999998543672e+00,1.334686844677417916e+01,-2.189575032941199151e+00
1.999999999999871747e+01,2.999999997456652245e+00,1.000000000001683098e+01,6.600000000000383338e-01,1.570000000000115303e+00,2.869999999999984084e+03,-2.174999999999948308e+00,-4.945000000000965734e+00,1.340030722679119535e+01,-2.199984024089546075e+00
2.000000000000180123e+01,2.999999995777002937e+00,1.000000000001657341e+01,6.600000000000446621e-01,1.569999999999785789e+00,2.870000000000008185e+03,-2.175000000000303579e+00,-4.944999999998882956e+00,1.353720008669935737e+01,-2.070942841479215701e+00
1.999999999999744205e+01,2.999999998633587683e+00,1.000000000001496936e+01,6.600000000000342260e-01,1.570000000000169482e+00,2.869999999999999091e+03,-2.174999999999804423e+00,-4.945000000001490648e+00,1.354440643396394961e+01,-2.034875120487001698e+00
2.000000000000072475e+01,2.999999996533990299e+00,9.999999999989297450e+00,6.600000000000748601e-01,1.569999999999764251e+00,2.870000000000004093e+03,-2.175000000000327116e+00,-4.944999999998909601e+00,1.335534598145210694e+01,-2.112816088081055810e+00
1.999999999999406342e+01,2.999999999175305465e+00,1.000000000004945555e+01,6.600000000000361133e-01,1.570000000000484786e+00,2.869999999999974534e+03,-2.174999999999451816e+00,-4.945000000003312302e+00,1.333633297244419857e+01,-2.153992997734246462e+00
1.999999999999663558e+01,2.999999998437441917e+00,1.000000000005736744e+01,6.599999999999969225e-01,1.570000000000237650e+00,2.869999999999984084e+03,-2.174999999999664535e+00,-4.945000000001653184e+00,1.336195451940840506e+01,-2.165759643705454263e+00
1.999999999999485212e+01,3.000000000534795763e+00,1.000000000005193890e+01,6.599999999999875966e-01,1.570000000000457696e+00,2.869999999999982265e+03,-2.174999999999407407e+00,-4.945000000003016538e+00,1.344131841374750636e+01,-2.155211363899823152e+00
1.999999999999623768e+01,3.000000000990365567e+00,1.000000000005343104e+01,6.600000000000023626e-01,1.570000000000315810e+00,2.869999999999988177e+03,-2.174999999999599254e+00,-4.945000000002129248e+00,1.345603327495940249e+01,-2.116530819513455342e+00
1.999999999999480593e+01,2.999999999116788274e+00,1.000000000004815526e+01,6.599999999999986988e-01,1.570000000000430385e+00,2.869999999999982265e+03,-2.174999999999444267e+00,-4.945000000003059171e+00,1.343120984673597462e+01,-2.157332810956075431e+00
1.999999999999347011e+01,2.999999999278223139e+00,1.000000000003590195e+01,6.599999999999904832e-01,1.570000000000669083e+00,2.869999999999980901e+03,-2.174999999999228883e+00,-4.945000000004010410e+00,1.344797617366714348e+01,-2.182299166697467374e+00
