1.999999999999695532e+01,2.999999999080211754e+00,9.999999999992324362e+00,6.600000000000668665e-01,1.570000000000256302e+00,2.869999999999989541e+03,-2.174999999999751576e+00,-4.945000000001303242e+00,1.341590994172996254e+01,-2.125837684901723978e+00
1.999999999999714717e+01,2.999999999012330498e+00,1.000000000002132516e+01,6.599999999999365263e-01,1.570000000000403739e+00,2.869999999999993634e+03,-2.174999999999653433e+00,-4.945000000002082174e+00,1.341277857239191995e+01,-2.119223914186571189e+00
1.999999999999704414e+01,3.000000000147542423e+00,1.000000000002568612e+01,6.599999999999683897e-01,1.570000000000367102e+00,2.869999999999981810e+03,-2.174999999999696509e+00,-4.945000000001545715e+00,1.341438704690470196e+01,-2.127903739921596316e+00
1.999999999999831957e+01,3.000000000420095514e+00,1.000000000000426148e+01,6.600000000000342260e-01,1.570000000000255191e+00,2.869999999999995453e+03,-2.174999999999728928e+00,-4.945000000001625651e+00,1.339756898451586586e+01,-2.130641532432869578e+00
1.999999999999684874e+01,3.000000001523237092e+00,9.999999999980287768e+00,6.600000000000085798e-01,1.570000000000302709e+00,2.869999999999981810e+03,-2.174999999999688960e+00,-4.945000000001962270e+00,1.341032074530013496e+01,-2.143691638258034882e+00
2.000000000000204636e+01,2.999999997441926247e+00,1.000000000003162270e+01,6.600000000000628697e-01,1.569999999999838192e+00,2.870000000000000000e+03,-2.175000000000100631e+00,-4.944999999999633467e+00,1.342501529106129787e+01,-2.128262920871111241e+00
1.999999999999769784e+01,2.999999999656781213e+00,9.999999999997044142e+00,6.599999999999645039e-01,1.570000000000236096e+00,2.869999999999991815e+03,-2.174999999999725375e+00,-4.945000000001060769e+00,1.341968313870706986e+01,-2.136911894473808360e+00
2.000000000000129319e+01,2.999999998297792292e+00,1.000000000000560085e+01,6.599999999999310862e-01,1.570000000000040030e+00,2.869999999999990450e+03,-2.175000000000013145e+00,-4.945000000000538520e+00,1.341666767495864931e+01,-2.147081305797033490e+00
1.999999999999757705e+01,2.999999995383182849e+00,1.000000000000427036e+01,6.599999999999994760e-01,1.570000000000260965e+00,2.869999999999983629e+03,-2.174999999999703615e+00,-4.945000000001748219e+00,1.342339557224450886e+01,-2.136066615738025476e+00
1.999999999999992539e+01,3.000000001207497657e+00,1.000000000000715872e+01,6.599999999999339728e-01,1.570000000000251417e+00,2.870000000000002728e+03,-2.174999999999813305e+00,-4.945000000001122942e+00,1.341484590614973982e+01,-2.128914074652493493e+00
2.000000000000179767e+01,2.999999999559150421e+00,1.000000000006000000e+01,6.600000000000346700e-01,1.569999999999979412e+00,2.870000000000005457e+03,-2.175000000000095302e+00,-4.944999999999574847e+00,1.339313284974604912e+01,-2.105182418122231613e+00
1.999999999999992184e+01,3.000000000256450416e+00,1.000000000003562306e+01,6.599999999999451861e-01,1.570000000000184137e+00,2.869999999999990450e+03,-2.174999999999871036e+00,-4.945000000000756124e+00,1.340904909683965052e+01,-2.130499027481754126e+00
2.000000000000001421e+01,2.999999998763288822e+00,1.000000000003152323e+01,6.599999999999766054e-01,1.570000000000120410e+00,2.870000000000002274e+03,-2.174999999999925215e+00,-4.945000000000501217e+00,1.339211244092695452e+01,-2.116848265512774052e+00
1.999999999999785771e+01,2.999999998989269834e+00,1.000000000000516565e+01,6.600000000000676437e-01,1.570000000000197904e+00,2.869999999999995907e+03,-2.174999999999858158e+00,-4.945000000001464890e+00,1.340447586636694588e+01,-2.114129139996020257e+00
1.999999999999744560e+01,2.999999999403784923e+00,9.999999999987538857e+00,6.600000000000291189e-01,1.570000000000279172e+00,2.869999999999993634e+03,-2.174999999999775113e+00,-4.945000000001827267e+00,1.340943123403430093e+01,-2.109327485179715911e+00
2.000000000000000355e+01,2.999999999461308686e+00,1.000000000005237055e+01,6.599999999999864864e-01,1.570000000000151497e+00,2.870000000000017280e+03,-2.174999999999911449e+00,-4.945000000000794316e+00,1.339453782270077298e+01,-2.108085483034748187e+00
2.000000000000043698e+01,3.000000001656800475e+00,1.000000000003220002e+01,6.599999999999807132e-01,1.570000000000104645e+00,2.870000000000000909e+03,-2.174999999999942091e+00,-4.945000000000488782e+00,1.338417559551769997e+01,-2.120154297700176382e+00
2.000000000000022382e+01,2.999999999941408646e+00,1.000000000005238654e+01,6.600000000000181277e-01,1.570000000000087992e+00,2.869999999999984993e+03,-2.174999999999907896e+00,-4.945000000000670859e+00,1.341207397362995124e+01,-2.147016453255182089e+00
1.999999999999925748e+01,2.999999999831808761e+00,1.000000000002005329e+01,6.599999999999568434e-01,1.570000000000035367e+00,2.869999999999994543e+03,-2.174999999999980282e+00,-4.945000000000212559e+00,1.341464046647034181e+01,-2.147910321908152564e+00
1.999999999999890932e+01,2.999999999124292938e+00,1.000000000000684253e+01,6.600000000000106892e-01,1.570000000000203011e+00,2.869999999999959982e+03,-2.174999999999767564e+00,-4.945000000000995932e+00,1.340106928795849406e+01,-2.149323630230003612e+00
1.999999999999753086e+01,2.999999999398569983e+00,1.000000000002966161e+01,6.599999999999347500e-01,1.570000000000452367e+00,2.869999999999984993e+03,-2.174999999999578382e+00,-4.945000000002162999e+00,1.340135284066525934e+01,-2.141745100345168851e+00
1.999999999999732836e+01,2.999999998303954918e+00,1.000000000003025846e+01,6.600000000000054712e-01,1.570000000000293605e+00,2.869999999999992724e+03,-2.174999999999667200e+00,-4.945000000002001350e+00,1.337623078819311218e+01,-2.152906257633013798e+00
1.999999999999951683e+01,2.999999997772015092e+00,1.000000000003803535e+01,6.600000000000788569e-01,1.570000000000095541e+00,2.869999999999982265e+03,-2.174999999999831068e+00,-4.945000000000963070e+00,1.342572721042655637e+01,-2.145679762780680289e+00
2.000000000000066791e+01,2.999999997494081860e+00,1.000000000000336264e+01,6.600000000000048050e-01,1.570000000000091323e+00,2.869999999999985903e+03,-2.174999999999947420e+00,-4.945000000000495888e+00,1.340987386495274869e+01,-2.133102308198027153e+00
1.999999999999758060e+01,3.000000000207536655e+00,9.999999999982014387e+00,6.600000000000746381e-01,1.570000000000240981e+00,2.869999999999985448e+03,-2.174999999999725819e+00,-4.945000000001648743e+00,1.339686236963338750e+01,-2.140933055373973826e+00
2.000000000000414957e+01,3.000000000651114718e+00,1.000000000008196466e+01,6.600000000001303713e-01,1.569999999999749374e+00,2.870000000000034106e+03,-2.175000000000203215e+00,-4.944999999998938911e+00,1.339823160150389469e+01,-2.110707556799829909e+00
1.999999999999442579e+01,3.000000000681563250e+00,1.000000000000127365e+01,6.600000000000015854e-01,1.570000000000686846e+00,2.869999999999979991e+03,-2.174999999999290168e+00,-4.945000000003711982e+00,1.340855280751816991e+01,-2.134967250616367718e+00
2.000000000000341416e+01,2.999999996385150247e+00,1.000000000002279776e+01,6.599999999999707212e-01,1.569999999999908358e+00,2.869999999999998181e+03,-2.175000000000118394e+00,-4.944999999999298623e+00,1.338714626534889263e+01,-2.151070602048488212e+00
1.999999999999836930e+01,2.999999999195490652e+00,1.000000000001946887e+01,6.600000000000828537e-01,1.570000000000183693e+00,2.869999999999986358e+03,-2.174999999999823519e+00,-4.945000000001112284e+00,1.340880649429994520e+01,-2.134839842428055245e+00
2.000000000000149925e+01,2.999999999800052386e+00,1.000000000004585488e+01,6.599999999999281997e-01,1.570000000000122187e+00,2.870000000000004093e+03,-2.174999999999846612e+00,-4.945000000000741025e+00,1.339651682105097130e+01,-2.158226614497463114e+00
1.999999999999676348e+01,3.000000000653466614e+00,1.000000000000875922e+01,6.599999999999093259e-01,1.570000000000549845e+00,2.869999999999969532e+03,-2.174999999999411848e+00,-4.945000000003177298e+00,1.340275573315428304e+01,-2.136997897262389756e+00
1.999999999999597478e+01,3.000000001161288843e+00,9.999999999987403854e+00,6.599999999999711653e-01,1.570000000000443929e+00,2.869999999999959073e+03,-2.174999999999540634e+00,-4.945000000002521823e+00,1.341571361234826476e+01,-2.139720294254713551e+00
2.000000000000108713e+01,3.000000000481540585e+00,1.000000000004434497e+01,6.599999999999399680e-01,1.569999999999969864e+00,2.870000000000007276e+03,-2.175000000000064215e+00,-4.944999999999422968e+00,1.339039752499743763e+01,-2.151586252936482424e+00
1.999999999999988276e+01,2.999999999228544656e+00,1.000000000002387424e+01,6.600000000000565414e-01,1.570000000000149054e+00,2.869999999999980446e+03,-2.174999999999886136e+00,-4.945000000000677076e+00,1.340351572516387080e+01,-2.148801506682991747e+00
1.999999999999855760e+01,3.000000000612819573e+00,9.999999999989821475e+00,6.599999999999929257e-01,1.570000000000173701e+00,2.869999999999980901e+03,-2.174999999999902123e+00,-4.945000000000833396e+00,1.340319372554406030e+01,-2.160768512801650498e+00
1.999999999999994671e+01,3.000000004697719991e+00,1.000000000003918821e+01,6.600000000000891820e-01,1.570000000000042473e+00,2.870000000000009095e+03,-2.174999999999867928e+00,-4.945000000000606022e+00,1.339600455934486867e+01,-2.146462009879728239e+00
1.999999999999796074e+01,3.000000001174615960e+00,1.000000000004818190e+01,6.599999999999236477e-01,1.570000000000389750e+00,2.869999999999985903e+03,-2.174999999999668976e+00,-4.945000000001667395e+00,1.340815700562199453e+01,-2.116290293631348796e+00
1.999999999999903366e+01,3.000000001773430292e+00,1.000000000002315304e+01,6.600000000000327827e-01,1.570000000000130846e+00,2.869999999999996817e+03,-2.174999999999859934e+00,-4.945000000000636220e+00,1.342180741542199485e+01,-2.121454470446284546e+00
1.999999999999774047e+01,2.999999999946397100e+00,1.000000000002523493e+01,6.599999999999649480e-01,1.570000000000183693e+00,2.869999999999991360e+03,-2.174999999999786660e+00,-4.945000000000995044e+00,1.340873454896975758e+01,-2.152166477571786807e+00
1.999999999999903366e+01,2.999999999858228517e+00,1.000000000002561684e+01,6.599999999999697220e-01,1.570000000000288720e+00,2.869999999999986812e+03,-2.174999999999699174e+00,-4.945000000001471108e+00,1.339510579592661088e+01,-2.139891083092157142e+00
1.999999999999842260e+01,2.999999999882596136e+00,1.000000000004830625e+01,6.599999999999193179e-01,1.570000000000394635e+00,2.869999999999981355e+03,-2.174999999999540190e+00,-4.945000000001598117e+00,1.339231315252505183e+01,-2.149134913189694185e+00
1.999999999999899813e+01,3.000000001241166281e+00,1.000000000006457590e+01,6.599999999999556222e-01,1.570000000000326690e+00,2.869999999999999091e+03,-2.174999999999612132e+00,-4.945000000001717133e+00,1.338847235396966973e+01,-2.128998978698081856e+00
1.999999999999859313e+01,3.000000002294935353e+00,1.000000000006487610e+01,6.600000000000064704e-01,1.570000000000265405e+00,2.869999999999981810e+03,-2.174999999999630340e+00,-4.945000000001229523e+00,1.341917039002005829e+01,-2.124778426058841152e+00
2.000000000000001421e+01,3.000000001706022434e+00,1.000000000003980816e+01,6.600000000000415534e-01,1.570000000000053575e+00,2.869999999999998181e+03,-2.175000000000008260e+00,-4.944999999999966533e+00,1.339398669216956961e+01,-2.125417690081856215e+00
1.999999999999784350e+01,3.000000000015143886e+00,1.000000000001840128e+01,6.599999999999838218e-01,1.570000000000226770e+00,2.869999999999975444e+03,-2.174999999999827960e+00,-4.945000000001072316e+00,1.342307816727410597e+01,-2.127088327112120592e+00
1.999999999999838707e+01,3.000000000628308072e+00,1.000000000001318057e+01,6.599999999999786038e-01,1.570000000000210116e+00,2.869999999999979536e+03,-2.174999999999858158e+00,-4.945000000001079421e+00,1.342150749885328587e+01,-2.131794906754491237e+00
1.999999999999822009e+01,3.000000000233338682e+00,9.999999999998946620e+00,6.600000000000300071e-01,1.570000000000189022e+00,2.870000000000003183e+03,-2.174999999999858602e+00,-4.945000000001136264e+00,1.341454070080366279e+01,-2.118312497226883195e+00
1.999999999999879208e+01,3.000000000309751780e+00,1.000000000001025668e+01,6.600000000000548761e-01,1.570000000000152163e+00,2.869999999999992724e+03,-2.174999999999871481e+00,-4.945000000000852936e+00,1.341299609278882521e+01,-2.116017665262695413e+00
1.999999999999729283e+01,3.000000000227656560e+00,1.000000000001757527e+01,6.599999999999672795e-01,1.570000000000313145e+00,2.869999999999994543e+03,-2.174999999999739586e+00,-4.945000000001586571e+00,1.340591753798985231e+01,-2.123759239738007842e+00
1.999999999999680611e+01,3.000000000699626135e+00,1.000000000001359446e+01,6.599999999999877076e-01,1.570000000000324469e+00,2.869999999999994543e+03,-2.174999999999696509e+00,-4.945000000001832596e+00,1.341463822103769665e+01,-2.119486728679918386e+00
1.999999999999781508e+01,3.000000001474865563e+00,1.000000000001783462e+01,6.599999999999748290e-01,1.570000000000286056e+00,2.869999999999975898e+03,-2.174999999999737366e+00,-4.945000000001567031e+00,1.339390863092742379e+01,-2.122183611889057797e+00
1.999999999999799627e+01,3.000000001039849096e+00,1.000000000000996003e+01,6.599999999999520695e-01,1.570000000000350671e+00,2.869999999999957254e+03,-2.174999999999613021e+00,-4.945000000001728679e+00,1.339941546020862440e+01,-2.139550476307875204e+00
2.000000000000079936e+01,3.000000000713202830e+00,9.999999999993232080e+00,6.600000000000602052e-01,1.569999999999942331e+00,2.869999999999989996e+03,-2.175000000000106848e+00,-4.944999999999704521e+00,1.340794124045292968e+01,-2.122523584937017205e+00
2.000000000000012434e+01,3.000000001380999759e+00,1.000000000001863221e+01,6.600000000000333378e-01,1.569999999999943441e+00,2.869999999999986812e+03,-2.175000000000112177e+00,-4.944999999999878604e+00,1.339842940451174691e+01,-2.109457469792482165e+00
2.000000000000027356e+01,3.000000000384568377e+00,1.000000000005413092e+01,6.599999999999827116e-01,1.569999999999981632e+00,2.869999999999992724e+03,-2.175000000000048672e+00,-4.944999999999864393e+00,1.341639174743531981e+01,-2.140479155807926581e+00
2.000000000000070699e+01,2.999999998825569225e+00,1.000000000001766765e+01,6.600000000000508793e-01,1.569999999999980744e+00,2.869999999999995907e+03,-2.174999999999984279e+00,-4.945000000000282725e+00,1.340712498005370712e+01,-2.146460978863875990e+00
1.999999999999828759e+01,3.000000000466254590e+00,9.999999999994694022e+00,6.599999999999418554e-01,1.570000000000309592e+00,2.869999999999974079e+03,-2.174999999999715605e+00,-4.945000000001370744e+00,1.340113167121466375e+01,-2.142114831594786661e+00
1.999999999999959144e+01,2.999999998066301909e+00,1.000000000005129408e+01,6.599999999999012212e-01,1.570000000000140616e+00,2.869999999999997272e+03,-2.174999999999914113e+00,-4.945000000000172591e+00,1.339418797712931308e+01,-2.140187821401804413e+00
1.999999999999871392e+01,2.999999997077815284e+00,1.000000000002091305e+01,6.599999999999192069e-01,1.570000000000171259e+00,2.869999999999994543e+03,-2.174999999999873701e+00,-4.945000000000729479e+00,1.338697711860026907e+01,-2.147569891361835737e+00
1.999999999999833022e+01,2.999999999527391825e+00,1.000000000004023981e+01,6.599999999999750511e-01,1.570000000000270068e+00,2.870000000000002728e+03,-2.174999999999818634e+00,-4.945000000001220641e+00,1.340432888023907054e+01,-2.108161147761718368e+00
1.999999999999902300e+01,2.999999999724477284e+00,1.000000000001351808e+01,6.599999999999981437e-01,1.570000000000111751e+00,2.869999999999995907e+03,-2.174999999999999822e+00,-4.945000000000624674e+00,1.340131819497363885e+01,-2.131295606147194377e+00
1.999999999999649702e+01,3.000000000051158189e+00,1.000000000003091749e+01,6.599999999999037748e-01,1.570000000000526308e+00,2.870000000000003183e+03,-2.174999999999596145e+00,-4.945000000002779394e+00,1.337818203355507762e+01,-2.150397023987763667e+00
1.999999999999740652e+01,3.000000000231465958e+00,1.000000000002935963e+01,6.599999999999585087e-01,1.570000000000503881e+00,2.869999999999988177e+03,-2.174999999999522871e+00,-4.945000000002732321e+00,1.338878726629401150e+01,-2.145029963222444103e+00
2.000000000000031619e+01,3.000000000526985566e+00,9.999999999991645794e+00,6.599999999999631717e-01,1.570000000000038698e+00,2.869999999999973170e+03,-2.175000000000063771e+00,-4.945000000000243645e+00,1.339311997467832427e+01,-2.150525926319720948e+00
1.999999999999987210e+01,3.000000002086380846e+00,1.000000000003596057e+01,6.599999999999338618e-01,1.570000000000173923e+00,2.869999999999982720e+03,-2.174999999999908340e+00,-4.945000000000530527e+00,1.339405065250918447e+01,-2.127917146913616442e+00
1.999999999999763745e+01,3.000000000112948761e+00,9.999999999990603072e+00,6.599999999999750511e-01,1.570000000000273399e+00,2.869999999999968168e+03,-2.174999999999805311e+00,-4.945000000001236629e+00,1.342400426262859980e+01,-2.128682455557822539e+00
2.000000000000010658e+01,3.000000001461405663e+00,1.000000000004815526e+01,6.599999999999713873e-01,1.570000000000070672e+00,2.869999999999998181e+03,-2.174999999999884803e+00,-4.945000000000077556e+00,1.342071735318793380e+01,-2.133812495643789831e+00
1.999999999999864286e+01,2.999999997843720401e+00,1.000000000003903544e+01,6.599999999999314193e-01,1.570000000000363327e+00,2.870000000000005912e+03,-2.174999999999720934e+00,-4.945000000001332552e+00,1.339307919120695445e+01,-2.119642588774123482e+00
2.000000000000081357e+01,2.999999997950422603e+00,1.000000000004012435e+01,6.599999999999796030e-01,1.570000000000078000e+00,2.870000000000004093e+03,-2.174999999999850608e+00,-4.945000000000508322e+00,1.340561981398809266e+01,-2.155711183517900142e+00
2.000000000000085265e+01,3.000000000922789845e+00,1.000000000006292389e+01,6.599999999999314193e-01,1.570000000000183027e+00,2.869999999999998636e+03,-2.174999999999877254e+00,-4.945000000000678853e+00,1.338199584343494841e+01,-2.136318930865823695e+00
1.999999999999944578e+01,2.999999998797227896e+00,1.000000000004246026e+01,6.600000000000114664e-01,1.570000000000240536e+00,2.869999999999998636e+03,-2.174999999999808420e+00,-4.945000000001243734e+00,1.338409406174207561e+01,-2.129258680371490353e+00
1.999999999999909761e+01,2.999999999872805301e+00,9.999999999994683364e+00,6.599999999999767164e-01,1.570000000000310258e+00,2.869999999999992724e+03,-2.174999999999713829e+00,-4.945000000001704699e+00,1.340619387566477094e+01,-2.110509221199794894e+00
1.999999999999971934e+01,2.999999999393678785e+00,1.000000000001193357e+01,6.599999999999484057e-01,1.570000000000139950e+00,2.870000000000005002e+03,-2.174999999999932321e+00,-4.945000000000821849e+00,1.338513140627659403e+01,-2.142239565257084255e+00
2.000000000000121148e+01,2.999999999334971079e+00,1.000000000001657874e+01,6.600000000000071365e-01,1.570000000000134843e+00,2.870000000000000455e+03,-2.174999999999966072e+00,-4.945000000000287166e+00,1.339850331199636457e+01,-2.107875803225797817e+00
1.999999999999873168e+01,3.000000002457922310e+00,1.000000000000790124e+01,6.599999999999952571e-01,1.570000000000374207e+00,2.869999999999981355e+03,-2.174999999999670752e+00,-4.945000000001559037e+00,1.338608335251476156e+01,-2.127030710215618736e+00
1.999999999999782219e+01,2.999999998894815612e+00,9.999999999973704590e+00,6.600000000000540989e-01,1.570000000000248752e+00,2.869999999999965439e+03,-2.174999999999739142e+00,-4.945000000001692264e+00,1.342025758650290079e+01,-2.146809317154607655e+00
2.000000000000003908e+01,2.999999998527453471e+00,1.000000000005445422e+01,6.600000000000375566e-01,1.570000000000109086e+00,2.870000000000005457e+03,-2.174999999999823519e+00,-4.945000000000328022e+00,1.340146231392403209e+01,-2.141698189701966459e+00
2.000000000000046185e+01,2.999999997893034731e+00,1.000000000006163603e+01,6.599999999999945910e-01,1.570000000000100870e+00,2.869999999999998636e+03,-2.174999999999865263e+00,-4.945000000000469242e+00,1.338995265864147832e+01,-2.141151244727924396e+00
1.999999999999942091e+01,2.999999999994134470e+00,1.000000000002623146e+01,6.600000000000116884e-01,1.570000000000186136e+00,2.869999999999998181e+03,-2.174999999999776890e+00,-4.945000000000865370e+00,1.340432975691663842e+01,-2.115861326169848233e+00
2.000000000000118305e+01,3.000000000770064901e+00,1.000000000006430945e+01,6.600000000000513234e-01,1.570000000000056906e+00,2.870000000000021373e+03,-2.174999999999893241e+00,-4.944999999999807550e+00,1.338077597933954088e+01,-2.109144309865999212e+00
2.000000000000009237e+01,2.999999997208269598e+00,1.000000000000306599e+01,6.600000000000098010e-01,1.570000000000069118e+00,2.869999999999996817e+03,-2.174999999999922995e+00,-4.945000000000042917e+00,1.342995372109206187e+01,-2.146638402165677029e+00
1.999999999999626965e+01,3.000000000483711737e+00,9.999999999968496311e+00,6.600000000000051381e-01,1.570000000000320695e+00,2.869999999999961346e+03,-2.174999999999688516e+00,-4.945000000001755325e+00,1.342516043972116790e+01,-2.162022421458517307e+00
1.999999999999850786e+01,3.000000001461746724e+00,1.000000000001952394e+01,6.600000000000337819e-01,1.570000000000209450e+00,2.869999999999966803e+03,-2.174999999999787992e+00,-4.945000000001076756e+00,1.342886497489879005e+01,-2.129942312763896339e+00
2.000000000000024869e+01,2.999999999170135379e+00,1.000000000001091216e+01,6.599999999999506262e-01,1.570000000000176366e+00,2.869999999999984993e+03,-2.174999999999782663e+00,-4.945000000001018137e+00,1.341276478232985703e+01,-2.141435791206157901e+00
1.999999999999730349e+01,2.999999999151543140e+00,1.000000000001107203e+01,6.599999999999437428e-01,1.570000000000338014e+00,2.869999999999997726e+03,-2.174999999999654321e+00,-4.945000000001949836e+00,1.340615337775213334e+01,-2.148693960466192099e+00
1.999999999999981526e+01,3.000000000722644611e+00,1.000000000002278355e+01,6.599999999999192069e-01,1.570000000000231877e+00,2.869999999999987722e+03,-2.174999999999798650e+00,-4.945000000001122054e+00,1.340828803878107678e+01,-2.137699263770506342e+00
1.999999999999557332e+01,2.999999997370514038e+00,9.999999999987498001e+00,6.599999999999968114e-01,1.570000000000504770e+00,2.869999999999965439e+03,-2.174999999999485123e+00,-4.945000000003024532e+00,1.341634563107453459e+01,-2.150062893202201675e+00
1.999999999999419131e+01,3.000000000344732687e+00,9.999999999989398702e+00,6.599999999999490718e-01,1.570000000000630225e+00,2.869999999999959527e+03,-2.174999999999368328e+00,-4.945000000003552110e+00,1.342385642535617407e+01,-2.155226014972305482e+00
1.999999999999655387e+01,3.000000000632423003e+00,9.999999999983929300e+00,6.599999999999541789e-01,1.570000000000482121e+00,2.869999999999966803e+03,-2.174999999999533529e+00,-4.945000000002313989e+00,1.342239399230533081e+01,-2.155128873701442238e+00
1.999999999999592148e+01,3.000000001825938956e+00,9.999999999962637887e+00,6.599999999999985878e-01,1.570000000000410179e+00,2.869999999999964984e+03,-2.174999999999608136e+00,-4.945000000002422347e+00,1.340714831521839123e+01,-2.156832568782436343e+00
1.999999999999897327e+01,3.000000002576900915e+00,1.000000000002849809e+01,6.599999999999530687e-01,1.570000000000192575e+00,2.870000000000006366e+03,-2.174999999999798650e+00,-4.945000000001215312e+00,1.339890845087329652e+01,-2.145694298780478348e+00
2.000000000000187939e+01,3.000000000398805433e+00,1.000000000001658584e+01,6.600000000000803002e-01,1.569999999999885709e+00,2.870000000000001364e+03,-2.175000000000133937e+00,-4.944999999999555307e+00,1.341224069947944031e+01,-2.133078054298542359e+00
2.000000000000080291e+01,3.000000002673939736e+00,1.000000000004442846e+01,6.599999999999691669e-01,1.570000000000207896e+00,2.870000000000014552e+03,-2.174999999999770672e+00,-4.945000000001248175e+00,1.339830653277442529e+01,-2.119130982842682087e+00
1.999999999999792877e+01,3.000000000538168621e+00,9.999999999997537969e+00,6.599999999999492939e-01,1.570000000000315143e+00,2.869999999999988177e+03,-2.174999999999702727e+00,-4.945000000001609664e+00,1.339781456189550113e+01,-2.161939464979957926e+00
1.999999999999762323e+01,3.000000000951117851e+00,9.999999999970583531e+00,6.599999999999200950e-01,1.570000000000276952e+00,2.869999999999980901e+03,-2.174999999999771561e+00,-4.945000000002004015e+00,1.339847054700370244e+01,-2.153133842455444480e+00
1.999999999999770495e+01,2.999999998716402771e+00,1.000000000002391154e+01,6.599999999999336397e-01,1.570000000000433271e+00,2.869999999999991360e+03,-2.174999999999539302e+00,-4.945000000001967599e+00,1.341589028180545640e+01,-2.131884546590696594e+00
1.999999999999875655e+01,2.999999999738711232e+00,1.000000000001271871e+01,6.599999999999511813e-01,1.570000000000307594e+00,2.869999999999977263e+03,-2.174999999999744027e+00,-4.945000000001412488e+00,1.339899054131793932e+01,-2.131157536179314693e+00
2.000000000000009592e+01,3.000000002182619419e+00,1.000000000000509814e+01,6.600000000000137979e-01,1.570000000000092211e+00,2.869999999999981355e+03,-2.174999999999897682e+00,-4.945000000000676188e+00,1.341812253637596974e+01,-2.140573114483365291e+00
1.999999999999637978e+01,2.999999999071357060e+00,9.999999999990901500e+00,6.599999999999345279e-01,1.570000000000480789e+00,2.869999999999949523e+03,-2.174999999999509548e+00,-4.945000000002518270e+00,1.341099367287413990e+01,-2.154583064578869944e+00
1.999999999999695177e+01,2.999999999181560462e+00,9.999999999986322052e+00,6.599999999999361933e-01,1.570000000000386198e+00,2.869999999999958618e+03,-2.174999999999578826e+00,-4.945000000002189644e+00,1.341576718630971676e+01,-2.162926524014791241e+00
1.999999999999730704e+01,3.000000001690953599e+00,1.000000000003735678e+01,6.599999999999343059e-01,1.570000000000402851e+00,2.869999999999971806e+03,-2.174999999999605915e+00,-4.945000000002053753e+00,1.340487551196710925e+01,-2.131323944498555889e+00
1.999999999999957723e+01,2.999999999056245148e+00,1.000000000005492851e+01,6.600000000000715294e-01,1.570000000000153051e+00,2.869999999999981355e+03,-2.174999999999839062e+00,-4.945000000001027018e+00,1.341935933870285069e+01,-2.113783075661334276e+00
2.000000000000128964e+01,2.999999999032694653e+00,1.000000000006399148e+01,6.600000000000937339e-01,1.569999999999998730e+00,2.869999999999982720e+03,-2.174999999999976286e+00,-4.945000000000203677e+00,1.342219680827924932e+01,-2.115304987864047970e+00
1.999999999999899813e+01,2.999999999032803455e+00,1.000000000001746869e+01,6.599999999999850431e-01,1.570000000000049800e+00,2.869999999999974079e+03,-2.174999999999915445e+00,-4.945000000000465690e+00,1.342584423323369158e+01,-2.154341198220165676e+00
2.000000000000193978e+01,2.999999999807654305e+00,1.000000000004807177e+01,6.600000000000176836e-01,1.569999999999873275e+00,2.870000000000002274e+03,-2.175000000000081979e+00,-4.944999999999427409e+00,1.340544038213557343e+01,-2.128815780035005822e+00
2.000000000000170886e+01,3.000000001032699704e+00,1.000000000004838085e+01,6.600000000000062483e-01,1.570000000000106199e+00,2.869999999999997726e+03,-2.174999999999957190e+00,-4.944999999999796891e+00,1.337780155403864235e+01,-2.123455176255720112e+00
1.999999999999980460e+01,3.000000000521660937e+00,1.000000000001085887e+01,6.600000000000291189e-01,1.570000000000277174e+00,2.869999999999964075e+03,-2.174999999999782663e+00,-4.945000000000965734e+00,1.340864334009887671e+01,-2.148923520444016688e+00
1.999999999999989697e+01,2.999999998882831864e+00,1.000000000004618528e+01,6.599999999999500711e-01,1.570000000000208118e+00,2.869999999999973170e+03,-2.174999999999836842e+00,-4.945000000000887574e+00,1.339053487536776466e+01,-2.174248775141180978e+00
2.000000000000048317e+01,2.999999999278214258e+00,1.000000000001744915e+01,6.599999999999917044e-01,1.570000000000078000e+00,2.869999999999969987e+03,-2.174999999999926992e+00,-4.945000000000133511e+00,1.338049074581698505e+01,-2.169789125318204448e+00
2.000000000000118305e+01,2.999999999160168684e+00,1.000000000002046008e+01,6.599999999999970335e-01,1.570000000000018270e+00,2.869999999999974534e+03,-2.174999999999996714e+00,-4.944999999999784457e+00,1.338107728324488122e+01,-2.166455852073911004e+00
2.000000000000039790e+01,3.000000001065556976e+00,1.000000000002285638e+01,6.599999999999516254e-01,1.570000000000152163e+00,2.869999999999968622e+03,-2.174999999999829736e+00,-4.945000000000557172e+00,1.339319444334026343e+01,-2.137425691287649698e+00
2.000000000000109068e+01,2.999999998083398900e+00,1.000000000003614176e+01,6.599999999999458522e-01,1.570000000000238538e+00,2.869999999999990905e+03,-2.174999999999889244e+00,-4.945000000000536744e+00,1.340001237178448790e+01,-2.132986335461320770e+00
1.999999999999784706e+01,2.999999999482207524e+00,1.000000000000762235e+01,6.599999999999701661e-01,1.570000000000288276e+00,2.869999999999991815e+03,-2.174999999999681854e+00,-4.945000000001721574e+00,1.340656586099631298e+01,-2.133524971738537612e+00
2.000000000000019895e+01,3.000000001698193142e+00,1.000000000005906386e+01,6.599999999999494049e-01,1.570000000000280949e+00,2.869999999999976808e+03,-2.174999999999673861e+00,-4.945000000001150475e+00,1.339933077909054226e+01,-2.151438814194993832e+00
2.000000000000239453e+01,2.999999999804492834e+00,1.000000000003994494e+01,6.599999999999549560e-01,1.570000000000055351e+00,2.869999999999989086e+03,-2.174999999999982503e+00,-4.944999999999574847e+00,1.341410412053756041e+01,-2.157709518045141994e+00
1.999999999999997513e+01,3.000000000328800098e+00,1.000000000003409895e+01,6.599999999999482947e-01,1.570000000000211005e+00,2.870000000000007731e+03,-2.174999999999844835e+00,-4.945000000000693952e+00,1.338496724040172126e+01,-2.118036741188916938e+00
1.999999999999951683e+01,3.000000001180584963e+00,1.000000000002144773e+01,6.599999999999162092e-01,1.570000000000272733e+00,2.869999999999997272e+03,-2.174999999999850608e+00,-4.945000000000867146e+00,1.339150830103169909e+01,-2.126712667971077497e+00
2.000000000000018474e+01,2.999999999745450729e+00,1.000000000001924860e+01,6.599999999999290878e-01,1.570000000000153495e+00,2.869999999999997726e+03,-2.174999999999841283e+00,-4.945000000000463025e+00,1.339089150671914652e+01,-2.139058487193519653e+00
2.000000000000109424e+01,2.999999999713408361e+00,1.000000000004198952e+01,6.599999999999405231e-01,1.570000000000078000e+00,2.870000000000012733e+03,-2.175000000000039790e+00,-4.944999999999873275e+00,1.337999146890124891e+01,-2.137220593402564539e+00
1.999999999999958078e+01,3.000000001266404315e+00,1.000000000001578826e+01,6.600000000001221556e-01,1.570000000000011831e+00,2.869999999999979082e+03,-2.174999999999955858e+00,-4.945000000000819185e+00,1.340690011651234670e+01,-2.139901801343113252e+00
2.000000000000008882e+01,2.999999999460543965e+00,1.000000000003938183e+01,6.599999999999879297e-01,1.570000000000160822e+00,2.869999999999989086e+03,-2.174999999999820410e+00,-4.945000000000968399e+00,1.340269947693649577e+01,-2.136295015962992316e+00
2.000000000000177280e+01,3.000000000120220278e+00,1.000000000005135270e+01,6.600000000000071365e-01,1.569999999999983409e+00,2.870000000000002728e+03,-2.175000000000063327e+00,-4.944999999999680540e+00,1.339931026405503012e+01,-2.121564286472212846e+00
1.999999999999988276e+01,3.000000001287684182e+00,1.000000000005092460e+01,6.599999999999830447e-01,1.570000000000222773e+00,2.869999999999990450e+03,-2.174999999999790212e+00,-4.945000000001191331e+00,1.339629993750098969e+01,-2.135893287857647760e+00
1.999999999999931433e+01,2.999999998233662257e+00,1.000000000000868283e+01,6.600000000001073897e-01,1.570000000000154827e+00,2.869999999999969987e+03,-2.174999999999802203e+00,-4.945000000000983498e+00,1.342098417726706217e+01,-2.137113858889721385e+00
1.999999999999998934e+01,2.999999998333858553e+00,9.999999999987204902e+00,6.600000000001040590e-01,1.570000000000121965e+00,2.869999999999969077e+03,-2.174999999999818190e+00,-4.945000000001149587e+00,1.343107824500950898e+01,-2.127381475221898466e+00
2.000000000000052225e+01,2.999999998497399289e+00,1.000000000001116085e+01,6.600000000000733058e-01,1.570000000000125073e+00,2.869999999999977717e+03,-2.174999999999810196e+00,-4.945000000001011031e+00,1.343553236745244206e+01,-2.124450198189932859e+00
1.999999999999875655e+01,2.999999998929173017e+00,1.000000000003730527e+01,6.599999999999178746e-01,1.570000000000333351e+00,2.869999999999991360e+03,-2.174999999999700950e+00,-4.945000000001361862e+00,1.339655267682499229e+01,-2.150732334642882826e+00
2.000000000000101252e+01,2.999999999915483606e+00,1.000000000004019185e+01,6.599999999999570655e-01,1.570000000000098428e+00,2.869999999999960892e+03,-2.175000000000036682e+00,-4.944999999999884821e+00,1.339237951537357141e+01,-2.160524927169717113e+00
1.999999999999678124e+01,2.999999999702375408e+00,9.999999999995029754e+00,6.599999999999355271e-01,1.570000000000411733e+00,2.869999999999961346e+03,-2.174999999999581934e+00,-4.945000000002353069e+00,1.340728899757072767e+01,-2.149458219569376549e+00
2.000000000000046896e+01,2.999999998371225107e+00,1.000000000002848921e+01,6.599999999999867084e-01,1.570000000000056906e+00,2.870000000000010459e+03,-2.175000000000004263e+00,-4.945000000000517204e+00,1.337776784242355710e+01,-2.149707331309101743e+00
1.999999999999819522e+01,3.000000000378043374e+00,1.000000000001584866e+01,6.599999999999534017e-01,1.570000000000313811e+00,2.869999999999983629e+03,-2.174999999999644551e+00,-4.945000000001564366e+00,1.341498273630220517e+01,-2.142693174710931014e+00
1.999999999999736033e+01,3.000000002208180305e+00,1.000000000005417000e+01,6.599999999999719424e-01,1.570000000000312035e+00,2.869999999999995907e+03,-2.174999999999704947e+00,-4.945000000001271268e+00,1.341974196573699452e+01,-2.131693521032551164e+00
2.000000000000160938e+01,2.999999999285079433e+00,1.000000000004835421e+01,6.599999999998814593e-01,1.570000000000004059e+00,2.869999999999998636e+03,-2.174999999999975842e+00,-4.944999999999672546e+00,1.340111092893226896e+01,-2.144755674931645206e+00
1.999999999999924327e+01,2.999999998737194140e+00,1.000000000003628919e+01,6.599999999999871525e-01,1.570000000000240759e+00,2.869999999999999091e+03,-2.174999999999704059e+00,-4.945000000001273932e+00,1.339169533718539284e+01,-2.126760612491402913e+00
2.000000000000126477e+01,3.000000001505582325e+00,1.000000000005310064e+01,6.600000000000161293e-01,1.570000000000018714e+00,2.870000000000012278e+03,-2.175000000000031797e+00,-4.944999999999677875e+00,1.338114995908771299e+01,-2.140268193441218436e+00
1.999999999999757705e+01,2.999999997913704863e+00,1.000000000003371170e+01,6.599999999999417444e-01,1.570000000000383533e+00,2.869999999999978172e+03,-2.174999999999622347e+00,-4.945000000001664731e+00,1.339885769052671272e+01,-2.158580740181757829e+00
1.999999999999901235e+01,3.000000000239844589e+00,9.999999999974759746e+00,6.600000000000454392e-01,1.570000000000149276e+00,2.869999999999977717e+03,-2.174999999999892353e+00,-4.945000000001336993e+00,1.339729471371321701e+01,-2.155106848315800239e+00
1.999999999999697309e+01,3.000000000906771991e+00,9.999999999938806283e+00,6.599999999999505151e-01,1.570000000000311147e+00,2.869999999999963165e+03,-2.174999999999758238e+00,-4.945000000001981810e+00,1.340911445972387206e+01,-2.155672680838047750e+00
1.999999999999781508e+01,2.999999999854913835e+00,1.000000000000649969e+01,6.599999999999947020e-01,1.570000000000293161e+00,2.869999999999972715e+03,-2.174999999999688516e+00,-4.945000000001567031e+00,1.343512850499018541e+01,-2.143098977598625776e+00
1.999999999999852562e+01,3.000000000808147771e+00,1.000000000002735767e+01,6.599999999999786038e-01,1.570000000000251417e+00,2.869999999999982265e+03,-2.174999999999775557e+00,-4.945000000001003926e+00,1.342099682846058251e+01,-2.119051335340382369e+00
1.999999999999894840e+01,3.000000000332750716e+00,1.000000000001919354e+01,6.600000000000141309e-01,1.570000000000111973e+00,2.869999999999991360e+03,-2.174999999999887912e+00,-4.945000000000469242e+00,1.342882336164501389e+01,-2.114071969232031556e+00
2.000000000000039435e+01,3.000000002776024299e+00,1.000000000003373302e+01,6.599999999999900391e-01,1.570000000000068008e+00,2.869999999999993634e+03,-2.174999999999965627e+00,-4.945000000000329798e+00,1.342234885856425208e+01,-2.133795998775401603e+00
1.999999999999631939e+01,2.999999999357480185e+00,1.000000000000756017e+01,6.599999999999839329e-01,1.570000000000321139e+00,2.869999999999964075e+03,-2.174999999999661870e+00,-4.945000000001962270e+00,1.341420725780824874e+01,-2.165205053051097117e+00
1.999999999999676703e+01,3.000000000411402024e+00,1.000000000002712497e+01,6.600000000000253442e-01,1.570000000000285167e+00,2.869999999999963620e+03,-2.174999999999670308e+00,-4.945000000001310347e+00,1.341923194924700624e+01,-2.159324166471448425e+00
1.999999999999608491e+01,3.000000001047455900e+00,9.999999999996473932e+00,6.599999999999808242e-01,1.570000000000459695e+00,2.869999999999979082e+03,-2.174999999999494449e+00,-4.945000000002694129e+00,1.339162426169574793e+01,-2.147807495605766448e+00
1.999999999999840128e+01,3.000000000898562114e+00,9.999999999996326494e+00,6.599999999999431877e-01,1.570000000000361773e+00,2.869999999999972260e+03,-2.174999999999731148e+00,-4.945000000001581242e+00,1.340818871486295372e+01,-2.131667097101836994e+00
2.000000000000041211e+01,3.000000000334161143e+00,1.000000000003474909e+01,6.599999999999793809e-01,1.570000000000037810e+00,2.869999999999966349e+03,-2.174999999999963407e+00,-4.945000000000352003e+00,1.340580990494849090e+01,-2.161682078982916977e+00
1.999999999999915445e+01,3.000000000071082695e+00,1.000000000000253131e+01,6.599999999999304201e-01,1.570000000000144835e+00,2.869999999999973170e+03,-2.174999999999751132e+00,-4.945000000000743690e+00,1.342543031954366839e+01,-2.133435694333766008e+00
1.999999999999690914e+01,3.000000000828141999e+00,9.999999999956868280e+00,6.599999999999333067e-01,1.570000000000279172e+00,2.869999999999971806e+03,-2.174999999999745359e+00,-4.945000000001726015e+00,1.341524804741547605e+01,-2.162668107692768515e+00
1.999999999999890576e+01,2.999999999644949789e+00,1.000000000001613465e+01,6.599999999999103251e-01,1.570000000000215667e+00,2.869999999999972715e+03,-2.174999999999740918e+00,-4.945000000001134488e+00,1.341119092721071659e+01,-2.134623269946633428e+00
1.999999999999906564e+01,3.000000000520867349e+00,1.000000000002141931e+01,6.600000000000534328e-01,1.570000000000149054e+00,2.870000000000011823e+03,-2.174999999999758682e+00,-4.945000000000934648e+00,1.341675698004844541e+01,-2.116145344672983875e+00
1.999999999999793943e+01,3.000000001238899650e+00,1.000000000000691180e+01,6.599999999999333067e-01,1.570000000000323803e+00,2.869999999999962256e+03,-2.174999999999756017e+00,-4.945000000001670948e+00,1.338571149888578660e+01,-2.158611837539633260e+00
1.999999999999946354e+01,3.000000002831507473e+00,1.000000000003282707e+01,6.599999999999655032e-01,1.570000000000153495e+00,2.869999999999960892e+03,-2.174999999999870592e+00,-4.945000000000792539e+00,1.339283085375363136e+01,-2.150414092319677728e+00
2.000000000000414602e+01,2.999999998363994003e+00,1.000000000003222667e+01,6.599999999999954792e-01,1.569999999999754037e+00,2.870000000000017735e+03,-2.175000000000256506e+00,-4.944999999998413109e+00,1.341114956367782796e+01,-2.118539095285378426e+00
2.000000000000265743e+01,2.999999998358861664e+00,1.000000000001856648e+01,6.599999999999984768e-01,1.569999999999889262e+00,2.870000000000006366e+03,-2.175000000000117950e+00,-4.944999999999093454e+00,1.340893521864326665e+01,-2.114935456598708186e+00
2.000000000000214584e+01,2.999999999975472509e+00,1.000000000001115552e+01,6.600000000000173506e-01,1.569999999999962759e+00,2.869999999999998636e+03,-2.175000000000029132e+00,-4.944999999999687645e+00,1.342186950344371077e+01,-2.117738054769756850e+00
2.000000000000339639e+01,2.999999999808760087e+00,1.000000000001685585e+01,6.599999999999945910e-01,1.569999999999847962e+00,2.869999999999997272e+03,-2.175000000000155254e+00,-4.944999999998691997e+00,1.342194753914019856e+01,-2.120942902533383911e+00
2.000000000000106226e+01,2.999999998516822863e+00,1.000000000004908784e+01,6.599999999999831557e-01,1.569999999999996509e+00,2.870000000000008185e+03,-2.175000000000094413e+00,-4.944999999999682316e+00,1.339241850960083724e+01,-2.121651418819965773e+00
1.999999999999856470e+01,2.999999998090898234e+00,1.000000000000945910e+01,6.600000000000090239e-01,1.570000000000244311e+00,2.869999999999997726e+03,-2.174999999999793321e+00,-4.945000000001455120e+00,1.340298780659908218e+01,-2.125969168070899862e+00
1.999999999999712230e+01,2.999999998852414418e+00,9.999999999985220711e+00,6.600000000000297851e-01,1.570000000000406848e+00,2.869999999999965439e+03,-2.174999999999594369e+00,-4.945000000002417018e+00,1.338790677494867509e+01,-2.160736653316459588e+00
2.000000000000144595e+01,3.000000000379005272e+00,1.000000000006813927e+01,6.599999999999978106e-01,1.570000000000085105e+00,2.870000000000004547e+03,-2.174999999999889244e+00,-4.945000000000089990e+00,1.338929347484671517e+01,-2.150448770120975350e+00
2.000000000000042633e+01,3.000000002818061340e+00,1.000000000006818368e+01,6.600000000000022515e-01,1.570000000000137286e+00,2.869999999999990450e+03,-2.174999999999879474e+00,-4.945000000000487894e+00,1.335814632358210829e+01,-2.152634671701856739e+00
2.000000000000073541e+01,3.000000002480689432e+00,1.000000000006761169e+01,6.600000000000075806e-01,1.570000000000107088e+00,2.869999999999988177e+03,-2.174999999999902567e+00,-4.945000000000249862e+00,1.336086305746465186e+01,-2.158210797368735889e+00
2.000000000000200728e+01,3.000000000788109134e+00,1.000000000005113598e+01,6.600000000000246780e-01,1.570000000000016938e+00,2.870000000000002728e+03,-2.175000000000009148e+00,-4.944999999999719620e+00,1.338336162246579519e+01,-2.140035263534485033e+00
2.000000000000282796e+01,2.999999999549221474e+00,1.000000000004813039e+01,6.600000000000008082e-01,1.569999999999976081e+00,2.869999999999999091e+03,-2.175000000000046452e+00,-4.944999999999525109e+00,1.337981879786357631e+01,-2.154357406793929286e+00
2.000000000000003553e+01,3.000000001428935636e+00,1.000000000007674572e+01,6.599999999999425215e-01,1.570000000000341123e+00,2.869999999999997272e+03,-2.174999999999738254e+00,-4.945000000001252616e+00,1.335999472249031861e+01,-2.121517805093029452e+00
2.000000000000121858e+01,2.999999999033299503e+00,1.000000000006687451e+01,6.600000000000022515e-01,1.570000000000078888e+00,2.870000000000002274e+03,-2.174999999999928768e+00,-4.945000000000061569e+00,1.337854064104111806e+01,-2.136046388185290468e+00
1.999999999999874944e+01,2.999999999233485148e+00,1.000000000003425704e+01,6.600000000000558753e-01,1.570000000000211005e+00,2.870000000000010459e+03,-2.174999999999835953e+00,-4.945000000001022578e+00,1.340297523418647963e+01,-2.117269837971330393e+00
1.999999999999765876e+01,2.999999998802025392e+00,1.000000000000663469e+01,6.600000000000604272e-01,1.570000000000281615e+00,2.869999999999999545e+03,-2.174999999999716938e+00,-4.945000000001873453e+00,1.340200028835005597e+01,-2.119896465084975201e+00
1.999999999999961986e+01,2.999999998658352318e+00,1.000000000006411227e+01,6.599999999999895950e-01,1.570000000000208118e+00,2.870000000000000909e+03,-2.174999999999866596e+00,-4.945000000000776552e+00,1.339962941514965955e+01,-2.124063406417311839e+00
2.000000000000040146e+01,3.000000000746597895e+00,1.000000000005801226e+01,6.599999999999373035e-01,1.570000000000099316e+00,2.869999999999989086e+03,-2.175000000000001599e+00,-4.944999999999974527e+00,1.340683047773393000e+01,-2.136565568084781930e+00
1.999999999999844036e+01,3.000000003273068927e+00,1.000000000004301270e+01,6.599999999999178746e-01,1.570000000000391305e+00,2.869999999999980446e+03,-2.174999999999666311e+00,-4.945000000001459561e+00,1.341426081656515734e+01,-2.125937354485650577e+00
1.999999999999626255e+01,3.000000003369676538e+00,1.000000000002710898e+01,6.599999999999255351e-01,1.570000000000553397e+00,2.869999999999988177e+03,-2.174999999999517097e+00,-4.945000000002607088e+00,1.341385245323904485e+01,-2.122413459673763825e+00
2.000000000000143174e+01,3.000000000032283509e+00,1.000000000005228529e+01,6.599999999999718314e-01,1.570000000000042029e+00,2.869999999999976808e+03,-2.174999999999908340e+00,-4.944999999999965645e+00,1.341197057795323389e+01,-2.137506264744811091e+00
2.000000000000139622e+01,3.000000000415624868e+00,1.000000000003887024e+01,6.599999999999225375e-01,1.570000000000151275e+00,2.869999999999966803e+03,-2.174999999999875477e+00,-4.944999999999885709e+00,1.342438014665892076e+01,-2.137212540489132007e+00
1.999999999999922196e+01,3.000000001184025766e+00,1.000000000003070966e+01,6.599999999999552891e-01,1.570000000000326468e+00,2.869999999999991815e+03,-2.174999999999761346e+00,-4.945000000001324558e+00,1.340991959884952678e+01,-2.113941918405151110e+00
1.999999999999984723e+01,3.000000000736398054e+00,1.000000000003130118e+01,6.600000000000159073e-01,1.570000000000255413e+00,2.869999999999988631e+03,-2.174999999999767120e+00,-4.945000000000970175e+00,1.341649792387197593e+01,-2.116820332111719161e+00
2.000000000000158451e+01,3.000000001834619123e+00,1.000000000004974510e+01,6.599999999999556222e-01,1.570000000000109752e+00,2.869999999999993179e+03,-2.174999999999878586e+00,-4.945000000000376872e+00,1.340303291668800156e+01,-2.128453373803960602e+00
1.999999999999895905e+01,3.000000002462767767e+00,1.000000000003154454e+01,6.599999999999817124e-01,1.570000000000285834e+00,2.870000000000001364e+03,-2.174999999999696954e+00,-4.945000000001456897e+00,1.341089381918337331e+01,-2.116675894649300282e+00
2.000000000000006040e+01,3.000000002765220497e+00,1.000000000004133938e+01,6.599999999999920375e-01,1.570000000000254747e+00,2.870000000000000000e+03,-2.174999999999706723e+00,-4.945000000001248175e+00,1.341556749169482288e+01,-2.110359654416141595e+00
1.999999999999862510e+01,3.000000003510532309e+00,1.000000000001565503e+01,6.600000000000030287e-01,1.570000000000331131e+00,2.869999999999992724e+03,-2.174999999999601918e+00,-4.945000000001972928e+00,1.342495424992146269e+01,-2.124460509367091188e+00
2.000000000000002487e+01,3.000000004308290169e+00,1.000000000003958078e+01,6.600000000000145750e-01,1.570000000000265405e+00,2.869999999999998181e+03,-2.174999999999677858e+00,-4.945000000001580354e+00,1.341477111949322421e+01,-2.116912025440329970e+00
1.999999999999572964e+01,3.000000002696701529e+00,1.000000000001206324e+01,6.600000000000316724e-01,1.570000000000490559e+00,2.869999999999972715e+03,-2.174999999999486899e+00,-4.945000000003059171e+00,1.340804311092551870e+01,-2.145399252915621169e+00
1.999999999999920064e+01,3.000000001822662021e+00,1.000000000002671996e+01,6.600000000000012523e-01,1.570000000000257634e+00,2.869999999999987267e+03,-2.174999999999819966e+00,-4.945000000000930207e+00,1.338606606453776671e+01,-2.133546244265451364e+00
1.999999999999733191e+01,3.000000002276075328e+00,1.000000000002814993e+01,6.599999999999285327e-01,1.570000000000402851e+00,2.869999999999985903e+03,-2.174999999999641886e+00,-4.945000000001975593e+00,1.339131652094817149e+01,-2.141848028623630107e+00
1.999999999999829825e+01,3.000000001923221582e+00,1.000000000002069633e+01,6.599999999999783817e-01,1.570000000000375984e+00,2.870000000000004093e+03,-2.174999999999756461e+00,-4.945000000002002238e+00,1.338082648236152394e+01,-2.137699829212599933e+00
1.999999999999977618e+01,3.000000001091589930e+00,1.000000000003124612e+01,6.599999999999780487e-01,1.570000000000194573e+00,2.870000000000018645e+03,-2.174999999999852829e+00,-4.945000000000953300e+00,1.339201043647258160e+01,-2.124658898017829589e+00
2.000000000000034461e+01,3.000000002503343755e+00,9.999999999998768985e+00,6.599999999999154321e-01,1.570000000000083107e+00,2.869999999999986812e+03,-2.175000000000001155e+00,-4.944999999999692974e+00,1.343103480254012005e+01,-2.136149284614351718e+00
1.999999999999988987e+01,3.000000001649710590e+00,1.000000000002855849e+01,6.599999999999195399e-01,1.570000000000112861e+00,2.870000000000007276e+03,-2.174999999999967848e+00,-4.945000000000505658e+00,1.339589664476854836e+01,-2.122814104414901593e+00
2.000000000000000355e+01,3.000000001028151342e+00,1.000000000003547385e+01,6.599999999999341949e-01,1.570000000000099982e+00,2.870000000000008185e+03,-2.174999999999966960e+00,-4.945000000000373319e+00,1.341090083225329899e+01,-2.118616784668749808e+00
1.999999999999826272e+01,3.000000002148397460e+00,1.000000000001151967e+01,6.599999999998726885e-01,1.570000000000331131e+00,2.870000000000002274e+03,-2.174999999999736477e+00,-4.945000000001989804e+00,1.339794923850773500e+01,-2.132465332369684052e+00
2.000000000000015632e+01,2.999999999994368061e+00,1.000000000004553513e+01,6.599999999999319744e-01,1.570000000000193907e+00,2.870000000000005002e+03,-2.174999999999788880e+00,-4.945000000000862705e+00,1.340516873407880993e+01,-2.117185928177724552e+00
1.999999999999690914e+01,3.000000000440609771e+00,9.999999999990858868e+00,6.599999999999351941e-01,1.570000000000405738e+00,2.869999999999971806e+03,-2.174999999999576161e+00,-4.945000000002204743e+00,1.339702260648189203e+01,-2.146710930823548136e+00
1.999999999999704769e+01,3.000000001793568849e+00,1.000000000004647127e+01,6.599999999999619504e-01,1.570000000000399298e+00,2.869999999999994543e+03,-2.174999999999578382e+00,-4.945000000001973817e+00,1.340877920847267113e+01,-2.123358799172975431e+00
2.000000000000073896e+01,2.999999995609616388e+00,1.000000000003258727e+01,6.599999999999737188e-01,1.570000000000263629e+00,2.869999999999991360e+03,-2.174999999999787104e+00,-4.945000000001023466e+00,1.339401148362967575e+01,-2.130195186845380562e+00
2.000000000000051159e+01,2.999999996398786895e+00,1.000000000000770051e+01,6.599999999999991429e-01,1.570000000000213225e+00,2.869999999999989541e+03,-2.174999999999867040e+00,-4.945000000000987939e+00,1.339909239448196487e+01,-2.133265459986780410e+00
1.999999999999962697e+01,2.999999997719583700e+00,9.999999999999861444e+00,6.599999999999902611e-01,1.570000000000248752e+00,2.869999999999982265e+03,-2.174999999999738254e+00,-4.945000000001253504e+00,1.338572365105608952e+01,-2.148316975435110798e+00
1.999999999999775113e+01,2.999999998816865077e+00,9.999999999987318589e+00,6.600000000000085798e-01,1.570000000000228768e+00,2.869999999999979991e+03,-2.174999999999816858e+00,-4.945000000001256169e+00,1.341144336158428807e+01,-2.148166612550261423e+00
1.999999999999500133e+01,2.999999997110251115e+00,9.999999999998394173e+00,6.599999999999839329e-01,1.570000000000540741e+00,2.869999999999957254e+03,-2.174999999999494005e+00,-4.945000000002712781e+00,1.341569950776590225e+01,-2.151843286650386489e+00
1.999999999999879208e+01,2.999999998222341535e+00,1.000000000000581224e+01,6.600000000000787459e-01,1.570000000000126850e+00,2.870000000000001364e+03,-2.174999999999776445e+00,-4.945000000001246399e+00,1.341412949200840288e+01,-2.127297955808044261e+00
1.999999999999410960e+01,2.999999999185954280e+00,1.000000000000087397e+01,6.599999999999617284e-01,1.570000000000693952e+00,2.869999999999956344e+03,-2.174999999999291944e+00,-4.945000000003675567e+00,1.340629844314577390e+01,-2.134125460120830375e+00
1.999999999999965894e+01,3.000000002012240596e+00,1.000000000001462119e+01,6.599999999999774936e-01,1.570000000000225882e+00,2.869999999999966349e+03,-2.174999999999748024e+00,-4.945000000000892904e+00,1.341351618071006868e+01,-2.133206870328325344e+00
1.999999999999544897e+01,2.999999997805968821e+00,9.999999999976486365e+00,6.600000000000150191e-01,1.570000000000295381e+00,2.869999999999978172e+03,-2.174999999999653877e+00,-4.945000000002046647e+00,1.340255450607845589e+01,-2.152270144349624381e+00
1.999999999999785061e+01,3.000000001678009731e+00,1.000000000002722444e+01,6.599999999999341949e-01,1.570000000000459695e+00,2.869999999999959982e+03,-2.174999999999537081e+00,-4.945000000002328200e+00,1.340657942563786165e+01,-2.144864601378877023e+00
1.999999999999678124e+01,3.000000002142207300e+00,1.000000000002127543e+01,6.599999999999761613e-01,1.570000000000481233e+00,2.869999999999964984e+03,-2.174999999999404743e+00,-4.945000000002695906e+00,1.342651780407662798e+01,-2.129682993328866125e+00
1.999999999999766942e+01,3.000000001319956588e+00,1.000000000001862155e+01,6.600000000000032507e-01,1.570000000000359774e+00,2.869999999999955435e+03,-2.174999999999648104e+00,-4.945000000001649632e+00,1.339613739925339608e+01,-2.143235391615268881e+00
