1.999999999999822364e+01,2.999999999261675043e+00,9.999999999989290345e+00,6.600000000001103873e-01,1.570000000000180140e+00,2.869999999999984993e+03,-2.174999999999807532e+00,-4.945000000000989715e+00,1.341511248200561290e+01,-2.133314121206486114e+00
1.999999999999782574e+01,2.999999998560474612e+00,1.000000000001646150e+01,6.599999999999410782e-01,1.570000000000247642e+00,2.870000000000010004e+03,-2.174999999999799982e+00,-4.945000000001266827e+00,1.341904173054848215e+01,-2.116538275064090868e+00
1.999999999999894129e+01,2.999999998883975838e+00,1.000000000003454836e+01,6.599999999999729416e-01,1.570000000000220552e+00,2.869999999999997726e+03,-2.174999999999847056e+00,-4.945000000000693063e+00,1.341177031092611749e+01,-2.123145635841297896e+00
1.999999999999770495e+01,2.999999999606521417e+00,1.000000000000171774e+01,6.600000000000713074e-01,1.570000000000274509e+00,2.869999999999987267e+03,-2.174999999999691624e+00,-4.945000000001755325e+00,1.341260835731872270e+01,-2.138310293390088379e+00
1.999999999999608136e+01,3.000000001862029197e+00,9.999999999982536636e+00,6.599999999999928146e-01,1.570000000000427054e+00,2.869999999999977717e+03,-2.174999999999558398e+00,-4.945000000002534257e+00,1.340704179638214022e+01,-2.140767869041524385e+00
2.000000000000066080e+01,2.999999999776912674e+00,1.000000000003033129e+01,6.600000000000262323e-01,1.570000000000071783e+00,2.869999999999993179e+03,-2.174999999999858158e+00,-4.945000000000659313e+00,1.341990076016399769e+01,-2.130201777878765412e+00
1.999999999999762323e+01,2.999999999058506450e+00,9.999999999988389732e+00,6.600000000000547651e-01,1.570000000000106866e+00,2.869999999999988177e+03,-2.174999999999813749e+00,-4.945000000000940865e+00,1.340424877198902109e+01,-2.143170955284423584e+00
1.999999999999668532e+01,2.999999998733940298e+00,9.999999999980643040e+00,6.600000000000538769e-01,1.570000000000243867e+00,2.869999999999987267e+03,-2.174999999999712053e+00,-4.945000000001536833e+00,1.341694101711385478e+01,-2.139840354891275442e+00
1.999999999999881695e+01,2.999999999644552329e+00,1.000000000000501643e+01,6.599999999999482947e-01,1.570000000000192131e+00,2.869999999999993179e+03,-2.174999999999847944e+00,-4.945000000001403606e+00,1.341167426038679977e+01,-2.144032448175526628e+00
1.999999999999864997e+01,2.999999997773674654e+00,9.999999999999371170e+00,6.599999999999528466e-01,1.570000000000180806e+00,2.869999999999970441e+03,-2.174999999999838174e+00,-4.945000000001370744e+00,1.343712039362404731e+01,-2.146754405670075805e+00
1.999999999999636913e+01,2.999999998878876362e+00,9.999999999995418776e+00,6.600000000000421085e-01,1.570000000000392193e+00,2.869999999999954525e+03,-2.174999999999532641e+00,-4.945000000002545804e+00,1.343007660352137833e+01,-2.142182202748411424e+00
1.999999999999705125e+01,2.999999997778498795e+00,9.999999999992093436e+00,6.600000000001129408e-01,1.570000000000236540e+00,2.869999999999969987e+03,-2.174999999999683187e+00,-4.945000000001945395e+00,1.342359353573823277e+01,-2.145139683457663260e+00
2.000000000000123990e+01,2.999999999724050515e+00,1.000000000001545430e+01,6.599999999999530687e-01,1.570000000000068230e+00,2.870000000000008640e+03,-2.174999999999984723e+00,-4.945000000000228546e+00,1.342139923868134055e+01,-2.120448934578472944e+00
1.999999999999836220e+01,2.999999998638833709e+00,1.000000000001564615e+01,6.599999999999225375e-01,1.570000000000315366e+00,2.869999999999989086e+03,-2.174999999999768452e+00,-4.945000000001453344e+00,1.341441552402122817e+01,-2.136617252010333701e+00
1.999999999999948841e+01,2.999999998161325454e+00,1.000000000001673151e+01,6.600000000001239320e-01,1.570000000000033369e+00,2.869999999999985903e+03,-2.175000000000008260e+00,-4.945000000000766782e+00,1.340881104420422254e+01,-2.124896453870592783e+00
1.999999999999562661e+01,2.999999998692484127e+00,9.999999999971887377e+00,6.600000000000399991e-01,1.570000000000427498e+00,2.869999999999972260e+03,-2.174999999999650768e+00,-4.945000000002399254e+00,1.341788347730844677e+01,-2.124289022836463481e+00
1.999999999999885958e+01,2.999999999835540887e+00,1.000000000003145217e+01,6.600000000000476597e-01,1.570000000000173701e+00,2.869999999999961346e+03,-2.174999999999826628e+00,-4.945000000001338769e+00,1.341625837848193115e+01,-2.144132751987933627e+00
1.999999999999965539e+01,2.999999999758268032e+00,1.000000000003867306e+01,6.600000000000619815e-01,1.570000000000099760e+00,2.869999999999970896e+03,-2.174999999999924327e+00,-4.945000000000717044e+00,1.341127113542222027e+01,-2.147766435751369496e+00
1.999999999999766231e+01,3.000000000773545228e+00,1.000000000001509193e+01,6.599999999999064393e-01,1.570000000000303819e+00,2.869999999999972260e+03,-2.174999999999704503e+00,-4.945000000001407159e+00,1.340446981158075346e+01,-2.155567755854668199e+00
1.999999999999742784e+01,2.999999998896678566e+00,9.999999999996390443e+00,6.600000000000316724e-01,1.570000000000164597e+00,2.869999999999968622e+03,-2.174999999999765787e+00,-4.945000000001316565e+00,1.342185850885765319e+01,-2.160616953459861378e+00
1.999999999999844746e+01,2.999999999189167266e+00,1.000000000001321254e+01,6.600000000000239009e-01,1.570000000000212115e+00,2.869999999999974079e+03,-2.174999999999741807e+00,-4.945000000001162022e+00,1.340196692228568409e+01,-2.141509958923331070e+00
1.999999999999960920e+01,2.999999999717006816e+00,1.000000000003195666e+01,6.599999999999375255e-01,1.570000000000308704e+00,2.869999999999989541e+03,-2.174999999999739586e+00,-4.945000000001314788e+00,1.339988978083525595e+01,-2.138195695982017419e+00
1.999999999999694111e+01,2.999999998117108824e+00,1.000000000002186873e+01,6.600000000000588729e-01,1.570000000000281171e+00,2.869999999999987267e+03,-2.174999999999643219e+00,-4.945000000002063523e+00,1.338165603872585407e+01,-2.163527752130578463e+00
1.999999999999606715e+01,2.999999998824082859e+00,1.000000000002117240e+01,6.599999999999496270e-01,1.570000000000446594e+00,2.869999999999977263e+03,-2.174999999999546407e+00,-4.945000000002605312e+00,1.341477611260956238e+01,-2.133864731859087094e+00
2.000000000000069988e+01,2.999999998180901795e+00,1.000000000002677858e+01,6.600000000001157163e-01,1.570000000000011164e+00,2.869999999999978627e+03,-2.174999999999951861e+00,-4.945000000000383089e+00,1.341666076296439236e+01,-2.153729515106745040e+00
1.999999999999924682e+01,2.999999998082996111e+00,1.000000000001663025e+01,6.599999999999460742e-01,1.570000000000261187e+00,2.869999999999984993e+03,-2.174999999999772005e+00,-4.945000000001269491e+00,1.341042910148352618e+01,-2.150440468568696417e+00
1.999999999999760547e+01,3.000000000530370858e+00,1.000000000000202327e+01,6.600000000000413314e-01,1.570000000000348006e+00,2.869999999999987267e+03,-2.174999999999567279e+00,-4.945000000001969376e+00,1.339065328785163622e+01,-2.143596445356908742e+00
1.999999999999522871e+01,2.999999999682030793e+00,1.000000000000548006e+01,6.600000000000895151e-01,1.570000000000535190e+00,2.869999999999977263e+03,-2.174999999999429612e+00,-4.945000000003100027e+00,1.340490323211230539e+01,-2.147148967872694936e+00
2.000000000000131450e+01,2.999999997909302607e+00,1.000000000002278000e+01,6.599999999999947020e-01,1.570000000000083107e+00,2.869999999999999545e+03,-2.174999999999941647e+00,-4.945000000000391083e+00,1.339030796261064893e+01,-2.148142356214697735e+00
1.999999999999783640e+01,2.999999999547274587e+00,1.000000000000009237e+01,6.600000000000428857e-01,1.570000000000276064e+00,2.869999999999980901e+03,-2.174999999999768896e+00,-4.945000000001472884e+00,1.340941637525192043e+01,-2.132343741237533674e+00
2.000000000000216360e+01,2.999999998950062974e+00,1.000000000003975131e+01,6.599999999999585087e-01,1.570000000000028928e+00,2.870000000000004093e+03,-2.174999999999950528e+00,-4.945000000000240092e+00,1.339743507581404103e+01,-2.154629496666896848e+00
2.000000000000154898e+01,2.999999998590225037e+00,1.000000000001962519e+01,6.599999999999659472e-01,1.569999999999983853e+00,2.869999999999998636e+03,-2.174999999999964739e+00,-4.945000000000307594e+00,1.340866416489066637e+01,-2.156023300604480664e+00
1.999999999999819877e+01,3.000000000060778493e+00,1.000000000000570921e+01,6.599999999999190958e-01,1.570000000000473239e+00,2.869999999999974534e+03,-2.174999999999495337e+00,-4.945000000002823803e+00,1.339851609037336289e+01,-2.145605956562190553e+00
1.999999999999591438e+01,3.000000000934159416e+00,9.999999999983710808e+00,6.599999999999135447e-01,1.570000000000473461e+00,2.869999999999953161e+03,-2.174999999999536193e+00,-4.945000000002345963e+00,1.342527973442927802e+01,-2.137214111279281514e+00
2.000000000000127187e+01,2.999999999951685759e+00,1.000000000001844747e+01,6.599999999999479616e-01,1.569999999999946994e+00,2.869999999999990450e+03,-2.175000000000130829e+00,-4.944999999999336815e+00,1.339460829009218124e+01,-2.160902828350337757e+00
2.000000000000137135e+01,2.999999999390139394e+00,1.000000000003225864e+01,6.600000000001147171e-01,1.569999999999994733e+00,2.869999999999995907e+03,-2.175000000000002931e+00,-4.945000000000031370e+00,1.340598473953941117e+01,-2.143817044413661055e+00
2.000000000000018474e+01,3.000000000658576749e+00,1.000000000000023270e+01,6.599999999999952571e-01,1.570000000000072227e+00,2.869999999999986812e+03,-2.175000000000002931e+00,-4.945000000000190354e+00,1.339989351807696139e+01,-2.157007490166845898e+00
1.999999999999929301e+01,3.000000000231446418e+00,9.999999999990002664e+00,6.600000000000764144e-01,1.570000000000133511e+00,2.869999999999988177e+03,-2.174999999999946088e+00,-4.945000000000721485e+00,1.340654411204804752e+01,-2.143100336453220400e+00
1.999999999999894129e+01,3.000000000771853692e+00,1.000000000003056577e+01,6.599999999999924816e-01,1.570000000000223661e+00,2.869999999999990450e+03,-2.174999999999748912e+00,-4.945000000001147811e+00,1.340678133245029358e+01,-2.125174127970790749e+00
1.999999999999898748e+01,2.999999998015265401e+00,1.000000000002368239e+01,6.599999999999930367e-01,1.570000000000116858e+00,2.870000000000002274e+03,-2.174999999999902123e+00,-4.945000000000542961e+00,1.341876681453651265e+01,-2.133791847932070329e+00
1.999999999999831601e+01,2.999999999439319609e+00,1.000000000000078693e+01,6.599999999999447420e-01,1.570000000000348006e+00,2.869999999999974989e+03,-2.174999999999611688e+00,-4.945000000001969376e+00,1.341820046718468973e+01,-2.132847413668098380e+00
2.000000000000081002e+01,3.000000000317112114e+00,1.000000000008063772e+01,6.600000000000120215e-01,1.570000000000158602e+00,2.869999999999996362e+03,-2.174999999999798650e+00,-4.945000000000553619e+00,1.336997893780897328e+01,-2.158977055244628129e+00
1.999999999999672085e+01,3.000000002394588083e+00,1.000000000003207568e+01,6.599999999999913713e-01,1.570000000000372431e+00,2.869999999999953161e+03,-2.174999999999549960e+00,-4.945000000001979146e+00,1.341954007128839876e+01,-2.136738576051381955e+00
1.999999999999914735e+01,3.000000000541549472e+00,1.000000000002543565e+01,6.600000000000475486e-01,1.570000000000107088e+00,2.869999999999969077e+03,-2.174999999999913225e+00,-4.945000000000572271e+00,1.341933736274081390e+01,-2.140622870374507158e+00
1.999999999999936051e+01,3.000000000068645978e+00,1.000000000003371703e+01,6.599999999999539568e-01,1.570000000000130846e+00,2.869999999999969077e+03,-2.174999999999905675e+00,-4.945000000000628226e+00,1.341131181309668996e+01,-2.146877141285784774e+00
1.999999999999927525e+01,3.000000001148702022e+00,1.000000000003159784e+01,6.599999999999944800e-01,1.570000000000155493e+00,2.869999999999998181e+03,-2.174999999999894129e+00,-4.945000000000925766e+00,1.342227219150126238e+01,-2.114483226203127675e+00
1.999999999999818456e+01,2.999999999994436450e+00,1.000000000000809308e+01,6.599999999999911493e-01,1.570000000000208118e+00,2.869999999999995907e+03,-2.174999999999913225e+00,-4.945000000000967511e+00,1.341443848453215537e+01,-2.121163730394585389e+00
1.999999999999998224e+01,2.999999998924696598e+00,1.000000000003377743e+01,6.599999999999678346e-01,1.570000000000157492e+00,2.870000000000001819e+03,-2.174999999999827516e+00,-4.945000000000714380e+00,1.340150264067208496e+01,-2.126144609746321468e+00
1.999999999999742428e+01,3.000000000956247970e+00,1.000000000000020250e+01,6.600000000000094680e-01,1.570000000000264961e+00,2.869999999999998181e+03,-2.174999999999788436e+00,-4.945000000001630980e+00,1.341853084651858730e+01,-2.118093274350358879e+00
1.999999999999874589e+01,3.000000000368952424e+00,1.000000000004385825e+01,6.599999999999125455e-01,1.570000000000311591e+00,2.869999999999981810e+03,-2.174999999999656097e+00,-4.945000000001245510e+00,1.340772046129914230e+01,-2.131931962278608150e+00
1.999999999999912248e+01,3.000000001796542470e+00,9.999999999994061639e+00,6.600000000000268985e-01,1.570000000000085549e+00,2.869999999999991815e+03,-2.175000000000048228e+00,-4.945000000000370655e+00,1.339476260536263119e+01,-2.140778467413896102e+00
1.999999999999932498e+01,3.000000001745210199e+00,1.000000000001726086e+01,6.599999999999583977e-01,1.570000000000143725e+00,2.869999999999974989e+03,-2.174999999999803091e+00,-4.945000000000716156e+00,1.341219407630673111e+01,-2.159204953931121995e+00
1.999999999999873168e+01,3.000000000128143718e+00,1.000000000002871481e+01,6.599999999999452971e-01,1.570000000000230322e+00,2.869999999999981355e+03,-2.174999999999755129e+00,-4.945000000001217977e+00,1.340230231461482902e+01,-2.155976776529180849e+00
1.999999999999948486e+01,2.999999999742642753e+00,1.000000000000772893e+01,6.600000000000535438e-01,1.570000000000106866e+00,2.869999999999989541e+03,-2.174999999999911893e+00,-4.945000000000886686e+00,1.340313635453284569e+01,-2.159337855781981563e+00
2.000000000000112621e+01,2.999999999416536500e+00,9.999999999999715783e+00,6.600000000000890710e-01,1.569999999999988072e+00,2.869999999999982720e+03,-2.174999999999998490e+00,-4.945000000000333351e+00,1.339430588047221171e+01,-2.149354149110350942e+00
1.999999999999733902e+01,3.000000001014617723e+00,9.999999999996179056e+00,6.599999999999617284e-01,1.570000000000426832e+00,2.869999999999962256e+03,-2.174999999999490452e+00,-4.945000000002208296e+00,1.341034333550528146e+01,-2.150026994074313968e+00
1.999999999999985434e+01,2.999999999048764909e+00,1.000000000003435474e+01,6.599999999998602540e-01,1.570000000000083773e+00,2.870000000000004093e+03,-2.174999999999943423e+00,-4.945000000000113083e+00,1.340999430413216587e+01,-2.138190426182086767e+00
1.999999999999807798e+01,2.999999998427882453e+00,1.000000000001294609e+01,6.599999999999169864e-01,1.570000000000194795e+00,2.869999999999996817e+03,-2.174999999999831068e+00,-4.945000000001273044e+00,1.339566239007087489e+01,-2.140924139185227393e+00
2.000000000000023448e+01,2.999999999300917430e+00,1.000000000003274359e+01,6.600000000000247891e-01,1.569999999999994067e+00,2.870000000000005912e+03,-2.175000000000065103e+00,-4.945000000000082885e+00,1.340059444300365676e+01,-2.129449853492891176e+00
1.999999999999537081e+01,3.000000000268504330e+00,1.000000000000915179e+01,6.599999999998684697e-01,1.570000000000710161e+00,2.869999999999997726e+03,-2.174999999999436273e+00,-4.945000000003695106e+00,1.337964374174415916e+01,-2.144872236836614210e+00
1.999999999999810640e+01,2.999999998781789134e+00,1.000000000003473843e+01,6.599999999999343059e-01,1.570000000000431717e+00,2.869999999999999545e+03,-2.174999999999611244e+00,-4.945000000002108820e+00,1.338043869705844280e+01,-2.149071612646916485e+00
2.000000000000282796e+01,3.000000002113623943e+00,1.000000000002063949e+01,6.599999999999996980e-01,1.569999999999874385e+00,2.869999999999983629e+03,-2.175000000000169464e+00,-4.944999999999357243e+00,1.340690012158998989e+01,-2.131734777817245519e+00
1.999999999999862510e+01,3.000000003245042013e+00,1.000000000004550138e+01,6.599999999998936717e-01,1.570000000000385310e+00,2.869999999999963165e+03,-2.174999999999656097e+00,-4.945000000001426699e+00,1.339169693246538806e+01,-2.129261432534836462e+00
1.999999999999763745e+01,2.999999998221992037e+00,9.999999999992102317e+00,6.600000000000172395e-01,1.570000000000232099e+00,2.869999999999968622e+03,-2.174999999999790656e+00,-4.945000000001269491e+00,1.342265338692522292e+01,-2.135547234202425759e+00
2.000000000000081002e+01,2.999999999058791555e+00,1.000000000004279599e+01,6.600000000000337819e-01,1.570000000000020490e+00,2.869999999999990450e+03,-2.174999999999935429e+00,-4.944999999999939888e+00,1.340998457886186479e+01,-2.136639814271645399e+00
2.000000000000034106e+01,2.999999996681677938e+00,1.000000000003778844e+01,6.600000000000052491e-01,1.570000000000112195e+00,2.869999999999996362e+03,-2.174999999999801759e+00,-4.945000000000866258e+00,1.341897896388302236e+01,-2.159491591039292224e+00
2.000000000000056488e+01,2.999999997201515001e+00,1.000000000002760103e+01,6.599999999999902611e-01,1.570000000000084217e+00,2.869999999999992269e+03,-2.174999999999876810e+00,-4.945000000000611351e+00,1.341610025436382791e+01,-2.153047499812336341e+00
1.999999999999678479e+01,3.000000001269335748e+00,1.000000000002332534e+01,6.599999999999666134e-01,1.570000000000500107e+00,2.869999999999985448e+03,-2.174999999999533085e+00,-4.945000000002741203e+00,1.339702795187234585e+01,-2.128373467276342801e+00
1.999999999999794298e+01,3.000000000064331651e+00,9.999999999994518163e+00,6.599999999999605071e-01,1.570000000000388640e+00,2.869999999999979991e+03,-2.174999999999658762e+00,-4.945000000002148788e+00,1.341505305628030520e+01,-2.123551352949413662e+00
1.999999999999557332e+01,3.000000002290033496e+00,9.999999999995441868e+00,6.599999999999738298e-01,1.570000000000693952e+00,2.869999999999942702e+03,-2.174999999999312816e+00,-4.945000000003489937e+00,1.340164214679393950e+01,-2.136148365155405404e+00
2.000000000000041567e+01,2.999999998713637872e+00,9.999999999997223554e+00,6.600000000000567635e-01,1.570000000000031815e+00,2.869999999999975444e+03,-2.175000000000010036e+00,-4.945000000000207230e+00,1.341438944793505073e+01,-2.140468238411905144e+00
2.000000000000006750e+01,2.999999998549131686e+00,1.000000000006135892e+01,6.600000000000456613e-01,1.570000000000155049e+00,2.870000000000001364e+03,-2.174999999999752021e+00,-4.945000000000619345e+00,1.340937718150523139e+01,-2.145159612136796845e+00
1.999999999999931077e+01,2.999999998036765980e+00,1.000000000003797140e+01,6.600000000000220135e-01,1.570000000000193685e+00,2.869999999999995907e+03,-2.174999999999736477e+00,-4.945000000000899121e+00,1.341336437216668998e+01,-2.144216049503222532e+00
2.000000000000022382e+01,2.999999998304139659e+00,1.000000000004027534e+01,6.600000000000361133e-01,1.570000000000127738e+00,2.869999999999985903e+03,-2.174999999999815525e+00,-4.945000000000898233e+00,1.340080343878731561e+01,-2.137557309304826347e+00
2.000000000000048672e+01,2.999999996739131536e+00,1.000000000002354028e+01,6.600000000001068345e-01,1.570000000000035145e+00,2.869999999999992724e+03,-2.174999999999932321e+00,-4.945000000000051799e+00,1.342019625135963423e+01,-2.137723291953594451e+00
2.000000000000064304e+01,2.999999996901106858e+00,1.000000000002116707e+01,6.599999999999910383e-01,1.570000000000072227e+00,2.869999999999988631e+03,-2.174999999999925659e+00,-4.944999999999877716e+00,1.343164102496930923e+01,-2.144933424043977244e+00
1.999999999999705480e+01,3.000000000656791066e+00,9.999999999986355803e+00,6.599999999999351941e-01,1.570000000000387974e+00,2.869999999999961346e+03,-2.174999999999637446e+00,-4.945000000001918750e+00,1.343126096346325404e+01,-2.148664581097036397e+00
1.999999999999627320e+01,2.999999999970388131e+00,9.999999999968023801e+00,6.599999999999730527e-01,1.570000000000377538e+00,2.869999999999964984e+03,-2.174999999999660538e+00,-4.945000000001925855e+00,1.342152857685834100e+01,-2.144897233241163992e+00
2.000000000000037303e+01,3.000000000708156644e+00,1.000000000002018474e+01,6.600000000000978417e-01,1.569999999999973861e+00,2.869999999999962256e+03,-2.175000000000007372e+00,-4.944999999999899920e+00,1.344163771612776337e+01,-2.125603351129975671e+00
1.999999999999931788e+01,3.000000000704423631e+00,1.000000000002369305e+01,6.599999999999711653e-01,1.570000000000154605e+00,2.869999999999957708e+03,-2.174999999999855493e+00,-4.945000000000574936e+00,1.342226898642221755e+01,-2.141263641028943621e+00
2.000000000000004619e+01,2.999999998342188334e+00,1.000000000000437694e+01,6.599999999998568123e-01,1.570000000000209894e+00,2.869999999999968168e+03,-2.174999999999779554e+00,-4.945000000000925766e+00,1.341557301432689542e+01,-2.163050030911383370e+00
1.999999999999863931e+01,2.999999998221144715e+00,9.999999999991327826e+00,6.599999999999852651e-01,1.570000000000199236e+00,2.869999999999969987e+03,-2.174999999999741362e+00,-4.945000000001378737e+00,1.341251143509173893e+01,-2.157359268693321397e+00
1.999999999999650413e+01,2.999999997922554673e+00,9.999999999987084109e+00,6.599999999998928946e-01,1.570000000000398410e+00,2.869999999999992269e+03,-2.174999999999667200e+00,-4.945000000002270468e+00,1.340929724437808268e+01,-2.141424299620873661e+00
1.999999999999801759e+01,2.999999997829005949e+00,9.999999999988473220e+00,6.599999999999105471e-01,1.570000000000277174e+00,2.869999999999991360e+03,-2.174999999999717382e+00,-4.945000000001911644e+00,1.341602671157113136e+01,-2.144444576997397434e+00
2.000000000000071765e+01,3.000000001385183079e+00,1.000000000003135625e+01,6.599999999999330846e-01,1.570000000000150164e+00,2.869999999999996817e+03,-2.174999999999951417e+00,-4.945000000000655760e+00,1.340483996210063999e+01,-2.128930579528870215e+00
1.999999999999635136e+01,2.999999998286175362e+00,1.000000000000362910e+01,6.600000000000925127e-01,1.570000000000401297e+00,2.869999999999964530e+03,-2.174999999999538858e+00,-4.945000000002500506e+00,1.341347242327248601e+01,-2.147916971938492292e+00
1.999999999999571543e+01,2.999999998976798476e+00,9.999999999971342035e+00,6.600000000000950662e-01,1.570000000000356666e+00,2.869999999999962711e+03,-2.174999999999629896e+00,-4.945000000002462315e+00,1.342454016554325058e+01,-2.149529545370769679e+00
1.999999999999470290e+01,3.000000000945759027e+00,9.999999999985604404e+00,6.599999999999041078e-01,1.570000000000606022e+00,2.869999999999961801e+03,-2.174999999999418954e+00,-4.945000000002979235e+00,1.342360993424206050e+01,-2.144604550441034707e+00
1.999999999999554490e+01,2.999999999912032589e+00,9.999999999987895904e+00,6.600000000000453282e-01,1.570000000000471685e+00,2.869999999999967713e+03,-2.174999999999468692e+00,-4.945000000002922391e+00,1.343016618865354950e+01,-2.146696894339435335e+00
1.999999999999705125e+01,3.000000001628996937e+00,9.999999999989205079e+00,6.599999999999656142e-01,1.570000000000465246e+00,2.869999999999967713e+03,-2.174999999999581934e+00,-4.945000000002152341e+00,1.341660672472555227e+01,-2.144804505476657575e+00
1.999999999999552358e+01,3.000000000057031713e+00,9.999999999967574382e+00,6.599999999999202061e-01,1.570000000000571605e+00,2.869999999999975898e+03,-2.174999999999454037e+00,-4.945000000002888640e+00,1.341757353471199465e+01,-2.143565386310603227e+00
1.999999999999501554e+01,3.000000000829778024e+00,9.999999999966226127e+00,6.599999999999939249e-01,1.570000000000464135e+00,2.869999999999968168e+03,-2.174999999999563727e+00,-4.945000000002599094e+00,1.340825734287495408e+01,-2.158409242704167674e+00
1.999999999999650413e+01,3.000000000562469182e+00,9.999999999986004084e+00,6.599999999999617284e-01,1.570000000000394635e+00,2.869999999999978627e+03,-2.174999999999656985e+00,-4.945000000001996021e+00,1.339205609704159450e+01,-2.161519228200663889e+00
2.000000000000223110e+01,3.000000000447919035e+00,1.000000000004333245e+01,6.599999999999794920e-01,1.569999999999934337e+00,2.870000000000017735e+03,-2.175000000000107736e+00,-4.944999999999702744e+00,1.339125437600037749e+01,-2.149347743310342729e+00
2.000000000000031619e+01,2.999999999931722616e+00,1.000000000002969180e+01,6.600000000000434408e-01,1.570000000000041362e+00,2.870000000000000000e+03,-2.174999999999978506e+00,-4.945000000000191243e+00,1.339357632991135105e+01,-2.135151420324262972e+00
1.999999999999675637e+01,2.999999999904683801e+00,1.000000000001064038e+01,6.600000000000484368e-01,1.570000000000301155e+00,2.869999999999990905e+03,-2.174999999999630784e+00,-4.945000000001872564e+00,1.340792920967562907e+01,-2.145445637744016310e+00
1.999999999999855760e+01,3.000000002296749901e+00,9.999999999986977528e+00,6.599999999999086597e-01,1.570000000000228102e+00,2.869999999999989086e+03,-2.174999999999857714e+00,-4.945000000001347651e+00,1.339975416319605372e+01,-2.149150282328070372e+00
1.999999999999585398e+01,2.999999999196198974e+00,1.000000000001711875e+01,6.599999999999910383e-01,1.570000000000538298e+00,2.869999999999998636e+03,-2.174999999999481570e+00,-4.945000000002555574e+00,1.340703983212770645e+01,-2.134512570030450807e+00
1.999999999999853628e+01,3.000000000826639646e+00,1.000000000000155254e+01,6.599999999999839329e-01,1.570000000000290497e+00,2.869999999999969987e+03,-2.174999999999724931e+00,-4.945000000001360085e+00,1.340921683214243920e+01,-2.135981846955063546e+00
1.999999999999936762e+01,3.000000000301165759e+00,1.000000000002653699e+01,6.600000000000547651e-01,1.570000000000096652e+00,2.869999999999994998e+03,-2.174999999999869260e+00,-4.945000000000637108e+00,1.341434269478033769e+01,-2.127368414836583010e+00
1.999999999999893774e+01,2.999999998332878004e+00,1.000000000002513367e+01,6.599999999999928146e-01,1.570000000000204343e+00,2.869999999999961346e+03,-2.174999999999770672e+00,-4.945000000001045670e+00,1.340185622174369762e+01,-2.149375331684181933e+00
1.999999999999714362e+01,2.999999999269429729e+00,1.000000000000550848e+01,6.599999999999809353e-01,1.570000000000387530e+00,2.869999999999953161e+03,-2.174999999999597922e+00,-4.945000000002078622e+00,1.341036964175541257e+01,-2.152917605389126354e+00
1.999999999999686295e+01,2.999999999399526995e+00,9.999999999999053202e+00,6.599999999999902611e-01,1.570000000000342899e+00,2.869999999999963620e+03,-2.174999999999590372e+00,-4.945000000002204743e+00,1.340903279426330741e+01,-2.157280373221690528e+00
1.999999999999780442e+01,2.999999999922918548e+00,9.999999999998538058e+00,6.600000000000023626e-01,1.570000000000261853e+00,2.869999999999958618e+03,-2.174999999999688516e+00,-4.945000000001634533e+00,1.340910675891796622e+01,-2.158268116892697375e+00
1.999999999999830180e+01,3.000000001558399632e+00,1.000000000004735057e+01,6.600000000000258993e-01,1.570000000000357776e+00,2.869999999999974989e+03,-2.174999999999666311e+00,-4.945000000001838814e+00,1.339932395068760584e+01,-2.122473429328295857e+00
2.000000000000382272e+01,2.999999998386852607e+00,1.000000000007710277e+01,6.600000000000481037e-01,1.569999999999785789e+00,2.870000000000002728e+03,-2.175000000000250733e+00,-4.944999999998960227e+00,1.340894446715497068e+01,-2.129751706856658711e+00
1.999999999999876366e+01,2.999999998778765331e+00,1.000000000002610001e+01,6.599999999999690559e-01,1.570000000000049578e+00,2.869999999999969987e+03,-2.174999999999929212e+00,-4.945000000000486118e+00,1.341362138963415340e+01,-2.167964502064820387e+00
2.000000000000217426e+01,2.999999999944434670e+00,1.000000000004014922e+01,6.600000000000474376e-01,1.569999999999815543e+00,2.869999999999995907e+03,-2.175000000000129496e+00,-4.944999999999474483e+00,1.340284359812857673e+01,-2.131414369273204823e+00
1.999999999999804601e+01,2.999999998934977263e+00,9.999999999978619769e+00,6.599999999999702771e-01,1.570000000000426166e+00,2.869999999999948614e+03,-2.174999999999664979e+00,-4.945000000001853913e+00,1.342663623727673006e+01,-2.160229461709552989e+00
1.999999999999929301e+01,3.000000001475187084e+00,9.999999999999321432e+00,6.600000000001015055e-01,1.570000000000258744e+00,2.869999999999957254e+03,-2.174999999999801314e+00,-4.945000000001304130e+00,1.340789961169232747e+01,-2.146485871699591819e+00
1.999999999999899458e+01,2.999999998493479758e+00,1.000000000004516743e+01,6.600000000000277867e-01,1.570000000000251417e+00,2.869999999999980446e+03,-2.174999999999738698e+00,-4.945000000001385843e+00,1.338141707770548550e+01,-2.160191828382160839e+00
2.000000000000187228e+01,2.999999999598292888e+00,1.000000000003826273e+01,6.599999999999867084e-01,1.569999999999945439e+00,2.869999999999982720e+03,-2.175000000000048228e+00,-4.944999999999174278e+00,1.339407902139630302e+01,-2.146530593766911021e+00
2.000000000000105516e+01,3.000000000846544168e+00,1.000000000001278444e+01,6.599999999999736078e-01,1.570000000000061124e+00,2.869999999999957708e+03,-2.174999999999917222e+00,-4.945000000000018936e+00,1.338965671050948281e+01,-2.163667843617900211e+00
2.000000000000010658e+01,3.000000000809725620e+00,1.000000000001238476e+01,6.599999999999403011e-01,1.570000000000325580e+00,2.869999999999962256e+03,-2.174999999999660094e+00,-4.945000000001181562e+00,1.339660152068013055e+01,-2.131182252468752480e+00
1.999999999999943157e+01,2.999999997488859371e+00,1.000000000001797495e+01,6.599999999999205391e-01,1.570000000000376428e+00,2.869999999999982720e+03,-2.174999999999780886e+00,-4.945000000001201101e+00,1.340756030285846379e+01,-2.136583939005537225e+00
1.999999999999773692e+01,2.999999999966818098e+00,1.000000000000297362e+01,6.599999999999487388e-01,1.570000000000397078e+00,2.869999999999994998e+03,-2.174999999999620126e+00,-4.945000000001948059e+00,1.341148947242747980e+01,-2.122113305833606134e+00
2.000000000000136424e+01,3.000000001311122766e+00,1.000000000006895284e+01,6.599999999999136557e-01,1.570000000000223661e+00,2.869999999999992724e+03,-2.174999999999722267e+00,-4.945000000000785434e+00,1.340805001459851020e+01,-2.136492654919659007e+00
2.000000000000042277e+01,3.000000000818880075e+00,1.000000000001531042e+01,6.599999999999945910e-01,1.570000000000129958e+00,2.869999999999981355e+03,-2.174999999999926548e+00,-4.945000000000269402e+00,1.342720051275345128e+01,-2.146860421871164881e+00
2.000000000000471090e+01,3.000000001501247127e+00,1.000000000004585310e+01,6.600000000000649791e-01,1.569999999999796003e+00,2.870000000000000000e+03,-2.175000000000240075e+00,-4.944999999998433537e+00,1.341164788248728534e+01,-2.154976701662551175e+00
2.000000000000034461e+01,2.999999999780535553e+00,1.000000000001705303e+01,6.599999999999881517e-01,1.570000000000139506e+00,2.869999999999998636e+03,-2.174999999999924771e+00,-4.945000000000352003e+00,1.339018841825067341e+01,-2.138959692854683681e+00
2.000000000000109424e+01,2.999999999887911883e+00,1.000000000003994849e+01,6.599999999999154321e-01,1.570000000000090434e+00,2.870000000000013188e+03,-2.174999999999939870e+00,-4.945000000000202789e+00,1.338139874756801539e+01,-2.132585506005617582e+00
2.000000000000138911e+01,3.000000001411044614e+00,1.000000000002587619e+01,6.600000000001087219e-01,1.569999999999857510e+00,2.870000000000005457e+03,-2.175000000000091305e+00,-4.945000000000053575e+00,1.340567066811984631e+01,-2.133821781792546446e+00
2.000000000000099121e+01,3.000000000373170383e+00,1.000000000004043166e+01,6.599999999998525935e-01,1.570000000000162155e+00,2.869999999999999545e+03,-2.174999999999896794e+00,-4.945000000000627338e+00,1.341214855944646267e+01,-2.134022340562004239e+00
2.000000000000059686e+01,2.999999999604671785e+00,1.000000000004236433e+01,6.599999999999930367e-01,1.570000000000049134e+00,2.869999999999984539e+03,-2.174999999999999378e+00,-4.945000000000077556e+00,1.339735993372961076e+01,-2.131462939271131951e+00
2.000000000000016698e+01,3.000000000211658246e+00,1.000000000004141221e+01,6.600000000000683098e-01,1.570000000000022711e+00,2.869999999999973625e+03,-2.174999999999959854e+00,-4.945000000000505658e+00,1.340397373191052566e+01,-2.154210062985748131e+00
1.999999999999953815e+01,2.999999998376385424e+00,1.000000000000680522e+01,6.600000000001423617e-01,1.570000000000050466e+00,2.869999999999977263e+03,-2.174999999999901235e+00,-4.945000000000572271e+00,1.341160626729811511e+01,-2.150070603193456442e+00
2.000000000000105871e+01,2.999999999046621291e+00,1.000000000002224354e+01,6.600000000000962874e-01,1.570000000000055573e+00,2.869999999999979536e+03,-2.174999999999935874e+00,-4.945000000000140616e+00,1.341400096739808667e+01,-2.139997487433497270e+00
1.999999999999992539e+01,2.999999999681710161e+00,9.999999999972459364e+00,6.600000000000543210e-01,1.570000000000183915e+00,2.869999999999964530e+03,-2.174999999999808420e+00,-4.945000000001138041e+00,1.342850676259844178e+01,-2.126740659293349101e+00
2.000000000000089528e+01,2.999999999618110369e+00,1.000000000001624656e+01,6.600000000001225997e-01,1.570000000000105977e+00,2.870000000000002728e+03,-2.174999999999820854e+00,-4.945000000000771223e+00,1.343708037437258618e+01,-2.115395180391587360e+00
1.999999999999955236e+01,2.999999998035626447e+00,1.000000000005461231e+01,6.599999999998897859e-01,1.570000000000320473e+00,2.869999999999997272e+03,-2.174999999999709388e+00,-4.945000000001143370e+00,1.339377989395442370e+01,-2.149755609347176577e+00
1.999999999999958433e+01,3.000000000213589146e+00,1.000000000003807621e+01,6.599999999999096589e-01,1.570000000000232987e+00,2.869999999999958163e+03,-2.174999999999874145e+00,-4.945000000000549178e+00,1.339390419816724531e+01,-2.159098345227786986e+00
1.999999999999687361e+01,3.000000000557927482e+00,1.000000000000415668e+01,6.600000000000232347e-01,1.570000000000474349e+00,2.869999999999961801e+03,-2.174999999999469580e+00,-4.945000000002906404e+00,1.343281322352883222e+01,-2.130833094860554056e+00
1.999999999999637978e+01,3.000000000874879280e+00,9.999999999984042987e+00,6.599999999999613953e-01,1.570000000000490337e+00,2.869999999999948159e+03,-2.174999999999469580e+00,-4.945000000002742091e+00,1.343158801524108448e+01,-2.146617844286039301e+00
1.999999999999840483e+01,2.999999999215664293e+00,1.000000000000965095e+01,6.600000000000108002e-01,1.570000000000214779e+00,2.869999999999997726e+03,-2.174999999999837730e+00,-4.945000000001435581e+00,1.338125103702810748e+01,-2.151311444950826601e+00
1.999999999999740652e+01,3.000000000392477606e+00,9.999999999996886046e+00,6.599999999999962563e-01,1.570000000000289164e+00,2.869999999999978627e+03,-2.174999999999664091e+00,-4.945000000001662954e+00,1.342637007279552108e+01,-2.133584030605422566e+00
1.999999999999620570e+01,3.000000003856911235e+00,1.000000000003520384e+01,6.599999999999370814e-01,1.570000000000489004e+00,2.869999999999996817e+03,-2.174999999999526867e+00,-4.945000000002195861e+00,1.341730488941330179e+01,-2.134978978118938553e+00
2.000000000000092015e+01,2.999999999983307575e+00,1.000000000004962963e+01,6.599999999998831246e-01,1.570000000000057572e+00,2.870000000000000909e+03,-2.174999999999913669e+00,-4.944999999999986073e+00,1.339212318965847004e+01,-2.131108767987838881e+00
1.999999999999925393e+01,2.999999998810198854e+00,1.000000000002011191e+01,6.599999999998632516e-01,1.570000000000300933e+00,2.869999999999981810e+03,-2.174999999999740030e+00,-4.945000000000911555e+00,1.340509410797459999e+01,-2.155675345818033772e+00
2.000000000000110845e+01,3.000000000356351393e+00,1.000000000000319744e+01,6.599999999999631717e-01,1.570000000000065565e+00,2.869999999999994543e+03,-2.175000000000008704e+00,-4.945000000000241869e+00,1.339349662517792972e+01,-2.149946403882430968e+00
1.999999999999697309e+01,3.000000001084721646e+00,9.999999999961767472e+00,6.599999999999422995e-01,1.570000000000273177e+00,2.869999999999956799e+03,-2.174999999999794653e+00,-4.945000000001628315e+00,1.340043709497632030e+01,-2.155695321989281155e+00
1.999999999999828404e+01,3.000000000872824035e+00,9.999999999966910025e+00,6.599999999999917044e-01,1.570000000000152829e+00,2.869999999999965894e+03,-2.174999999999881251e+00,-4.945000000001057217e+00,1.340676907994011025e+01,-2.160995320114610596e+00
1.999999999999836930e+01,3.000000000171475278e+00,1.000000000001169731e+01,6.599999999999969225e-01,1.570000000000256968e+00,2.869999999999969077e+03,-2.174999999999726708e+00,-4.945000000001495088e+00,1.343515855948433746e+01,-2.135193651124421166e+00
1.999999999999785061e+01,3.000000001133353411e+00,1.000000000001411671e+01,6.599999999999927036e-01,1.570000000000350227e+00,2.869999999999969077e+03,-2.174999999999629452e+00,-4.945000000001884999e+00,1.342888603905352163e+01,-2.137029337806606755e+00
2.000000000000059330e+01,3.000000001846804487e+00,1.000000000002746248e+01,6.599999999999605071e-01,1.570000000000144613e+00,2.869999999999993634e+03,-2.174999999999896794e+00,-4.945000000000310258e+00,1.341056151924722073e+01,-2.123170768300294498e+00
2.000000000000049027e+01,3.000000000779848186e+00,1.000000000001582023e+01,6.600000000000210143e-01,1.570000000000074891e+00,2.869999999999973170e+03,-2.174999999999962963e+00,-4.945000000000203677e+00,1.341693373988355731e+01,-2.146600718952970333e+00
1.999999999999750599e+01,2.999999999316198540e+00,1.000000000001376677e+01,6.600000000000919576e-01,1.570000000000220108e+00,2.869999999999954071e+03,-2.174999999999795097e+00,-4.945000000001398277e+00,1.340343403372036946e+01,-2.172540000697980478e+00
1.999999999999671019e+01,2.999999999939146456e+00,1.000000000001353229e+01,6.600000000000237899e-01,1.570000000000344897e+00,2.869999999999961801e+03,-2.174999999999656985e+00,-4.945000000002155893e+00,1.339480479723805040e+01,-2.167187045421669289e+00
2.000000000000047251e+01,3.000000000795478350e+00,1.000000000005687717e+01,6.600000000000585398e-01,1.570000000000037810e+00,2.869999999999982265e+03,-2.174999999999919886e+00,-4.944999999999883045e+00,1.341134450694337588e+01,-2.155122200031035273e+00
1.999999999999943157e+01,2.999999999923859129e+00,1.000000000003565503e+01,6.600000000000045830e-01,1.570000000000109530e+00,2.869999999999986812e+03,-2.174999999999890132e+00,-4.945000000000164597e+00,1.341684099942601271e+01,-2.145110233128967092e+00
1.999999999999788614e+01,3.000000001408913430e+00,9.999999999985494270e+00,6.599999999999048850e-01,1.570000000000351559e+00,2.869999999999977263e+03,-2.174999999999680078e+00,-4.945000000001744667e+00,1.338418266147315094e+01,-2.154126802696866072e+00
1.999999999999782219e+01,3.000000002876724192e+00,1.000000000000284039e+01,6.599999999999236477e-01,1.570000000000430607e+00,2.869999999999967258e+03,-2.174999999999643219e+00,-4.945000000001988028e+00,1.339681303790531608e+01,-2.145664064212762234e+00
2.000000000000259348e+01,3.000000001554237183e+00,1.000000000006916601e+01,6.599999999999556222e-01,1.570000000000008944e+00,2.869999999999990905e+03,-2.174999999999996270e+00,-4.944999999999774687e+00,1.339693858498339907e+01,-2.145619857641824169e+00
1.999999999999924327e+01,2.999999999856235888e+00,1.000000000000429345e+01,6.599999999999610623e-01,1.570000000000084883e+00,2.869999999999977263e+03,-2.174999999999846167e+00,-4.945000000000622009e+00,1.341865207062732779e+01,-2.131011078241168200e+00
1.999999999999853273e+01,3.000000002434540125e+00,9.999999999997172040e+00,6.599999999998730216e-01,1.570000000000264295e+00,2.869999999999989996e+03,-2.174999999999759570e+00,-4.945000000001258833e+00,1.340827816884876356e+01,-2.133649230755107151e+00
1.999999999999931433e+01,2.999999999835210485e+00,1.000000000003793232e+01,6.599999999999540679e-01,1.570000000000217444e+00,2.869999999999985448e+03,-2.174999999999750244e+00,-4.945000000001156693e+00,1.339107330847057931e+01,-2.137997631342703819e+00
1.999999999999954170e+01,3.000000001137759220e+00,1.000000000002980372e+01,6.600000000000493250e-01,1.570000000000109974e+00,2.869999999999999545e+03,-2.174999999999749356e+00,-4.945000000000768559e+00,1.340358995333426506e+01,-2.126644393308553482e+00
1.999999999999811706e+01,3.000000000879329498e+00,9.999999999999820588e+00,6.599999999998839018e-01,1.570000000000369544e+00,2.869999999999954980e+03,-2.174999999999741362e+00,-4.945000000001589235e+00,1.339120004320122526e+01,-2.153154001336247791e+00
1.999999999999813838e+01,3.000000003032412099e+00,1.000000000001609379e+01,6.599999999998865663e-01,1.570000000000324469e+00,2.869999999999957254e+03,-2.174999999999696954e+00,-4.945000000001497753e+00,1.339002669702170323e+01,-2.152342807557388049e+00
2.000000000000305889e+01,2.999999998766736287e+00,1.000000000002535749e+01,6.599999999999721645e-01,1.569999999999843521e+00,2.870000000000004093e+03,-2.175000000000200107e+00,-4.944999999998805684e+00,1.341174514356347380e+01,-2.126733947796452195e+00
1.999999999999898392e+01,2.999999999558994990e+00,9.999999999996921574e+00,6.599999999999720535e-01,1.570000000000243645e+00,2.869999999999985903e+03,-2.174999999999787104e+00,-4.945000000000988827e+00,1.341261932578817273e+01,-2.112150865416908996e+00
2.000000000000300560e+01,3.000000001340905609e+00,1.000000000002065370e+01,6.600000000000674216e-01,1.569999999999839746e+00,2.869999999999992724e+03,-2.175000000000124167e+00,-4.944999999999003748e+00,1.340813371299539014e+01,-2.132125453051045394e+00
1.999999999999904077e+01,2.999999996915490907e+00,9.999999999994836131e+00,6.600000000000609823e-01,1.570000000000048468e+00,2.869999999999994998e+03,-2.175000000000021583e+00,-4.945000000000476348e+00,1.341460967312938202e+01,-2.137026446731815188e+00
1.999999999999903721e+01,2.999999999541225648e+00,1.000000000000954792e+01,6.599999999999701661e-01,1.570000000000280060e+00,2.869999999999969987e+03,-2.174999999999781775e+00,-4.945000000001264162e+00,1.336389163461906016e+01,-2.170835991974259027e+00
1.999999999999845102e+01,3.000000000415113277e+00,1.000000000006244250e+01,6.599999999999554001e-01,1.570000000000342233e+00,2.869999999999991815e+03,-2.174999999999588596e+00,-4.945000000001553708e+00,1.339167984726893046e+01,-2.141462561906909645e+00
1.999999999999844391e+01,3.000000002375582842e+00,1.000000000002946798e+01,6.599999999999803801e-01,1.570000000000228990e+00,2.869999999999961801e+03,-2.174999999999774225e+00,-4.945000000001111395e+00,1.337521618067110474e+01,-2.170388678646721914e+00
1.999999999999860023e+01,3.000000001019320184e+00,1.000000000004918199e+01,6.600000000000421085e-01,1.570000000000244977e+00,2.869999999999992724e+03,-2.174999999999703615e+00,-4.945000000001496865e+00,1.337125989282354332e+01,-2.151106166933949293e+00
2.000000000000433786e+01,3.000000000275408141e+00,1.000000000006905054e+01,6.600000000000879607e-01,1.569999999999841300e+00,2.869999999999992724e+03,-2.175000000000174794e+00,-4.944999999998843876e+00,1.337748247898738896e+01,-2.156762387031138761e+00
1.999999999999930012e+01,2.999999998588848804e+00,1.000000000003049294e+01,6.600000000000707523e-01,1.570000000000111084e+00,2.869999999999992724e+03,-2.174999999999920774e+00,-4.945000000000580265e+00,1.342926888439986932e+01,-2.128914851776729122e+00
1.999999999999823430e+01,2.999999997736710888e+00,1.000000000001673151e+01,6.600000000001120526e-01,1.570000000000220108e+00,2.870000000000002728e+03,-2.174999999999800870e+00,-4.945000000001746443e+00,1.339796711315178435e+01,-2.123081346214927390e+00
2.000000000000074252e+01,2.999999999898546044e+00,1.000000000006558132e+01,6.599999999999789368e-01,1.570000000000173479e+00,2.869999999999993634e+03,-2.174999999999871036e+00,-4.945000000000642437e+00,1.338946403247904193e+01,-2.140810510653764265e+00
2.000000000000040146e+01,3.000000000283316925e+00,1.000000000006651923e+01,6.599999999998079625e-01,1.570000000000166374e+00,2.869999999999984993e+03,-2.174999999999955858e+00,-4.944999999999891038e+00,1.339144359322471445e+01,-2.144580236044697941e+00
1.999999999999900879e+01,3.000000002690801360e+00,1.000000000005053380e+01,6.599999999999710543e-01,1.570000000000236540e+00,2.869999999999984993e+03,-2.174999999999800426e+00,-4.945000000000920437e+00,1.340886946833530757e+01,-2.134815522002874388e+00
1.999999999999507239e+01,3.000000002714036995e+00,9.999999999984979127e+00,6.599999999999642819e-01,1.570000000000635998e+00,2.869999999999962711e+03,-2.174999999999442934e+00,-4.945000000003087592e+00,1.342514800060446944e+01,-2.123892778516013546e+00
2.000000000000071765e+01,3.000000000217701412e+00,1.000000000004577139e+01,6.599999999999590639e-01,1.570000000000124407e+00,2.869999999999985903e+03,-2.174999999999883915e+00,-4.945000000000125517e+00,1.340809833341745083e+01,-2.134008691380730127e+00
2.000000000000164491e+01,3.000000000054107829e+00,1.000000000002208189e+01,6.599999999998852340e-01,1.570000000000143281e+00,2.869999999999970441e+03,-2.174999999999946976e+00,-4.944999999999780016e+00,1.342779181550411138e+01,-2.121857347535017979e+00
2.000000000000145661e+01,2.999999999856341137e+00,1.000000000003149125e+01,6.600000000000065814e-01,1.570000000000112195e+00,2.869999999999993634e+03,-2.174999999999931877e+00,-4.945000000000221441e+00,1.342458703742437542e+01,-2.110677978762085960e+00
2.000000000000085265e+01,3.000000002322780190e+00,1.000000000003523581e+01,6.599999999999839329e-01,1.570000000000103757e+00,2.869999999999984539e+03,-2.174999999999852385e+00,-4.945000000000519869e+00,1.340945501600423384e+01,-2.132733161264911192e+00
2.000000000000121858e+01,3.000000004525475550e+00,1.000000000003833023e+01,6.599999999999702771e-01,1.570000000000191909e+00,2.870000000000006366e+03,-2.174999999999812417e+00,-4.945000000000610463e+00,1.341793028632531026e+01,-2.112455431695592356e+00
1.999999999999796074e+01,3.000000002607436933e+00,9.999999999992637001e+00,6.600000000000364464e-01,1.570000000000314699e+00,2.869999999999994088e+03,-2.174999999999622347e+00,-4.945000000002030660e+00,1.342106057917449746e+01,-2.132236740381466156e+00
1.999999999999464251e+01,3.000000002874283478e+00,9.999999999995678124e+00,6.600000000000724176e-01,1.570000000000416618e+00,2.869999999999960437e+03,-2.174999999999509992e+00,-4.945000000003013874e+00,1.341331423482678886e+01,-2.168930870758027041e+00
1.999999999999442934e+01,3.000000002763252738e+00,9.999999999983254284e+00,6.600000000000161293e-01,1.570000000000507656e+00,2.869999999999956344e+03,-2.174999999999416733e+00,-4.945000000003411778e+00,1.341095376854556775e+01,-2.162031032277515141e+00
1.999999999999688782e+01,3.000000001794439264e+00,1.000000000000842526e+01,6.599999999999545119e-01,1.570000000000433937e+00,2.869999999999985448e+03,-2.174999999999677414e+00,-4.945000000001772200e+00,1.339715209240408100e+01,-2.124700715897691161e+00
1.999999999999512212e+01,3.000000002242301456e+00,1.000000000000993161e+01,6.600000000000261213e-01,1.570000000000536966e+00,2.869999999999975898e+03,-2.174999999999436717e+00,-4.945000000003465068e+00,1.339553396022296283e+01,-2.138024259869501176e+00
2.000000000000063238e+01,3.000000001504734559e+00,1.000000000001697131e+01,6.599999999998807931e-01,1.570000000000103979e+00,2.869999999999991360e+03,-2.174999999999985612e+00,-4.944999999999880380e+00,1.342240558913075255e+01,-2.143231733217245250e+00
2.000000000000112266e+01,3.000000000680499657e+00,9.999999999994525268e+00,6.599999999999668354e-01,1.569999999999915463e+00,2.869999999999993634e+03,-2.175000000000143707e+00,-4.944999999999398099e+00,1.342597020598497437e+01,-2.146664561300652085e+00
2.000000000000098410e+01,3.000000000927623756e+00,1.000000000003147171e+01,6.599999999999687228e-01,1.570000000000016049e+00,2.870000000000005457e+03,-2.175000000000046452e+00,-4.945000000000048246e+00,1.339613069259288913e+01,-2.129443875017284160e+00
2.000000000000168043e+01,3.000000000227810659e+00,1.000000000006875744e+01,6.599999999999028866e-01,1.569999999999983853e+00,2.870000000000012278e+03,-2.175000000000121503e+00,-4.944999999999573959e+00,1.339427435991967030e+01,-2.127859795301345613e+00
2.000000000000017764e+01,3.000000001328391175e+00,1.000000000001172396e+01,6.599999999999205391e-01,1.570000000000184137e+00,2.870000000000002274e+03,-2.174999999999915445e+00,-4.945000000001011919e+00,1.338508190051839719e+01,-2.137275889387586059e+00
1.999999999999805667e+01,3.000000000588124216e+00,1.000000000003920420e+01,6.599999999999743849e-01,1.570000000000296270e+00,2.869999999999989541e+03,-2.174999999999681410e+00,-4.945000000001464890e+00,1.340619825827450917e+01,-2.133869573920222251e+00
1.999999999999674927e+01,3.000000001262618010e+00,9.999999999998111733e+00,6.599999999998943379e-01,1.570000000000423945e+00,2.869999999999955435e+03,-2.174999999999525535e+00,-4.945000000002144347e+00,1.339403132220415671e+01,-2.147295140379140044e+00
1.999999999999580425e+01,2.999999999841628018e+00,1.000000000002287415e+01,6.599999999999848210e-01,1.570000000000377538e+00,2.869999999999990905e+03,-2.174999999999544631e+00,-4.945000000002234053e+00,1.340575611536571898e+01,-2.139771159893607777e+00
1.999999999999899103e+01,2.999999996728701213e+00,9.999999999993432809e+00,6.600000000000241229e-01,1.570000000000241869e+00,2.869999999999992269e+03,-2.174999999999783107e+00,-4.945000000001286367e+00,1.339840677956300219e+01,-2.140142771482814510e+00
2.000000000000112621e+01,2.999999997591038081e+00,1.000000000002980372e+01,6.599999999999690559e-01,1.570000000000137952e+00,2.870000000000015007e+03,-2.174999999999834177e+00,-4.945000000000700169e+00,1.338327027172190498e+01,-2.136614236465687267e+00
1.999999999999715072e+01,2.999999998415342706e+00,9.999999999999804601e+00,6.600000000000194600e-01,1.570000000000255636e+00,2.869999999999968622e+03,-2.174999999999779998e+00,-4.945000000001483542e+00,1.341071578863887659e+01,-2.154113304419400077e+00
1.999999999999817746e+01,2.999999999076059520e+00,1.000000000001361933e+01,6.600000000001219336e-01,1.570000000000072005e+00,2.869999999999977717e+03,-2.174999999999934985e+00,-4.945000000000721485e+00,1.339778789748193155e+01,-2.160464302287895322e+00
1.999999999999677058e+01,2.999999996753362819e+00,9.999999999987563726e+00,6.599999999999536238e-01,1.570000000000378426e+00,2.869999999999967713e+03,-2.174999999999708944e+00,-4.945000000001940954e+00,1.341878303061374211e+01,-2.137027967142783869e+00
1.999999999999565503e+01,2.999999996841137939e+00,9.999999999999744205e+00,6.599999999998961142e-01,1.570000000000539631e+00,2.869999999999964984e+03,-2.174999999999509104e+00,-4.945000000002625740e+00,1.341877279411570001e+01,-2.143013886282452152e+00
1.999999999999797495e+01,2.999999998280944880e+00,9.999999999974251708e+00,6.599999999999665024e-01,1.570000000000291385e+00,2.869999999999994088e+03,-2.174999999999716493e+00,-4.945000000001890328e+00,1.340080409035525655e+01,-2.140695509210636338e+00
1.999999999999590727e+01,3.000000000837228509e+00,1.000000000003286083e+01,6.599999999999840439e-01,1.570000000000527196e+00,2.869999999999954980e+03,-2.174999999999413181e+00,-4.945000000002653273e+00,1.340716456631891518e+01,-2.132703856558994193e+00
1.999999999999958078e+01,3.000000000527992317e+00,1.000000000001069544e+01,6.600000000000136868e-01,1.570000000000207674e+00,2.869999999999966349e+03,-2.174999999999762679e+00,-4.945000000001255280e+00,1.340860227778605562e+01,-2.147828050755815177e+00
1.999999999999894840e+01,3.000000001263337879e+00,1.000000000001895017e+01,6.599999999999391909e-01,1.570000000000354889e+00,2.869999999999946795e+03,-2.174999999999644995e+00,-4.945000000001520846e+00,1.341113046932953523e+01,-2.141842092297506994e+00
1.999999999999682032e+01,2.999999997460290224e+00,1.000000000000320988e+01,6.600000000000818545e-01,1.570000000000136176e+00,2.869999999999980446e+03,-2.174999999999774225e+00,-4.945000000001184226e+00,1.340164716169170944e+01,-2.145672280400204635e+00
1.999999999999606359e+01,2.999999998775733534e+00,9.999999999987922550e+00,6.599999999999908162e-01,1.570000000000215445e+00,2.869999999999983629e+03,-2.174999999999712053e+00,-4.945000000001584795e+00,1.340810252223461951e+01,-2.148082448579786252e+00
1.999999999999949196e+01,3.000000001052429699e+00,1.000000000004951239e+01,6.599999999999934808e-01,1.570000000000281837e+00,2.869999999999969532e+03,-2.174999999999667644e+00,-4.945000000001717133e+00,1.341973784897491662e+01,-2.134092213402515537e+00
1.999999999999540279e+01,3.000000002323475190e+00,1.000000000001406342e+01,6.599999999999764944e-01,1.570000000000609575e+00,2.869999999999954071e+03,-2.174999999999258193e+00,-4.945000000003441976e+00,1.342427603491504584e+01,-2.122025105707576298e+00
1.999999999999620925e+01,3.000000000435087966e+00,1.000000000000499867e+01,6.600000000000114664e-01,1.570000000000453921e+00,2.869999999999961801e+03,-2.174999999999566835e+00,-4.945000000002168328e+00,1.340531115924606631e+01,-2.144111883355080295e+00
