5.838550593697085060e-03
5.874168431258281614e-03
5.851002903467465883e-03
5.816993954028278589e-03
5.783998449290670037e-03
5.805656711303229175e-03
5.729029494489952523e-03
5.785483882143511135e-03
5.864278909969444960e-03
5.815313215733535976e-03
5.817916097405389543e-03
5.852763828142826426e-03
5.796478149458390849e-03
5.843913157141506463e-03
5.384585720845601851e-03
5.857484503580021908e-03
5.873120053876038950e-03
5.830369995024891651e-03
5.878726749122838331e-03
5.862823646249906533e-03
5.869268328870395728e-03
5.880830649208369440e-03
5.661269224131487698e-03
5.829628072523031744e-03
5.370081513048407217e-03
5.535534200585957507e-03
5.880244335920382405e-03
5.878842662108682560e-03
5.668017582896397837e-03
5.881549547897972456e-03
4.855878408087652316e-03
5.806385931012119674e-03
5.732341747756682267e-03
5.856599277694976916e-03
5.784722508489917661e-03
5.819266960045212621e-03
5.815879680907507822e-03
5.808335809732899195e-03
5.872218155575222205e-03
5.864744943686504668e-03
5.724557714402498873e-03
5.849784229266978032e-03
5.862322679852182035e-03
5.878452448187158549e-03
5.680698145977944660e-03
5.847961378475892598e-03
5.759128365468293292e-03
5.879658022632395370e-03
5.824815698799091189e-03
5.850093462883323471e-03
5.842370164758024439e-03
5.787335314218778823e-03
5.831232991022239527e-03
5.875949601009937233e-03
5.844742411345030079e-03
5.865197083723753570e-03
5.876181426981625690e-03
5.812280423912129755e-03
5.878444905903832882e-03
5.879066151872484706e-03
5.870238901645702390e-03
5.856058615069224642e-03
5.861043270422811556e-03
5.878345268371480518e-03
5.615044157478692871e-03
5.865659544780289954e-03
5.881829406305575866e-03
5.871597306568850268e-03
5.850407460047031896e-03
5.815953515891642348e-03
5.853281863918603431e-03
5.833147540100073504e-03
5.857928704371665254e-03
5.797931428366528972e-03
5.812291141893696257e-03
5.820918323131214073e-03
5.794874421846023596e-03
5.833414695714707505e-03
5.813456623148625414e-03
5.880802067924188054e-03
5.881786931341584541e-03
5.811178456622047642e-03
5.721902830671926274e-03
5.777938026157499601e-03
5.788341613599310050e-03
5.855252781640237804e-03
5.819719100082461523e-03
5.829067164820984394e-03
5.821100528817867159e-03
5.833163418591284614e-03
5.872060561549948161e-03
5.866262927446328629e-03
5.847373874301064166e-03
5.831878848652270395e-03
5.874517758064935584e-03
5.858010081639123713e-03
5.850820697780811930e-03
5.817983580993038931e-03
5.821267252975589022e-03
5.875584792674352040e-03
5.774811154275664646e-03
5.768298194142966288e-03
5.848538561631431813e-03
5.839884783921135518e-03
5.878402827902122312e-03
5.529973156001391152e-03
5.539143778600623923e-03
5.075966999072757148e-03
5.426202452386523836e-03
5.296534326567891963e-03
5.674426538911660732e-03
5.811458711991930939e-03
5.793419952051045811e-03
5.817722379812609312e-03
5.225689262329301886e-03
5.865969572321195168e-03
5.572638661886836556e-03
5.842282039131800088e-03
5.874386363550159265e-03
5.821956776456450010e-03
5.839502509245216195e-03
5.863580653318417775e-03
5.711527030589736570e-03
5.694397314270712232e-03
5.867055661120066171e-03
5.870131721830023491e-03
5.745200149939799078e-03
5.755127382645263204e-03
5.775001696170203175e-03
5.711727893503563448e-03
5.832001113034598026e-03
5.848703697940032392e-03
5.874644389032347182e-03
5.831525155260532459e-03
5.824540603938850765e-03
5.854136920670344885e-03
5.717217087915397317e-03
5.720178426526352673e-03
5.710425857224215966e-03
5.808619637763304949e-03
5.822007190666046023e-03
5.814881320772581283e-03
5.776869006736681973e-03
5.774936197393955827e-03
5.808014270285865102e-03
5.869263168360751987e-03
5.819126832360270972e-03
5.878633066024690351e-03
5.873793301903408939e-03
5.746151668525651193e-03
5.876579580148756123e-03
5.702014623467175497e-03
5.785978894107030382e-03
5.771418317666036218e-03
5.812173244096451724e-03
5.821748371259299198e-03
5.614643622537880512e-03
5.849410290798946754e-03
5.672373846960288013e-03
5.416202972546046469e-03
5.673308693130367508e-03
5.709938387544020652e-03
5.633615640799725585e-03
5.848972044441507791e-03
5.461596403221637488e-03
5.855833934418580231e-03
5.456385082406004991e-03
5.781558322153734254e-03
5.795654452726791729e-03
5.813631286551952833e-03
5.840022132870115353e-03
5.867918260155133292e-03
5.818388085556653634e-03
