3.604862381284593218e-03
1.733418337538945387e-03
3.133697667460211625e-03
2.732708016663534627e-03
2.296082145268012534e-03
9.981073237398392205e-04
1.118050586787971935e-03
2.997378586983376163e-03
1.245120214881238188e-03
2.546893371396974966e-03
1.752694979171103961e-03
1.055436054000379563e-03
1.196803342665282623e-03
1.087472952341642096e-03
1.018898293525348844e-03
1.000370025223510555e-03
1.492979825827804325e-03
3.146767309603532448e-03
1.872931999659933596e-03
2.254172506207870359e-03
1.718348312225060877e-03
9.715172695151043283e-04
1.481538913634149147e-03
1.052455014236433964e-03
9.958017063208372561e-04
1.723594190112417079e-03
1.648491791659026937e-03
3.138093040637719971e-03
2.154032963292099034e-03
2.947251065205686027e-03
3.274084910000229706e-03
1.170864047858217799e-03
1.976322165227871290e-03
1.040691286301630679e-03
3.488191351473415771e-03
3.069166507779827208e-03
2.112401942053931253e-03
2.619279307132965293e-03
3.053926283849013514e-03
9.671772658302628042e-04
1.829492892827717845e-03
1.948471249369688541e-03
2.665816053212030374e-03
2.116299905500184687e-03
1.047717778700675215e-03
1.976265513751360951e-03
1.016206066407275262e-03
9.329719833880962101e-04
2.733226670698480319e-03
1.819203568406569781e-03
1.116208314958099359e-03
1.571329306216078751e-03
3.274426528171081943e-03
3.113523881325043745e-03
3.313145126304353240e-03
1.438591600223016820e-03
2.653730486285673599e-03
1.621372949622297945e-03
3.130988164083676681e-03
1.528958152972297990e-03
1.856984609022338745e-03
9.672304986831904662e-04
3.317918745762525514e-03
3.189156288527421855e-03
3.080063858823863659e-03
2.161009153087000735e-03
3.185296906690170647e-03
3.050713754431052388e-03
1.880848921408521382e-03
2.070649803865982821e-03
1.486087270216974532e-03
1.684982179778700406e-03
1.064784158093044124e-03
1.022229986393899870e-03
2.593558560047782603e-03
2.487824928014036735e-03
2.640719937492850850e-03
9.544339801453720655e-04
1.604071173577533739e-03
1.373528722481852935e-03
1.731203557832278802e-03
3.045651993842354247e-03
1.886737256341990262e-03
2.795847796545839013e-03
3.193081845149734008e-03
1.965411628064301763e-03
1.332883607866140003e-03
1.503537878481277408e-03
1.380866431720604920e-03
2.795562585664098515e-03
1.342482614511020505e-03
1.939811997928899074e-03
1.527413667675201403e-03
1.730192622001451835e-03
2.727281440101102933e-03
1.111920262142341870e-03
1.653983810444323559e-03
2.098767982832097905e-03
3.273540372101016362e-03
2.698029743229988196e-03
3.566665367435052983e-03
2.059304124757840426e-03
2.096713878433809249e-03
1.243583421487202056e-03
2.751028420442186255e-03
1.188928054868181516e-03
1.096614718082362331e-03
2.782318593718069704e-03
2.254391542304549478e-03
1.189996374737714840e-03
2.208308008037565811e-03
2.425823793972105638e-03
3.534545933753012893e-03
1.175002657985939900e-03
3.461781995923756371e-03
3.601957527989057672e-03
1.894989325295363264e-03
3.615294066959212713e-03
3.618153257211181861e-03
3.475592014260088774e-03
3.570337457537462161e-03
1.129489911763535345e-03
1.146553360907119103e-03
1.516523275972028956e-03
2.777959604462975317e-03
1.148377562869484433e-03
1.793821997618251160e-03
3.222681753251467086e-03
3.598186541990154325e-03
3.474960301459521003e-03
1.722922186391055797e-03
3.617563788830598353e-03
2.426717031476734523e-03
3.205384494673579800e-03
1.352952027138746910e-03
3.209484645285998541e-03
2.665985030891965691e-03
1.354545472009293164e-03
1.112271525715444447e-03
1.022954734593391288e-03
3.274455830658931730e-03
1.035164226624613699e-03
1.029308368615178791e-03
1.472789068668423334e-03
1.017342758748458666e-03
2.717485618412829578e-03
2.785462018102184082e-03
2.659784868650292861e-03
3.242294152556907377e-03
1.030958098681137051e-03
1.540748253146166343e-03
1.531401858365293066e-03
3.499289180371826461e-03
1.249571995347857839e-03
3.220900650364981552e-03
1.134430067027655852e-03
1.621455973337873136e-03
3.299376619825808432e-03
3.189401696863166259e-03
3.600737811932299293e-03
3.023789896032225664e-03
3.591352469261325456e-03
3.617817255350501329e-03
3.452814946266842024e-03
3.572761017470060373e-03
3.564755089414628226e-03
3.610923356708978151e-03
2.073061398616042258e-03
1.656809180741565567e-03
1.486254538585118565e-03
1.716685518133269708e-03
1.843323422905545012e-03
1.784806110481586662e-03
3.272728449000170733e-03
1.194714075281573659e-03
2.156068021073285611e-03
3.285503601140598619e-03
2.272363734852583198e-03
1.317185288375270725e-03
2.239500994728746593e-03
2.881689190515175896e-03
1.448698272469899507e-03
1.550295003687714342e-03
2.566203222515363314e-03
1.091480922211032940e-03
1.512631661398143026e-03
2.248796964811777734e-03
1.745785574629760356e-03
1.757299132574543935e-03
1.598800754856603053e-03
1.089229270207154763e-03
3.265404536349448758e-03
1.783574429242289292e-03
3.303131245268995601e-03
1.795810659793674671e-03
3.302736150057817427e-03
1.725452212029509333e-03
1.642932865526472701e-03
2.505516793428304995e-03
1.605744956102268849e-03
2.034654627790975345e-03
3.569242032866667969e-03
2.716807265819101008e-03
3.138084249891365165e-03
1.642750091258508025e-03
1.156118425503573381e-03
2.442889562895977831e-03
2.470965497442109086e-03
1.757950990835508353e-03
1.326938865643560251e-03
9.915323948879340311e-04
2.699214296301326484e-03
1.855248314523523642e-03
1.859572018699498638e-03
1.108880495308996747e-03
2.580927234285219050e-03
2.722128841800069629e-03
3.226158981809673729e-03
1.888412503991117406e-03
1.193405352917970702e-03
1.575640312647318521e-03
2.285369644084829944e-03
1.034681101856185781e-03
1.866645028798004889e-03
2.380332658334490415e-03
2.091995689515153013e-03
2.422767544489345254e-03
1.928285375958282370e-03
2.196346244122375588e-03
2.123137152665197092e-03
3.100055725346962613e-03
1.123730874057705205e-03
1.712862642312131976e-03
3.131901424955003347e-03
2.109538356428784268e-03
1.074924528200954434e-03
1.234894379183765168e-03
2.973887270848784951e-03
2.868018603183530423e-03
2.318351059284459031e-03
9.958785643045941095e-04
2.007194655958191749e-03
3.031391938130124832e-03
1.944386482563390493e-03
3.297034618484392509e-03
1.011262980894369820e-03
2.939245137150253880e-03
3.616181688153670762e-03
1.154743284167510011e-03
1.999470886442015864e-03
3.550801977262628157e-03
3.615478916820067008e-03
3.518359239464642109e-03
3.581888498247953832e-03
3.557186989365154848e-03
3.520043888328621643e-03
2.112116486984791722e-03
3.401715802829523815e-03
3.491045413790011282e-03
9.937414361907300452e-04
1.266214343322296472e-03
1.002108944736862343e-03
1.221754411069604380e-03
3.244721131113088158e-03
2.522500271198798230e-03
1.223636119164375584e-03
1.179361769334733804e-03
1.253285231026956496e-03
3.219146163904959470e-03
1.123026027131212050e-03
3.002987083157877216e-03
1.140251006239069269e-03
2.984662039818648718e-03
3.398790193605094687e-03
3.174576103135430885e-03
2.344771647454461407e-03
1.943372128108981174e-03
9.692258149652301655e-04
2.273675509558670607e-03
1.528285660876139290e-03
3.252409371362746486e-03
3.152400712892705452e-03
2.952253732443886960e-03
2.817962384126275303e-03
9.876711205983428055e-04
1.114479956549743311e-03
2.024445763117715437e-03
1.709298116758872039e-03
1.204262413041213425e-03
3.460214312823778251e-03
2.013806640247857698e-03
1.243398205345249861e-03
1.128839518626963394e-03
1.849838586891605977e-03
2.811239416663877545e-03
1.127131916147501361e-03
3.039378331193657700e-03
2.629569852491107224e-03
3.578484281721973706e-03
1.259383689217049738e-03
1.343657155899010119e-03
2.220947636171686536e-03
9.840758884796900474e-04
2.155137178709248466e-03
2.531286622180636652e-03
1.177660515727639492e-03
1.869438166358612175e-03
9.971097571690938459e-04
1.444036490840354577e-03
1.202481920623224608e-03
9.919013620474459534e-04
1.294293818585709596e-03
1.074217849868970478e-03
1.595230857180570880e-03
1.359382336003742099e-03
3.194846099105706164e-03
2.470634135142004556e-03
1.030604515327746256e-03
2.604877622729460680e-03
3.114883272573888088e-03
2.356186919971247750e-03
1.469954541343727970e-03
3.589486877534871830e-03
2.886718718367238881e-03
1.231061369585579246e-03
1.011734140480258747e-03
1.182434989841707734e-03
1.118660689003749941e-03
2.705365865250648413e-03
2.948112558348477824e-03
1.505045491481162402e-03
1.373010068446907025e-03
1.427923296959007944e-03
2.077333212969782652e-03
2.289549643976640774e-03
3.054096726653341299e-03
1.694065096356321600e-03
1.071610050544014904e-03
1.599724637879775544e-03
3.116113244501393740e-03
1.744902592995878745e-03
2.791689529332517464e-03
2.024097063512299895e-03
3.048117309820139089e-03
1.842116404593521425e-03
2.273317042457304992e-03
1.084298027783088796e-03
1.607070405302686101e-03
2.040599125826156497e-03
1.478220528978829848e-03
1.786475253445745552e-03
2.871116852898876037e-03
1.890010466328540580e-03
2.595176789939301724e-03
3.082077428113959988e-03
1.498815294189443335e-03
1.001530647929771509e-03
2.261194847421136092e-03
1.170878454914744092e-03
2.713164234017142584e-03
3.257126583531807888e-03
1.703533951117668262e-03
1.299544824408439651e-03
3.179171465792515836e-03
3.186406005855295549e-03
3.170107717925696022e-03
1.273108852432316149e-03
3.355020823316068757e-03
1.104311016516179448e-03
2.557472302073040930e-03
1.046311503471271257e-03
1.132951023953424194e-03
2.832783582480832840e-03
3.429322897570054145e-03
3.175498643127909991e-03
1.004689028792059681e-03
1.294895252148832096e-03
1.241862266607109480e-03
3.232947879869733834e-03
1.659684731549251110e-03
2.406444105257674309e-03
3.069208996387209638e-03
1.109541388503714789e-03
2.461628503876087549e-03
1.578022727003227255e-03
3.102076376071622246e-03
2.729956757241813053e-03
1.103340982074643142e-03
1.943853421471918507e-03
2.406395267777924375e-03
1.588489575663267058e-03
2.730532551128066285e-03
2.322077358989391247e-03
2.654448641425398697e-03
2.241769007288340731e-03
9.657201385750690528e-04
1.944104079836735848e-03
3.276990740045360086e-03
3.236709830934883340e-03
2.739903975117311680e-03
1.005178990807652521e-03
2.758557694695257505e-03
1.175009128952006921e-03
1.107619999956646790e-03
2.058542992635934831e-03
1.744234862553995565e-03
1.592731721248059548e-03
2.620384743487108592e-03
1.558019017391289261e-03
2.952331628224088081e-03
2.661377703052341965e-03
3.243194227308701834e-03
1.338921019206545720e-03
2.778657247861205434e-03
1.358271771714225163e-03
1.577508468341458966e-03
3.583603670536777020e-03
3.307363745451537100e-03
3.209355958526857386e-03
1.209680320950989180e-03
1.111908663240900996e-03
2.304930764036532999e-03
1.139127500017418507e-03
1.390244692957015018e-03
2.009285632653692432e-03
1.126186422539539756e-03
2.816424980263742238e-03
3.264203134347596225e-03
3.021697454212332948e-03
3.305781655295032904e-03
1.112924482819703000e-03
3.113340496588582352e-03
3.046878302958879164e-03
1.999414234965505525e-03
1.230405115951437424e-03
2.699051179118961037e-03
3.200434083538711803e-03
1.461234487240649794e-03
1.476311960270196158e-03
1.118185866606879629e-03
1.085944705506562604e-03
3.308589566193264383e-03
3.607708629604428757e-03
3.404366212855561551e-03
1.326882214167050128e-03
3.553881180360871257e-03
1.005212749715529577e-03
1.068709836809055794e-03
1.392190500243957983e-03
2.103530858044725706e-03
2.344369959183517128e-03
3.223690247208306752e-03
2.783661136036399367e-03
3.451997162668426523e-03
3.208661489564810804e-03
2.383518571325987656e-03
2.713157640957376479e-03
1.398213748715236224e-03
1.810641015175685781e-03
1.080776601305708439e-03
1.804844616797846631e-03
2.384048457981276323e-03
2.158950409128135642e-03
9.895246860954077898e-04
2.228644178792902903e-03
1.065025659430408325e-03
