4.182666728961210653e-03
3.762151491881292244e-03
3.498720473896608889e-03
2.909104797341589485e-03
4.825275053552216878e-03
5.165166832777697177e-03
4.471737792400841058e-03
3.025431447917318554e-03
3.057055447843981880e-03
2.178831414796580327e-03
2.449748206561512109e-03
3.601447246876525975e-03
4.058230212471610962e-03
3.835205463897518006e-03
3.769399873258361990e-03
2.517641809153894211e-03
2.341858357051399345e-03
3.783018284120737759e-03
3.575817196891185445e-03
3.412143256218228785e-03
3.584092196292530067e-03
4.373778441945821993e-03
2.354623404696031593e-03
2.729010798970841773e-03
3.788762347321872424e-03
5.535353214472037153e-03
5.546069190847124387e-03
4.876336493564448205e-03
5.471263096304274966e-03
3.839974135856117059e-03
3.975697619922132116e-03
4.619173884457395199e-03
5.127404781556202905e-03
4.714189569112993416e-03
4.925004018605671878e-03
5.225163389663270083e-03
4.254841516129872873e-03
2.898513556097647229e-03
4.967173655446193055e-03
3.143659528346932647e-03
5.031137164332259368e-03
4.997674414475708655e-03
3.418537024943853111e-03
4.405370789552060483e-03
3.369307254737204625e-03
4.851921726092224899e-03
4.249538086547270839e-03
3.948769408321513297e-03
4.235165017729524382e-03
5.762324924107408743e-03
5.574732032902551988e-03
5.583546787662704153e-03
5.744966125222309740e-03
5.445148682520870032e-03
4.479109867714304270e-03
3.632118345367270091e-03
4.913480075103976441e-03
3.713258235818097351e-03
4.124495178234814652e-03
1.820750587991725291e-03
2.310053813954950162e-03
4.694591368557904376e-03
3.546310987087620843e-03
4.121871367462834508e-03
4.907705609016118839e-03
4.362928359686833561e-03
4.981015714941038758e-03
5.507168489046168798e-03
5.401736275625811101e-03
2.490073679259441428e-03
2.243738662604758717e-03
2.788409293591563327e-03
5.053897265106534718e-03
5.226294543640524343e-03
5.152735800409116891e-03
5.209942371840484143e-03
5.293676919610270509e-03
5.343557228297209777e-03
5.058701754164559444e-03
5.106781212410540019e-03
4.838023858558737449e-03
4.486162088000325912e-03
3.793786736711264422e-03
3.078060302507382075e-03
2.839147130275249988e-03
2.932484617231531469e-03
3.695281383728932657e-03
3.594487901162274519e-03
3.805567230599553492e-03
4.283675530602330112e-03
4.841760914758257497e-03
3.511219392162940895e-03
4.428489061320605574e-03
4.744172646112418401e-03
4.128275131658066220e-03
2.730941798755649047e-03
3.812925562142306223e-03
3.493468271095746119e-03
4.967794623995562021e-03
4.056777537555314624e-03
4.277031042180716100e-03
3.162832921443700825e-03
4.693224904566973589e-03
4.218362216841345901e-03
4.355570028144082131e-03
4.311607037464807585e-03
3.692999084835209798e-03
2.577093612945856316e-03
2.667879756284812724e-03
2.593950347722126081e-03
5.441237538559018372e-03
2.126692129978336593e-03
3.465447637962601555e-03
5.219256900081013437e-03
4.105665379405805046e-03
4.559393063124184825e-03
5.009077995864213810e-03
5.019752324449268388e-03
3.388617460824226452e-03
3.045003826842588007e-03
3.201836909763933030e-03
4.712305006614071236e-03
4.352470599609943071e-03
2.972218483072064550e-03
4.657108357529620574e-03
2.655132408950944007e-03
3.615487549851920633e-03
4.676242601703758592e-03
4.974815191961160128e-03
4.418805117182498556e-03
4.259928377204311688e-03
3.783672154424231725e-03
4.259370713295789791e-03
5.317865956060523029e-03
5.229579304840302999e-03
4.495786892276587565e-03
5.276010760034739386e-03
5.357290170582172315e-03
5.503453089697465765e-03
4.818020425006642841e-03
4.834539604444708372e-03
4.812617457205866853e-03
4.481550011732245327e-03
5.300140656623147407e-03
4.367442147170439923e-03
4.027644075472531365e-03
4.237447316623247674e-03
3.186051564386221426e-03
3.979352629975290052e-03
4.646436527811967192e-03
3.017861962079106640e-03
5.141998583661115153e-03
4.796488101082495466e-03
2.499409447872886093e-03
2.836390463053069678e-03
4.503086916913296052e-03
5.063969366647734505e-03
5.029652837095539494e-03
3.875228573639819766e-03
5.371990591029565665e-03
2.688422320478864140e-03
4.133233301061307874e-03
4.515575423232120328e-03
4.623650605407873121e-03
4.645053404705023516e-03
3.242025985949509477e-03
4.469149798728287888e-03
4.083213888755663282e-03
4.911985335919748404e-03
4.638191514819445596e-03
4.052681060927824236e-03
4.708350548950587279e-03
4.918574849258520489e-03
3.769824680716682419e-03
4.651263923154510399e-03
4.350439020412210332e-03
4.790716133862039060e-03
1.889551071212041420e-03
2.775215273709607210e-03
2.988515263311362045e-03
2.409357138594283177e-03
3.285087093735652823e-03
3.652451212938513311e-03
5.075754025315027014e-03
5.218361056117437440e-03
4.127006539973708879e-03
5.281317521440543304e-03
3.297366111670618424e-03
4.475369063213680693e-03
3.649908615357095026e-03
5.446470583376467924e-03
4.712113426779926048e-03
3.045654365322878789e-03
4.859437902759196695e-03
4.798081129051197727e-03
5.464410785410404522e-03
5.296497307951198233e-03
5.296499390340699519e-03
4.870365449907642155e-03
4.217116947919405216e-03
5.350927637699070746e-03
5.463270052441443654e-03
4.597128043282158912e-03
2.140732641192681206e-03
4.502949062728293060e-03
2.661502646675200853e-03
4.095805681593765908e-03
4.759684781987523483e-03
3.285488161953655818e-03
3.105566377194687953e-03
2.484093473088828680e-03
2.468033877013760344e-03
4.399201085936805568e-03
3.230909566073270848e-03
4.013438847248611795e-03
4.009351533134927238e-03
4.004806509808798119e-03
3.732507844370623693e-03
3.119933615321829595e-03
4.092136511291996279e-03
2.652450915989770352e-03
2.745823595328628509e-03
4.842564717105864863e-03
4.336967626248644687e-03
4.986322059868942766e-03
3.370115221863814563e-03
2.847394225657273303e-03
4.192324434991598174e-03
3.569385112198732082e-03
3.654812226155394663e-03
3.740015275001688701e-03
3.511479690850637190e-03
4.643150517178487938e-03
4.233164257896414491e-03
3.654773077232764938e-03
3.290913827799999899e-03
4.889940327700313671e-03
3.770942090923225330e-03
3.215358697753436384e-03
3.565917517200715894e-03
5.228126629924006660e-03
3.025977866922530731e-03
3.469573892759965448e-03
2.707604667850489061e-03
