5.884789844056331418e-03
5.823588652468824831e-03
5.860758091604722705e-03
5.845227288794393496e-03
5.882298919894569586e-03
5.862076114525111535e-03
5.861873739361769808e-03
5.849019934537256181e-03
5.855854171634864921e-03
5.432134254738678857e-03
5.789095813725101368e-03
5.723993035737059282e-03
5.810328506943063069e-03
5.869426428168922696e-03
5.752079448141044458e-03
5.698131954942550759e-03
5.669614153437926331e-03
5.885962347704062382e-03
5.775381218667514222e-03
5.740010493164146924e-03
5.822255123396431233e-03
5.706432119795053215e-03
5.664192964140940881e-03
5.649146827979165120e-03
5.673963032684748754e-03
5.725742845351729400e-03
5.821231717364128665e-03
5.816532160525818458e-03
5.802850168146803794e-03
5.832794138042209260e-03
5.774811864573396736e-03
5.722319166507847457e-03
5.679123798146784238e-03
5.825903442647559563e-03
5.863494331043069170e-03
5.710021197593651530e-03
5.788606773546495915e-03
5.885022038742759171e-03
5.840887156607675948e-03
5.851821379332751080e-03
5.433809316748814192e-03
5.844935057468152520e-03
5.810792498722277405e-03
5.827949459524881491e-03
5.657495499255886864e-03
5.689296629049071449e-03
5.743603944492798111e-03
5.836895316450600030e-03
5.750289879162259060e-03
5.820258805724252103e-03
5.819552679417582496e-03
5.868768013099190037e-03
5.891309982177435692e-03
5.833715362508738039e-03
5.878462141257539617e-03
5.847059400292780630e-03
5.849432239143121867e-03
5.816977067810257494e-03
5.821834469324101841e-03
5.748224380196521530e-03
5.786561949450097497e-03
5.819891826793476344e-03
5.867931873671866465e-03
5.841195291679561995e-03
5.748714215562409323e-03
5.839190226947277122e-03
5.795941581038302308e-03
5.698906864949139332e-03
5.695161135255930387e-03
5.866349848573758005e-03
5.886480014624830351e-03
5.817231527740588173e-03
5.850294619750760934e-03
5.834384512606782293e-03
5.887952303877982789e-03
5.852481782370688723e-03
5.859848397353786993e-03
5.874240491975882966e-03
5.875492116758200718e-03
5.841573005638647613e-03
5.823450289881707161e-03
5.798242455439597820e-03
5.890423745951328151e-03
5.861816485877444777e-03
5.871842207132508575e-03
5.871498686226560119e-03
5.887552722268633680e-03
5.327380655700363413e-03
5.469027763887623732e-03
5.885172726732752248e-03
5.873603149369130590e-03
5.862050668532078380e-03
5.873341135159617678e-03
5.888821045983880578e-03
5.815359259284446324e-03
5.865141163904683159e-03
5.829602653884755070e-03
5.706199129921343122e-03
5.889360580554911170e-03
5.838208965840936855e-03
5.746459859617128116e-03
5.884146139951320319e-03
5.855164346667480688e-03
5.865732783242704439e-03
5.783295320094465619e-03
5.798419384609906392e-03
5.764355946998618065e-03
5.777347319222966154e-03
5.780392091326839836e-03
5.734217156219052237e-03
5.770351659107054478e-03
5.808795385862815935e-03
5.761546152736659460e-03
5.677154516842203812e-03
5.702330146199380105e-03
5.863501090134968195e-03
5.816788210830714685e-03
5.803319328643353342e-03
5.824263368877844599e-03
5.890592325655173017e-03
5.809296751444297663e-03
5.698386017279242002e-03
5.694312670425731408e-03
5.802326934915060311e-03
5.833454541080148638e-03
5.827506540208647438e-03
5.883311988492202597e-03
5.891291295276302430e-03
5.000426681591929254e-03
5.891300837523689646e-03
5.088151742573728160e-03
5.871237467204329548e-03
5.841994852491900515e-03
5.888768961216890759e-03
5.890280612240516439e-03
5.868557288469383737e-03
5.694136536442705177e-03
5.877236757655537359e-03
5.890480204248369975e-03
5.616590270267808431e-03
5.870121421853641275e-03
5.863808430019571902e-03
5.890481397029293485e-03
4.347392246604650165e-03
5.618112258726104535e-03
5.741347600579311053e-03
5.732249465289035624e-03
5.842376542387398702e-03
5.813098541840906394e-03
5.813003516960673668e-03
5.811542360329473127e-03
5.812394801096083807e-03
5.804310529590721995e-03
5.819904549789992922e-03
5.749377004162194854e-03
5.649560325365953449e-03
5.787533270715410245e-03
5.780133655460097455e-03
5.676800260907945497e-03
5.698973660680850713e-03
5.697803145001326466e-03
5.693236782032798718e-03
5.808103970520867888e-03
5.816092819552354937e-03
5.783039667383210562e-03
5.787333678707555842e-03
5.820132768540009841e-03
5.816912260046751097e-03
5.857370593782183776e-03
5.688453730529847985e-03
5.873313701198378672e-03
5.873324038633048229e-03
5.807761642395844678e-03
