2.048881895397926169e-03
2.099085015560170873e-03
2.124761291253390080e-03
2.115379699332503496e-03
2.093197212342217794e-03
1.792872030986910128e-03
2.095444264992637768e-03
2.107322773437252626e-03
1.886895045870207134e-03
2.071306209284549948e-03
2.043230321895920989e-03
2.027560082530688746e-03
1.854738239907476787e-03
2.124818267679411728e-03
2.125013307888386476e-03
2.124340498102018134e-03
1.993874385216810353e-03
2.126105332134222130e-03
2.126170776089551708e-03
1.946629733684301315e-03
2.021574113379741734e-03
2.085947572080141393e-03
1.990157570402951645e-03
2.035023276752260819e-03
2.113602522799952216e-03
2.027008544986103836e-03
2.123316931677876000e-03
1.983324561286316755e-03
1.932611523638797565e-03
2.124307632606907588e-03
1.967450814182801402e-03
1.933239699499491974e-03
2.032477277262035795e-03
1.750908534428544626e-03
2.035737993632831533e-03
1.833104563630304001e-03
2.091842838205281233e-03
1.906961081085839635e-03
1.908264937081820137e-03
2.033327618128979563e-03
2.125508586594179392e-03
2.123319084439564096e-03
2.032634428865293715e-03
2.126123989402188812e-03
2.039742560925714935e-03
2.032614623457760106e-03
1.955434385472679202e-03
2.033600731828523120e-03
1.979575455047130964e-03
1.954147321017868366e-03
2.007145873991308255e-03
2.106229026982066582e-03
2.106908295053500080e-03
2.010608662925928228e-03
1.943704274067122604e-03
1.777587422998805214e-03
2.126402556764676356e-03
1.907009589982553138e-03
2.061864196518940068e-03
1.918219020094392817e-03
2.014759761531073091e-03
2.042952902673000372e-03
1.990878171498804486e-03
2.109761565395392325e-03
2.126067443528505303e-03
1.820496843043082832e-03
2.002980997711357233e-03
2.003082608063052814e-03
1.917954947993941086e-03
1.961412317646655992e-03
2.072587533041524415e-03
2.046051731364823423e-03
1.671804014528867300e-03
1.804127960751220972e-03
2.067056801228964961e-03
2.027132687576805453e-03
2.047701894957755335e-03
2.122301545748149412e-03
2.074717618973538017e-03
2.020820216236441074e-03
2.108039212527174164e-03
2.115118067028631810e-03
1.928140811681638631e-03
1.963401612964244067e-03
2.059464297788639233e-03
2.113886687342829938e-03
1.936581503227219813e-03
1.922644237021202407e-03
1.989788587049548876e-03
2.092531291393252314e-03
2.078706255829927164e-03
2.002656217731290690e-03
1.968539250492490084e-03
1.950849003076247749e-03
2.034954388378230027e-03
1.983881839528737166e-03
2.094165668067135295e-03
2.014936718541865054e-03
2.120445291102908587e-03
2.125249107051996236e-03
2.040236404457048975e-03
2.017053457351410204e-03
1.997743615558212650e-03
2.003013576171575830e-03
1.954685080887647117e-03
2.006267116670076758e-03
2.080403923697450759e-03
1.979450020799416662e-03
1.984938127930544523e-03
2.000235508971334210e-03
1.966640227648371476e-03
1.999581930522716013e-03
2.083107361825826086e-03
1.985938875080789107e-03
2.040863145143284076e-03
1.982046394913151554e-03
2.066656244037464330e-03
2.082395945846510828e-03
1.979860911247021803e-03
1.998326870458340745e-03
2.035535777551561541e-03
2.020143387961587621e-03
1.999295469700704438e-03
2.124238457197984847e-03
2.025451380698113819e-03
2.033138892687624214e-03
2.060398883396325018e-03
1.969830046400893649e-03
2.104912254415954899e-03
1.927848466644344711e-03
2.124964798991673190e-03
1.967231088973132088e-03
2.113461158115743227e-03
2.114967660745330994e-03
2.126435135224895388e-03
2.123323820515278862e-03
1.972553433454248342e-03
1.780396777002252965e-03
2.116837836582824168e-03
2.122803282739007917e-03
1.746751838643009367e-03
2.034979790966153813e-03
2.103868164997049067e-03
1.983339487100689840e-03
1.957580975910970956e-03
2.098057861199880900e-03
1.941143492279970035e-03
1.987098926595980142e-03
2.119361016799151641e-03
2.034439734817240775e-03
2.090658675759179096e-03
2.119933220855945571e-03
2.119659676604064742e-03
2.010106064830394310e-03
1.935445706160385422e-03
2.093054268966103738e-03
2.126483787639054431e-03
1.984569862164370976e-03
2.055344342469253658e-03
2.118975385422024529e-03
2.066661410665516802e-03
2.092642086861485045e-03
2.117121140021026478e-03
1.895310765380202019e-03
2.123716340729809270e-03
1.940190392921763325e-03
2.058965144111806964e-03
2.113571092479300979e-03
1.987689787920740754e-03
1.961421789798085090e-03
2.126262196702588536e-03
2.056556777852197333e-03
2.122168648593248351e-03
2.029685719421879531e-03
2.073152991778361241e-03
2.117710853206220163e-03
2.126475750662084208e-03
1.995460109476534290e-03
2.120519202587546094e-03
1.982551002252927810e-03
2.083456826806586761e-03
1.973025031781468295e-03
2.088981243851526816e-03
2.020538347972698073e-03
2.032063372948066712e-03
2.036858434332954916e-03
2.102639225107827241e-03
2.088940341379446047e-03
2.043800229673580632e-03
2.126530574326416893e-03
2.104417262745053932e-03
2.108899169062992789e-03
2.110797617837327934e-03
2.079674855072290423e-03
2.126439440748272014e-03
2.095596824037627114e-03
2.008247513906019199e-03
2.099556900922282341e-03
2.105796895952468523e-03
2.102929417383432413e-03
2.069814775986781024e-03
2.126552388978193275e-03
2.034976346547452165e-03
2.126101457163183210e-03
1.984551491931295809e-03
1.977863722469909262e-03
1.922879749149920435e-03
2.098904040060893799e-03
2.108313043813946509e-03
2.033909007302311077e-03
2.082492389570153937e-03
2.098106657131486134e-03
2.020126739937863278e-03
1.905299292579790311e-03
2.021914680278857207e-03
1.972197223153530563e-03
2.121796364338589692e-03
2.091205620745494997e-03
2.040914954941253252e-03
2.124880697768376930e-03
1.995725186199107191e-03
2.111757462515491748e-03
2.126055962132833432e-03
1.918279010386778191e-03
2.059207114525590365e-03
2.098496737549436063e-03
2.121270516416820517e-03
1.951236069627833953e-03
2.052151653367813300e-03
2.103386663966062310e-03
1.847240314463997803e-03
2.090056476556192370e-03
1.986766683708727273e-03
1.915016428289185871e-03
1.983566388182653965e-03
1.971565602874134505e-03
1.740696550565693640e-03
2.121159433913695838e-03
1.983402634776885130e-03
1.975842853314223758e-03
2.115434379479390857e-03
2.055900329054661385e-03
2.125591683195354048e-03
1.933622460527701118e-03
1.599042248150639315e-03
2.122006904431721422e-03
2.098047097391438683e-03
1.970760470002648566e-03
2.058246408742751138e-03
2.056529653054922722e-03
2.067993826633230791e-03
1.848676206510204171e-03
2.066486319381521421e-03
2.011896875520305990e-03
2.111751578300209622e-03
2.098770281801316893e-03
1.987086584095632859e-03
1.950029661977617729e-03
2.105431787570104674e-03
1.946548502809923240e-03
1.914428867865680716e-03
2.126470009964248273e-03
2.006072650530885473e-03
1.971285600337188085e-03
2.125548771479030940e-03
2.096553224297089280e-03
1.999524810579248607e-03
2.075751375136339338e-03
2.099148019718919539e-03
1.653641594715621766e-03
1.983620494259757429e-03
2.107654011702384325e-03
2.059969335680753195e-03
2.079636679431681647e-03
1.984288137418073732e-03
2.047754278825507975e-03
2.113303862995039115e-03
2.083677987190714950e-03
2.037169580155661058e-03
2.051403496922349010e-03
2.048799085831643461e-03
2.086277805723151923e-03
2.106195300382280190e-03
2.006559892259708166e-03
2.026547136397542637e-03
2.084718632190919133e-03
2.042664719641637972e-03
2.089955296756834495e-03
1.971913632680436304e-03
2.124874095965866017e-03
2.069237261784488430e-03
1.970294038303480651e-03
1.964209616184648191e-03
2.095550180867710409e-03
1.968916557857755024e-03
2.007362298299722111e-03
2.064696656831177535e-03
2.066790002297041236e-03
2.102373287280578495e-03
2.048676378415400720e-03
1.992867610333837886e-03
1.943280467049386716e-03
1.998342513859943485e-03
1.805961970192347492e-03
1.948519140859544417e-03
2.120121946297301354e-03
1.986850067344793445e-03
2.125065835273584874e-03
1.943985424743636167e-03
2.099289384403128962e-03
2.109785532808857236e-03
1.992549862708620830e-03
2.126169484432538590e-03
2.120422041276673331e-03
2.069600073887717991e-03
2.123707155613271686e-03
2.105909557147498268e-03
2.123672424391364558e-03
2.090387140751540605e-03
2.100660550081235624e-03
2.125846139626930923e-03
1.913976644393656883e-03
2.112734529287162936e-03
2.120862209283241612e-03
1.967186598564903913e-03
2.030948529428333506e-03
2.019676956262420140e-03
2.126554254704990290e-03
2.072415312106447218e-03
1.668733458773886220e-03
2.125333782345076392e-03
2.051145452554624729e-03
2.002599815375052938e-03
1.958553019572035862e-03
2.051504102651923421e-03
1.626762212273442009e-03
2.021176857089496993e-03
1.997572686280148137e-03
2.061785692476034420e-03
2.083748454256650808e-03
2.047013441769784253e-03
2.017790275918648814e-03
2.016552437947781353e-03
1.911158679343455662e-03
2.064024277597146465e-03
1.956388058900669375e-03
1.870525302473669644e-03
1.800179508779683373e-03
1.945568709206779625e-03
1.987954721125867897e-03
2.029364670895406585e-03
1.974359026441087350e-03
2.026906360564624792e-03
1.909883096284316914e-03
2.115542878668489300e-03
1.989556662856978037e-03
2.036678319938353254e-03
1.988646618732540627e-03
2.037803783749082918e-03
2.015136781861446083e-03
1.860597913706034086e-03
1.991463722678066869e-03
1.692526785576927697e-03
2.093965891782445781e-03
2.112522697537018088e-03
2.063777714625094489e-03
1.963246614122674677e-03
1.667661383453030149e-03
2.061700012560833527e-03
2.045110256919734776e-03
2.122789074511864053e-03
1.941880454364654620e-03
2.125068849139948816e-03
1.778047970482691219e-03
1.928586146316258951e-03
2.083639093962876953e-03
2.124186360365124156e-03
2.010525422807307380e-03
1.620154669064311935e-03
2.113727239460437297e-03
2.126484935778621792e-03
1.994653684948034800e-03
1.997704578812928029e-03
1.603126467625995942e-03
1.792599634874596226e-03
2.089404333282033049e-03
1.956250282152607357e-03
1.649385010787741968e-03
2.048439718147115549e-03
2.014022081859159069e-03
2.039876462702737599e-03
1.845924690037453264e-03
1.742234052963595806e-03
2.123337598190085020e-03
1.916448445364353102e-03
2.043875863367568529e-03
2.124841230470755037e-03
2.120033252515736519e-03
1.932410025144757227e-03
1.977077820936173468e-03
1.664483763683409501e-03
2.095117762803220835e-03
2.034274689754458389e-03
1.963943678357399879e-03
2.034543784965516400e-03
2.120627988811536486e-03
1.894556437684564087e-03
1.975406129726357124e-03
2.118023147168493232e-03
1.904189328653217413e-03
1.964262000052400398e-03
1.799300320906113953e-03
2.126548370489708597e-03
1.841611703753335931e-03
1.924733563998581214e-03
1.767924680401405067e-03
2.006575966213648612e-03
1.962290931450441731e-03
2.053942320540279223e-03
2.121187132780753912e-03
2.121742688813823934e-03
2.084066919469097952e-03
2.116305817410881352e-03
2.017724401410981964e-03
2.028628282880505247e-03
2.023573024366205099e-03
2.007311780158766053e-03
2.013179203899401627e-03
2.109722528650108137e-03
1.977498614087545414e-03
1.997207147345446583e-03
2.106811564294965022e-03
1.908725341048260167e-03
1.930175171477238345e-03
2.123734280410546297e-03
1.994122096328430124e-03
1.805373979216504630e-03
1.797600356759455637e-03
2.015169790874002820e-03
2.120596414973439058e-03
2.059614560554493858e-03
2.066943852999043266e-03
2.011928879910741125e-03
1.991869302980173780e-03
2.071432074084601956e-03
1.905042539869079366e-03
2.046509264982345703e-03
1.979413567368158277e-03
2.048540897946473423e-03
1.990932564610799465e-03
1.836733832802164802e-03
2.087426806395008792e-03
2.004596573599827774e-03
2.000041186349588683e-03
1.974047593583489260e-03
2.026157917084268553e-03
2.105337066055811956e-03
2.106132583258423039e-03
2.028493950551145310e-03
2.093259785948629187e-03
1.934082433941803009e-03
1.925057482873972345e-03
1.978020587038275234e-03
1.771294470031082929e-03
1.823748374297340987e-03
2.031944396985417567e-03
2.109222657386046647e-03
2.067540167986748299e-03
2.082700202831814108e-03
1.897092103918684601e-03
1.988625952220331606e-03
1.990939022895865055e-03
2.116351168923784939e-03
1.979681227404757413e-03
2.111898970717146495e-03
1.968143859929041492e-03
1.812076530974818939e-03
2.020280590639865741e-03
1.633833316832821380e-03
2.032935384949341104e-03
2.108487130475820721e-03
2.126526268803039833e-03
2.052563404920093853e-03
1.919327835881398572e-03
1.828750387839213516e-03
1.934029476004266905e-03
1.906564829417716064e-03
2.076881575022783769e-03
1.991154155547265360e-03
1.847283082662874937e-03
2.104612446471474437e-03
1.940382562781820322e-03
2.014407282683948475e-03
2.087466560727522635e-03
2.121151827489062888e-03
2.006105659543441777e-03
