5.314699685190968186e-03
5.223292483641102033e-03
5.503325254563020720e-03
5.297556261847528175e-03
5.271474725482014692e-03
5.210383196530849609e-03
5.394980022418570213e-03
5.481463369227791357e-03
5.463393264314018137e-03
5.100615814593691295e-03
5.056611625251647250e-03
5.163696644743536943e-03
5.160962284133998289e-03
5.490244373510686816e-03
5.231744413827277979e-03
5.300166569693742953e-03
5.493165927511585271e-03
5.496959565010338042e-03
5.394993393375096223e-03
5.491745634796172358e-03
5.350489278825169490e-03
5.061703359779784819e-03
5.318719514704283065e-03
4.943958345197657818e-03
5.494566535207669189e-03
5.497685682232782839e-03
5.466908711633940501e-03
5.350609246018442691e-03
5.340894874686951885e-03
5.365853622119751837e-03
5.382013165912164811e-03
5.287785435366260979e-03
5.361248441842972681e-03
5.421742734735984087e-03
5.320000526622551199e-03
5.071428130744129285e-03
5.153442978165501988e-03
5.168854119807925369e-03
5.409977035824151646e-03
5.301183876636084147e-03
5.377714403389102088e-03
5.502141553495023575e-03
5.111312208398914245e-03
5.262476443155575043e-03
5.451408430281344877e-03
5.370375233918245166e-03
5.481105324725265779e-03
5.349730477042327105e-03
5.503165545915628641e-03
5.362500483355435617e-03
5.151289882749380405e-03
4.774835058749481685e-03
5.248152805977254406e-03
5.255502003665505836e-03
5.202205370953453395e-03
5.452647100837281803e-03
5.451978924426448270e-03
5.106559576184890696e-03
5.419969597334472859e-03
5.456511678688712695e-03
5.498133980691858116e-03
5.502038299997407018e-03
5.206161317007810575e-03
5.493757592337854267e-03
5.425957557365300964e-03
5.192901042288754730e-03
5.302692566230751865e-03
5.499425763658439062e-03
5.503050778538781836e-03
5.502508140553107920e-03
5.435601731175031953e-03
5.163484195100959129e-03
5.502641850118365416e-03
5.501328153639700562e-03
5.324722702768931205e-03
5.268010162079982302e-03
5.360473669195391956e-03
5.232969342011228875e-03
5.142523363669387546e-03
5.422377112340044311e-03
5.350370425878273745e-03
5.351907714463287509e-03
5.361228756823643686e-03
5.437458065639370723e-03
5.467938646701890268e-03
5.488531033998081746e-03
5.296079142566881455e-03
5.395430549370399537e-03
5.290866698014552380e-03
5.270644611931035034e-03
5.319964499323022976e-03
5.220923595843271134e-03
5.502955696181264025e-03
5.392077782021541602e-03
5.133934381178822601e-03
5.489043958747032159e-03
5.448446020579950089e-03
5.422677587446416911e-03
5.477307973071923221e-03
5.486643129219722845e-03
5.375762986567246375e-03
5.295202973498978199e-03
4.877546661211039011e-03
5.464724417319258808e-03
5.501938389238922832e-03
5.494328086482957660e-03
5.254185707278627784e-03
5.491653895177786050e-03
5.423503615427347629e-03
5.368783718676209925e-03
5.233274645518569586e-03
5.065697933041883420e-03
5.353088815623071456e-03
5.438453459069629743e-03
5.266242224494897470e-03
5.147954943342556572e-03
5.501771995113267748e-03
5.405256345339606514e-03
5.485420058113066842e-03
5.476798391062105177e-03
5.502134496601301418e-03
5.493108729530891444e-03
5.497751051353576279e-03
5.346831207968970844e-03
5.374135815441142064e-03
4.282752659699510210e-03
5.426977835631314508e-03
5.500749859769958443e-03
5.412140159457666869e-03
5.351522185216791606e-03
5.439400197074751100e-03
5.484326239586160244e-03
5.300264994790391399e-03
5.351548927129843626e-03
5.306546373033869946e-03
5.305064425352255114e-03
5.501850363775127178e-03
5.325336652522744130e-03
5.502836843234368280e-03
5.460276345781657666e-03
5.300798718805048264e-03
5.197192747918094428e-03
5.481672104715778517e-03
5.452565760851749155e-03
5.161576233887811213e-03
5.501656484905502638e-03
5.203022484963366195e-03
5.217021133615017126e-03
5.255725967187314766e-03
5.299629131524495433e-03
5.495927772865092514e-03
5.200024419377903204e-03
5.296895142330416799e-03
5.500185308272198884e-03
5.479239704874449939e-03
5.503011408500122111e-03
5.156148739784691994e-03
5.339384328014989273e-03
5.289131444989864268e-03
5.488349783254064043e-03
5.441313358104325412e-03
5.330536468949464632e-03
5.476914272685328572e-03
5.253951715539425214e-03
5.340062904058676466e-03
5.483305589904685813e-03
5.426907638109554691e-03
5.354587848415802952e-03
5.399501262801604390e-03
5.489113413437875406e-03
5.428659604829900315e-03
5.399304041192847479e-03
5.393071318374504861e-03
4.998205058653964854e-03
5.500606121987304704e-03
5.191815394901947746e-03
5.448082404845538095e-03
5.370807932928040387e-03
5.477490338062317513e-03
5.468911383789146208e-03
5.137759960407052920e-03
5.068084648781747553e-03
5.500974566122684810e-03
5.481148408918515291e-03
5.490946720143752811e-03
5.272208642429101685e-03
5.482113717696590789e-03
