4.101716107253984382e-03
4.118523377578817840e-03
4.096668204316698467e-03
4.082628838779633028e-03
4.159404372956457610e-03
4.163266755777923420e-03
4.152214867109042112e-03
4.111756667778414427e-03
4.041085181064310930e-03
4.079236887026474814e-03
4.097768319631022067e-03
4.065748565670681408e-03
4.087031273085148762e-03
4.103058343771229938e-03
4.093195639450576684e-03
4.077808963843701506e-03
4.073820587800225726e-03
4.126035899606150109e-03
4.093374623110478464e-03
4.074088922358063206e-03
4.067131954336503791e-03
4.108428417296339751e-03
4.080419024773919087e-03
4.078460633484161726e-03
4.064561354370673819e-03
4.175390855222026187e-03
4.166680974789557096e-03
4.174083851708698667e-03
4.156863932441981491e-03
4.111198858860390729e-03
4.073239384167600709e-03
4.118010666905808428e-03
4.168050270253811918e-03
4.163996219891034738e-03
4.164877044988975208e-03
4.174537089071094983e-03
4.110747594546213142e-03
4.080997973494294127e-03
4.162870173085826860e-03
4.063404302522018348e-03
4.172309799495437649e-03
4.167407056534291714e-03
4.088666366330958105e-03
4.137135423296328662e-03
4.081067312046003474e-03
4.157689794053809687e-03
4.101776989884754580e-03
4.111117682019364665e-03
4.097888957436436608e-03
4.020551950109180379e-03
4.094490804674588355e-03
4.064199440954431933e-03
4.122973728769662068e-03
4.173589180333694276e-03
4.133305736702497929e-03
4.053219145749510817e-03
4.134071843139683518e-03
4.115246426350447490e-03
4.116821764421612490e-03
4.120146350671280086e-03
4.125194253608566002e-03
4.129072138951756475e-03
4.131453044424493806e-03
4.169073154823548649e-03
4.140317386346137503e-03
4.164572631835126819e-03
4.149868912776190702e-03
4.170242044961519970e-03
4.057775195952107415e-03
4.044153552909489011e-03
4.054210179683705347e-03
4.158220262160793740e-03
4.175311087701156360e-03
4.169168988594204768e-03
4.176461938541122659e-03
4.175380426252866574e-03
4.176216716833856119e-03
4.168783398599330316e-03
4.169178571971270640e-03
4.100608381610814507e-03
4.148839827197764799e-03
4.093618717361620016e-03
4.052143270741882276e-03
4.048976528349765985e-03
4.023647380901367726e-03
4.058391068860587106e-03
4.108522278018776272e-03
4.122338125378988138e-03
4.129147678512155861e-03
4.147888254227957011e-03
4.100517339528691324e-03
4.096803217187710081e-03
4.161020299448136076e-03
4.126955340076384447e-03
4.063758605609413960e-03
4.086698391664134872e-03
4.057914436783589471e-03
4.152352416756336685e-03
4.116557375960215072e-03
4.107466133493341102e-03
4.078036709981024653e-03
4.144516032956993903e-03
4.106833912471043006e-03
4.145601209477656202e-03
4.115774075817118204e-03
4.067646074329669438e-03
4.065641175474740687e-03
4.066620089255588121e-03
4.027660279115569814e-03
4.172487937563244820e-03
4.046066564090200837e-03
4.079678849827617776e-03
4.173303652069946384e-03
4.107065604704805348e-03
4.107585643842629787e-03
4.176489561216193552e-03
4.174833891896096230e-03
4.060871472336387636e-03
4.051942019823505034e-03
4.084460954983349171e-03
4.146697096831510228e-03
4.117534316692842908e-03
4.052640760757199138e-03
4.142041266761819183e-03
4.115521525645036635e-03
4.112160860799357262e-03
4.156003683418328133e-03
4.173237977750644118e-03
4.119133895070702968e-03
4.084383442374731055e-03
4.107046156086643224e-03
4.116064959497461526e-03
4.176113836462416219e-03
4.175696959560062926e-03
4.088390139580243970e-03
4.170369729367717423e-03
4.175980232911560841e-03
4.171579207926201342e-03
4.172912706658476502e-03
4.147742530523754537e-03
4.135478908384137599e-03
4.145220693035345932e-03
4.175232447636412388e-03
4.116834448303022947e-03
4.083990805779072822e-03
4.098828128388864317e-03
4.104078691564684578e-03
4.134259846448587808e-03
4.153417580930774365e-03
4.070617203084035164e-03
4.155016877444603178e-03
4.122598285879915982e-03
4.081549017675565293e-03
4.052012485831340237e-03
4.132269322659256998e-03
4.161588537335319388e-03
4.165069276258349940e-03
4.081036307002555881e-03
4.175744876445390552e-03
4.095784842442475038e-03
4.105612031895179877e-03
4.112896525921157752e-03
4.143824338624082712e-03
4.101607871465949053e-03
4.079408824085592813e-03
4.138048944621905076e-03
4.132772449955200537e-03
4.140284126390439065e-03
4.095874475204441985e-03
4.091880180016308280e-03
4.145404468383780648e-03
4.170789143046352808e-03
4.073133403291816224e-03
4.124892095366968457e-03
4.101712443021577302e-03
4.134826675015614017e-03
4.091937116550639283e-03
4.079515650553471040e-03
4.100033942714941156e-03
4.090024950962021198e-03
4.103595294750935277e-03
4.119965112099127462e-03
4.176380197972033234e-03
4.145759898927301249e-03
4.131134538069078724e-03
4.171779331388453596e-03
4.108448429642565236e-03
4.111673799753200013e-03
4.087006750914421588e-03
4.176140049817330877e-03
4.175294739587338821e-03
4.106842932120046384e-03
4.145743268949452463e-03
4.175657498595675317e-03
4.119582340744566348e-03
4.168871903905171407e-03
4.170941067759245321e-03
4.169811638585662478e-03
4.131438951222927113e-03
4.171675323560888708e-03
4.156223537362774625e-03
4.110360595231182454e-03
4.060198099165514447e-03
4.121161624912169676e-03
4.088726967097696188e-03
4.109255124500262556e-03
4.158787372591852063e-03
4.089593698994069965e-03
4.072285838149574191e-03
4.094348463338761714e-03
4.088153373793917446e-03
4.104797726708636282e-03
4.098405050477820985e-03
4.099460349411162413e-03
4.096519380108149672e-03
4.090908876564307121e-03
4.118853440359518392e-03
4.111138821821715139e-03
4.087152192754593683e-03
4.016058755585572709e-03
4.024009576181640860e-03
4.150089330448699688e-03
4.096057686824813339e-03
4.170311383513229317e-03
4.101450027608398614e-03
4.106749916989703604e-03
4.117888901644269767e-03
4.072598989088393844e-03
4.070287985895429221e-03
4.107061094880304526e-03
4.031456142025638748e-03
4.135416616433211165e-03
4.092611617177638328e-03
4.079951694209956077e-03
4.082874906078994177e-03
4.142943231662110995e-03
4.060016860593362691e-03
4.099875535129327356e-03
4.061706353597220077e-03
4.143362645340745512e-03
4.072410422051427059e-03
4.059356171303899093e-03
4.077027636748824235e-03
