5.172224588172014137e-03
4.840683540936164056e-03
5.624672791591669649e-03
4.808315102025923805e-03
4.884951154769038087e-03
4.938741908335197821e-03
4.865468674325309530e-03
5.585868352663806921e-03
4.835748460014163870e-03
4.793431536951133637e-03
5.129338471300571266e-03
5.678670982955854978e-03
5.668937691285130462e-03
4.985349498076640726e-03
5.586087422487891023e-03
5.076169255660083549e-03
4.859818999269176210e-03
4.868564344193415661e-03
5.599485577835136042e-03
5.504530247254044162e-03
4.833864847261250090e-03
4.915608910380419617e-03
5.745167398584635592e-03
5.731495890625039509e-03
4.865131345569642315e-03
5.718062063731217670e-03
5.424898947801121488e-03
5.372967379733153102e-03
4.930868577631068554e-03
5.561751285304564890e-03
5.039385687392614575e-03
5.031760118843510259e-03
4.869366953991384125e-03
5.504522880304208408e-03
4.958401583309201589e-03
4.916607325950356905e-03
4.942450973710735447e-03
5.435923006630027747e-03
5.291681230706448205e-03
5.191437205611207882e-03
4.916132351553007332e-03
5.651201953421038961e-03
4.928204068195494655e-03
5.420583853867985517e-03
5.365776073490197487e-03
4.952940734809401120e-03
5.056782545564230194e-03
4.803209030320877877e-03
5.018578319180935256e-03
5.077732599962213322e-03
5.074056879728039947e-03
5.478075918125645608e-03
5.726532892840500641e-03
5.209652182948868240e-03
4.997246346594063672e-03
4.833165374760991714e-03
5.719701016202721235e-03
5.172110206582447925e-03
5.673336148071677493e-03
4.109374573092527266e-03
5.375244154966811461e-03
5.379340179075863329e-03
4.800641454435782864e-03
3.779257673580318101e-03
5.356293258113912006e-03
5.721474124708088305e-03
5.535240346982685938e-03
5.676711762033568275e-03
5.492815246077321564e-03
5.501239934816576360e-03
5.456581484908170319e-03
5.563549208798855041e-03
5.654533365683910018e-03
4.983639202511985257e-03
4.935426005440402171e-03
5.224995213052929105e-03
4.941882943104927359e-03
5.328962649689179647e-03
5.291772735978100654e-03
5.197105491909033946e-03
4.992820360679179476e-03
4.854320152817588087e-03
4.865592361535721680e-03
4.889454299790102140e-03
4.938914837789252013e-03
4.921554814366818631e-03
4.867937377988916341e-03
5.107586194838819454e-03
4.977876309068890275e-03
5.091926773625994954e-03
5.209765013601626651e-03
4.893763189976007774e-03
5.717813526107788820e-03
5.177001085805430988e-03
5.160820162091026356e-03
5.745058445273896683e-03
4.863133738961365575e-03
5.480794710349488202e-03
5.026269414810162657e-03
4.834440244816894799e-03
4.840878183505526594e-03
4.821360419249423601e-03
5.657182753485610026e-03
4.783254677353416216e-03
4.992575312663567744e-03
5.612673581244942249e-03
4.920084526273149107e-03
5.171761633534925455e-03
5.086427927174406831e-03
5.386190279221132228e-03
5.651384188495939959e-03
5.288380837179729697e-03
5.040836976510388971e-03
5.731092647055045092e-03
5.574176615539199603e-03
5.034594068125322099e-03
4.895941868456580096e-03
5.736870662132013098e-03
5.557929777010470369e-03
5.167664446223266435e-03
4.962780265651450459e-03
5.641277121054567509e-03
5.599829110338033593e-03
5.726984215451531683e-03
4.936791217565353156e-03
5.230381228851760551e-03
4.855091743879403135e-03
4.941748399336862337e-03
5.227659722488503871e-03
5.565881042289183393e-03
5.710693175223783592e-03
4.907050453341504567e-03
4.908873967293119964e-03
4.929264521237737909e-03
4.920227212459454651e-03
5.619935455112647603e-03
5.119289563989486147e-03
5.011177636468943861e-03
5.099147935402498569e-03
4.810998998171593481e-03
5.123478256572795882e-03
5.739800769495900790e-03
4.810268506935181688e-03
5.667517808637710132e-03
5.713872207945301651e-03
5.201420198107966665e-03
4.974990403404021440e-03
5.386746677800882677e-03
5.538047542604565381e-03
5.615533508718281719e-03
4.909921625106700160e-03
4.831729595011292726e-03
4.980405111533793734e-03
5.476014335374051849e-03
5.570548198877659819e-03
4.984239415056552179e-03
5.269385350893609002e-03
5.119396966363416387e-03
5.230701885036745206e-03
5.610030009456271061e-03
5.259866476236545185e-03
4.955906901454066281e-03
5.050810275652100299e-03
5.731797160099929254e-03
4.929752290863749671e-03
4.800244026878817266e-03
5.649617283737804092e-03
5.035659949446392655e-03
5.018383288877371201e-03
5.557959632544017502e-03
5.135053285702627021e-03
4.804552917064722033e-03
4.895649904602536288e-03
5.091506082016914077e-03
5.045653023032402144e-03
5.721115082837112745e-03
5.501048394120829424e-03
4.967351264157851901e-03
5.671497512486186471e-03
5.742329959695006633e-03
5.295512432355591048e-03
5.336836755861711946e-03
5.330396878502071702e-03
5.194173058139935420e-03
4.919140005757278999e-03
5.559938627910602366e-03
5.610422784202813255e-03
5.354805521981156023e-03
5.249150666098162908e-03
5.019660873072687504e-03
4.936808665604438748e-03
5.610651547381943945e-03
