6.361793268591444360e-03
5.687281989870143946e-03
5.769546183400964083e-03
5.173290277537109273e-03
5.302494153517706837e-03
5.200301732118847373e-03
5.424620866037450743e-03
5.943087258970866128e-03
5.343332519367463215e-03
5.258300787759805778e-03
5.682415892613815016e-03
5.555667970883244704e-03
5.251050147898080230e-03
5.823026768282100508e-03
5.244135008027169670e-03
5.593422498966028888e-03
5.865145491024513144e-03
5.338336735869705398e-03
5.598186194618736712e-03
6.444033882805641142e-03
6.538021038866903382e-03
5.235244258270588952e-03
5.248808765429326464e-03
5.382289929445427043e-03
5.468160074182739500e-03
5.592345261043716459e-03
5.580519223214890946e-03
5.312423740595241528e-03
5.533310062860844619e-03
5.327716274815101800e-03
5.690469239782880266e-03
5.263092104897700366e-03
5.522767413551098355e-03
5.376665251888581264e-03
5.659116159315996653e-03
6.520685525285306594e-03
6.328620538575986838e-03
6.279942049948915826e-03
5.631242038593218743e-03
5.346379303922599822e-03
5.306930770364107208e-03
5.613129418105188180e-03
6.446719230121676983e-03
5.146550658791302496e-03
5.430168405544199758e-03
5.321042317668510206e-03
5.476290559401902382e-03
5.311773288303813650e-03
5.929995348686738742e-03
5.876617165409225158e-03
5.420464506211489231e-03
5.330340315907916397e-03
5.246233230359280582e-03
5.753274433846468361e-03
5.216768516306557503e-03
6.293413250383300336e-03
6.155039041320445499e-03
5.687680143473701315e-03
6.260204814545526630e-03
5.341075978766594498e-03
6.442638660956290231e-03
5.917731409263477134e-03
6.257927726254457548e-03
5.201875819927156454e-03
6.115599602641221856e-03
5.604433366134442020e-03
5.759368002956740708e-03
5.508122973691004405e-03
5.068313138845014984e-03
5.338317535569026169e-03
6.093009943621149893e-03
6.353229260793790377e-03
5.351399003584362581e-03
5.384693672351502022e-03
6.356659714515128234e-03
6.324990671205488711e-03
5.696411901266762792e-03
6.298414760286525152e-03
5.810729817815565856e-03
6.381579683712362838e-03
5.334400337383102784e-03
5.685864536093691683e-03
5.340710499358931190e-03
5.157022906998558545e-03
5.154887631454610313e-03
5.176756437080764182e-03
5.156453971773170691e-03
5.251147159943616791e-03
6.239585039005657828e-03
5.861386274259966847e-03
5.332849828891417059e-03
5.902176470934336096e-03
6.008536031275327899e-03
5.278537567828233031e-03
6.168919174474557336e-03
5.482197515063468723e-03
6.180762728367159356e-03
5.968180367721591904e-03
5.754869743039738375e-03
6.243303834084564831e-03
5.389326334373258955e-03
5.548957971066958809e-03
6.498537136333476169e-03
5.553455220441820724e-03
5.311039297862062310e-03
6.124479573281630881e-03
5.244263683726458139e-03
6.428565851100626408e-03
6.102482765650950845e-03
5.199376412365065182e-03
6.539006654301765531e-03
5.745696715178437095e-03
6.336982437945439146e-03
6.184414827664759702e-03
5.387419441353178025e-03
5.990400842012815266e-03
5.359857241304590882e-03
6.470245324859081812e-03
5.821126949057006846e-03
5.504024214767079710e-03
5.879028992652428690e-03
6.241164179524672471e-03
5.915629481610182663e-03
5.781518412992854572e-03
5.441317716985930031e-03
5.107132441497039786e-03
5.220972371613146444e-03
5.282672032574472175e-03
5.123455728700727213e-03
5.304247780979733790e-03
5.148242980030108204e-03
5.324089102223646813e-03
6.231754011107614767e-03
5.360484787974156839e-03
5.351581574864504309e-03
5.245083907097574348e-03
6.350085801040497059e-03
5.871803616344228351e-03
5.398094134836016467e-03
5.734713469495211595e-03
5.494035342550605480e-03
5.219633066428931364e-03
5.942431080273971253e-03
5.613987368382903145e-03
6.193965124592035534e-03
6.079531332544398266e-03
5.414739111287924199e-03
5.170772680216480059e-03
5.333884960891188340e-03
5.271549332075788248e-03
5.167802023169299798e-03
5.113327064821413838e-03
5.180947155339519876e-03
5.140294392396327350e-03
5.301226933672883827e-03
5.763813714682411785e-03
5.793128194803504744e-03
5.107431561970778022e-03
5.409916804191038271e-03
5.789188427843098422e-03
6.609614581083449354e-03
5.584836259241272687e-03
5.643940511137112738e-03
6.478834933057640855e-03
6.242205711624669584e-03
5.564702554471227976e-03
5.886484772568778903e-03
6.422228404486990221e-03
6.406669423989285773e-03
5.257221191905830059e-03
5.158826387872875348e-03
6.067780748528768531e-03
6.069687304701467875e-03
6.116336624709396187e-03
5.660907513684620626e-03
6.070391989421130598e-03
