5.504558172287578842e-03
5.737263031293705733e-03
5.608058090207122988e-03
5.868941328423487105e-03
5.667051903094862120e-03
5.761752236068423683e-03
5.887071723541117442e-03
5.877533111729214312e-03
5.865020910097663333e-03
5.468662922222557871e-03
5.819697902250627053e-03
5.807716131192196089e-03
5.760292856671367714e-03
5.863550405564991672e-03
5.885617112059326334e-03
5.439654131103839954e-03
5.485594186651292399e-03
5.530981958680665153e-03
5.497202868340315962e-03
5.595981358169684755e-03
5.405595323068002923e-03
5.758806459087816368e-03
5.564080826443350281e-03
5.795584170802948500e-03
5.783275400222662350e-03
5.828609930531586034e-03
5.630902364215761846e-03
5.563662044552662375e-03
5.883063496109182389e-03
5.656672548891407762e-03
5.883935627276222144e-03
5.687602809861516326e-03
5.472994573239900983e-03
5.877512848089343211e-03
5.655380841181135813e-03
5.847381610252224207e-03
5.562208227723414687e-03
5.866417511943743113e-03
5.571771871090453777e-03
5.418499288403746429e-03
5.739949751544968885e-03
5.574675134159957739e-03
5.504945962729050797e-03
5.793733027701700872e-03
5.883500555008381976e-03
5.597060893650708177e-03
5.807183713987715788e-03
5.555458051688407124e-03
5.777567808325382269e-03
5.574150663480917714e-03
5.709010749396874890e-03
5.886383157111742259e-03
5.873357609936766949e-03
5.582846148943636753e-03
5.512929439512346402e-03
5.638838559172688371e-03
5.447333255962783470e-03
5.763258897291846997e-03
5.875835336568957859e-03
5.884094557785021599e-03
5.517501075597978574e-03
5.864738013791999209e-03
5.506867829906714890e-03
5.391496200306083314e-03
5.846864688772352749e-03
5.688089931870988700e-03
5.574308402010901171e-03
5.681414055848844728e-03
5.876094393298302021e-03
5.772108148021829789e-03
5.642828509596112610e-03
5.520098000111770160e-03
5.617465584349266329e-03
5.615484118230802332e-03
5.482696883475869296e-03
5.543984460931863922e-03
5.703461690682124288e-03
5.850622600652928204e-03
5.861030959674239094e-03
5.691045244682124866e-03
5.841903672940160913e-03
5.879887269890814866e-03
5.768070121119494784e-03
5.517758543022233293e-03
5.750007271468103760e-03
5.765703248517191695e-03
5.523082715067033702e-03
5.878163271196606456e-03
5.386263015977572205e-03
5.719969007978634341e-03
5.761784816822727341e-03
5.797320486611588601e-03
5.711957321030027360e-03
5.765758079542727607e-03
5.672691552199629443e-03
5.642744673752720166e-03
5.537080519629592607e-03
5.457202045906718937e-03
5.483337770752604555e-03
5.818489235731203260e-03
5.884493870688381825e-03
5.501410156234522696e-03
5.571343553369237887e-03
5.412165112975521331e-03
5.352602726192550245e-03
5.861891965705663156e-03
5.710564692446667284e-03
5.433340219315488558e-03
5.865134545411455728e-03
5.608719241123730215e-03
5.501091103238106919e-03
5.389011321800995548e-03
5.858355364558592501e-03
5.818482083858306404e-03
5.883373410601341891e-03
5.836662542086209528e-03
5.568181233570390631e-03
5.837962593648193463e-03
5.472899214934622003e-03
5.887344289363709293e-03
5.502885031356186639e-03
5.867863382247550524e-03
5.845674696587712348e-03
5.609202389870483751e-03
5.774902146366533637e-03
5.887304954062781356e-03
5.495751435468699403e-03
5.530152341424728751e-03
5.786406331246021079e-03
5.601189113616788194e-03
5.531737275923737096e-03
5.462307688501918251e-03
5.880484848603902484e-03
5.720505398445834347e-03
5.806741092520707921e-03
5.847634707087489246e-03
5.463023273117789680e-03
5.509495745869722426e-03
5.880840058291070781e-03
5.744474503130504554e-03
5.546236903567832062e-03
5.869989077802751157e-03
5.710938576468618973e-03
5.839282511523777655e-03
5.583082558075477819e-03
5.776810504450950040e-03
5.687900407239245004e-03
5.561054789555799384e-03
5.496920766687196126e-03
5.472877759315933170e-03
5.746278364405384836e-03
5.625616732819345954e-03
5.498583577135515189e-03
5.534847943307224724e-03
5.885775247915581501e-03
5.205396918353009245e-03
5.383449548645540678e-03
5.861951564646463927e-03
5.707017363490251780e-03
5.877568076441149966e-03
5.885855507822525950e-03
5.823882542547330690e-03
5.776380994750918152e-03
5.780005802330373532e-03
5.756966441122184433e-03
5.517889263365722240e-03
5.836219523292929950e-03
5.750529358189511789e-03
5.465851044195614052e-03
5.483195925273499916e-03
5.871854127323519051e-03
5.870800418050175010e-03
5.788564607555524502e-03
5.520617702875545325e-03
5.561599126548438798e-03
5.878953950477886631e-03
