2.049834524306059017e-03
2.076637128588046995e-03
2.188427384271370967e-03
2.214439023709361201e-03
2.207422100782732970e-03
2.216422520164309639e-03
2.078383487698420330e-03
2.149101220662291006e-03
2.208493097603230794e-03
2.252766898420141897e-03
2.030821250542587907e-03
2.153268996955664573e-03
2.253285284610208068e-03
2.241540065111334492e-03
2.242850024579894335e-03
2.253793327413853003e-03
2.149990751894541047e-03
2.170610596943070396e-03
2.192848877749319254e-03
2.155758102476276403e-03
2.171263295047993081e-03
2.087783192217592277e-03
2.047864413410008851e-03
2.204985320628724110e-03
2.155254318714099060e-03
2.251174625345724305e-03
2.141890055023011781e-03
2.223141005970952558e-03
2.192439249225302741e-03
1.987952020758268663e-03
2.248560182319063634e-03
2.224863940353253699e-03
2.176527013976174967e-03
2.221832415480007577e-03
2.249587828181765295e-03
2.246997266209048872e-03
2.171836440342643764e-03
2.253548128312213468e-03
2.233533371369342182e-03
2.236537060364424210e-03
2.246634639249800620e-03
2.146039274064275807e-03
2.036271150426357656e-03
2.227577101876790106e-03
2.091109047277979558e-03
2.171160621726897066e-03
2.221456250853237179e-03
2.246325098200274272e-03
2.245130893394461404e-03
2.237075220675590476e-03
2.251621216265335592e-03
2.245205274511521704e-03
2.186290105997714533e-03
2.232270261356927160e-03
2.090585793611949867e-03
2.044474976944854125e-03
2.252952623049857273e-03
1.964584333419965370e-03
2.057121896365885026e-03
2.042795545628973020e-03
2.223368864689473541e-03
2.192318474977969240e-03
2.005008569184588314e-03
2.155627897494264474e-03
2.141874387834755405e-03
2.023971190776318631e-03
2.230919080451305384e-03
2.233460359229895876e-03
2.079677779978723797e-03
2.006959666502657318e-03
2.016436337985495417e-03
2.230159754201067272e-03
2.212963417949433825e-03
2.061678158084560581e-03
2.080885370343435372e-03
2.213581891613990594e-03
2.176790009786804241e-03
2.133464606239571845e-03
2.081354625447999051e-03
2.140714255360683712e-03
2.133805785882857825e-03
2.030326897515089424e-03
2.180211693280214528e-03
2.028334882977205367e-03
2.105113079840962437e-03
2.226788570770773905e-03
1.930306807144949524e-03
2.093216664369986282e-03
2.224771001984083858e-03
2.245424615147107502e-03
2.046164751647156464e-03
2.169687601813574673e-03
2.253177591704525525e-03
2.160798678053276953e-03
2.165056198434719449e-03
2.231501656480634494e-03
2.078286138179159023e-03
2.024112956013742783e-03
2.238205235642140405e-03
2.229359510731014540e-03
2.052788473781143493e-03
2.015577076369391013e-03
2.250976884134725086e-03
2.203993116075378053e-03
1.997665221151186804e-03
2.062203541271324068e-03
2.076212137093022287e-03
2.044618415377140886e-03
2.180576449760196576e-03
2.217602426759481427e-03
2.062714930464693355e-03
2.149145484271829977e-03
2.160517581316409759e-03
2.247442944476916917e-03
2.168986228949021985e-03
2.220822262109047908e-03
2.232696621829566731e-03
2.190498495293654972e-03
2.241932961686727947e-03
2.238118077400676892e-03
2.197299423974422190e-03
2.198019354091083986e-03
2.205466288097324319e-03
2.192528536987500051e-03
2.246220751684316081e-03
2.117384138852470687e-03
2.225390540409007741e-03
2.107267394280489675e-03
2.173054526202400447e-03
2.244851774069704566e-03
2.166343037392454412e-03
2.215644636661962853e-03
2.193820547638445848e-03
2.252941975446188291e-03
2.252628023246570910e-03
2.178839977710373722e-03
2.140938919798104217e-03
2.181631475175190710e-03
2.110391096979785837e-03
2.221324981110858569e-03
2.153537316568128555e-03
2.138666264849224587e-03
2.008360586928277080e-03
2.034401431222045403e-03
2.188033727152858144e-03
2.201770200646496409e-03
2.111982457402460187e-03
2.067842968500405165e-03
2.156273446493865535e-03
2.232384647042058839e-03
2.251456938951582054e-03
2.137667975950925323e-03
2.190164464755689749e-03
2.192769477047671993e-03
2.253214554100119865e-03
2.192058521339817004e-03
2.211343004779604826e-03
2.253640458246887815e-03
2.234731226782127583e-03
2.238264101679568636e-03
2.211560824328951888e-03
2.218231548027707178e-03
2.226634180517570415e-03
2.253214554100119865e-03
2.182019656383244952e-03
2.030248105247937224e-03
2.143955538026212897e-03
2.102644508984569637e-03
2.025372415419185706e-03
2.145984971285562915e-03
2.145972346269783577e-03
2.180439856215982825e-03
2.109989986538704509e-03
2.012103067509377757e-03
2.036865134602475116e-03
2.179436243515848852e-03
2.189356463745820765e-03
2.049196732846274207e-03
2.226621555501791076e-03
2.045611380473605877e-03
2.180085595231046319e-03
2.065780223452432906e-03
2.229641824336872722e-03
1.911631670852287791e-03
2.071172930493636599e-03
1.920858732083394671e-03
2.167977444555676744e-03
2.182889261385771024e-03
2.253540674989645397e-03
2.188973302122353484e-03
1.940071724469975356e-03
2.234102561839773019e-03
2.247520063549206509e-03
2.232543296336730355e-03
2.047201828244536986e-03
2.247714002044609756e-03
2.166159442283472399e-03
2.250485269062455461e-03
2.174755709051491136e-03
2.239941859800587565e-03
2.170080650497592002e-03
2.162898537605467426e-03
2.234594176912042211e-03
2.245563338212054616e-03
2.159477614655176507e-03
2.253412599528366832e-03
2.249455797896267751e-03
2.229940717782729221e-03
2.237832265296470485e-03
2.081120226058653239e-03
2.087195444495052333e-03
2.252790018930966344e-03
2.243046396813279126e-03
2.192928886885462444e-03
2.127785934985538304e-03
2.111493123959548666e-03
2.248665897812636687e-03
2.181392056201257503e-03
2.098542443616697312e-03
2.163457841015348215e-03
2.043499352231507252e-03
2.234074573852985052e-03
2.132401823284761459e-03
2.149645617427034788e-03
2.041903580658741869e-03
2.251227407038198895e-03
2.180249112001680489e-03
2.154066046144616393e-03
2.193840321759545943e-03
2.248683390304378679e-03
2.210831007151740045e-03
2.234907672785788404e-03
2.159202602263263389e-03
2.093855520590138207e-03
2.223045481755177733e-03
2.226788266553526158e-03
2.252088950283661403e-03
2.107030104827290265e-03
2.253644869396979281e-03
2.042832964350439415e-03
2.250943876563350592e-03
2.249849607123404014e-03
2.241161923072454171e-03
1.773639639951166309e-03
2.041242972905379493e-03
2.253716360450186851e-03
2.165817958422938672e-03
2.253550866267442759e-03
2.035461172004378750e-03
2.037308074915113870e-03
2.209674221067393137e-03
2.037377740664835391e-03
2.039254000539972474e-03
2.176384031869760260e-03
2.243593531533252198e-03
2.008886122223664007e-03
2.173669957694480612e-03
1.471553281971121809e-03
2.057201297067532721e-03
2.071837949397090008e-03
2.253787851503394422e-03
2.197002203723427433e-03
2.008486532868821416e-03
2.045258488466283799e-03
1.974869918564415260e-03
2.021015415997748105e-03
2.147240780084033740e-03
1.915852989381254881e-03
2.164554392084652029e-03
2.253194019435900836e-03
2.160783162973644450e-03
2.051340095464884283e-03
2.075961005755052550e-03
2.241840175426182413e-03
2.122025277183252085e-03
2.128653562575954453e-03
2.238958173330177128e-03
2.200941056537913335e-03
2.063241834737695145e-03
2.042639177963659607e-03
1.958231668853671614e-03
1.932290151491274305e-03
2.169728975359260480e-03
2.235142376392382398e-03
2.150055854385546795e-03
2.160739964124472161e-03
2.017106984908031281e-03
2.189974328975882473e-03
2.226556148793537582e-03
2.219113473828764841e-03
2.179693763416019545e-03
2.216048180841025290e-03
2.235582882967039609e-03
2.252261441463102379e-03
2.025954687231267069e-03
2.211669581995001545e-03
2.007736333136013983e-03
2.235563565171811134e-03
2.150198836491961935e-03
2.189122824899593887e-03
2.232899382625152911e-03
2.187704564090856008e-03
2.253711949300095385e-03
2.212747271594948939e-03
2.248339929031735029e-03
2.212487926391291763e-03
2.248180062868072957e-03
2.040395423653311186e-03
2.229096362811761826e-03
2.209568353465196644e-03
2.030695304602044005e-03
2.132435895616502635e-03
2.068329107662216209e-03
2.243226645532536354e-03
2.082251001568322536e-03
2.200360001594822527e-03
2.163206557568755038e-03
2.192777538804735558e-03
2.071102352092171837e-03
2.167585460632026530e-03
2.172147198261160667e-03
2.189260787421422067e-03
1.147569062284995063e-03
2.020730364436661066e-03
2.015593960426637944e-03
1.906103282918613804e-03
2.233685936319059623e-03
2.020301113900168331e-03
2.125066841225671695e-03
2.071519890264628475e-03
2.204983191107990313e-03
2.045870269351391432e-03
1.889666881351713531e-03
2.096765510672931460e-03
2.253457471572401297e-03
2.092889174502846322e-03
2.047199546615179316e-03
1.885216487235234686e-03
2.046730291510615203e-03
2.148227204509673034e-03
2.253240868892045223e-03
2.024432079906571431e-03
1.981400093894736952e-03
2.236037687752338333e-03
2.060787105766072238e-03
2.045334390669582836e-03
2.216410807800273542e-03
2.146722698111214883e-03
2.249845804407808042e-03
2.227769367177331178e-03
2.158299533363491202e-03
2.008451395776712691e-03
2.215185877052443849e-03
2.146209179397111800e-03
2.174182259539592706e-03
2.175940483122625578e-03
2.174064527464736243e-03
2.151399125642728880e-03
2.166262876147687349e-03
2.224148117169435623e-03
2.193561658760660293e-03
2.029686520208698764e-03
2.243573757412152102e-03
2.246506411679898615e-03
2.173700379419249689e-03
2.027544070241831496e-03
2.054023291589523233e-03
2.253805496103760721e-03
2.214803780189343249e-03
2.222350649561450307e-03
2.193296077103426035e-03
2.178265615546732051e-03
2.168305847074559947e-03
2.101207690923722650e-03
2.034028917202247103e-03
2.024068844512827686e-03
2.003562928823557961e-03
2.252276348108238953e-03
2.198351559325563160e-03
2.160859217285567360e-03
2.177616568048782331e-03
1.914948551503868049e-03
1.937183790137639869e-03
1.703818283107618684e-03
1.731130451279489901e-03
1.931170175693898081e-03
2.231861849701901202e-03
2.237529112809146393e-03
2.188240290664040730e-03
2.124957018799254922e-03
2.240536756628448267e-03
2.211386355737400989e-03
2.137424754261395710e-03
1.891489751099880963e-03
2.220547706043006411e-03
2.031707435385113163e-03
1.432339526635063387e-03
2.241438608659229465e-03
2.123766464600414586e-03
1.988113408008169037e-03
2.186333000629639076e-03
2.071487339019125601e-03
2.247153329657114104e-03
2.248944256594274157e-03
2.170960750995163616e-03
2.029942671131255028e-03
2.253741610481745095e-03
2.046360363337422321e-03
2.253709515562113842e-03
2.198973835705715901e-03
2.168025206663564373e-03
2.204699660633141576e-03
2.214908430922549187e-03
2.246867365444284257e-03
2.096339454417539203e-03
2.252331867755943268e-03
2.046752043043824788e-03
2.253585394925055989e-03
2.176594093879291071e-03
2.166470808636484797e-03
2.241372897733728223e-03
2.219689509187268688e-03
2.248612811902914350e-03
2.082597809230690537e-03
2.231499222742652951e-03
1.934299506412276697e-03
2.200872607657182803e-03
2.253855083515134399e-03
2.053166615820024247e-03
2.002808317940659496e-03
2.032874869073129486e-03
2.135975463293393259e-03
2.049165550578385762e-03
2.248878089342901294e-03
2.252991867074809716e-03
2.194564815134923078e-03
2.205321480687423129e-03
1.919192230000540435e-03
2.237126481281826330e-03
2.055895140314569283e-03
1.963787132122390110e-03
2.069645912018848628e-03
2.249038716049682300e-03
2.231921780499696115e-03
2.166619722979229706e-03
2.249828007698817869e-03
2.025354770818819407e-03
1.253467694640901520e-03
2.063373256588697628e-03
2.251715827829367609e-03
2.217414268391784075e-03
2.215257520214275293e-03
2.075641425536352714e-03
2.241199189685296259e-03
2.195879337862198261e-03
2.224760506489038316e-03
1.875081185411144784e-03
2.142782932644986173e-03
2.249430547864709074e-03
1.929509453738750173e-03
2.048991081986834429e-03
2.240255051457086012e-03
2.198501690537299057e-03
2.062488744941034981e-03
2.020813719962528607e-03
2.200284859934642425e-03
2.185824045174250899e-03
