1.999999999999954881e+01,2.999999999295351660e+00,1.000000000002437339e+01,6.599999999999482947e-01,1.570000000000272511e+00,2.869999999999977717e+03,-2.174999999999768452e+00,-4.944999999999679652e+00,1.340930602410898409e+01,-2.230428133928283874e+00
2.000000000000076383e+01,3.000000001730699584e+00,1.000000000005266898e+01,6.600000000000434408e-01,1.569999999999730944e+00,2.869999999999983629e+03,-2.175000000000258726e+00,-4.945000000000328910e+00,1.340672504313174862e+01,-2.214251657982789556e+00
1.999999999999949551e+01,2.999999999561027586e+00,9.999999999981429966e+00,6.599999999999602851e-01,1.570000000000379536e+00,2.869999999999980901e+03,-2.174999999999615685e+00,-4.944999999999657447e+00,1.340485335892480911e+01,-2.208469416892052006e+00
1.999999999999889511e+01,3.000000001910808844e+00,1.000000000001198508e+01,6.599999999998994449e-01,1.570000000000496554e+00,2.869999999999983629e+03,-2.174999999999541966e+00,-4.944999999999324380e+00,1.343293192798644498e+01,-2.211879265976062214e+00
1.999999999999954525e+01,2.999999997050941225e+00,9.999999999998689049e+00,6.599999999999767164e-01,1.570000000000264073e+00,2.869999999999971806e+03,-2.174999999999734257e+00,-4.944999999999816431e+00,1.340641064214795009e+01,-2.208284589462409464e+00
2.000000000000060041e+01,2.999999997642794902e+00,1.000000000000761347e+01,6.600000000000229017e-01,1.569999999999712292e+00,2.869999999999980446e+03,-2.175000000000306688e+00,-4.945000000000226770e+00,1.338788095534566480e+01,-2.239629390181238744e+00
2.000000000000259703e+01,3.000000000504565278e+00,9.999999999996374456e+00,6.600000000001988720e-01,1.569999999998880069e+00,2.869999999999967258e+03,-2.175000000001042100e+00,-4.945000000001425811e+00,1.341231046647062364e+01,-2.220683047973526225e+00
2.000000000000196465e+01,2.999999999432596542e+00,1.000000000001288569e+01,6.600000000001206013e-01,1.569999999999170281e+00,2.869999999999974079e+03,-2.175000000000809397e+00,-4.945000000000947082e+00,1.341313574376512463e+01,-2.216105994960806402e+00
1.999999999999931788e+01,3.000000000678668233e+00,1.000000000007046275e+01,6.599999999999308642e-01,1.570000000000451701e+00,2.869999999999991360e+03,-2.174999999999553513e+00,-4.944999999999530438e+00,1.343378131210964455e+01,-2.215460438604412552e+00
1.999999999999937472e+01,3.000000000374254405e+00,1.000000000002525447e+01,6.599999999999471845e-01,1.570000000000246310e+00,2.869999999999977717e+03,-2.174999999999764899e+00,-4.944999999999680540e+00,1.342375397011811877e+01,-2.231567570246595356e+00
1.999999999999874944e+01,3.000000000508266318e+00,9.999999999985714538e+00,6.599999999998803490e-01,1.570000000000604912e+00,2.869999999999971351e+03,-2.174999999999471800e+00,-4.944999999999251550e+00,1.343489482336888585e+01,-2.196461559562727039e+00
1.999999999999994316e+01,3.000000000769956543e+00,9.999999999994871658e+00,6.599999999999730527e-01,1.570000000000139728e+00,2.869999999999965439e+03,-2.174999999999891909e+00,-4.944999999999867057e+00,1.341691558224847114e+01,-2.227999596246511338e+00
1.999999999999892353e+01,3.000000000629128749e+00,9.999999999972882136e+00,6.599999999999669464e-01,1.570000000000510099e+00,2.869999999999980446e+03,-2.174999999999451372e+00,-4.944999999999601492e+00,1.331120493917046765e+01,-2.314370418031565180e+00
2.000000000000067857e+01,3.000000002119228792e+00,9.999999999962611241e+00,6.600000000000733058e-01,1.569999999999652340e+00,2.869999999999981810e+03,-2.175000000000312017e+00,-4.945000000000449702e+00,1.334671391284859254e+01,-2.299833546217945557e+00
2.000000000000182609e+01,3.000000004497389572e+00,9.999999999989418242e+00,6.600000000001531308e-01,1.569999999999089013e+00,2.869999999999980446e+03,-2.175000000000850253e+00,-4.945000000001099849e+00,1.335732773990729427e+01,-2.258513048057016803e+00
2.000000000000048317e+01,3.000000003237674573e+00,1.000000000002088996e+01,6.600000000000306732e-01,1.569999999999724283e+00,2.869999999999991360e+03,-2.175000000000289813e+00,-4.945000000000234763e+00,1.332034661406114395e+01,-2.309139976895009383e+00
2.000000000000213518e+01,3.000000003519132541e+00,9.999999999997687183e+00,6.600000000001381428e-01,1.569999999998922924e+00,2.869999999999985448e+03,-2.175000000001080291e+00,-4.945000000001058993e+00,1.333006762210500185e+01,-2.290755648873005423e+00
1.999999999999981171e+01,3.000000003290891559e+00,1.000000000002546230e+01,6.599999999999837108e-01,1.570000000000075779e+00,2.869999999999993179e+03,-2.174999999999916334e+00,-4.944999999999937224e+00,1.340445132441151088e+01,-2.171970249500577044e+00
2.000000000000056843e+01,3.000000000988948923e+00,1.000000000000919442e+01,6.600000000000328937e-01,1.569999999999765139e+00,2.870000000000000909e+03,-2.175000000000216094e+00,-4.945000000000396412e+00,1.342374546001524926e+01,-2.167793781174588652e+00
1.999999999999975131e+01,3.000000000649273524e+00,1.000000000002401634e+01,6.599999999999890399e-01,1.570000000000189022e+00,2.870000000000000909e+03,-2.174999999999770228e+00,-4.944999999999949658e+00,1.342651091621162429e+01,-2.188024596275410349e+00
2.000000000000208544e+01,3.000000002922682540e+00,1.000000000001750067e+01,6.600000000001401412e-01,1.569999999998946016e+00,2.870000000000000000e+03,-2.175000000001015010e+00,-4.945000000001185114e+00,1.343291152772759212e+01,-2.181608421253129038e+00
2.000000000000030553e+01,3.000000000896332342e+00,1.000000000000380140e+01,6.600000000000310063e-01,1.569999999999822649e+00,2.870000000000005002e+03,-2.175000000000148592e+00,-4.945000000000259632e+00,1.342452006796472297e+01,-2.211087831982472274e+00
1.999999999999944222e+01,2.999999999833668607e+00,1.000000000002376233e+01,6.599999999999549560e-01,1.570000000000204787e+00,2.869999999999999091e+03,-2.174999999999807976e+00,-4.944999999999739160e+00,1.341421167507623657e+01,-2.197453530815038913e+00
1.999999999999889155e+01,3.000000002598379290e+00,1.000000000004513012e+01,6.599999999998986677e-01,1.570000000000403295e+00,2.870000000000003638e+03,-2.174999999999628120e+00,-4.944999999999369678e+00,1.341195751937009284e+01,-2.156956096375253651e+00
1.999999999999903721e+01,3.000000003394968306e+00,1.000000000001516831e+01,6.599999999999118794e-01,1.570000000000536966e+00,2.869999999999999545e+03,-2.174999999999484679e+00,-4.944999999999435403e+00,1.341443771906978810e+01,-2.184732505030102967e+00
1.999999999999718270e+01,3.000000001225767488e+00,1.000000000001866418e+01,6.599999999997863132e-01,1.570000000001339435e+00,2.869999999999993634e+03,-2.174999999998718625e+00,-4.944999999998475282e+00,1.341546488776253199e+01,-2.201326496984151948e+00
1.999999999999993605e+01,2.999999999702123166e+00,1.000000000003665157e+01,6.600000000000015854e-01,1.570000000000123741e+00,2.869999999999994998e+03,-2.174999999999835953e+00,-4.944999999999975415e+00,1.340449915594359531e+01,-2.193124114489470866e+00
1.999999999999926104e+01,2.999999998663019252e+00,1.000000000003370637e+01,6.599999999999370814e-01,1.570000000000459250e+00,2.869999999999996817e+03,-2.174999999999532641e+00,-4.944999999999545537e+00,1.339895387684992301e+01,-2.214922058916978020e+00
1.999999999999660361e+01,3.000000000262661004e+00,1.000000000004377476e+01,6.599999999997507860e-01,1.570000000001593010e+00,2.870000000000002728e+03,-2.174999999998460609e+00,-4.944999999998219486e+00,1.341052478727107555e+01,-2.221805292332053483e+00
1.999999999999919353e+01,3.000000001196494903e+00,1.000000000002829204e+01,6.599999999999461853e-01,1.570000000000411511e+00,2.869999999999993634e+03,-2.174999999999580158e+00,-4.944999999999607709e+00,1.344225919067512720e+01,-2.193717411411845841e+00
1.999999999999862510e+01,3.000000002219896267e+00,1.000000000003957901e+01,6.599999999998870104e-01,1.570000000000793872e+00,2.870000000000003183e+03,-2.174999999999219114e+00,-4.944999999999212470e+00,1.343433579833800273e+01,-2.192018136184784360e+00
1.999999999999837286e+01,3.000000004477050286e+00,1.000000000002556355e+01,6.599999999998810152e-01,1.570000000000728368e+00,2.869999999999993634e+03,-2.174999999999306155e+00,-4.944999999999191154e+00,1.337491351830363762e+01,-2.182300005644074226e+00
2.000000000000129319e+01,3.000000002583974812e+00,1.000000000005180389e+01,6.600000000000899592e-01,1.569999999999463380e+00,2.869999999999988177e+03,-2.175000000000492317e+00,-4.945000000000730367e+00,1.338020987701846387e+01,-2.238135979965550693e+00
2.000000000000209255e+01,3.000000006168186406e+00,9.999999999997990940e+00,6.600000000001668976e-01,1.569999999999037721e+00,2.869999999999988631e+03,-2.175000000000888445e+00,-4.945000000001218865e+00,1.344077899591094649e+01,-2.124886859689221641e+00
1.999999999999891287e+01,3.000000004731692815e+00,1.000000000002381917e+01,6.599999999999301981e-01,1.570000000000496998e+00,2.870000000000001364e+03,-2.174999999999506439e+00,-4.944999999999444285e+00,1.343598931819510689e+01,-2.139589919218092273e+00
2.000000000000074962e+01,3.000000005380740742e+00,1.000000000004561862e+01,6.600000000000572076e-01,1.569999999999657669e+00,2.870000000000001819e+03,-2.175000000000313793e+00,-4.945000000000391971e+00,1.341899035972020471e+01,-2.191218516697919227e+00
2.000000000000214584e+01,3.000000006247782292e+00,1.000000000003752731e+01,6.600000000001542411e-01,1.569999999999031060e+00,2.869999999999990905e+03,-2.175000000000918643e+00,-4.945000000001152252e+00,1.341156983820459025e+01,-2.163900903956762711e+00
2.000000000000110489e+01,3.000000006880937153e+00,1.000000000002169998e+01,6.600000000000766365e-01,1.569999999999486473e+00,2.870000000000003638e+03,-2.175000000000479439e+00,-4.945000000000555396e+00,1.343041614497286318e+01,-2.170806260451213721e+00
2.000000000000119726e+01,3.000000005937484282e+00,1.000000000001962519e+01,6.600000000000647571e-01,1.569999999999441842e+00,2.870000000000005457e+03,-2.175000000000536282e+00,-4.945000000000532303e+00,1.344507499030108555e+01,-2.132632506186094012e+00
2.000000000000255440e+01,3.000000006896673455e+00,1.000000000002802381e+01,6.600000000001788880e-01,1.569999999998920925e+00,2.869999999999991815e+03,-2.175000000001003464e+00,-4.945000000001327223e+00,1.341361285064448694e+01,-2.176324041011140853e+00
2.000000000000152411e+01,3.000000008454072997e+00,1.000000000001957368e+01,6.600000000001041700e-01,1.569999999999344142e+00,2.869999999999996362e+03,-2.175000000000607780e+00,-4.945000000000792539e+00,1.345032231176604220e+01,-2.146719524236909038e+00
2.000000000000110489e+01,3.000000009170250781e+00,1.000000000002366818e+01,6.600000000000970646e-01,1.569999999999541540e+00,2.869999999999996362e+03,-2.175000000000379075e+00,-4.945000000000633555e+00,1.343107099628678824e+01,-2.158633838357777446e+00
1.999999999999998579e+01,3.000000004889757932e+00,1.000000000006499867e+01,6.599999999999848210e-01,1.570000000000240536e+00,2.870000000000002274e+03,-2.174999999999712941e+00,-4.944999999999883045e+00,1.341213168902163844e+01,-2.208410946592484603e+00
2.000000000000064659e+01,3.000000004715759339e+00,1.000000000002959055e+01,6.600000000000392220e-01,1.569999999999762696e+00,2.869999999999993634e+03,-2.175000000000187228e+00,-4.945000000000302265e+00,1.342116084005231968e+01,-2.157352714017337636e+00
1.999999999999875300e+01,3.000000004187104441e+00,1.000000000003975842e+01,6.599999999998945599e-01,1.570000000000586926e+00,2.870000000000003183e+03,-2.174999999999438938e+00,-4.944999999999225793e+00,1.342844638393197521e+01,-2.176116092127509560e+00
2.000000000000017764e+01,3.000000006411700948e+00,1.000000000006932233e+01,6.599999999999843769e-01,1.569999999999950546e+00,2.870000000000000455e+03,-2.175000000000061551e+00,-4.944999999999993179e+00,1.341899218741591504e+01,-2.188477640145486181e+00
1.999999999999964118e+01,3.000000006011414033e+00,1.000000000004727418e+01,6.599999999999406342e-01,1.570000000000216778e+00,2.869999999999988631e+03,-2.174999999999817302e+00,-4.944999999999662776e+00,1.341204317248894462e+01,-2.214981936569517806e+00
2.000000000000037659e+01,3.000000005000431624e+00,1.000000000007292300e+01,6.600000000000082467e-01,1.569999999999854623e+00,2.869999999999997272e+03,-2.175000000000145928e+00,-4.945000000000121076e+00,1.340233275266152368e+01,-2.203007647535958569e+00
2.000000000000052935e+01,3.000000001305813235e+00,1.000000000005115730e+01,6.600000000000333378e-01,1.569999999999819096e+00,2.869999999999994543e+03,-2.175000000000161471e+00,-4.945000000000264073e+00,1.340417219065021470e+01,-2.192905481175087434e+00
2.000000000000075673e+01,3.000000005319653607e+00,9.999999999996949995e+00,6.600000000000622036e-01,1.569999999999673879e+00,2.869999999999983174e+03,-2.175000000000295142e+00,-4.945000000000430163e+00,1.340211527425054250e+01,-2.174096745685185628e+00
2.000000000000134648e+01,3.000000007221860443e+00,1.000000000007545253e+01,6.600000000000761924e-01,1.569999999999456053e+00,2.870000000000002728e+03,-2.175000000000506528e+00,-4.945000000000614904e+00,1.343342750032319621e+01,-2.184186062088488978e+00
2.000000000000268230e+01,3.000000007580870598e+00,1.000000000006002843e+01,6.600000000001688960e-01,1.569999999998792584e+00,2.869999999999998181e+03,-2.175000000001170442e+00,-4.945000000001349427e+00,1.340686721639410095e+01,-2.196772150121748535e+00
1.999999999999851497e+01,3.000000004568935896e+00,1.000000000004001066e+01,6.599999999998931166e-01,1.570000000000904228e+00,2.870000000000000909e+03,-2.174999999999096989e+00,-4.944999999999114770e+00,1.340413456232122513e+01,-2.177161306388168516e+00
1.999999999999947420e+01,3.000000003555764572e+00,9.999999999982998489e+00,6.599999999999401901e-01,1.570000000000269180e+00,2.869999999999993179e+03,-2.174999999999793765e+00,-4.944999999999644125e+00,1.339562534050276099e+01,-2.231851742643773395e+00
2.000000000000089173e+01,3.000000005050327712e+00,1.000000000004096812e+01,6.600000000000227907e-01,1.569999999999617035e+00,2.869999999999997726e+03,-2.175000000000420819e+00,-4.945000000000331575e+00,1.342094707634561779e+01,-2.208850413962385684e+00
1.999999999999992895e+01,3.000000002016809386e+00,1.000000000000923706e+01,6.599999999999839329e-01,1.569999999999912355e+00,2.869999999999999545e+03,-2.175000000000137490e+00,-4.944999999999927454e+00,1.340446661892826441e+01,-2.196036539862774806e+00
2.000000000000064304e+01,3.000000002287732226e+00,1.000000000000591527e+01,6.600000000000361133e-01,1.569999999999701412e+00,2.869999999999984539e+03,-2.175000000000307576e+00,-4.945000000000312035e+00,1.340566283315421536e+01,-2.185512291374945182e+00
2.000000000000119016e+01,3.000000001965421603e+00,9.999999999988245847e+00,6.600000000000562084e-01,1.569999999999667439e+00,2.869999999999995453e+03,-2.175000000000320899e+00,-4.945000000000500329e+00,1.342189612068442450e+01,-2.178391013825395017e+00
1.999999999999921840e+01,3.000000002882370342e+00,9.999999999986526333e+00,6.599999999999179856e-01,1.570000000000366214e+00,2.869999999999995453e+03,-2.174999999999680966e+00,-4.944999999999465601e+00,1.341824800836182341e+01,-2.145264978604541906e+00
2.000000000000144595e+01,3.000000003198273646e+00,1.000000000001146994e+01,6.600000000000850742e-01,1.569999999999488693e+00,2.869999999999994543e+03,-2.175000000000482103e+00,-4.945000000000707274e+00,1.342929426621013889e+01,-2.184687873860822638e+00
2.000000000000141753e+01,3.000000003936226012e+00,9.999999999944009232e+00,6.600000000000889600e-01,1.569999999999502460e+00,2.869999999999999545e+03,-2.175000000000457678e+00,-4.945000000000695728e+00,1.344893900576182411e+01,-2.130859865354778115e+00
1.999999999999995381e+01,3.000000002440465163e+00,1.000000000001387335e+01,6.599999999999472955e-01,1.570000000000119300e+00,2.870000000000000455e+03,-2.174999999999948752e+00,-4.944999999999778240e+00,1.342177071071268912e+01,-2.193967784152564882e+00
2.000000000000130385e+01,3.000000003367478740e+00,9.999999999944026996e+00,6.600000000000855183e-01,1.569999999999464713e+00,2.869999999999990905e+03,-2.175000000000526956e+00,-4.945000000000639773e+00,1.342463907380514954e+01,-2.156901509072987722e+00
2.000000000000009592e+01,3.000000000021510793e+00,1.000000000002325784e+01,6.599999999999691669e-01,1.569999999999924345e+00,2.870000000000002728e+03,-2.175000000000145484e+00,-4.944999999999903473e+00,1.343490675165126902e+01,-2.157086230633195267e+00
2.000000000000124700e+01,3.000000001691408791e+00,1.000000000000751044e+01,6.600000000000717515e-01,1.569999999999547979e+00,2.870000000000002728e+03,-2.175000000000435474e+00,-4.945000000000533191e+00,1.340030153310253169e+01,-2.172887423559695996e+00
2.000000000000025224e+01,3.000000001857193510e+00,9.999999999983218757e+00,6.599999999999766054e-01,1.569999999999910356e+00,2.869999999999985448e+03,-2.175000000000163247e+00,-4.945000000000009166e+00,1.339209874098323638e+01,-2.211158460387400826e+00
2.000000000000031619e+01,3.000000002297720680e+00,9.999999999957081442e+00,6.599999999999974776e-01,1.569999999999954099e+00,2.869999999999996817e+03,-2.175000000000064659e+00,-4.945000000000042917e+00,1.343918184224698287e+01,-2.185789477582635865e+00
1.999999999999944222e+01,3.000000003026538575e+00,9.999999999945613283e+00,6.599999999999394129e-01,1.570000000000379980e+00,2.869999999999987722e+03,-2.174999999999657430e+00,-4.944999999999587281e+00,1.341635076914408309e+01,-2.210496883924765399e+00
2.000000000000011013e+01,2.999999999857256405e+00,1.000000000001523048e+01,6.599999999999741629e-01,1.570000000000092655e+00,2.869999999999988631e+03,-2.174999999999945199e+00,-4.944999999999901696e+00,1.340742687050209980e+01,-2.231711774220653588e+00
1.999999999999953459e+01,3.000000003738246157e+00,1.000000000000316014e+01,6.599999999999437428e-01,1.570000000000294049e+00,2.870000000000000455e+03,-2.174999999999738254e+00,-4.944999999999671658e+00,1.342034107000957555e+01,-2.186977060708614751e+00
2.000000000000362377e+01,3.000000004004666820e+00,9.999999999987007726e+00,6.600000000002419487e-01,1.569999999998501039e+00,2.869999999999994088e+03,-2.175000000001421352e+00,-4.945000000001911644e+00,1.343267022078631001e+01,-2.204395120811253772e+00
2.000000000000239098e+01,3.000000003775643354e+00,9.999999999942865259e+00,6.600000000001549072e-01,1.569999999998863860e+00,2.869999999999997726e+03,-2.175000000001117595e+00,-4.945000000001252616e+00,1.339426191758760964e+01,-2.183791070933458478e+00
2.000000000000051159e+01,3.000000002226617557e+00,9.999999999952079222e+00,6.600000000000252331e-01,1.569999999999744267e+00,2.869999999999985903e+03,-2.175000000000286260e+00,-4.945000000000280949e+00,1.340320229040520772e+01,-2.187212933240162638e+00
1.999999999999899458e+01,3.000000001787165083e+00,9.999999999967878139e+00,6.599999999999468514e-01,1.570000000000409290e+00,2.869999999999995453e+03,-2.174999999999596589e+00,-4.944999999999556195e+00,1.337689145366189436e+01,-2.171817335722896480e+00
1.999999999999937472e+01,2.999999999755437852e+00,9.999999999937314143e+00,6.599999999999641709e-01,1.570000000000230100e+00,2.869999999999995453e+03,-2.174999999999810196e+00,-4.944999999999774687e+00,1.339764572715627899e+01,-2.140583886431614236e+00
2.000000000000045830e+01,3.000000001480821243e+00,1.000000000000808598e+01,6.600000000000271205e-01,1.569999999999763141e+00,2.869999999999986812e+03,-2.175000000000236078e+00,-4.945000000000231211e+00,1.339682503907860678e+01,-2.224500741851807017e+00
2.000000000000195755e+01,3.000000001543158046e+00,9.999999999942215112e+00,6.600000000001364775e-01,1.569999999999056817e+00,2.869999999999974079e+03,-2.175000000000950173e+00,-4.945000000001027907e+00,1.338821955281497011e+01,-2.206712781060658823e+00
1.999999999999903011e+01,3.000000002853452141e+00,1.000000000000376765e+01,6.599999999999273115e-01,1.570000000000543627e+00,2.869999999999991815e+03,-2.174999999999479794e+00,-4.944999999999398987e+00,1.342480591460643247e+01,-2.149095791636046471e+00
1.999999999999991829e+01,3.000000002391020715e+00,1.000000000002178879e+01,6.599999999999827116e-01,1.570000000000109530e+00,2.869999999999995907e+03,-2.174999999999903899e+00,-4.944999999999846629e+00,1.341313991992408283e+01,-2.192806414260015213e+00
2.000000000000010658e+01,3.000000001187654863e+00,1.000000000001517186e+01,6.599999999999999201e-01,1.570000000000035367e+00,2.869999999999998636e+03,-2.174999999999968736e+00,-4.944999999999959428e+00,1.341946380985461929e+01,-2.193918066685213830e+00
2.000000000000133227e+01,3.000000000132917233e+00,9.999999999946467710e+00,6.600000000001019496e-01,1.569999999999353024e+00,2.869999999999985903e+03,-2.175000000000633538e+00,-4.945000000000770335e+00,1.341029277953937182e+01,-2.160413673826281133e+00
1.999999999999887379e+01,3.000000000705332237e+00,9.999999999996010303e+00,6.599999999999132116e-01,1.570000000000535412e+00,2.869999999999996817e+03,-2.174999999999509992e+00,-4.944999999999311946e+00,1.340000219726529096e+01,-2.185783982391579894e+00
1.999999999999951328e+01,3.000000002583881997e+00,1.000000000000728306e+01,6.599999999999506262e-01,1.570000000000348672e+00,2.869999999999989086e+03,-2.174999999999687628e+00,-4.944999999999615703e+00,1.340280631215316554e+01,-2.199613722047891073e+00
2.000000000000049027e+01,3.000000003033740814e+00,1.000000000004579093e+01,6.600000000000262323e-01,1.569999999999891926e+00,2.869999999999995907e+03,-2.175000000000071765e+00,-4.945000000000157492e+00,1.340424283950364881e+01,-2.251657471072306294e+00
2.000000000000187939e+01,3.000000002136610444e+00,1.000000000000026112e+01,6.600000000001526868e-01,1.569999999999054818e+00,2.869999999999982265e+03,-2.175000000000878231e+00,-4.945000000001065210e+00,1.338285930464296136e+01,-2.145581649531187463e+00
2.000000000000098765e+01,3.000000000493736607e+00,9.999999999989308108e+00,6.600000000000864064e-01,1.569999999999456275e+00,2.869999999999975444e+03,-2.175000000000522959e+00,-4.945000000000631779e+00,1.341319127140459599e+01,-2.153847624619952050e+00
1.999999999999726086e+01,3.000000003079422051e+00,9.999999999966716402e+00,6.599999999998203970e-01,1.570000000001099405e+00,2.869999999999988177e+03,-2.174999999998964206e+00,-4.944999999998659135e+00,1.341802333399154712e+01,-2.142507071927919782e+00
2.000000000000198952e+01,3.000000004768787587e+00,1.000000000001814016e+01,6.600000000001408074e-01,1.569999999999045714e+00,2.869999999999999091e+03,-2.175000000000919975e+00,-4.945000000001080309e+00,1.342393792221207427e+01,-2.142632351475039609e+00
1.999999999999998934e+01,3.000000002157832579e+00,9.999999999963451458e+00,6.600000000000014744e-01,1.569999999999996732e+00,2.869999999999977717e+03,-2.175000000000017142e+00,-4.945000000000057128e+00,1.342712055152787620e+01,-2.168019349561444375e+00
2.000000000000019895e+01,3.000000003207027088e+00,1.000000000001270273e+01,6.600000000000051381e-01,1.569999999999855289e+00,2.869999999999966803e+03,-2.175000000000189448e+00,-4.945000000000128182e+00,1.337782551422579935e+01,-2.222572581549582704e+00
2.000000000000016342e+01,3.000000002842512004e+00,9.999999999975386800e+00,6.600000000000157963e-01,1.569999999999903473e+00,2.869999999999961346e+03,-2.175000000000120615e+00,-4.945000000000219664e+00,1.338045266922618737e+01,-2.185442700649013137e+00
1.999999999999972289e+01,3.000000004242157736e+00,9.999999999978209431e+00,6.599999999999729416e-01,1.570000000000098872e+00,2.869999999999962711e+03,-2.174999999999953637e+00,-4.944999999999910578e+00,1.339939690514352399e+01,-2.199745438442105794e+00
2.000000000000316902e+01,3.000000002790305320e+00,9.999999999970730968e+00,6.600000000002521627e-01,1.569999999998629825e+00,2.869999999999968622e+03,-2.175000000001257039e+00,-4.945000000001833484e+00,1.339398187307539168e+01,-2.175984738185264611e+00
2.000000000000042988e+01,3.000000004977923851e+00,9.999999999986506793e+00,6.600000000000343370e-01,1.569999999999891704e+00,2.869999999999978172e+03,-2.175000000000096634e+00,-4.945000000000299600e+00,1.341149221031722227e+01,-2.192458532171870811e+00
2.000000000000238387e+01,3.000000006264899266e+00,9.999999999987666754e+00,6.600000000001846612e-01,1.569999999998860529e+00,2.869999999999969532e+03,-2.175000000001105604e+00,-4.945000000001367191e+00,1.341236044799297744e+01,-2.183243080055492058e+00
2.000000000000209965e+01,3.000000005146304716e+00,9.999999999992917665e+00,6.600000000001622347e-01,1.569999999999077467e+00,2.869999999999972260e+03,-2.175000000000876454e+00,-4.945000000001242846e+00,1.342886873361821820e+01,-2.145364662359737107e+00
2.000000000000042988e+01,3.000000002944999800e+00,9.999999999956610708e+00,6.600000000000204592e-01,1.569999999999677209e+00,2.869999999999975898e+03,-2.175000000000344880e+00,-4.945000000000278284e+00,1.340695997996282784e+01,-2.244740340640940079e+00
1.999999999999961631e+01,3.000000006134189157e+00,9.999999999963582908e+00,6.599999999999887068e-01,1.570000000000212781e+00,2.869999999999973170e+03,-2.174999999999763567e+00,-4.944999999999811990e+00,1.340936120963305100e+01,-2.226916966745990933e+00
2.000000000000203215e+01,3.000000004403978515e+00,9.999999999945659468e+00,6.600000000001586820e-01,1.569999999999110996e+00,2.869999999999978172e+03,-2.175000000000801847e+00,-4.945000000001122054e+00,1.343560281689925340e+01,-2.165752380879577110e+00
1.999999999999949551e+01,3.000000003064679621e+00,9.999999999984025223e+00,6.599999999999616174e-01,1.570000000000124185e+00,2.869999999999980901e+03,-2.174999999999915890e+00,-4.944999999999723173e+00,1.338543492882261532e+01,-2.178139508389258960e+00
1.999999999999968381e+01,3.000000004561373945e+00,1.000000000000130740e+01,6.599999999999792699e-01,1.570000000000240981e+00,2.869999999999981810e+03,-2.174999999999740030e+00,-4.944999999999758700e+00,1.344253097888515569e+01,-2.179111581652918961e+00
2.000000000000135714e+01,3.000000004657709773e+00,9.999999999938697925e+00,6.600000000001257083e-01,1.569999999999436735e+00,2.869999999999981810e+03,-2.175000000000490097e+00,-4.945000000000771223e+00,1.342186243616244745e+01,-2.179534038584402200e+00
2.000000000000090594e+01,3.000000003233591617e+00,9.999999999989952926e+00,6.600000000000708633e-01,1.569999999999637019e+00,2.869999999999983174e+03,-2.175000000000313793e+00,-4.945000000000437268e+00,1.341817976799184109e+01,-2.184152757142528767e+00
1.999999999999934630e+01,3.000000001960741791e+00,9.999999999941840301e+00,6.599999999999766054e-01,1.570000000000369766e+00,2.869999999999971351e+03,-2.174999999999613465e+00,-4.944999999999683205e+00,1.341357015758390148e+01,-2.203424681354078096e+00
1.999999999999968026e+01,3.000000005267398961e+00,9.999999999945407225e+00,6.599999999999882627e-01,1.570000000000168372e+00,2.869999999999975898e+03,-2.174999999999821743e+00,-4.944999999999859952e+00,1.343895514463342700e+01,-2.194918986075051759e+00
2.000000000000067502e+01,3.000000003805655791e+00,9.999999999980422771e+00,6.600000000000396660e-01,1.569999999999685425e+00,2.869999999999984539e+03,-2.175000000000316014e+00,-4.945000000000346674e+00,1.344983136290107950e+01,-2.204204369763719029e+00
2.000000000000076383e+01,3.000000004163753342e+00,9.999999999931247885e+00,6.600000000000646461e-01,1.569999999999690310e+00,2.869999999999969987e+03,-2.175000000000297362e+00,-4.945000000000418616e+00,1.341648148930259410e+01,-2.185377932812661683e+00
2.000000000000138201e+01,3.000000004353676086e+00,9.999999999969025666e+00,6.600000000001107203e-01,1.569999999999320606e+00,2.869999999999982265e+03,-2.175000000000654854e+00,-4.945000000000751683e+00,1.343331897359845151e+01,-2.185412270390136857e+00
2.000000000000038014e+01,3.000000002510801789e+00,9.999999999967204900e+00,6.600000000000403322e-01,1.569999999999771356e+00,2.869999999999973625e+03,-2.175000000000212541e+00,-4.945000000000220552e+00,1.341945774382054601e+01,-2.229085676635540469e+00
1.999999999999717915e+01,3.000000003577595109e+00,9.999999999977580600e+00,6.599999999998066302e-01,1.570000000001470442e+00,2.869999999999993179e+03,-2.174999999998558753e+00,-4.944999999998528573e+00,1.345405107132907396e+01,-2.163925881642528637e+00
2.000000000000006040e+01,3.000000002804329213e+00,9.999999999952715157e+00,6.600000000000204592e-01,1.570000000000104423e+00,2.869999999999987722e+03,-2.174999999999878142e+00,-4.945000000000106866e+00,1.341401428656610229e+01,-2.181225319880395030e+00
1.999999999999799272e+01,3.000000000646459331e+00,9.999999999984900967e+00,6.599999999998271694e-01,1.570000000000982610e+00,2.869999999999988631e+03,-2.174999999999115641e+00,-4.944999999998879403e+00,1.341805340474293828e+01,-2.223944401248084901e+00
1.999999999999899813e+01,3.000000001373095415e+00,9.999999999993585575e+00,6.599999999999102140e-01,1.570000000000577156e+00,2.870000000000004093e+03,-2.174999999999453149e+00,-4.944999999999455831e+00,1.343150530686746258e+01,-2.203739066356676268e+00
1.999999999999873523e+01,3.000000000447785364e+00,9.999999999969940490e+00,6.599999999998952260e-01,1.570000000000680629e+00,2.869999999999991815e+03,-2.174999999999358558e+00,-4.944999999999247109e+00,1.344524608007985300e+01,-2.186010070349515555e+00
1.999999999999780087e+01,3.000000001054454302e+00,9.999999999975782927e+00,6.599999999998354960e-01,1.570000000001016582e+00,2.869999999999993634e+03,-2.174999999999062794e+00,-4.944999999998815454e+00,1.339636807082919567e+01,-2.185389649865777439e+00
1.999999999999790390e+01,3.000000000347978535e+00,1.000000000001659828e+01,6.599999999998430456e-01,1.570000000001273488e+00,2.869999999999997272e+03,-2.174999999998734612e+00,-4.944999999998773710e+00,1.341494457670225060e+01,-2.225467339385727161e+00
1.999999999999834444e+01,3.000000000343466144e+00,9.999999999945632823e+00,6.599999999998777955e-01,1.570000000000835616e+00,2.869999999999999545e+03,-2.174999999999217781e+00,-4.944999999999071250e+00,1.342100006985565841e+01,-2.164288543391407416e+00
1.999999999999914024e+01,3.000000001384238502e+00,9.999999999967780440e+00,6.599999999999448530e-01,1.570000000000532303e+00,2.869999999999997726e+03,-2.174999999999456701e+00,-4.944999999999546425e+00,1.343282383074333097e+01,-2.195354640328257556e+00
2.000000000000011369e+01,3.000000004264141928e+00,9.999999999982970067e+00,6.599999999999982547e-01,1.570000000000165263e+00,2.869999999999994088e+03,-2.174999999999803979e+00,-4.944999999999945217e+00,1.339476108389977860e+01,-2.208762749273984749e+00
1.999999999999968026e+01,3.000000003227843326e+00,1.000000000002170353e+01,6.599999999999515143e-01,1.570000000000267626e+00,2.869999999999999545e+03,-2.174999999999750688e+00,-4.944999999999633467e+00,1.336297222902139836e+01,-2.218310314082050816e+00
2.000000000000044764e+01,3.000000001562619811e+00,9.999999999949697127e+00,6.600000000000124656e-01,1.569999999999927676e+00,2.869999999999992724e+03,-2.175000000000061551e+00,-4.945000000000120188e+00,1.338838689697217710e+01,-2.192439077450393459e+00
2.000000000000165912e+01,3.000000004307693757e+00,9.999999999994480859e+00,6.600000000001365885e-01,1.569999999999303508e+00,2.869999999999998181e+03,-2.175000000000633094e+00,-4.945000000001014584e+00,1.340620921743132676e+01,-2.188915901219084414e+00
1.999999999999926459e+01,3.000000001804717709e+00,1.000000000001910294e+01,6.599999999999471845e-01,1.570000000000264739e+00,2.869999999999993179e+03,-2.174999999999779554e+00,-4.944999999999668994e+00,1.339622361955649410e+01,-2.218309948348593519e+00
2.000000000000233058e+01,3.000000003137295312e+00,1.000000000008918732e+01,6.600000000001495781e-01,1.569999999999151852e+00,2.869999999999997726e+03,-2.175000000000785860e+00,-4.945000000001131824e+00,1.339680009949840134e+01,-2.163956018637620105e+00
2.000000000000186162e+01,3.000000002333733651e+00,1.000000000007098855e+01,6.600000000001019496e-01,1.569999999999230900e+00,2.869999999999997726e+03,-2.175000000000769429e+00,-4.945000000000843166e+00,1.340916982591880036e+01,-2.146506459420685964e+00
2.000000000000011724e+01,3.000000003273381122e+00,1.000000000005369394e+01,6.599999999999822675e-01,1.569999999999982965e+00,2.869999999999998181e+03,-2.175000000000052669e+00,-4.944999999999973639e+00,1.340388188581484741e+01,-2.184024732921624690e+00
2.000000000000175504e+01,3.000000002344670680e+00,1.000000000003789857e+01,6.600000000001065015e-01,1.569999999999212914e+00,2.869999999999998181e+03,-2.175000000000788525e+00,-4.945000000000837836e+00,1.341321021972586358e+01,-2.124063753503878882e+00
1.999999999999731415e+01,2.999999999770689207e+00,1.000000000000423839e+01,6.599999999998023004e-01,1.570000000001297913e+00,2.870000000000002274e+03,-2.174999999998748379e+00,-4.944999999998560547e+00,1.341815123303724810e+01,-2.177744204466588673e+00
1.999999999999926814e+01,2.999999997530764961e+00,1.000000000002695266e+01,6.599999999999396350e-01,1.570000000000363549e+00,2.869999999999994543e+03,-2.174999999999666755e+00,-4.944999999999627249e+00,1.340930607347266346e+01,-2.197223922875794155e+00
1.999999999999815969e+01,2.999999997979848843e+00,1.000000000000902212e+01,6.599999999998673594e-01,1.570000000000790097e+00,2.869999999999994543e+03,-2.174999999999249312e+00,-4.944999999998987761e+00,1.338075439089560703e+01,-2.181199323731208395e+00
1.999999999999823075e+01,3.000000001866413690e+00,1.000000000004792078e+01,6.599999999998951150e-01,1.570000000000845164e+00,2.870000000000000455e+03,-2.174999999999139177e+00,-4.944999999999138751e+00,1.342038245456530454e+01,-2.169291641142138793e+00
1.999999999999985434e+01,3.000000002365787566e+00,1.000000000000934008e+01,6.600000000000071365e-01,1.570000000000079998e+00,2.869999999999977263e+03,-2.174999999999926548e+00,-4.945000000000005613e+00,1.339444295642518767e+01,-2.176754250985279082e+00
1.999999999999975131e+01,3.000000001250080484e+00,1.000000000003648815e+01,6.599999999999982547e-01,1.570000000000089324e+00,2.869999999999997272e+03,-2.174999999999901679e+00,-4.944999999999948770e+00,1.338875635573127099e+01,-2.185719573835431806e+00
2.000000000000044764e+01,3.000000002918337128e+00,1.000000000001258194e+01,6.600000000000324496e-01,1.569999999999609486e+00,2.869999999999999545e+03,-2.175000000000411937e+00,-4.945000000000266738e+00,1.339432245308381475e+01,-2.157905834081596641e+00
1.999999999999990408e+01,3.000000000522234256e+00,1.000000000003120704e+01,6.600000000000201261e-01,1.570000000000064677e+00,2.869999999999990905e+03,-2.174999999999919886e+00,-4.945000000000050910e+00,1.339975914021587045e+01,-2.166075940138687095e+00
2.000000000000103029e+01,3.000000001082878232e+00,1.000000000001945466e+01,6.600000000000887379e-01,1.569999999999532880e+00,2.869999999999999091e+03,-2.175000000000433253e+00,-4.945000000000587370e+00,1.338754522826026161e+01,-2.168123265095737828e+00
2.000000000000167688e+01,3.000000004222421968e+00,1.000000000003288037e+01,6.600000000001285949e-01,1.569999999999205809e+00,2.869999999999995907e+03,-2.175000000000760547e+00,-4.945000000000940865e+00,1.341520799656050400e+01,-2.150723323005328425e+00
2.000000000000167333e+01,3.000000002217698469e+00,1.000000000001618616e+01,6.600000000001625677e-01,1.569999999999218909e+00,2.869999999999990450e+03,-2.175000000000704148e+00,-4.945000000001078533e+00,1.339890382085501841e+01,-2.152859871678531878e+00
2.000000000000081712e+01,3.000000001297333352e+00,9.999999999987796429e+00,6.600000000000557643e-01,1.569999999999670326e+00,2.869999999999993179e+03,-2.175000000000315126e+00,-4.945000000000363549e+00,1.341056412541311538e+01,-2.120017865488349251e+00
2.000000000000038725e+01,3.000000001265083593e+00,9.999999999990571098e+00,6.600000000000150191e-01,1.569999999999926121e+00,2.870000000000001364e+03,-2.175000000000078870e+00,-4.945000000000050022e+00,1.340130617136002122e+01,-2.174277877920841817e+00
1.999999999999948841e+01,2.999999999541086204e+00,1.000000000002339817e+01,6.599999999999497380e-01,1.570000000000248974e+00,2.869999999999997726e+03,-2.174999999999788436e+00,-4.944999999999602380e+00,1.341488522070821965e+01,-2.242632433702556494e+00
1.999999999999824141e+01,3.000000000225929053e+00,1.000000000002754952e+01,6.599999999998517053e-01,1.570000000000877138e+00,2.870000000000002728e+03,-2.174999999999171596e+00,-4.944999999998908713e+00,1.343459998779578335e+01,-2.211610171677210968e+00
1.999999999999867129e+01,3.000000000316294546e+00,9.999999999996120437e+00,6.599999999998958922e-01,1.570000000000668861e+00,2.869999999999991815e+03,-2.174999999999380318e+00,-4.944999999999213358e+00,1.343024053059838785e+01,-2.212056162959470385e+00
2.000000000000006040e+01,2.999999999786641780e+00,1.000000000003065637e+01,6.599999999999960343e-01,1.570000000000074225e+00,2.869999999999994543e+03,-2.174999999999937206e+00,-4.944999999999929230e+00,1.340549143286998302e+01,-2.209274341280655030e+00
2.000000000000068923e+01,3.000000000507637044e+00,9.999999999982506438e+00,6.600000000000443290e-01,1.569999999999752038e+00,2.870000000000002728e+03,-2.175000000000237410e+00,-4.945000000000331575e+00,1.342416073286328526e+01,-2.225985108710908822e+00
1.999999999999914380e+01,2.999999999816012508e+00,1.000000000002028955e+01,6.599999999999154321e-01,1.570000000000474794e+00,2.870000000000000000e+03,-2.174999999999583711e+00,-4.944999999999409646e+00,1.341075066901143131e+01,-2.244084452993372114e+00
2.000000000000111200e+01,2.999999997422826414e+00,1.000000000000374456e+01,6.600000000000776357e-01,1.569999999999535323e+00,2.869999999999991815e+03,-2.175000000000450129e+00,-4.945000000000579377e+00,1.339241487460495073e+01,-2.263849586918921908e+00
2.000000000000194689e+01,2.999999998561634573e+00,1.000000000000936140e+01,6.600000000001315925e-01,1.569999999999136975e+00,2.869999999999993634e+03,-2.175000000000840483e+00,-4.945000000000978169e+00,1.338748171482010818e+01,-2.218383694067826095e+00
2.000000000000267164e+01,3.000000003662806058e+00,9.999999999981069365e+00,6.600000000002028688e-01,1.569999999998724860e+00,2.869999999999996817e+03,-2.175000000001234390e+00,-4.945000000001472884e+00,1.340007591002993159e+01,-2.191625542731382215e+00
2.000000000000189004e+01,3.000000000513018517e+00,9.999999999970471620e+00,6.600000000001502443e-01,1.569999999999185381e+00,2.869999999999991815e+03,-2.175000000000730793e+00,-4.945000000001072316e+00,1.338070605470726093e+01,-2.208887084779803001e+00
2.000000000000140687e+01,3.000000001333372524e+00,1.000000000001000444e+01,6.600000000001068345e-01,1.569999999999226237e+00,2.869999999999991360e+03,-2.175000000000728129e+00,-4.945000000000746354e+00,1.339763669361876808e+01,-2.192793228037202447e+00
2.000000000000127898e+01,3.000000001186642784e+00,9.999999999997561062e+00,6.600000000000872946e-01,1.569999999999438067e+00,2.870000000000003183e+03,-2.175000000000524292e+00,-4.945000000000692175e+00,1.342161286026993317e+01,-2.190050068664953997e+00
1.999999999999938538e+01,3.000000001649147041e+00,9.999999999995305089e+00,6.599999999999341949e-01,1.570000000000453255e+00,2.869999999999991360e+03,-2.174999999999573497e+00,-4.944999999999521556e+00,1.340721251075542142e+01,-2.203913515610881113e+00
2.000000000000000711e+01,3.000000004042513435e+00,1.000000000000645883e+01,6.599999999999841549e-01,1.570000000000185469e+00,2.870000000000002728e+03,-2.174999999999792433e+00,-4.944999999999840412e+00,1.341585246196117609e+01,-2.189116256004470795e+00
2.000000000000123634e+01,3.000000001457918675e+00,1.000000000002540546e+01,6.600000000000738609e-01,1.569999999999557305e+00,2.869999999999998636e+03,-2.175000000000425260e+00,-4.945000000000505658e+00,1.340473610596558096e+01,-2.184505486795190077e+00
1.999999999999869971e+01,3.000000001815756878e+00,1.000000000003183409e+01,6.599999999998814593e-01,1.570000000000709273e+00,2.869999999999990905e+03,-2.174999999999345679e+00,-4.944999999999137863e+00,1.340494135578162904e+01,-2.233181336560728703e+00
1.999999999999997158e+01,3.000000002767481799e+00,1.000000000000890310e+01,6.599999999999769384e-01,1.570000000000161267e+00,2.869999999999996817e+03,-2.174999999999861267e+00,-4.944999999999825313e+00,1.342139090631717657e+01,-2.235018688203944226e+00
2.000000000000029843e+01,3.000000001387701065e+00,9.999999999979378273e+00,6.600000000000003642e-01,1.569999999999921458e+00,2.870000000000000909e+03,-2.175000000000077982e+00,-4.944999999999988738e+00,1.341115310532939553e+01,-2.194758526683164845e+00
2.000000000000088107e+01,3.000000002599022331e+00,1.000000000002156320e+01,6.600000000000659783e-01,1.569999999999714735e+00,2.869999999999986812e+03,-2.175000000000242295e+00,-4.945000000000370655e+00,1.339361236205338201e+01,-2.237099164772934579e+00
1.999999999999983302e+01,3.000000001673664318e+00,9.999999999997468692e+00,6.599999999999576206e-01,1.570000000000240536e+00,2.869999999999985903e+03,-2.174999999999791545e+00,-4.944999999999707185e+00,1.342680898563594916e+01,-2.225243115199804667e+00
2.000000000000216360e+01,3.000000002476253425e+00,9.999999999981644905e+00,6.600000000001682299e-01,1.569999999998883178e+00,2.869999999999984539e+03,-2.175000000001050982e+00,-4.945000000001310347e+00,1.342642342685876145e+01,-2.172287784701232738e+00
2.000000000000106937e+01,3.000000000458595384e+00,9.999999999961323383e+00,6.600000000000790790e-01,1.569999999999342588e+00,2.869999999999991360e+03,-2.175000000000640199e+00,-4.945000000000645990e+00,1.339974787069817275e+01,-2.148201609031304304e+00
2.000000000000096989e+01,3.000000001876776068e+00,9.999999999963685937e+00,6.600000000001168265e-01,1.569999999999399654e+00,2.869999999999989086e+03,-2.175000000000527400e+00,-4.945000000000682405e+00,1.337822285103698228e+01,-2.137975910434646298e+00
2.000000000000201794e+01,3.000000002122705123e+00,9.999999999992356337e+00,6.600000000001559064e-01,1.569999999998972440e+00,2.869999999999990905e+03,-2.175000000000963496e+00,-4.945000000001201101e+00,1.343458524635284235e+01,-2.140977886912968753e+00
2.000000000000123990e+01,3.000000002862659443e+00,9.999999999977763565e+00,6.600000000001113865e-01,1.569999999999286633e+00,2.869999999999993634e+03,-2.175000000000654854e+00,-4.945000000000807638e+00,1.342445277422037009e+01,-2.123407612741332606e+00
2.000000000000142464e+01,3.000000002295819979e+00,9.999999999960460073e+00,6.600000000001382539e-01,1.569999999999133422e+00,2.869999999999983174e+03,-2.175000000000812506e+00,-4.945000000000994156e+00,1.339693491518175072e+01,-2.150345157465687773e+00
1.999999999999988276e+01,3.000000001511044179e+00,9.999999999986536992e+00,6.599999999999724976e-01,1.570000000000115525e+00,2.870000000000001364e+03,-2.174999999999869260e+00,-4.944999999999899920e+00,1.341629100140054298e+01,-2.170856212286797149e+00
1.999999999999817391e+01,3.000000000590302029e+00,9.999999999938356865e+00,6.599999999998749090e-01,1.570000000000944640e+00,2.869999999999996362e+03,-2.174999999999064126e+00,-4.944999999999026841e+00,1.338490142857280141e+01,-2.203440448774502958e+00
2.000000000000216716e+01,3.000000002621061146e+00,9.999999999995901945e+00,6.600000000001744471e-01,1.569999999999016183e+00,2.869999999999996362e+03,-2.175000000000880451e+00,-4.945000000001194884e+00,1.341660847312740934e+01,-2.160326586502500312e+00
1.999999999999846167e+01,2.999999998177901084e+00,9.999999999975301535e+00,6.599999999998673594e-01,1.570000000000781659e+00,2.870000000000000000e+03,-2.174999999999247091e+00,-4.944999999999076579e+00,1.340547762197194004e+01,-2.231770411575005664e+00
2.000000000000020606e+01,2.999999999828645958e+00,9.999999999993054445e+00,6.600000000000124656e-01,1.569999999999825313e+00,2.869999999999999545e+03,-2.175000000000157474e+00,-4.945000000000121076e+00,1.340341255338045912e+01,-2.208849014996081106e+00
2.000000000000131095e+01,3.000000001884721712e+00,9.999999999992200017e+00,6.600000000000946221e-01,1.569999999999325713e+00,2.869999999999997272e+03,-2.175000000000624212e+00,-4.945000000000728591e+00,1.341948858397442557e+01,-2.160263203211450822e+00
1.999999999999757350e+01,2.999999998410031399e+00,1.000000000000865974e+01,6.599999999998027445e-01,1.570000000001118501e+00,2.870000000000000000e+03,-2.174999999998954436e+00,-4.944999999998649365e+00,1.341045381037738693e+01,-2.210085267702442735e+00
1.999999999999810996e+01,3.000000000908043418e+00,9.999999999968419928e+00,6.599999999998660272e-01,1.570000000000914664e+00,2.870000000000001364e+03,-2.174999999999113864e+00,-4.944999999998962004e+00,1.342443548166821721e+01,-2.183506258813006085e+00
1.999999999999741362e+01,3.000000002130459809e+00,9.999999999983659293e+00,6.599999999998164002e-01,1.570000000001248397e+00,2.870000000000001819e+03,-2.174999999998779465e+00,-4.944999999998620943e+00,1.340118473081157724e+01,-2.199532231587817410e+00
1.999999999999929656e+01,3.000000000286250579e+00,1.000000000000065370e+01,6.599999999999590639e-01,1.570000000000427054e+00,2.870000000000003638e+03,-2.174999999999540190e+00,-4.944999999999630802e+00,1.342618548990502170e+01,-2.177317243058338736e+00
2.000000000000017408e+01,3.000000000365819819e+00,9.999999999962930985e+00,6.600000000000277867e-01,1.569999999999955431e+00,2.869999999999984539e+03,-2.175000000000007816e+00,-4.945000000000186802e+00,1.342033406775805027e+01,-2.198149414556892722e+00
2.000000000000025935e+01,3.000000003836503559e+00,9.999999999987519317e+00,6.600000000000231237e-01,1.569999999999923901e+00,2.869999999999995453e+03,-2.175000000000039346e+00,-4.945000000000198348e+00,1.344508243951537452e+01,-2.168396262135761976e+00
1.999999999999998224e+01,3.000000001229106150e+00,9.999999999984275689e+00,6.599999999999962563e-01,1.570000000000002727e+00,2.870000000000000000e+03,-2.174999999999992273e+00,-4.945000000000003837e+00,1.342017792008332044e+01,-2.168299339207681697e+00
2.000000000000160583e+01,3.000000001973982755e+00,9.999999999976731502e+00,6.600000000001124967e-01,1.569999999999347917e+00,2.869999999999986812e+03,-2.175000000000597122e+00,-4.945000000000853824e+00,1.343195903711382577e+01,-2.191357023931453263e+00
1.999999999999814548e+01,3.000000000706782632e+00,9.999999999947034368e+00,6.599999999998827915e-01,1.570000000000836282e+00,2.870000000000000909e+03,-2.174999999999178257e+00,-4.944999999999067697e+00,1.344455460743395925e+01,-2.166984620851349685e+00
1.999999999999896971e+01,3.000000001883627476e+00,9.999999999985991650e+00,6.599999999999158762e-01,1.570000000000554286e+00,2.870000000000005457e+03,-2.174999999999465139e+00,-4.944999999999465601e+00,1.343869965773535569e+01,-2.149265818957109442e+00
1.999999999999934630e+01,3.000000002121733012e+00,9.999999999982426502e+00,6.599999999999263123e-01,1.570000000000316698e+00,2.869999999999999091e+03,-2.174999999999738254e+00,-4.944999999999568630e+00,1.342471130050175354e+01,-2.202696452179488062e+00
1.999999999999931077e+01,3.000000002236993257e+00,9.999999999962943420e+00,6.599999999999575095e-01,1.570000000000342011e+00,2.869999999999994543e+03,-2.174999999999670308e+00,-4.944999999999695639e+00,1.342394170759476957e+01,-2.194001529825911678e+00
1.999999999999939959e+01,3.000000000600234085e+00,9.999999999971983300e+00,6.599999999999666134e-01,1.570000000000316254e+00,2.869999999999998181e+03,-2.174999999999676970e+00,-4.944999999999780904e+00,1.342376956632671003e+01,-2.195597231110987479e+00
1.999999999999690559e+01,2.999999998321372541e+00,9.999999999947856821e+00,6.599999999997814282e-01,1.570000000001481544e+00,2.870000000000002728e+03,-2.174999999998572076e+00,-4.944999999998418438e+00,1.343408575282382955e+01,-2.185405608014251655e+00
1.999999999999919353e+01,3.000000000146624046e+00,9.999999999938715689e+00,6.599999999999597300e-01,1.570000000000415730e+00,2.869999999999993179e+03,-2.174999999999574829e+00,-4.944999999999618367e+00,1.342772323206795626e+01,-2.170225085368752360e+00
2.000000000000217781e+01,3.000000000855557403e+00,9.999999999946238560e+00,6.600000000001284839e-01,1.569999999999245111e+00,2.869999999999992269e+03,-2.175000000000666844e+00,-4.945000000000913332e+00,1.341952634093078167e+01,-2.148424891340405818e+00
2.000000000000285993e+01,3.000000002421753020e+00,9.999999999975827336e+00,6.600000000001736700e-01,1.569999999998757056e+00,2.869999999999978172e+03,-2.175000000001203748e+00,-4.945000000001307683e+00,1.339511940857427597e+01,-2.151778257336334654e+00
2.000000000000086686e+01,3.000000003445097096e+00,1.000000000003067235e+01,6.600000000000626477e-01,1.569999999999514229e+00,2.869999999999987722e+03,-2.175000000000474998e+00,-4.945000000000451479e+00,1.338211520160494494e+01,-2.160811980148507949e+00
1.999999999999818812e+01,3.000000000295456548e+00,1.000000000000488676e+01,6.599999999998705791e-01,1.570000000000945306e+00,2.870000000000005457e+03,-2.174999999999070788e+00,-4.944999999998977103e+00,1.341916522094972031e+01,-2.181506681072070908e+00
2.000000000000068923e+01,3.000000003578819907e+00,1.000000000000222222e+01,6.600000000000532108e-01,1.569999999999727391e+00,2.869999999999994543e+03,-2.175000000000252065e+00,-4.945000000000375984e+00,1.340380607398938828e+01,-2.181625676678402570e+00
1.999999999999971578e+01,3.000000000458145966e+00,1.000000000004369127e+01,6.599999999999779376e-01,1.570000000000185914e+00,2.869999999999998181e+03,-2.174999999999803535e+00,-4.944999999999745377e+00,1.336651145564876231e+01,-2.189279960620654997e+00
1.999999999999845102e+01,2.999999999109772553e+00,1.000000000001183054e+01,6.599999999998693578e-01,1.570000000000872920e+00,2.870000000000002728e+03,-2.174999999999147171e+00,-4.944999999998962892e+00,1.343312160884787154e+01,-2.137112691150115040e+00
2.000000000000075673e+01,3.000000002544542799e+00,1.000000000002195222e+01,6.600000000000189049e-01,1.569999999999773133e+00,2.869999999999995453e+03,-2.175000000000248956e+00,-4.945000000000208118e+00,1.341940824145810396e+01,-2.114667486116390549e+00
1.999999999999964828e+01,3.000000002082892525e+00,9.999999999973502085e+00,6.599999999999686118e-01,1.570000000000245421e+00,2.869999999999993179e+03,-2.174999999999762235e+00,-4.944999999999645901e+00,1.340709291822558669e+01,-2.111407666964689955e+00
2.000000000000020250e+01,3.000000004144568688e+00,9.999999999992187583e+00,6.600000000000135758e-01,1.569999999999910356e+00,2.869999999999995453e+03,-2.175000000000090861e+00,-4.945000000000023377e+00,1.340419752599319203e+01,-2.144810645862082588e+00
1.999999999999944222e+01,3.000000001095778579e+00,9.999999999991240784e+00,6.599999999999314193e-01,1.570000000000280949e+00,2.870000000000000000e+03,-2.174999999999773781e+00,-4.944999999999490470e+00,1.340584988820443080e+01,-2.137859650433478809e+00
1.999999999999842615e+01,3.000000002832253099e+00,1.000000000001016787e+01,6.599999999998618083e-01,1.570000000000792095e+00,2.870000000000001364e+03,-2.174999999999245759e+00,-4.944999999998998419e+00,1.342141322132444969e+01,-2.135249866580306133e+00
2.000000000000102673e+01,3.000000002523305564e+00,9.999999999930908601e+00,6.600000000000795231e-01,1.569999999999477813e+00,2.869999999999984993e+03,-2.175000000000504752e+00,-4.945000000000553619e+00,1.341573604235594175e+01,-2.153130417904719263e+00
2.000000000000079936e+01,3.000000001927506599e+00,9.999999999987243982e+00,6.600000000000554312e-01,1.569999999999601270e+00,2.869999999999988631e+03,-2.175000000000393729e+00,-4.945000000000422169e+00,1.340208795258320151e+01,-2.176943277942039678e+00
2.000000000000313705e+01,3.000000002787982734e+00,9.999999999999932498e+00,6.600000000002603784e-01,1.569999999998597406e+00,2.869999999999989541e+03,-2.175000000001279687e+00,-4.945000000001841478e+00,1.339539321404860850e+01,-2.162918395592629661e+00
2.000000000000023803e+01,3.000000001543263739e+00,9.999999999967011277e+00,6.600000000000267875e-01,1.569999999999902363e+00,2.869999999999997272e+03,-2.175000000000056222e+00,-4.945000000000134399e+00,1.341790872331505113e+01,-2.143118498350973677e+00
2.000000000000117240e+01,3.000000001378413828e+00,1.000000000000111910e+01,6.600000000000635358e-01,1.569999999999567519e+00,2.869999999999979991e+03,-2.175000000000422151e+00,-4.945000000000519869e+00,1.340529549617539651e+01,-2.185282923819504397e+00
2.000000000000185452e+01,3.000000002864698256e+00,9.999999999971111109e+00,6.600000000001452483e-01,1.569999999999153406e+00,2.869999999999992269e+03,-2.175000000000788969e+00,-4.945000000000982610e+00,1.341307160792217879e+01,-2.140369979561064007e+00
2.000000000000045475e+01,3.000000002529423337e+00,9.999999999960490271e+00,6.600000000000514344e-01,1.569999999999741158e+00,2.869999999999979082e+03,-2.175000000000232969e+00,-4.945000000000300489e+00,1.341831803352593866e+01,-2.190300676549538750e+00
2.000000000000208544e+01,3.000000001497009183e+00,9.999999999958038899e+00,6.600000000001577938e-01,1.569999999999003526e+00,2.869999999999971351e+03,-2.175000000000944400e+00,-4.945000000001158469e+00,1.340762488269268005e+01,-2.183609514072775148e+00
2.000000000000200373e+01,3.000000003109547730e+00,9.999999999977729814e+00,6.600000000001745581e-01,1.569999999999081686e+00,2.869999999999976808e+03,-2.175000000000837819e+00,-4.945000000001121165e+00,1.338608953097585363e+01,-2.113230939219591598e+00
2.000000000000046185e+01,3.000000002188284220e+00,9.999999999940458295e+00,6.600000000000655342e-01,1.569999999999806217e+00,2.869999999999983629e+03,-2.175000000000143263e+00,-4.945000000000289830e+00,1.340313804558970467e+01,-2.179915973514518157e+00
