1.999999999999947065e+01,3.000000003787897107e+00,1.000000000001828049e+01,6.599999999999230926e-01,1.570000000000334905e+00,2.869999999999982265e+03,-2.174999999999704059e+00,-4.944999999999525997e+00,1.340856961396768554e+01,-2.173796902342150172e+00
2.000000000000075673e+01,3.000000003909800927e+00,1.000000000001966960e+01,6.600000000000666445e-01,1.569999999999766693e+00,2.869999999999991815e+03,-2.175000000000226308e+00,-4.945000000000357332e+00,1.341488250921063852e+01,-2.181223340772510788e+00
2.000000000000116529e+01,3.000000001233160241e+00,9.999999999981849186e+00,6.600000000000938449e-01,1.569999999999542206e+00,2.869999999999968168e+03,-2.175000000000377298e+00,-4.945000000000566054e+00,1.339877045951318912e+01,-2.179026814596714434e+00
1.999999999999878852e+01,2.999999999926162619e+00,9.999999999991372235e+00,6.599999999998986677e-01,1.570000000000540963e+00,2.869999999999975898e+03,-2.174999999999478462e+00,-4.944999999999263096e+00,1.339911400557143217e+01,-2.165608310114644386e+00
1.999999999999970512e+01,3.000000001132004268e+00,9.999999999985034194e+00,6.599999999999567324e-01,1.570000000000151497e+00,2.869999999999987267e+03,-2.174999999999833733e+00,-4.944999999999835083e+00,1.339707402776945955e+01,-2.183375941824830413e+00
1.999999999999973355e+01,3.000000002608154137e+00,9.999999999986497912e+00,6.599999999999565103e-01,1.570000000000215667e+00,2.869999999999998636e+03,-2.174999999999835509e+00,-4.944999999999709850e+00,1.340906863345874989e+01,-2.179963261155354548e+00
1.999999999999671729e+01,3.000000000531074296e+00,9.999999999991375788e+00,6.599999999997790967e-01,1.570000000001574580e+00,2.869999999999994543e+03,-2.174999999998449063e+00,-4.944999999998282547e+00,1.340745011423507371e+01,-2.148267632254383219e+00
1.999999999999604228e+01,3.000000000987224524e+00,9.999999999996539657e+00,6.599999999997137046e-01,1.570000000001927187e+00,2.869999999999999545e+03,-2.174999999998107558e+00,-4.944999999997897966e+00,1.342499237267797163e+01,-2.149554784618502357e+00
2.000000000000163780e+01,3.000000000609540862e+00,1.000000000000498979e+01,6.600000000001107203e-01,1.569999999999375673e+00,2.869999999999993634e+03,-2.175000000000595790e+00,-4.945000000000785434e+00,1.341507573906315365e+01,-2.180131741071128726e+00
1.999999999999888445e+01,2.999999999429174391e+00,1.000000000000029665e+01,6.599999999999166533e-01,1.570000000000512541e+00,2.869999999999976808e+03,-2.174999999999482014e+00,-4.944999999999472706e+00,1.340601343411869806e+01,-2.163298216802293616e+00
1.999999999999955591e+01,3.000000001918882830e+00,1.000000000002643574e+01,6.599999999999591749e-01,1.570000000000337570e+00,2.869999999999998181e+03,-2.174999999999692957e+00,-4.944999999999656559e+00,1.341424824340008470e+01,-2.178202885588323756e+00
2.000000000000289546e+01,3.000000003079010380e+00,9.999999999973759657e+00,6.600000000002168576e-01,1.569999999998698215e+00,2.869999999999976808e+03,-2.175000000001256595e+00,-4.945000000001543938e+00,1.341525273810746910e+01,-2.166757865906969283e+00
1.999999999999841549e+01,3.000000002012241929e+00,1.000000000000509637e+01,6.599999999998857891e-01,1.570000000000724150e+00,2.869999999999989086e+03,-2.174999999999247979e+00,-4.944999999999206253e+00,1.340058679268213915e+01,-2.176357707479740888e+00
2.000000000000106937e+01,3.000000002176264502e+00,1.000000000000820144e+01,6.600000000000553202e-01,1.569999999999508011e+00,2.869999999999994088e+03,-2.175000000000436362e+00,-4.945000000000685958e+00,1.340685693448334348e+01,-2.174022012567170314e+00
2.000000000000077804e+01,3.000000004854550095e+00,9.999999999977106313e+00,6.600000000000528777e-01,1.569999999999587725e+00,2.869999999999957708e+03,-2.175000000000339995e+00,-4.945000000000522533e+00,1.340879445065203512e+01,-2.171437919171522513e+00
2.000000000000117595e+01,3.000000004438767132e+00,9.999999999970050624e+00,6.600000000000832978e-01,1.569999999999379892e+00,2.869999999999965894e+03,-2.175000000000541167e+00,-4.945000000000744578e+00,1.339921367130075325e+01,-2.171560352289249263e+00
2.000000000000215650e+01,3.000000006981797807e+00,1.000000000001569944e+01,6.600000000001222666e-01,1.569999999999076357e+00,2.869999999999984084e+03,-2.175000000000881339e+00,-4.945000000001108731e+00,1.340967352339498575e+01,-2.191516448298387765e+00
2.000000000000258993e+01,3.000000005030031947e+00,1.000000000001071854e+01,6.600000000001520206e-01,1.569999999998956453e+00,2.869999999999996362e+03,-2.175000000001033218e+00,-4.945000000001249951e+00,1.340157418100125319e+01,-2.203899987796789528e+00
2.000000000000023803e+01,3.000000002922929454e+00,9.999999999994232169e+00,6.600000000000230127e-01,1.569999999999901252e+00,2.869999999999979991e+03,-2.175000000000115286e+00,-4.945000000000190354e+00,1.341391533475885467e+01,-2.196741763806836278e+00
1.999999999999910116e+01,3.000000000422102353e+00,1.000000000000755840e+01,6.599999999999385247e-01,1.570000000000538964e+00,2.869999999999965439e+03,-2.174999999999415845e+00,-4.944999999999550866e+00,1.340943427591092707e+01,-2.187923145178851669e+00
1.999999999999978328e+01,3.000000003815230354e+00,1.000000000004258993e+01,6.599999999999685008e-01,1.570000000000059348e+00,2.869999999999977263e+03,-2.174999999999892353e+00,-4.944999999999943441e+00,1.341072208912257402e+01,-2.178639038924663485e+00
2.000000000000155609e+01,2.999999998832408199e+00,9.999999999990068389e+00,6.600000000000861844e-01,1.569999999999258877e+00,2.870000000000000000e+03,-2.175000000000715694e+00,-4.945000000000808527e+00,1.338930867860404383e+01,-2.173440713021514092e+00
2.000000000000258282e+01,3.000000003623636502e+00,9.999999999987712940e+00,6.600000000001817746e-01,1.569999999998758611e+00,2.869999999999973625e+03,-2.175000000001177547e+00,-4.945000000001440021e+00,1.339393955739322273e+01,-2.168633979787744970e+00
2.000000000000166978e+01,3.000000002606790783e+00,1.000000000000607869e+01,6.600000000001372547e-01,1.569999999999265095e+00,2.869999999999999545e+03,-2.175000000000720579e+00,-4.945000000000839613e+00,1.340200293205165494e+01,-2.180100870579912975e+00
2.000000000000182965e+01,3.000000003186598541e+00,1.000000000000539657e+01,6.600000000001300382e-01,1.569999999999126095e+00,2.869999999999983629e+03,-2.175000000000924416e+00,-4.945000000000880469e+00,1.338750947912521205e+01,-2.180306653058927679e+00
1.999999999999781153e+01,3.000000000931043243e+00,1.000000000003008083e+01,6.599999999998109601e-01,1.570000000001169793e+00,2.869999999999999545e+03,-2.174999999998889155e+00,-4.944999999998644924e+00,1.341483927899322381e+01,-2.189508684419512630e+00
2.000000000000091660e+01,3.000000002595407889e+00,9.999999999994660271e+00,6.600000000000579847e-01,1.569999999999611706e+00,2.869999999999982265e+03,-2.175000000000414158e+00,-4.945000000000376872e+00,1.341073212261139957e+01,-2.186643886085924304e+00
2.000000000000088107e+01,3.000000001485047196e+00,9.999999999999253930e+00,6.600000000000647571e-01,1.569999999999652562e+00,2.869999999999974079e+03,-2.175000000000389733e+00,-4.945000000000302265e+00,1.341327689750082364e+01,-2.168695013980624253e+00
2.000000000000198952e+01,3.000000003520448821e+00,9.999999999992784439e+00,6.600000000001577938e-01,1.569999999999200924e+00,2.869999999999984084e+03,-2.175000000000764544e+00,-4.945000000001089191e+00,1.340662981268217813e+01,-2.202521517521695671e+00
2.000000000000282085e+01,3.000000004969889389e+00,9.999999999979820586e+00,6.600000000001947642e-01,1.569999999998758389e+00,2.869999999999964075e+03,-2.175000000001149125e+00,-4.945000000001594564e+00,1.340976639158980888e+01,-2.181327466817712502e+00
2.000000000000092726e+01,3.000000004124777853e+00,1.000000000003592859e+01,6.600000000000503242e-01,1.569999999999516893e+00,2.869999999999983629e+03,-2.175000000000368416e+00,-4.945000000000586482e+00,1.340486655004243843e+01,-2.190903240210483105e+00
2.000000000000398259e+01,3.000000006824668386e+00,9.999999999976692422e+00,6.600000000002432810e-01,1.569999999998144879e+00,2.869999999999971351e+03,-2.175000000001851230e+00,-4.945000000002061746e+00,1.341931276356134362e+01,-2.187638361575234835e+00
2.000000000000090594e+01,3.000000002717125192e+00,1.000000000002221689e+01,6.600000000000307843e-01,1.569999999999593943e+00,2.869999999999985448e+03,-2.175000000000377742e+00,-4.945000000000445262e+00,1.341647450460642510e+01,-2.177080018854019361e+00
1.999999999999821654e+01,3.000000002465906146e+00,1.000000000003963763e+01,6.599999999998441558e-01,1.570000000000771667e+00,2.869999999999978627e+03,-2.174999999999243094e+00,-4.944999999999078355e+00,1.341061214936554968e+01,-2.166681336149360870e+00
2.000000000000068567e+01,3.000000002099017404e+00,1.000000000001221601e+01,6.600000000000477707e-01,1.569999999999799112e+00,2.869999999999979082e+03,-2.175000000000199663e+00,-4.945000000000415952e+00,1.341103660732491143e+01,-2.191428942258686341e+00
2.000000000000020250e+01,3.000000001564994356e+00,9.999999999977664089e+00,6.600000000000011413e-01,1.569999999999892148e+00,2.869999999999999545e+03,-2.175000000000116174e+00,-4.945000000000043805e+00,1.338861259059399167e+01,-2.188508398756598528e+00
2.000000000000111200e+01,3.000000002827609258e+00,1.000000000001413270e+01,6.600000000000785239e-01,1.569999999999543538e+00,2.869999999999989541e+03,-2.175000000000402167e+00,-4.945000000000701057e+00,1.340207629125795563e+01,-2.181768912331722099e+00
2.000000000000244427e+01,3.000000007104465016e+00,9.999999999988967048e+00,6.600000000001766676e-01,1.569999999998977547e+00,2.869999999999995453e+03,-2.175000000001025668e+00,-4.945000000001220641e+00,1.342540547633107018e+01,-2.171450602272289032e+00
1.999999999999884892e+01,3.000000003280309357e+00,1.000000000001335110e+01,6.599999999999051070e-01,1.570000000000518314e+00,2.869999999999979082e+03,-2.174999999999518430e+00,-4.944999999999311058e+00,1.342094117278623244e+01,-2.172746956530050788e+00
2.000000000000263256e+01,3.000000004695885014e+00,9.999999999977466913e+00,6.600000000001849942e-01,1.569999999998783258e+00,2.869999999999985448e+03,-2.175000000001216183e+00,-4.945000000001422258e+00,1.340726255274271139e+01,-2.167241921230432578e+00
2.000000000000166267e+01,3.000000002606781457e+00,1.000000000000454214e+01,6.600000000001247091e-01,1.569999999999244222e+00,2.869999999999958163e+03,-2.175000000000673062e+00,-4.945000000000978169e+00,1.341438097819277608e+01,-2.180973617987440605e+00
1.999999999999838707e+01,3.000000001166178265e+00,1.000000000002922462e+01,6.599999999998411582e-01,1.570000000000848273e+00,2.869999999999992724e+03,-2.174999999999213784e+00,-4.944999999998888285e+00,1.340731808731537456e+01,-2.170547784393466184e+00
1.999999999999847233e+01,2.999999999525319705e+00,9.999999999968517628e+00,6.599999999998937827e-01,1.570000000000790985e+00,2.869999999999971351e+03,-2.174999999999213340e+00,-4.944999999999153850e+00,1.340522314158761574e+01,-2.164755899796549699e+00
1.999999999999643663e+01,2.999999998968931436e+00,9.999999999976481035e+00,6.599999999997500089e-01,1.570000000001659402e+00,2.869999999999983174e+03,-2.174999999998357136e+00,-4.944999999998159979e+00,1.340475802186645637e+01,-2.156160802412923960e+00
2.000000000000046541e+01,2.999999999113445170e+00,9.999999999975020870e+00,6.600000000000452172e-01,1.569999999999907470e+00,2.869999999999974989e+03,-2.175000000000058886e+00,-4.945000000000267626e+00,1.339793353702413725e+01,-2.157653393943698372e+00
1.999999999999972999e+01,2.999999999933497641e+00,9.999999999956944663e+00,6.599999999999743849e-01,1.570000000000143725e+00,2.869999999999949978e+03,-2.174999999999817746e+00,-4.944999999999883933e+00,1.339922932050387594e+01,-2.154900353348315090e+00
2.000000000000055067e+01,3.000000003475677524e+00,9.999999999977461584e+00,6.600000000000002531e-01,1.569999999999753149e+00,2.869999999999992269e+03,-2.175000000000269829e+00,-4.945000000000249862e+00,1.342663255124771027e+01,-2.172006142163465103e+00
1.999999999999997158e+01,3.000000004455477320e+00,9.999999999995477395e+00,6.600000000000040279e-01,1.570000000000012719e+00,2.869999999999973625e+03,-2.174999999999957634e+00,-4.944999999999999396e+00,1.340009631608165641e+01,-2.181885285289133503e+00
2.000000000000060751e+01,3.000000002599540583e+00,9.999999999976783016e+00,6.600000000000577627e-01,1.569999999999584395e+00,2.869999999999947249e+03,-2.175000000000366196e+00,-4.945000000000433715e+00,1.338738089678830612e+01,-2.170499533755095634e+00
2.000000000000016698e+01,3.000000001891129031e+00,1.000000000000039257e+01,6.600000000000008082e-01,1.569999999999974749e+00,2.869999999999995907e+03,-2.175000000000030020e+00,-4.945000000000112195e+00,1.340527347961150184e+01,-2.198164714630885364e+00
1.999999999999961986e+01,3.000000001019858864e+00,1.000000000000902034e+01,6.599999999999849321e-01,1.570000000000253637e+00,2.869999999999985903e+03,-2.174999999999706279e+00,-4.944999999999900808e+00,1.341665128097064219e+01,-2.155361032193874316e+00
1.999999999999760902e+01,3.000000002363216733e+00,9.999999999973235632e+00,6.599999999998507061e-01,1.570000000001108731e+00,2.869999999999982265e+03,-2.174999999998937561e+00,-4.944999999998723972e+00,1.341642028306948475e+01,-2.169132726537275957e+00
1.999999999999911537e+01,3.000000003148688865e+00,9.999999999955488050e+00,6.599999999999330846e-01,1.570000000000468132e+00,2.869999999999966803e+03,-2.174999999999541522e+00,-4.944999999999520668e+00,1.340917405762282577e+01,-2.183695218018130824e+00
2.000000000000200728e+01,3.000000004109001139e+00,9.999999999986160404e+00,6.600000000001328138e-01,1.569999999999029283e+00,2.869999999999979082e+03,-2.175000000000959943e+00,-4.945000000001102514e+00,1.339630431487624840e+01,-2.181968952619086188e+00
1.999999999999795008e+01,3.000000001039770936e+00,9.999999999996550315e+00,6.599999999998827915e-01,1.570000000001100959e+00,2.869999999999987722e+03,-2.174999999998852740e+00,-4.944999999999056151e+00,1.341529733762299337e+01,-2.165251405017107889e+00
1.999999999999785061e+01,3.000000000586662718e+00,1.000000000002489031e+01,6.599999999998487077e-01,1.570000000001014584e+00,2.869999999999997272e+03,-2.174999999999031264e+00,-4.944999999998925588e+00,1.341423397184270172e+01,-2.167148426675803652e+00
1.999999999999772271e+01,2.999999999989350741e+00,9.999999999956450836e+00,6.599999999998488187e-01,1.570000000001017693e+00,2.869999999999976808e+03,-2.174999999998999289e+00,-4.944999999998899831e+00,1.339960380424077790e+01,-2.167724808954322846e+00
1.999999999999947775e+01,3.000000001970778207e+00,9.999999999964328978e+00,6.599999999999557332e-01,1.570000000000191909e+00,2.869999999999967713e+03,-2.174999999999810196e+00,-4.944999999999692086e+00,1.340286602643306679e+01,-2.170495383558154412e+00
1.999999999999997158e+01,3.000000001861154786e+00,1.000000000000782485e+01,6.599999999999862643e-01,1.570000000000165929e+00,2.869999999999970441e+03,-2.174999999999809308e+00,-4.944999999999909690e+00,1.341737167574763490e+01,-2.155336143115449410e+00
2.000000000000193978e+01,3.000000004664524766e+00,1.000000000000948219e+01,6.600000000001305933e-01,1.569999999999254436e+00,2.869999999999954071e+03,-2.175000000000690825e+00,-4.945000000000958629e+00,1.341581622509117722e+01,-2.157391457638129673e+00
2.000000000000025224e+01,3.000000000559463587e+00,9.999999999973830711e+00,6.600000000000026956e-01,1.569999999999846407e+00,2.869999999999987267e+03,-2.175000000000208988e+00,-4.945000000000076668e+00,1.340844703098004231e+01,-2.171735506892275680e+00
2.000000000000085976e+01,3.000000001810034345e+00,9.999999999984202859e+00,6.600000000000590950e-01,1.569999999999574403e+00,2.869999999999977717e+03,-2.175000000000432365e+00,-4.945000000000429274e+00,1.340609007784692785e+01,-2.172901742677947112e+00
2.000000000000058265e+01,3.000000001703045704e+00,9.999999999981779908e+00,6.600000000000342260e-01,1.569999999999801776e+00,2.869999999999993179e+03,-2.175000000000193889e+00,-4.945000000000197460e+00,1.340377336528231922e+01,-2.169718216934718669e+00
2.000000000000127542e+01,3.000000000523094901e+00,9.999999999972557063e+00,6.600000000000898481e-01,1.569999999999460938e+00,2.869999999999979082e+03,-2.175000000000529621e+00,-4.945000000000597140e+00,1.340371152815672140e+01,-2.167042638972197732e+00
2.000000000000036593e+01,3.000000001136723160e+00,9.999999999959943153e+00,6.600000000000341149e-01,1.569999999999839746e+00,2.869999999999951797e+03,-2.175000000000187672e+00,-4.945000000000164597e+00,1.340715854325399903e+01,-2.171923189354902473e+00
1.999999999999888090e+01,3.000000000637401687e+00,9.999999999999662492e+00,6.599999999999385247e-01,1.570000000000472129e+00,2.869999999999962256e+03,-2.174999999999536637e+00,-4.944999999999447837e+00,1.339216911592382431e+01,-2.163276813643677521e+00
2.000000000000111555e+01,3.000000000544734924e+00,9.999999999977685405e+00,6.600000000001068345e-01,1.569999999999487805e+00,2.869999999999954980e+03,-2.175000000000463896e+00,-4.945000000000809415e+00,1.338416885101469411e+01,-2.165851858071833114e+00
1.999999999999938893e+01,3.000000000265203859e+00,9.999999999983403498e+00,6.599999999999910383e-01,1.570000000000401297e+00,2.869999999999967258e+03,-2.174999999999613021e+00,-4.944999999999802220e+00,1.339808669562300736e+01,-2.175778615891913237e+00
2.000000000000185452e+01,3.000000002867754478e+00,9.999999999964094499e+00,6.600000000001430278e-01,1.569999999999094786e+00,2.869999999999953161e+03,-2.175000000000868461e+00,-4.945000000001048335e+00,1.339533378334008162e+01,-2.166268368971354885e+00
2.000000000000108358e+01,3.000000002138304644e+00,1.000000000000394351e+01,6.600000000000530997e-01,1.569999999999527995e+00,2.869999999999988177e+03,-2.175000000000402611e+00,-4.945000000000635332e+00,1.341043215639731123e+01,-2.178841540725607651e+00
2.000000000000120082e+01,3.000000001072137046e+00,9.999999999954217955e+00,6.600000000001058353e-01,1.569999999999447837e+00,2.869999999999967258e+03,-2.175000000000502975e+00,-4.945000000000738360e+00,1.340358585084247167e+01,-2.166183746441586511e+00
1.999999999999973355e+01,3.000000002047236158e+00,1.000000000003432632e+01,6.599999999999551781e-01,1.570000000000140838e+00,2.869999999999978627e+03,-2.174999999999850164e+00,-4.944999999999891038e+00,1.340605856587103872e+01,-2.176925227007190600e+00
1.999999999999679545e+01,3.000000000018005597e+00,9.999999999977543297e+00,6.599999999997487876e-01,1.570000000001472218e+00,2.869999999999998181e+03,-2.174999999998573852e+00,-4.944999999998316298e+00,1.341408544903932132e+01,-2.166394465614922549e+00
2.000000000000091305e+01,3.000000003315713482e+00,1.000000000000681588e+01,6.600000000000731948e-01,1.569999999999782681e+00,2.870000000000003183e+03,-2.175000000000150813e+00,-4.945000000000439044e+00,1.341778026944930424e+01,-2.185500119895907201e+00
2.000000000000140687e+01,2.999999999947557949e+00,9.999999999973322673e+00,6.600000000000892930e-01,1.569999999999490692e+00,2.869999999999962256e+03,-2.175000000000441691e+00,-4.945000000000652207e+00,1.341609355241023671e+01,-2.165562539931120245e+00
2.000000000000081002e+01,3.000000000433701075e+00,9.999999999964023445e+00,6.600000000000509903e-01,1.569999999999734719e+00,2.869999999999971351e+03,-2.175000000000248068e+00,-4.945000000000286278e+00,1.341468230845904941e+01,-2.164808495330821980e+00
2.000000000000159872e+01,3.000000003311407148e+00,9.999999999987480237e+00,6.600000000001124967e-01,1.569999999999347917e+00,2.869999999999972260e+03,-2.175000000000551381e+00,-4.945000000000826290e+00,1.339159184482111442e+01,-2.181371324357043839e+00
2.000000000000268940e+01,3.000000003075923516e+00,9.999999999989981347e+00,6.600000000001871037e-01,1.569999999998930251e+00,2.869999999999990450e+03,-2.175000000000963052e+00,-4.945000000001326335e+00,1.338702183826718795e+01,-2.177457725810087563e+00
2.000000000000309086e+01,3.000000003608485066e+00,9.999999999995793587e+00,6.600000000001804423e-01,1.569999999998516138e+00,2.869999999999995907e+03,-2.175000000001448441e+00,-4.945000000001611440e+00,1.339836621203120970e+01,-2.179655962189122498e+00
1.999999999999874234e+01,3.000000000654602150e+00,9.999999999965380582e+00,6.599999999999019984e-01,1.570000000000559615e+00,2.869999999999986358e+03,-2.174999999999440714e+00,-4.944999999999354579e+00,1.340241908670137683e+01,-2.171472409156378625e+00
1.999999999999852918e+01,3.000000000529249089e+00,9.999999999963691266e+00,6.599999999998916733e-01,1.570000000000607576e+00,2.870000000000000455e+03,-2.174999999999442490e+00,-4.944999999999153850e+00,1.340195268368103676e+01,-2.171568945150541996e+00
1.999999999999974776e+01,3.000000004509977725e+00,9.999999999992036592e+00,6.599999999999617284e-01,1.570000000000118634e+00,2.869999999999994543e+03,-2.174999999999956302e+00,-4.944999999999742712e+00,1.340619531174143297e+01,-2.167664014347472357e+00
2.000000000000033396e+01,3.000000005592963870e+00,9.999999999990663468e+00,6.599999999999980327e-01,1.569999999999853735e+00,2.869999999999987267e+03,-2.175000000000189893e+00,-4.945000000000088214e+00,1.340082123528791413e+01,-2.173139235075671749e+00
1.999999999999783995e+01,3.000000002070669414e+00,1.000000000000979128e+01,6.599999999998422684e-01,1.570000000001017693e+00,2.869999999999997272e+03,-2.174999999999001954e+00,-4.944999999998808349e+00,1.339591758609024374e+01,-2.169721334429171478e+00
1.999999999999664269e+01,3.000000000433997727e+00,1.000000000000262368e+01,6.599999999997616662e-01,1.570000000001587903e+00,2.869999999999994088e+03,-2.174999999998469935e+00,-4.944999999998143991e+00,1.340872076707498906e+01,-2.161250306351309991e+00
2.000000000000109068e+01,3.000000005036955741e+00,9.999999999993178790e+00,6.600000000000607603e-01,1.569999999999461604e+00,2.869999999999956799e+03,-2.175000000000566480e+00,-4.945000000000463913e+00,1.340678146188712105e+01,-2.165968917567558716e+00
1.999999999999908340e+01,3.000000001970406061e+00,9.999999999987052135e+00,6.599999999999254241e-01,1.570000000000382645e+00,2.869999999999959982e+03,-2.174999999999671640e+00,-4.944999999999479812e+00,1.341347659573874651e+01,-2.154850556189384925e+00
2.000000000000249401e+01,3.000000004223970507e+00,9.999999999991540989e+00,6.600000000001539080e-01,1.569999999998934470e+00,2.869999999999975444e+03,-2.175000000001069189e+00,-4.945000000001340545e+00,1.342534832482362006e+01,-2.188391213131619661e+00
1.999999999999944578e+01,3.000000000172686754e+00,9.999999999976926901e+00,6.599999999999855982e-01,1.570000000000354445e+00,2.869999999999978627e+03,-2.174999999999683631e+00,-4.944999999999722284e+00,1.342596160776247061e+01,-2.170983337955888715e+00
1.999999999999693401e+01,3.000000002418719891e+00,1.000000000004478906e+01,6.599999999997475664e-01,1.570000000001560814e+00,2.870000000000016826e+03,-2.174999999998550759e+00,-4.944999999998094253e+00,1.343474528051361361e+01,-2.170591212023225136e+00
2.000000000000036948e+01,3.000000001865876342e+00,1.000000000001649703e+01,6.600000000000164624e-01,1.569999999999853069e+00,2.869999999999959982e+03,-2.175000000000105516e+00,-4.945000000000204565e+00,1.339857483367559610e+01,-2.175328548288876451e+00
2.000000000000190781e+01,3.000000003391193548e+00,9.999999999996919797e+00,6.600000000001157163e-01,1.569999999999140972e+00,2.869999999999967258e+03,-2.175000000000776534e+00,-4.945000000001097185e+00,1.340141138490865558e+01,-2.179422169940614662e+00
2.000000000000313349e+01,3.000000005011401072e+00,9.999999999990004440e+00,6.600000000002058664e-01,1.569999999998447970e+00,2.869999999999967713e+03,-2.175000000001522160e+00,-4.945000000001699370e+00,1.340739373672283463e+01,-2.193485260959564087e+00
2.000000000000171241e+01,3.000000005398196556e+00,9.999999999975059950e+00,6.600000000001348122e-01,1.569999999999275309e+00,2.869999999999967258e+03,-2.175000000000651301e+00,-4.945000000000882245e+00,1.342082171403755986e+01,-2.167893278694611681e+00
2.000000000000137135e+01,3.000000001970586361e+00,1.000000000001644374e+01,6.600000000000760814e-01,1.569999999999613705e+00,2.869999999999986812e+03,-2.175000000000394618e+00,-4.945000000000492335e+00,1.342225130880589035e+01,-2.175734524094561806e+00
1.999999999999882405e+01,2.999999999756419733e+00,1.000000000001081801e+01,6.599999999998832356e-01,1.570000000000727258e+00,2.870000000000008185e+03,-2.174999999999307931e+00,-4.944999999999228457e+00,1.342260463655047076e+01,-2.176277095127696626e+00
1.999999999999894129e+01,3.000000003333139542e+00,1.000000000001713651e+01,6.599999999999086597e-01,1.570000000000590479e+00,2.870000000000006821e+03,-2.174999999999480238e+00,-4.944999999999306617e+00,1.342030757511504468e+01,-2.185064453099617943e+00
1.999999999999944222e+01,2.999999999953550489e+00,1.000000000000703615e+01,6.599999999999446310e-01,1.570000000000341567e+00,2.870000000000005457e+03,-2.174999999999664535e+00,-4.944999999999644125e+00,1.341753237446000924e+01,-2.186161130516402817e+00
2.000000000000154543e+01,3.000000006440059597e+00,1.000000000004790124e+01,6.600000000000779687e-01,1.569999999999285967e+00,2.869999999999974534e+03,-2.175000000000697931e+00,-4.945000000000835172e+00,1.341246493541310869e+01,-2.179004860540179056e+00
2.000000000000108002e+01,3.000000000682487400e+00,1.000000000000595612e+01,6.600000000000936229e-01,1.569999999999575069e+00,2.869999999999963165e+03,-2.175000000000318678e+00,-4.945000000000680629e+00,1.340260552542255290e+01,-2.185676916053175045e+00
2.000000000000147082e+01,3.000000004367658235e+00,9.999999999997120526e+00,6.600000000000965095e-01,1.569999999999380780e+00,2.869999999999953616e+03,-2.175000000000570477e+00,-4.945000000000793428e+00,1.341517393715546191e+01,-2.191317652060907228e+00
1.999999999999827693e+01,3.000000001606678790e+00,1.000000000001404565e+01,6.599999999998656941e-01,1.570000000000724150e+00,2.869999999999999545e+03,-2.174999999999266187e+00,-4.944999999999173390e+00,1.340597118862353199e+01,-2.157454584709976864e+00
2.000000000000006395e+01,3.000000004597438874e+00,9.999999999991992183e+00,6.599999999999967004e-01,1.569999999999922569e+00,2.869999999999979536e+03,-2.175000000000025135e+00,-4.945000000000233875e+00,1.339907750370298878e+01,-2.165459009518994726e+00
2.000000000000133937e+01,3.000000006506908345e+00,9.999999999992343902e+00,6.600000000000793010e-01,1.569999999999314610e+00,2.869999999999980446e+03,-2.175000000000665956e+00,-4.945000000000819185e+00,1.340341951118076835e+01,-2.179274590697519720e+00
1.999999999999783284e+01,2.999999995544799791e+00,1.000000000001976197e+01,6.599999999998467093e-01,1.570000000001259943e+00,2.870000000000002728e+03,-2.174999999998759481e+00,-4.944999999998691997e+00,1.341213473771143505e+01,-2.174164319188580663e+00
1.999999999999948130e+01,2.999999998305965754e+00,9.999999999992491340e+00,6.599999999999642819e-01,1.570000000000424611e+00,2.870000000000001364e+03,-2.174999999999581934e+00,-4.944999999999651230e+00,1.341724883275032276e+01,-2.168287537141569299e+00
2.000000000000000711e+01,3.000000001108782399e+00,1.000000000003949197e+01,6.599999999999708322e-01,1.570000000000164597e+00,2.869999999999991815e+03,-2.174999999999881251e+00,-4.944999999999800444e+00,1.341327363943802453e+01,-2.186392196931491227e+00
2.000000000000222400e+01,3.000000004416589316e+00,1.000000000000158984e+01,6.600000000001601252e-01,1.569999999999138973e+00,2.869999999999972715e+03,-2.175000000000798739e+00,-4.945000000001153140e+00,1.342899011434617229e+01,-2.181566775420848980e+00
2.000000000000078870e+01,3.000000003546876126e+00,9.999999999965377029e+00,6.600000000000697531e-01,1.569999999999554197e+00,2.869999999999963165e+03,-2.175000000000430589e+00,-4.945000000000529639e+00,1.338356765329839781e+01,-2.169355765399332281e+00
1.999999999999974776e+01,3.000000003181565233e+00,9.999999999989688249e+00,6.599999999999870415e-01,1.570000000000190798e+00,2.869999999999986812e+03,-2.174999999999803535e+00,-4.944999999999867057e+00,1.339400955994807241e+01,-2.172645624517731910e+00
1.999999999999989697e+01,3.000000000883723317e+00,9.999999999991677768e+00,6.600000000000043610e-01,1.570000000000199458e+00,2.869999999999972260e+03,-2.174999999999782219e+00,-4.944999999999956763e+00,1.341114616988140185e+01,-2.176863841466485372e+00
2.000000000000047251e+01,3.000000003170937291e+00,1.000000000000393108e+01,6.600000000000145750e-01,1.569999999999852403e+00,2.869999999999968622e+03,-2.175000000000108624e+00,-4.945000000000254303e+00,1.341647583457004167e+01,-2.171274248156933151e+00
2.000000000000229150e+01,3.000000004178350554e+00,9.999999999960596853e+00,6.600000000001838840e-01,1.569999999999061924e+00,2.869999999999963620e+03,-2.175000000000817391e+00,-4.945000000001344986e+00,1.339576366127668017e+01,-2.177903779953781260e+00
1.999999999999847233e+01,3.000000000142474033e+00,1.000000000000528999e+01,6.599999999998872324e-01,1.570000000000777662e+00,2.870000000000001819e+03,-2.174999999999220002e+00,-4.944999999999108553e+00,1.340449869424633889e+01,-2.183141348156233175e+00
2.000000000000090239e+01,3.000000000400620870e+00,9.999999999980294874e+00,6.600000000000511013e-01,1.569999999999698082e+00,2.869999999999988631e+03,-2.175000000000259615e+00,-4.945000000000400853e+00,1.342172412164156725e+01,-2.183377351079618389e+00
1.999999999999969802e+01,3.000000000435633307e+00,9.999999999994720667e+00,6.599999999999576206e-01,1.570000000000294049e+00,2.869999999999993179e+03,-2.174999999999709832e+00,-4.944999999999680540e+00,1.341391759395069982e+01,-2.181189774907659640e+00
1.999999999999989697e+01,3.000000001912146441e+00,1.000000000000362732e+01,6.599999999999738298e-01,1.570000000000122631e+00,2.869999999999969987e+03,-2.174999999999900790e+00,-4.944999999999884821e+00,1.340641090614631992e+01,-2.184991283858925382e+00
2.000000000000220624e+01,3.000000004115974672e+00,9.999999999972992271e+00,6.600000000001517986e-01,1.569999999999107221e+00,2.869999999999989541e+03,-2.175000000000875566e+00,-4.945000000001098073e+00,1.341328989606538968e+01,-2.184521806230296903e+00
2.000000000000217781e+01,3.000000003628635614e+00,1.000000000000851941e+01,6.600000000001571276e-01,1.569999999999113660e+00,2.869999999999964075e+03,-2.175000000000776534e+00,-4.945000000001289031e+00,1.341483988458879928e+01,-2.193703393920474642e+00
2.000000000000227374e+01,3.000000003899407464e+00,9.999999999987164045e+00,6.600000000001262634e-01,1.569999999998989759e+00,2.869999999999979536e+03,-2.175000000001009681e+00,-4.945000000001148699e+00,1.342264393368678199e+01,-2.194817297389642707e+00
2.000000000000119371e+01,3.000000004802822584e+00,9.999999999988981259e+00,6.600000000000552092e-01,1.569999999999502904e+00,2.869999999999995453e+03,-2.175000000000521183e+00,-4.945000000000446150e+00,1.341608839483765969e+01,-2.169138248469961727e+00
1.999999999999916156e+01,3.000000003337781163e+00,1.000000000002273737e+01,6.599999999999136557e-01,1.570000000000458362e+00,2.870000000000001819e+03,-2.174999999999619682e+00,-4.944999999999403428e+00,1.341345283013709988e+01,-2.173339406126238771e+00
1.999999999999938538e+01,3.000000000686000146e+00,1.000000000000024691e+01,6.599999999999325295e-01,1.570000000000420615e+00,2.870000000000000909e+03,-2.174999999999644107e+00,-4.944999999999482476e+00,1.342308489394656590e+01,-2.167904947589992748e+00
1.999999999999892353e+01,2.999999999864046973e+00,9.999999999998333777e+00,6.599999999998883426e-01,1.570000000000526530e+00,2.869999999999983174e+03,-2.174999999999496669e+00,-4.944999999999337703e+00,1.341245107375659984e+01,-2.168704398711905679e+00
2.000000000000261835e+01,3.000000001501652580e+00,9.999999999995317523e+00,6.600000000001431388e-01,1.569999999998858531e+00,2.869999999999982720e+03,-2.175000000001082956e+00,-4.945000000001267715e+00,1.340275326626058572e+01,-2.188810094052283439e+00
2.000000000000192912e+01,3.000000003618873201e+00,1.000000000003098322e+01,6.600000000001118305e-01,1.569999999999179385e+00,2.869999999999980901e+03,-2.175000000000737010e+00,-4.945000000000907114e+00,1.340920607358623862e+01,-2.187024227641646945e+00
2.000000000000051870e+01,3.000000003889540245e+00,1.000000000004041745e+01,6.600000000000244560e-01,1.569999999999825535e+00,2.869999999999998181e+03,-2.175000000000191669e+00,-4.945000000000096207e+00,1.341096750013142724e+01,-2.173149049935611643e+00
2.000000000000087397e+01,3.000000001838210473e+00,1.000000000002299849e+01,6.600000000000644240e-01,1.569999999999645013e+00,2.869999999999979991e+03,-2.175000000000333777e+00,-4.945000000000357332e+00,1.340049995636511504e+01,-2.156893809499066172e+00
2.000000000000252243e+01,3.000000003679237803e+00,9.999999999984217069e+00,6.600000000001668976e-01,1.569999999998773266e+00,2.869999999999957708e+03,-2.175000000001202860e+00,-4.945000000001365414e+00,1.340493167843449385e+01,-2.179941921546447503e+00
1.999999999999860378e+01,2.999999999556763441e+00,9.999999999991013411e+00,6.599999999999058842e-01,1.570000000000750573e+00,2.870000000000002728e+03,-2.174999999999302158e+00,-4.944999999999148521e+00,1.341472963180636313e+01,-2.186719436852586185e+00
1.999999999999997868e+01,3.000000001586105025e+00,1.000000000004022738e+01,6.599999999999932587e-01,1.570000000000168150e+00,2.869999999999994998e+03,-2.174999999999816414e+00,-4.944999999999979856e+00,1.342050622438570251e+01,-2.181385141108415304e+00
1.999999999999929656e+01,3.000000002218858430e+00,9.999999999988311572e+00,6.599999999999559552e-01,1.570000000000203677e+00,2.869999999999957254e+03,-2.174999999999777778e+00,-4.944999999999756035e+00,1.340104419480348419e+01,-2.181014976697603469e+00
1.999999999999976552e+01,3.000000003847597796e+00,9.999999999973955056e+00,6.599999999999764944e-01,1.570000000000076890e+00,2.869999999999972715e+03,-2.174999999999937650e+00,-4.944999999999932783e+00,1.341096564949313752e+01,-2.171134739809489123e+00
1.999999999999918998e+01,3.000000001685853235e+00,9.999999999985753618e+00,6.599999999999536238e-01,1.570000000000479456e+00,2.869999999999985448e+03,-2.174999999999501998e+00,-4.944999999999579288e+00,1.340163078584884104e+01,-2.183579180703973499e+00
1.999999999999947420e+01,3.000000005348376408e+00,9.999999999998280487e+00,6.599999999999355271e-01,1.570000000000291607e+00,2.869999999999984084e+03,-2.174999999999732481e+00,-4.944999999999629026e+00,1.341955963067979241e+01,-2.166500018741396083e+00
1.999999999999995026e+01,3.000000001990735132e+00,9.999999999999138467e+00,6.599999999999742739e-01,1.570000000000052243e+00,2.869999999999977717e+03,-2.174999999999929656e+00,-4.944999999999862617e+00,1.341402273526886191e+01,-2.158430722441619043e+00
1.999999999999855049e+01,3.000000002604319871e+00,1.000000000001727329e+01,6.599999999999117684e-01,1.570000000000658869e+00,2.869999999999974079e+03,-2.174999999999354561e+00,-4.944999999999291518e+00,1.341009982555765667e+01,-2.162580710693069008e+00
1.999999999999938538e+01,3.000000001842221486e+00,9.999999999996646238e+00,6.599999999999494049e-01,1.570000000000217222e+00,2.869999999999974534e+03,-2.174999999999792877e+00,-4.944999999999756923e+00,1.340239420487123390e+01,-2.163590736534240833e+00
1.999999999999693401e+01,3.000000000931022370e+00,9.999999999976189713e+00,6.599999999997908651e-01,1.570000000001332108e+00,2.869999999999981810e+03,-2.174999999998723066e+00,-4.944999999998518803e+00,1.340281280787779750e+01,-2.192950879357712601e+00
2.000000000000184031e+01,3.000000004264845810e+00,9.999999999957561059e+00,6.600000000001630118e-01,1.569999999999037943e+00,2.869999999999965439e+03,-2.175000000000897327e+00,-4.945000000001242846e+00,1.339761206616666200e+01,-2.167412889649634078e+00
2.000000000000207123e+01,3.000000004367185724e+00,9.999999999973759657e+00,6.600000000001189360e-01,1.569999999999097673e+00,2.869999999999990905e+03,-2.175000000000850253e+00,-4.945000000000971063e+00,1.340867684082558497e+01,-2.192588065763774186e+00
2.000000000000003197e+01,3.000000001794254967e+00,9.999999999991446842e+00,6.600000000000031397e-01,1.570000000000209450e+00,2.869999999999994998e+03,-2.174999999999772893e+00,-4.944999999999891038e+00,1.341621609095301260e+01,-2.166032286015113328e+00
1.999999999999953104e+01,3.000000000304629211e+00,9.999999999982019716e+00,6.599999999999499600e-01,1.570000000000300044e+00,2.869999999999974534e+03,-2.174999999999721378e+00,-4.944999999999557083e+00,1.340734031586266894e+01,-2.168060037427819164e+00
2.000000000000081357e+01,3.000000000110457865e+00,9.999999999935646144e+00,6.600000000000666445e-01,1.569999999999649676e+00,2.869999999999969987e+03,-2.175000000000314238e+00,-4.945000000000434603e+00,1.341130799166539234e+01,-2.157274691785974419e+00
2.000000000000247624e+01,3.000000002595615722e+00,9.999999999955774044e+00,6.600000000001932099e-01,1.569999999998886731e+00,2.869999999999974534e+03,-2.175000000001052758e+00,-4.945000000001360085e+00,1.341791893270999481e+01,-2.169879878419242125e+00
2.000000000000120082e+01,3.000000004315237057e+00,1.000000000000031619e+01,6.600000000000660894e-01,1.569999999999524221e+00,2.870000000000003183e+03,-2.175000000000416822e+00,-4.945000000000645990e+00,1.340420639565240890e+01,-2.186565559452592122e+00
2.000000000000102318e+01,3.000000005682115667e+00,9.999999999978543386e+00,6.600000000000614264e-01,1.569999999999415197e+00,2.869999999999962256e+03,-2.175000000000569145e+00,-4.945000000000479012e+00,1.340351779488381112e+01,-2.173280822282888547e+00
1.999999999999890576e+01,3.000000003890203715e+00,9.999999999983399945e+00,6.599999999999131006e-01,1.570000000000353335e+00,2.869999999999954071e+03,-2.174999999999648548e+00,-4.944999999999368789e+00,1.339526701180170676e+01,-2.163805667108968045e+00
1.999999999999627320e+01,2.999999997654642758e+00,1.000000000001074696e+01,6.599999999997046007e-01,1.570000000001729568e+00,2.869999999999994088e+03,-2.174999999998313616e+00,-4.944999999997938822e+00,1.340343435438371422e+01,-2.171191121668855306e+00
2.000000000000011369e+01,3.000000000584514659e+00,1.000000000000101608e+01,6.600000000000115774e-01,1.569999999999979412e+00,2.869999999999972260e+03,-2.174999999999963851e+00,-4.945000000000112195e+00,1.341378195537642171e+01,-2.162185509231073333e+00
2.000000000000012079e+01,3.000000002667802423e+00,9.999999999977614351e+00,6.600000000000162403e-01,1.569999999999874385e+00,2.869999999999971351e+03,-2.175000000000079314e+00,-4.945000000000218776e+00,1.339155191700734626e+01,-2.157526003125099123e+00
1.999999999999934630e+01,3.000000002350374562e+00,9.999999999979335641e+00,6.599999999999640599e-01,1.570000000000240536e+00,2.869999999999983174e+03,-2.174999999999750688e+00,-4.944999999999848406e+00,1.340244516806148489e+01,-2.170066349199395006e+00
2.000000000000199307e+01,3.000000001417105988e+00,9.999999999984536814e+00,6.600000000001438050e-01,1.569999999999241114e+00,2.869999999999972260e+03,-2.175000000000657074e+00,-4.945000000001058105e+00,1.339846270350112789e+01,-2.175452558797718705e+00
1.999999999999753797e+01,2.999999999131911732e+00,1.000000000002307665e+01,6.599999999997963052e-01,1.570000000001145812e+00,2.870000000000004093e+03,-2.174999999998876277e+00,-4.944999999998534790e+00,1.340323652588084791e+01,-2.146764605475725229e+00
1.999999999999575095e+01,2.999999996402901825e+00,1.000000000004308909e+01,6.599999999996505329e-01,1.570000000002027551e+00,2.870000000000023192e+03,-2.174999999998028066e+00,-4.944999999997438778e+00,1.341311258861603584e+01,-2.160395203705983480e+00
2.000000000000044054e+01,3.000000002331943971e+00,9.999999999998468780e+00,6.600000000000433298e-01,1.570000000000079998e+00,2.869999999999988177e+03,-2.174999999999859934e+00,-4.945000000000217000e+00,1.341709305064725477e+01,-2.184598602128260847e+00
2.000000000000120082e+01,3.000000002222849460e+00,9.999999999929372052e+00,6.600000000001098321e-01,1.569999999999553086e+00,2.869999999999977717e+03,-2.175000000000349321e+00,-4.945000000000746354e+00,1.342316754838972059e+01,-2.161119442815112368e+00
2.000000000000203926e+01,3.000000004160082501e+00,9.999999999976999732e+00,6.600000000001388090e-01,1.569999999999175611e+00,2.869999999999970441e+03,-2.175000000000799627e+00,-4.945000000001006590e+00,1.341398453321956374e+01,-2.163590437096572838e+00
2.000000000000009592e+01,3.000000003414247995e+00,9.999999999969412912e+00,6.600000000000173506e-01,1.569999999999998064e+00,2.869999999999962256e+03,-2.174999999999956302e+00,-4.945000000000198348e+00,1.339711636071626444e+01,-2.170098928609138333e+00
1.999999999999654676e+01,2.999999999310865029e+00,9.999999999989059418e+00,6.599999999997483435e-01,1.570000000001689378e+00,2.870000000000005912e+03,-2.174999999998382449e+00,-4.944999999998104911e+00,1.341066895726471841e+01,-2.154426121311988407e+00
2.000000000000060751e+01,3.000000001199111033e+00,9.999999999969142905e+00,6.600000000000294520e-01,1.569999999999789786e+00,2.869999999999984993e+03,-2.175000000000186784e+00,-4.945000000000388418e+00,1.340112544820567919e+01,-2.170476618817197778e+00
2.000000000000103384e+01,3.000000003850545216e+00,1.000000000000403588e+01,6.600000000000645350e-01,1.569999999999566187e+00,2.869999999999979082e+03,-2.175000000000442579e+00,-4.945000000000513651e+00,1.341034343498524173e+01,-2.175652826865262401e+00
1.999999999999972644e+01,3.000000000242854625e+00,9.999999999985403676e+00,6.599999999999642819e-01,1.570000000000223883e+00,2.869999999999994543e+03,-2.174999999999823963e+00,-4.944999999999812879e+00,1.340486008458821665e+01,-2.181580240874273269e+00
1.999999999999997868e+01,2.999999999900711423e+00,1.000000000000037836e+01,6.600000000000066924e-01,1.570000000000086438e+00,2.870000000000001364e+03,-2.174999999999853717e+00,-4.945000000000055351e+00,1.340590234831666550e+01,-2.185601687494110656e+00
1.999999999999909051e+01,3.000000002839557034e+00,1.000000000000864375e+01,6.599999999999266453e-01,1.570000000000515872e+00,2.869999999999993634e+03,-2.174999999999479794e+00,-4.944999999999373230e+00,1.340404094587154127e+01,-2.186761904825627045e+00
1.999999999999960920e+01,3.000000000364811736e+00,1.000000000003931966e+01,6.599999999999751621e-01,1.570000000000270068e+00,2.869999999999969987e+03,-2.174999999999655653e+00,-4.944999999999742712e+00,1.341292641046933021e+01,-2.182449098054798142e+00
1.999999999999954881e+01,2.999999999892718705e+00,1.000000000001208988e+01,6.599999999999548450e-01,1.570000000000281171e+00,2.870000000000005002e+03,-2.174999999999682743e+00,-4.944999999999743601e+00,1.340360828952169570e+01,-2.180332447649854899e+00
2.000000000000089173e+01,3.000000002211013594e+00,9.999999999982312815e+00,6.600000000000589839e-01,1.569999999999601048e+00,2.869999999999976808e+03,-2.175000000000369305e+00,-4.945000000000451479e+00,1.340328649897698909e+01,-2.174598862365280993e+00
