2.000000000000029132e+01,2.999999999058104105e+00,9.999999999996333599e+00,6.599999999999971445e-01,1.569999999999967200e+00,2.869999999999988177e+03,-2.175000000000046896e+00,-4.945000000000006501e+00,1.339566715003592456e+01,-2.154315653737172820e+00
1.999999999999976552e+01,2.999999999341375290e+00,1.000000000002424549e+01,6.599999999999583977e-01,1.570000000000238982e+00,2.869999999999988631e+03,-2.174999999999785327e+00,-4.944999999999735607e+00,1.331393227480119101e+01,-2.239769770368167379e+00
1.999999999999974776e+01,3.000000000933836120e+00,1.000000000001750067e+01,6.599999999999452971e-01,1.570000000000288276e+00,2.869999999999986358e+03,-2.174999999999760902e+00,-4.944999999999605933e+00,1.346918338443086505e+01,-2.129319233833617986e+00
2.000000000000003908e+01,3.000000000678940459e+00,1.000000000001137401e+01,6.599999999999757172e-01,1.570000000000180806e+00,2.869999999999988177e+03,-2.174999999999840394e+00,-4.944999999999864393e+00,1.339041149985231982e+01,-2.249111572040303209e+00
2.000000000000006750e+01,3.000000000064096284e+00,9.999999999999836575e+00,6.599999999999763833e-01,1.570000000000071783e+00,2.869999999999981810e+03,-2.174999999999953637e+00,-4.944999999999839524e+00,1.338945970829049870e+01,-2.149759539008933462e+00
2.000000000000025224e+01,3.000000001636089930e+00,1.000000000000468425e+01,6.600000000000141309e-01,1.569999999999938112e+00,2.869999999999976808e+03,-2.175000000000051337e+00,-4.945000000000130846e+00,1.342189758115141451e+01,-2.162429629573964451e+00
1.999999999999935696e+01,3.000000002103423213e+00,1.000000000001095124e+01,6.599999999999415223e-01,1.570000000000395968e+00,2.869999999999976808e+03,-2.174999999999624567e+00,-4.944999999999509122e+00,1.337103845298392635e+01,-2.218745926799809087e+00
1.999999999999957723e+01,2.999999999035920961e+00,1.000000000001894307e+01,6.599999999999708322e-01,1.570000000000177698e+00,2.869999999999982265e+03,-2.174999999999830180e+00,-4.944999999999766693e+00,1.343626001035300455e+01,-2.175997572073678388e+00
1.999999999999995026e+01,2.999999999560789554e+00,1.000000000000810907e+01,6.599999999999980327e-01,1.570000000000031593e+00,2.869999999999978172e+03,-2.174999999999975842e+00,-4.944999999999946105e+00,1.337422971209876899e+01,-2.181253900020271086e+00
1.999999999999998224e+01,2.999999998995269923e+00,1.000000000000801492e+01,6.599999999999855982e-01,1.570000000000044915e+00,2.870000000000001819e+03,-2.174999999999975842e+00,-4.944999999999916795e+00,1.326409078474475578e+01,-2.284254599446236433e+00
2.000000000000001776e+01,3.000000000349472895e+00,1.000000000002247624e+01,6.600000000000132427e-01,1.569999999999977192e+00,2.869999999999997726e+03,-2.175000000000027800e+00,-4.945000000000071338e+00,1.341017436015079589e+01,-2.210203581874224277e+00
1.999999999999841194e+01,2.999999998747697738e+00,1.000000000002239808e+01,6.599999999999197620e-01,1.570000000000614904e+00,2.870000000000003183e+03,-2.174999999999393197e+00,-4.944999999999343032e+00,1.341891554969572908e+01,-2.159546086869400305e+00
1.999999999999957723e+01,3.000000000314484883e+00,1.000000000006085266e+01,6.599999999999798250e-01,1.570000000000209894e+00,2.869999999999995453e+03,-2.174999999999799982e+00,-4.944999999999804885e+00,1.337069711653573911e+01,-2.244447697599555092e+00
1.999999999999971578e+01,2.999999997821079400e+00,1.000000000003906209e+01,6.600000000000125766e-01,1.570000000000003837e+00,2.870000000000003183e+03,-2.174999999999989608e+00,-4.945000000000037588e+00,1.325330307609521441e+01,-2.233938824254235289e+00
2.000000000000033751e+01,3.000000000163146385e+00,1.000000000008299672e+01,6.600000000000590950e-01,1.569999999999664331e+00,2.870000000000001819e+03,-2.175000000000312017e+00,-4.945000000000416840e+00,1.337044961628372164e+01,-2.128349599574252071e+00
1.999999999999953815e+01,3.000000000776148923e+00,1.000000000000987654e+01,6.600000000000029177e-01,1.570000000000060014e+00,2.869999999999998636e+03,-2.174999999999917222e+00,-4.944999999999994955e+00,1.338238405799272357e+01,-2.158587215953922112e+00
1.999999999999987210e+01,2.999999999382845228e+00,1.000000000002521183e+01,6.600000000000338929e-01,1.569999999999886597e+00,2.870000000000002274e+03,-2.175000000000084643e+00,-4.945000000000261409e+00,1.338336462877623312e+01,-2.122951699428234473e+00
2.000000000000068212e+01,3.000000003017881500e+00,9.999999999958912866e+00,6.600000000000381117e-01,1.569999999999699192e+00,2.869999999999999091e+03,-2.175000000000303135e+00,-4.945000000000278284e+00,1.331520124815298978e+01,-2.275517684738788127e+00
2.000000000000046896e+01,3.000000002722763348e+00,9.999999999945845985e+00,6.600000000000206812e-01,1.569999999999846407e+00,2.870000000000000909e+03,-2.175000000000165468e+00,-4.945000000000175255e+00,1.327041051414104089e+01,-2.368128842747021512e+00
1.999999999999931788e+01,3.000000000488816543e+00,9.999999999981541876e+00,6.599999999999939249e-01,1.570000000000085549e+00,2.869999999999986358e+03,-2.174999999999907008e+00,-4.944999999999927454e+00,1.325399193419658950e+01,-2.221516531348505907e+00
2.000000000000061462e+01,3.000000002731242343e+00,9.999999999971702636e+00,6.600000000000713074e-01,1.569999999999580842e+00,2.869999999999974079e+03,-2.175000000000394174e+00,-4.945000000000485230e+00,1.330860796044974848e+01,-2.304879246741646348e+00
2.000000000000036948e+01,2.999999999837992704e+00,9.999999999977276843e+00,6.600000000000547651e-01,1.569999999999681872e+00,2.869999999999978172e+03,-2.175000000000297362e+00,-4.945000000000366214e+00,1.334077854428848475e+01,-2.247872104911152746e+00
2.000000000000015277e+01,3.000000000683992418e+00,9.999999999964691355e+00,6.600000000000386668e-01,1.569999999999822426e+00,2.869999999999979991e+03,-2.175000000000164579e+00,-4.945000000000277396e+00,1.334812132149989772e+01,-2.256399306015280271e+00
1.999999999999872813e+01,2.999999998450293415e+00,9.999999999986025401e+00,6.599999999999909273e-01,1.570000000000100870e+00,2.869999999999992269e+03,-2.174999999999875033e+00,-4.944999999999853735e+00,1.329278662913776010e+01,-2.217588416797709794e+00
2.000000000000039435e+01,3.000000000498054487e+00,9.999999999975292653e+00,6.600000000000054712e-01,1.569999999999913909e+00,2.869999999999991815e+03,-2.175000000000099298e+00,-4.945000000000067786e+00,1.333207555105270004e+01,-1.960886548296385312e+00
2.000000000000025224e+01,3.000000000821886115e+00,9.999999999978509635e+00,6.600000000000076916e-01,1.569999999999944329e+00,2.869999999999992269e+03,-2.175000000000058886e+00,-4.945000000000069562e+00,1.330174287067935879e+01,-1.998615572840013677e+00
1.999999999999819877e+01,2.999999998547913993e+00,9.999999999954964025e+00,6.599999999998819034e-01,1.570000000000778106e+00,2.869999999999997726e+03,-2.174999999999254197e+00,-4.944999999999089901e+00,1.323663573177026898e+01,-2.020310980615342089e+00
1.999999999999899813e+01,2.999999998807397539e+00,9.999999999963005592e+00,6.599999999999242029e-01,1.570000000000460139e+00,2.869999999999993179e+03,-2.174999999999564171e+00,-4.944999999999452278e+00,1.319118485877473290e+01,-2.044556230704530631e+00
2.000000000000008527e+01,3.000000002665614396e+00,9.999999999972898124e+00,6.600000000000203482e-01,1.569999999999892593e+00,2.869999999999990450e+03,-2.175000000000088640e+00,-4.945000000000116636e+00,1.344324591969308891e+01,-2.419255000156540714e+00
2.000000000000118661e+01,3.000000001302216113e+00,9.999999999983195664e+00,6.600000000000979528e-01,1.569999999999377893e+00,2.869999999999984084e+03,-2.175000000000584244e+00,-4.945000000000685958e+00,1.343173775567950301e+01,-2.379612214652138569e+00
2.000000000000129319e+01,3.000000003191110487e+00,1.000000000001529088e+01,6.600000000000753042e-01,1.569999999999532214e+00,2.869999999999976808e+03,-2.175000000000471001e+00,-4.945000000000574047e+00,1.324476926080421357e+01,-2.298167957845961507e+00
2.000000000000041922e+01,3.000000002843221214e+00,1.000000000001055689e+01,6.600000000000133538e-01,1.569999999999933005e+00,2.869999999999973625e+03,-2.175000000000086420e+00,-4.945000000000067786e+00,1.327041449961998332e+01,-2.301521199286341801e+00
2.000000000000052580e+01,3.000000003348774591e+00,1.000000000000618883e+01,6.600000000000191269e-01,1.569999999999879714e+00,2.869999999999980446e+03,-2.175000000000134381e+00,-4.945000000000133511e+00,1.334277026047416292e+01,-2.270523379037444389e+00
2.000000000000139266e+01,3.000000003311587893e+00,1.000000000001572076e+01,6.600000000000606493e-01,1.569999999999503570e+00,2.869999999999980446e+03,-2.175000000000512745e+00,-4.945000000000505658e+00,1.326961809310592599e+01,-2.329333688457567497e+00
2.000000000000044764e+01,3.000000001945150707e+00,1.000000000000986589e+01,6.600000000000125766e-01,1.569999999999908136e+00,2.869999999999983629e+03,-2.175000000000097522e+00,-4.945000000000093543e+00,1.323999108356938059e+01,-2.321792200606901169e+00
2.000000000000050804e+01,3.000000003921301506e+00,1.000000000000750866e+01,6.600000000000233458e-01,1.569999999999849960e+00,2.869999999999979991e+03,-2.175000000000162803e+00,-4.945000000000173479e+00,1.332544843645127841e+01,-2.282444146822701914e+00
1.999999999999962697e+01,3.000000003326794840e+00,1.000000000000198774e+01,6.599999999999777156e-01,1.570000000000227436e+00,2.869999999999982720e+03,-2.174999999999772449e+00,-4.944999999999783569e+00,1.331995791647280925e+01,-2.166746995551574351e+00
2.000000000000068923e+01,3.000000003488474842e+00,1.000000000001659650e+01,6.600000000000469935e-01,1.569999999999713181e+00,2.869999999999984539e+03,-2.175000000000288036e+00,-4.945000000000327134e+00,1.329891033180915372e+01,-2.345466701450299674e+00
1.999999999999982236e+01,3.000000001230497926e+00,1.000000000001744382e+01,6.599999999999840439e-01,1.570000000000120188e+00,2.869999999999985448e+03,-2.174999999999887912e+00,-4.944999999999883933e+00,1.337169640957520578e+01,-2.205365881260492156e+00
2.000000000000095213e+01,3.000000003178467711e+00,1.000000000003699796e+01,6.600000000000614264e-01,1.569999999999637907e+00,2.869999999999978172e+03,-2.175000000000343547e+00,-4.945000000000471019e+00,1.336258861107481977e+01,-2.309536595109437318e+00
1.999999999999991473e+01,3.000000004931976161e+00,1.000000000000132161e+01,6.600000000000264544e-01,1.569999999999944773e+00,2.869999999999981355e+03,-2.175000000000041123e+00,-4.945000000000097984e+00,1.334137282647965606e+01,-2.272108929819350198e+00
1.999999999999939604e+01,3.000000004081865956e+00,1.000000000000314060e+01,6.599999999999718314e-01,1.570000000000211227e+00,2.869999999999984539e+03,-2.174999999999799538e+00,-4.944999999999764029e+00,1.320895851132325483e+01,-2.353339297116430195e+00
1.999999999999903721e+01,2.999999999960117236e+00,1.000000000002590106e+01,6.599999999999863753e-01,1.570000000000140838e+00,2.869999999999996817e+03,-2.174999999999847500e+00,-4.944999999999826201e+00,1.330659273003866439e+01,-2.206492992850153989e+00
1.999999999999914735e+01,3.000000001470006339e+00,1.000000000000940936e+01,6.599999999999741629e-01,1.570000000000132179e+00,2.869999999999997726e+03,-2.174999999999878142e+00,-4.944999999999742712e+00,1.324561445672813598e+01,-2.314113634525010621e+00
1.999999999999962697e+01,3.000000001259325977e+00,1.000000000001919176e+01,6.600000000000365574e-01,1.569999999999835749e+00,2.869999999999994543e+03,-2.175000000000136158e+00,-4.945000000000174367e+00,1.328593787303231544e+01,-2.242519751566808051e+00
1.999999999999890221e+01,3.000000000278815637e+00,1.000000000004350120e+01,6.599999999999845990e-01,1.570000000000117968e+00,2.870000000000004547e+03,-2.174999999999871481e+00,-4.944999999999756035e+00,1.326680949509194285e+01,-2.287115195917926780e+00
1.999999999999886313e+01,3.000000001919292725e+00,1.000000000004106759e+01,6.599999999999600631e-01,1.570000000000301821e+00,2.870000000000001364e+03,-2.174999999999687184e+00,-4.944999999999578399e+00,1.327232947730577450e+01,-2.318992824829471555e+00
1.999999999999974065e+01,3.000000000591948712e+00,1.000000000005254641e+01,6.600000000000144640e-01,1.569999999999928786e+00,2.870000000000001364e+03,-2.175000000000058442e+00,-4.945000000000028706e+00,1.325475179118915570e+01,-2.361169465784924704e+00
1.999999999999975131e+01,3.000000005834577710e+00,1.000000000004803802e+01,6.600000000000026956e-01,1.569999999999934781e+00,2.869999999999995453e+03,-2.175000000000051781e+00,-4.945000000000010942e+00,1.338797736544518457e+01,-2.080588779465834648e+00
1.999999999999958433e+01,3.000000006725177304e+00,1.000000000005675105e+01,6.599999999999850431e-01,1.570000000000031815e+00,2.869999999999996362e+03,-2.174999999999965183e+00,-4.944999999999900808e+00,1.343587958931300363e+01,-2.039920216469221614e+00
1.999999999999977973e+01,3.000000004718601510e+00,9.999999999996250111e+00,6.600000000000106892e-01,1.569999999999896811e+00,2.869999999999997272e+03,-2.175000000000093081e+00,-4.945000000000094431e+00,1.340120112226208349e+01,-2.128402722507672706e+00
2.000000000000002132e+01,3.000000004830137623e+00,1.000000000001821299e+01,6.600000000000211253e-01,1.569999999999879048e+00,2.869999999999995907e+03,-2.175000000000098854e+00,-4.945000000000204565e+00,1.335052298210991673e+01,-2.254246521060158326e+00
1.999999999999976197e+01,3.000000004565158918e+00,1.000000000002593659e+01,6.600000000000095790e-01,1.569999999999941442e+00,2.869999999999999091e+03,-2.175000000000026468e+00,-4.945000000000086438e+00,1.335572025604776414e+01,-2.237455094404418698e+00
1.999999999999978328e+01,3.000000003366274370e+00,1.000000000003594636e+01,6.600000000000175726e-01,1.569999999999931894e+00,2.869999999999999091e+03,-2.175000000000031353e+00,-4.945000000000164597e+00,1.337474538607134811e+01,-2.202709349034973840e+00
1.999999999999970868e+01,3.000000003462273135e+00,1.000000000004749268e+01,6.600000000000109113e-01,1.569999999999901030e+00,2.869999999999997726e+03,-2.175000000000076206e+00,-4.945000000000083773e+00,1.343719390132265090e+01,-2.086490480277330750e+00
2.000000000000032685e+01,3.000000005061342900e+00,1.000000000004035527e+01,6.600000000000161293e-01,1.569999999999806661e+00,2.869999999999999091e+03,-2.175000000000182343e+00,-4.945000000000195683e+00,1.335738613603770375e+01,-2.163171831401405232e+00
2.000000000000003553e+01,3.000000005805997016e+00,1.000000000004409806e+01,6.599999999999875966e-01,1.570000000000038476e+00,2.870000000000000000e+03,-2.174999999999961187e+00,-4.944999999999946994e+00,1.333286217268102192e+01,-2.209357904983654031e+00
2.000000000000106581e+01,3.000000004926957509e+00,1.000000000005336886e+01,6.600000000000575406e-01,1.569999999999597051e+00,2.870000000000000000e+03,-2.175000000000376854e+00,-4.945000000000450591e+00,1.339833163176819752e+01,-2.140113565835063181e+00
2.000000000000075318e+01,3.000000007062615826e+00,1.000000000003815259e+01,6.600000000000160183e-01,1.569999999999815987e+00,2.870000000000000455e+03,-2.175000000000179234e+00,-4.945000000000185025e+00,1.333439951711028826e+01,-2.224964912609885381e+00
2.000000000000099831e+01,3.000000004369014484e+00,1.000000000006662759e+01,6.600000000000344480e-01,1.569999999999673879e+00,2.870000000000000455e+03,-2.175000000000316458e+00,-4.945000000000289830e+00,1.347907951187311326e+01,-2.076823001624025000e+00
2.000000000000076383e+01,3.000000006216431370e+00,1.000000000006266099e+01,6.600000000000183498e-01,1.569999999999787565e+00,2.870000000000003638e+03,-2.175000000000210765e+00,-4.945000000000221441e+00,1.341719031677315321e+01,-2.156850734193045849e+00
2.000000000000039790e+01,3.000000004570961387e+00,1.000000000004530420e+01,6.599999999999909273e-01,1.569999999999940776e+00,2.870000000000001819e+03,-2.175000000000069544e+00,-4.945000000000055351e+00,1.345546731318356670e+01,-2.092266887904641770e+00
2.000000000000097700e+01,3.000000004662229269e+00,1.000000000004287770e+01,6.600000000000267875e-01,1.569999999999743601e+00,2.869999999999996362e+03,-2.175000000000251621e+00,-4.945000000000329798e+00,1.339675316815264594e+01,-2.186924776359865596e+00
2.000000000000143530e+01,2.999999999224677971e+00,1.000000000003309353e+01,6.600000000000754152e-01,1.569999999999500462e+00,2.869999999999992269e+03,-2.175000000000510969e+00,-4.945000000000542961e+00,1.357231249358687108e+01,-2.019138273761598157e+00
1.999999999999958789e+01,3.000000000612711215e+00,1.000000000001841016e+01,6.599999999999575095e-01,1.570000000000337348e+00,2.869999999999996817e+03,-2.174999999999676525e+00,-4.944999999999618367e+00,1.359042545019996595e+01,-2.001654025520531732e+00
2.000000000000023093e+01,2.999999999376961934e+00,1.000000000000790656e+01,6.599999999999590639e-01,1.570000000000189244e+00,2.869999999999987267e+03,-2.174999999999860378e+00,-4.944999999999713403e+00,1.355823893482966902e+01,-2.032698903303657989e+00
2.000000000000106581e+01,3.000000000058388405e+00,1.000000000000726885e+01,6.600000000000187939e-01,1.569999999999817542e+00,2.869999999999984993e+03,-2.175000000000219202e+00,-4.945000000000191243e+00,1.356879957077327781e+01,-1.994664853306873598e+00
2.000000000000011369e+01,2.999999999458431876e+00,9.999999999990553334e+00,6.599999999999763833e-01,1.570000000000171925e+00,2.869999999999998181e+03,-2.174999999999831513e+00,-4.944999999999867057e+00,1.350053411766614886e+01,-2.306120002671966152e+00
1.999999999999966249e+01,3.000000000282946111e+00,9.999999999967849718e+00,6.599999999999454081e-01,1.570000000000358442e+00,2.869999999999992269e+03,-2.174999999999652989e+00,-4.944999999999586393e+00,1.350459277933891933e+01,-2.284258251346481305e+00
2.000000000000018119e+01,3.000000002399971333e+00,9.999999999968739672e+00,6.600000000000071365e-01,1.569999999999915463e+00,2.869999999999983629e+03,-2.175000000000089528e+00,-4.945000000000050910e+00,1.344759041323387549e+01,-2.154101709145621157e+00
2.000000000000049383e+01,3.000000000849838866e+00,9.999999999936983741e+00,6.600000000000402212e-01,1.569999999999726281e+00,2.869999999999980446e+03,-2.175000000000262279e+00,-4.945000000000316476e+00,1.335727393347758962e+01,-2.268498071153881135e+00
1.999999999999986144e+01,3.000000004001852627e+00,9.999999999955250019e+00,6.599999999999998090e-01,1.570000000000039364e+00,2.869999999999989996e+03,-2.174999999999959854e+00,-4.944999999999971863e+00,1.340999906368256234e+01,-2.226993285103834541e+00
2.000000000000042277e+01,3.000000001447021614e+00,9.999999999970668796e+00,6.600000000000448841e-01,1.569999999999776241e+00,2.869999999999984539e+03,-2.175000000000211653e+00,-4.945000000000288054e+00,1.344330789323752029e+01,-2.119446409213075810e+00
2.000000000000038014e+01,3.000000001803021288e+00,1.000000000000097167e+01,6.600000000000278977e-01,1.569999999999857510e+00,2.869999999999986358e+03,-2.175000000000139266e+00,-4.945000000000169926e+00,1.344590663945432318e+01,-2.156942828160266501e+00
1.999999999999975842e+01,3.000000003264809312e+00,9.999999999967082331e+00,6.599999999999875966e-01,1.570000000000115525e+00,2.869999999999988631e+03,-2.174999999999897238e+00,-4.944999999999923901e+00,1.340364275629705304e+01,-2.135323853425703522e+00
2.000000000000018119e+01,3.000000002255863052e+00,9.999999999969681141e+00,6.599999999999809353e-01,1.570000000000084217e+00,2.869999999999988631e+03,-2.174999999999954525e+00,-4.944999999999894591e+00,1.336351930509905728e+01,-2.169853533483690367e+00
1.999999999999955591e+01,3.000000003065589116e+00,9.999999999973862685e+00,6.599999999999631717e-01,1.570000000000292495e+00,2.869999999999981355e+03,-2.174999999999731148e+00,-4.944999999999650342e+00,1.342371721391770478e+01,-2.179686254603258266e+00
1.999999999999991829e+01,3.000000001260411331e+00,9.999999999960877517e+00,6.599999999999994760e-01,1.570000000000077334e+00,2.869999999999980901e+03,-2.174999999999921663e+00,-4.944999999999976303e+00,1.340385132127259382e+01,-2.138004158162612356e+00
1.999999999999932854e+01,3.000000001593459587e+00,9.999999999960172303e+00,6.599999999999547340e-01,1.570000000000319806e+00,2.869999999999984084e+03,-2.174999999999697398e+00,-4.944999999999602380e+00,1.336606002846688668e+01,-2.132959684200182782e+00
2.000000000000032685e+01,3.000000001880538836e+00,9.999999999947164042e+00,6.600000000000219025e-01,1.569999999999868612e+00,2.869999999999980901e+03,-2.175000000000137490e+00,-4.945000000000106866e+00,1.334358167653884308e+01,-2.110100048816912377e+00
2.000000000000029132e+01,3.000000002445286196e+00,9.999999999973855580e+00,6.599999999999985878e-01,1.570000000000035811e+00,2.869999999999989541e+03,-2.174999999999966072e+00,-4.944999999999969198e+00,1.343294190665838350e+01,-2.213052090578261133e+00
2.000000000000029132e+01,3.000000000185585769e+00,1.000000000000280131e+01,6.600000000000151301e-01,1.569999999999996954e+00,2.869999999999990450e+03,-2.174999999999997602e+00,-4.945000000000085549e+00,1.339247737213267442e+01,-2.251249682351024628e+00
1.999999999999993250e+01,2.999999999810442741e+00,9.999999999962328801e+00,6.599999999999773825e-01,1.570000000000175255e+00,2.869999999999987722e+03,-2.174999999999835509e+00,-4.944999999999827089e+00,1.332625903006948143e+01,-2.194646179079270620e+00
2.000000000000047962e+01,2.999999998993129857e+00,9.999999999981650234e+00,6.600000000000126876e-01,1.569999999999921680e+00,2.869999999999991360e+03,-2.175000000000090417e+00,-4.945000000000167262e+00,1.330672492914268723e+01,-2.230558739834272330e+00
1.999999999999999645e+01,2.999999999600219791e+00,1.000000000005964296e+01,6.599999999999663913e-01,1.570000000000187024e+00,2.869999999999997272e+03,-2.174999999999821299e+00,-4.944999999999794227e+00,1.327042586926036982e+01,-2.251432784779672680e+00
2.000000000000039435e+01,2.999999997532112772e+00,1.000000000002975398e+01,6.599999999999658362e-01,1.570000000000087548e+00,2.870000000000000455e+03,-2.174999999999935429e+00,-4.944999999999872387e+00,1.330023635965479123e+01,-2.312691269422809448e+00
2.000000000000093436e+01,2.999999999831251429e+00,1.000000000005848122e+01,6.600000000000042499e-01,1.569999999999839302e+00,2.870000000000000455e+03,-2.175000000000170797e+00,-4.945000000000136176e+00,1.339148725572355580e+01,-2.172186610056500822e+00
2.000000000000008171e+01,3.000000001208921852e+00,1.000000000003561240e+01,6.600000000000365574e-01,1.569999999999810436e+00,2.869999999999994543e+03,-2.175000000000181455e+00,-4.945000000000302265e+00,1.328950919709960488e+01,-2.281523195658597292e+00
1.999999999999869971e+01,3.000000000013506529e+00,1.000000000003567280e+01,6.599999999999510703e-01,1.570000000000429052e+00,2.870000000000004547e+03,-2.174999999999573497e+00,-4.944999999999606821e+00,1.329530348142764673e+01,-2.316109125626949261e+00
1.999999999999951328e+01,3.000000000213999041e+00,1.000000000001744382e+01,6.600000000000101341e-01,1.570000000000056684e+00,2.870000000000000455e+03,-2.174999999999924327e+00,-4.945000000000051799e+00,1.326797386246590094e+01,-2.301955117624073122e+00
1.999999999999869615e+01,3.000000000090780272e+00,1.000000000005157830e+01,6.599999999999580647e-01,1.570000000000403295e+00,2.869999999999998181e+03,-2.174999999999589928e+00,-4.944999999999650342e+00,1.326188790781575122e+01,-2.308479815261143209e+00
2.000000000000025935e+01,2.999999999624165081e+00,1.000000000000447464e+01,6.600000000000068034e-01,1.569999999999908802e+00,2.870000000000000000e+03,-2.175000000000099298e+00,-4.945000000000145945e+00,1.329848745487398354e+01,-2.294009866330178227e+00
2.000000000000038014e+01,2.999999998873473572e+00,1.000000000002500933e+01,6.600000000000230127e-01,1.569999999999845297e+00,2.870000000000002728e+03,-2.175000000000147704e+00,-4.945000000000206342e+00,1.330889942046746732e+01,-2.286429771044464321e+00
1.999999999999972289e+01,2.999999999825059493e+00,1.000000000000413891e+01,6.599999999999605071e-01,1.570000000000189688e+00,2.869999999999998636e+03,-2.174999999999835065e+00,-4.944999999999762252e+00,1.329977900022316639e+01,-2.262897492704757152e+00
2.000000000000002132e+01,3.000000001252311144e+00,9.999999999999648281e+00,6.599999999999898170e-01,1.570000000000037588e+00,2.870000000000003183e+03,-2.174999999999963407e+00,-4.944999999999947882e+00,1.326908021746363353e+01,-2.328526973877797168e+00
1.999999999999958433e+01,2.999999999405156714e+00,1.000000000002640022e+01,6.599999999999892619e-01,1.570000000000120188e+00,2.870000000000003638e+03,-2.174999999999867484e+00,-4.944999999999946105e+00,1.332445548234683841e+01,-2.232094320276422739e+00
1.999999999999965894e+01,3.000000000331367378e+00,1.000000000003829292e+01,6.599999999999900391e-01,1.570000000000071783e+00,2.870000000000003183e+03,-2.174999999999925659e+00,-4.944999999999959428e+00,1.331162630263661306e+01,-2.232404646069537701e+00
1.999999999999860023e+01,2.999999999918259608e+00,1.000000000002405365e+01,6.599999999999178746e-01,1.570000000000554508e+00,2.870000000000004093e+03,-2.174999999999446043e+00,-4.944999999999395435e+00,1.336376142233286402e+01,-2.262236546801743131e+00
2.000000000000029488e+01,3.000000001088911628e+00,1.000000000002292566e+01,6.600000000000511013e-01,1.569999999999724505e+00,2.869999999999996817e+03,-2.175000000000244960e+00,-4.945000000000354667e+00,1.334931566910479184e+01,-2.217059693020425826e+00
2.000000000000081357e+01,3.000000000849477377e+00,1.000000000004162537e+01,6.600000000000730838e-01,1.569999999999575069e+00,2.869999999999993634e+03,-2.175000000000396838e+00,-4.945000000000626450e+00,1.329136872641895017e+01,-2.213690481769320151e+00
2.000000000000044764e+01,3.000000000784685650e+00,1.000000000001686651e+01,6.600000000000544320e-01,1.569999999999698526e+00,2.869999999999997272e+03,-2.175000000000276046e+00,-4.945000000000484341e+00,1.328584133591973071e+01,-2.218140022780241249e+00
2.000000000000022737e+01,3.000000000722001126e+00,1.000000000001507594e+01,6.600000000000488809e-01,1.569999999999821760e+00,2.869999999999992724e+03,-2.175000000000138822e+00,-4.945000000000453255e+00,1.324160430947842748e+01,-2.295813630888626999e+00
1.999999999999977263e+01,3.000000000974570202e+00,1.000000000003436895e+01,6.599999999999921485e-01,1.570000000000131735e+00,2.869999999999996362e+03,-2.174999999999846167e+00,-4.945000000000059792e+00,1.329394656353408877e+01,-2.333252605557775361e+00
2.000000000000024869e+01,3.000000001094443647e+00,1.000000000001202416e+01,6.600000000000271205e-01,1.569999999999917462e+00,2.870000000000001364e+03,-2.175000000000053557e+00,-4.945000000000297824e+00,1.331447530154049907e+01,-2.346978575362031805e+00
2.000000000000022027e+01,3.000000001437972852e+00,9.999999999965289987e+00,6.600000000000362244e-01,1.569999999999782903e+00,2.869999999999989541e+03,-2.175000000000185008e+00,-4.945000000000256968e+00,1.333442082061731249e+01,-2.273225371980074350e+00
2.000000000000038014e+01,3.000000002497262841e+00,9.999999999954100716e+00,6.600000000000890710e-01,1.569999999999512674e+00,2.869999999999993179e+03,-2.175000000000428368e+00,-4.945000000000617568e+00,1.333128838703691876e+01,-2.272153931697870277e+00
1.999999999999882405e+01,3.000000000085569773e+00,9.999999999982300380e+00,6.599999999999774936e-01,1.570000000000215445e+00,2.870000000000003183e+03,-2.174999999999754241e+00,-4.944999999999753371e+00,1.333827343840208535e+01,-2.336804158461090353e+00
1.999999999999951328e+01,3.000000003382480074e+00,9.999999999984991561e+00,6.600000000000330047e-01,1.569999999999863061e+00,2.869999999999993179e+03,-2.175000000000087308e+00,-4.945000000000155715e+00,1.335050020414686500e+01,-2.241266205148614965e+00
1.999999999999879563e+01,3.000000002180271519e+00,9.999999999974775733e+00,6.599999999999816014e-01,1.570000000000243423e+00,2.869999999999994088e+03,-2.174999999999719602e+00,-4.944999999999758700e+00,1.322092777877177561e+01,-2.372680267051685110e+00
1.999999999999938893e+01,3.000000000250861110e+00,9.999999999982792431e+00,6.599999999999638378e-01,1.570000000000244311e+00,2.870000000000002728e+03,-2.174999999999767564e+00,-4.944999999999689422e+00,1.345265166842706961e+01,-2.092966895266385130e+00
1.999999999999987210e+01,3.000000000934837097e+00,9.999999999972454034e+00,6.600000000000020295e-01,1.570000000000028262e+00,2.869999999999997272e+03,-2.174999999999965627e+00,-4.945000000000050022e+00,1.336324030427827658e+01,-2.190819855200164312e+00
2.000000000000145306e+01,3.000000001567004748e+00,9.999999999971636910e+00,6.600000000000947331e-01,1.569999999999367679e+00,2.870000000000000455e+03,-2.175000000000612221e+00,-4.945000000000772111e+00,1.338735751816584063e+01,-2.275342250453401771e+00
1.999999999999993250e+01,2.999999999798095729e+00,9.999999999987441157e+00,6.599999999999794920e-01,1.570000000000154161e+00,2.869999999999998636e+03,-2.174999999999863487e+00,-4.944999999999894591e+00,1.342541047170321100e+01,-2.203407699215545801e+00
2.000000000000018474e+01,3.000000001576563768e+00,9.999999999964821029e+00,6.599999999999944800e-01,1.570000000000024265e+00,2.870000000000002274e+03,-2.174999999999994937e+00,-4.944999999999990514e+00,1.348698011671642583e+01,-2.171184317291799282e+00
1.999999999999816325e+01,2.999999998810202850e+00,9.999999999985648813e+00,6.599999999999388578e-01,1.570000000000532081e+00,2.870000000000005002e+03,-2.174999999999464251e+00,-4.944999999999470930e+00,1.337382999347519785e+01,-2.174262684418282632e+00
2.000000000000105516e+01,2.999999999673735207e+00,1.000000000002603784e+01,6.600000000000264544e-01,1.569999999999854401e+00,2.869999999999987267e+03,-2.175000000000144595e+00,-4.945000000000240092e+00,1.347934932579053147e+01,-2.154719413081612966e+00
2.000000000000109779e+01,2.999999998008900270e+00,1.000000000002248512e+01,6.600000000000444400e-01,1.569999999999780238e+00,2.869999999999990905e+03,-2.175000000000207212e+00,-4.945000000000375096e+00,1.343198125519380248e+01,-2.148895079258193341e+00
2.000000000000038725e+01,3.000000001649321568e+00,1.000000000003511680e+01,6.600000000000396660e-01,1.569999999999843743e+00,2.869999999999979082e+03,-2.175000000000125056e+00,-4.945000000000308482e+00,1.338706550201595036e+01,-2.170210859198093534e+00
2.000000000000096989e+01,3.000000001013178430e+00,1.000000000002681411e+01,6.600000000000847411e-01,1.569999999999539098e+00,2.869999999999985448e+03,-2.175000000000415490e+00,-4.945000000000668194e+00,1.339545321721101523e+01,-2.153833201928874175e+00
2.000000000000013856e+01,3.000000000583622928e+00,1.000000000002249578e+01,6.600000000000449951e-01,1.569999999999879714e+00,2.869999999999987267e+03,-2.175000000000073097e+00,-4.945000000000308482e+00,1.336500974382650497e+01,-2.117073634514852198e+00
2.000000000000117950e+01,3.000000001256316384e+00,1.000000000002461320e+01,6.600000000001320366e-01,1.569999999999339702e+00,2.869999999999989086e+03,-2.175000000000575362e+00,-4.945000000000975504e+00,1.334833236636649012e+01,-2.203944264456643154e+00
2.000000000000051870e+01,3.000000002851617165e+00,1.000000000001991118e+01,6.600000000000915135e-01,1.569999999999582618e+00,2.869999999999984993e+03,-2.175000000000343547e+00,-4.945000000000639773e+00,1.341598719074596247e+01,-2.105948808146355322e+00
2.000000000000002132e+01,3.000000001873674549e+00,1.000000000003571543e+01,6.600000000000557643e-01,1.569999999999798002e+00,2.869999999999989086e+03,-2.175000000000143707e+00,-4.945000000000398188e+00,1.337261497087198769e+01,-2.190148016312883250e+00
2.000000000000049383e+01,2.999999999971249665e+00,9.999999999985169197e+00,6.600000000000607603e-01,1.569999999999702522e+00,2.869999999999992269e+03,-2.175000000000258726e+00,-4.945000000000468354e+00,1.334263548785183850e+01,-2.183332091558846333e+00
1.999999999999966604e+01,2.999999998879883556e+00,1.000000000000272671e+01,6.599999999999942579e-01,1.570000000000025819e+00,2.869999999999996362e+03,-2.174999999999962519e+00,-4.944999999999964757e+00,1.328570025588252790e+01,-1.979387341949915058e+00
1.999999999999943867e+01,2.999999998734842244e+00,9.999999999994098943e+00,6.599999999999828226e-01,1.570000000000123519e+00,2.869999999999997726e+03,-2.174999999999863043e+00,-4.944999999999867946e+00,1.328578168441172913e+01,-2.008958439931976869e+00
2.000000000000021672e+01,2.999999997792310857e+00,9.999999999975361931e+00,6.600000000000575406e-01,1.569999999999708074e+00,2.869999999999998636e+03,-2.175000000000246292e+00,-4.945000000000355556e+00,1.336963713991411673e+01,-2.129490737863437566e+00
2.000000000000021672e+01,3.000000000752130358e+00,9.999999999999568345e+00,6.600000000000286748e-01,1.569999999999893259e+00,2.869999999999988631e+03,-2.175000000000102851e+00,-4.945000000000193019e+00,1.336970473210463339e+01,-2.190913577169756543e+00
2.000000000000057909e+01,3.000000002643339325e+00,1.000000000004979483e+01,6.600000000000409983e-01,1.569999999999737383e+00,2.869999999999991360e+03,-2.175000000000268052e+00,-4.945000000000344897e+00,1.329499458406823820e+01,-2.255164311644493935e+00
2.000000000000076739e+01,3.000000003676940974e+00,1.000000000001880451e+01,6.600000000000639799e-01,1.569999999999638574e+00,2.869999999999992724e+03,-2.175000000000340439e+00,-4.945000000000465690e+00,1.334551862473977835e+01,-2.214948061211281516e+00
2.000000000000097344e+01,3.000000002383901077e+00,1.000000000000439115e+01,6.600000000000942890e-01,1.569999999999483142e+00,2.869999999999986358e+03,-2.175000000000481659e+00,-4.945000000000700169e+00,1.339127180564560682e+01,-2.186052388077919240e+00
2.000000000000045475e+01,3.000000002053881509e+00,1.000000000002262723e+01,6.600000000000485478e-01,1.569999999999750262e+00,2.869999999999987722e+03,-2.175000000000236078e+00,-4.945000000000337792e+00,1.336225294653180740e+01,-2.186039841221635527e+00
2.000000000000054357e+01,3.000000003905558987e+00,9.999999999994829025e+00,6.600000000000458833e-01,1.569999999999831752e+00,2.869999999999970441e+03,-2.175000000000153477e+00,-4.945000000000351115e+00,1.339081970818627809e+01,-2.234891703154340714e+00
1.999999999999950617e+01,3.000000001444458775e+00,9.999999999991597832e+00,6.599999999999824896e-01,1.570000000000210116e+00,2.869999999999986812e+03,-2.174999999999788880e+00,-4.944999999999851070e+00,1.345744995902592933e+01,-2.096791111388405682e+00
2.000000000000017408e+01,3.000000000572303538e+00,1.000000000002401279e+01,6.600000000000549871e-01,1.569999999999742490e+00,2.869999999999993179e+03,-2.175000000000226752e+00,-4.945000000000415064e+00,1.333963928159669088e+01,-2.212087628008381657e+00
1.999999999999960920e+01,3.000000000845787440e+00,9.999999999994994226e+00,6.600000000000159073e-01,1.569999999999967644e+00,2.869999999999997726e+03,-2.175000000000013589e+00,-4.945000000000068674e+00,1.333989189578905865e+01,-2.217107097572585950e+00
1.999999999999950617e+01,2.999999999946922458e+00,9.999999999989737987e+00,6.600000000000304512e-01,1.569999999999943219e+00,2.869999999999988631e+03,-2.175000000000021583e+00,-4.945000000000160156e+00,1.350045733106808576e+01,-2.127137716505210552e+00
2.000000000000006750e+01,3.000000002803979271e+00,9.999999999942668083e+00,6.600000000000012523e-01,1.570000000000021600e+00,2.869999999999991815e+03,-2.174999999999986944e+00,-4.944999999999990514e+00,1.348519326492581349e+01,-2.143552525403662923e+00
1.999999999999994316e+01,3.000000003174833285e+00,9.999999999941652007e+00,6.600000000000040279e-01,1.570000000000031815e+00,2.869999999999991815e+03,-2.174999999999965183e+00,-4.944999999999981632e+00,1.341890094724466742e+01,-2.151916566304846512e+00
2.000000000000033396e+01,2.999999998478815044e+00,9.999999999996934008e+00,6.599999999999884848e-01,1.570000000000003171e+00,2.870000000000000000e+03,-2.175000000000023803e+00,-4.944999999999998508e+00,1.329011640974244379e+01,-2.282069841296002100e+00
2.000000000000014921e+01,2.999999997934207574e+00,1.000000000001589662e+01,6.599999999999746070e-01,1.570000000000101092e+00,2.870000000000006821e+03,-2.174999999999918998e+00,-4.944999999999909690e+00,1.332198667873840137e+01,-2.237867153963005951e+00
2.000000000000077094e+01,2.999999999826315378e+00,9.999999999991263877e+00,6.600000000000367795e-01,1.569999999999712514e+00,2.870000000000002728e+03,-2.175000000000297362e+00,-4.945000000000326246e+00,1.314902625084945953e+01,-2.365391462299183178e+00
1.999999999999980105e+01,2.999999999912103643e+00,1.000000000002349765e+01,6.599999999999821565e-01,1.570000000000176366e+00,2.870000000000005002e+03,-2.174999999999828404e+00,-4.944999999999906137e+00,1.322546097449916580e+01,-2.402964962830058226e+00
2.000000000000083134e+01,3.000000000847016235e+00,1.000000000000093969e+01,6.600000000000271205e-01,1.569999999999864171e+00,2.869999999999997726e+03,-2.175000000000146372e+00,-4.945000000000265850e+00,1.327402705537151206e+01,-2.253644849581317278e+00
1.999999999999922196e+01,2.999999999442202192e+00,1.000000000002512479e+01,6.599999999999190958e-01,1.570000000000449702e+00,2.869999999999998636e+03,-2.174999999999595257e+00,-4.944999999999335927e+00,1.336570121672148836e+01,-2.226509230707539366e+00
1.999999999999980460e+01,3.000000000974719860e+00,1.000000000003209166e+01,6.599999999999617284e-01,1.570000000000165707e+00,2.869999999999996817e+03,-2.174999999999864819e+00,-4.944999999999658336e+00,1.332502293494439272e+01,-2.301504819505038490e+00
2.000000000000007816e+01,2.999999999685930785e+00,1.000000000003417888e+01,6.599999999999728306e-01,1.570000000000096874e+00,2.869999999999996817e+03,-2.174999999999935429e+00,-4.944999999999805773e+00,1.329258428085387145e+01,-2.341762272419458224e+00
2.000000000000029843e+01,2.999999999194193467e+00,1.000000000004627765e+01,6.599999999999912603e-01,1.569999999999971863e+00,2.870000000000002274e+03,-2.175000000000056222e+00,-4.944999999999924789e+00,1.333697114609893575e+01,-2.300946151857489408e+00
1.999999999999906208e+01,3.000000000526916288e+00,9.999999999997269740e+00,6.599999999999525135e-01,1.570000000000251639e+00,2.869999999999987722e+03,-2.174999999999759126e+00,-4.944999999999614815e+00,1.348332084155465438e+01,-2.061150243342037225e+00
1.999999999999877431e+01,2.999999999150833041e+00,9.999999999990638599e+00,6.599999999999376366e-01,1.570000000000381313e+00,2.869999999999991815e+03,-2.174999999999619682e+00,-4.944999999999490470e+00,1.354545516741953470e+01,-2.015914340892027479e+00
1.999999999999907985e+01,3.000000000033271608e+00,1.000000000000955502e+01,6.600000000000090239e-01,1.569999999999977192e+00,2.869999999999996362e+03,-2.174999999999991385e+00,-4.944999999999911466e+00,1.355065306275503545e+01,-2.043676675550363253e+00
2.000000000000008171e+01,2.999999999363648584e+00,1.000000000006065193e+01,6.600000000000028066e-01,1.569999999999966755e+00,2.869999999999994998e+03,-2.175000000000022915e+00,-4.944999999999985185e+00,1.332612298091170189e+01,-2.050127971209211086e+00
2.000000000000036593e+01,2.999999999529576744e+00,1.000000000004915179e+01,6.600000000000314504e-01,1.569999999999817986e+00,2.869999999999997272e+03,-2.175000000000155698e+00,-4.945000000000209006e+00,1.328275098591470105e+01,-2.052649299035892660e+00
1.999999999999981526e+01,3.000000001441564201e+00,9.999999999997131184e+00,6.600000000000070255e-01,1.569999999999950990e+00,2.869999999999994088e+03,-2.175000000000044231e+00,-4.945000000000004725e+00,1.356826105168229724e+01,-1.958381928283935869e+00
1.999999999999938538e+01,3.000000001462703736e+00,1.000000000000112088e+01,6.599999999999903721e-01,1.570000000000092877e+00,2.869999999999992724e+03,-2.174999999999909672e+00,-4.944999999999859952e+00,1.356725425771643145e+01,-1.994273102360977212e+00
1.999999999999904432e+01,3.000000000294019475e+00,9.999999999997806199e+00,6.599999999999651701e-01,1.570000000000301599e+00,2.869999999999992269e+03,-2.174999999999703615e+00,-4.944999999999656559e+00,1.357854341449245084e+01,-2.049740114187426077e+00
1.999999999999979750e+01,3.000000001444327324e+00,1.000000000000603073e+01,6.600000000000256772e-01,1.569999999999881046e+00,2.869999999999992269e+03,-2.175000000000105516e+00,-4.945000000000134399e+00,1.355220842820664728e+01,-2.020582744881307846e+00
1.999999999999816325e+01,2.999999997284984676e+00,9.999999999990825117e+00,6.599999999999259792e-01,1.570000000000513651e+00,2.870000000000000455e+03,-2.174999999999482903e+00,-4.944999999999305729e+00,1.358749620972430527e+01,-1.999551683829829285e+00
1.999999999999850786e+01,2.999999999951940222e+00,9.999999999997307043e+00,6.599999999999636158e-01,1.570000000000332685e+00,2.869999999999996817e+03,-2.174999999999649880e+00,-4.944999999999563300e+00,1.357652085930356733e+01,-1.982539000298079834e+00
1.999999999999829114e+01,2.999999998452912209e+00,1.000000000002498801e+01,6.599999999999587308e-01,1.570000000000353557e+00,2.869999999999999545e+03,-2.174999999999619682e+00,-4.944999999999518003e+00,1.359293188782957351e+01,-2.001325801120354075e+00
1.999999999999912959e+01,3.000000000272521561e+00,1.000000000002153833e+01,6.600000000000115774e-01,1.569999999999991847e+00,2.869999999999995453e+03,-2.174999999999973177e+00,-4.944999999999907025e+00,1.358210214203881350e+01,-1.960852793091288016e+00
2.000000000000033040e+01,2.999999999967405184e+00,1.000000000001398348e+01,6.599999999999953681e-01,1.569999999999979856e+00,2.870000000000000455e+03,-2.175000000000031797e+00,-4.945000000000067786e+00,1.334332180474103424e+01,-2.220741638371810822e+00
2.000000000000013145e+01,3.000000002002532806e+00,1.000000000000381561e+01,6.599999999999892619e-01,1.570000000000099538e+00,2.869999999999995907e+03,-2.174999999999911005e+00,-4.944999999999974527e+00,1.333657338429135741e+01,-2.234976824477823421e+00
2.000000000000043698e+01,3.000000002579363390e+00,9.999999999977127629e+00,6.599999999999880407e-01,1.570000000000042029e+00,2.869999999999989086e+03,-2.174999999999982059e+00,-4.945000000000032259e+00,1.334867941008853265e+01,-2.283426589171856147e+00
2.000000000000010658e+01,3.000000001014724749e+00,1.000000000000737721e+01,6.599999999999759392e-01,1.570000000000152607e+00,2.869999999999994998e+03,-2.174999999999860822e+00,-4.944999999999896367e+00,1.326631953108955919e+01,-2.301285734473079714e+00
2.000000000000044409e+01,3.000000000546383383e+00,9.999999999984160226e+00,6.600000000000187939e-01,1.569999999999963869e+00,2.869999999999991360e+03,-2.175000000000031353e+00,-4.945000000000207230e+00,1.330130968559672056e+01,-2.279561898640173556e+00
1.999999999999957012e+01,3.000000000413526990e+00,9.999999999994605204e+00,6.599999999999563993e-01,1.570000000000347118e+00,2.869999999999996362e+03,-2.174999999999668088e+00,-4.944999999999735607e+00,1.337415001563375405e+01,-2.238990641778985768e+00
2.000000000000054357e+01,3.000000003344184929e+00,9.999999999991942445e+00,6.599999999999943689e-01,1.569999999999988072e+00,2.869999999999994998e+03,-2.175000000000036238e+00,-4.945000000000038476e+00,1.334456163489288905e+01,-2.308891169836110979e+00
1.999999999999975131e+01,3.000000002344342498e+00,1.000000000002649969e+01,6.599999999999409672e-01,1.570000000000359330e+00,2.869999999999994543e+03,-2.174999999999684963e+00,-4.944999999999631690e+00,1.331209245099071126e+01,-2.261082820537597460e+00
2.000000000000029488e+01,3.000000002273704336e+00,9.999999999994532374e+00,6.599999999999842659e-01,1.570000000000099982e+00,2.869999999999996817e+03,-2.174999999999928324e+00,-4.944999999999961204e+00,1.335821367319692321e+01,-2.274952550008781937e+00
2.000000000000040856e+01,3.000000002833563162e+00,1.000000000002236078e+01,6.599999999999905942e-01,1.570000000000025375e+00,2.869999999999999091e+03,-2.174999999999995826e+00,-4.945000000000029594e+00,1.335957833120645155e+01,-2.267396075514970466e+00
1.999999999999963407e+01,3.000000001555975349e+00,9.999999999997379874e+00,6.599999999999903721e-01,1.570000000000138174e+00,2.869999999999997726e+03,-2.174999999999863931e+00,-4.944999999999993179e+00,1.335421733114128351e+01,-2.246278296771806016e+00
2.000000000000082423e+01,3.000000002494093820e+00,9.999999999992745359e+00,6.600000000000795231e-01,1.569999999999563745e+00,2.869999999999995453e+03,-2.175000000000409273e+00,-4.945000000000652207e+00,1.336625621653092644e+01,-2.270026475253684062e+00
2.000000000000066791e+01,2.999999999221896196e+00,1.000000000000525624e+01,6.600000000000115774e-01,1.569999999999847740e+00,2.869999999999995453e+03,-2.175000000000152145e+00,-4.945000000000052687e+00,1.335722033830883859e+01,-2.233960646402342931e+00
1.999999999999986144e+01,2.999999999544258777e+00,9.999999999970359710e+00,6.599999999999534017e-01,1.570000000000218110e+00,2.869999999999991815e+03,-2.174999999999799538e+00,-4.944999999999593499e+00,1.340515565129980402e+01,-2.212170153830968378e+00
2.000000000000007105e+01,3.000000000336118688e+00,1.000000000001815792e+01,6.599999999999709432e-01,1.570000000000229656e+00,2.869999999999989086e+03,-2.174999999999764899e+00,-4.944999999999830642e+00,1.349382914342397655e+01,-2.043501821307523780e+00
2.000000000000084910e+01,2.999999999605889478e+00,1.000000000002330403e+01,6.600000000000154632e-01,1.569999999999873941e+00,2.869999999999986358e+03,-2.175000000000131273e+00,-4.945000000000139728e+00,1.347436682582691958e+01,-2.016420157990589601e+00
2.000000000000127898e+01,3.000000001096790658e+00,1.000000000000168932e+01,6.600000000000634248e-01,1.569999999999558415e+00,2.869999999999989996e+03,-2.175000000000423483e+00,-4.945000000000566054e+00,1.340429175327062339e+01,-2.163492863463301052e+00
2.000000000000056843e+01,2.999999999133497575e+00,1.000000000003204548e+01,6.599999999999898170e-01,1.570000000000047802e+00,2.870000000000003183e+03,-2.174999999999973177e+00,-4.945000000000012719e+00,1.340269198676747386e+01,-2.142912933838045042e+00
1.999999999999941025e+01,2.999999999967380759e+00,1.000000000003517542e+01,6.599999999999158762e-01,1.570000000000554952e+00,2.870000000000000909e+03,-2.174999999999477129e+00,-4.944999999999429185e+00,1.348461272092175633e+01,-2.095738028845525847e+00
2.000000000000027001e+01,3.000000000027362113e+00,1.000000000003527312e+01,6.599999999999748290e-01,1.570000000000120854e+00,2.870000000000002274e+03,-2.174999999999901679e+00,-4.944999999999857287e+00,1.346603838193819591e+01,-2.171893165956734872e+00
2.000000000000119016e+01,2.999999999721019162e+00,1.000000000004501111e+01,6.600000000000373346e-01,1.569999999999741602e+00,2.869999999999997726e+03,-2.175000000000268496e+00,-4.945000000000317364e+00,1.339058231564671608e+01,-2.159011886682163261e+00
1.999999999999922196e+01,2.999999998703095638e+00,1.000000000004354739e+01,6.599999999999739408e-01,1.570000000000246754e+00,2.870000000000005912e+03,-2.174999999999743583e+00,-4.944999999999780904e+00,1.322047258819222115e+01,-2.320418446741912888e+00
2.000000000000037303e+01,2.999999997567993404e+00,1.000000000003216627e+01,6.600000000000477707e-01,1.569999999999696305e+00,2.870000000000007276e+03,-2.175000000000281819e+00,-4.945000000000338680e+00,1.325388106677611511e+01,-2.256287131641508736e+00
1.999999999999993250e+01,2.999999999095651404e+00,9.999999999986895816e+00,6.600000000000026956e-01,1.570000000000044249e+00,2.869999999999994998e+03,-2.174999999999947864e+00,-4.945000000000020712e+00,1.337453047555185393e+01,-2.187868602291844322e+00
1.999999999999891287e+01,3.000000001009338835e+00,9.999999999977502441e+00,6.599999999998830136e-01,1.570000000000717932e+00,2.869999999999984539e+03,-2.174999999999338574e+00,-4.944999999999177831e+00,1.341775956506741174e+01,-2.118227424508912105e+00
2.000000000000017764e+01,2.999999999039896892e+00,9.999999999972375875e+00,6.599999999999551781e-01,1.570000000000221663e+00,2.869999999999989086e+03,-2.174999999999812861e+00,-4.944999999999743601e+00,1.340457875849995162e+01,-2.197154771168303267e+00
2.000000000000044054e+01,2.999999999200523959e+00,9.999999999967732478e+00,6.599999999999647260e-01,1.570000000000115747e+00,2.869999999999987722e+03,-2.174999999999926548e+00,-4.944999999999795115e+00,1.337551684179164546e+01,-2.212531609311287895e+00
1.999999999999882050e+01,2.999999997387392980e+00,1.000000000002347100e+01,6.599999999999411893e-01,1.570000000000406182e+00,2.870000000000008640e+03,-2.174999999999593481e+00,-4.944999999999539320e+00,1.339909636793275816e+01,-2.081194043108014036e+00
1.999999999999945288e+01,2.999999997038621746e+00,1.000000000001677947e+01,6.599999999999627276e-01,1.570000000000199236e+00,2.870000000000006366e+03,-2.174999999999815969e+00,-4.944999999999746265e+00,1.338209395221687892e+01,-2.128222231013067844e+00
1.999999999999992184e+01,3.000000003658029879e+00,1.000000000002277467e+01,6.600000000000043610e-01,1.569999999999953433e+00,2.870000000000002274e+03,-2.175000000000063771e+00,-4.945000000000014495e+00,1.341738678376408522e+01,-2.149308082015833676e+00
1.999999999999965539e+01,3.000000003162520468e+00,1.000000000000290257e+01,6.599999999999853761e-01,1.570000000000105533e+00,2.869999999999998636e+03,-2.174999999999913669e+00,-4.944999999999875939e+00,1.337254048143086216e+01,-2.172615808894181821e+00
2.000000000000061107e+01,3.000000003882924648e+00,1.000000000002681233e+01,6.600000000000467715e-01,1.569999999999724505e+00,2.869999999999999545e+03,-2.175000000000276934e+00,-4.945000000000344009e+00,1.332749913780713058e+01,-2.208900809435043300e+00
2.000000000000080647e+01,3.000000003093727940e+00,1.000000000000943956e+01,6.600000000000533218e-01,1.569999999999673879e+00,2.869999999999997272e+03,-2.175000000000332445e+00,-4.945000000000395524e+00,1.338671228161739890e+01,-2.188108957983525116e+00
1.999999999999934275e+01,3.000000002695168977e+00,9.999999999981680432e+00,6.599999999999628386e-01,1.570000000000294271e+00,2.870000000000000000e+03,-2.174999999999716938e+00,-4.944999999999732054e+00,1.341289133346159446e+01,-2.118295602970284630e+00
2.000000000000020250e+01,3.000000003051991104e+00,1.000000000000966160e+01,6.600000000000051381e-01,1.569999999999936335e+00,2.869999999999998636e+03,-2.175000000000085976e+00,-4.945000000000051799e+00,1.337203605649255600e+01,-2.194312380415253561e+00
2.000000000000065015e+01,3.000000003433738183e+00,1.000000000001364242e+01,6.600000000000270095e-01,1.569999999999757812e+00,2.870000000000001819e+03,-2.175000000000259170e+00,-4.945000000000235651e+00,1.335820882916832453e+01,-2.183719315566848618e+00
2.000000000000096634e+01,3.000000002484010331e+00,1.000000000000878408e+01,6.600000000000542100e-01,1.569999999999607487e+00,2.869999999999997272e+03,-2.175000000000413714e+00,-4.945000000000399076e+00,1.339675184909353689e+01,-2.198801148816743822e+00
2.000000000000075673e+01,3.000000001796737426e+00,1.000000000001573319e+01,6.600000000000294520e-01,1.569999999999740270e+00,2.869999999999994088e+03,-2.175000000000278266e+00,-4.945000000000232987e+00,1.338566002781090880e+01,-2.153161094885623239e+00
1.999999999999998579e+01,3.000000002343424566e+00,1.000000000002944134e+01,6.599999999999912603e-01,1.570000000000047358e+00,2.869999999999997272e+03,-2.174999999999967848e+00,-4.944999999999944329e+00,1.334496070752597774e+01,-2.179811030094536584e+00
2.000000000000049383e+01,3.000000001441781805e+00,1.000000000002140865e+01,6.600000000000174616e-01,1.569999999999874385e+00,2.869999999999997726e+03,-2.175000000000146816e+00,-4.945000000000133511e+00,1.339350643576074162e+01,-2.195406922231413205e+00
2.000000000000008171e+01,3.000000002275605482e+00,1.000000000003272405e+01,6.599999999999690559e-01,1.570000000000072893e+00,2.870000000000000909e+03,-2.174999999999975842e+00,-4.944999999999816431e+00,1.344419900920351552e+01,-2.161607822023153602e+00
2.000000000000026645e+01,3.000000002743709704e+00,1.000000000000396305e+01,6.599999999999843769e-01,1.569999999999978302e+00,2.870000000000001364e+03,-2.175000000000067324e+00,-4.944999999999939000e+00,1.339946347881364197e+01,-2.211865849124795336e+00
1.999999999999998224e+01,3.000000001134710104e+00,9.999999999970526687e+00,6.599999999999657252e-01,1.570000000000146390e+00,2.869999999999998181e+03,-2.174999999999902123e+00,-4.944999999999752482e+00,1.335653290687085359e+01,-2.232441137338697867e+00
2.000000000000072120e+01,3.000000002394848320e+00,1.000000000002458123e+01,6.600000000000347811e-01,1.569999999999726947e+00,2.870000000000001364e+03,-2.175000000000262723e+00,-4.945000000000286278e+00,1.343934160028278946e+01,-2.095575516046543019e+00
2.000000000000055778e+01,3.000000000395623978e+00,1.000000000001396927e+01,6.600000000000360023e-01,1.569999999999818430e+00,2.869999999999994998e+03,-2.175000000000158362e+00,-4.945000000000247198e+00,1.344695865062432105e+01,-2.197854327109339589e+00
2.000000000000053646e+01,3.000000003890108680e+00,1.000000000000853539e+01,6.600000000000233458e-01,1.569999999999861728e+00,2.869999999999994998e+03,-2.175000000000126388e+00,-4.945000000000218776e+00,1.343590642410820735e+01,-2.114699852169441563e+00
2.000000000000034461e+01,3.000000003738208409e+00,1.000000000004353851e+01,6.600000000000051381e-01,1.569999999999934781e+00,2.869999999999999545e+03,-2.175000000000057110e+00,-4.945000000000044693e+00,1.338066989102646609e+01,-2.118744387705567167e+00
1.999999999999856115e+01,2.999999998004157398e+00,9.999999999977779552e+00,6.599999999999333067e-01,1.570000000000494778e+00,2.870000000000004547e+03,-2.174999999999490452e+00,-4.944999999999522444e+00,1.336089699235963302e+01,-2.166259747196291663e+00
1.999999999999984368e+01,3.000000000726998906e+00,9.999999999993521627e+00,6.600000000000261213e-01,1.569999999999842188e+00,2.870000000000001364e+03,-2.175000000000121503e+00,-4.945000000000201013e+00,1.330530409598313923e+01,-2.158596006895590502e+00
2.000000000000013500e+01,2.999999999730655009e+00,9.999999999978863130e+00,6.600000000000448841e-01,1.569999999999726281e+00,2.869999999999995907e+03,-2.175000000000230749e+00,-4.945000000000309370e+00,1.338499172446144847e+01,-2.082987279996157959e+00
2.000000000000014566e+01,3.000000000441339854e+00,9.999999999982373211e+00,6.600000000000213474e-01,1.569999999999840634e+00,2.870000000000003638e+03,-2.175000000000144151e+00,-4.945000000000212559e+00,1.336177543125576683e+01,-2.258953889786403657e+00
1.999999999999946709e+01,2.999999999245395621e+00,9.999999999977335463e+00,6.599999999999870415e-01,1.570000000000159046e+00,2.869999999999997726e+03,-2.174999999999812417e+00,-4.944999999999939000e+00,1.336961788375813676e+01,-2.194102227245608550e+00
2.000000000000008882e+01,3.000000000242666776e+00,9.999999999956930452e+00,6.600000000000184608e-01,1.569999999999895479e+00,2.869999999999995907e+03,-2.175000000000079758e+00,-4.945000000000185914e+00,1.343141194893795642e+01,-2.188607405601813216e+00
1.999999999999996803e+01,2.999999999410654983e+00,9.999999999974871656e+00,6.600000000000200151e-01,1.569999999999937668e+00,2.869999999999988177e+03,-2.175000000000044231e+00,-4.945000000000151275e+00,1.338273973912155590e+01,-2.179266603610195308e+00
2.000000000000043698e+01,2.999999999581946408e+00,9.999999999966680875e+00,6.600000000000418865e-01,1.569999999999770912e+00,2.869999999999992269e+03,-2.175000000000215650e+00,-4.945000000000343121e+00,1.338402418557810236e+01,-2.258462901039035131e+00
2.000000000000142109e+01,3.000000002393454768e+00,9.999999999986213695e+00,6.600000000001045031e-01,1.569999999999293072e+00,2.869999999999995907e+03,-2.175000000000677947e+00,-4.945000000000786322e+00,1.332705174862078756e+01,-2.184943759714223166e+00
1.999999999999954881e+01,3.000000000626133367e+00,9.999999999967956299e+00,6.599999999999792699e-01,1.570000000000186358e+00,2.869999999999999091e+03,-2.174999999999795985e+00,-4.944999999999823537e+00,1.336138125827734413e+01,-2.196466840239569063e+00
2.000000000000037659e+01,3.000000000711640080e+00,9.999999999940463624e+00,6.600000000000134648e-01,1.569999999999859952e+00,2.869999999999993634e+03,-2.175000000000135714e+00,-4.945000000000129958e+00,1.339187870945741032e+01,-2.214865884760967241e+00
1.999999999999972999e+01,2.999999999677408269e+00,9.999999999960619945e+00,6.599999999999967004e-01,1.570000000000074669e+00,2.870000000000000909e+03,-2.174999999999897682e+00,-4.944999999999951434e+00,1.335439379401044135e+01,-2.190074923793468464e+00
1.999999999999973710e+01,3.000000001570952701e+00,9.999999999962684072e+00,6.599999999999907052e-01,1.570000000000075557e+00,2.870000000000001364e+03,-2.174999999999909672e+00,-4.944999999999934559e+00,1.337230354102180918e+01,-2.185915040609717419e+00
1.999999999999991473e+01,2.999999999928952832e+00,9.999999999971260323e+00,6.599999999999933697e-01,1.570000000000024709e+00,2.870000000000003638e+03,-2.174999999999958522e+00,-4.944999999999953211e+00,1.344649782582408726e+01,-2.081114353432706121e+00
2.000000000000024869e+01,2.999999999889755298e+00,9.999999999998532729e+00,6.599999999999796030e-01,1.570000000000076890e+00,2.869999999999994088e+03,-2.174999999999960743e+00,-4.944999999999870610e+00,1.348691750837211600e+01,-2.140006236343008794e+00
2.000000000000047251e+01,3.000000000566154235e+00,1.000000000001660183e+01,6.599999999999961453e-01,1.569999999999950546e+00,2.870000000000002274e+03,-2.175000000000073097e+00,-4.945000000000044693e+00,1.344248044379112983e+01,-2.218697438835154578e+00
2.000000000000033396e+01,2.999999999959878760e+00,1.000000000001920952e+01,6.600000000000035838e-01,1.569999999999936557e+00,2.869999999999999091e+03,-2.175000000000081535e+00,-4.945000000000044693e+00,1.336342694634805994e+01,-2.113825732032764915e+00
2.000000000000035882e+01,3.000000001075519229e+00,9.999999999995662137e+00,6.599999999999763833e-01,1.570000000000059126e+00,2.869999999999995907e+03,-2.174999999999972289e+00,-4.944999999999859952e+00,1.337154224146816794e+01,-2.223014052876651547e+00
2.000000000000060041e+01,3.000000000205072404e+00,1.000000000003072387e+01,6.600000000000242339e-01,1.569999999999858620e+00,2.869999999999992269e+03,-2.175000000000149036e+00,-4.945000000000179696e+00,1.335006808650130417e+01,-2.176710994816693390e+00
1.999999999999940314e+01,2.999999999806141293e+00,1.000000000001505640e+01,6.599999999999439648e-01,1.570000000000346008e+00,2.870000000000007276e+03,-2.174999999999671640e+00,-4.944999999999597051e+00,1.337656538592186806e+01,-2.204388997151940810e+00
2.000000000000020606e+01,2.999999998010036695e+00,1.000000000001825207e+01,6.599999999999899281e-01,1.570000000000024709e+00,2.869999999999998181e+03,-2.174999999999990496e+00,-4.944999999999946105e+00,1.339403662793335492e+01,-2.206197478640997467e+00
2.000000000000004263e+01,2.999999996944558323e+00,1.000000000004572343e+01,6.599999999999864864e-01,1.570000000000073559e+00,2.870000000000001364e+03,-2.174999999999925659e+00,-4.944999999999886597e+00,1.338217130166996860e+01,-2.135754216959094620e+00
1.999999999999957723e+01,2.999999998008227475e+00,1.000000000007642775e+01,6.599999999999498490e-01,1.570000000000324691e+00,2.870000000000005912e+03,-2.174999999999674749e+00,-4.944999999999676987e+00,1.336334888573530222e+01,-2.232198713910121146e+00
2.000000000000094857e+01,3.000000000071515238e+00,1.000000000004644995e+01,6.600000000000539879e-01,1.569999999999662554e+00,2.869999999999996362e+03,-2.175000000000307576e+00,-4.945000000000415064e+00,1.337718072550180715e+01,-2.232566854205362272e+00
2.000000000000062172e+01,3.000000000069992456e+00,1.000000000002484768e+01,6.600000000000351141e-01,1.569999999999799556e+00,2.870000000000001364e+03,-2.175000000000177902e+00,-4.945000000000207230e+00,1.340324075420064176e+01,-2.231107920766726593e+00
2.000000000000052580e+01,2.999999999174648213e+00,1.000000000002921929e+01,6.600000000000348921e-01,1.569999999999793117e+00,2.869999999999990450e+03,-2.175000000000184563e+00,-4.945000000000250751e+00,1.336292109182968701e+01,-2.217646107187967175e+00
1.999999999999971223e+01,2.999999997993522349e+00,1.000000000005591616e+01,6.599999999999645039e-01,1.570000000000139950e+00,2.870000000000000455e+03,-2.174999999999874145e+00,-4.944999999999782681e+00,1.332233657132371718e+01,-2.228415138480657198e+00
1.999999999999953459e+01,3.000000000159607438e+00,1.000000000002465228e+01,6.599999999999642819e-01,1.570000000000126406e+00,2.869999999999995907e+03,-2.174999999999899458e+00,-4.944999999999684093e+00,1.314279085760782984e+01,-2.208155534385012775e+00
1.999999999999960210e+01,2.999999999813218299e+00,1.000000000001588774e+01,6.599999999999692779e-01,1.570000000000075779e+00,2.869999999999995907e+03,-2.174999999999946088e+00,-4.944999999999701856e+00,1.314865093701350673e+01,-2.135941703150191717e+00
2.000000000000026290e+01,2.999999998795496836e+00,1.000000000002490275e+01,6.600000000000433298e-01,1.569999999999770468e+00,2.869999999999989541e+03,-2.175000000000201439e+00,-4.945000000000289830e+00,1.349950872154000159e+01,-2.126297988447432452e+00
2.000000000000019895e+01,2.999999999844850773e+00,1.000000000004759748e+01,6.600000000000372236e-01,1.569999999999852180e+00,2.869999999999985448e+03,-2.175000000000122391e+00,-4.945000000000253415e+00,1.343562290030841133e+01,-2.190512852331305993e+00
2.000000000000106581e+01,3.000000000002752021e+00,1.000000000001893419e+01,6.600000000000888489e-01,1.569999999999396767e+00,2.869999999999991815e+03,-2.175000000000575362e+00,-4.945000000000661977e+00,1.342719152792740367e+01,-2.233355852798981633e+00
1.999999999999932498e+01,3.000000000244528842e+00,9.999999999986776800e+00,6.600000000000718625e-01,1.569999999999748042e+00,2.869999999999992724e+03,-2.175000000000171241e+00,-4.945000000000367102e+00,1.356160366779298165e+01,-2.051372672885759751e+00
1.999999999999896616e+01,3.000000000017017943e+00,9.999999999998864908e+00,6.600000000000376676e-01,1.569999999999940998e+00,2.869999999999990905e+03,-2.175000000000001155e+00,-4.945000000000137064e+00,1.348775727124079538e+01,-2.094905070842940198e+00
2.000000000000062528e+01,3.000000000363078012e+00,1.000000000003742961e+01,6.600000000000411093e-01,1.569999999999754925e+00,2.870000000000000455e+03,-2.175000000000256506e+00,-4.945000000000342233e+00,1.333652223517892388e+01,-2.211567149065612359e+00
1.999999999999994316e+01,2.999999999882679624e+00,1.000000000002781242e+01,6.599999999999891509e-01,1.570000000000107754e+00,2.870000000000003183e+03,-2.174999999999916778e+00,-4.944999999999958540e+00,1.340804830094558753e+01,-2.172608728419771928e+00
1.999999999999964473e+01,3.000000000406384260e+00,1.000000000001777956e+01,6.599999999999962563e-01,1.570000000000046469e+00,2.870000000000005457e+03,-2.174999999999951861e+00,-4.944999999999878604e+00,1.334852956727266715e+01,-2.302466802679780766e+00
1.999999999999978684e+01,3.000000000030071057e+00,9.999999999996260769e+00,6.599999999999999201e-01,1.569999999999927232e+00,2.870000000000003638e+03,-2.175000000000089528e+00,-4.944999999999973639e+00,1.334650847731681367e+01,-2.315268884340788258e+00
1.999999999999954525e+01,2.999999998930114931e+00,9.999999999969547915e+00,6.599999999999597300e-01,1.570000000000275842e+00,2.870000000000003183e+03,-2.174999999999724931e+00,-4.944999999999745377e+00,1.318448565295823371e+01,-2.327137516165691533e+00
1.999999999999921485e+01,3.000000001533534189e+00,9.999999999991549871e+00,6.599999999999491829e-01,1.570000000000390195e+00,2.869999999999999091e+03,-2.174999999999608580e+00,-4.944999999999590834e+00,1.334671270351922523e+01,-2.319477125911385773e+00
1.999999999999989697e+01,2.999999999585054589e+00,9.999999999994708233e+00,6.599999999999833777e-01,1.570000000000098206e+00,2.869999999999998181e+03,-2.174999999999902123e+00,-4.944999999999866169e+00,1.330225528813671865e+01,-2.220651755381024106e+00
1.999999999999929656e+01,2.999999997806435559e+00,9.999999999987053911e+00,6.599999999999179856e-01,1.570000000000474794e+00,2.870000000000001364e+03,-2.174999999999575717e+00,-4.944999999999406981e+00,1.338967575828448275e+01,-2.122818644856656611e+00
2.000000000000090949e+01,2.999999998295838299e+00,9.999999999984696686e+00,6.600000000000264544e-01,1.569999999999740270e+00,2.869999999999992724e+03,-2.175000000000272049e+00,-4.945000000000224993e+00,1.340143278033795760e+01,-2.138449709635823481e+00
2.000000000000041922e+01,2.999999997484180003e+00,9.999999999968025577e+00,6.599999999999780487e-01,1.570000000000016049e+00,2.869999999999995453e+03,-2.175000000000014921e+00,-4.944999999999938112e+00,1.336490419172347899e+01,-2.170684511776164616e+00
1.999999999999923261e+01,3.000000002966586088e+00,1.000000000006171597e+01,6.599999999999816014e-01,1.570000000000164597e+00,2.870000000000003638e+03,-2.174999999999826183e+00,-4.944999999999838636e+00,1.330846584969462398e+01,-2.207548272496179909e+00
1.999999999999951683e+01,3.000000002225838625e+00,9.999999999985625720e+00,6.600000000000163514e-01,1.569999999999994067e+00,2.869999999999998181e+03,-2.174999999999965183e+00,-4.945000000000018048e+00,1.336772002162841666e+01,-2.112729131659059068e+00
1.999999999999952749e+01,3.000000002307198876e+00,9.999999999980657250e+00,6.600000000000038058e-01,1.570000000000052465e+00,2.870000000000003183e+03,-2.174999999999916778e+00,-4.944999999999960316e+00,1.336471323157611302e+01,-2.168539043681451783e+00
2.000000000000160227e+01,3.000000002739897198e+00,1.000000000000688516e+01,6.600000000000804112e-01,1.569999999999476703e+00,2.870000000000000000e+03,-2.175000000000515410e+00,-4.945000000000634444e+00,1.333672233343949287e+01,-2.179414979134280728e+00
1.999999999999984013e+01,3.000000002293477408e+00,9.999999999982948751e+00,6.599999999999670575e-01,1.570000000000244533e+00,2.870000000000007276e+03,-2.174999999999769784e+00,-4.944999999999725837e+00,1.333623165250755704e+01,-2.192583952793816682e+00
2.000000000000085976e+01,3.000000002489718209e+00,1.000000000000801847e+01,6.600000000000635358e-01,1.569999999999622808e+00,2.869999999999995453e+03,-2.175000000000354650e+00,-4.945000000000407958e+00,1.329823163260406105e+01,-2.199730723347292916e+00
2.000000000000013500e+01,3.000000002185605918e+00,1.000000000001370992e+01,6.599999999999833777e-01,1.570000000000132401e+00,2.869999999999999545e+03,-2.174999999999869704e+00,-4.944999999999886597e+00,1.327974705699438474e+01,-2.188327994888588979e+00
2.000000000000035527e+01,3.000000002417804623e+00,1.000000000000107647e+01,6.599999999999955902e-01,1.570000000000046914e+00,2.870000000000000909e+03,-2.174999999999959854e+00,-4.944999999999995843e+00,1.325858841752888040e+01,-2.227473688360734005e+00
2.000000000000053646e+01,3.000000003723452213e+00,1.000000000002040501e+01,6.600000000000461053e-01,1.569999999999735607e+00,2.869999999999998181e+03,-2.175000000000241407e+00,-4.945000000000309370e+00,1.336019988203788245e+01,-2.157251098090225305e+00
1.999999999999990763e+01,3.000000002427714918e+00,9.999999999995095479e+00,6.599999999999819345e-01,1.570000000000104867e+00,2.869999999999994088e+03,-2.174999999999912337e+00,-4.944999999999820872e+00,1.334869943749264465e+01,-2.196571467309978321e+00
2.000000000000005684e+01,3.000000000101233688e+00,9.999999999987121413e+00,6.600000000000045830e-01,1.570000000000011831e+00,2.869999999999995907e+03,-2.174999999999985167e+00,-4.944999999999994955e+00,1.339991415568097644e+01,-2.143627541679344439e+00
1.999999999999962341e+01,3.000000002339549443e+00,1.000000000000554223e+01,6.599999999999626166e-01,1.570000000000258966e+00,2.869999999999997272e+03,-2.174999999999759570e+00,-4.944999999999646789e+00,1.343200463094114916e+01,-2.157867689874040096e+00
2.000000000000060396e+01,3.000000002114842967e+00,9.999999999988830268e+00,6.600000000000300071e-01,1.569999999999799778e+00,2.869999999999989541e+03,-2.175000000000202327e+00,-4.945000000000213447e+00,1.340637851779855083e+01,-2.156326963228468507e+00
2.000000000000058620e+01,3.000000003406334770e+00,9.999999999973320897e+00,6.600000000000498801e-01,1.569999999999771356e+00,2.869999999999996817e+03,-2.175000000000199663e+00,-4.945000000000326246e+00,1.337358685967719119e+01,-2.133409108325209580e+00
2.000000000000021316e+01,3.000000003283673333e+00,9.999999999978239629e+00,6.600000000000094680e-01,1.569999999999944551e+00,2.869999999999991815e+03,-2.175000000000065103e+00,-4.945000000000028706e+00,1.343060752805440572e+01,-2.054358944368467110e+00
1.999999999999940670e+01,3.000000001725190657e+00,9.999999999971386444e+00,6.599999999999403011e-01,1.570000000000396634e+00,2.869999999999990905e+03,-2.174999999999621902e+00,-4.944999999999583729e+00,1.338507483849707569e+01,-2.138467670339394111e+00
2.000000000000042277e+01,3.000000002489500162e+00,9.999999999963588238e+00,6.600000000000069145e-01,1.569999999999923235e+00,2.869999999999986812e+03,-2.175000000000085976e+00,-4.945000000000083773e+00,1.339880768412287360e+01,-2.135870836276388740e+00
1.999999999999983302e+01,3.000000002812491129e+00,9.999999999985865529e+00,6.599999999999720535e-01,1.570000000000239648e+00,2.869999999999986812e+03,-2.174999999999767564e+00,-4.944999999999774687e+00,1.338487539621275424e+01,-2.144044978417161129e+00
2.000000000000036593e+01,2.999999996627497278e+00,1.000000000002443912e+01,6.600000000000363354e-01,1.569999999999755369e+00,2.869999999999998636e+03,-2.175000000000231193e+00,-4.945000000000197460e+00,1.338929573732387723e+01,-2.131101685589763761e+00
1.999999999999990763e+01,2.999999997852540012e+00,1.000000000005610801e+01,6.600000000000022515e-01,1.569999999999916573e+00,2.869999999999999545e+03,-2.175000000000079314e+00,-4.944999999999941664e+00,1.342851430984433492e+01,-2.109422254875716884e+00
