1.999999999999963407e+01,3.000000002874221305e+00,1.000000000000644640e+01,6.599999999999544009e-01,1.570000000000324247e+00,2.869999999999971806e+03,-2.174999999999715605e+00,-4.944999999999676099e+00,1.341019130686813376e+01,-2.179074133226257093e+00
2.000000000000086686e+01,3.000000002808066668e+00,1.000000000000850342e+01,6.600000000000908473e-01,1.569999999999609486e+00,2.869999999999975444e+03,-2.175000000000352429e+00,-4.945000000000556284e+00,1.340947446802584153e+01,-2.174821269839423366e+00
2.000000000000005329e+01,3.000000000804436517e+00,9.999999999975015541e+00,6.600000000000132427e-01,1.570000000000021823e+00,2.869999999999974534e+03,-2.174999999999937650e+00,-4.944999999999947882e+00,1.339518884453902281e+01,-2.166420856922234073e+00
1.999999999999958078e+01,2.999999999701023157e+00,9.999999999979998222e+00,6.599999999999436318e-01,1.570000000000264073e+00,2.870000000000002728e+03,-2.174999999999723599e+00,-4.944999999999646789e+00,1.339982534418557414e+01,-2.178696189652594928e+00
1.999999999999991473e+01,3.000000002460279980e+00,9.999999999974479081e+00,6.599999999999945910e-01,1.570000000000152163e+00,2.869999999999992724e+03,-2.174999999999832401e+00,-4.944999999999921236e+00,1.340919622959309621e+01,-2.178169772876097365e+00
1.999999999999645439e+01,3.000000001493710933e+00,9.999999999992905231e+00,6.599999999997469002e-01,1.570000000001673390e+00,2.869999999999997726e+03,-2.174999999998368683e+00,-4.944999999998172413e+00,1.341444342191254613e+01,-2.166334126470090826e+00
2.000000000000150280e+01,3.000000002294562762e+00,1.000000000000368772e+01,6.600000000001089440e-01,1.569999999999385443e+00,2.869999999999994998e+03,-2.175000000000553602e+00,-4.945000000000777440e+00,1.341274483368985670e+01,-2.186672091455340805e+00
2.000000000000039790e+01,3.000000000310550696e+00,1.000000000000260947e+01,6.600000000000392220e-01,1.569999999999806883e+00,2.869999999999972715e+03,-2.175000000000161471e+00,-4.945000000000272955e+00,1.341024614452108743e+01,-2.161286343962394607e+00
1.999999999999880984e+01,3.000000003197437426e+00,1.000000000004188294e+01,6.599999999999233147e-01,1.570000000000729923e+00,2.870000000000004547e+03,-2.174999999999262634e+00,-4.944999999999396323e+00,1.341305358081393884e+01,-2.174265097290329241e+00
1.999999999999958078e+01,3.000000002676302735e+00,1.000000000000441425e+01,6.599999999999611733e-01,1.570000000000415508e+00,2.869999999999998181e+03,-2.174999999999613021e+00,-4.944999999999616591e+00,1.341382438920649456e+01,-2.184921062626994370e+00
2.000000000000241940e+01,3.000000003185696151e+00,9.999999999995377920e+00,6.600000000001831069e-01,1.569999999998976214e+00,2.869999999999986812e+03,-2.175000000000960831e+00,-4.945000000001241069e+00,1.341481100609890298e+01,-2.177241796055171097e+00
2.000000000000064304e+01,3.000000004238979390e+00,9.999999999983042898e+00,6.600000000000291189e-01,1.569999999999668772e+00,2.869999999999986358e+03,-2.175000000000294698e+00,-4.945000000000458584e+00,1.340893610494860511e+01,-2.187457779783369638e+00
2.000000000000025224e+01,3.000000003317799813e+00,9.999999999992477129e+00,6.600000000000245670e-01,1.569999999999816653e+00,2.869999999999988631e+03,-2.175000000000119726e+00,-4.945000000000268514e+00,1.340185765754198322e+01,-2.185393429872827920e+00
2.000000000000123279e+01,3.000000002682651434e+00,1.000000000003142553e+01,6.600000000000633138e-01,1.569999999999510676e+00,2.870000000000003638e+03,-2.175000000000462563e+00,-4.945000000000703722e+00,1.341424312435304422e+01,-2.181835703739904542e+00
2.000000000000157740e+01,3.000000002570164970e+00,9.999999999952910557e+00,6.600000000001398082e-01,1.569999999999429185e+00,2.869999999999981810e+03,-2.175000000000573586e+00,-4.945000000000716156e+00,1.342083737757069706e+01,-2.192099405289376968e+00
2.000000000000160938e+01,3.000000005159155769e+00,9.999999999977786658e+00,6.600000000001273737e-01,1.569999999999219575e+00,2.869999999999967713e+03,-2.175000000000694822e+00,-4.945000000000987939e+00,1.340160196193503062e+01,-2.161490926557501968e+00
2.000000000000137845e+01,3.000000005920155033e+00,1.000000000000667022e+01,6.600000000000578737e-01,1.569999999999379448e+00,2.869999999999980446e+03,-2.175000000000586020e+00,-4.945000000000699281e+00,1.340831835078062007e+01,-2.192724390435317527e+00
2.000000000000005684e+01,3.000000002675953681e+00,1.000000000002405720e+01,6.599999999999851541e-01,1.570000000000117524e+00,2.869999999999995907e+03,-2.174999999999866596e+00,-4.945000000000013607e+00,1.340716681243550035e+01,-2.197723640448965732e+00
1.999999999999959499e+01,3.000000001894927770e+00,1.000000000000553868e+01,6.599999999999826006e-01,1.570000000000281837e+00,2.869999999999989996e+03,-2.174999999999726263e+00,-4.944999999999843077e+00,1.342164572803688394e+01,-2.185743060099702539e+00
1.999999999999921485e+01,2.999999999796286509e+00,1.000000000001328893e+01,6.599999999999237588e-01,1.570000000000473239e+00,2.869999999999974079e+03,-2.174999999999537525e+00,-4.944999999999500240e+00,1.341308891183842711e+01,-2.186318353691179439e+00
1.999999999999968026e+01,3.000000004705298373e+00,1.000000000004895817e+01,6.599999999999616174e-01,1.570000000000139506e+00,2.869999999999980901e+03,-2.174999999999843059e+00,-4.944999999999793339e+00,1.340331554236948364e+01,-2.187524709712076021e+00
1.999999999999954170e+01,2.999999998949184565e+00,9.999999999994608757e+00,6.599999999999431877e-01,1.570000000000119300e+00,2.869999999999990905e+03,-2.174999999999895905e+00,-4.944999999999677875e+00,1.338544476476347711e+01,-2.156371790430273272e+00
2.000000000000052225e+01,3.000000001132290706e+00,1.000000000000917844e+01,6.600000000000315614e-01,1.569999999999750928e+00,2.869999999999996362e+03,-2.175000000000285372e+00,-4.945000000000165485e+00,1.340064920404058135e+01,-2.173063726434203868e+00
1.999999999999926814e+01,3.000000002422852141e+00,1.000000000000121680e+01,6.599999999999190958e-01,1.570000000000491225e+00,2.870000000000003638e+03,-2.174999999999557065e+00,-4.944999999999494023e+00,1.342280581260450667e+01,-2.190023846044045541e+00
1.999999999999996447e+01,3.000000003561854811e+00,1.000000000000144773e+01,6.599999999999746070e-01,1.570000000000081108e+00,2.869999999999998636e+03,-2.174999999999925659e+00,-4.944999999999949658e+00,1.342554724462163840e+01,-2.204507047683935905e+00
1.999999999999904077e+01,3.000000001936306226e+00,9.999999999998387068e+00,6.599999999998976685e-01,1.570000000000371321e+00,2.869999999999994998e+03,-2.174999999999701839e+00,-4.944999999999330598e+00,1.340821937190726665e+01,-2.181067213265346805e+00
2.000000000000059330e+01,3.000000002860060189e+00,9.999999999989073629e+00,6.600000000000620926e-01,1.569999999999861062e+00,2.869999999999963620e+03,-2.175000000000164135e+00,-4.945000000000177032e+00,1.341128514554730700e+01,-2.172439172914047756e+00
2.000000000000143530e+01,3.000000003293613382e+00,9.999999999989629629e+00,6.600000000001150502e-01,1.569999999999412310e+00,2.869999999999967713e+03,-2.175000000000578471e+00,-4.945000000000778329e+00,1.341291133347710129e+01,-2.192035620650297556e+00
2.000000000000438050e+01,3.000000007452337414e+00,9.999999999965995201e+00,6.600000000003055645e-01,1.569999999998068052e+00,2.869999999999954525e+03,-2.175000000001827249e+00,-4.945000000002397478e+00,1.341723198940018413e+01,-2.185828472639999909e+00
2.000000000000088463e+01,3.000000003632731005e+00,1.000000000001927525e+01,6.600000000000679767e-01,1.569999999999530882e+00,2.869999999999980901e+03,-2.175000000000369749e+00,-4.945000000000523421e+00,1.340127742078497519e+01,-2.176486106748261040e+00
2.000000000000171241e+01,3.000000004715540847e+00,9.999999999976713738e+00,6.600000000000828537e-01,1.569999999999200924e+00,2.869999999999969532e+03,-2.175000000000840039e+00,-4.945000000000777440e+00,1.341175403395468990e+01,-2.179477603155326015e+00
2.000000000000278888e+01,3.000000005546742177e+00,1.000000000001355183e+01,6.600000000001899902e-01,1.569999999998725970e+00,2.869999999999960892e+03,-2.175000000001194866e+00,-4.945000000001551932e+00,1.341345753492884008e+01,-2.182307335548356431e+00
2.000000000000083134e+01,3.000000002991964010e+00,1.000000000001198508e+01,6.600000000000376676e-01,1.569999999999627915e+00,2.869999999999975444e+03,-2.175000000000351985e+00,-4.945000000000468354e+00,1.342023316199052907e+01,-2.197798641407458842e+00
1.999999999999920064e+01,3.000000003041821461e+00,1.000000000001138112e+01,6.599999999999173195e-01,1.570000000000312479e+00,2.869999999999981355e+03,-2.174999999999675637e+00,-4.944999999999676987e+00,1.341428477086579463e+01,-2.176592273100048658e+00
1.999999999999984368e+01,3.000000001438510644e+00,1.000000000001438849e+01,6.599999999999686118e-01,1.570000000000133067e+00,2.869999999999979991e+03,-2.174999999999866152e+00,-4.944999999999954987e+00,1.340492239531723051e+01,-2.186980163145969325e+00
2.000000000000155964e+01,3.000000003646870805e+00,1.000000000000983391e+01,6.600000000000892930e-01,1.569999999999310170e+00,2.869999999999985903e+03,-2.175000000000634426e+00,-4.945000000000761453e+00,1.339745934075261502e+01,-2.196895796341441276e+00
2.000000000000203215e+01,3.000000003745673549e+00,1.000000000000308908e+01,6.600000000001656764e-01,1.569999999999107887e+00,2.869999999999955890e+03,-2.175000000000765876e+00,-4.945000000001281037e+00,1.339855222060563023e+01,-2.185437575912346553e+00
2.000000000000213873e+01,3.000000005045937890e+00,9.999999999982142285e+00,6.600000000001565725e-01,1.569999999999022400e+00,2.869999999999989086e+03,-2.175000000000972378e+00,-4.945000000001176232e+00,1.342193647093287900e+01,-2.171088986122833742e+00
1.999999999999846523e+01,3.000000003290923090e+00,1.000000000002222933e+01,6.599999999998888978e-01,1.570000000000736362e+00,2.869999999999992269e+03,-2.174999999999271960e+00,-4.944999999999208917e+00,1.342528068904932503e+01,-2.183351186129233401e+00
2.000000000000136069e+01,3.000000002623532946e+00,9.999999999989414690e+00,6.600000000000904032e-01,1.569999999999512452e+00,2.869999999999998181e+03,-2.175000000000478551e+00,-4.945000000000681517e+00,1.344087341589325924e+01,-2.177272933083571615e+00
2.000000000000199663e+01,3.000000004992641411e+00,9.999999999995415223e+00,6.600000000001267075e-01,1.569999999999226015e+00,2.869999999999994088e+03,-2.175000000000743672e+00,-4.945000000000944418e+00,1.341374913125147117e+01,-2.179973741130733611e+00
2.000000000000376943e+01,3.000000006367071315e+00,9.999999999967787545e+00,6.600000000002620437e-01,1.569999999998291651e+00,2.869999999999968622e+03,-2.175000000001619860e+00,-4.945000000002040430e+00,1.343417317738403050e+01,-2.187778532963430056e+00
2.000000000000127187e+01,3.000000001503414282e+00,1.000000000002076384e+01,6.600000000000781908e-01,1.569999999999446505e+00,2.869999999999985903e+03,-2.175000000000501199e+00,-4.945000000000738360e+00,1.342200244714157797e+01,-2.189137893654340417e+00
2.000000000000271072e+01,3.000000006263555896e+00,1.000000000001564970e+01,6.600000000001652323e-01,1.569999999998860307e+00,2.869999999999969532e+03,-2.175000000001090505e+00,-4.945000000001471996e+00,1.342629093925352990e+01,-2.204302364881850718e+00
2.000000000000077449e+01,3.000000004958168986e+00,1.000000000001776534e+01,6.600000000000375566e-01,1.569999999999689200e+00,2.869999999999996362e+03,-2.175000000000287592e+00,-4.945000000000457696e+00,1.341747770419872943e+01,-2.192488928389734415e+00
1.999999999999781153e+01,3.000000000913651377e+00,1.000000000003129408e+01,6.599999999998121814e-01,1.570000000001111617e+00,2.870000000000006366e+03,-2.174999999998962874e+00,-4.944999999998647588e+00,1.341294544784782339e+01,-2.167399605451572508e+00
1.999999999999866063e+01,3.000000001135528560e+00,9.999999999990798472e+00,6.599999999999188738e-01,1.570000000000747464e+00,2.869999999999978172e+03,-2.174999999999209788e+00,-4.944999999999256879e+00,1.340276237368965795e+01,-2.160127435961485709e+00
1.999999999999829470e+01,2.999999997276887154e+00,9.999999999986403765e+00,6.599999999998852340e-01,1.570000000000902451e+00,2.869999999999979536e+03,-2.174999999999090328e+00,-4.944999999999064144e+00,1.341319675158355551e+01,-2.160533538047320512e+00
2.000000000000254374e+01,3.000000003824380368e+00,9.999999999972020603e+00,6.600000000001433609e-01,1.569999999998837215e+00,2.869999999999979991e+03,-2.175000000001129141e+00,-4.945000000001296137e+00,1.341913305634959030e+01,-2.167688682222444374e+00
2.000000000000157740e+01,3.000000003791594594e+00,9.999999999974559017e+00,6.600000000001010614e-01,1.569999999999205142e+00,2.869999999999961346e+03,-2.175000000000775646e+00,-4.945000000000787210e+00,1.339768508772602473e+01,-2.172630603625874901e+00
1.999999999999943157e+01,3.000000002883350447e+00,1.000000000005944756e+01,6.599999999999488498e-01,1.570000000000393081e+00,2.870000000000005457e+03,-2.174999999999633449e+00,-4.944999999999580176e+00,1.343402229648932256e+01,-2.177154651500016413e+00
1.999999999999798916e+01,2.999999999291482311e+00,1.000000000003522160e+01,6.599999999998337197e-01,1.570000000000983054e+00,2.870000000000002274e+03,-2.174999999999097877e+00,-4.944999999998813678e+00,1.341569707798270450e+01,-2.186050549213482963e+00
2.000000000000071765e+01,3.000000003541030580e+00,1.000000000001594813e+01,6.600000000000346700e-01,1.569999999999753593e+00,2.870000000000000455e+03,-2.175000000000248512e+00,-4.945000000000367102e+00,1.341426989606129894e+01,-2.167889371814443411e+00
1.999999999999867484e+01,3.000000001204141231e+00,1.000000000000767919e+01,6.599999999999088818e-01,1.570000000000684182e+00,2.869999999999989086e+03,-2.174999999999349676e+00,-4.944999999999273754e+00,1.342614126724441093e+01,-2.191001314303758107e+00
1.999999999999900879e+01,3.000000002636360019e+00,9.999999999996731503e+00,6.599999999999108802e-01,1.570000000000439933e+00,2.869999999999994088e+03,-2.174999999999619238e+00,-4.944999999999393658e+00,1.341155502399154109e+01,-2.180389077145429066e+00
1.999999999999784706e+01,3.000000002631594498e+00,9.999999999956493468e+00,6.599999999998398259e-01,1.570000000001166462e+00,2.869999999999982265e+03,-2.174999999998887379e+00,-4.944999999998836770e+00,1.342797572784002469e+01,-2.184407720458688917e+00
2.000000000000324007e+01,3.000000004619850724e+00,9.999999999977315923e+00,6.600000000002158584e-01,1.569999999998519469e+00,2.869999999999973625e+03,-2.175000000001470646e+00,-4.945000000001634533e+00,1.340968101483145425e+01,-2.178819527787020149e+00
1.999999999999847233e+01,3.000000002269594290e+00,1.000000000000413714e+01,6.599999999999270894e-01,1.570000000000781659e+00,2.869999999999993634e+03,-2.174999999999151168e+00,-4.944999999999423856e+00,1.340805256043524629e+01,-2.163729074204836067e+00
1.999999999999887734e+01,3.000000002286551393e+00,1.000000000004793144e+01,6.599999999999077716e-01,1.570000000000619789e+00,2.870000000000000909e+03,-2.174999999999421618e+00,-4.944999999999346585e+00,1.341560394270134182e+01,-2.184310535043109347e+00
1.999999999999732836e+01,3.000000000373349351e+00,9.999999999997520206e+00,6.599999999997878675e-01,1.570000000001128271e+00,2.869999999999979991e+03,-2.174999999998932676e+00,-4.944999999998471729e+00,1.339753808705966165e+01,-2.166445049407721424e+00
2.000000000000144240e+01,3.000000003324449604e+00,9.999999999999692690e+00,6.600000000001046141e-01,1.569999999999378559e+00,2.869999999999956344e+03,-2.175000000000591793e+00,-4.945000000000808527e+00,1.341212619617004087e+01,-2.158195725581770752e+00
2.000000000000038369e+01,3.000000001459622645e+00,9.999999999979891641e+00,6.600000000000206812e-01,1.569999999999860840e+00,2.869999999999984084e+03,-2.175000000000165024e+00,-4.945000000000105089e+00,1.341979462774741627e+01,-2.161768482890930265e+00
2.000000000000032330e+01,3.000000000835094660e+00,9.999999999968748554e+00,6.600000000000182387e-01,1.569999999999884599e+00,2.869999999999980901e+03,-2.175000000000126388e+00,-4.945000000000077556e+00,1.338969156807970684e+01,-2.165598041908570970e+00
1.999999999999882050e+01,2.999999999981995735e+00,9.999999999971535658e+00,6.599999999999140998e-01,1.570000000000565388e+00,2.869999999999962256e+03,-2.174999999999487788e+00,-4.944999999999262208e+00,1.340057101129428752e+01,-2.174583948633017183e+00
2.000000000000177636e+01,3.000000001583722486e+00,9.999999999971219466e+00,6.600000000001625677e-01,1.569999999999182272e+00,2.869999999999947704e+03,-2.175000000000773426e+00,-4.945000000001072316e+00,1.338953390695602508e+01,-2.175943757965277392e+00
2.000000000000339284e+01,3.000000004891907768e+00,9.999999999959360508e+00,6.600000000002641531e-01,1.569999999998404228e+00,2.869999999999944521e+03,-2.175000000001499068e+00,-4.945000000002057305e+00,1.339359961204984906e+01,-2.185883559056492231e+00
2.000000000000020961e+01,3.000000002592072335e+00,1.000000000002408562e+01,6.600000000000012523e-01,1.569999999999984519e+00,2.869999999999988631e+03,-2.174999999999990052e+00,-4.945000000000145057e+00,1.341560904188057890e+01,-2.182643775199567759e+00
2.000000000000046185e+01,3.000000001150069373e+00,9.999999999971272757e+00,6.600000000000622036e-01,1.569999999999762030e+00,2.869999999999963165e+03,-2.175000000000169464e+00,-4.945000000000462137e+00,1.340784559887505978e+01,-2.162977551156103573e+00
2.000000000000334310e+01,3.000000003258644909e+00,1.000000000000082423e+01,6.600000000002189671e-01,1.569999999998447970e+00,2.869999999999956799e+03,-2.175000000001454659e+00,-4.945000000001899210e+00,1.340226690858290759e+01,-2.181232350820646371e+00
1.999999999999795008e+01,3.000000000208023820e+00,1.000000000000117772e+01,6.599999999998211742e-01,1.570000000000939755e+00,2.869999999999996817e+03,-2.174999999999049471e+00,-4.944999999998976214e+00,1.342185708633515695e+01,-2.178061509601763035e+00
2.000000000000163780e+01,3.000000003523572101e+00,1.000000000001434053e+01,6.600000000001210454e-01,1.569999999999367235e+00,2.869999999999989086e+03,-2.175000000000537614e+00,-4.945000000000887574e+00,1.341590476737651372e+01,-2.189677163245588698e+00
2.000000000000029488e+01,2.999999997494023685e+00,9.999999999960865082e+00,6.600000000000116884e-01,1.569999999999856843e+00,2.869999999999969532e+03,-2.175000000000139266e+00,-4.945000000000057128e+00,1.340683890595148853e+01,-2.152305661392067915e+00
2.000000000000111910e+01,3.000000004185169544e+00,9.999999999992352784e+00,6.600000000000765255e-01,1.569999999999601048e+00,2.869999999999976808e+03,-2.175000000000333333e+00,-4.945000000000549178e+00,1.338816498963969792e+01,-2.180839836364040885e+00
2.000000000000280664e+01,3.000000004097742146e+00,9.999999999989379162e+00,6.600000000001704503e-01,1.569999999998649365e+00,2.869999999999989541e+03,-2.175000000001328981e+00,-4.945000000001433804e+00,1.340247472085833635e+01,-2.183386158688039647e+00
1.999999999999902300e+01,3.000000000396995770e+00,9.999999999957225327e+00,6.599999999999055511e-01,1.570000000000365770e+00,2.869999999999992269e+03,-2.174999999999672529e+00,-4.944999999999403428e+00,1.339621407359170746e+01,-2.172807491687768433e+00
1.999999999999959854e+01,3.000000005756341181e+00,9.999999999989844568e+00,6.599999999999583977e-01,1.570000000000226104e+00,2.869999999999984993e+03,-2.174999999999819966e+00,-4.944999999999664553e+00,1.340482185763696066e+01,-2.164723204600802031e+00
1.999999999999608136e+01,3.000000002281619782e+00,1.000000000003070078e+01,6.599999999997130384e-01,1.570000000001841700e+00,2.870000000000000909e+03,-2.174999999998195932e+00,-4.944999999997830464e+00,1.340874663179751103e+01,-2.166040464061845583e+00
1.999999999999959144e+01,3.000000004583987856e+00,1.000000000000201261e+01,6.599999999999635047e-01,1.570000000000103091e+00,2.869999999999953616e+03,-2.174999999999935874e+00,-4.944999999999818208e+00,1.341219420584513422e+01,-2.158244403131044820e+00
2.000000000000002487e+01,3.000000004946096421e+00,1.000000000000311395e+01,6.600000000000074696e-01,1.570000000000047136e+00,2.869999999999975898e+03,-2.174999999999936318e+00,-4.945000000000080220e+00,1.343197856701821635e+01,-2.189408230144984202e+00
2.000000000000180833e+01,3.000000002935108157e+00,9.999999999959026553e+00,6.600000000001498002e-01,1.569999999999211138e+00,2.869999999999941338e+03,-2.175000000000733458e+00,-4.945000000001087415e+00,1.340276239759800347e+01,-2.171726962118173621e+00
1.999999999999904787e+01,3.000000000682951917e+00,9.999999999990302868e+00,6.599999999999625055e-01,1.570000000000546070e+00,2.869999999999996362e+03,-2.174999999999487343e+00,-4.944999999999375007e+00,1.342074428530014352e+01,-2.172993008253283342e+00
1.999999999999895905e+01,3.000000002871497262e+00,1.000000000003090150e+01,6.599999999998954481e-01,1.570000000000508766e+00,2.870000000000006821e+03,-2.174999999999542410e+00,-4.944999999999240892e+00,1.341945530976215828e+01,-2.187585077284288193e+00
1.999999999999923617e+01,3.000000001972463970e+00,1.000000000002261658e+01,6.599999999999272005e-01,1.570000000000366214e+00,2.869999999999963620e+03,-2.174999999999597922e+00,-4.944999999999623697e+00,1.340078208872170151e+01,-2.185212854621474410e+00
2.000000000000024514e+01,3.000000001629599566e+00,1.000000000002662581e+01,6.599999999999917044e-01,1.569999999999911244e+00,2.869999999999974079e+03,-2.175000000000036238e+00,-4.945000000000201901e+00,1.339785675896600203e+01,-2.187030778541661835e+00
2.000000000000185807e+01,3.000000003784514924e+00,9.999999999993436361e+00,6.600000000001181588e-01,1.569999999999053708e+00,2.869999999999975444e+03,-2.175000000000900879e+00,-4.945000000001047447e+00,1.340843767513598372e+01,-2.178884796465195617e+00
2.000000000000064659e+01,3.000000002833413948e+00,9.999999999981550758e+00,6.600000000000448841e-01,1.569999999999860840e+00,2.869999999999991360e+03,-2.175000000000115730e+00,-4.945000000000177920e+00,1.342700611370099217e+01,-2.170624698915925688e+00
1.999999999999949196e+01,3.000000000987954163e+00,1.000000000004102496e+01,6.599999999999477396e-01,1.570000000000538964e+00,2.869999999999996362e+03,-2.174999999999478462e+00,-4.944999999999553530e+00,1.342497253118361655e+01,-2.188502900520302052e+00
2.000000000000047606e+01,3.000000000851235527e+00,9.999999999999410250e+00,6.600000000000133538e-01,1.569999999999852180e+00,2.869999999999994088e+03,-2.175000000000140155e+00,-4.945000000000230322e+00,1.340945572240520356e+01,-2.168950758606533746e+00
1.999999999999846878e+01,3.000000000702582881e+00,1.000000000002682654e+01,6.599999999998874545e-01,1.570000000000841833e+00,2.869999999999992724e+03,-2.174999999999247091e+00,-4.944999999999051710e+00,1.342618735019989806e+01,-2.178027989816519128e+00
2.000000000000025224e+01,2.999999999497208858e+00,1.000000000000497558e+01,6.600000000000144640e-01,1.569999999999912577e+00,2.869999999999995907e+03,-2.175000000000062439e+00,-4.945000000000108642e+00,1.341553592891553492e+01,-2.186390267880777394e+00
2.000000000000208544e+01,3.000000004149526944e+00,1.000000000006959411e+01,6.600000000001046141e-01,1.569999999999122986e+00,2.869999999999996817e+03,-2.175000000000846256e+00,-4.945000000001036788e+00,1.339658732420869569e+01,-2.191578656798191194e+00
2.000000000000069988e+01,3.000000001934213678e+00,1.000000000005285017e+01,6.600000000000535438e-01,1.569999999999734053e+00,2.869999999999981355e+03,-2.175000000000211653e+00,-4.945000000000429274e+00,1.341172190516066642e+01,-2.191012689283392767e+00
2.000000000000067502e+01,3.000000002110018826e+00,1.000000000000658318e+01,6.600000000000340039e-01,1.569999999999828644e+00,2.869999999999960892e+03,-2.175000000000108624e+00,-4.945000000000386642e+00,1.342026714229536033e+01,-2.198803692761130524e+00
1.999999999999979394e+01,3.000000003161473749e+00,1.000000000002148681e+01,6.599999999999685008e-01,1.570000000000031593e+00,2.869999999999985903e+03,-2.174999999999936318e+00,-4.944999999999968310e+00,1.340791804699910728e+01,-2.163984123889017841e+00
2.000000000000060751e+01,3.000000005403647307e+00,9.999999999987442934e+00,6.600000000000360023e-01,1.569999999999697637e+00,2.869999999999982265e+03,-2.175000000000269829e+00,-4.945000000000478124e+00,1.340758703929904705e+01,-2.175224748566257027e+00
1.999999999999815614e+01,2.999999997156228115e+00,1.000000000002119904e+01,6.599999999998705791e-01,1.570000000001022578e+00,2.869999999999996362e+03,-2.174999999998973088e+00,-4.944999999998966445e+00,1.340313241896609675e+01,-2.167088594548914671e+00
1.999999999999885603e+01,3.000000000047077897e+00,1.000000000003378808e+01,6.599999999998945599e-01,1.570000000000610019e+00,2.869999999999980446e+03,-2.174999999999405187e+00,-4.944999999999229345e+00,1.340303792321169496e+01,-2.186383553216452835e+00
2.000000000000216005e+01,3.000000004257487696e+00,1.000000000002662937e+01,6.600000000001262634e-01,1.569999999999118323e+00,2.869999999999999091e+03,-2.175000000000848033e+00,-4.945000000001159357e+00,1.343324329728712030e+01,-2.220409170887753803e+00
2.000000000000088463e+01,3.000000003544818661e+00,1.000000000000403588e+01,6.600000000000658673e-01,1.569999999999690088e+00,2.869999999999978172e+03,-2.175000000000308020e+00,-4.945000000000377760e+00,1.342065091579342884e+01,-2.172944816431106929e+00
2.000000000000100897e+01,3.000000003940872961e+00,9.999999999999943157e+00,6.600000000000757483e-01,1.569999999999638352e+00,2.869999999999985448e+03,-2.175000000000350653e+00,-4.945000000000478124e+00,1.339717477710640559e+01,-2.174595603151237455e+00
1.999999999999790035e+01,2.999999999611401957e+00,1.000000000002701661e+01,6.599999999998535927e-01,1.570000000001103846e+00,2.869999999999976808e+03,-2.174999999998886935e+00,-4.944999999998850093e+00,1.340550949687262161e+01,-2.185156031652017550e+00
2.000000000000014566e+01,3.000000003550646444e+00,1.000000000000836486e+01,6.599999999999965894e-01,1.570000000000052021e+00,2.869999999999973625e+03,-2.174999999999926104e+00,-4.945000000000010942e+00,1.342549335309097636e+01,-2.170474007923555160e+00
2.000000000000334666e+01,3.000000005293007366e+00,9.999999999947394969e+00,6.600000000002511635e-01,1.569999999998570317e+00,2.869999999999956344e+03,-2.175000000001310774e+00,-4.945000000001893881e+00,1.339902586866154977e+01,-2.197204005358778023e+00
1.999999999999861444e+01,2.999999999937787543e+00,1.000000000003200995e+01,6.599999999998910072e-01,1.570000000000747686e+00,2.869999999999994543e+03,-2.174999999999239986e+00,-4.944999999999176943e+00,1.340710946514228041e+01,-2.184739531185325490e+00
2.000000000000083134e+01,3.000000000163742797e+00,9.999999999973711695e+00,6.600000000000414424e-01,1.569999999999716955e+00,2.869999999999992724e+03,-2.175000000000259170e+00,-4.945000000000405294e+00,1.341756960727211734e+01,-2.186122233489920852e+00
2.000000000000041567e+01,3.000000003317462305e+00,1.000000000000632383e+01,6.599999999999953681e-01,1.569999999999962537e+00,2.870000000000004093e+03,-2.175000000000058886e+00,-4.945000000000049134e+00,1.341800144484953705e+01,-2.199097881993794967e+00
2.000000000000198952e+01,3.000000002075279504e+00,1.000000000002509992e+01,6.600000000001110534e-01,1.569999999999165397e+00,2.869999999999989086e+03,-2.175000000000834710e+00,-4.945000000000971951e+00,1.341307106027319307e+01,-2.196663519712485080e+00
1.999999999999918998e+01,3.000000001052140597e+00,1.000000000001836398e+01,6.599999999999064393e-01,1.570000000000430607e+00,2.869999999999986812e+03,-2.174999999999594813e+00,-4.944999999999515339e+00,1.341292982440787540e+01,-2.185137584673361832e+00
2.000000000000180123e+01,3.000000003338936239e+00,9.999999999982737364e+00,6.600000000001147171e-01,1.569999999999275309e+00,2.869999999999990450e+03,-2.175000000000728129e+00,-4.945000000000864482e+00,1.341383664087074479e+01,-2.179402670005533782e+00
2.000000000000289191e+01,3.000000006556851506e+00,1.000000000004203926e+01,6.600000000001827738e-01,1.569999999998723972e+00,2.869999999999975898e+03,-2.175000000001184208e+00,-4.945000000001715357e+00,1.342975023421232095e+01,-2.219870338099132923e+00
2.000000000000153122e+01,3.000000004478440285e+00,1.000000000002978240e+01,6.600000000000642020e-01,1.569999999999449170e+00,2.869999999999995907e+03,-2.175000000000541167e+00,-4.945000000000675300e+00,1.344354430553735291e+01,-2.217413622562562026e+00
2.000000000000072120e+01,3.000000002821434641e+00,1.000000000001585754e+01,6.600000000000130207e-01,1.569999999999785345e+00,2.870000000000001364e+03,-2.175000000000184119e+00,-4.945000000000305818e+00,1.342654952655169431e+01,-2.204444169038468182e+00
2.000000000000180478e+01,3.000000005320936136e+00,9.999999999975218046e+00,6.600000000001270406e-01,1.569999999999285745e+00,2.869999999999986358e+03,-2.175000000000706812e+00,-4.945000000000911555e+00,1.340826839985268393e+01,-2.185915817025648522e+00
1.999999999999942446e+01,3.000000002454676018e+00,9.999999999995859312e+00,6.599999999999035527e-01,1.570000000000320250e+00,2.870000000000022283e+03,-2.174999999999757350e+00,-4.944999999999389217e+00,1.341008486725046112e+01,-2.176833766133564385e+00
1.999999999999790745e+01,3.000000001502867608e+00,1.000000000002061284e+01,6.599999999998117373e-01,1.570000000001025686e+00,2.870000000000007276e+03,-2.174999999999072120e+00,-4.944999999998684004e+00,1.341955761628628530e+01,-2.172953734323672226e+00
1.999999999999924327e+01,3.000000002470119664e+00,1.000000000005733014e+01,6.599999999998984457e-01,1.570000000000464135e+00,2.870000000000007731e+03,-2.174999999999593037e+00,-4.944999999999336815e+00,1.342618260272786834e+01,-2.180921800444998393e+00
1.999999999999885958e+01,2.999999998708963833e+00,1.000000000001971223e+01,6.599999999998930056e-01,1.570000000000645546e+00,2.869999999999999091e+03,-2.174999999999406075e+00,-4.944999999999204476e+00,1.341592954747771849e+01,-2.167819165166801287e+00
2.000000000000305533e+01,3.000000002498895313e+00,9.999999999989986676e+00,6.600000000001718936e-01,1.569999999998500817e+00,2.869999999999969532e+03,-2.175000000001404477e+00,-4.945000000001662954e+00,1.339725156544538187e+01,-2.193455708431776952e+00
2.000000000000255085e+01,3.000000004347282090e+00,1.000000000005104894e+01,6.600000000001607914e-01,1.569999999998937357e+00,2.869999999999998181e+03,-2.175000000000996359e+00,-4.945000000001253504e+00,1.341299063004246683e+01,-2.193301523675916354e+00
2.000000000000191136e+01,3.000000002561611812e+00,1.000000000003199929e+01,6.600000000001173817e-01,1.569999999999166729e+00,2.869999999999984539e+03,-2.175000000000804956e+00,-4.945000000000899121e+00,1.341234320071171560e+01,-2.170179856934662421e+00
2.000000000000176570e+01,3.000000000751146256e+00,9.999999999990563992e+00,6.600000000001048361e-01,1.569999999999207141e+00,2.869999999999969987e+03,-2.175000000000776978e+00,-4.945000000000830731e+00,1.340766605211112150e+01,-2.181102183166244490e+00
1.999999999999935341e+01,2.999999998878591256e+00,9.999999999984058974e+00,6.599999999999814904e-01,1.570000000000440821e+00,2.869999999999982265e+03,-2.174999999999545075e+00,-4.944999999999665441e+00,1.341910557099117263e+01,-2.180200945357530617e+00
2.000000000000262901e+01,3.000000003709772933e+00,1.000000000000587264e+01,6.600000000001928768e-01,1.569999999998841211e+00,2.869999999999981355e+03,-2.175000000001066525e+00,-4.945000000001387619e+00,1.340877483514383606e+01,-2.196939347138051168e+00
1.999999999999965183e+01,3.000000002951789035e+00,1.000000000003307754e+01,6.599999999999759392e-01,1.570000000000176588e+00,2.869999999999982720e+03,-2.174999999999815525e+00,-4.944999999999954099e+00,1.341139981875417853e+01,-2.183257747610579003e+00
1.999999999999930367e+01,3.000000000772274689e+00,9.999999999992910560e+00,6.599999999999494049e-01,1.570000000000227436e+00,2.869999999999969987e+03,-2.174999999999776890e+00,-4.944999999999679652e+00,1.339393903396993046e+01,-2.171992547408569507e+00
2.000000000000067146e+01,3.000000003435422169e+00,9.999999999959698016e+00,6.600000000000424416e-01,1.569999999999551310e+00,2.869999999999965439e+03,-2.175000000000456346e+00,-4.945000000000463025e+00,1.341248510979967890e+01,-2.172568092319802080e+00
1.999999999999951328e+01,3.000000002044403757e+00,9.999999999996594724e+00,6.599999999999701661e-01,1.570000000000344009e+00,2.869999999999993634e+03,-2.174999999999614353e+00,-4.944999999999780016e+00,1.340757444768513551e+01,-2.193949477375846335e+00
2.000000000000103384e+01,3.000000003570079787e+00,9.999999999984501287e+00,6.600000000000578737e-01,1.569999999999555529e+00,2.869999999999966349e+03,-2.175000000000413269e+00,-4.945000000000493223e+00,1.340412558598330506e+01,-2.159471673426065941e+00
1.999999999999895905e+01,3.000000001169772723e+00,1.000000000001023892e+01,6.599999999999310862e-01,1.570000000000430607e+00,2.869999999999977717e+03,-2.174999999999571276e+00,-4.944999999999504681e+00,1.341153831501870464e+01,-2.163395295767071236e+00
2.000000000000010658e+01,3.000000002055438486e+00,1.000000000003712586e+01,6.600000000000058042e-01,1.570000000000111307e+00,2.870000000000002274e+03,-2.174999999999855937e+00,-4.945000000000083773e+00,1.342218729811105682e+01,-2.203224703746517132e+00
1.999999999999768718e+01,3.000000000236915820e+00,9.999999999966526332e+00,6.599999999998252820e-01,1.570000000001086748e+00,2.869999999999992269e+03,-2.174999999998952216e+00,-4.944999999998699103e+00,1.340659307593220007e+01,-2.188109684714679926e+00
1.999999999999978328e+01,3.000000003400419946e+00,9.999999999997411848e+00,6.599999999999340838e-01,1.570000000000139062e+00,2.870000000000000909e+03,-2.174999999999848832e+00,-4.944999999999745377e+00,1.342747726885776771e+01,-2.185608764577288365e+00
1.999999999999981171e+01,3.000000004153729805e+00,1.000000000005217515e+01,6.599999999999722755e-01,1.570000000000140838e+00,2.869999999999979536e+03,-2.174999999999846612e+00,-4.944999999999923013e+00,1.342990790161496051e+01,-2.189939520999375500e+00
2.000000000000252953e+01,3.000000004118323460e+00,9.999999999990386357e+00,6.600000000001770006e-01,1.569999999998793694e+00,2.869999999999997726e+03,-2.175000000001123812e+00,-4.945000000001542162e+00,1.341935056731878184e+01,-2.186234175811127223e+00
2.000000000000063594e+01,3.000000001718315712e+00,1.000000000000730260e+01,6.600000000000634248e-01,1.569999999999709406e+00,2.870000000000003183e+03,-2.175000000000242295e+00,-4.945000000000464802e+00,1.343536521357673408e+01,-2.181784897881904772e+00
2.000000000000227018e+01,3.000000000699472480e+00,9.999999999985803356e+00,6.600000000001609024e-01,1.569999999999050599e+00,2.869999999999977263e+03,-2.175000000000884004e+00,-4.945000000001169127e+00,1.342482265478444781e+01,-2.188978654659022194e+00
2.000000000000165201e+01,3.000000004672467746e+00,1.000000000001162803e+01,6.600000000000906253e-01,1.569999999999356577e+00,2.869999999999996362e+03,-2.175000000000634426e+00,-4.945000000000737472e+00,1.344054053584617670e+01,-2.190319641605968481e+00
2.000000000000112266e+01,3.000000006178737522e+00,1.000000000003543477e+01,6.600000000000646461e-01,1.569999999999641016e+00,2.869999999999992724e+03,-2.175000000000317346e+00,-4.945000000000580265e+00,1.343119155395901743e+01,-2.203259924326397723e+00
2.000000000000129674e+01,3.000000003423083594e+00,9.999999999970317077e+00,6.600000000000658673e-01,1.569999999999375673e+00,2.869999999999979082e+03,-2.175000000000597122e+00,-4.945000000000654872e+00,1.341330919913153430e+01,-2.186202658997940862e+00
1.999999999999915801e+01,3.000000001938649685e+00,1.000000000000332356e+01,6.599999999999314193e-01,1.570000000000601359e+00,2.869999999999999545e+03,-2.174999999999396305e+00,-4.944999999999383888e+00,1.341797234440459263e+01,-2.161786151349877283e+00
1.999999999999898748e+01,3.000000002075156047e+00,9.999999999984753529e+00,6.599999999999149880e-01,1.570000000000514762e+00,2.869999999999978627e+03,-2.174999999999492228e+00,-4.944999999999355467e+00,1.340234199108436464e+01,-2.175968407064534649e+00
2.000000000000004619e+01,3.000000004117632013e+00,9.999999999972160936e+00,6.599999999999949241e-01,1.570000000000055795e+00,2.869999999999994543e+03,-2.174999999999968736e+00,-4.944999999999975415e+00,1.342426450514382630e+01,-2.188301925729355002e+00
2.000000000000202505e+01,3.000000002030111634e+00,9.999999999960579089e+00,6.600000000001611244e-01,1.569999999999120543e+00,2.869999999999969532e+03,-2.175000000000832046e+00,-4.945000000001134488e+00,1.341116050888045130e+01,-2.169625080317373556e+00
1.999999999999934630e+01,3.000000004003646747e+00,1.000000000001599076e+01,6.599999999999301981e-01,1.570000000000313145e+00,2.870000000000006366e+03,-2.174999999999654765e+00,-4.944999999999676987e+00,1.339754110043739743e+01,-2.177971511121393977e+00
2.000000000000141043e+01,3.000000004519911112e+00,9.999999999996690647e+00,6.600000000001041700e-01,1.569999999999453166e+00,2.869999999999958163e+03,-2.175000000000486100e+00,-4.945000000000805862e+00,1.342573138821849987e+01,-2.180979186600383368e+00
1.999999999999965894e+01,3.000000003928734671e+00,9.999999999985172749e+00,6.599999999999697220e-01,1.570000000000085327e+00,2.869999999999955435e+03,-2.174999999999911449e+00,-4.944999999999707185e+00,1.339307544353986934e+01,-2.172588663622692540e+00
1.999999999999662492e+01,2.999999998546804658e+00,1.000000000003028866e+01,6.599999999997387956e-01,1.570000000001617435e+00,2.869999999999994088e+03,-2.174999999998424194e+00,-4.944999999998048068e+00,1.340627103143638443e+01,-2.164150257568356661e+00
2.000000000000025224e+01,2.999999999474902257e+00,1.000000000002088285e+01,6.599999999999991429e-01,1.570000000000017382e+00,2.869999999999983629e+03,-2.174999999999927880e+00,-4.945000000000024265e+00,1.342012306372915198e+01,-2.165294020817983611e+00
1.999999999999907985e+01,3.000000003897034695e+00,9.999999999995678124e+00,6.599999999999173195e-01,1.570000000000410845e+00,2.869999999999995907e+03,-2.174999999999617017e+00,-4.944999999999528661e+00,1.339488781124867600e+01,-2.179487222673323732e+00
2.000000000000056488e+01,3.000000001458251742e+00,9.999999999977497112e+00,6.600000000000554312e-01,1.569999999999979634e+00,2.869999999999978627e+03,-2.174999999999973621e+00,-4.945000000000278284e+00,1.340220843338851431e+01,-2.178534767552151585e+00
1.999999999999783995e+01,2.999999998533117829e+00,1.000000000004483525e+01,6.599999999998030775e-01,1.570000000001029905e+00,2.869999999999998636e+03,-2.174999999999010392e+00,-4.944999999998588969e+00,1.340222808065153792e+01,-2.150819786700583602e+00
2.000000000000204281e+01,3.000000006425497912e+00,1.000000000005946710e+01,6.600000000001355893e-01,1.569999999999341700e+00,2.869999999999990450e+03,-2.175000000000544276e+00,-4.945000000000970175e+00,1.342279230672474100e+01,-2.197786765341489978e+00
1.999999999999909761e+01,3.000000000484702500e+00,9.999999999963989694e+00,6.599999999999535127e-01,1.570000000000638885e+00,2.869999999999984084e+03,-2.174999999999336353e+00,-4.944999999999530438e+00,1.342264799438885881e+01,-2.156009901450459232e+00
1.999999999999973710e+01,3.000000001665132920e+00,9.999999999947169371e+00,6.600000000000041389e-01,1.570000000000317808e+00,2.869999999999988177e+03,-2.174999999999630340e+00,-4.944999999999926565e+00,1.342918593505615910e+01,-2.156541644021840565e+00
2.000000000000070344e+01,3.000000001749286938e+00,9.999999999977076115e+00,6.600000000000376676e-01,1.569999999999710294e+00,2.869999999999984084e+03,-2.175000000000304468e+00,-4.945000000000310258e+00,1.340011136810634440e+01,-2.173199349348028164e+00
2.000000000000115463e+01,3.000000004783935470e+00,9.999999999980021315e+00,6.600000000000959544e-01,1.569999999999587725e+00,2.869999999999962711e+03,-2.175000000000384848e+00,-4.945000000000710827e+00,1.340488731842367898e+01,-2.181549403637678797e+00
1.999999999999928946e+01,3.000000000043384407e+00,9.999999999987684518e+00,6.599999999999348610e-01,1.570000000000456808e+00,2.870000000000015007e+03,-2.174999999999558842e+00,-4.944999999999586393e+00,1.340198598879428893e+01,-2.174296993993876104e+00
2.000000000000001066e+01,3.000000003826221118e+00,1.000000000001640821e+01,6.599999999999878186e-01,1.570000000000055573e+00,2.869999999999993634e+03,-2.174999999999953637e+00,-4.944999999999899920e+00,1.340862964198304574e+01,-2.177397900495773975e+00
1.999999999999963407e+01,3.000000000311400239e+00,9.999999999984668264e+00,6.599999999999727196e-01,1.570000000000144391e+00,2.869999999999974534e+03,-2.174999999999894129e+00,-4.944999999999934559e+00,1.339896527874271648e+01,-2.176330550770455563e+00
1.999999999999980460e+01,3.000000000342602835e+00,1.000000000000313527e+01,6.599999999999756062e-01,1.570000000000167040e+00,2.870000000000004547e+03,-2.174999999999781330e+00,-4.944999999999919460e+00,1.340713141015753074e+01,-2.172594335601351734e+00
2.000000000000246203e+01,3.000000007549708414e+00,1.000000000002119549e+01,6.600000000001675637e-01,1.569999999998871631e+00,2.869999999999956344e+03,-2.175000000001040767e+00,-4.945000000001534168e+00,1.341892007670811005e+01,-2.199326695729463932e+00
1.999999999999884537e+01,3.000000000250202081e+00,9.999999999990176747e+00,6.599999999999107692e-01,1.570000000000564944e+00,2.869999999999988631e+03,-2.174999999999416733e+00,-4.944999999999349249e+00,1.339553835055555098e+01,-2.174051660270982289e+00
2.000000000000108713e+01,3.000000004048684499e+00,1.000000000002103562e+01,6.600000000000717515e-01,1.569999999999523554e+00,2.869999999999961801e+03,-2.175000000000412381e+00,-4.945000000000595364e+00,1.342655928057073744e+01,-2.192501647617465022e+00
1.999999999999917932e+01,3.000000002271612676e+00,1.000000000000474287e+01,6.599999999999591749e-01,1.570000000000448814e+00,2.869999999999992269e+03,-2.174999999999534417e+00,-4.944999999999565077e+00,1.339858850628283449e+01,-2.172896933506419881e+00
