1.999999999999963052e+01,3.000000003511119395e+00,1.000000000001025668e+01,6.599999999999546230e-01,1.570000000000332241e+00,2.869999999999976808e+03,-2.174999999999706279e+00,-4.944999999999698304e+00,1.341228349934189801e+01,-2.185935793315655573e+00
2.000000000000036593e+01,3.000000001839171038e+00,1.000000000000475175e+01,6.600000000000599831e-01,1.569999999999868168e+00,2.869999999999976808e+03,-2.175000000000102407e+00,-4.945000000000224993e+00,1.340561155158026452e+01,-2.168552678306539860e+00
1.999999999999988276e+01,3.000000000580207438e+00,9.999999999972351006e+00,6.599999999999969225e-01,1.570000000000097318e+00,2.869999999999976353e+03,-2.174999999999880806e+00,-4.944999999999835971e+00,1.339832048588441182e+01,-2.166485360856209130e+00
1.999999999999890221e+01,2.999999999046510268e+00,9.999999999978621545e+00,6.599999999998938938e-01,1.570000000000562501e+00,2.870000000000003638e+03,-2.174999999999441602e+00,-4.944999999999229345e+00,1.339595748325543489e+01,-2.170671863234120202e+00
1.999999999999926104e+01,3.000000001936006022e+00,9.999999999977223553e+00,6.599999999999466294e-01,1.570000000000505214e+00,2.870000000000000909e+03,-2.174999999999491784e+00,-4.944999999999454054e+00,1.340415602186231325e+01,-2.175675889812861641e+00
1.999999999999644729e+01,3.000000001346234679e+00,9.999999999998861355e+00,6.599999999997503419e-01,1.570000000001712914e+00,2.870000000000000909e+03,-2.174999999998320277e+00,-4.944999999998143991e+00,1.341472287476684677e+01,-2.168051408954126291e+00
2.000000000000096989e+01,3.000000001966108165e+00,1.000000000001157829e+01,6.600000000000684208e-01,1.569999999999595275e+00,2.869999999999997726e+03,-2.175000000000360867e+00,-4.945000000000517204e+00,1.341388990316136187e+01,-2.184434334663193145e+00
2.000000000000041567e+01,3.000000000020785151e+00,1.000000000000637357e+01,6.600000000000316724e-01,1.569999999999753371e+00,2.869999999999974989e+03,-2.175000000000212541e+00,-4.945000000000328022e+00,1.341007966458036549e+01,-2.162673481917875229e+00
1.999999999999892353e+01,3.000000002764322105e+00,1.000000000003340972e+01,6.599999999999311973e-01,1.570000000000671303e+00,2.870000000000000000e+03,-2.174999999999332356e+00,-4.944999999999432738e+00,1.341537406613423045e+01,-2.173822484728844540e+00
1.999999999999989342e+01,3.000000002798084431e+00,1.000000000000237144e+01,6.599999999999822675e-01,1.570000000000274509e+00,2.869999999999995907e+03,-2.174999999999752465e+00,-4.944999999999777351e+00,1.341796707193483407e+01,-2.184922683371339769e+00
2.000000000000176215e+01,3.000000002501920893e+00,9.999999999997408295e+00,6.600000000001369216e-01,1.569999999999321716e+00,2.869999999999990450e+03,-2.175000000000615774e+00,-4.945000000000855600e+00,1.341614392891673724e+01,-2.176080031691458139e+00
2.000000000000083134e+01,3.000000004399444808e+00,9.999999999991903366e+00,6.600000000000291189e-01,1.569999999999577289e+00,2.869999999999991360e+03,-2.175000000000401279e+00,-4.945000000000512763e+00,1.341087821028486360e+01,-2.189648959800393424e+00
1.999999999999975842e+01,3.000000002483517392e+00,9.999999999987018384e+00,6.599999999999862643e-01,1.570000000000006057e+00,2.869999999999989086e+03,-2.174999999999935429e+00,-4.945000000000028706e+00,1.339911723496493323e+01,-2.178585784982439044e+00
2.000000000000177280e+01,3.000000003026043416e+00,1.000000000002414424e+01,6.600000000000949552e-01,1.569999999999215357e+00,2.870000000000001819e+03,-2.175000000000756994e+00,-4.945000000001011919e+00,1.341476361977642284e+01,-2.184092325601453055e+00
2.000000000000206057e+01,3.000000003470060683e+00,9.999999999956342478e+00,6.600000000001671197e-01,1.569999999999159623e+00,2.869999999999979536e+03,-2.175000000000841816e+00,-4.945000000001035012e+00,1.342054966883623202e+01,-2.196617920914682109e+00
2.000000000000130740e+01,3.000000004668426090e+00,9.999999999977651655e+00,6.600000000000983968e-01,1.569999999999350360e+00,2.869999999999971351e+03,-2.175000000000576250e+00,-4.945000000000822737e+00,1.340625353528905528e+01,-2.163617691512384145e+00
2.000000000000112976e+01,3.000000005100454281e+00,1.000000000001336353e+01,6.600000000000449951e-01,1.569999999999525331e+00,2.869999999999980446e+03,-2.175000000000435030e+00,-4.945000000000578488e+00,1.340820007658122570e+01,-2.190577726883125464e+00
1.999999999999995737e+01,3.000000002641109109e+00,1.000000000002378719e+01,6.599999999999737188e-01,1.570000000000124407e+00,2.869999999999997272e+03,-2.174999999999880362e+00,-4.944999999999942553e+00,1.340303866245351117e+01,-2.195365052624577373e+00
1.999999999999868905e+01,3.000000001740038780e+00,1.000000000000767386e+01,6.599999999999124345e-01,1.570000000000663087e+00,2.869999999999995907e+03,-2.174999999999365663e+00,-4.944999999999372342e+00,1.342004033046282174e+01,-2.188283040736807905e+00
1.999999999999891287e+01,2.999999999928297800e+00,1.000000000001360156e+01,6.599999999999024425e-01,1.570000000000572715e+00,2.869999999999973625e+03,-2.174999999999451372e+00,-4.944999999999377671e+00,1.340893123630748285e+01,-2.190611871897424123e+00
1.999999999999991829e+01,3.000000004736883330e+00,1.000000000005222489e+01,6.599999999999802691e-01,1.570000000000061569e+00,2.869999999999981355e+03,-2.174999999999919442e+00,-4.944999999999929230e+00,1.340697169437749103e+01,-2.189420417453478596e+00
1.999999999999959499e+01,2.999999998756804676e+00,9.999999999992665423e+00,6.599999999999461853e-01,1.570000000000085993e+00,2.869999999999994088e+03,-2.174999999999930989e+00,-4.944999999999721396e+00,1.338873135648839430e+01,-2.160951938933959315e+00
2.000000000000060396e+01,3.000000001576746733e+00,1.000000000001720402e+01,6.600000000000341149e-01,1.569999999999733831e+00,2.870000000000002274e+03,-2.175000000000302691e+00,-4.945000000000175255e+00,1.340129988769154323e+01,-2.174762977104003792e+00
1.999999999999934985e+01,3.000000002697942314e+00,1.000000000000673239e+01,6.599999999999281997e-01,1.570000000000463691e+00,2.870000000000005002e+03,-2.174999999999579714e+00,-4.944999999999535767e+00,1.342400637404884911e+01,-2.186161586809948876e+00
1.999999999999993250e+01,3.000000003775395996e+00,1.000000000000578915e+01,6.599999999999683897e-01,1.570000000000088658e+00,2.869999999999999091e+03,-2.174999999999926104e+00,-4.944999999999932783e+00,1.342654276432588389e+01,-2.206901034790492044e+00
1.999999999999877787e+01,3.000000001474211864e+00,9.999999999985945465e+00,6.599999999998842348e-01,1.570000000000509655e+00,2.869999999999994543e+03,-2.174999999999572164e+00,-4.944999999999177831e+00,1.340532654558607462e+01,-2.179093158828667054e+00
2.000000000000040856e+01,3.000000002138588417e+00,9.999999999989482191e+00,6.600000000000431077e-01,1.569999999999871498e+00,2.869999999999960892e+03,-2.175000000000159694e+00,-4.945000000000114859e+00,1.340997427839996448e+01,-2.171769935345496894e+00
2.000000000000205347e+01,3.000000003964048645e+00,9.999999999992331468e+00,6.600000000001615685e-01,1.569999999999188489e+00,2.869999999999965894e+03,-2.175000000000780531e+00,-4.945000000001056328e+00,1.341754034419174957e+01,-2.194045619485241350e+00
2.000000000000416023e+01,3.000000007360924315e+00,9.999999999959724661e+00,6.600000000002853584e-01,1.569999999998126894e+00,2.869999999999955890e+03,-2.175000000001774403e+00,-4.945000000002277574e+00,1.341302177965336284e+01,-2.183075856852848773e+00
2.000000000000096279e+01,3.000000003885259670e+00,1.000000000002529710e+01,6.600000000000790790e-01,1.569999999999509344e+00,2.869999999999979536e+03,-2.175000000000380407e+00,-4.945000000000593587e+00,1.340121415005633310e+01,-2.179928467969170836e+00
2.000000000000180478e+01,3.000000005032265715e+00,9.999999999982172483e+00,6.600000000000918465e-01,1.569999999999214912e+00,2.869999999999974079e+03,-2.175000000000815614e+00,-4.945000000000802309e+00,1.341673361205864623e+01,-2.184492377590999901e+00
2.000000000000267875e+01,3.000000005085339705e+00,1.000000000001661427e+01,6.600000000001827738e-01,1.569999999998750173e+00,2.869999999999963165e+03,-2.175000000001167333e+00,-4.945000000001542162e+00,1.341480978115311551e+01,-2.184278284022877159e+00
2.000000000000085265e+01,3.000000003370175250e+00,1.000000000001666933e+01,6.600000000000394440e-01,1.569999999999639906e+00,2.869999999999974534e+03,-2.175000000000341771e+00,-4.945000000000481677e+00,1.342044058104387894e+01,-2.197351574627172788e+00
1.999999999999916511e+01,3.000000002530415877e+00,1.000000000001483258e+01,6.599999999999153211e-01,1.570000000000304041e+00,2.869999999999983174e+03,-2.174999999999689404e+00,-4.944999999999661888e+00,1.341029061578791470e+01,-2.173597031314502548e+00
1.999999999999946354e+01,3.000000001738537314e+00,1.000000000001156586e+01,6.599999999999427436e-01,1.570000000000284279e+00,2.869999999999979536e+03,-2.174999999999721823e+00,-4.944999999999779128e+00,1.340294063038596484e+01,-2.188330899624352011e+00
2.000000000000158806e+01,3.000000003527317549e+00,1.000000000000071410e+01,6.600000000000991740e-01,1.569999999999265539e+00,2.869999999999986812e+03,-2.175000000000675726e+00,-4.945000000000840501e+00,1.339836040435791276e+01,-2.196287744060582803e+00
2.000000000000119016e+01,3.000000003160888440e+00,1.000000000000466649e+01,6.600000000001053913e-01,1.569999999999523999e+00,2.869999999999960892e+03,-2.175000000000363531e+00,-4.945000000000817408e+00,1.340023636646405691e+01,-2.184965957413695481e+00
2.000000000000252598e+01,3.000000005558146832e+00,9.999999999981955767e+00,6.600000000001884359e-01,1.569999999998866302e+00,2.869999999999988177e+03,-2.175000000001107825e+00,-4.945000000001398277e+00,1.342664013501379827e+01,-2.172863307205568972e+00
1.999999999999848299e+01,3.000000003528296766e+00,1.000000000002696510e+01,6.599999999998897859e-01,1.570000000000760121e+00,2.869999999999985903e+03,-2.174999999999246203e+00,-4.944999999999195595e+00,1.342780023620646190e+01,-2.183908264018643131e+00
2.000000000000108713e+01,3.000000002985905745e+00,9.999999999983721466e+00,6.600000000000739719e-01,1.569999999999622364e+00,2.869999999999999091e+03,-2.175000000000384404e+00,-4.945000000000522533e+00,1.343917221663540751e+01,-2.175170989956952905e+00
2.000000000000184031e+01,3.000000004312881163e+00,9.999999999988375521e+00,6.600000000001188249e-01,1.569999999999278195e+00,2.869999999999991360e+03,-2.175000000000685052e+00,-4.945000000000893792e+00,1.341193864811903680e+01,-2.173467611282513534e+00
2.000000000000352784e+01,3.000000005880913534e+00,9.999999999963304020e+00,6.600000000002440581e-01,1.569999999998415330e+00,2.869999999999969987e+03,-2.175000000001496403e+00,-4.945000000001934737e+00,1.343277682291285302e+01,-2.187725218573888242e+00
2.000000000000090594e+01,3.000000001346837752e+00,1.000000000000652278e+01,6.600000000000539879e-01,1.569999999999609486e+00,2.869999999999982720e+03,-2.175000000000336886e+00,-4.945000000000515428e+00,1.341346801233963681e+01,-2.183257720960768644e+00
2.000000000000282441e+01,3.000000006558968924e+00,1.000000000001482725e+01,6.600000000001663425e-01,1.569999999998786144e+00,2.869999999999967713e+03,-2.175000000001166889e+00,-4.945000000001514628e+00,1.342256572372065015e+01,-2.200625908221175653e+00
1.999999999999999645e+01,3.000000003250310243e+00,1.000000000001939959e+01,6.599999999999811573e-01,1.570000000000037588e+00,2.870000000000001364e+03,-2.174999999999953193e+00,-4.945000000000026041e+00,1.341543368135670100e+01,-2.190723072345265532e+00
1.999999999999780798e+01,3.000000001001039696e+00,1.000000000003519141e+01,6.599999999998101829e-01,1.570000000001139817e+00,2.870000000000004093e+03,-2.174999999998940226e+00,-4.944999999998612950e+00,1.341655753707354748e+01,-2.167671169681158361e+00
1.999999999999781153e+01,3.000000000126333610e+00,9.999999999984849453e+00,6.599999999998584777e-01,1.570000000001140927e+00,2.869999999999979536e+03,-2.174999999998835865e+00,-4.944999999998807461e+00,1.340369653386099635e+01,-2.156557599943511150e+00
1.999999999999868550e+01,2.999999997869814194e+00,9.999999999987002397e+00,6.599999999999104361e-01,1.570000000000749463e+00,2.869999999999980901e+03,-2.174999999999239986e+00,-4.944999999999262208e+00,1.341586204520169723e+01,-2.159557780684309591e+00
2.000000000000260059e+01,3.000000003674152982e+00,9.999999999969469755e+00,6.600000000001484679e-01,1.569999999998797913e+00,2.869999999999982265e+03,-2.175000000001168221e+00,-4.945000000001363638e+00,1.341948962624973696e+01,-2.166237919070487017e+00
2.000000000000101252e+01,3.000000003491638978e+00,9.999999999978573584e+00,6.600000000000593170e-01,1.569999999999453166e+00,2.869999999999963620e+03,-2.175000000000526956e+00,-4.945000000000498552e+00,1.339423697148308001e+01,-2.172530505475501084e+00
1.999999999999981526e+01,3.000000003377137237e+00,1.000000000005938894e+01,6.599999999999711653e-01,1.570000000000232099e+00,2.870000000000003638e+03,-2.174999999999788880e+00,-4.944999999999769358e+00,1.343792940393743685e+01,-2.179586572348056528e+00
1.999999999999777600e+01,2.999999998955470648e+00,1.000000000003002043e+01,6.599999999998130695e-01,1.570000000001087415e+00,2.869999999999997272e+03,-2.174999999998995737e+00,-4.944999999998676010e+00,1.341282764639721492e+01,-2.182190111681223232e+00
2.000000000000040501e+01,3.000000002829988244e+00,1.000000000001902478e+01,6.600000000000134648e-01,1.569999999999901918e+00,2.870000000000000455e+03,-2.175000000000105960e+00,-4.945000000000175255e+00,1.341142695344441904e+01,-2.159949378858873281e+00
1.999999999999921485e+01,3.000000001556534901e+00,1.000000000000805933e+01,6.599999999999456302e-01,1.570000000000440377e+00,2.869999999999984084e+03,-2.174999999999582379e+00,-4.944999999999594387e+00,1.342877059013238572e+01,-2.197112363827629977e+00
1.999999999999924327e+01,3.000000002646456831e+00,9.999999999977163156e+00,6.599999999999316413e-01,1.570000000000292273e+00,2.869999999999984993e+03,-2.174999999999756017e+00,-4.944999999999561524e+00,1.340962169478702748e+01,-2.179656166872953271e+00
1.999999999999831246e+01,3.000000002633263385e+00,9.999999999956372676e+00,6.599999999998813482e-01,1.570000000000981055e+00,2.869999999999979082e+03,-2.174999999999056133e+00,-4.944999999999057039e+00,1.342299073355010819e+01,-2.185059332073941096e+00
2.000000000000296296e+01,3.000000004225878758e+00,9.999999999975640819e+00,6.600000000001940981e-01,1.569999999998622719e+00,2.869999999999976353e+03,-2.175000000001374278e+00,-4.945000000001503970e+00,1.340931257904589735e+01,-2.177000278640969455e+00
1.999999999999852918e+01,3.000000002690911494e+00,1.000000000000417266e+01,6.599999999999290878e-01,1.570000000000810747e+00,2.869999999999998636e+03,-2.174999999999115197e+00,-4.944999999999400764e+00,1.341267696287417976e+01,-2.162463476718780253e+00
1.999999999999823430e+01,3.000000001798978300e+00,1.000000000004781775e+01,6.599999999998640288e-01,1.570000000000946194e+00,2.870000000000004093e+03,-2.174999999999107203e+00,-4.944999999998986873e+00,1.341113364873702274e+01,-2.183141279335947260e+00
1.999999999999741362e+01,3.000000000335856232e+00,9.999999999986853183e+00,6.599999999998036326e-01,1.570000000001100071e+00,2.869999999999973625e+03,-2.174999999998944222e+00,-4.944999999998543672e+00,1.339690051166999929e+01,-2.166168517106547675e+00
2.000000000000144595e+01,3.000000003456884556e+00,1.000000000000281553e+01,6.600000000000989520e-01,1.569999999999377005e+00,2.869999999999961346e+03,-2.175000000000579803e+00,-4.945000000000812967e+00,1.341442628713994267e+01,-2.158592263998849070e+00
2.000000000000066791e+01,3.000000000938531031e+00,9.999999999966293629e+00,6.600000000000437739e-01,1.569999999999691864e+00,2.869999999999971806e+03,-2.175000000000320899e+00,-4.945000000000277396e+00,1.341450955561642289e+01,-2.163080659860861399e+00
2.000000000000071054e+01,3.000000001080890488e+00,9.999999999968455455e+00,6.600000000000399991e-01,1.569999999999703411e+00,2.869999999999979082e+03,-2.175000000000302247e+00,-4.945000000000277396e+00,1.339357774223192976e+01,-2.168784723519158408e+00
1.999999999999869615e+01,2.999999999375737136e+00,9.999999999966103559e+00,6.599999999999055511e-01,1.570000000000645546e+00,2.869999999999963165e+03,-2.174999999999422062e+00,-4.944999999999159179e+00,1.340132432164815057e+01,-2.175010762343913662e+00
2.000000000000160583e+01,3.000000001355242585e+00,9.999999999963900876e+00,6.600000000001533529e-01,1.569999999999283746e+00,2.869999999999950887e+03,-2.175000000000659295e+00,-4.945000000001001261e+00,1.338606997665925391e+01,-2.174346784011182532e+00
2.000000000000428102e+01,3.000000005650583557e+00,9.999999999958795627e+00,6.600000000003253264e-01,1.569999999998007656e+00,2.869999999999943157e+03,-2.175000000001874767e+00,-4.945000000002503171e+00,1.339863574060784046e+01,-2.185596228392668205e+00
1.999999999999970157e+01,3.000000002303379265e+00,1.000000000003562484e+01,6.599999999999647260e-01,1.570000000000252527e+00,2.869999999999990450e+03,-2.174999999999724931e+00,-4.944999999999862617e+00,1.341599385863215232e+01,-2.183032531211856142e+00
2.000000000000071410e+01,3.000000001713719389e+00,9.999999999974628295e+00,6.600000000000821876e-01,1.569999999999657447e+00,2.869999999999959527e+03,-2.175000000000271605e+00,-4.945000000000596252e+00,1.340949261068607612e+01,-2.165070636287702133e+00
2.000000000000271427e+01,3.000000002891975992e+00,1.000000000000064126e+01,6.600000000001776668e-01,1.569999999998738627e+00,2.869999999999956799e+03,-2.175000000001160672e+00,-4.945000000001583906e+00,1.340069050322840560e+01,-2.176570022227499734e+00
1.999999999999845457e+01,3.000000000313873372e+00,9.999999999991986854e+00,6.599999999998544808e-01,1.570000000000689511e+00,2.869999999999994998e+03,-2.174999999999292832e+00,-4.944999999999247997e+00,1.342006039491754343e+01,-2.178619508170601460e+00
2.000000000000120082e+01,3.000000003185568698e+00,1.000000000001594458e+01,6.600000000000950662e-01,1.569999999999598828e+00,2.869999999999994543e+03,-2.175000000000309797e+00,-4.945000000000625562e+00,1.341966529709053546e+01,-2.189886355535854534e+00
2.000000000000028066e+01,2.999999997881586555e+00,9.999999999962227548e+00,6.600000000000230127e-01,1.569999999999886597e+00,2.869999999999966803e+03,-2.175000000000084199e+00,-4.945000000000059792e+00,1.340319507855034864e+01,-2.153458812482365925e+00
2.000000000000168399e+01,3.000000004119044217e+00,9.999999999990267341e+00,6.600000000001187139e-01,1.569999999999326601e+00,2.869999999999969987e+03,-2.175000000000590905e+00,-4.945000000000891127e+00,1.338839688604810263e+01,-2.179693307138182767e+00
2.000000000000272848e+01,3.000000003865995524e+00,9.999999999993375965e+00,6.600000000001593481e-01,1.569999999998664464e+00,2.869999999999988631e+03,-2.175000000001304556e+00,-4.945000000001427587e+00,1.340016613754343489e+01,-2.181129873090245308e+00
1.999999999999869260e+01,3.000000000381385590e+00,9.999999999958950170e+00,6.599999999998880096e-01,1.570000000000537854e+00,2.869999999999992724e+03,-2.174999999999504663e+00,-4.944999999999196483e+00,1.339753208779389482e+01,-2.171575824976343938e+00
1.999999999999986144e+01,3.000000006025065336e+00,1.000000000000000533e+01,6.599999999999706102e-01,1.570000000000119522e+00,2.869999999999989541e+03,-2.174999999999929656e+00,-4.944999999999749818e+00,1.340699847622975760e+01,-2.166719280169148387e+00
1.999999999999630873e+01,3.000000002535331944e+00,1.000000000001875300e+01,6.599999999997332445e-01,1.570000000001724905e+00,2.869999999999997272e+03,-2.174999999998301181e+00,-4.944999999997994777e+00,1.340746177525109850e+01,-2.165174311154031805e+00
1.999999999999997513e+01,3.000000004594015834e+00,9.999999999995974775e+00,6.599999999999972555e-01,1.569999999999930340e+00,2.869999999999954525e+03,-2.175000000000088640e+00,-4.945000000000002061e+00,1.340935232312976666e+01,-2.157148627369220861e+00
1.999999999999968381e+01,3.000000004640685169e+00,1.000000000000034639e+01,6.599999999999801581e-01,1.570000000000204121e+00,2.869999999999978627e+03,-2.174999999999797318e+00,-4.944999999999884821e+00,1.343002141638008595e+01,-2.189413921893734294e+00
2.000000000000179767e+01,3.000000003682204319e+00,9.999999999982541965e+00,6.600000000001361444e-01,1.569999999999180496e+00,2.869999999999949068e+03,-2.175000000000775646e+00,-4.945000000001109619e+00,1.340742391499735930e+01,-2.176838510421283512e+00
1.999999999999915090e+01,3.000000000859482263e+00,9.999999999994903632e+00,6.599999999999606182e-01,1.570000000000468354e+00,2.869999999999993634e+03,-2.174999999999566835e+00,-4.944999999999444285e+00,1.342400809269354767e+01,-2.174792351190900863e+00
1.999999999999862865e+01,3.000000002559032986e+00,1.000000000002514966e+01,6.599999999998806821e-01,1.570000000000693952e+00,2.870000000000004093e+03,-2.174999999999352784e+00,-4.944999999999058815e+00,1.341879524071024576e+01,-2.185041317277295558e+00
1.999999999999947065e+01,3.000000002029755031e+00,1.000000000002120615e+01,6.599999999999406342e-01,1.570000000000256080e+00,2.869999999999965894e+03,-2.174999999999704503e+00,-4.944999999999739160e+00,1.340024302309806359e+01,-2.184068113616967288e+00
2.000000000000006750e+01,3.000000001217650425e+00,1.000000000001924683e+01,6.599999999999859313e-01,1.570000000000004725e+00,2.869999999999976808e+03,-2.174999999999943867e+00,-4.945000000000094431e+00,1.340256702069816441e+01,-2.185525900586902104e+00
2.000000000000126832e+01,3.000000003237204727e+00,9.999999999988387955e+00,6.600000000000826317e-01,1.569999999999333040e+00,2.869999999999980446e+03,-2.175000000000637090e+00,-4.945000000000725926e+00,1.340954499908112219e+01,-2.175417524110124123e+00
2.000000000000030909e+01,3.000000003126084280e+00,9.999999999985217158e+00,6.600000000000207923e-01,1.569999999999982743e+00,2.869999999999989086e+03,-2.175000000000010925e+00,-4.944999999999987850e+00,1.342640818184402285e+01,-2.166266691350554829e+00
1.999999999999944222e+01,3.000000001172282715e+00,1.000000000003601919e+01,6.599999999999446310e-01,1.570000000000532969e+00,2.869999999999993179e+03,-2.174999999999490452e+00,-4.944999999999558860e+00,1.342610838755841662e+01,-2.190747588992888240e+00
2.000000000000028422e+01,3.000000000400451672e+00,1.000000000000342304e+01,6.599999999999962563e-01,1.569999999999946994e+00,2.869999999999997726e+03,-2.175000000000056222e+00,-4.945000000000120188e+00,1.341505969149063660e+01,-2.174011140259457076e+00
1.999999999999787903e+01,3.000000000949307299e+00,1.000000000003376677e+01,6.599999999998347189e-01,1.570000000001076979e+00,2.870000000000000000e+03,-2.174999999999035261e+00,-4.944999999998715978e+00,1.342372051175462211e+01,-2.177000798642979351e+00
2.000000000000024158e+01,3.000000000193775662e+00,1.000000000001105960e+01,6.600000000000127987e-01,1.569999999999923679e+00,2.869999999999998181e+03,-2.175000000000050004e+00,-4.945000000000078444e+00,1.341664596026684997e+01,-2.187327184245826839e+00
2.000000000000137135e+01,3.000000003439058816e+00,1.000000000006905765e+01,6.600000000000555422e-01,1.569999999999451612e+00,2.870000000000001364e+03,-2.175000000000530953e+00,-4.945000000000633555e+00,1.339691253145748462e+01,-2.184154796076550831e+00
2.000000000000133227e+01,3.000000002057862769e+00,1.000000000003766765e+01,6.600000000001048361e-01,1.569999999999426743e+00,2.869999999999973170e+03,-2.175000000000499867e+00,-4.945000000000791651e+00,1.341047044262856325e+01,-2.188859183660420982e+00
2.000000000000082423e+01,3.000000002075504213e+00,9.999999999992995825e+00,6.600000000000534328e-01,1.569999999999742935e+00,2.869999999999953616e+03,-2.175000000000194333e+00,-4.945000000000480789e+00,1.342079431478759588e+01,-2.194376132069249419e+00
1.999999999999947065e+01,3.000000002851780145e+00,1.000000000002290257e+01,6.599999999999447420e-01,1.570000000000192353e+00,2.869999999999987722e+03,-2.174999999999774225e+00,-4.944999999999803109e+00,1.340870053710056631e+01,-2.165056960051799262e+00
2.000000000000101252e+01,3.000000005024089589e+00,9.999999999993471889e+00,6.600000000000614264e-01,1.569999999999524221e+00,2.869999999999979536e+03,-2.175000000000431033e+00,-4.945000000000678853e+00,1.340804137614888525e+01,-2.176580318167367523e+00
1.999999999999802824e+01,2.999999996585838602e+00,1.000000000001912426e+01,6.599999999998653610e-01,1.570000000001128715e+00,2.869999999999996362e+03,-2.174999999998870948e+00,-4.944999999998839435e+00,1.340463759329117543e+01,-2.167462064850560921e+00
1.999999999999923617e+01,3.000000000284201995e+00,1.000000000004120082e+01,6.599999999999131006e-01,1.570000000000413065e+00,2.869999999999982720e+03,-2.174999999999587263e+00,-4.944999999999461160e+00,1.340486224074140864e+01,-2.193872164877402664e+00
2.000000000000196465e+01,3.000000003784843994e+00,1.000000000002231459e+01,6.600000000001108313e-01,1.569999999999199147e+00,2.870000000000004093e+03,-2.175000000000757439e+00,-4.945000000001068763e+00,1.343252063667223872e+01,-2.220507780314100899e+00
2.000000000000127542e+01,3.000000004023871902e+00,1.000000000000267697e+01,6.600000000000946221e-01,1.569999999999500018e+00,2.869999999999974989e+03,-2.175000000000473221e+00,-4.945000000000650431e+00,1.342363253029971659e+01,-2.179418730555139572e+00
2.000000000000107292e+01,3.000000003838586782e+00,9.999999999993793409e+00,6.600000000000793010e-01,1.569999999999591278e+00,2.869999999999982720e+03,-2.175000000000389289e+00,-4.945000000000568718e+00,1.339585356331411603e+01,-2.177373361424408849e+00
1.999999999999858957e+01,2.999999999609415990e+00,1.000000000002384937e+01,6.599999999999031086e-01,1.570000000000827178e+00,2.869999999999975898e+03,-2.174999999999162270e+00,-4.944999999999177831e+00,1.340747462355178676e+01,-2.185937112435538232e+00
2.000000000000066080e+01,3.000000004076011528e+00,9.999999999995800692e+00,6.600000000000287859e-01,1.569999999999776685e+00,2.869999999999970441e+03,-2.175000000000193445e+00,-4.945000000000317364e+00,1.342294830028608565e+01,-2.165645373644332405e+00
2.000000000000299849e+01,3.000000004825160715e+00,9.999999999944435558e+00,6.600000000002258504e-01,1.569999999998719975e+00,2.869999999999960437e+03,-2.175000000001176659e+00,-4.945000000001700258e+00,1.339423038498333973e+01,-2.190775781979291015e+00
1.999999999999909051e+01,3.000000000531066302e+00,1.000000000002256684e+01,6.599999999999225375e-01,1.570000000000497664e+00,2.869999999999994088e+03,-2.174999999999496669e+00,-4.944999999999450502e+00,1.340810552554329860e+01,-2.185428358371933832e+00
2.000000000000041211e+01,3.000000000106310516e+00,9.999999999982662757e+00,6.600000000000132427e-01,1.569999999999957652e+00,2.869999999999991815e+03,-2.175000000000024247e+00,-4.945000000000116636e+00,1.341553315221208464e+01,-2.186914806300687353e+00
2.000000000000080647e+01,3.000000003801518655e+00,1.000000000000580691e+01,6.600000000000320055e-01,1.569999999999808660e+00,2.869999999999997726e+03,-2.175000000000187228e+00,-4.945000000000254303e+00,1.341772034311809669e+01,-2.196899852275518317e+00
2.000000000000196820e+01,3.000000001989753251e+00,1.000000000001433165e+01,6.600000000001106093e-01,1.569999999999172946e+00,2.869999999999985903e+03,-2.175000000000828049e+00,-4.945000000000943530e+00,1.341136961632930458e+01,-2.196431317669036876e+00
1.999999999999923972e+01,3.000000000901263952e+00,1.000000000001457678e+01,6.599999999999115463e-01,1.570000000000427942e+00,2.869999999999986812e+03,-2.174999999999587708e+00,-4.944999999999543761e+00,1.341185572394621417e+01,-2.185281699087817220e+00
2.000000000000164491e+01,3.000000002994988701e+00,9.999999999985256238e+00,6.600000000001023936e-01,1.569999999999351248e+00,2.869999999999989541e+03,-2.175000000000659739e+00,-4.945000000000737472e+00,1.341008961216989626e+01,-2.176444198658116669e+00
2.000000000000300915e+01,3.000000006020723475e+00,1.000000000004209610e+01,6.600000000001964295e-01,1.569999999998667795e+00,2.869999999999969532e+03,-2.175000000001214406e+00,-4.945000000001809504e+00,1.342692156438003437e+01,-2.219703001810773291e+00
2.000000000000205347e+01,3.000000004768918593e+00,1.000000000001652367e+01,6.600000000001138289e-01,1.569999999999210027e+00,2.869999999999990905e+03,-2.175000000000770317e+00,-4.945000000000999485e+00,1.344207638168766117e+01,-2.215337677197535271e+00
2.000000000000064659e+01,3.000000002775740526e+00,1.000000000001632294e+01,6.600000000000083578e-01,1.569999999999790896e+00,2.870000000000000000e+03,-2.175000000000175238e+00,-4.945000000000288942e+00,1.342238116432280570e+01,-2.201134708261693884e+00
2.000000000000215650e+01,3.000000005428412830e+00,9.999999999970338393e+00,6.600000000001532419e-01,1.569999999999118767e+00,2.869999999999987722e+03,-2.175000000000882228e+00,-4.945000000001106955e+00,1.340742590491700525e+01,-2.188845741394123134e+00
1.999999999999905498e+01,3.000000002298516488e+00,1.000000000000054534e+01,6.599999999998764633e-01,1.570000000000503437e+00,2.870000000000025921e+03,-2.174999999999581046e+00,-4.944999999999192042e+00,1.341597674545397112e+01,-2.174689804265898196e+00
1.999999999999786482e+01,3.000000001600986010e+00,1.000000000001668532e+01,6.599999999998118483e-01,1.570000000001033680e+00,2.870000000000005002e+03,-2.174999999999075673e+00,-4.944999999998680451e+00,1.341471828540935896e+01,-2.169296951877177637e+00
1.999999999999991829e+01,3.000000002561094448e+00,1.000000000005271872e+01,6.599999999999496270e-01,1.570000000000150830e+00,2.870000000000000909e+03,-2.174999999999883471e+00,-4.944999999999732054e+00,1.342566248039939580e+01,-2.179794442622534856e+00
1.999999999999912959e+01,2.999999999381583571e+00,1.000000000002278178e+01,6.599999999999162092e-01,1.570000000000554508e+00,2.869999999999996362e+03,-2.174999999999478018e+00,-4.944999999999324380e+00,1.341612063095572971e+01,-2.173855617987062949e+00
2.000000000000255795e+01,3.000000001891067747e+00,9.999999999987812416e+00,6.600000000001317035e-01,1.569999999998769713e+00,2.869999999999977717e+03,-2.175000000001160672e+00,-4.945000000001304130e+00,1.339906410199399822e+01,-2.190751771914494217e+00
2.000000000000260414e+01,3.000000004258797315e+00,1.000000000004206591e+01,6.600000000001765565e-01,1.569999999998918039e+00,2.869999999999994543e+03,-2.175000000001007017e+00,-4.945000000001300577e+00,1.341492904080486781e+01,-2.188810371631275231e+00
2.000000000000107647e+01,3.000000002402724242e+00,1.000000000003365308e+01,6.600000000000675326e-01,1.569999999999587059e+00,2.869999999999980446e+03,-2.175000000000395506e+00,-4.945000000000393747e+00,1.340860785895308815e+01,-2.164326594823021477e+00
2.000000000000192912e+01,3.000000001424685259e+00,9.999999999995230482e+00,6.600000000001142730e-01,1.569999999999136975e+00,2.869999999999966803e+03,-2.175000000000835598e+00,-4.945000000000933760e+00,1.340674856708293206e+01,-2.180546202370209574e+00
1.999999999999984723e+01,2.999999999647936733e+00,9.999999999982916776e+00,6.600000000000137979e-01,1.570000000000224993e+00,2.869999999999984084e+03,-2.174999999999746692e+00,-4.944999999999925677e+00,1.341874650815182157e+01,-2.181877866637163876e+00
2.000000000000219558e+01,3.000000003398425985e+00,1.000000000000667555e+01,6.600000000001589040e-01,1.569999999999017071e+00,2.869999999999982720e+03,-2.175000000000915978e+00,-4.945000000001148699e+00,1.340979269804133622e+01,-2.201218693226422829e+00
1.999999999999997513e+01,3.000000002886491934e+00,1.000000000002820144e+01,6.599999999999979217e-01,1.570000000000017604e+00,2.869999999999983174e+03,-2.174999999999989608e+00,-4.945000000000111307e+00,1.341242782356541063e+01,-2.185681191903435572e+00
1.999999999999921485e+01,3.000000001163345864e+00,9.999999999992008171e+00,6.599999999999431877e-01,1.570000000000223439e+00,2.869999999999965439e+03,-2.174999999999770672e+00,-4.944999999999682316e+00,1.339203752519561164e+01,-2.175980351970720150e+00
2.000000000000060041e+01,3.000000003771805979e+00,9.999999999959534591e+00,6.600000000000355582e-01,1.569999999999594165e+00,2.869999999999968168e+03,-2.175000000000424816e+00,-4.945000000000367102e+00,1.341447507529825955e+01,-2.171158122861135187e+00
2.000000000000033396e+01,3.000000002106099295e+00,1.000000000000142286e+01,6.600000000000325606e-01,1.569999999999947882e+00,2.869999999999984084e+03,-2.174999999999985612e+00,-4.945000000000246310e+00,1.340783080480797906e+01,-2.193477547599055999e+00
2.000000000000060041e+01,3.000000003506312574e+00,9.999999999989993782e+00,6.600000000000287859e-01,1.569999999999748042e+00,2.869999999999964984e+03,-2.175000000000231637e+00,-4.945000000000246310e+00,1.340455152752442913e+01,-2.162494168615700207e+00
1.999999999999882760e+01,3.000000000794399213e+00,1.000000000000482636e+01,6.599999999999195399e-01,1.570000000000484119e+00,2.869999999999980446e+03,-2.174999999999524647e+00,-4.944999999999434515e+00,1.341301219682094548e+01,-2.164452052776531854e+00
1.999999999999982947e+01,3.000000001964746588e+00,1.000000000003074874e+01,6.599999999999818234e-01,1.570000000000229434e+00,2.870000000000002728e+03,-2.174999999999747580e+00,-4.944999999999916795e+00,1.342501934073602676e+01,-2.199264325845650792e+00
1.999999999999760902e+01,3.000000001017199658e+00,9.999999999968750330e+00,6.599999999998216182e-01,1.570000000001092522e+00,2.869999999999989541e+03,-2.174999999998969535e+00,-4.944999999998691997e+00,1.340994936675349614e+01,-2.189934029962821604e+00
1.999999999999974776e+01,3.000000003370733026e+00,9.999999999991606714e+00,6.599999999999296429e-01,1.570000000000128404e+00,2.870000000000004547e+03,-2.174999999999882139e+00,-4.944999999999740936e+00,1.342743508532997332e+01,-2.183857832562713153e+00
2.000000000000030553e+01,3.000000004700665635e+00,1.000000000005073630e+01,6.600000000000032507e-01,1.569999999999915685e+00,2.869999999999980446e+03,-2.175000000000061107e+00,-4.945000000000176144e+00,1.342896607061189940e+01,-2.193254456250609774e+00
2.000000000000273204e+01,3.000000004081238458e+00,9.999999999983705479e+00,6.600000000001989831e-01,1.569999999998697549e+00,2.869999999999989996e+03,-2.175000000001218403e+00,-4.945000000001658513e+00,1.341481224649804282e+01,-2.185375278767831109e+00
2.000000000000119726e+01,3.000000001948984973e+00,1.000000000000566303e+01,6.600000000000983968e-01,1.569999999999422524e+00,2.870000000000005002e+03,-2.175000000000527400e+00,-4.945000000000772999e+00,1.343519625674256801e+01,-2.185504387440033280e+00
2.000000000000257927e+01,3.000000001360069835e+00,9.999999999978889775e+00,6.600000000001825518e-01,1.569999999998894058e+00,2.869999999999974989e+03,-2.175000000001031886e+00,-4.945000000001380513e+00,1.342467654310736513e+01,-2.191162043148802141e+00
2.000000000000103029e+01,3.000000003756220224e+00,1.000000000001661782e+01,6.600000000000499911e-01,1.569999999999657891e+00,2.870000000000000455e+03,-2.175000000000346656e+00,-4.945000000000418616e+00,1.344189664971824705e+01,-2.188782427037761380e+00
2.000000000000067857e+01,3.000000006109283301e+00,1.000000000003700329e+01,6.600000000000282308e-01,1.569999999999837526e+00,2.869999999999992724e+03,-2.175000000000129496e+00,-4.945000000000290719e+00,1.342962194331536452e+01,-2.200046394536741001e+00
2.000000000000164135e+01,3.000000003699303530e+00,9.999999999974827247e+00,6.600000000000898481e-01,1.569999999999241114e+00,2.869999999999984084e+03,-2.175000000000719247e+00,-4.945000000000817408e+00,1.341397628905564154e+01,-2.190775762234709045e+00
1.999999999999857181e+01,3.000000001479859346e+00,1.000000000000642508e+01,6.599999999998897859e-01,1.570000000000845164e+00,2.870000000000001364e+03,-2.174999999999170708e+00,-4.944999999999073026e+00,1.341288011970226357e+01,-2.163619565992258575e+00
1.999999999999907274e+01,3.000000001461316401e+00,9.999999999970064835e+00,6.599999999999250910e-01,1.570000000000475682e+00,2.869999999999972715e+03,-2.174999999999525535e+00,-4.944999999999375007e+00,1.340091590577495850e+01,-2.170043678479333327e+00
1.999999999999995737e+01,3.000000003725991515e+00,9.999999999983144150e+00,6.599999999999962563e-01,1.570000000000140838e+00,2.869999999999997726e+03,-2.174999999999877254e+00,-4.944999999999899920e+00,1.342263727340103507e+01,-2.184532982124532285e+00
2.000000000000216716e+01,3.000000002108108355e+00,9.999999999954242824e+00,6.600000000001666756e-01,1.569999999999054818e+00,2.869999999999970896e+03,-2.175000000000907541e+00,-4.945000000001178009e+00,1.341549870618738893e+01,-2.168800633099366326e+00
1.999999999999922196e+01,3.000000004273966070e+00,1.000000000001524469e+01,6.599999999999196509e-01,1.570000000000346896e+00,2.870000000000006366e+03,-2.174999999999623679e+00,-4.944999999999659224e+00,1.339806000716789391e+01,-2.183066672036098943e+00
2.000000000000132516e+01,3.000000004330120262e+00,9.999999999991738164e+00,6.600000000000945111e-01,1.569999999999486473e+00,2.869999999999954525e+03,-2.175000000000462563e+00,-4.945000000000768559e+00,1.342230444418915702e+01,-2.183770686960037288e+00
2.000000000000002842e+01,3.000000004498204476e+00,9.999999999991842969e+00,6.599999999999948130e-01,1.569999999999921014e+00,2.869999999999954980e+03,-2.175000000000073541e+00,-4.944999999999880380e+00,1.339531311376879863e+01,-2.171445503400281751e+00
1.999999999999673861e+01,2.999999998433107606e+00,1.000000000003448442e+01,6.599999999997465672e-01,1.570000000001570362e+00,2.869999999999996817e+03,-2.174999999998461941e+00,-4.944999999998120011e+00,1.340893666247448479e+01,-2.165981837989231718e+00
2.000000000000045475e+01,2.999999999799588313e+00,1.000000000001110756e+01,6.600000000000169065e-01,1.569999999999914131e+00,2.869999999999974079e+03,-2.175000000000034905e+00,-4.945000000000169038e+00,1.341862794021750460e+01,-2.167787139347444825e+00
1.999999999999934985e+01,3.000000004001337484e+00,9.999999999995852207e+00,6.599999999999406342e-01,1.570000000000265850e+00,2.869999999999993634e+03,-2.174999999999743139e+00,-4.944999999999725837e+00,1.339443966065517877e+01,-2.176402504660210901e+00
2.000000000000060041e+01,3.000000001119545789e+00,9.999999999973173459e+00,6.600000000000620926e-01,1.569999999999991180e+00,2.869999999999975898e+03,-2.174999999999957634e+00,-4.945000000000267626e+00,1.340284658621820313e+01,-2.175968975948027850e+00
1.999999999999783995e+01,2.999999999128318606e+00,1.000000000004799006e+01,6.599999999997970823e-01,1.570000000001041007e+00,2.870000000000003638e+03,-2.174999999999006395e+00,-4.944999999998579199e+00,1.340445737052037245e+01,-2.150603090235044590e+00
2.000000000000282085e+01,3.000000007556547832e+00,1.000000000005742784e+01,6.600000000001875478e-01,1.569999999998960893e+00,2.869999999999979536e+03,-2.175000000000910205e+00,-4.945000000001410712e+00,1.342339142324174794e+01,-2.197303399247744871e+00
1.999999999999912248e+01,3.000000000443964865e+00,9.999999999960044406e+00,6.599999999999555111e-01,1.570000000000623119e+00,2.869999999999977717e+03,-2.174999999999346123e+00,-4.944999999999536655e+00,1.341621601492918181e+01,-2.153791250180027372e+00
2.000000000000001776e+01,3.000000001369281133e+00,9.999999999950421881e+00,6.600000000000232347e-01,1.570000000000219886e+00,2.869999999999991815e+03,-2.174999999999704059e+00,-4.945000000000040252e+00,1.342825159418489989e+01,-2.158326309646416252e+00
2.000000000000115463e+01,3.000000002237850794e+00,9.999999999979797494e+00,6.600000000000653122e-01,1.569999999999475149e+00,2.869999999999983174e+03,-2.175000000000529621e+00,-4.945000000000576712e+00,1.340187979415020969e+01,-2.175352452598070752e+00
2.000000000000103384e+01,3.000000005272880355e+00,9.999999999977754683e+00,6.600000000000789679e-01,1.569999999999607487e+00,2.869999999999965439e+03,-2.175000000000371525e+00,-4.945000000000662865e+00,1.340008868910040896e+01,-2.183461094232482580e+00
1.999999999999895905e+01,2.999999999582093402e+00,9.999999999981801224e+00,6.599999999999121014e-01,1.570000000000579155e+00,2.870000000000013188e+03,-2.174999999999436717e+00,-4.944999999999450502e+00,1.340061875058029095e+01,-2.168716125405866002e+00
1.999999999999991118e+01,3.000000004039482082e+00,1.000000000001872458e+01,6.599999999999851541e-01,1.570000000000087770e+00,2.869999999999993179e+03,-2.174999999999920774e+00,-4.944999999999851958e+00,1.340718652558613577e+01,-2.174246253708264298e+00
2.000000000000008882e+01,3.000000001048555909e+00,9.999999999990089705e+00,6.600000000000061373e-01,1.569999999999967644e+00,2.869999999999975898e+03,-2.175000000000052225e+00,-4.945000000000193907e+00,1.340188894691277177e+01,-2.183476483042254834e+00
1.999999999999956657e+01,3.000000000374359210e+00,9.999999999996216360e+00,6.599999999999615063e-01,1.570000000000237428e+00,2.870000000000004547e+03,-2.174999999999724931e+00,-4.944999999999840412e+00,1.340942484398793155e+01,-2.173331778710347439e+00
2.000000000000252598e+01,3.000000007671480784e+00,1.000000000003056577e+01,6.600000000001701173e-01,1.569999999998824780e+00,2.869999999999961801e+03,-2.175000000001102940e+00,-4.945000000001594564e+00,1.342151911597996516e+01,-2.201231183854034157e+00
1.999999999999909761e+01,3.000000001042883113e+00,9.999999999991583621e+00,6.599999999999327516e-01,1.570000000000487894e+00,2.869999999999992269e+03,-2.174999999999485123e+00,-4.944999999999434515e+00,1.339560571599442262e+01,-2.175212430544845699e+00
2.000000000000098765e+01,3.000000003452082176e+00,1.000000000001530154e+01,6.600000000000720846e-01,1.569999999999566187e+00,2.869999999999961346e+03,-2.175000000000367084e+00,-4.945000000000567830e+00,1.342140524900545806e+01,-2.186781355375258862e+00
1.999999999999961275e+01,3.000000002252889431e+00,1.000000000000585132e+01,6.599999999999954792e-01,1.570000000000282947e+00,2.869999999999993634e+03,-2.174999999999680522e+00,-4.944999999999818208e+00,1.340103402595089754e+01,-2.174656449326948238e+00
