1.999999999999957723e+01,3.000000003010936833e+00,1.000000000000514966e+01,6.599999999999486278e-01,1.570000000000354445e+00,2.869999999999974534e+03,-2.174999999999689404e+00,-4.944999999999651230e+00,1.341159188362538224e+01,-2.182117168375341532e+00
2.000000000000041567e+01,3.000000002031193436e+00,1.000000000000700418e+01,6.600000000000596501e-01,1.569999999999818874e+00,2.869999999999977717e+03,-2.175000000000156586e+00,-4.945000000000287166e+00,1.340679179489759854e+01,-2.170642952280271043e+00
2.000000000000012434e+01,3.000000000868435990e+00,9.999999999972343900e+00,6.600000000000139089e-01,1.569999999999980078e+00,2.869999999999974079e+03,-2.174999999999985167e+00,-4.945000000000001172e+00,1.339881354883980791e+01,-2.166482018178725433e+00
1.999999999999892708e+01,2.999999999142166640e+00,9.999999999979532816e+00,6.599999999998977795e-01,1.570000000000565388e+00,2.870000000000004093e+03,-2.174999999999440270e+00,-4.944999999999254214e+00,1.339632874488378533e+01,-2.171877671095576279e+00
1.999999999999947420e+01,3.000000002306469238e+00,9.999999999975013765e+00,6.599999999999606182e-01,1.570000000000397078e+00,2.870000000000000000e+03,-2.174999999999602363e+00,-4.944999999999592610e+00,1.340605390498515526e+01,-2.175613668547961232e+00
1.999999999999620570e+01,3.000000001076875478e+00,9.999999999998609113e+00,6.599999999997306910e-01,1.570000000001824381e+00,2.870000000000003183e+03,-2.174999999998210143e+00,-4.944999999998020535e+00,1.341554657144109086e+01,-2.167757538183167743e+00
2.000000000000128253e+01,3.000000002357355200e+00,1.000000000000449418e+01,6.600000000000934008e-01,1.569999999999460716e+00,2.869999999999996362e+03,-2.175000000000484768e+00,-4.945000000000687734e+00,1.341412100041830691e+01,-2.185176541308306852e+00
2.000000000000056843e+01,3.000000000275075962e+00,1.000000000000186162e+01,6.600000000000433298e-01,1.569999999999702744e+00,2.869999999999975444e+03,-2.175000000000268940e+00,-4.945000000000386642e+00,1.341187334125130626e+01,-2.162097731302916603e+00
1.999999999999874234e+01,3.000000002778135499e+00,1.000000000003811174e+01,6.599999999999195399e-01,1.570000000000763007e+00,2.869999999999999091e+03,-2.174999999999239542e+00,-4.944999999999340368e+00,1.341540491769501031e+01,-2.174320388596774123e+00
1.999999999999998224e+01,3.000000003039517971e+00,1.000000000000345324e+01,6.599999999999878186e-01,1.570000000000232765e+00,2.869999999999996817e+03,-2.174999999999790212e+00,-4.944999999999831530e+00,1.341809020258213714e+01,-2.185826903905391916e+00
2.000000000000195399e+01,3.000000002647433828e+00,9.999999999999582556e+00,6.600000000001519096e-01,1.569999999999223572e+00,2.869999999999990450e+03,-2.175000000000705036e+00,-4.945000000000977280e+00,1.341543920386520305e+01,-2.176718145561881812e+00
2.000000000000065015e+01,3.000000004349223204e+00,9.999999999990198063e+00,6.600000000000213474e-01,1.569999999999679874e+00,2.869999999999989086e+03,-2.175000000000293809e+00,-4.945000000000433715e+00,1.341069300858728219e+01,-2.188508274204061799e+00
1.999999999999956302e+01,3.000000002448937497e+00,9.999999999992565947e+00,6.599999999999721645e-01,1.570000000000125073e+00,2.869999999999990450e+03,-2.174999999999816858e+00,-4.944999999999904361e+00,1.340060287306449105e+01,-2.180394846816541055e+00
2.000000000000167333e+01,3.000000002719971803e+00,1.000000000002314238e+01,6.600000000000894040e-01,1.569999999999282414e+00,2.870000000000000000e+03,-2.175000000000694822e+00,-4.945000000000929319e+00,1.341441500434457446e+01,-2.180213434015127572e+00
2.000000000000197176e+01,3.000000003173814100e+00,9.999999999953040231e+00,6.600000000001653433e-01,1.569999999999228901e+00,2.869999999999980446e+03,-2.175000000000771205e+00,-4.945000000000957741e+00,1.342158408525255808e+01,-2.195497472047859056e+00
2.000000000000164135e+01,3.000000004847899415e+00,9.999999999974031439e+00,6.600000000001267075e-01,1.569999999999196039e+00,2.869999999999969077e+03,-2.175000000000719691e+00,-4.945000000001019913e+00,1.340491895968857605e+01,-2.162623562923754683e+00
2.000000000000122569e+01,3.000000005358472777e+00,1.000000000001360156e+01,6.600000000000491029e-01,1.569999999999468487e+00,2.869999999999979536e+03,-2.175000000000495426e+00,-4.945000000000622897e+00,1.340849343862815779e+01,-2.190135763208559627e+00
1.999999999999992539e+01,3.000000002732056803e+00,1.000000000002515677e+01,6.599999999999759392e-01,1.570000000000161933e+00,2.869999999999995907e+03,-2.174999999999832401e+00,-4.944999999999941664e+00,1.340438108027611541e+01,-2.195131484175051106e+00
1.999999999999925748e+01,3.000000001976310671e+00,1.000000000000781952e+01,6.599999999999515143e-01,1.570000000000399965e+00,2.869999999999994543e+03,-2.174999999999619238e+00,-4.944999999999693863e+00,1.342127093571212804e+01,-2.190703026074832138e+00
1.999999999999905853e+01,2.999999999666300710e+00,1.000000000001223377e+01,6.599999999999155431e-01,1.570000000000540741e+00,2.869999999999974989e+03,-2.174999999999471356e+00,-4.944999999999434515e+00,1.340955822989851676e+01,-2.189036978850979143e+00
1.999999999999926104e+01,3.000000003811932103e+00,1.000000000005535306e+01,6.599999999999335287e-01,1.570000000000362439e+00,2.869999999999983629e+03,-2.174999999999620570e+00,-4.944999999999562412e+00,1.340433378679355592e+01,-2.186486065474561258e+00
1.999999999999950262e+01,2.999999998865958251e+00,9.999999999992693844e+00,6.599999999999436318e-01,1.570000000000143947e+00,2.869999999999991360e+03,-2.174999999999867928e+00,-4.944999999999663665e+00,1.338714204880771597e+01,-2.159548301061119613e+00
2.000000000000075318e+01,3.000000001536303085e+00,1.000000000001335287e+01,6.600000000000474376e-01,1.569999999999657447e+00,2.869999999999996362e+03,-2.175000000000367528e+00,-4.945000000000262297e+00,1.339960633984601479e+01,-2.172222014439595394e+00
1.999999999999938183e+01,3.000000002723727910e+00,1.000000000000589040e+01,6.599999999999287548e-01,1.570000000000449925e+00,2.870000000000004547e+03,-2.174999999999593925e+00,-4.944999999999554419e+00,1.342464722677614830e+01,-2.189249288772403546e+00
1.999999999999985789e+01,3.000000003305562934e+00,1.000000000000187761e+01,6.599999999999637268e-01,1.570000000000127738e+00,2.869999999999999545e+03,-2.174999999999891465e+00,-4.944999999999879492e+00,1.342704717153560523e+01,-2.204795458741192871e+00
1.999999999999868550e+01,3.000000001413369421e+00,9.999999999989551469e+00,6.599999999998753530e-01,1.570000000000547180e+00,2.869999999999992724e+03,-2.174999999999533085e+00,-4.944999999999133422e+00,1.340565512418929117e+01,-2.179721178424934180e+00
2.000000000000042633e+01,3.000000002020492662e+00,9.999999999985485388e+00,6.600000000000473266e-01,1.569999999999891260e+00,2.869999999999963620e+03,-2.175000000000135270e+00,-4.945000000000100648e+00,1.341109698136423312e+01,-2.170750217823823824e+00
2.000000000000157385e+01,3.000000003422005346e+00,9.999999999993736566e+00,6.600000000001282618e-01,1.569999999999400320e+00,2.869999999999966349e+03,-2.175000000000579803e+00,-4.945000000000794316e+00,1.341461405455876488e+01,-2.192164279112808423e+00
2.000000000000405720e+01,3.000000007248926348e+00,9.999999999960341057e+00,6.600000000002800293e-01,1.569999999998185070e+00,2.869999999999955890e+03,-2.175000000001713563e+00,-4.945000000002226948e+00,1.341364848289229172e+01,-2.180679709866735205e+00
2.000000000000091305e+01,3.000000003613998434e+00,1.000000000003045564e+01,6.600000000000735279e-01,1.569999999999547535e+00,2.869999999999979991e+03,-2.175000000000341327e+00,-4.945000000000553619e+00,1.340178294212324950e+01,-2.181487335501130609e+00
2.000000000000169820e+01,3.000000005062573027e+00,9.999999999984346744e+00,6.600000000000806333e-01,1.569999999999235563e+00,2.869999999999972260e+03,-2.175000000000805400e+00,-4.945000000000776552e+00,1.341662722626134219e+01,-2.184977172702510906e+00
2.000000000000266454e+01,3.000000004996051128e+00,1.000000000001854517e+01,6.600000000001809974e-01,1.569999999998749507e+00,2.869999999999963165e+03,-2.175000000001165557e+00,-4.945000000001527063e+00,1.341245690371338029e+01,-2.183432872472965691e+00
2.000000000000053646e+01,3.000000002992954773e+00,1.000000000001647393e+01,6.600000000000122435e-01,1.569999999999777351e+00,2.869999999999975444e+03,-2.175000000000211653e+00,-4.945000000000304929e+00,1.342172109548138081e+01,-2.198280824479216022e+00
1.999999999999910827e+01,3.000000002361980389e+00,1.000000000001064748e+01,6.599999999999164313e-01,1.570000000000345119e+00,2.869999999999979536e+03,-2.174999999999643663e+00,-4.944999999999627249e+00,1.341000845646444795e+01,-2.172384084329157083e+00
1.999999999999926459e+01,3.000000001806358174e+00,1.000000000001723244e+01,6.599999999999263123e-01,1.570000000000379758e+00,2.869999999999980446e+03,-2.174999999999634781e+00,-4.944999999999661888e+00,1.340553787122320806e+01,-2.187660821324183491e+00
2.000000000000155609e+01,3.000000003752945954e+00,1.000000000000301625e+01,6.600000000000980638e-01,1.569999999999276197e+00,2.869999999999984993e+03,-2.175000000000667288e+00,-4.945000000000841389e+00,1.339754767051215900e+01,-2.195790183311022048e+00
2.000000000000153477e+01,3.000000003560068240e+00,1.000000000000214051e+01,6.600000000001319256e-01,1.569999999999359241e+00,2.869999999999957254e+03,-2.175000000000520295e+00,-4.945000000001026130e+00,1.340139000858039964e+01,-2.188304703888833913e+00
2.000000000000241940e+01,3.000000005637161848e+00,9.999999999978163245e+00,6.600000000001835510e-01,1.569999999998918483e+00,2.869999999999989086e+03,-2.175000000001058975e+00,-4.945000000001352980e+00,1.342639670850577360e+01,-2.172880107164762098e+00
1.999999999999845812e+01,3.000000003372366830e+00,1.000000000002224532e+01,6.599999999998847899e-01,1.570000000000753015e+00,2.869999999999990450e+03,-2.174999999999257305e+00,-4.944999999999185825e+00,1.342821759271173754e+01,-2.182187709544500365e+00
2.000000000000128608e+01,3.000000003167515139e+00,9.999999999986107113e+00,6.600000000000878497e-01,1.569999999999521112e+00,2.869999999999996817e+03,-2.175000000000482991e+00,-4.945000000000659313e+00,1.343850690675256132e+01,-2.174837579565854551e+00
2.000000000000191847e+01,3.000000004620319682e+00,9.999999999994740207e+00,6.600000000001227107e-01,1.569999999999254436e+00,2.869999999999992269e+03,-2.175000000000717471e+00,-4.945000000000915108e+00,1.341588379253517083e+01,-2.177316519171091702e+00
2.000000000000357758e+01,3.000000006133065167e+00,9.999999999964538588e+00,6.600000000002489431e-01,1.569999999998401785e+00,2.869999999999968622e+03,-2.175000000001506617e+00,-4.945000000001936513e+00,1.343110534909970610e+01,-2.188186459728673317e+00
2.000000000000070344e+01,3.000000001029448971e+00,1.000000000001222844e+01,6.600000000000388889e-01,1.569999999999714513e+00,2.869999999999985903e+03,-2.175000000000235634e+00,-4.945000000000417728e+00,1.341548199434606659e+01,-2.185522527043507690e+00
2.000000000000306954e+01,3.000000006433874322e+00,1.000000000001296030e+01,6.600000000001920997e-01,1.569999999998702656e+00,2.869999999999968168e+03,-2.175000000001233502e+00,-4.945000000001671836e+00,1.342408978158882249e+01,-2.204122497197841035e+00
2.000000000000044764e+01,3.000000003833147133e+00,1.000000000002523670e+01,6.600000000000141309e-01,1.569999999999834639e+00,2.870000000000000000e+03,-2.175000000000149480e+00,-4.945000000000268514e+00,1.341731353785618275e+01,-2.192376518068012814e+00
1.999999999999795008e+01,3.000000001175017417e+00,1.000000000003761436e+01,6.599999999998173994e-01,1.570000000001068541e+00,2.870000000000003638e+03,-2.174999999999001954e+00,-4.944999999998691109e+00,1.341615436883289547e+01,-2.170434744940004990e+00
1.999999999999793943e+01,3.000000000257863952e+00,9.999999999977640996e+00,6.599999999998704681e-01,1.570000000001048779e+00,2.869999999999977263e+03,-2.174999999998926459e+00,-4.944999999998915818e+00,1.339972868375220827e+01,-2.155292957669954657e+00
1.999999999999844746e+01,2.999999997558297160e+00,9.999999999988576249e+00,6.599999999998904521e-01,1.570000000000851159e+00,2.869999999999981355e+03,-2.174999999999142730e+00,-4.944999999999132534e+00,1.341583930128832058e+01,-2.160871872976692476e+00
2.000000000000263967e+01,3.000000003539640137e+00,9.999999999969729103e+00,6.600000000001513545e-01,1.569999999998788587e+00,2.869999999999981355e+03,-2.175000000001180656e+00,-4.945000000001368079e+00,1.341994443895834088e+01,-2.167352164724238861e+00
2.000000000000114753e+01,3.000000003468399346e+00,9.999999999976758147e+00,6.600000000000699751e-01,1.569999999999383444e+00,2.869999999999962711e+03,-2.175000000000600675e+00,-4.945000000000571383e+00,1.339548928846128284e+01,-2.171529159738046832e+00
1.999999999999961275e+01,3.000000003069106302e+00,1.000000000005871748e+01,6.599999999999569544e-01,1.570000000000320028e+00,2.870000000000005002e+03,-2.174999999999704059e+00,-4.944999999999673435e+00,1.343706770543661300e+01,-2.179049362549368762e+00
1.999999999999766231e+01,2.999999998863635664e+00,1.000000000003322320e+01,6.599999999998078515e-01,1.570000000001163576e+00,2.869999999999998181e+03,-2.174999999998914024e+00,-4.944999999998625384e+00,1.341531086430426178e+01,-2.181766783975425117e+00
2.000000000000021672e+01,3.000000002906447083e+00,1.000000000002345857e+01,6.599999999999961453e-01,1.569999999999976970e+00,2.870000000000001819e+03,-2.175000000000040234e+00,-4.945000000000085549e+00,1.341420709944285505e+01,-2.163331561876434606e+00
1.999999999999915801e+01,3.000000001710781738e+00,1.000000000000509637e+01,6.599999999999427436e-01,1.570000000000447482e+00,2.869999999999984084e+03,-2.174999999999571276e+00,-4.944999999999578399e+00,1.342738034868254893e+01,-2.195419290773435339e+00
1.999999999999922196e+01,3.000000002804905641e+00,9.999999999985048404e+00,6.599999999999281997e-01,1.570000000000309370e+00,2.869999999999986812e+03,-2.174999999999733813e+00,-4.944999999999555307e+00,1.341001667099635419e+01,-2.180499903824856034e+00
1.999999999999833022e+01,3.000000002724471759e+00,9.999999999950423657e+00,6.599999999998814593e-01,1.570000000000956630e+00,2.869999999999974989e+03,-2.174999999999078781e+00,-4.944999999999100559e+00,1.342358472487161336e+01,-2.183823761445672140e+00
2.000000000000320455e+01,3.000000004255184205e+00,9.999999999968611775e+00,6.600000000002078648e-01,1.569999999998503926e+00,2.869999999999976808e+03,-2.175000000001490186e+00,-4.945000000001624763e+00,1.341048844144772190e+01,-2.177127261370328526e+00
1.999999999999851852e+01,3.000000002345807548e+00,1.000000000000205880e+01,6.599999999999276445e-01,1.570000000000779883e+00,2.869999999999996817e+03,-2.174999999999153832e+00,-4.944999999999420304e+00,1.341141889642633878e+01,-2.163286812536027615e+00
1.999999999999822009e+01,3.000000001914321590e+00,1.000000000005052136e+01,6.599999999998583666e-01,1.570000000000937090e+00,2.870000000000006366e+03,-2.174999999999120526e+00,-4.944999999998966445e+00,1.341157637616262299e+01,-2.182698582945048926e+00
1.999999999999742784e+01,3.000000000289435587e+00,9.999999999989853450e+00,6.599999999998031885e-01,1.570000000001089413e+00,2.869999999999974079e+03,-2.174999999998958433e+00,-4.944999999998529461e+00,1.339561451789981739e+01,-2.165771442033475491e+00
2.000000000000136069e+01,3.000000003319708952e+00,1.000000000000703437e+01,6.600000000000928457e-01,1.569999999999401430e+00,2.869999999999962711e+03,-2.175000000000566924e+00,-4.945000000000765894e+00,1.341429965572270433e+01,-2.157724413344137560e+00
2.000000000000040856e+01,3.000000000889003093e+00,9.999999999965050179e+00,6.600000000000281197e-01,1.569999999999818208e+00,2.869999999999974534e+03,-2.175000000000204103e+00,-4.945000000000121076e+00,1.341368162090369154e+01,-2.161002300746004412e+00
2.000000000000067857e+01,3.000000000789890375e+00,9.999999999968011366e+00,6.600000000000414424e-01,1.569999999999730500e+00,2.869999999999980901e+03,-2.175000000000272049e+00,-4.945000000000256080e+00,1.339408575396143597e+01,-2.166007072827132784e+00
1.999999999999866063e+01,2.999999999676184359e+00,9.999999999967062791e+00,6.599999999999027755e-01,1.570000000000637108e+00,2.869999999999963165e+03,-2.174999999999429168e+00,-4.944999999999162732e+00,1.339955215485600704e+01,-2.172437613011917179e+00
2.000000000000159517e+01,3.000000001470212840e+00,9.999999999972519760e+00,6.600000000001469136e-01,1.569999999999267315e+00,2.869999999999953616e+03,-2.175000000000686828e+00,-4.945000000000987050e+00,1.338743695354785146e+01,-2.177058302674559798e+00
2.000000000000368416e+01,3.000000005044513696e+00,9.999999999962973618e+00,6.600000000002805844e-01,1.569999999998268336e+00,2.869999999999945885e+03,-2.175000000001628742e+00,-4.945000000002196749e+00,1.339539360142865654e+01,-2.183953367364070530e+00
2.000000000000018474e+01,3.000000002671550092e+00,1.000000000002426681e+01,6.599999999999986988e-01,1.569999999999998286e+00,2.869999999999986358e+03,-2.174999999999978506e+00,-4.945000000000131735e+00,1.341386596166460343e+01,-2.181666385226861404e+00
2.000000000000027356e+01,3.000000001373103853e+00,9.999999999971604936e+00,6.600000000000516565e-01,1.569999999999877494e+00,2.869999999999962711e+03,-2.175000000000062883e+00,-4.945000000000349338e+00,1.341010678902698849e+01,-2.162724409599566133e+00
2.000000000000289191e+01,3.000000002915360398e+00,1.000000000000152589e+01,6.600000000001912115e-01,1.569999999998662910e+00,2.869999999999957254e+03,-2.175000000001235279e+00,-4.945000000001687823e+00,1.340126693468157093e+01,-2.179432647682066015e+00
1.999999999999806377e+01,3.000000000158496771e+00,9.999999999994880540e+00,6.599999999998255040e-01,1.570000000000853158e+00,2.869999999999996817e+03,-2.174999999999147615e+00,-4.944999999999052598e+00,1.342088603702012328e+01,-2.178029334111826643e+00
2.000000000000137135e+01,3.000000003141752192e+00,1.000000000001644906e+01,6.600000000001053913e-01,1.569999999999511786e+00,2.869999999999993179e+03,-2.175000000000393729e+00,-4.945000000000724150e+00,1.341847334629627397e+01,-2.188349903446881850e+00
2.000000000000003553e+01,2.999999997663826967e+00,9.999999999963147701e+00,6.600000000000036948e-01,1.569999999999991624e+00,2.869999999999967713e+03,-2.174999999999994049e+00,-4.944999999999921236e+00,1.340449347174067718e+01,-2.151131472593526439e+00
2.000000000000174794e+01,3.000000004462787473e+00,9.999999999989155341e+00,6.600000000001230438e-01,1.569999999999300400e+00,2.869999999999971351e+03,-2.175000000000615330e+00,-4.945000000000913332e+00,1.338685301984766340e+01,-2.180285142861630554e+00
2.000000000000255085e+01,3.000000003788115155e+00,9.999999999993669064e+00,6.600000000001488010e-01,1.569999999998747064e+00,2.869999999999988631e+03,-2.175000000001228173e+00,-4.945000000001345875e+00,1.340334314058348752e+01,-2.182064947921921849e+00
1.999999999999873879e+01,3.000000000489033258e+00,9.999999999957854158e+00,6.599999999998904521e-01,1.570000000000512541e+00,2.869999999999993179e+03,-2.174999999999524647e+00,-4.944999999999238227e+00,1.339533569010509595e+01,-2.171271447668356558e+00
1.999999999999985079e+01,3.000000005964371663e+00,1.000000000000011013e+01,6.599999999999692779e-01,1.570000000000132179e+00,2.869999999999989086e+03,-2.174999999999914557e+00,-4.944999999999748930e+00,1.340764536115095318e+01,-2.167456310142055198e+00
1.999999999999630518e+01,3.000000002754255490e+00,1.000000000002320100e+01,6.599999999997296918e-01,1.570000000001711360e+00,2.869999999999998636e+03,-2.174999999998318945e+00,-4.944999999997986784e+00,1.340724805177477563e+01,-2.164201467161454673e+00
1.999999999999978328e+01,3.000000004320583891e+00,9.999999999998790301e+00,6.599999999999814904e-01,1.570000000000017826e+00,2.869999999999954980e+03,-2.175000000000007372e+00,-4.944999999999902585e+00,1.341055077310442911e+01,-2.158137167112310628e+00
1.999999999999968736e+01,3.000000004683128996e+00,1.000000000000110134e+01,6.599999999999867084e-01,1.570000000000223217e+00,2.869999999999979082e+03,-2.174999999999775113e+00,-4.944999999999899920e+00,1.343199692241117837e+01,-2.190331030057931283e+00
2.000000000000219913e+01,3.000000003822375305e+00,9.999999999977111642e+00,6.600000000001687850e-01,1.569999999998995754e+00,2.869999999999942702e+03,-2.175000000000951506e+00,-4.945000000001339657e+00,1.340671334882616073e+01,-2.177472547847447704e+00
1.999999999999914735e+01,3.000000001064588417e+00,9.999999999996125766e+00,6.599999999999607292e-01,1.570000000000460139e+00,2.869999999999992269e+03,-2.174999999999573941e+00,-4.944999999999459384e+00,1.342230876760990732e+01,-2.175101987412527471e+00
1.999999999999864642e+01,3.000000002646080688e+00,1.000000000003187850e+01,6.599999999998773514e-01,1.570000000000661089e+00,2.870000000000005002e+03,-2.174999999999387423e+00,-4.944999999999082796e+00,1.341997681925390928e+01,-2.187137269243141446e+00
1.999999999999947775e+01,3.000000002189906922e+00,1.000000000001538325e+01,6.599999999999444089e-01,1.570000000000262963e+00,2.869999999999961801e+03,-2.174999999999697398e+00,-4.944999999999743601e+00,1.340194630063976966e+01,-2.184097828947665576e+00
2.000000000000015987e+01,3.000000001574020025e+00,1.000000000002053469e+01,6.599999999999895950e-01,1.569999999999940332e+00,2.869999999999977263e+03,-2.175000000000009592e+00,-4.945000000000168150e+00,1.340209038907916117e+01,-2.185754570901640381e+00
2.000000000000137490e+01,3.000000003569727181e+00,9.999999999992470023e+00,6.600000000000890710e-01,1.569999999999289519e+00,2.869999999999979082e+03,-2.175000000000671729e+00,-4.945000000000799645e+00,1.341185175161399101e+01,-2.177647754872526153e+00
2.000000000000048672e+01,3.000000002964329227e+00,9.999999999982641441e+00,6.600000000000341149e-01,1.569999999999920126e+00,2.869999999999987722e+03,-2.175000000000061107e+00,-4.945000000000097984e+00,1.342540597020030368e+01,-2.169688131482968352e+00
1.999999999999954170e+01,3.000000001238817937e+00,1.000000000003493739e+01,6.599999999999556222e-01,1.570000000000489004e+00,2.869999999999994998e+03,-2.174999999999529976e+00,-4.944999999999622808e+00,1.342656331374424639e+01,-2.190077173526819632e+00
2.000000000000013145e+01,3.000000000512446086e+00,1.000000000000722267e+01,6.599999999999822675e-01,1.570000000000008278e+00,2.869999999999998181e+03,-2.175000000000001155e+00,-4.945000000000029594e+00,1.341383522833197617e+01,-2.174514646246269667e+00
1.999999999999814193e+01,3.000000000889416985e+00,1.000000000003196554e+01,6.599999999998605871e-01,1.570000000000989493e+00,2.869999999999996817e+03,-2.174999999999110312e+00,-4.944999999998861639e+00,1.342577263963661061e+01,-2.175580566795127346e+00
2.000000000000055067e+01,3.000000000265001798e+00,1.000000000001161027e+01,6.600000000000363354e-01,1.569999999999789342e+00,2.869999999999994998e+03,-2.175000000000177014e+00,-4.945000000000258744e+00,1.341796906255015465e+01,-2.189165815476074695e+00
2.000000000000143174e+01,3.000000003502708346e+00,1.000000000007313083e+01,6.600000000000553202e-01,1.569999999999424078e+00,2.870000000000000909e+03,-2.175000000000557598e+00,-4.945000000000680629e+00,1.339920459780123352e+01,-2.189616223331953826e+00
2.000000000000097344e+01,3.000000001897459967e+00,1.000000000004185630e+01,6.600000000000773026e-01,1.569999999999592166e+00,2.869999999999978172e+03,-2.175000000000344880e+00,-4.945000000000598916e+00,1.341158743283649279e+01,-2.188537608536404555e+00
2.000000000000049027e+01,3.000000001911659275e+00,1.000000000000016698e+01,6.600000000000262323e-01,1.569999999999904805e+00,2.869999999999959073e+03,-2.175000000000035350e+00,-4.945000000000302265e+00,1.342154859969339142e+01,-2.195951676801845220e+00
1.999999999999981526e+01,3.000000002976781488e+00,1.000000000001785416e+01,6.599999999999733857e-01,1.570000000000030704e+00,2.869999999999982720e+03,-2.174999999999928324e+00,-4.945000000000002061e+00,1.340749354980696317e+01,-2.163559778517591514e+00
2.000000000000104450e+01,3.000000005121211455e+00,9.999999999989068300e+00,6.600000000000652012e-01,1.569999999999504681e+00,2.869999999999979536e+03,-2.175000000000449685e+00,-4.945000000000698392e+00,1.340659161366662744e+01,-2.176994797211845079e+00
1.999999999999807088e+01,2.999999996802593660e+00,1.000000000002088818e+01,6.599999999998630296e-01,1.570000000001088303e+00,2.869999999999997726e+03,-2.174999999998918465e+00,-4.944999999998866080e+00,1.340545820860688941e+01,-2.167130658339106564e+00
1.999999999999909406e+01,3.000000000258400412e+00,1.000000000003977796e+01,6.599999999999029976e-01,1.570000000000479456e+00,2.869999999999985448e+03,-2.174999999999529976e+00,-4.944999999999372342e+00,1.340576156810836750e+01,-2.191748798960833966e+00
2.000000000000214229e+01,3.000000004116165186e+00,1.000000000002241407e+01,6.600000000001238210e-01,1.569999999999114104e+00,2.870000000000003638e+03,-2.175000000000843592e+00,-4.945000000001184226e+00,1.343107273852811545e+01,-2.220903845053751269e+00
2.000000000000116884e+01,3.000000003940082483e+00,1.000000000000730793e+01,6.600000000000840750e-01,1.569999999999551754e+00,2.869999999999978627e+03,-2.175000000000431921e+00,-4.945000000000574047e+00,1.342421953912353949e+01,-2.177573168814372018e+00
2.000000000000106226e+01,3.000000003821439609e+00,9.999999999998951949e+00,6.600000000000785239e-01,1.569999999999591722e+00,2.869999999999981355e+03,-2.175000000000392397e+00,-4.945000000000558060e+00,1.339541809180607679e+01,-2.175107336428455884e+00
1.999999999999822364e+01,2.999999999521057337e+00,1.000000000002757794e+01,6.599999999998731326e-01,1.570000000000965734e+00,2.869999999999978627e+03,-2.174999999999027711e+00,-4.944999999998995754e+00,1.340527509181455201e+01,-2.184690023841697304e+00
2.000000000000073541e+01,3.000000004347004978e+00,1.000000000000220624e+01,6.600000000000355582e-01,1.569999999999771356e+00,2.869999999999971351e+03,-2.175000000000196110e+00,-4.945000000000352891e+00,1.342810877925674262e+01,-2.170116695041112820e+00
2.000000000000293099e+01,3.000000005236505007e+00,9.999999999946338036e+00,6.600000000002191891e-01,1.569999999998748175e+00,2.869999999999960892e+03,-2.175000000001152234e+00,-4.945000000001675389e+00,1.339662696004599240e+01,-2.195192352130613589e+00
1.999999999999884892e+01,2.999999999933717465e+00,1.000000000002130207e+01,6.599999999999064393e-01,1.570000000000626006e+00,2.869999999999994543e+03,-2.174999999999367439e+00,-4.944999999999303064e+00,1.341003955976932893e+01,-2.183427082607125591e+00
2.000000000000040856e+01,2.999999999978292475e+00,9.999999999976068921e+00,6.600000000000105782e-01,1.569999999999939666e+00,2.869999999999993634e+03,-2.175000000000048672e+00,-4.945000000000134399e+00,1.341542731329978544e+01,-2.188440725505223838e+00
2.000000000000087041e+01,3.000000003996711406e+00,1.000000000000740386e+01,6.600000000000324496e-01,1.569999999999758922e+00,2.869999999999998181e+03,-2.175000000000240519e+00,-4.945000000000306706e+00,1.341621526395283048e+01,-2.196499662861481461e+00
2.000000000000212452e+01,3.000000002093615503e+00,1.000000000001596945e+01,6.600000000001212674e-01,1.569999999999110774e+00,2.869999999999986812e+03,-2.175000000000888445e+00,-4.945000000001007479e+00,1.341208934552386900e+01,-2.197353997378997281e+00
1.999999999999922196e+01,3.000000000736615657e+00,1.000000000001963585e+01,6.599999999999104361e-01,1.570000000000451923e+00,2.869999999999986358e+03,-2.174999999999563727e+00,-4.944999999999510898e+00,1.341157066386074526e+01,-2.185304875028253768e+00
2.000000000000186162e+01,3.000000003340896004e+00,9.999999999987185362e+00,6.600000000001179368e-01,1.569999999999244666e+00,2.869999999999989541e+03,-2.175000000000760547e+00,-4.945000000000873364e+00,1.341050166400012600e+01,-2.176996872187658028e+00
2.000000000000279599e+01,3.000000006096548155e+00,1.000000000004512302e+01,6.600000000001783329e-01,1.569999999998767715e+00,2.869999999999972715e+03,-2.175000000001127809e+00,-4.945000000001694040e+00,1.343068858951989242e+01,-2.220079574029812264e+00
2.000000000000162004e+01,3.000000004397793685e+00,1.000000000002083844e+01,6.600000000000801892e-01,1.569999999999392104e+00,2.869999999999991360e+03,-2.175000000000596234e+00,-4.945000000000774776e+00,1.344348844989690939e+01,-2.215568193200524227e+00
2.000000000000062172e+01,3.000000003041534580e+00,1.000000000001364775e+01,6.600000000000066924e-01,1.569999999999803775e+00,2.869999999999999545e+03,-2.175000000000173017e+00,-4.945000000000272955e+00,1.342443899695705234e+01,-2.203851521007118563e+00
2.000000000000198952e+01,3.000000005384792168e+00,9.999999999972891018e+00,6.600000000001382539e-01,1.569999999999189821e+00,2.869999999999989086e+03,-2.175000000000806288e+00,-4.945000000001030571e+00,1.340750799436011143e+01,-2.189360839453351470e+00
1.999999999999894840e+01,3.000000002268429000e+00,9.999999999999973355e+00,6.599999999998694689e-01,1.570000000000543405e+00,2.870000000000023192e+03,-2.174999999999540634e+00,-4.944999999999137863e+00,1.341291361642487168e+01,-2.173797158688477893e+00
1.999999999999788258e+01,3.000000001601466071e+00,1.000000000001874412e+01,6.599999999998112932e-01,1.570000000001041895e+00,2.870000000000005912e+03,-2.174999999999062350e+00,-4.944999999998677787e+00,1.341766682052078785e+01,-2.169928114076200121e+00
1.999999999999980105e+01,3.000000002360352802e+00,1.000000000005430678e+01,6.599999999999391909e-01,1.570000000000204121e+00,2.870000000000003183e+03,-2.174999999999835509e+00,-4.944999999999680540e+00,1.342642403792352646e+01,-2.182857247747036489e+00
1.999999999999902656e+01,2.999999999281932617e+00,1.000000000001938183e+01,6.599999999999094369e-01,1.570000000000604246e+00,2.869999999999995453e+03,-2.174999999999428280e+00,-4.944999999999264872e+00,1.341680649217313359e+01,-2.170836795686971854e+00
2.000000000000276401e+01,3.000000002261702825e+00,9.999999999986007637e+00,6.600000000001466915e-01,1.569999999998655582e+00,2.869999999999973625e+03,-2.175000000001265921e+00,-4.945000000001439133e+00,1.339847142698625859e+01,-2.192122954159136938e+00
2.000000000000255795e+01,3.000000004194982584e+00,1.000000000004650325e+01,6.600000000001691181e-01,1.569999999998925366e+00,2.869999999999993634e+03,-2.175000000001009681e+00,-4.945000000001276597e+00,1.341391200795700378e+01,-2.189891173678196967e+00
2.000000000000137135e+01,3.000000002340108551e+00,1.000000000002993517e+01,6.600000000000857403e-01,1.569999999999434515e+00,2.869999999999979082e+03,-2.175000000000545608e+00,-4.945000000000575824e+00,1.340863529492404460e+01,-2.165480409323567557e+00
2.000000000000173728e+01,3.000000000958708668e+00,9.999999999991636912e+00,6.600000000001046141e-01,1.569999999999233120e+00,2.869999999999967713e+03,-2.175000000000734790e+00,-4.945000000000841389e+00,1.340680314461494227e+01,-2.180519832152852278e+00
2.000000000000004263e+01,2.999999999916049376e+00,9.999999999982668086e+00,6.600000000000311173e-01,1.570000000000137730e+00,2.869999999999983174e+03,-2.174999999999827516e+00,-4.945000000000042029e+00,1.342124755442728912e+01,-2.184815078821747747e+00
2.000000000000203926e+01,3.000000003541046567e+00,1.000000000001125855e+01,6.600000000001462475e-01,1.569999999999082352e+00,2.869999999999983629e+03,-2.175000000000853806e+00,-4.945000000001085638e+00,1.341255858690599290e+01,-2.200254262297824059e+00
1.999999999999995737e+01,3.000000002960691692e+00,1.000000000002907719e+01,6.599999999999965894e-01,1.570000000000040696e+00,2.869999999999983629e+03,-2.174999999999957634e+00,-4.945000000000094431e+00,1.341098298635938235e+01,-2.186534153297824190e+00
1.999999999999909051e+01,3.000000001080404211e+00,9.999999999988242294e+00,6.599999999999314193e-01,1.570000000000264961e+00,2.869999999999968168e+03,-2.174999999999739586e+00,-4.944999999999630802e+00,1.339076783514491353e+01,-2.174447848664934568e+00
2.000000000000055067e+01,3.000000003449644570e+00,9.999999999961191932e+00,6.600000000000311173e-01,1.569999999999602380e+00,2.869999999999968168e+03,-2.175000000000418598e+00,-4.945000000000352003e+00,1.341262660660463801e+01,-2.171100560761118903e+00
2.000000000000006040e+01,3.000000002340827532e+00,1.000000000000332534e+01,6.600000000000086908e-01,1.570000000000062679e+00,2.869999999999987267e+03,-2.174999999999884359e+00,-4.945000000000104201e+00,1.340715950653958544e+01,-2.192689574084070170e+00
2.000000000000048672e+01,3.000000003422802042e+00,9.999999999988565591e+00,6.600000000000200151e-01,1.569999999999798224e+00,2.869999999999963620e+03,-2.175000000000168576e+00,-4.945000000000201013e+00,1.340230825353191690e+01,-2.160855194188774142e+00
1.999999999999877787e+01,3.000000000786369636e+00,1.000000000000947509e+01,6.599999999999154321e-01,1.570000000000523199e+00,2.869999999999980446e+03,-2.174999999999482458e+00,-4.944999999999390994e+00,1.341380744248366419e+01,-2.165486908022745460e+00
2.000000000000019895e+01,3.000000002163829560e+00,1.000000000002991918e+01,6.600000000000105782e-01,1.570000000000055573e+00,2.870000000000000909e+03,-2.174999999999917666e+00,-4.945000000000131735e+00,1.342659717855946155e+01,-2.201290438682603323e+00
1.999999999999764810e+01,3.000000000487013541e+00,9.999999999968387954e+00,6.599999999998261702e-01,1.570000000001086082e+00,2.869999999999989996e+03,-2.174999999998967759e+00,-4.944999999998701767e+00,1.340899510139380979e+01,-2.188266926611626584e+00
1.999999999999962697e+01,3.000000003161127360e+00,9.999999999998445688e+00,6.599999999999207612e-01,1.570000000000204787e+00,2.870000000000005457e+03,-2.174999999999798206e+00,-4.944999999999664553e+00,1.342903773441851634e+01,-2.187708700887380342e+00
2.000000000000036238e+01,3.000000004575755330e+00,1.000000000005050893e+01,6.600000000000048050e-01,1.569999999999887264e+00,2.869999999999981355e+03,-2.175000000000088196e+00,-4.945000000000224105e+00,1.343215586299100117e+01,-2.193477353632187654e+00
2.000000000000250822e+01,3.000000003820626926e+00,9.999999999981836751e+00,6.600000000001814415e-01,1.569999999998812124e+00,2.869999999999993179e+03,-2.175000000001104716e+00,-4.945000000001530616e+00,1.341621197812622412e+01,-2.184538760130799062e+00
2.000000000000103029e+01,3.000000001891251600e+00,1.000000000000651568e+01,6.600000000000877387e-01,1.569999999999511342e+00,2.870000000000005457e+03,-2.175000000000437250e+00,-4.945000000000677964e+00,1.343795924168089151e+01,-2.186513711803336868e+00
2.000000000000233769e+01,3.000000000842394599e+00,9.999999999983748111e+00,6.600000000001662315e-01,1.569999999999007301e+00,2.869999999999975444e+03,-2.175000000000917755e+00,-4.945000000001248175e+00,1.342513380250536592e+01,-2.188812767359107792e+00
2.000000000000111910e+01,3.000000003997446374e+00,1.000000000001300648e+01,6.600000000000583178e-01,1.569999999999610818e+00,2.869999999999997272e+03,-2.175000000000388845e+00,-4.945000000000480789e+00,1.344072709382308517e+01,-2.187411630590271994e+00
2.000000000000102673e+01,3.000000006508856121e+00,1.000000000003536549e+01,6.600000000000545430e-01,1.569999999999684315e+00,2.869999999999990905e+03,-2.175000000000276934e+00,-4.945000000000500329e+00,1.343029069930885910e+01,-2.200860236093115763e+00
2.000000000000161648e+01,3.000000003702854467e+00,9.999999999972381204e+00,6.600000000000844080e-01,1.569999999999231122e+00,2.869999999999984084e+03,-2.175000000000737899e+00,-4.945000000000813856e+00,1.341442756631546906e+01,-2.189709246101494422e+00
1.999999999999874234e+01,3.000000001718995168e+00,1.000000000000657607e+01,6.599999999999048850e-01,1.570000000000792317e+00,2.870000000000000909e+03,-2.174999999999217781e+00,-4.944999999999150297e+00,1.341414747381996619e+01,-2.162373553993050201e+00
1.999999999999903011e+01,3.000000001762813895e+00,9.999999999974102494e+00,6.599999999999205391e-01,1.570000000000486118e+00,2.869999999999974534e+03,-2.174999999999515765e+00,-4.944999999999376783e+00,1.340011401086701959e+01,-2.172773617346329900e+00
1.999999999999998934e+01,3.000000004012802091e+00,9.999999999978484766e+00,6.599999999999975886e-01,1.570000000000097984e+00,2.869999999999996362e+03,-2.174999999999921663e+00,-4.944999999999963869e+00,1.342340544152451898e+01,-2.184800192911693362e+00
2.000000000000218137e+01,3.000000001829188800e+00,9.999999999957143615e+00,6.600000000001647882e-01,1.569999999999025952e+00,2.869999999999971351e+03,-2.175000000000933742e+00,-4.945000000001201990e+00,1.341456791165173179e+01,-2.169518365346344346e+00
1.999999999999950973e+01,3.000000004474865811e+00,1.000000000001803357e+01,6.599999999999403011e-01,1.570000000000214779e+00,2.870000000000005912e+03,-2.174999999999752021e+00,-4.944999999999806661e+00,1.339815086631810637e+01,-2.181557365600681031e+00
2.000000000000154898e+01,3.000000004361143002e+00,9.999999999997346123e+00,6.600000000001096101e-01,1.569999999999397433e+00,2.869999999999955435e+03,-2.175000000000541167e+00,-4.945000000000897344e+00,1.342570984519297639e+01,-2.184894128606375663e+00
1.999999999999979039e+01,3.000000004223883909e+00,9.999999999989777066e+00,6.599999999999809353e-01,1.570000000000048912e+00,2.869999999999956344e+03,-2.174999999999943867e+00,-4.944999999999762252e+00,1.339498686280201944e+01,-2.173648028990727177e+00
1.999999999999692690e+01,2.999999998985173555e+00,1.000000000003310596e+01,6.599999999997576694e-01,1.570000000001492868e+00,2.869999999999995453e+03,-2.174999999998536993e+00,-4.944999999998207052e+00,1.340868041863835813e+01,-2.166169851214099218e+00
2.000000000000060751e+01,3.000000000062041039e+00,1.000000000001488587e+01,6.600000000000277867e-01,1.569999999999846407e+00,2.869999999999975898e+03,-2.175000000000093525e+00,-4.945000000000262297e+00,1.341941495729786560e+01,-2.167188717904549922e+00
1.999999999999931077e+01,3.000000003665870718e+00,9.999999999993363531e+00,6.599999999999369704e-01,1.570000000000299156e+00,2.869999999999996362e+03,-2.174999999999715605e+00,-4.944999999999678764e+00,1.339399894335515029e+01,-2.177372292666213127e+00
2.000000000000102673e+01,3.000000001569978814e+00,9.999999999975091924e+00,6.600000000000887379e-01,1.569999999999787565e+00,2.869999999999976353e+03,-2.175000000000157474e+00,-4.945000000000507434e+00,1.340418261402128230e+01,-2.179752601951239210e+00
1.999999999999759481e+01,2.999999998797452605e+00,1.000000000004380496e+01,6.599999999997803179e-01,1.570000000001149587e+00,2.870000000000002274e+03,-2.174999999998901146e+00,-4.944999999998456630e+00,1.340245106795230789e+01,-2.150102497002003066e+00
2.000000000000253664e+01,3.000000007127241020e+00,1.000000000005875833e+01,6.600000000001687850e-01,1.569999999999089901e+00,2.869999999999982720e+03,-2.175000000000784528e+00,-4.945000000001259721e+00,1.342249103447271175e+01,-2.196575143079292580e+00
1.999999999999906564e+01,3.000000000334063444e+00,9.999999999956774133e+00,6.599999999999506262e-01,1.570000000000633555e+00,2.869999999999979536e+03,-2.174999999999341238e+00,-4.944999999999510898e+00,1.341599618241666647e+01,-2.152177851120223195e+00
1.999999999999986500e+01,3.000000001090225688e+00,9.999999999946837193e+00,6.600000000000159073e-01,1.570000000000297602e+00,2.869999999999989996e+03,-2.174999999999633005e+00,-4.944999999999953211e+00,1.342964235326356537e+01,-2.157671596748675924e+00
2.000000000000089173e+01,3.000000001918209147e+00,9.999999999979808152e+00,6.600000000000446621e-01,1.569999999999582396e+00,2.869999999999984539e+03,-2.175000000000430145e+00,-4.945000000000453255e+00,1.340327977142688098e+01,-2.174853810194451231e+00
2.000000000000087752e+01,3.000000004764422634e+00,9.999999999980360599e+00,6.600000000000696421e-01,1.569999999999698526e+00,2.869999999999965439e+03,-2.175000000000284039e+00,-4.945000000000555396e+00,1.340164065136352001e+01,-2.182434859663539672e+00
1.999999999999907985e+01,2.999999999701411291e+00,9.999999999983987919e+00,6.599999999999172084e-01,1.570000000000557172e+00,2.870000000000015461e+03,-2.174999999999456257e+00,-4.944999999999483364e+00,1.340079159724051827e+01,-2.171965295262700213e+00
1.999999999999972289e+01,3.000000003905716639e+00,1.000000000001836575e+01,6.599999999999683897e-01,1.570000000000174811e+00,2.869999999999995453e+03,-2.174999999999846612e+00,-4.944999999999733831e+00,1.340925362725907277e+01,-2.175672759492095487e+00
1.999999999999998579e+01,3.000000000924052834e+00,9.999999999988311572e+00,6.599999999999952571e-01,1.570000000000022711e+00,2.869999999999979991e+03,-2.175000000000002487e+00,-4.945000000000126406e+00,1.340610873375275425e+01,-2.183395988817099287e+00
1.999999999999967670e+01,3.000000000382124998e+00,9.999999999999749534e+00,6.599999999999726086e-01,1.570000000000227658e+00,2.870000000000004093e+03,-2.174999999999718270e+00,-4.944999999999872387e+00,1.340720388330808177e+01,-2.173271474535195757e+00
2.000000000000258993e+01,3.000000007331955931e+00,1.000000000002400213e+01,6.600000000001737810e-01,1.569999999998812124e+00,2.869999999999961346e+03,-2.175000000001105160e+00,-4.945000000001591012e+00,1.341927492279104328e+01,-2.198951292205589603e+00
1.999999999999888800e+01,3.000000000531402033e+00,9.999999999995408118e+00,6.599999999999147660e-01,1.570000000000583595e+00,2.869999999999992724e+03,-2.174999999999394529e+00,-4.944999999999311946e+00,1.339588836029337138e+01,-2.173884495901471592e+00
2.000000000000111200e+01,3.000000003743166666e+00,1.000000000001798917e+01,6.600000000000817435e-01,1.569999999999509344e+00,2.869999999999960437e+03,-2.175000000000415490e+00,-4.945000000000649543e+00,1.342299228035757963e+01,-2.188690302051229164e+00
1.999999999999950617e+01,3.000000002369020091e+00,1.000000000000988898e+01,6.599999999999824896e-01,1.570000000000319584e+00,2.869999999999994088e+03,-2.174999999999653877e+00,-4.944999999999733831e+00,1.340003604106078150e+01,-2.175681279131588930e+00
