2.000000000000019540e+01,2.999999999053590827e+00,9.999999999994937383e+00,6.599999999999863753e-01,1.570000000000023821e+00,2.869999999999985903e+03,-2.175000000000001155e+00,-4.944999999999899920e+00,1.339970109347350125e+01,-2.148678008816399476e+00
1.999999999999915445e+01,2.999999999572454890e+00,1.000000000002248512e+01,6.599999999999129896e-01,1.570000000000526308e+00,2.869999999999988177e+03,-2.174999999999513545e+00,-4.944999999999373230e+00,1.335526162995853205e+01,-2.204799365160144298e+00
1.999999999999955591e+01,3.000000000128696609e+00,1.000000000001248779e+01,6.599999999999266453e-01,1.570000000000395746e+00,2.869999999999985448e+03,-2.174999999999657874e+00,-4.944999999999479812e+00,1.343273465749900808e+01,-2.142245695051842258e+00
1.999999999999962341e+01,3.000000000207270201e+00,1.000000000000621014e+01,6.599999999999428546e-01,1.570000000000382645e+00,2.869999999999984084e+03,-2.174999999999647216e+00,-4.944999999999584617e+00,1.343644767981536958e+01,-2.199930405252404686e+00
1.999999999999938183e+01,3.000000000084541263e+00,1.000000000000507328e+01,6.599999999999269784e-01,1.570000000000398632e+00,2.869999999999977717e+03,-2.174999999999647660e+00,-4.944999999999452278e+00,1.339874664077265543e+01,-2.124833901815397219e+00
1.999999999999983658e+01,3.000000000721166682e+00,1.000000000000926370e+01,6.599999999999761613e-01,1.570000000000149720e+00,2.869999999999978627e+03,-2.174999999999857714e+00,-4.944999999999833307e+00,1.341291024547493471e+01,-2.179858963198404886e+00
1.999999999999980460e+01,3.000000001674810068e+00,1.000000000000280131e+01,6.599999999999738298e-01,1.570000000000177032e+00,2.869999999999976808e+03,-2.174999999999835065e+00,-4.944999999999774687e+00,1.335801909100053031e+01,-2.218731236093248960e+00
1.999999999999908695e+01,2.999999999589265887e+00,1.000000000001453948e+01,6.599999999999334177e-01,1.570000000000426388e+00,2.869999999999984539e+03,-2.174999999999591260e+00,-4.944999999999497575e+00,1.342291801437541565e+01,-2.218515004748866648e+00
1.999999999999985079e+01,3.000000000085417895e+00,1.000000000000683187e+01,6.599999999999860423e-01,1.570000000000091767e+00,2.869999999999979536e+03,-2.174999999999922107e+00,-4.944999999999872387e+00,1.336175914458926428e+01,-2.202004796363308259e+00
1.999999999999993250e+01,2.999999999744325851e+00,1.000000000000907541e+01,6.599999999999888178e-01,1.570000000000063789e+00,2.869999999999999545e+03,-2.174999999999952305e+00,-4.944999999999909690e+00,1.329784821259532634e+01,-2.253348881423371530e+00
2.000000000000011369e+01,2.999999999557825259e+00,1.000000000001709211e+01,6.600000000000306732e-01,1.569999999999898366e+00,2.869999999999995907e+03,-2.175000000000092637e+00,-4.945000000000185025e+00,1.339040890656686145e+01,-2.207509291175961508e+00
1.999999999999928946e+01,2.999999998867344253e+00,1.000000000003803358e+01,6.599999999999687228e-01,1.570000000000264517e+00,2.869999999999998636e+03,-2.174999999999742695e+00,-4.944999999999732943e+00,1.341379812720510500e+01,-2.166408427698638839e+00
1.999999999999960565e+01,3.000000000751500639e+00,1.000000000006106582e+01,6.599999999999799360e-01,1.570000000000179252e+00,2.869999999999996817e+03,-2.174999999999834621e+00,-4.944999999999817319e+00,1.338164842489874040e+01,-2.198153291007340471e+00
1.999999999999968026e+01,2.999999997689549947e+00,1.000000000003579181e+01,6.600000000000126876e-01,1.570000000000012053e+00,2.870000000000003638e+03,-2.174999999999978950e+00,-4.945000000000035811e+00,1.326529591366358396e+01,-2.236752744652877212e+00
1.999999999999996803e+01,3.000000000037902126e+00,1.000000000009102763e+01,6.600000000000286748e-01,1.569999999999849072e+00,2.870000000000006821e+03,-2.175000000000138378e+00,-4.945000000000190354e+00,1.335251100021941006e+01,-2.160899547056026826e+00
1.999999999999920064e+01,3.000000000033475445e+00,1.000000000001168843e+01,6.599999999999845990e-01,1.570000000000203899e+00,2.870000000000000455e+03,-2.174999999999780442e+00,-4.944999999999837748e+00,1.337788708889533318e+01,-2.154914638741195265e+00
1.999999999999916866e+01,2.999999999470089662e+00,1.000000000001247713e+01,6.599999999999847100e-01,1.570000000000203899e+00,2.870000000000003638e+03,-2.174999999999780886e+00,-4.944999999999849294e+00,1.338923646782946619e+01,-2.151119506550953631e+00
2.000000000000062172e+01,3.000000003699144546e+00,9.999999999950407670e+00,6.600000000000358913e-01,1.569999999999722062e+00,2.870000000000002728e+03,-2.175000000000280487e+00,-4.945000000000269402e+00,1.331615421750565353e+01,-2.291008116924490690e+00
2.000000000000071410e+01,3.000000003000196536e+00,9.999999999940824225e+00,6.600000000000467715e-01,1.569999999999704299e+00,2.869999999999997726e+03,-2.175000000000291589e+00,-4.945000000000358220e+00,1.328431766050659313e+01,-2.317115991211529114e+00
1.999999999999884537e+01,3.000000000156600066e+00,9.999999999985613286e+00,6.599999999999652811e-01,1.570000000000292273e+00,2.869999999999983629e+03,-2.174999999999705835e+00,-4.944999999999711626e+00,1.326740907113000034e+01,-2.240488956869107540e+00
2.000000000000044764e+01,3.000000001644687053e+00,9.999999999976671106e+00,6.600000000000575406e-01,1.569999999999652118e+00,2.869999999999980901e+03,-2.175000000000329337e+00,-4.945000000000380425e+00,1.328980331822993399e+01,-2.317095272882331081e+00
1.999999999999998579e+01,3.000000001327808974e+00,9.999999999973738340e+00,6.600000000000321165e-01,1.569999999999820206e+00,2.869999999999981810e+03,-2.175000000000164135e+00,-4.945000000000198348e+00,1.332690555817161204e+01,-2.249976086315708557e+00
1.999999999999963052e+01,3.000000000529984945e+00,9.999999999974528819e+00,6.600000000000013634e-01,1.570000000000052909e+00,2.869999999999982265e+03,-2.174999999999945643e+00,-4.944999999999987850e+00,1.335628509829047239e+01,-2.252932251553750653e+00
1.999999999999845102e+01,2.999999998762093778e+00,9.999999999988025579e+00,6.599999999999858202e-01,1.570000000000189244e+00,2.869999999999989086e+03,-2.174999999999782219e+00,-4.944999999999779128e+00,1.328632565618249650e+01,-2.234009778165562121e+00
1.999999999999980815e+01,3.000000000821848811e+00,9.999999999976678211e+00,6.599999999999741629e-01,1.570000000000157936e+00,2.869999999999994543e+03,-2.174999999999856826e+00,-4.944999999999812879e+00,1.329993978713859271e+01,-1.987291163649789416e+00
1.999999999999871036e+01,2.999999998954419933e+00,9.999999999962374986e+00,6.599999999999064393e-01,1.570000000000578266e+00,2.869999999999996362e+03,-2.174999999999451816e+00,-4.944999999999298623e+00,1.321936206260503965e+01,-2.021737781482987550e+00
1.999999999999979750e+01,3.000000002217939166e+00,9.999999999980772714e+00,6.600000000000096900e-01,1.570000000000010720e+00,2.869999999999992269e+03,-2.174999999999966960e+00,-4.945000000000044693e+00,1.340970142466780324e+01,-2.456131218129298244e+00
2.000000000000072475e+01,3.000000001408778871e+00,9.999999999979634069e+00,6.600000000000731948e-01,1.569999999999592832e+00,2.869999999999983629e+03,-2.175000000000368860e+00,-4.945000000000482565e+00,1.342595053000252214e+01,-2.432136357725760423e+00
2.000000000000121148e+01,3.000000002808064892e+00,1.000000000001947065e+01,6.600000000000605382e-01,1.569999999999596163e+00,2.869999999999977263e+03,-2.175000000000416378e+00,-4.945000000000471019e+00,1.323311542429559040e+01,-2.310466615015351888e+00
2.000000000000038369e+01,3.000000003275567373e+00,1.000000000000559730e+01,6.599999999999991429e-01,1.569999999999979412e+00,2.869999999999977263e+03,-2.175000000000052669e+00,-4.944999999999987850e+00,1.331076369275158733e+01,-2.288061061954247855e+00
2.000000000000032685e+01,3.000000003600665099e+00,1.000000000001976375e+01,6.600000000000094680e-01,1.569999999999956541e+00,2.869999999999979082e+03,-2.175000000000060218e+00,-4.945000000000033147e+00,1.331678425056829873e+01,-2.272394459015099510e+00
2.000000000000065015e+01,3.000000003089206224e+00,1.000000000002540013e+01,6.600000000000176836e-01,1.569999999999821982e+00,2.869999999999981355e+03,-2.175000000000196554e+00,-4.945000000000174367e+00,1.324578402670430322e+01,-2.341947077522674725e+00
2.000000000000045830e+01,3.000000003008369553e+00,1.000000000001601563e+01,6.600000000000162403e-01,1.569999999999883267e+00,2.869999999999988177e+03,-2.175000000000122835e+00,-4.945000000000122853e+00,1.325782614792638725e+01,-2.323734352490674837e+00
1.999999999999991118e+01,3.000000004548493582e+00,1.000000000000367706e+01,6.599999999999767164e-01,1.570000000000137286e+00,2.869999999999982265e+03,-2.174999999999892797e+00,-4.944999999999815543e+00,1.327097601690323181e+01,-2.320177121453741442e+00
1.999999999999993960e+01,3.000000003353221256e+00,1.000000000000968292e+01,6.599999999999969225e-01,1.570000000000087548e+00,2.869999999999983629e+03,-2.174999999999913225e+00,-4.944999999999951434e+00,1.330593554594873495e+01,-2.207607564830323277e+00
2.000000000000105516e+01,3.000000003462750975e+00,1.000000000000167333e+01,6.600000000000750822e-01,1.569999999999534213e+00,2.869999999999983174e+03,-2.175000000000452349e+00,-4.945000000000559837e+00,1.329754261800354698e+01,-2.344195801663472967e+00
2.000000000000008882e+01,3.000000001391599280e+00,1.000000000000742162e+01,6.600000000000048050e-01,1.570000000000016271e+00,2.869999999999979991e+03,-2.174999999999983835e+00,-4.945000000000023377e+00,1.337968234036220849e+01,-2.218510704098868302e+00
2.000000000000063594e+01,3.000000002230490015e+00,1.000000000002326850e+01,6.600000000000447731e-01,1.569999999999771356e+00,2.869999999999981355e+03,-2.175000000000214317e+00,-4.945000000000341345e+00,1.329620100325789878e+01,-2.337921959814036388e+00
1.999999999999991829e+01,3.000000004977369183e+00,1.000000000001084111e+01,6.600000000000206812e-01,1.569999999999963647e+00,2.869999999999981810e+03,-2.175000000000025580e+00,-4.945000000000069562e+00,1.329963094727109407e+01,-2.273534080607009233e+00
1.999999999999970512e+01,3.000000004168251522e+00,1.000000000000760636e+01,6.599999999999945910e-01,1.570000000000074003e+00,2.869999999999984084e+03,-2.174999999999928324e+00,-4.944999999999926565e+00,1.322449425207286566e+01,-2.348580754800739800e+00
1.999999999999911893e+01,3.000000000144033230e+00,1.000000000002161116e+01,6.599999999999932587e-01,1.570000000000097096e+00,2.869999999999999091e+03,-2.174999999999889244e+00,-4.944999999999865281e+00,1.330514532499862312e+01,-2.260228612548037308e+00
1.999999999999888800e+01,3.000000000268362665e+00,1.000000000001666933e+01,6.599999999999661693e-01,1.570000000000212337e+00,2.870000000000003183e+03,-2.174999999999796430e+00,-4.944999999999689422e+00,1.326915758365542963e+01,-2.292990178212038543e+00
1.999999999999932498e+01,3.000000001191687193e+00,1.000000000002120792e+01,6.600000000000075806e-01,1.569999999999991847e+00,2.869999999999998636e+03,-2.174999999999993161e+00,-4.944999999999972751e+00,1.328279652782327069e+01,-2.290899597584152403e+00
1.999999999999948130e+01,3.000000000708270331e+00,1.000000000003711520e+01,6.600000000000161293e-01,1.569999999999883267e+00,2.870000000000004093e+03,-2.175000000000107292e+00,-4.945000000000021600e+00,1.327407317332393966e+01,-2.265783458844718101e+00
1.999999999999926459e+01,3.000000001591947019e+00,1.000000000004367529e+01,6.599999999999898170e-01,1.570000000000123741e+00,2.870000000000000455e+03,-2.174999999999859046e+00,-4.944999999999795115e+00,1.325396533957044021e+01,-2.322147574592853925e+00
1.999999999999928590e+01,3.000000000879623485e+00,1.000000000004335021e+01,6.599999999999807132e-01,1.570000000000119744e+00,2.870000000000001819e+03,-2.174999999999877698e+00,-4.944999999999769358e+00,1.326166492706908606e+01,-2.315363767902550496e+00
1.999999999999936762e+01,3.000000006328499058e+00,1.000000000004794742e+01,6.599999999999742739e-01,1.570000000000108420e+00,2.869999999999998636e+03,-2.174999999999889244e+00,-4.944999999999796891e+00,1.341583323710983855e+01,-2.069208529237415384e+00
1.999999999999936051e+01,3.000000005601882513e+00,1.000000000001593214e+01,6.599999999999905942e-01,1.570000000000046692e+00,2.870000000000001819e+03,-2.174999999999939870e+00,-4.944999999999944329e+00,1.339845447267541267e+01,-2.136772191033381674e+00
1.999999999999992895e+01,3.000000005104218381e+00,1.000000000003030287e+01,6.600000000000119105e-01,1.569999999999921014e+00,2.870000000000000000e+03,-2.175000000000063327e+00,-4.945000000000134399e+00,1.336336622339307922e+01,-2.247891578372331001e+00
1.999999999999938183e+01,3.000000004352818106e+00,1.000000000004234479e+01,6.599999999999695000e-01,1.570000000000181251e+00,2.869999999999999091e+03,-2.174999999999807976e+00,-4.944999999999807550e+00,1.337331549204482783e+01,-2.248903108921421090e+00
1.999999999999954525e+01,3.000000003667830484e+00,1.000000000003997336e+01,6.600000000000034728e-01,1.570000000000016493e+00,2.870000000000000909e+03,-2.174999999999951861e+00,-4.945000000000040252e+00,1.336675874817428245e+01,-2.173356874427980756e+00
2.000000000000025580e+01,3.000000003201723331e+00,1.000000000005726974e+01,6.600000000000474376e-01,1.569999999999666551e+00,2.870000000000000000e+03,-2.175000000000301359e+00,-4.945000000000382201e+00,1.339831248037873301e+01,-2.158008600977455504e+00
2.000000000000009237e+01,3.000000005576279438e+00,1.000000000003957723e+01,6.600000000000030287e-01,1.569999999999896145e+00,2.870000000000000455e+03,-2.175000000000094857e+00,-4.945000000000084661e+00,1.338586905511208869e+01,-2.154572481821219299e+00
2.000000000000032330e+01,3.000000005964339245e+00,1.000000000003388934e+01,6.600000000000023626e-01,1.569999999999935003e+00,2.869999999999996817e+03,-2.175000000000060663e+00,-4.945000000000061569e+00,1.333831493330626294e+01,-2.224333192523989311e+00
2.000000000000065370e+01,3.000000005940194114e+00,1.000000000004681411e+01,6.600000000000304512e-01,1.569999999999785123e+00,2.869999999999997272e+03,-2.175000000000193445e+00,-4.945000000000245421e+00,1.338162315981397832e+01,-2.169073898379796361e+00
2.000000000000077094e+01,3.000000006078197501e+00,1.000000000003433342e+01,6.600000000000151301e-01,1.569999999999824869e+00,2.869999999999996362e+03,-2.175000000000172573e+00,-4.945000000000171703e+00,1.334945522403696394e+01,-2.184333115325492791e+00
2.000000000000093436e+01,3.000000003823165784e+00,1.000000000005488943e+01,6.600000000000284528e-01,1.569999999999718954e+00,2.869999999999994543e+03,-2.175000000000272937e+00,-4.945000000000260520e+00,1.344102709285084174e+01,-2.119107132760976508e+00
2.000000000000076383e+01,3.000000004954989308e+00,1.000000000006000711e+01,6.600000000000156852e-01,1.569999999999805995e+00,2.870000000000003183e+03,-2.175000000000192557e+00,-4.945000000000201901e+00,1.341386497801338251e+01,-2.148044667918083128e+00
2.000000000000066791e+01,3.000000004324516745e+00,1.000000000004414247e+01,6.600000000000046940e-01,1.569999999999853957e+00,2.870000000000000909e+03,-2.175000000000150369e+00,-4.945000000000153051e+00,1.344504124344633489e+01,-2.145291912278657342e+00
2.000000000000049027e+01,3.000000004583666779e+00,1.000000000003183587e+01,6.599999999999982547e-01,1.569999999999940110e+00,2.869999999999997726e+03,-2.175000000000060218e+00,-4.945000000000081108e+00,1.337517375097944239e+01,-2.193625968756839129e+00
2.000000000000084910e+01,2.999999998619196973e+00,1.000000000001450218e+01,6.600000000000321165e-01,1.569999999999782903e+00,2.869999999999989996e+03,-2.175000000000244960e+00,-4.945000000000213447e+00,1.358964396932995911e+01,-1.987465999591461641e+00
1.999999999999967315e+01,2.999999999388343941e+00,1.000000000002651745e+01,6.599999999999619504e-01,1.570000000000304485e+00,2.869999999999997272e+03,-2.174999999999716049e+00,-4.944999999999626361e+00,1.359251311064530832e+01,-2.012382483589097770e+00
2.000000000000014211e+01,2.999999999269567397e+00,1.000000000000792255e+01,6.599999999999630607e-01,1.570000000000201013e+00,2.869999999999989086e+03,-2.174999999999839062e+00,-4.944999999999720508e+00,1.356550559769751807e+01,-2.004798288171411702e+00
2.000000000000094147e+01,3.000000000114189991e+00,1.000000000001323563e+01,6.600000000000083578e-01,1.569999999999873275e+00,2.869999999999985448e+03,-2.175000000000169909e+00,-4.945000000000094431e+00,1.358088356139279895e+01,-1.988744271055759461e+00
1.999999999999987921e+01,3.000000000175551129e+00,9.999999999965353936e+00,6.599999999999626166e-01,1.570000000000276064e+00,2.869999999999994998e+03,-2.174999999999727596e+00,-4.944999999999776463e+00,1.351614703486588276e+01,-2.296731283121602463e+00
1.999999999999971578e+01,3.000000000249437804e+00,9.999999999971123543e+00,6.599999999999476286e-01,1.570000000000356000e+00,2.869999999999996362e+03,-2.174999999999651212e+00,-4.944999999999642348e+00,1.348950540665054021e+01,-2.341017415503786392e+00
1.999999999999990052e+01,3.000000001897350721e+00,9.999999999973205433e+00,6.599999999999999201e-01,1.570000000000010498e+00,2.869999999999985448e+03,-2.174999999999989164e+00,-4.944999999999979856e+00,1.343726771096884853e+01,-2.157406282533688380e+00
1.999999999999998224e+01,3.000000001591860421e+00,9.999999999951560525e+00,6.600000000000054712e-01,1.569999999999965201e+00,2.869999999999987267e+03,-2.175000000000029132e+00,-4.945000000000050022e+00,1.336191262563347770e+01,-2.276956377522405539e+00
1.999999999999961275e+01,3.000000003363122225e+00,9.999999999955775820e+00,6.599999999999762723e-01,1.570000000000182361e+00,2.869999999999989541e+03,-2.174999999999830180e+00,-4.944999999999794227e+00,1.342174118348197887e+01,-2.219113170373839594e+00
2.000000000000009592e+01,3.000000001503076330e+00,9.999999999979513277e+00,6.600000000000197931e-01,1.569999999999953877e+00,2.869999999999985448e+03,-2.175000000000036238e+00,-4.945000000000105977e+00,1.345926376072518238e+01,-2.119753854147566674e+00
2.000000000000026290e+01,3.000000001535326088e+00,9.999999999987279509e+00,6.600000000000177947e-01,1.569999999999917462e+00,2.869999999999988177e+03,-2.175000000000088640e+00,-4.945000000000092655e+00,1.342161279766798998e+01,-2.173170473087333132e+00
2.000000000000023093e+01,3.000000002651667774e+00,9.999999999956251884e+00,6.600000000000096900e-01,1.569999999999935225e+00,2.869999999999984993e+03,-2.175000000000084199e+00,-4.945000000000074891e+00,1.345581813867585197e+01,-2.113631081881393481e+00
2.000000000000046896e+01,3.000000001950468675e+00,9.999999999967307929e+00,6.599999999999945910e-01,1.569999999999982965e+00,2.869999999999985448e+03,-2.175000000000057998e+00,-4.945000000000010054e+00,1.337843672117272753e+01,-2.158603259599193969e+00
2.000000000000003197e+01,3.000000002138107025e+00,9.999999999982449594e+00,6.599999999999764944e-01,1.570000000000159046e+00,2.869999999999980446e+03,-2.174999999999877698e+00,-4.944999999999788010e+00,1.338832695562974706e+01,-2.207534224348380203e+00
1.999999999999930367e+01,3.000000000470892214e+00,9.999999999964304109e+00,6.599999999999701661e-01,1.570000000000326024e+00,2.869999999999983174e+03,-2.174999999999667644e+00,-4.944999999999735607e+00,1.341671216290313851e+01,-2.144354412382114994e+00
2.000000000000027356e+01,3.000000002081297357e+00,9.999999999957207564e+00,6.600000000000131317e-01,1.569999999999917906e+00,2.869999999999984539e+03,-2.175000000000089972e+00,-4.945000000000070450e+00,1.333173772889945141e+01,-2.156438785185142759e+00
2.000000000000036948e+01,3.000000002114532993e+00,9.999999999964785502e+00,6.599999999999973666e-01,1.570000000000024931e+00,2.869999999999990905e+03,-2.174999999999983835e+00,-4.944999999999971863e+00,1.344514873255128684e+01,-2.207614772666794067e+00
2.000000000000003908e+01,3.000000000377998521e+00,9.999999999985996979e+00,6.599999999999829337e-01,1.570000000000159046e+00,2.869999999999989996e+03,-2.174999999999854605e+00,-4.944999999999833307e+00,1.341780969121872502e+01,-2.217342324725219527e+00
1.999999999999972644e+01,3.000000000638508801e+00,9.999999999966119546e+00,6.599999999999676126e-01,1.570000000000254969e+00,2.869999999999990905e+03,-2.174999999999751576e+00,-4.944999999999759588e+00,1.335360173211320145e+01,-2.147010892895437895e+00
2.000000000000043698e+01,2.999999998551214020e+00,9.999999999972599696e+00,6.600000000000156852e-01,1.569999999999923235e+00,2.869999999999993179e+03,-2.175000000000085532e+00,-4.945000000000147722e+00,1.333540046732921347e+01,-2.199898218369467529e+00
2.000000000000042988e+01,2.999999999025621200e+00,1.000000000006830447e+01,6.599999999999917044e-01,1.569999999999993623e+00,2.869999999999994543e+03,-2.175000000000008260e+00,-4.944999999999993179e+00,1.329972100830172010e+01,-2.249078908975875368e+00
2.000000000000033751e+01,2.999999998432863357e+00,1.000000000004992451e+01,6.599999999999620615e-01,1.570000000000131957e+00,2.870000000000000000e+03,-2.174999999999884359e+00,-4.944999999999834195e+00,1.333498928289657393e+01,-2.287540761926702970e+00
2.000000000000108358e+01,3.000000000819474710e+00,1.000000000006570033e+01,6.600000000000086908e-01,1.569999999999792228e+00,2.870000000000001819e+03,-2.175000000000215206e+00,-4.945000000000178808e+00,1.335361231262727877e+01,-2.237780572368603504e+00
1.999999999999951683e+01,3.000000000686295465e+00,1.000000000003765166e+01,6.599999999999978106e-01,1.570000000000053131e+00,2.869999999999999545e+03,-2.174999999999947864e+00,-4.945000000000023377e+00,1.330497916837166450e+01,-2.280920027248827253e+00
1.999999999999932854e+01,3.000000000327216032e+00,1.000000000004326850e+01,6.600000000000026956e-01,1.570000000000123297e+00,2.870000000000000455e+03,-2.174999999999857714e+00,-4.944999999999978080e+00,1.330161329713698315e+01,-2.328660526920705909e+00
1.999999999999968381e+01,2.999999999965150987e+00,1.000000000003756817e+01,6.600000000000121325e-01,1.570000000000006501e+00,2.870000000000001364e+03,-2.174999999999983835e+00,-4.945000000000072227e+00,1.322132117682869001e+01,-2.345265289975420497e+00
1.999999999999967670e+01,2.999999999647871451e+00,1.000000000005255529e+01,6.600000000000153522e-01,1.569999999999977192e+00,2.869999999999999545e+03,-2.175000000000008260e+00,-4.945000000000113083e+00,1.325164983325642076e+01,-2.300943117314067976e+00
2.000000000000056133e+01,3.000000000314156257e+00,1.000000000000294342e+01,6.600000000000245670e-01,1.569999999999786455e+00,2.869999999999999091e+03,-2.175000000000219202e+00,-4.945000000000263185e+00,1.326290588330188136e+01,-2.340731482597042223e+00
2.000000000000027356e+01,2.999999998655197953e+00,1.000000000002494183e+01,6.600000000000114664e-01,1.569999999999913465e+00,2.870000000000002728e+03,-2.175000000000084199e+00,-4.945000000000125517e+00,1.329706246727909225e+01,-2.276372931558231283e+00
2.000000000000004263e+01,2.999999999971482367e+00,1.000000000000797939e+01,6.599999999999822675e-01,1.570000000000059792e+00,2.869999999999996362e+03,-2.174999999999957190e+00,-4.944999999999923013e+00,1.326608040737767702e+01,-2.311337347196785519e+00
2.000000000000021672e+01,3.000000001414888651e+00,1.000000000000047429e+01,6.599999999999897060e-01,1.569999999999995177e+00,2.870000000000000455e+03,-2.175000000000015810e+00,-4.944999999999971863e+00,1.326479809037557267e+01,-2.349891174924143566e+00
1.999999999999980815e+01,2.999999999147943353e+00,1.000000000003002221e+01,6.600000000000129097e-01,1.569999999999994511e+00,2.870000000000000909e+03,-2.174999999999982503e+00,-4.945000000000115747e+00,1.330092834535588331e+01,-2.259927266315220784e+00
1.999999999999963762e+01,2.999999999613548241e+00,1.000000000003492850e+01,6.599999999999951461e-01,1.570000000000063123e+00,2.870000000000004547e+03,-2.174999999999929212e+00,-4.945000000000005613e+00,1.328722147789355290e+01,-2.259294993584296751e+00
1.999999999999921130e+01,3.000000000546746648e+00,1.000000000002382805e+01,6.599999999999648370e-01,1.570000000000264295e+00,2.870000000000001819e+03,-2.174999999999722267e+00,-4.944999999999753371e+00,1.335244671956634122e+01,-2.268803018803541516e+00
2.000000000000056843e+01,3.000000000074132700e+00,1.000000000002685319e+01,6.600000000000645350e-01,1.569999999999619034e+00,2.870000000000000455e+03,-2.175000000000347544e+00,-4.945000000000503881e+00,1.333539546214614546e+01,-2.257541477549121822e+00
2.000000000000001066e+01,3.000000000556573010e+00,1.000000000002771827e+01,6.600000000000252331e-01,1.569999999999904361e+00,2.869999999999994998e+03,-2.175000000000079314e+00,-4.945000000000257856e+00,1.328440075588674674e+01,-2.200021336772349567e+00
1.999999999999996803e+01,3.000000000038403503e+00,1.000000000002378364e+01,6.600000000000278977e-01,1.569999999999944107e+00,2.869999999999996362e+03,-2.175000000000026912e+00,-4.945000000000290719e+00,1.324773917270785084e+01,-2.303253721796957976e+00
2.000000000000004619e+01,3.000000000757369278e+00,1.000000000002344791e+01,6.600000000000061373e-01,1.570000000000026485e+00,2.869999999999999091e+03,-2.174999999999954969e+00,-4.945000000000159268e+00,1.327774976387249772e+01,-2.341648320618405776e+00
2.000000000000017764e+01,3.000000001221066359e+00,1.000000000001293010e+01,6.600000000000282308e-01,1.569999999999923457e+00,2.870000000000003638e+03,-2.175000000000038902e+00,-4.945000000000293383e+00,1.331152421569797006e+01,-2.319513831467087783e+00
2.000000000000026645e+01,3.000000001372225888e+00,9.999999999969297448e+00,6.600000000000492140e-01,1.569999999999728058e+00,2.869999999999989996e+03,-2.175000000000230305e+00,-4.945000000000344897e+00,1.329976445342651026e+01,-2.251173058376701341e+00
1.999999999999990408e+01,3.000000002771750829e+00,9.999999999970398790e+00,6.600000000000582068e-01,1.569999999999718954e+00,2.869999999999995907e+03,-2.175000000000229861e+00,-4.945000000000357332e+00,1.333730060948805196e+01,-2.306504793755681071e+00
1.999999999999921130e+01,3.000000000083996810e+00,9.999999999988228083e+00,6.600000000000029177e-01,1.570000000000021156e+00,2.870000000000003638e+03,-2.174999999999945643e+00,-4.944999999999944329e+00,1.330829312674092080e+01,-2.293479175600576792e+00
1.999999999999935341e+01,3.000000003006399574e+00,9.999999999973898213e+00,6.600000000000223466e-01,1.569999999999944773e+00,2.869999999999996362e+03,-2.175000000000004263e+00,-4.945000000000077556e+00,1.336811296343488564e+01,-2.255594978551081820e+00
1.999999999999900524e+01,3.000000002949931854e+00,9.999999999992480681e+00,6.600000000000004752e-01,1.570000000000112417e+00,2.869999999999997272e+03,-2.174999999999837286e+00,-4.944999999999912355e+00,1.326903252965903768e+01,-2.304496635086883849e+00
1.999999999999961631e+01,2.999999999244077564e+00,9.999999999979856113e+00,6.599999999999778266e-01,1.570000000000157492e+00,2.870000000000002728e+03,-2.174999999999850164e+00,-4.944999999999822649e+00,1.342652980207303770e+01,-2.135896270421774101e+00
1.999999999999958078e+01,2.999999999365448033e+00,9.999999999985787369e+00,6.599999999999875966e-01,1.570000000000137730e+00,2.870000000000002274e+03,-2.174999999999856382e+00,-4.944999999999920348e+00,1.336848321331284417e+01,-2.165100975081236889e+00
2.000000000000039790e+01,3.000000001145193718e+00,9.999999999957786656e+00,6.600000000000378897e-01,1.569999999999809548e+00,2.869999999999999545e+03,-2.175000000000179234e+00,-4.945000000000274731e+00,1.338371725588216243e+01,-2.250434474894121184e+00
2.000000000000015277e+01,3.000000000049258375e+00,9.999999999970416553e+00,6.599999999999971445e-01,1.570000000000049800e+00,2.869999999999996362e+03,-2.174999999999962075e+00,-4.945000000000026041e+00,1.342478850998941908e+01,-2.203262226151637471e+00
2.000000000000036238e+01,2.999999999939589657e+00,9.999999999963272046e+00,6.600000000000043610e-01,1.569999999999976970e+00,2.869999999999996817e+03,-2.175000000000042899e+00,-4.945000000000065121e+00,1.345886971203579563e+01,-2.197770123927615948e+00
1.999999999999864286e+01,2.999999999093875935e+00,9.999999999971553422e+00,6.599999999999702771e-01,1.570000000000312923e+00,2.870000000000000000e+03,-2.174999999999677858e+00,-4.944999999999713403e+00,1.335499416732051969e+01,-2.144889085277029039e+00
2.000000000000072475e+01,2.999999999397741313e+00,1.000000000002439116e+01,6.600000000000005862e-01,1.570000000000004059e+00,2.869999999999993179e+03,-2.175000000000009148e+00,-4.945000000000013607e+00,1.345020625102589307e+01,-2.141565983154171349e+00
2.000000000000098410e+01,2.999999997951415587e+00,1.000000000002690115e+01,6.600000000000318945e-01,1.569999999999857954e+00,2.869999999999991360e+03,-2.175000000000137490e+00,-4.945000000000281837e+00,1.342317578867282712e+01,-2.133168553752539331e+00
2.000000000000021316e+01,3.000000000708207271e+00,1.000000000003156586e+01,6.600000000000370015e-01,1.569999999999879492e+00,2.869999999999986812e+03,-2.175000000000081091e+00,-4.945000000000278284e+00,1.340651476994361779e+01,-2.146126954015360244e+00
2.000000000000061107e+01,3.000000001256604598e+00,1.000000000003044853e+01,6.600000000000569855e-01,1.569999999999698526e+00,2.869999999999990450e+03,-2.175000000000261391e+00,-4.945000000000478124e+00,1.337691433700779342e+01,-2.165630550241369523e+00
2.000000000000019540e+01,3.000000000815812751e+00,1.000000000003088374e+01,6.600000000000483258e-01,1.569999999999864837e+00,2.869999999999988631e+03,-2.175000000000088640e+00,-4.945000000000336904e+00,1.339914784137681636e+01,-2.109802878340688803e+00
2.000000000000057909e+01,3.000000001352456369e+00,1.000000000002879474e+01,6.600000000000917355e-01,1.569999999999612594e+00,2.869999999999990905e+03,-2.175000000000308908e+00,-4.945000000000677076e+00,1.336601570036815723e+01,-2.179111375319604527e+00
2.000000000000003553e+01,3.000000001795091187e+00,1.000000000002077449e+01,6.600000000000660894e-01,1.569999999999777796e+00,2.869999999999990905e+03,-2.175000000000152589e+00,-4.945000000000452367e+00,1.338802573376610638e+01,-2.161124188708205551e+00
2.000000000000007105e+01,3.000000002214028516e+00,1.000000000003698908e+01,6.600000000000574296e-01,1.569999999999794449e+00,2.869999999999986812e+03,-2.175000000000145928e+00,-4.945000000000387530e+00,1.335162639610355839e+01,-2.205648428553884877e+00
1.999999999999962341e+01,2.999999998663853695e+00,9.999999999974201970e+00,6.600000000000052491e-01,1.570000000000077334e+00,2.869999999999995453e+03,-2.174999999999897238e+00,-4.945000000000033147e+00,1.338442952027121535e+01,-2.160652868661895543e+00
1.999999999999937117e+01,2.999999998013886060e+00,9.999999999989833910e+00,6.599999999999729416e-01,1.570000000000164375e+00,2.869999999999997726e+03,-2.174999999999830624e+00,-4.944999999999811990e+00,1.328027278255958166e+01,-2.004265395743761502e+00
1.999999999999997158e+01,2.999999997744426494e+00,9.999999999968794739e+00,6.600000000000350031e-01,1.569999999999840856e+00,2.869999999999997272e+03,-2.175000000000124167e+00,-4.945000000000201013e+00,1.337039892909336025e+01,-2.137330380646327299e+00
1.999999999999992895e+01,3.000000000679354795e+00,1.000000000001685052e+01,6.600000000000092459e-01,1.570000000000033813e+00,2.869999999999992269e+03,-2.174999999999968292e+00,-4.945000000000047358e+00,1.336499348985808844e+01,-2.229951670418339305e+00
2.000000000000035527e+01,3.000000002150116529e+00,1.000000000001830713e+01,6.600000000000348921e-01,1.569999999999828200e+00,2.869999999999988631e+03,-2.175000000000175682e+00,-4.945000000000258744e+00,1.333141906757913375e+01,-2.229574480455215113e+00
2.000000000000035172e+01,3.000000003283439742e+00,1.000000000002290790e+01,6.600000000000411093e-01,1.569999999999810658e+00,2.869999999999993634e+03,-2.175000000000172573e+00,-4.945000000000294271e+00,1.333334524014193256e+01,-2.219505276204905453e+00
1.999999999999994671e+01,3.000000002170664981e+00,9.999999999997911004e+00,6.600000000000310063e-01,1.569999999999922569e+00,2.869999999999989541e+03,-2.175000000000057554e+00,-4.945000000000209894e+00,1.339230245982004774e+01,-2.160278012328749941e+00
2.000000000000037659e+01,3.000000002297046109e+00,1.000000000002304823e+01,6.600000000000488809e-01,1.569999999999770690e+00,2.869999999999990450e+03,-2.175000000000210321e+00,-4.945000000000335127e+00,1.334672919070422203e+01,-2.208678718919358186e+00
2.000000000000037659e+01,3.000000003343573862e+00,1.000000000000662581e+01,6.600000000000304512e-01,1.569999999999895701e+00,2.869999999999978172e+03,-2.175000000000097966e+00,-4.945000000000244533e+00,1.340300059961453094e+01,-2.213869036532831291e+00
1.999999999999977618e+01,3.000000001652587400e+00,9.999999999992038369e+00,6.599999999999933697e-01,1.570000000000127738e+00,2.869999999999985903e+03,-2.174999999999873257e+00,-4.944999999999947882e+00,1.345031395715916034e+01,-2.137982091758472425e+00
2.000000000000009237e+01,3.000000001049274001e+00,1.000000000001417710e+01,6.600000000000517675e-01,1.569999999999766471e+00,2.869999999999994998e+03,-2.175000000000203659e+00,-4.945000000000396412e+00,1.336895756316235762e+01,-2.226228810608585462e+00
2.000000000000002842e+01,3.000000000704269976e+00,9.999999999999536371e+00,6.600000000000498801e-01,1.569999999999784013e+00,2.869999999999994543e+03,-2.175000000000183231e+00,-4.945000000000339568e+00,1.334507542856585616e+01,-2.262520083287981265e+00
1.999999999999998224e+01,3.000000000207900808e+00,9.999999999991358024e+00,6.600000000000617595e-01,1.569999999999726947e+00,2.869999999999986812e+03,-2.175000000000231193e+00,-4.945000000000402629e+00,1.347934418449463756e+01,-2.120438212054648552e+00
2.000000000000041567e+01,3.000000003241752200e+00,9.999999999963051778e+00,6.600000000000252331e-01,1.569999999999848850e+00,2.869999999999995453e+03,-2.175000000000152589e+00,-4.945000000000193907e+00,1.342476252207447729e+01,-2.183961793610142532e+00
2.000000000000017764e+01,3.000000002384334064e+00,9.999999999955758057e+00,6.600000000000063594e-01,1.569999999999946549e+00,2.869999999999994543e+03,-2.175000000000058442e+00,-4.945000000000018936e+00,1.342957991696260400e+01,-2.129044462270149207e+00
2.000000000000018474e+01,2.999999998368565457e+00,1.000000000000552092e+01,6.599999999999719424e-01,1.570000000000092433e+00,2.870000000000002274e+03,-2.174999999999942091e+00,-4.944999999999868834e+00,1.328994779798296832e+01,-2.311513607736568332e+00
1.999999999999994316e+01,2.999999997962321530e+00,1.000000000001090328e+01,6.599999999999520695e-01,1.570000000000238982e+00,2.870000000000005457e+03,-2.174999999999795097e+00,-4.944999999999730278e+00,1.328998938634413918e+01,-2.293182922224761722e+00
2.000000000000077094e+01,3.000000000624164276e+00,9.999999999984263255e+00,6.600000000000414424e-01,1.569999999999702522e+00,2.870000000000000455e+03,-2.175000000000303135e+00,-4.945000000000363549e+00,1.322867295416014599e+01,-2.328098486834802472e+00
2.000000000000057199e+01,3.000000000309333892e+00,1.000000000000646594e+01,6.600000000000274536e-01,1.569999999999850404e+00,2.870000000000001364e+03,-2.175000000000151701e+00,-4.945000000000259632e+00,1.324919187477860838e+01,-2.361855483573733316e+00
2.000000000000080647e+01,3.000000000349078544e+00,9.999999999986208365e+00,6.600000000000292300e-01,1.569999999999873053e+00,2.869999999999999091e+03,-2.175000000000134381e+00,-4.945000000000284501e+00,1.326834085928385853e+01,-2.258460902526553404e+00
1.999999999999915090e+01,2.999999998663939849e+00,1.000000000003370637e+01,6.599999999999122124e-01,1.570000000000487228e+00,2.870000000000000455e+03,-2.174999999999560618e+00,-4.944999999999288853e+00,1.340157571650831336e+01,-2.209805358607349390e+00
1.999999999999984013e+01,3.000000000140372602e+00,1.000000000002938449e+01,6.599999999999659472e-01,1.570000000000160378e+00,2.869999999999997272e+03,-2.174999999999868816e+00,-4.944999999999684093e+00,1.333773551166621729e+01,-2.298671888117886475e+00
2.000000000000036593e+01,2.999999999701475240e+00,1.000000000002632561e+01,6.599999999999873745e-01,1.569999999999975637e+00,2.869999999999999091e+03,-2.175000000000054445e+00,-4.944999999999937224e+00,1.329134648323940837e+01,-2.341116770400807123e+00
2.000000000000010658e+01,2.999999999344644674e+00,1.000000000003993428e+01,6.599999999999701661e-01,1.570000000000084661e+00,2.870000000000001819e+03,-2.174999999999953637e+00,-4.944999999999797780e+00,1.329740395839978540e+01,-2.307268516121713464e+00
1.999999999999899103e+01,3.000000000281909163e+00,9.999999999993416822e+00,6.599999999999542899e-01,1.570000000000250528e+00,2.869999999999988631e+03,-2.174999999999760014e+00,-4.944999999999594387e+00,1.351564779171435227e+01,-2.014142568432750746e+00
1.999999999999890221e+01,2.999999999268184059e+00,9.999999999966778574e+00,6.599999999999429656e-01,1.570000000000325802e+00,2.869999999999987267e+03,-2.174999999999680078e+00,-4.944999999999511786e+00,1.353571372448290866e+01,-2.023469544462210834e+00
1.999999999999928235e+01,3.000000000371394027e+00,1.000000000000463451e+01,6.600000000000155742e-01,1.569999999999908802e+00,2.869999999999993634e+03,-2.175000000000065548e+00,-4.944999999999985185e+00,1.355431318061938128e+01,-2.024055357558335988e+00
1.999999999999985079e+01,2.999999999084128177e+00,1.000000000006021494e+01,6.599999999999893729e-01,1.570000000000080442e+00,2.869999999999994088e+03,-2.174999999999905231e+00,-4.944999999999882156e+00,1.330412840369760552e+01,-2.012786629624086832e+00
1.999999999999956302e+01,3.000000001603064792e+00,9.999999999994438227e+00,6.599999999999978106e-01,1.570000000000055795e+00,2.869999999999989541e+03,-2.174999999999937650e+00,-4.944999999999911466e+00,1.357687819803054730e+01,-1.954811022824091582e+00
1.999999999999953815e+01,3.000000001060302957e+00,1.000000000000892264e+01,6.600000000000004752e-01,1.570000000000036700e+00,2.869999999999991815e+03,-2.174999999999964295e+00,-4.944999999999949658e+00,1.358718731966347626e+01,-1.979804869167827608e+00
1.999999999999916511e+01,3.000000000432602842e+00,1.000000000001395684e+01,6.599999999999798250e-01,1.570000000000215445e+00,2.869999999999994088e+03,-2.174999999999782219e+00,-4.944999999999778240e+00,1.357122710817383826e+01,-2.070806038342110078e+00
1.999999999999972999e+01,3.000000001555882978e+00,1.000000000001158895e+01,6.600000000000241229e-01,1.569999999999913909e+00,2.869999999999992269e+03,-2.175000000000075318e+00,-4.945000000000112195e+00,1.356211302816853959e+01,-2.024805377426951658e+00
1.999999999999824141e+01,2.999999998380606936e+00,9.999999999973608666e+00,6.599999999999317524e-01,1.570000000000463469e+00,2.870000000000000455e+03,-2.174999999999535305e+00,-4.944999999999352802e+00,1.359094320802582345e+01,-2.011662768635232190e+00
1.999999999999886668e+01,2.999999999701487230e+00,9.999999999992642330e+00,6.599999999999902611e-01,1.570000000000142171e+00,2.869999999999995453e+03,-2.174999999999834177e+00,-4.944999999999773799e+00,1.359485208294493042e+01,-1.978424838723875645e+00
1.999999999999845457e+01,2.999999998936853984e+00,1.000000000002716760e+01,6.599999999999708322e-01,1.570000000000257634e+00,2.869999999999996817e+03,-2.174999999999709388e+00,-4.944999999999613038e+00,1.357429408594686038e+01,-1.964968912696423819e+00
1.999999999999899813e+01,2.999999999215497315e+00,1.000000000001842082e+01,6.600000000000078026e-01,1.570000000000032925e+00,2.869999999999996817e+03,-2.174999999999927436e+00,-4.944999999999880380e+00,1.361941914944810783e+01,-1.935359545672276527e+00
2.000000000000022382e+01,3.000000000411723544e+00,1.000000000000604317e+01,6.599999999999878186e-01,1.570000000000046247e+00,2.869999999999994998e+03,-2.174999999999966516e+00,-4.944999999999999396e+00,1.330539904128591111e+01,-2.260230422453851862e+00
2.000000000000021672e+01,3.000000000627599750e+00,1.000000000000776090e+01,6.599999999999878186e-01,1.570000000000073559e+00,2.869999999999993634e+03,-2.174999999999942979e+00,-4.944999999999977192e+00,1.334769716710809462e+01,-2.227227780451801920e+00
2.000000000000012434e+01,3.000000001960368756e+00,9.999999999966204811e+00,6.599999999999667244e-01,1.570000000000185469e+00,2.869999999999989996e+03,-2.174999999999847500e+00,-4.944999999999857287e+00,1.335410725825348344e+01,-2.265087442629877934e+00
2.000000000000059686e+01,3.000000001488271284e+00,1.000000000001158185e+01,6.600000000000174616e-01,1.569999999999913687e+00,2.869999999999994998e+03,-2.175000000000082423e+00,-4.945000000000195683e+00,1.327915996551577393e+01,-2.298714156796944241e+00
2.000000000000041922e+01,3.000000001287793427e+00,9.999999999982600585e+00,6.600000000000183498e-01,1.569999999999968754e+00,2.869999999999991360e+03,-2.175000000000030465e+00,-4.945000000000182361e+00,1.329075150148884177e+01,-2.278130402867658777e+00
1.999999999999977973e+01,3.000000000566224401e+00,9.999999999998797406e+00,6.599999999999710543e-01,1.570000000000249640e+00,2.870000000000001364e+03,-2.174999999999761791e+00,-4.944999999999844853e+00,1.335691682522306323e+01,-2.221382279533251403e+00
2.000000000000105871e+01,3.000000002743925531e+00,9.999999999983710808e+00,6.600000000000292300e-01,1.569999999999764251e+00,2.869999999999993634e+03,-2.175000000000250289e+00,-4.945000000000322693e+00,1.334021905896130100e+01,-2.304868363108676821e+00
2.000000000000030909e+01,3.000000002042388481e+00,1.000000000001981881e+01,6.599999999999790479e-01,1.570000000000105533e+00,2.869999999999997272e+03,-2.174999999999927880e+00,-4.944999999999939888e+00,1.331385016584066783e+01,-2.264322005855287312e+00
2.000000000000042988e+01,3.000000002311832503e+00,9.999999999997839950e+00,6.599999999999892619e-01,1.570000000000075335e+00,2.869999999999998636e+03,-2.174999999999949196e+00,-4.945000000000021600e+00,1.331965834142328653e+01,-2.337611107191453819e+00
2.000000000000061817e+01,3.000000002318678138e+00,1.000000000000952660e+01,6.599999999999931477e-01,1.569999999999974749e+00,2.869999999999994998e+03,-2.175000000000057110e+00,-4.945000000000048246e+00,1.336760989329830274e+01,-2.258910168992168011e+00
1.999999999999985434e+01,3.000000001777447522e+00,9.999999999998710365e+00,6.600000000000091349e-01,1.570000000000042473e+00,2.869999999999996817e+03,-2.174999999999953637e+00,-4.945000000000121076e+00,1.338021878030427736e+01,-2.265096409689599355e+00
2.000000000000062528e+01,3.000000003079234645e+00,1.000000000000732925e+01,6.600000000000569855e-01,1.569999999999690754e+00,2.869999999999996362e+03,-2.175000000000295586e+00,-4.945000000000489671e+00,1.337705667496225104e+01,-2.288747160407184289e+00
2.000000000000095213e+01,2.999999999846345133e+00,1.000000000000751577e+01,6.600000000000257883e-01,1.569999999999757145e+00,2.869999999999993179e+03,-2.175000000000240075e+00,-4.945000000000188578e+00,1.340142649170843292e+01,-2.215356436580791843e+00
2.000000000000035527e+01,2.999999999823013130e+00,9.999999999982884802e+00,6.599999999999823785e-01,1.570000000000024709e+00,2.869999999999989996e+03,-2.174999999999982947e+00,-4.944999999999836859e+00,1.342560369013600230e+01,-2.195830780773164737e+00
2.000000000000046185e+01,3.000000000743963113e+00,1.000000000000961187e+01,6.599999999999937028e-01,1.570000000000084439e+00,2.869999999999987267e+03,-2.174999999999907896e+00,-4.944999999999998508e+00,1.347357896994846804e+01,-2.082479301612115474e+00
2.000000000000092015e+01,2.999999999560289066e+00,1.000000000001270095e+01,6.600000000000170175e-01,1.569999999999873497e+00,2.869999999999985903e+03,-2.175000000000131717e+00,-4.945000000000161045e+00,1.349895949861408795e+01,-2.050307001779653415e+00
2.000000000000117595e+01,3.000000000892678820e+00,1.000000000001274003e+01,6.600000000000527667e-01,1.569999999999623919e+00,2.869999999999991360e+03,-2.175000000000366196e+00,-4.945000000000477236e+00,1.343068529087275564e+01,-2.169879212926596690e+00
2.000000000000050449e+01,3.000000000060706551e+00,1.000000000003460876e+01,6.599999999999814904e-01,1.570000000000120410e+00,2.870000000000003183e+03,-2.174999999999906120e+00,-4.944999999999950546e+00,1.342827974515172151e+01,-2.134417988437553593e+00
1.999999999999987566e+01,3.000000000053251625e+00,1.000000000003007372e+01,6.599999999999389688e-01,1.570000000000361995e+00,2.870000000000003638e+03,-2.174999999999670308e+00,-4.944999999999602380e+00,1.350149227858938339e+01,-2.101060641781285820e+00
2.000000000000137490e+01,3.000000000242908804e+00,1.000000000003036504e+01,6.600000000000355582e-01,1.569999999999685203e+00,2.869999999999993634e+03,-2.175000000000335554e+00,-4.945000000000350227e+00,1.347821652321822938e+01,-2.151933575327788173e+00
2.000000000000149214e+01,3.000000000944559542e+00,1.000000000004162182e+01,6.600000000000448841e-01,1.569999999999647233e+00,2.869999999999997726e+03,-2.175000000000371525e+00,-4.945000000000399965e+00,1.339983012556394826e+01,-2.166556633469667759e+00
1.999999999999909406e+01,2.999999998446243321e+00,1.000000000004119727e+01,6.599999999999733857e-01,1.570000000000281171e+00,2.870000000000007276e+03,-2.174999999999704947e+00,-4.944999999999765805e+00,1.323925648550313383e+01,-2.297708672469003677e+00
2.000000000000018474e+01,2.999999996797273472e+00,1.000000000003198508e+01,6.600000000000441069e-01,1.569999999999750262e+00,2.870000000000010004e+03,-2.175000000000219647e+00,-4.945000000000297824e+00,1.329352482566630123e+01,-2.238732041480841151e+00
1.999999999999986144e+01,2.999999998764986131e+00,9.999999999979236165e+00,6.599999999999973666e-01,1.570000000000078222e+00,2.869999999999994998e+03,-2.174999999999911449e+00,-4.944999999999998508e+00,1.337986974692975473e+01,-2.159191276498896972e+00
1.999999999999978684e+01,3.000000000708317405e+00,9.999999999980397902e+00,6.599999999999335287e-01,1.570000000000340235e+00,2.869999999999982265e+03,-2.174999999999706723e+00,-4.944999999999573070e+00,1.343029530312355213e+01,-2.092415628082470391e+00
2.000000000000024514e+01,2.999999998262304235e+00,9.999999999982671639e+00,6.599999999999537348e-01,1.570000000000211449e+00,2.869999999999990905e+03,-2.174999999999823963e+00,-4.944999999999751594e+00,1.339154646750118083e+01,-2.192478367893848645e+00
2.000000000000095923e+01,2.999999998974780091e+00,9.999999999959046093e+00,6.600000000000003642e-01,1.569999999999886375e+00,2.869999999999986358e+03,-2.175000000000146372e+00,-4.945000000000081997e+00,1.337919619356972589e+01,-2.201946075278423010e+00
1.999999999999960210e+01,2.999999997668833185e+00,1.000000000002283862e+01,6.599999999999774936e-01,1.570000000000111084e+00,2.870000000000007731e+03,-2.174999999999892797e+00,-4.944999999999855511e+00,1.336602672713761919e+01,-2.121962181467556441e+00
1.999999999999972289e+01,3.000000003748523270e+00,1.000000000002078515e+01,6.599999999999885958e-01,1.570000000000072893e+00,2.869999999999999545e+03,-2.174999999999951417e+00,-4.944999999999891038e+00,1.338381012040617613e+01,-2.180784733457318048e+00
1.999999999999952038e+01,3.000000003364427403e+00,1.000000000000775735e+01,6.599999999999722755e-01,1.570000000000186136e+00,2.869999999999999091e+03,-2.174999999999840394e+00,-4.944999999999771134e+00,1.339620622477746892e+01,-2.132845971918343686e+00
1.999999999999982236e+01,3.000000003944022886e+00,1.000000000001851319e+01,6.599999999999903721e-01,1.570000000000089546e+00,2.870000000000003638e+03,-2.174999999999928768e+00,-4.944999999999923901e+00,1.337872521754587929e+01,-2.206498631421758727e+00
2.000000000000044409e+01,3.000000002988619130e+00,1.000000000001565681e+01,6.600000000000337819e-01,1.569999999999793561e+00,2.870000000000003183e+03,-2.175000000000214317e+00,-4.945000000000241869e+00,1.337987396732202861e+01,-2.155928936426251052e+00
2.000000000000007461e+01,3.000000003760761924e+00,1.000000000000004441e+01,6.600000000000064704e-01,1.569999999999979412e+00,2.869999999999999091e+03,-2.175000000000027800e+00,-4.945000000000058904e+00,1.335839835935088082e+01,-2.160468393850345503e+00
2.000000000000013856e+01,3.000000003119885683e+00,1.000000000000614975e+01,6.599999999999962563e-01,1.569999999999973639e+00,2.869999999999999545e+03,-2.175000000000056222e+00,-4.944999999999983409e+00,1.337328818903399785e+01,-2.164946846332157282e+00
2.000000000000078160e+01,3.000000003774768942e+00,1.000000000001011635e+01,6.600000000000361133e-01,1.569999999999704743e+00,2.870000000000003183e+03,-2.175000000000312905e+00,-4.945000000000312923e+00,1.336531417378459885e+01,-2.192525912164678736e+00
2.000000000000090594e+01,3.000000003128148851e+00,1.000000000000789946e+01,6.600000000000441069e-01,1.569999999999657225e+00,2.869999999999997726e+03,-2.175000000000370637e+00,-4.945000000000343121e+00,1.335719432839605680e+01,-2.222478177282738887e+00
2.000000000000036238e+01,3.000000002321652648e+00,1.000000000003696243e+01,6.600000000000094680e-01,1.569999999999889040e+00,2.869999999999997272e+03,-2.175000000000133493e+00,-4.945000000000063345e+00,1.334359598390312840e+01,-2.181816589807138218e+00
2.000000000000017764e+01,3.000000001859817189e+00,1.000000000003134559e+01,6.600000000000002531e-01,1.569999999999969642e+00,2.869999999999997272e+03,-2.175000000000050893e+00,-4.945000000000020712e+00,1.336045434599687454e+01,-2.199848190610404153e+00
1.999999999999979394e+01,3.000000001945428707e+00,1.000000000000865796e+01,6.599999999999699440e-01,1.570000000000202567e+00,2.869999999999999545e+03,-2.174999999999831957e+00,-4.944999999999778240e+00,1.340408890674982523e+01,-2.176262789140130494e+00
1.999999999999980460e+01,3.000000002471872484e+00,1.000000000002573586e+01,6.599999999999602851e-01,1.570000000000187690e+00,2.870000000000000455e+03,-2.174999999999855937e+00,-4.944999999999740048e+00,1.342753936884648702e+01,-2.188304393482737087e+00
2.000000000000052580e+01,3.000000003013362004e+00,9.999999999999003464e+00,6.600000000000008082e-01,1.569999999999849072e+00,2.870000000000002728e+03,-2.175000000000197886e+00,-4.945000000000072227e+00,1.335627150974174171e+01,-2.246022628726647596e+00
2.000000000000025935e+01,3.000000001695449114e+00,9.999999999982252419e+00,6.599999999999944800e-01,1.569999999999992291e+00,2.870000000000000000e+03,-2.175000000000043343e+00,-4.944999999999972751e+00,1.336000585465701818e+01,-2.236526997521176785e+00
2.000000000000058975e+01,3.000000001948460948e+00,1.000000000002752465e+01,6.600000000000220135e-01,1.569999999999809770e+00,2.870000000000000909e+03,-2.175000000000183675e+00,-4.945000000000196572e+00,1.342347375094564477e+01,-2.119521024785177676e+00
2.000000000000022737e+01,3.000000001669449468e+00,1.000000000001914913e+01,6.600000000000075806e-01,1.569999999999972085e+00,2.870000000000000000e+03,-2.175000000000011369e+00,-4.945000000000058904e+00,1.346137952859853470e+01,-2.164853804611640786e+00
2.000000000000034817e+01,3.000000003726313036e+00,1.000000000002762057e+01,6.599999999999983658e-01,1.569999999999976970e+00,2.869999999999999545e+03,-2.175000000000023803e+00,-4.945000000000048246e+00,1.341545136650170988e+01,-2.150378861021388310e+00
1.999999999999980105e+01,3.000000003543432658e+00,1.000000000003684519e+01,6.599999999999619504e-01,1.570000000000211671e+00,2.870000000000001364e+03,-2.174999999999791545e+00,-4.944999999999732943e+00,1.338124058163328378e+01,-2.130232895853025887e+00
1.999999999999854339e+01,2.999999999030545705e+00,9.999999999977680076e+00,6.599999999999331957e-01,1.570000000000512985e+00,2.870000000000005002e+03,-2.174999999999465139e+00,-4.944999999999539320e+00,1.334122357052637042e+01,-2.175774516093823774e+00
1.999999999999977263e+01,3.000000000002724487e+00,9.999999999983582910e+00,6.600000000000250111e-01,1.569999999999862839e+00,2.870000000000000909e+03,-2.175000000000096190e+00,-4.945000000000177032e+00,1.334445055972770788e+01,-2.141434193687547172e+00
2.000000000000035527e+01,3.000000000940426848e+00,9.999999999976900256e+00,6.600000000000487699e-01,1.569999999999703411e+00,2.870000000000000909e+03,-2.175000000000265388e+00,-4.945000000000407958e+00,1.342091484137876201e+01,-2.223290068278371390e+00
1.999999999999917222e+01,2.999999999209940871e+00,9.999999999964289898e+00,6.599999999999659472e-01,1.570000000000293827e+00,2.870000000000000000e+03,-2.174999999999690292e+00,-4.944999999999750706e+00,1.338564581996813274e+01,-2.188493105569986330e+00
1.999999999999990408e+01,3.000000000635389519e+00,9.999999999956738606e+00,6.600000000000080247e-01,1.569999999999960538e+00,2.869999999999997272e+03,-2.175000000000021139e+00,-4.945000000000085549e+00,1.343864104172799401e+01,-2.166975132988213204e+00
1.999999999999981881e+01,3.000000000468073136e+00,9.999999999965965003e+00,6.600000000000065814e-01,1.570000000000003393e+00,2.869999999999989996e+03,-2.174999999999983391e+00,-4.945000000000065121e+00,1.341864650813154469e+01,-2.139899845572894588e+00
2.000000000000009592e+01,2.999999999790082139e+00,9.999999999964042985e+00,6.600000000000250111e-01,1.569999999999878160e+00,2.869999999999996362e+03,-2.175000000000110401e+00,-4.945000000000212559e+00,1.337333229295093240e+01,-2.226369116033552586e+00
2.000000000000041922e+01,3.000000001169157215e+00,9.999999999970382802e+00,6.600000000000372236e-01,1.569999999999753149e+00,2.869999999999999545e+03,-2.175000000000228972e+00,-4.945000000000273843e+00,1.332639053265555162e+01,-2.199880287127332412e+00
1.999999999999932498e+01,3.000000000524138954e+00,9.999999999959445773e+00,6.599999999999683897e-01,1.570000000000269180e+00,2.870000000000001364e+03,-2.174999999999715161e+00,-4.944999999999738272e+00,1.338146802752243225e+01,-2.179765500230712583e+00
2.000000000000025935e+01,3.000000000575247405e+00,9.999999999934498618e+00,6.600000000000041389e-01,1.569999999999919682e+00,2.869999999999993634e+03,-2.175000000000076650e+00,-4.945000000000072227e+00,1.340104395060711084e+01,-2.191443777774186419e+00
1.999999999999987921e+01,3.000000000001909140e+00,9.999999999956088459e+00,6.600000000000039169e-01,1.570000000000011608e+00,2.870000000000000909e+03,-2.174999999999962519e+00,-4.945000000000009166e+00,1.337729908657227718e+01,-2.173365787250959524e+00
2.000000000000016698e+01,3.000000000628584296e+00,9.999999999963462116e+00,6.600000000000075806e-01,1.569999999999924789e+00,2.869999999999997726e+03,-2.175000000000062883e+00,-4.945000000000093543e+00,1.342839377206935225e+01,-2.182816257481519084e+00
1.999999999999949907e+01,3.000000000072768458e+00,9.999999999967517539e+00,6.599999999999671685e-01,1.570000000000200568e+00,2.870000000000001819e+03,-2.174999999999787992e+00,-4.944999999999759588e+00,1.343243148773769668e+01,-2.116490461432793513e+00
2.000000000000050449e+01,3.000000000097987396e+00,1.000000000001582556e+01,6.599999999999953681e-01,1.569999999999963203e+00,2.869999999999998181e+03,-2.175000000000069988e+00,-4.944999999999999396e+00,1.344964690038365340e+01,-2.175971837625287453e+00
2.000000000000001776e+01,3.000000000458084237e+00,9.999999999992560618e+00,6.599999999999675016e-01,1.570000000000166374e+00,2.870000000000003183e+03,-2.174999999999862599e+00,-4.944999999999811990e+00,1.343094271215630542e+01,-2.209090165523391658e+00
2.000000000000050804e+01,3.000000000084467544e+00,1.000000000002932765e+01,6.600000000000141309e-01,1.569999999999883045e+00,2.870000000000002728e+03,-2.175000000000132161e+00,-4.945000000000146834e+00,1.335536142854283170e+01,-2.170218019873240589e+00
2.000000000000028777e+01,3.000000001330401123e+00,1.000000000001744560e+01,6.599999999999844880e-01,1.570000000000033591e+00,2.869999999999999545e+03,-2.174999999999992273e+00,-4.944999999999920348e+00,1.333341100063111995e+01,-2.201469928432821188e+00
2.000000000000017764e+01,2.999999999603551792e+00,1.000000000003237766e+01,6.599999999999939249e-01,1.570000000000068674e+00,2.869999999999996362e+03,-2.174999999999945199e+00,-4.944999999999946994e+00,1.332684901438262415e+01,-2.215642256768688423e+00
2.000000000000002487e+01,2.999999999184925770e+00,1.000000000001817568e+01,6.599999999999814904e-01,1.570000000000074891e+00,2.870000000000005457e+03,-2.174999999999938094e+00,-4.944999999999884821e+00,1.337969100166159286e+01,-2.198319842127002488e+00
1.999999999999993960e+01,2.999999998550844982e+00,1.000000000002250822e+01,6.599999999999750511e-01,1.570000000000129736e+00,2.870000000000000000e+03,-2.174999999999888800e+00,-4.944999999999817319e+00,1.343383135228158665e+01,-2.131926411375390629e+00
2.000000000000082068e+01,2.999999998085008279e+00,1.000000000005504219e+01,6.600000000000376676e-01,1.569999999999730278e+00,2.869999999999999091e+03,-2.175000000000256506e+00,-4.945000000000288942e+00,1.336164753870592747e+01,-2.190721336181854273e+00
1.999999999999999289e+01,2.999999997516047845e+00,1.000000000006355982e+01,6.599999999999797140e-01,1.570000000000129736e+00,2.870000000000006366e+03,-2.174999999999865707e+00,-4.944999999999906137e+00,1.336241062911103228e+01,-2.236676400030509715e+00
2.000000000000045830e+01,3.000000000222208918e+00,1.000000000003147527e+01,6.600000000000204592e-01,1.569999999999879048e+00,2.869999999999998636e+03,-2.175000000000101075e+00,-4.945000000000158380e+00,1.339643243406789885e+01,-2.215790618417879276e+00
2.000000000000041211e+01,3.000000000251685783e+00,1.000000000001710276e+01,6.600000000000292300e-01,1.569999999999848184e+00,2.870000000000003638e+03,-2.175000000000122391e+00,-4.945000000000174367e+00,1.337456183589582892e+01,-2.209850186623151469e+00
2.000000000000008171e+01,2.999999999155016805e+00,1.000000000004277467e+01,6.600000000000015854e-01,1.569999999999983631e+00,2.869999999999994998e+03,-2.175000000000004707e+00,-4.945000000000024265e+00,1.334850185029678826e+01,-2.236509615623974767e+00
2.000000000000014921e+01,2.999999997903892268e+00,1.000000000006061818e+01,6.599999999999958122e-01,1.569999999999950102e+00,2.870000000000000909e+03,-2.175000000000050449e+00,-4.945000000000026930e+00,1.330382922600109019e+01,-2.244687772451761099e+00
1.999999999999955236e+01,3.000000000240651055e+00,1.000000000001907630e+01,6.599999999999688338e-01,1.570000000000096430e+00,2.869999999999998636e+03,-2.174999999999924327e+00,-4.944999999999694751e+00,1.313790826483997343e+01,-2.167503791457274787e+00
2.000000000000043698e+01,2.999999999375285498e+00,1.000000000004294876e+01,6.600000000000604272e-01,1.569999999999675877e+00,2.869999999999991360e+03,-2.175000000000289813e+00,-4.945000000000418616e+00,1.347837614968685926e+01,-2.156114736645692531e+00
2.000000000000040856e+01,2.999999999512416249e+00,1.000000000003804246e+01,6.600000000000668665e-01,1.569999999999705631e+00,2.869999999999987267e+03,-2.175000000000250733e+00,-4.945000000000457696e+00,1.344679034465538159e+01,-2.190231132614744780e+00
2.000000000000022027e+01,2.999999999728702793e+00,1.000000000003342038e+01,6.600000000000368905e-01,1.569999999999768026e+00,2.869999999999993179e+03,-2.175000000000212097e+00,-4.945000000000269402e+00,1.343038886722595393e+01,-2.198780370764259473e+00
1.999999999999927169e+01,3.000000001162815177e+00,1.000000000000994937e+01,6.600000000000787459e-01,1.569999999999738716e+00,2.869999999999994088e+03,-2.175000000000171685e+00,-4.945000000000423057e+00,1.354876487867770329e+01,-2.071230870352540610e+00
1.999999999999917222e+01,3.000000000042512216e+00,9.999999999997982059e+00,6.600000000000629807e-01,1.569999999999785789e+00,2.869999999999993179e+03,-2.175000000000141043e+00,-4.945000000000313811e+00,1.350933683062353907e+01,-2.082297672424405999e+00
2.000000000000043698e+01,3.000000000160953917e+00,1.000000000004704148e+01,6.600000000000257883e-01,1.569999999999852403e+00,2.870000000000005002e+03,-2.175000000000165024e+00,-4.945000000000239204e+00,1.335719431270499591e+01,-2.214959620553901942e+00
2.000000000000047962e+01,3.000000000194978256e+00,1.000000000003654854e+01,6.600000000000180167e-01,1.569999999999897033e+00,2.869999999999998636e+03,-2.175000000000127276e+00,-4.945000000000175255e+00,1.341529487415445310e+01,-2.180479486852231474e+00
2.000000000000003197e+01,3.000000000053502980e+00,1.000000000002364509e+01,6.600000000000156852e-01,1.569999999999892593e+00,2.870000000000001819e+03,-2.175000000000110401e+00,-4.945000000000031370e+00,1.333115654152490315e+01,-2.316489826592991186e+00
2.000000000000029488e+01,3.000000000137115652e+00,1.000000000000849631e+01,6.600000000000216804e-01,1.569999999999756479e+00,2.869999999999999091e+03,-2.175000000000266720e+00,-4.945000000000139728e+00,1.333857138872250658e+01,-2.314180491332158862e+00
2.000000000000028066e+01,2.999999998823224434e+00,9.999999999971384668e+00,6.600000000000033618e-01,1.569999999999968532e+00,2.870000000000004547e+03,-2.175000000000025580e+00,-4.945000000000110418e+00,1.319912400144533926e+01,-2.329214994685242512e+00
1.999999999999977618e+01,3.000000000744524886e+00,9.999999999989199750e+00,6.599999999999852651e-01,1.570000000000132845e+00,2.869999999999999545e+03,-2.174999999999856826e+00,-4.944999999999874163e+00,1.330416425036093386e+01,-2.315591813329634263e+00
1.999999999999976907e+01,2.999999999737984702e+00,9.999999999981200816e+00,6.599999999999768274e-01,1.570000000000154383e+00,2.869999999999994998e+03,-2.174999999999843947e+00,-4.944999999999824425e+00,1.330614302196110366e+01,-2.257582627538365916e+00
1.999999999999958789e+01,2.999999998726937456e+00,9.999999999986295407e+00,6.599999999999350830e-01,1.570000000000366880e+00,2.869999999999996817e+03,-2.174999999999684519e+00,-4.944999999999519780e+00,1.340625132270275799e+01,-2.126863732724666001e+00
2.000000000000039435e+01,2.999999998890698460e+00,9.999999999991519672e+00,6.599999999999875966e-01,1.569999999999992735e+00,2.869999999999994543e+03,-2.175000000000032241e+00,-4.944999999999934559e+00,1.339776648743237963e+01,-2.127001451299018520e+00
2.000000000000017408e+01,2.999999997451079370e+00,9.999999999970629716e+00,6.599999999999560663e-01,1.570000000000141060e+00,2.869999999999997726e+03,-2.174999999999899458e+00,-4.944999999999791562e+00,1.336096079036955508e+01,-2.178952067239920520e+00
1.999999999999944578e+01,3.000000002043105241e+00,1.000000000006761702e+01,6.599999999999954792e-01,1.570000000000068230e+00,2.870000000000004093e+03,-2.174999999999917222e+00,-4.944999999999937224e+00,1.336978938407295026e+01,-2.160233508415092540e+00
1.999999999999993605e+01,3.000000002046361303e+00,9.999999999977086773e+00,6.600000000000501021e-01,1.569999999999790230e+00,2.869999999999999545e+03,-2.175000000000155698e+00,-4.945000000000277396e+00,1.338564474214869726e+01,-2.112362025488424777e+00
1.999999999999971578e+01,3.000000003221503952e+00,9.999999999983407051e+00,6.600000000000175726e-01,1.569999999999968310e+00,2.870000000000002728e+03,-2.174999999999996270e+00,-4.945000000000047358e+00,1.333632751633579971e+01,-2.171298002576817154e+00
2.000000000000115463e+01,3.000000002788494768e+00,1.000000000000205880e+01,6.600000000000582068e-01,1.569999999999652118e+00,2.870000000000002728e+03,-2.175000000000340439e+00,-4.945000000000423057e+00,1.337105072805404582e+01,-2.175661517630909980e+00
2.000000000000098055e+01,3.000000002255232001e+00,9.999999999993962163e+00,6.600000000000340039e-01,1.569999999999781792e+00,2.870000000000002728e+03,-2.175000000000224087e+00,-4.945000000000256968e+00,1.333241706118738357e+01,-2.217405614840119554e+00
2.000000000000077804e+01,3.000000002905768515e+00,9.999999999999010569e+00,6.600000000000526557e-01,1.569999999999686091e+00,2.869999999999995907e+03,-2.175000000000296918e+00,-4.945000000000341345e+00,1.329285317057837368e+01,-2.227622297410930763e+00
2.000000000000063238e+01,3.000000002586047376e+00,1.000000000001126033e+01,6.600000000000088018e-01,1.569999999999942553e+00,2.870000000000003183e+03,-2.175000000000061995e+00,-4.945000000000112195e+00,1.326607203453513328e+01,-2.212863854687056708e+00
2.000000000000031619e+01,3.000000003449368347e+00,1.000000000001511680e+01,6.600000000000311173e-01,1.569999999999835083e+00,2.869999999999996362e+03,-2.175000000000151701e+00,-4.945000000000173479e+00,1.334486927635015618e+01,-2.163493651524885042e+00
2.000000000000061107e+01,3.000000001838832198e+00,9.999999999982927434e+00,6.600000000000348921e-01,1.569999999999782681e+00,2.869999999999988177e+03,-2.175000000000217870e+00,-4.945000000000203677e+00,1.340625908572728164e+01,-2.158511450351065619e+00
2.000000000000031264e+01,3.000000001456715637e+00,9.999999999989114485e+00,6.600000000000173506e-01,1.569999999999909024e+00,2.869999999999994543e+03,-2.175000000000091749e+00,-4.945000000000097096e+00,1.336988745358687325e+01,-2.167946267766483803e+00
2.000000000000010658e+01,3.000000003259235104e+00,9.999999999991972643e+00,6.600000000000030287e-01,1.570000000000028262e+00,2.869999999999994088e+03,-2.174999999999974953e+00,-4.944999999999960316e+00,1.344897469206351914e+01,-2.133365209023653453e+00
2.000000000000088463e+01,3.000000002440540658e+00,9.999999999982488674e+00,6.600000000000476597e-01,1.569999999999666773e+00,2.869999999999990905e+03,-2.175000000000337330e+00,-4.945000000000343121e+00,1.340274560031570772e+01,-2.144487789509084141e+00
2.000000000000066791e+01,3.000000002735595750e+00,9.999999999979042542e+00,6.600000000000428857e-01,1.569999999999792450e+00,2.869999999999996817e+03,-2.175000000000189004e+00,-4.945000000000273843e+00,1.335426232789835765e+01,-2.155490916477635022e+00
2.000000000000074607e+01,3.000000003465885356e+00,9.999999999997060129e+00,6.600000000000464384e-01,1.569999999999702966e+00,2.869999999999993179e+03,-2.175000000000295142e+00,-4.945000000000312035e+00,1.338303682545361717e+01,-2.142843761193227170e+00
1.999999999999975842e+01,3.000000001970674290e+00,9.999999999962742692e+00,6.599999999999630607e-01,1.570000000000237650e+00,2.869999999999987267e+03,-2.174999999999779998e+00,-4.944999999999754259e+00,1.340145839390509153e+01,-2.107180665644190043e+00
2.000000000000041211e+01,3.000000002767675422e+00,9.999999999951642238e+00,6.600000000000090239e-01,1.569999999999930784e+00,2.869999999999984993e+03,-2.175000000000077094e+00,-4.945000000000088214e+00,1.338166993559576667e+01,-2.159745794823988430e+00
1.999999999999998934e+01,3.000000003239999380e+00,9.999999999984854782e+00,6.599999999999814904e-01,1.570000000000169260e+00,2.869999999999988177e+03,-2.174999999999835065e+00,-4.944999999999866169e+00,1.336399439857379612e+01,-2.179110890975154646e+00
2.000000000000008882e+01,2.999999997750183667e+00,1.000000000001847056e+01,6.600000000000129097e-01,1.569999999999875939e+00,2.870000000000001819e+03,-2.175000000000121503e+00,-4.945000000000036700e+00,1.337479163404470128e+01,-2.129456486300747908e+00
1.999999999999946709e+01,2.999999997913930461e+00,1.000000000005934098e+01,6.599999999999713873e-01,1.570000000000125739e+00,2.870000000000002274e+03,-2.174999999999875477e+00,-4.944999999999732943e+00,1.341038594449280197e+01,-2.110423516488715734e+00
