1.999999999999961631e+01,2.999999999798290684e+00,1.000000000000419043e+01,6.599999999999416334e-01,1.570000000000330020e+00,2.869999999999983174e+03,-2.174999999999703615e+00,-4.944999999999568630e+00,1.340374643458916104e+01,-2.185524452926881356e+00
1.999999999999971934e+01,3.000000000255865107e+00,1.000000000000915534e+01,6.599999999999547340e-01,1.570000000000262963e+00,2.869999999999981810e+03,-2.174999999999763123e+00,-4.944999999999672546e+00,1.341560198112657609e+01,-2.208380121376710470e+00
1.999999999999953104e+01,2.999999999478768942e+00,1.000000000001024780e+01,6.599999999999518474e-01,1.570000000000286500e+00,2.869999999999983629e+03,-2.174999999999733813e+00,-4.944999999999628137e+00,1.338762377072585430e+01,-2.234618982614215099e+00
1.999999999999993250e+01,2.999999999368226256e+00,1.000000000001596590e+01,6.600000000000056932e-01,1.570000000000010054e+00,2.869999999999999091e+03,-2.174999999999990052e+00,-4.945000000000033147e+00,1.335431543378305896e+01,-2.213497571489039029e+00
1.999999999999999289e+01,2.999999999394614925e+00,1.000000000003415401e+01,6.600000000000101341e-01,1.569999999999983853e+00,2.869999999999998181e+03,-2.175000000000016698e+00,-4.945000000000057128e+00,1.335513554133388858e+01,-2.207953472766908565e+00
1.999999999999971578e+01,2.999999999224494118e+00,1.000000000003750777e+01,6.600000000000196820e-01,1.569999999999949214e+00,2.869999999999999545e+03,-2.175000000000034461e+00,-4.945000000000108642e+00,1.337212285579940385e+01,-2.200494268536031583e+00
1.999999999999975842e+01,2.999999999147092922e+00,1.000000000002765610e+01,6.600000000000086908e-01,1.569999999999999840e+00,2.869999999999997726e+03,-2.174999999999991829e+00,-4.945000000000033147e+00,1.340370384354534217e+01,-2.209988490942581763e+00
2.000000000000008882e+01,2.999999999165760212e+00,1.000000000002312106e+01,6.600000000000062483e-01,1.569999999999984075e+00,2.869999999999995453e+03,-2.175000000000020695e+00,-4.945000000000035811e+00,1.346503310124063013e+01,-2.199240809410497821e+00
2.000000000000031264e+01,3.000000000850453041e+00,1.000000000005749534e+01,6.600000000000280087e-01,1.569999999999806661e+00,2.870000000000004093e+03,-2.175000000000197442e+00,-4.945000000000177032e+00,1.327479822845639212e+01,-2.077330016673679669e+00
2.000000000000027356e+01,3.000000001247637993e+00,1.000000000006082956e+01,6.600000000000294520e-01,1.569999999999813767e+00,2.870000000000001364e+03,-2.175000000000186784e+00,-4.945000000000160156e+00,1.332431052028713303e+01,-2.022037204666476296e+00
1.999999999999998934e+01,3.000000001007545158e+00,1.000000000000877165e+01,6.599999999999909273e-01,1.570000000000038920e+00,2.869999999999997272e+03,-2.174999999999954969e+00,-4.944999999999914131e+00,1.308234640721740050e+01,-1.866405283363816281e+00
2.000000000000020961e+01,3.000000002900094387e+00,9.999999999939506168e+00,6.600000000000036948e-01,1.569999999999959650e+00,2.870000000000001819e+03,-2.175000000000050893e+00,-4.945000000000050022e+00,1.337740122870786585e+01,-2.263923153988478543e+00
2.000000000000014921e+01,3.000000002265338139e+00,9.999999999937543294e+00,6.600000000000024736e-01,1.569999999999974749e+00,2.870000000000002274e+03,-2.175000000000032685e+00,-4.945000000000026041e+00,1.333882431938884849e+01,-2.252376726966723641e+00
2.000000000000025224e+01,2.999999998518045885e+00,9.999999999984886756e+00,6.600000000000421085e-01,1.569999999999822871e+00,2.869999999999985903e+03,-2.175000000000132605e+00,-4.945000000000328022e+00,1.325202582646739025e+01,-2.059482653309277378e+00
2.000000000000025224e+01,2.999999999400774886e+00,9.999999999996122213e+00,6.600000000000504352e-01,1.569999999999770246e+00,2.869999999999990450e+03,-2.175000000000181455e+00,-4.945000000000383977e+00,1.330296187829725518e+01,-2.089875353356794641e+00
2.000000000000060041e+01,2.999999998729002915e+00,1.000000000003636202e+01,6.600000000000143530e-01,1.569999999999897256e+00,2.869999999999991815e+03,-2.175000000000128608e+00,-4.945000000000130846e+00,1.331602018692781897e+01,-2.054811530140666864e+00
2.000000000000064304e+01,2.999999998765318310e+00,1.000000000003551470e+01,6.600000000000091349e-01,1.569999999999922347e+00,2.869999999999992724e+03,-2.175000000000109512e+00,-4.945000000000082885e+00,1.331276075465551756e+01,-2.015594348872107755e+00
2.000000000000005329e+01,3.000000000839893044e+00,9.999999999993676170e+00,6.600000000000056932e-01,1.570000000000016049e+00,2.869999999999997726e+03,-2.174999999999981171e+00,-4.945000000000089990e+00,1.342347177773631195e+01,-1.999361179885351225e+00
1.999999999999976552e+01,3.000000001153677154e+00,9.999999999980273557e+00,6.600000000000220135e-01,1.569999999999910134e+00,2.869999999999979991e+03,-2.175000000000074429e+00,-4.945000000000108642e+00,1.327049212363882091e+01,-2.287455579988654897e+00
1.999999999999972644e+01,3.000000000698476832e+00,9.999999999971901588e+00,6.600000000000103562e-01,1.569999999999968088e+00,2.869999999999981355e+03,-2.175000000000026024e+00,-4.945000000000038476e+00,1.329759597785397141e+01,-2.266516121469213996e+00
1.999999999999894129e+01,3.000000000193154381e+00,9.999999999995223376e+00,6.600000000000336708e-01,1.569999999999915907e+00,2.869999999999986358e+03,-2.175000000000035794e+00,-4.945000000000132623e+00,1.330789925932040418e+01,-2.334090574925280936e+00
1.999999999999974776e+01,3.000000000470815831e+00,9.999999999988544275e+00,6.599999999999560663e-01,1.570000000000211227e+00,2.869999999999998636e+03,-2.174999999999821743e+00,-4.944999999999692086e+00,1.330483622967539858e+01,-2.034861507663687785e+00
1.999999999999974065e+01,2.999999999900988090e+00,9.999999999986091126e+00,6.599999999999441869e-01,1.570000000000259188e+00,2.869999999999998636e+03,-2.174999999999786215e+00,-4.944999999999598828e+00,1.328036834792581544e+01,-2.012275082073074817e+00
1.999999999999974776e+01,3.000000000879197160e+00,9.999999999967567277e+00,6.599999999999510703e-01,1.570000000000254969e+00,2.869999999999994543e+03,-2.174999999999779110e+00,-4.944999999999662776e+00,1.326048955230043980e+01,-2.035058445725560716e+00
1.999999999999972644e+01,2.999999999765317504e+00,9.999999999974214404e+00,6.599999999999569544e-01,1.570000000000238538e+00,2.869999999999995453e+03,-2.174999999999793321e+00,-4.944999999999708074e+00,1.324811306497123731e+01,-2.032205845771928754e+00
1.999999999999930367e+01,3.000000000059106497e+00,9.999999999986808774e+00,6.599999999999559552e-01,1.570000000000269624e+00,2.869999999999998181e+03,-2.174999999999754241e+00,-4.944999999999661888e+00,1.319252621157824379e+01,-1.949960718578728436e+00
1.999999999999922551e+01,2.999999999449145971e+00,9.999999999980072829e+00,6.599999999999441869e-01,1.570000000000322027e+00,2.869999999999999545e+03,-2.174999999999702727e+00,-4.944999999999584617e+00,1.326554595782983093e+01,-1.990994968729660197e+00
1.999999999999938893e+01,2.999999999865079037e+00,9.999999999979415577e+00,6.599999999999474065e-01,1.570000000000291163e+00,2.869999999999995907e+03,-2.174999999999740030e+00,-4.944999999999604157e+00,1.334608848985797813e+01,-2.125574175957718470e+00
1.999999999999961275e+01,3.000000000656238175e+00,9.999999999972551734e+00,6.599999999999580647e-01,1.570000000000225215e+00,2.869999999999995907e+03,-2.174999999999803535e+00,-4.944999999999697415e+00,1.330159930755411501e+01,-2.151826401989398896e+00
2.000000000000063238e+01,2.999999999899361836e+00,1.000000000003096368e+01,6.600000000000091349e-01,1.569999999999924123e+00,2.869999999999998636e+03,-2.175000000000067324e+00,-4.945000000000145945e+00,1.333918010375057683e+01,-2.062991860031212266e+00
2.000000000000065015e+01,3.000000000265922395e+00,1.000000000002001954e+01,6.600000000000197931e-01,1.569999999999881712e+00,2.869999999999996817e+03,-2.175000000000103295e+00,-4.945000000000217000e+00,1.334615657754439333e+01,-2.095945420649109714e+00
2.000000000000053291e+01,3.000000000968595870e+00,1.000000000000410516e+01,6.600000000000443290e-01,1.569999999999789564e+00,2.869999999999989541e+03,-2.175000000000179678e+00,-4.945000000000313811e+00,1.307834649684054895e+01,-2.115185369384824376e+00
2.000000000000048672e+01,3.000000000323618909e+00,1.000000000000044054e+01,6.600000000000362244e-01,1.569999999999827756e+00,2.869999999999994543e+03,-2.175000000000151257e+00,-4.945000000000266738e+00,1.302205522154265438e+01,-2.129700591371560758e+00
2.000000000000088818e+01,3.000000000565717251e+00,1.000000000000708233e+01,6.600000000000356692e-01,1.569999999999786011e+00,2.869999999999994998e+03,-2.175000000000203659e+00,-4.945000000000276508e+00,1.314433330409230827e+01,-2.206802761361177811e+00
2.000000000000071054e+01,3.000000000100872644e+00,1.000000000001472600e+01,6.600000000000246780e-01,1.569999999999844187e+00,2.869999999999996362e+03,-2.175000000000153921e+00,-4.945000000000196572e+00,1.314989117221366755e+01,-2.144424696655885754e+00
2.000000000000002132e+01,3.000000003698128470e+00,1.000000000006221690e+01,6.600000000000161293e-01,1.569999999999940554e+00,2.869999999999995907e+03,-2.175000000000044675e+00,-4.945000000000097984e+00,1.323781166107349172e+01,-2.037311584625804972e+00
1.999999999999983302e+01,3.000000003913669833e+00,1.000000000005264056e+01,6.600000000000090239e-01,1.570000000000007612e+00,2.869999999999991360e+03,-2.174999999999978506e+00,-4.945000000000034923e+00,1.326807878551899478e+01,-1.927217830187569758e+00
2.000000000000021316e+01,3.000000001708613695e+00,9.999999999994344080e+00,6.600000000000362244e-01,1.569999999999856399e+00,2.869999999999987722e+03,-2.175000000000115286e+00,-4.945000000000203677e+00,1.343762004976177415e+01,-2.427724733183141748e+00
2.000000000000047962e+01,3.000000003461495091e+00,1.000000000001291767e+01,6.600000000000251221e-01,1.569999999999867946e+00,2.869999999999980901e+03,-2.175000000000133937e+00,-4.945000000000171703e+00,1.328107399744571282e+01,-2.289958663640751624e+00
2.000000000000047251e+01,3.000000003177712316e+00,1.000000000001316103e+01,6.600000000000244560e-01,1.569999999999866391e+00,2.869999999999981355e+03,-2.175000000000140155e+00,-4.945000000000165485e+00,1.331268759883734099e+01,-2.310383685958893096e+00
2.000000000000019185e+01,3.000000002828759449e+00,1.000000000003150369e+01,6.600000000000231237e-01,1.569999999999891704e+00,2.869999999999987722e+03,-2.175000000000102851e+00,-4.945000000000152163e+00,1.323981395417055573e+01,-2.280965274986337832e+00
2.000000000000020606e+01,3.000000003112775371e+00,1.000000000002286171e+01,6.600000000000173506e-01,1.569999999999923457e+00,2.869999999999985448e+03,-2.175000000000083311e+00,-4.945000000000109530e+00,1.325925931336103503e+01,-2.288935525433481555e+00
1.999999999999929656e+01,3.000000000918848109e+00,1.000000000001268674e+01,6.599999999999934808e-01,1.570000000000039364e+00,2.870000000000000909e+03,-2.174999999999964295e+00,-4.944999999999899032e+00,1.329595259136730334e+01,-2.283934954937115958e+00
1.999999999999932854e+01,3.000000000743261452e+00,1.000000000004938805e+01,6.599999999999901501e-01,1.570000000000064899e+00,2.870000000000003638e+03,-2.174999999999918554e+00,-4.944999999999833307e+00,1.322801081246191579e+01,-2.333575930635666484e+00
1.999999999999977973e+01,3.000000005489551924e+00,1.000000000004884981e+01,6.600000000000104672e-01,1.569999999999913687e+00,2.870000000000000000e+03,-2.175000000000065103e+00,-4.945000000000083773e+00,1.340494265769135751e+01,-2.134834256458363111e+00
1.999999999999990408e+01,3.000000004932134257e+00,1.000000000004522782e+01,6.600000000000199041e-01,1.569999999999861950e+00,2.870000000000000000e+03,-2.175000000000109068e+00,-4.945000000000161933e+00,1.336754161942372932e+01,-2.214752468130003482e+00
1.999999999999972644e+01,3.000000004291431654e+00,1.000000000005352518e+01,6.600000000000163514e-01,1.569999999999903917e+00,2.870000000000000000e+03,-2.175000000000064215e+00,-4.945000000000123741e+00,1.337985205063020011e+01,-2.182150509880085298e+00
2.000000000000039080e+01,3.000000005313314233e+00,1.000000000005426060e+01,6.600000000000060263e-01,1.569999999999880824e+00,2.869999999999998636e+03,-2.175000000000119282e+00,-4.945000000000110418e+00,1.339246966350858159e+01,-2.126670367651928295e+00
2.000000000000029843e+01,3.000000005448515861e+00,1.000000000005399414e+01,6.600000000000088018e-01,1.569999999999875273e+00,2.870000000000000909e+03,-2.175000000000114841e+00,-4.945000000000104201e+00,1.336398838359754748e+01,-2.134386728937045508e+00
2.000000000000076739e+01,3.000000005623814303e+00,1.000000000004356693e+01,6.600000000000143530e-01,1.569999999999812879e+00,2.869999999999999091e+03,-2.175000000000186784e+00,-4.945000000000186802e+00,1.338461680253157482e+01,-2.181611590921941790e+00
2.000000000000027711e+01,2.999999998763871911e+00,1.000000000000903633e+01,6.599999999999991429e-01,1.569999999999962981e+00,2.869999999999984539e+03,-2.175000000000046008e+00,-4.944999999999994067e+00,1.339839551970787035e+01,-2.018902135525696195e+00
2.000000000000047606e+01,2.999999996991496776e+00,1.000000000004039968e+01,6.599999999999780487e-01,1.570000000000037810e+00,2.869999999999997272e+03,-2.174999999999973177e+00,-4.944999999999883933e+00,1.351159511142689240e+01,-1.881651991105660615e+00
2.000000000000063949e+01,2.999999999014897334e+00,1.000000000001093348e+01,6.599999999999887068e-01,1.570000000000010498e+00,2.869999999999987267e+03,-2.175000000000036682e+00,-4.944999999999909690e+00,1.358025832288920576e+01,-2.000275516165253009e+00
1.999999999999941735e+01,2.999999999297336295e+00,1.000000000002401279e+01,6.599999999999990319e-01,1.570000000000064233e+00,2.869999999999983629e+03,-2.174999999999934541e+00,-4.944999999999870610e+00,1.356721655218366074e+01,-1.954354113174173291e+00
1.999999999999958078e+01,3.000000000246545451e+00,1.000000000001517719e+01,6.600000000000051381e-01,1.570000000000022711e+00,2.869999999999979536e+03,-2.174999999999971845e+00,-4.944999999999930118e+00,1.351392096483057337e+01,-1.894945877614896634e+00
2.000000000000020250e+01,3.000000000427319957e+00,1.000000000002490985e+01,6.599999999999990319e-01,1.569999999999979190e+00,2.869999999999996362e+03,-2.175000000000044675e+00,-4.944999999999956763e+00,1.333052523866851047e+01,-2.054217440442461129e+00
2.000000000000013500e+01,2.999999999342689350e+00,1.000000000001492673e+01,6.599999999999920375e-01,1.570000000000015161e+00,2.869999999999993634e+03,-2.175000000000016254e+00,-4.944999999999913243e+00,1.337829085122728934e+01,-2.057006755167275269e+00
2.000000000000046185e+01,2.999999999224117531e+00,9.999999999967384312e+00,6.600000000000143530e-01,1.569999999999964757e+00,2.869999999999989996e+03,-2.175000000000030465e+00,-4.945000000000150386e+00,1.354999568071669280e+01,-2.310998783462114847e+00
2.000000000000032330e+01,3.000000000085116802e+00,9.999999999977498888e+00,6.600000000000000311e-01,1.570000000000030482e+00,2.869999999999996817e+03,-2.174999999999960743e+00,-4.945000000000069562e+00,1.356442499473824626e+01,-2.298840441277886448e+00
1.999999999999974776e+01,3.000000001506636593e+00,9.999999999960916597e+00,6.599999999999763833e-01,1.570000000000154161e+00,2.869999999999986812e+03,-2.174999999999864375e+00,-4.944999999999813767e+00,1.341403522597049580e+01,-2.215064681503654320e+00
1.999999999999959144e+01,3.000000001460320309e+00,9.999999999965238473e+00,6.599999999999719424e-01,1.570000000000189910e+00,2.869999999999987722e+03,-2.174999999999827072e+00,-4.944999999999762252e+00,1.341687428724981324e+01,-2.160322140029402149e+00
2.000000000000008882e+01,3.000000001487123757e+00,9.999999999968114395e+00,6.599999999999903721e-01,1.570000000000068008e+00,2.869999999999986358e+03,-2.174999999999950084e+00,-4.944999999999909690e+00,1.341666391440641348e+01,-2.153575959982593435e+00
1.999999999999985079e+01,3.000000000640390407e+00,9.999999999958763652e+00,6.599999999999800471e-01,1.570000000000135065e+00,2.869999999999983629e+03,-2.174999999999881695e+00,-4.944999999999834195e+00,1.340199211574398142e+01,-2.141916244854936480e+00
2.000000000000000000e+01,3.000000001470910060e+00,9.999999999974772180e+00,6.599999999999889289e-01,1.570000000000071783e+00,2.869999999999991815e+03,-2.174999999999938538e+00,-4.944999999999904361e+00,1.338343484910661019e+01,-2.135554160062614670e+00
2.000000000000007105e+01,3.000000001192497656e+00,9.999999999988023802e+00,6.599999999999875966e-01,1.570000000000069784e+00,2.869999999999992269e+03,-2.174999999999945199e+00,-4.944999999999895479e+00,1.344275632094236883e+01,-2.177637763822679151e+00
2.000000000000030198e+01,3.000000000842144132e+00,9.999999999988052224e+00,6.599999999999962563e-01,1.570000000000020268e+00,2.869999999999991815e+03,-2.174999999999990052e+00,-4.944999999999986073e+00,1.338440690968842972e+01,-2.164849063251605532e+00
2.000000000000043343e+01,2.999999994588877783e+00,1.000000000004573586e+01,6.600000000000207923e-01,1.569999999999872387e+00,2.870000000000005002e+03,-2.175000000000133049e+00,-4.945000000000183249e+00,1.308382681091318034e+01,-2.121950677359066617e+00
2.000000000000045119e+01,2.999999998622886910e+00,1.000000000006898482e+01,6.599999999999839329e-01,1.570000000000000062e+00,2.869999999999998636e+03,-2.174999999999997602e+00,-4.944999999999964757e+00,1.335346292098393128e+01,-2.233794703264419201e+00
2.000000000000071410e+01,2.999999998398591217e+00,1.000000000005071144e+01,6.599999999999868194e-01,1.569999999999974305e+00,2.869999999999997726e+03,-2.175000000000028688e+00,-4.945000000000006501e+00,1.335107531490251453e+01,-2.278284205274589524e+00
1.999999999999974420e+01,3.000000000677160106e+00,1.000000000005593037e+01,6.600000000000335598e-01,1.569999999999898366e+00,2.870000000000000455e+03,-2.175000000000083311e+00,-4.945000000000237428e+00,1.319434240157363725e+01,-2.293649858975804978e+00
1.999999999999981171e+01,3.000000000645954401e+00,1.000000000004871126e+01,6.600000000000183498e-01,1.569999999999957874e+00,2.869999999999999091e+03,-2.175000000000033573e+00,-4.945000000000140616e+00,1.324678106397725941e+01,-2.263672022386395977e+00
2.000000000000009592e+01,3.000000000355873109e+00,1.000000000000406253e+01,6.599999999999877076e-01,1.570000000000032259e+00,2.870000000000000455e+03,-2.174999999999969624e+00,-4.944999999999970086e+00,1.326291726501572654e+01,-2.321820579117443994e+00
2.000000000000001776e+01,3.000000000848308535e+00,1.000000000000060574e+01,6.599999999999879297e-01,1.570000000000050466e+00,2.869999999999999545e+03,-2.174999999999949196e+00,-4.944999999999964757e+00,1.327113466054821522e+01,-2.295344281977379275e+00
1.999999999999993960e+01,2.999999999921162619e+00,1.000000000003018030e+01,6.600000000000230127e-01,1.569999999999922791e+00,2.870000000000001819e+03,-2.175000000000050893e+00,-4.945000000000227658e+00,1.328771703777573698e+01,-2.297340779078909101e+00
1.999999999999998224e+01,3.000000000789262877e+00,1.000000000002377654e+01,6.600000000000296740e-01,1.569999999999892815e+00,2.870000000000002274e+03,-2.175000000000077982e+00,-4.945000000000292495e+00,1.326296400878418780e+01,-2.291061925781449737e+00
2.000000000000049027e+01,3.000000000319439142e+00,1.000000000002812683e+01,6.600000000000312284e-01,1.569999999999852625e+00,2.870000000000001819e+03,-2.175000000000124167e+00,-4.945000000000340457e+00,1.328655965887153378e+01,-2.359049205256688264e+00
2.000000000000000711e+01,3.000000002380646791e+00,9.999999999980296650e+00,6.600000000000421085e-01,1.569999999999821538e+00,2.869999999999992724e+03,-2.175000000000131717e+00,-4.945000000000269402e+00,1.331092816666303591e+01,-2.248261513090474395e+00
1.999999999999985434e+01,3.000000001426442964e+00,9.999999999987178256e+00,6.600000000000468825e-01,1.569999999999795559e+00,2.869999999999995453e+03,-2.175000000000145484e+00,-4.945000000000280949e+00,1.323421098496910808e+01,-2.285190563742667713e+00
1.999999999999967315e+01,3.000000001866176547e+00,9.999999999978971488e+00,6.600000000000517675e-01,1.569999999999792895e+00,2.869999999999995453e+03,-2.175000000000138378e+00,-4.945000000000299600e+00,1.328971000774991751e+01,-2.302136616005119318e+00
1.999999999999981526e+01,2.999999999013071683e+00,9.999999999947803531e+00,6.600000000000008082e-01,1.570000000000040474e+00,2.869999999999999545e+03,-2.174999999999960298e+00,-4.945000000000000284e+00,1.340931190378388926e+01,-2.157173766401612625e+00
2.000000000000015277e+01,2.999999999876669321e+00,9.999999999950119900e+00,6.600000000000039169e-01,1.570000000000000728e+00,2.869999999999998636e+03,-2.175000000000009148e+00,-4.945000000000050022e+00,1.342532427186217348e+01,-2.192251234705660412e+00
1.999999999999918643e+01,2.999999999458677458e+00,9.999999999972853715e+00,6.600000000000054712e-01,1.570000000000060680e+00,2.870000000000002728e+03,-2.174999999999925215e+00,-4.944999999999991402e+00,1.337111514314974414e+01,-2.187070670924941673e+00
1.999999999999981526e+01,3.000000000522605070e+00,1.000000000003250200e+01,6.600000000000066924e-01,1.569999999999986295e+00,2.869999999999986358e+03,-2.175000000000005596e+00,-4.945000000000020712e+00,1.333569598856801441e+01,-2.146720052341284379e+00
1.999999999999983658e+01,3.000000000651225296e+00,1.000000000002840750e+01,6.600000000000072475e-01,1.569999999999994511e+00,2.869999999999986812e+03,-2.174999999999993605e+00,-4.945000000000011831e+00,1.332688290500881756e+01,-2.145398223792825299e+00
2.000000000000022027e+01,3.000000000267473155e+00,1.000000000005329426e+01,6.600000000000185718e-01,1.569999999999908580e+00,2.869999999999987722e+03,-2.175000000000083311e+00,-4.945000000000113083e+00,1.332012649217457501e+01,-2.108341623220029160e+00
1.999999999999903366e+01,3.000000000872796946e+00,1.000000000001405276e+01,6.600000000000065814e-01,1.570000000000085327e+00,2.869999999999994543e+03,-2.174999999999868816e+00,-4.945000000000007390e+00,1.317973675426635616e+01,-1.958346235959796289e+00
1.999999999999913314e+01,3.000000001324483190e+00,1.000000000002498979e+01,6.599999999999991429e-01,1.570000000000085771e+00,2.869999999999997272e+03,-2.174999999999875921e+00,-4.944999999999944329e+00,1.323651827863042030e+01,-1.993571822684752970e+00
1.999999999999894484e+01,3.000000001478930312e+00,1.000000000002011191e+01,6.600000000000021405e-01,1.570000000000093321e+00,2.869999999999996362e+03,-2.174999999999865707e+00,-4.944999999999965645e+00,1.321914700302747470e+01,-2.027556260703930135e+00
1.999999999999888445e+01,3.000000000647986553e+00,1.000000000002962430e+01,6.599999999999933697e-01,1.570000000000136842e+00,2.869999999999996362e+03,-2.174999999999830624e+00,-4.944999999999903473e+00,1.321885616623256787e+01,-1.969272615346232991e+00
1.999999999999832312e+01,3.000000000432799130e+00,1.000000000002301270e+01,6.600000000000270095e-01,1.570000000000052021e+00,2.869999999999999091e+03,-2.174999999999864819e+00,-4.945000000000098872e+00,1.322282646321891519e+01,-2.036321302871047845e+00
1.999999999999831246e+01,3.000000000923342736e+00,1.000000000001929656e+01,6.600000000000268985e-01,1.570000000000064899e+00,2.870000000000001364e+03,-2.174999999999852829e+00,-4.945000000000101537e+00,1.316595048359299369e+01,-2.045499870996594360e+00
1.999999999999840838e+01,3.000000000583132653e+00,1.000000000002637179e+01,6.600000000000170175e-01,1.570000000000077778e+00,2.870000000000002274e+03,-2.174999999999851497e+00,-4.945000000000032259e+00,1.325473648581398045e+01,-2.010512960886895684e+00
1.999999999999857181e+01,3.000000000563850744e+00,1.000000000001451816e+01,6.600000000000334488e-01,1.570000000000002283e+00,2.870000000000000000e+03,-2.174999999999918110e+00,-4.945000000000151275e+00,1.326007291483299966e+01,-2.057190933941982713e+00
1.999999999999866418e+01,3.000000000695760338e+00,1.000000000001987388e+01,6.600000000000235678e-01,1.570000000000040474e+00,2.870000000000001364e+03,-2.174999999999893685e+00,-4.945000000000090878e+00,1.325295370711226006e+01,-2.039990224285099796e+00
2.000000000000085265e+01,3.000000000041005865e+00,1.000000000004176393e+01,6.600000000000249001e-01,1.569999999999859286e+00,2.869999999999991815e+03,-2.175000000000137046e+00,-4.945000000000237428e+00,1.337860492979170779e+01,-2.073322431984732983e+00
2.000000000000083844e+01,2.999999999313710308e+00,1.000000000003024248e+01,6.600000000000137979e-01,1.569999999999906803e+00,2.869999999999991815e+03,-2.175000000000098410e+00,-4.945000000000164597e+00,1.341590265171804397e+01,-2.125616628252489537e+00
2.000000000000081712e+01,3.000000001079690559e+00,1.000000000004005862e+01,6.600000000000613154e-01,1.569999999999718288e+00,2.869999999999987722e+03,-2.175000000000243183e+00,-4.945000000000470131e+00,1.345496990510907764e+01,-2.138796269961975582e+00
2.000000000000057554e+01,3.000000001007663286e+00,1.000000000005178080e+01,6.600000000000580958e-01,1.569999999999762919e+00,2.869999999999987722e+03,-2.175000000000200995e+00,-4.945000000000430163e+00,1.335284144217817826e+01,-2.150282304165851421e+00
2.000000000000041211e+01,3.000000001163157570e+00,1.000000000005572076e+01,6.600000000000542100e-01,1.569999999999764251e+00,2.869999999999989996e+03,-2.175000000000193001e+00,-4.945000000000420393e+00,1.338082970563216989e+01,-2.160287697142819319e+00
2.000000000000026290e+01,3.000000000539005729e+00,1.000000000005548806e+01,6.600000000000447731e-01,1.569999999999824647e+00,2.869999999999991815e+03,-2.175000000000142375e+00,-4.945000000000344009e+00,1.333388219956775167e+01,-2.180184488972443102e+00
2.000000000000026290e+01,2.999999999992255084e+00,1.000000000004427925e+01,6.600000000000511013e-01,1.569999999999799112e+00,2.869999999999992269e+03,-2.175000000000161471e+00,-4.945000000000375984e+00,1.334318605702545923e+01,-2.090611269026646291e+00
2.000000000000018474e+01,3.000000000366071617e+00,1.000000000004258283e+01,6.600000000000549871e-01,1.569999999999780460e+00,2.869999999999991360e+03,-2.175000000000174349e+00,-4.945000000000403517e+00,1.334417782323933288e+01,-2.139019685808702498e+00
2.000000000000010303e+01,3.000000000731573468e+00,1.000000000002208367e+01,6.600000000000562084e-01,1.569999999999800222e+00,2.869999999999990450e+03,-2.175000000000144595e+00,-4.945000000000407958e+00,1.339143533179612255e+01,-2.152752418778539401e+00
2.000000000000006395e+01,3.000000000136647138e+00,1.000000000003756817e+01,6.600000000000700862e-01,1.569999999999744933e+00,2.869999999999990450e+03,-2.175000000000186340e+00,-4.945000000000491447e+00,1.337225258209237388e+01,-2.104619886294537334e+00
2.000000000000000711e+01,2.999999998687139069e+00,9.999999999969068298e+00,6.600000000000177947e-01,1.569999999999948992e+00,2.870000000000002274e+03,-2.175000000000021583e+00,-4.945000000000111307e+00,1.333223066730392325e+01,-2.125016689065508668e+00
1.999999999999998224e+01,2.999999998316018157e+00,9.999999999961456609e+00,6.600000000000275646e-01,1.569999999999907248e+00,2.870000000000001364e+03,-2.175000000000056666e+00,-4.945000000000190354e+00,1.336084087464885961e+01,-2.157115191468045978e+00
1.999999999999955946e+01,2.999999997775252947e+00,9.999999999975740295e+00,6.600000000000018074e-01,1.570000000000047358e+00,2.869999999999996362e+03,-2.174999999999929212e+00,-4.944999999999968310e+00,1.326699428824653992e+01,-2.018056075947928019e+00
1.999999999999937117e+01,2.999999998527111966e+00,9.999999999973120168e+00,6.600000000000032507e-01,1.570000000000059348e+00,2.869999999999999545e+03,-2.174999999999911005e+00,-4.944999999999972751e+00,1.328864141221379214e+01,-2.059213657109892903e+00
1.999999999999935341e+01,2.999999997970710375e+00,9.999999999965817565e+00,6.600000000000036948e-01,1.570000000000057572e+00,2.870000000000001364e+03,-2.174999999999909228e+00,-4.944999999999996732e+00,1.327330072971695785e+01,-2.064478791315950801e+00
2.000000000000011724e+01,2.999999998368988230e+00,9.999999999958713914e+00,6.599999999999893729e-01,1.570000000000042695e+00,2.869999999999995453e+03,-2.174999999999963851e+00,-4.944999999999929230e+00,1.334489231658541897e+01,-2.140815581656401179e+00
2.000000000000013145e+01,2.999999998742847396e+00,9.999999999960900610e+00,6.599999999999918154e-01,1.570000000000030038e+00,2.869999999999998181e+03,-2.174999999999976730e+00,-4.944999999999951434e+00,1.331457153216268452e+01,-2.145020672992634214e+00
1.999999999999974776e+01,2.999999998335665996e+00,9.999999999942394524e+00,6.599999999999833777e-01,1.570000000000101981e+00,2.869999999999995453e+03,-2.174999999999894573e+00,-4.944999999999865281e+00,1.336007432821118712e+01,-2.109004488717873382e+00
1.999999999999974776e+01,2.999999998605398233e+00,9.999999999948391505e+00,6.599999999999893729e-01,1.570000000000070894e+00,2.869999999999997272e+03,-2.174999999999926548e+00,-4.944999999999915907e+00,1.336229153977203588e+01,-2.119079592192407269e+00
1.999999999999970868e+01,2.999999998701066595e+00,9.999999999959399588e+00,6.600000000000029177e-01,1.570000000000012719e+00,2.869999999999994088e+03,-2.174999999999975397e+00,-4.944999999999992291e+00,1.336536146048866769e+01,-2.149969618021050799e+00
1.999999999999962697e+01,2.999999998930259704e+00,9.999999999945982765e+00,6.600000000000197931e-01,1.569999999999953433e+00,2.869999999999992269e+03,-2.175000000000018030e+00,-4.945000000000094431e+00,1.347760579996954355e+01,-2.160469025541250421e+00
1.999999999999963407e+01,3.000000001516516690e+00,1.000000000000119904e+01,6.600000000000213474e-01,1.569999999999983631e+00,2.869999999999984993e+03,-2.175000000000002043e+00,-4.945000000000121076e+00,1.340211378664366926e+01,-2.133904526080582009e+00
1.999999999999966604e+01,3.000000002316828507e+00,9.999999999997347899e+00,6.600000000000135758e-01,1.570000000000001172e+00,2.869999999999985903e+03,-2.174999999999993605e+00,-4.945000000000052687e+00,1.334165679788717362e+01,-2.100416701191097246e+00
1.999999999999960210e+01,3.000000001589018694e+00,9.999999999993029576e+00,6.600000000000185718e-01,1.569999999999994955e+00,2.869999999999987267e+03,-2.174999999999989608e+00,-4.945000000000087326e+00,1.333341902490538544e+01,-2.074410329389262841e+00
2.000000000000005684e+01,3.000000002122445331e+00,9.999999999996061817e+00,6.600000000000368905e-01,1.569999999999884821e+00,2.869999999999988177e+03,-2.175000000000096190e+00,-4.945000000000249862e+00,1.334306047788741445e+01,-2.155701998336204017e+00
1.999999999999998934e+01,3.000000002194358029e+00,1.000000000000713207e+01,6.600000000000323386e-01,1.569999999999906137e+00,2.869999999999986812e+03,-2.175000000000080203e+00,-4.945000000000202789e+00,1.334510001470323814e+01,-2.120075740511141671e+00
2.000000000000003197e+01,3.000000001958161633e+00,1.000000000002025402e+01,6.600000000000347811e-01,1.569999999999895479e+00,2.869999999999989086e+03,-2.175000000000088640e+00,-4.945000000000228546e+00,1.336984896271703604e+01,-2.190214141024553918e+00
2.000000000000001421e+01,3.000000002348586658e+00,1.000000000000667555e+01,6.600000000000254552e-01,1.569999999999932783e+00,2.869999999999986812e+03,-2.175000000000056666e+00,-4.945000000000173479e+00,1.341051395894844234e+01,-2.170201586209108413e+00
1.999999999999974776e+01,3.000000000982598891e+00,1.000000000001331024e+01,6.600000000000401101e-01,1.569999999999876161e+00,2.869999999999991815e+03,-2.175000000000097078e+00,-4.945000000000259632e+00,1.341283884347326172e+01,-2.179053816128800669e+00
2.000000000000053291e+01,3.000000002736481264e+00,9.999999999964499509e+00,6.600000000000099121e-01,1.569999999999925677e+00,2.869999999999999545e+03,-2.175000000000086420e+00,-4.945000000000137952e+00,1.351233439089941690e+01,-2.354496337266882122e+00
1.999999999999979750e+01,3.000000002539084942e+00,9.999999999980593302e+00,6.599999999999887068e-01,1.570000000000069340e+00,2.870000000000001364e+03,-2.174999999999933209e+00,-4.944999999999940776e+00,1.348283239597266636e+01,-2.321949353573045993e+00
2.000000000000007816e+01,3.000000003337067067e+00,9.999999999979412024e+00,6.599999999999958122e-01,1.570000000000029594e+00,2.869999999999999091e+03,-2.174999999999975842e+00,-4.944999999999981632e+00,1.342565418621901507e+01,-2.120764520285581600e+00
1.999999999999987566e+01,3.000000002329370918e+00,9.999999999979612753e+00,6.599999999999818234e-01,1.570000000000108420e+00,2.869999999999997726e+03,-2.174999999999898570e+00,-4.944999999999885709e+00,1.333702552684241738e+01,-2.070866759933337242e+00
2.000000000000036593e+01,2.999999999870619050e+00,9.999999999985664800e+00,6.600000000000055822e-01,1.569999999999960538e+00,2.870000000000004547e+03,-2.175000000000046896e+00,-4.945000000000093543e+00,1.328609884044488254e+01,-2.305808345642205825e+00
2.000000000000036948e+01,2.999999999970484943e+00,9.999999999997081446e+00,6.600000000000016964e-01,1.569999999999979412e+00,2.870000000000003183e+03,-2.175000000000033573e+00,-4.945000000000063345e+00,1.332450919708965564e+01,-2.284724749322530446e+00
2.000000000000070344e+01,3.000000000261750621e+00,9.999999999987940313e+00,6.600000000000015854e-01,1.569999999999947660e+00,2.870000000000001364e+03,-2.175000000000076650e+00,-4.945000000000089990e+00,1.330462482504512423e+01,-2.244514259867016026e+00
2.000000000000060751e+01,3.000000000270276690e+00,9.999999999981188381e+00,6.599999999999915934e-01,1.569999999999991847e+00,2.869999999999998636e+03,-2.175000000000033129e+00,-4.945000000000018936e+00,1.338587149858101455e+01,-2.231101711742548233e+00
2.000000000000052225e+01,3.000000004804729947e+00,1.000000000006535039e+01,6.600000000000338929e-01,1.569999999999812879e+00,2.870000000000000000e+03,-2.175000000000170353e+00,-4.945000000000222329e+00,1.320925669272365610e+01,-2.087946396603254762e+00
2.000000000000071054e+01,3.000000004914705976e+00,1.000000000006219913e+01,6.600000000000446621e-01,1.569999999999756701e+00,2.870000000000000909e+03,-2.175000000000226752e+00,-4.945000000000305818e+00,1.322630658633175926e+01,-2.082034652830944133e+00
2.000000000000020606e+01,3.000000003717404162e+00,1.000000000005153389e+01,6.600000000000185718e-01,1.569999999999899254e+00,2.870000000000001819e+03,-2.175000000000091749e+00,-4.945000000000102425e+00,1.324549343484790498e+01,-2.055285412680429413e+00
2.000000000000024158e+01,3.000000004484205451e+00,1.000000000004810730e+01,6.600000000000231237e-01,1.569999999999888818e+00,2.870000000000000000e+03,-2.175000000000095302e+00,-4.945000000000145057e+00,1.322172448226624475e+01,-2.089629281134932182e+00
1.999999999999973355e+01,3.000000005852636598e+00,1.000000000004209610e+01,6.599999999999872635e-01,1.570000000000093987e+00,2.869999999999995907e+03,-2.174999999999903455e+00,-4.944999999999930118e+00,1.333993755079302801e+01,-2.096923332596079881e+00
1.999999999999977618e+01,3.000000005563476346e+00,1.000000000004386891e+01,6.599999999999938138e-01,1.570000000000060458e+00,2.869999999999994998e+03,-2.174999999999937206e+00,-4.944999999999976303e+00,1.331540862550484583e+01,-2.150598678666578500e+00
2.000000000000011724e+01,2.999999999587513511e+00,1.000000000004190248e+01,6.599999999999889289e-01,1.570000000000006724e+00,2.870000000000002274e+03,-2.175000000000013589e+00,-4.944999999999895479e+00,1.331119522695164292e+01,-2.320735495545497074e+00
1.999999999999845812e+01,3.000000000613399109e+00,1.000000000000363265e+01,6.599999999999520695e-01,1.570000000000284723e+00,2.869999999999991815e+03,-2.174999999999714273e+00,-4.944999999999512674e+00,1.352559608484040865e+01,-2.006326826832784960e+00
1.999999999999891998e+01,3.000000000789867283e+00,9.999999999991837640e+00,6.599999999999470734e-01,1.570000000000292495e+00,2.869999999999989541e+03,-2.174999999999717826e+00,-4.944999999999522444e+00,1.353083142837569675e+01,-1.997999164727625399e+00
1.999999999999841904e+01,3.000000000236310971e+00,1.000000000000372502e+01,6.599999999999566214e-01,1.570000000000267182e+00,2.869999999999994998e+03,-2.174999999999730260e+00,-4.944999999999525997e+00,1.352404742258647907e+01,-1.973827368762238965e+00
1.999999999999982236e+01,2.999999998895679809e+00,1.000000000005608314e+01,6.599999999999844880e-01,1.570000000000075557e+00,2.869999999999996362e+03,-2.174999999999914557e+00,-4.944999999999871498e+00,1.324515268241584032e+01,-2.011179457959462624e+00
1.999999999999994316e+01,2.999999999968167241e+00,1.000000000003365486e+01,6.599999999999889289e-01,1.570000000000053353e+00,2.869999999999998636e+03,-2.174999999999930544e+00,-4.944999999999924789e+00,1.331945039051722723e+01,-1.989285810414431976e+00
2.000000000000035527e+01,2.999999998091251285e+00,1.000000000002470557e+01,6.599999999999758282e-01,1.570000000000024931e+00,2.869999999999999545e+03,-2.175000000000014477e+00,-4.944999999999811102e+00,1.351096508549724362e+01,-1.857557925398547471e+00
2.000000000000015632e+01,2.999999997962605747e+00,1.000000000003281109e+01,6.599999999999990319e-01,1.569999999999941664e+00,2.869999999999999091e+03,-2.175000000000069544e+00,-4.944999999999947882e+00,1.343991108573710136e+01,-1.841831087443273063e+00
1.999999999999955236e+01,3.000000000965873159e+00,1.000000000000742162e+01,6.600000000000119105e-01,1.569999999999963647e+00,2.869999999999994998e+03,-2.175000000000027356e+00,-4.945000000000003837e+00,1.359858193200341070e+01,-1.999349718897109884e+00
1.999999999999866773e+01,2.999999999745268209e+00,1.000000000000659028e+01,6.599999999999803801e-01,1.570000000000153273e+00,2.870000000000000455e+03,-2.174999999999825739e+00,-4.944999999999714291e+00,1.359746813064042570e+01,-1.953372187733858567e+00
2.000000000000064659e+01,3.000000001345182632e+00,9.999999999990752286e+00,6.600000000000169065e-01,1.569999999999911466e+00,2.869999999999995453e+03,-2.175000000000097966e+00,-4.945000000000236540e+00,1.330720523395680921e+01,-2.287008546504590178e+00
2.000000000000071410e+01,3.000000001856453213e+00,9.999999999997069011e+00,6.600000000000131317e-01,1.569999999999918794e+00,2.869999999999996817e+03,-2.175000000000094857e+00,-4.945000000000221441e+00,1.331350855150813395e+01,-2.287023385498892392e+00
2.000000000000002842e+01,3.000000002152885870e+00,9.999999999989881871e+00,6.600000000000387779e-01,1.569999999999863727e+00,2.870000000000000455e+03,-2.175000000000117062e+00,-4.945000000000337792e+00,1.335257649822150938e+01,-2.273146113786024269e+00
2.000000000000093081e+01,2.999999999950391683e+00,1.000000000000824940e+01,6.599999999999802691e-01,1.569999999999998286e+00,2.869999999999987267e+03,-2.175000000000038014e+00,-4.944999999999915907e+00,1.332207589989653762e+01,-2.153705838366434921e+00
2.000000000000110489e+01,2.999999999450514210e+00,1.000000000000743761e+01,6.599999999999838218e-01,1.569999999999963647e+00,2.869999999999988177e+03,-2.175000000000072653e+00,-4.944999999999931894e+00,1.334939929270863423e+01,-2.146737939663792893e+00
2.000000000000092371e+01,2.999999999263123662e+00,1.000000000000813394e+01,6.599999999999756062e-01,1.570000000000014495e+00,2.869999999999990905e+03,-2.175000000000021583e+00,-4.944999999999873275e+00,1.331236650760043361e+01,-2.169438768168026943e+00
2.000000000000077449e+01,2.999999998499106368e+00,1.000000000000918909e+01,6.599999999999837108e-01,1.569999999999992513e+00,2.869999999999984539e+03,-2.175000000000033573e+00,-4.944999999999908802e+00,1.334147455820782646e+01,-2.085086445821919376e+00
2.000000000000062883e+01,2.999999998899072651e+00,1.000000000000109779e+01,6.599999999999841549e-01,1.570000000000000728e+00,2.869999999999987267e+03,-2.175000000000023803e+00,-4.944999999999890150e+00,1.338096172273434981e+01,-2.139410180938294825e+00
2.000000000000054357e+01,2.999999999427296782e+00,1.000000000000017408e+01,6.599999999999830447e-01,1.570000000000017604e+00,2.869999999999987722e+03,-2.174999999999998934e+00,-4.944999999999891926e+00,1.345338378056450779e+01,-2.178747018258246460e+00
2.000000000000139622e+01,2.999999999094455028e+00,1.000000000002956391e+01,6.600000000000654232e-01,1.569999999999601048e+00,2.869999999999997272e+03,-2.175000000000379963e+00,-4.945000000000479901e+00,1.342293259721285636e+01,-1.993907837553356988e+00
2.000000000000225242e+01,3.000000001084647927e+00,1.000000000002034284e+01,6.600000000000588729e-01,1.569999999999579732e+00,2.869999999999990905e+03,-2.175000000000431477e+00,-4.945000000000546514e+00,1.347975832026695997e+01,-2.004776259810869377e+00
2.000000000000063594e+01,3.000000001020254103e+00,1.000000000004468603e+01,6.599999999999789368e-01,1.570000000000018048e+00,2.869999999999987722e+03,-2.175000000000026912e+00,-4.944999999999871498e+00,1.331074188150653548e+01,-2.000841459082825846e+00
2.000000000000060396e+01,3.000000000040794479e+00,1.000000000004529177e+01,6.599999999999840439e-01,1.569999999999987184e+00,2.869999999999993634e+03,-2.175000000000046452e+00,-4.944999999999897256e+00,1.329725771271235857e+01,-2.052503015186868396e+00
2.000000000000082778e+01,3.000000000895042263e+00,1.000000000004959233e+01,6.599999999999973666e-01,1.569999999999910134e+00,2.869999999999994998e+03,-2.175000000000120615e+00,-4.944999999999995843e+00,1.327454242602557777e+01,-2.080598088048954963e+00
2.000000000000105871e+01,3.000000000338729045e+00,1.000000000000195222e+01,6.600000000000121325e-01,1.569999999999889928e+00,2.869999999999986812e+03,-2.175000000000113953e+00,-4.945000000000183249e+00,1.345260386106421180e+01,-2.111859720089515502e+00
2.000000000000066080e+01,2.999999999992828403e+00,1.000000000000382805e+01,6.600000000000013634e-01,1.569999999999976303e+00,2.869999999999987267e+03,-2.175000000000026024e+00,-4.945000000000088214e+00,1.344079945548272725e+01,-2.173026202564042997e+00
2.000000000000098055e+01,3.000000000202826644e+00,1.000000000003464962e+01,6.600000000000043610e-01,1.569999999999913687e+00,2.869999999999998181e+03,-2.175000000000121059e+00,-4.945000000000105089e+00,1.344300036668209586e+01,-2.152229661966707841e+00
2.000000000000069988e+01,3.000000000227709407e+00,1.000000000005781686e+01,6.600000000000062483e-01,1.569999999999918572e+00,2.870000000000001364e+03,-2.175000000000110401e+00,-4.945000000000070450e+00,1.336978091033261151e+01,-2.065994556461724585e+00
2.000000000000108713e+01,2.999999999754463964e+00,1.000000000005411138e+01,6.600000000000004752e-01,1.569999999999915685e+00,2.870000000000001819e+03,-2.175000000000128164e+00,-4.945000000000078444e+00,1.330433481962482922e+01,-2.186107038916820233e+00
2.000000000000099476e+01,2.999999999218340818e+00,1.000000000003966605e+01,6.599999999999988098e-01,1.569999999999930340e+00,2.870000000000000455e+03,-2.175000000000107292e+00,-4.945000000000036700e+00,1.339177823342117435e+01,-2.132646559849459500e+00
2.000000000000092726e+01,2.999999999264183259e+00,1.000000000004375877e+01,6.599999999999905942e-01,1.569999999999964535e+00,2.869999999999999545e+03,-2.175000000000077982e+00,-4.944999999999975415e+00,1.341375955687143495e+01,-2.120421391721239335e+00
1.999999999999861089e+01,2.999999999164180142e+00,1.000000000002105516e+01,6.599999999999990319e-01,1.570000000000138840e+00,2.870000000000000455e+03,-2.174999999999845723e+00,-4.944999999999854623e+00,1.343672954686384990e+01,-2.375807435767775644e+00
2.000000000000042277e+01,2.999999997427594600e+00,1.000000000003846168e+01,6.600000000000751932e-01,1.569999999999650786e+00,2.870000000000000000e+03,-2.175000000000279154e+00,-4.945000000000560725e+00,1.295320657966541589e+01,-1.998592938292939269e+00
2.000000000000050093e+01,2.999999997107579031e+00,1.000000000004644107e+01,6.600000000000308953e-01,1.569999999999789786e+00,2.870000000000010914e+03,-2.175000000000204103e+00,-4.945000000000232099e+00,1.318834582706098857e+01,-2.259139029824672740e+00
2.000000000000071410e+01,2.999999997692853082e+00,1.000000000003642953e+01,6.600000000000415534e-01,1.569999999999720508e+00,2.870000000000010004e+03,-2.175000000000264055e+00,-4.945000000000325358e+00,1.322337250774154072e+01,-2.271580153715265560e+00
2.000000000000063594e+01,2.999999997333577806e+00,1.000000000004327028e+01,6.600000000000382228e-01,1.569999999999752482e+00,2.870000000000009095e+03,-2.175000000000233413e+00,-4.945000000000303153e+00,1.320572887965363584e+01,-2.264403656846705193e+00
2.000000000000057199e+01,2.999999997578222999e+00,1.000000000003699618e+01,6.600000000000371125e-01,1.569999999999761142e+00,2.870000000000009550e+03,-2.175000000000224532e+00,-4.945000000000298712e+00,1.318801893165206351e+01,-2.270187122909070876e+00
1.999999999999980105e+01,2.999999997142491548e+00,1.000000000003515233e+01,6.600000000000304512e-01,1.569999999999846629e+00,2.870000000000012733e+03,-2.175000000000130829e+00,-4.945000000000194795e+00,1.327659908772974084e+01,-2.270539310455665483e+00
2.000000000000029132e+01,2.999999997776731764e+00,9.999999999993251620e+00,6.600000000000140199e-01,1.569999999999917684e+00,2.869999999999996817e+03,-2.175000000000071321e+00,-4.945000000000103313e+00,1.323215066030422626e+01,-2.246223757963427659e+00
1.999999999999994671e+01,3.000000001258526172e+00,9.999999999957900343e+00,6.599999999999853761e-01,1.570000000000115969e+00,2.869999999999993179e+03,-2.174999999999880362e+00,-4.944999999999958540e+00,1.334726281062743247e+01,-2.134129903145691731e+00
1.999999999999986855e+01,3.000000000156158642e+00,9.999999999971327824e+00,6.599999999999760503e-01,1.570000000000152163e+00,2.869999999999994088e+03,-2.174999999999849276e+00,-4.944999999999887486e+00,1.334576124049936929e+01,-2.176522026960038936e+00
1.999999999999992539e+01,2.999999999840876175e+00,9.999999999974253484e+00,6.599999999999859313e-01,1.570000000000097762e+00,2.869999999999994088e+03,-2.174999999999899458e+00,-4.944999999999958540e+00,1.338320013366821826e+01,-2.129491522672666282e+00
1.999999999999995737e+01,3.000000000441932269e+00,9.999999999971679543e+00,6.599999999999740519e-01,1.570000000000152607e+00,2.869999999999992724e+03,-2.174999999999855493e+00,-4.944999999999883933e+00,1.331637811088195456e+01,-2.072602269094579341e+00
1.999999999999954525e+01,2.999999999284886698e+00,9.999999999977500664e+00,6.599999999999324185e-01,1.570000000000380203e+00,2.869999999999987267e+03,-2.174999999999656097e+00,-4.944999999999569518e+00,1.341333290580586812e+01,-2.118576185667147449e+00
1.999999999999974065e+01,2.999999999784223270e+00,9.999999999979385379e+00,6.599999999999368594e-01,1.570000000000340679e+00,2.869999999999988177e+03,-2.174999999999704947e+00,-4.944999999999611262e+00,1.337726974967405980e+01,-2.151138194955170668e+00
2.000000000000047251e+01,2.999999998969472781e+00,9.999999999976596499e+00,6.599999999999421885e-01,1.570000000000248974e+00,2.869999999999986358e+03,-2.174999999999809308e+00,-4.944999999999694751e+00,1.338711046234888791e+01,-2.145692081623925329e+00
1.999999999999959854e+01,3.000000000196282102e+00,9.999999999979969800e+00,6.599999999999508482e-01,1.570000000000276952e+00,2.869999999999988177e+03,-2.174999999999750688e+00,-4.944999999999692086e+00,1.344522954122027691e+01,-2.161928744495548393e+00
1.999999999999927169e+01,2.999999998205959528e+00,1.000000000005565326e+01,6.600000000000002531e-01,1.570000000000037144e+00,2.870000000000000909e+03,-2.174999999999931877e+00,-4.944999999999928342e+00,1.316937748116113482e+01,-1.994416538299541353e+00
1.999999999999908695e+01,2.999999997231592275e+00,1.000000000004564704e+01,6.600000000000006972e-01,1.570000000000056906e+00,2.870000000000004547e+03,-2.174999999999916778e+00,-4.944999999999915019e+00,1.319881636532916325e+01,-2.059551288356765042e+00
1.999999999999920419e+01,2.999999997557103448e+00,1.000000000005487344e+01,6.600000000000053602e-01,1.570000000000025597e+00,2.870000000000001364e+03,-2.174999999999943423e+00,-4.944999999999954099e+00,1.322804242933776919e+01,-2.007367360610001761e+00
1.999999999999940670e+01,2.999999997670641516e+00,1.000000000006319389e+01,6.600000000000018074e-01,1.570000000000009166e+00,2.870000000000004547e+03,-2.174999999999961631e+00,-4.944999999999938112e+00,1.322329008673648509e+01,-1.976054842493166541e+00
1.999999999999921840e+01,2.999999997428144827e+00,1.000000000005873879e+01,6.599999999999999201e-01,1.570000000000041362e+00,2.870000000000004547e+03,-2.174999999999930989e+00,-4.944999999999923013e+00,1.321688173790720278e+01,-2.037646169936702556e+00
2.000000000000003553e+01,2.999999997629126280e+00,1.000000000004665957e+01,6.600000000000085798e-01,1.569999999999952545e+00,2.870000000000000455e+03,-2.175000000000037570e+00,-4.945000000000064233e+00,1.334067013364056820e+01,-2.087105538267941540e+00
1.999999999999989697e+01,2.999999997831286791e+00,1.000000000003961098e+01,6.600000000000038058e-01,1.569999999999988738e+00,2.870000000000002274e+03,-2.175000000000001155e+00,-4.945000000000029594e+00,1.333112941335489410e+01,-2.071950706273115284e+00
1.999999999999990408e+01,3.000000003386702918e+00,1.000000000002546763e+01,6.599999999999930367e-01,1.570000000000037366e+00,2.870000000000000000e+03,-2.174999999999989164e+00,-4.944999999999932783e+00,1.337023005643781914e+01,-2.145032259302001254e+00
2.000000000000005684e+01,3.000000003564212037e+00,1.000000000001372058e+01,6.599999999999970335e-01,1.570000000000015605e+00,2.870000000000000455e+03,-2.175000000000007816e+00,-4.944999999999988738e+00,1.339882796602750403e+01,-2.199552790478034758e+00
2.000000000000003553e+01,3.000000003136839677e+00,1.000000000001467271e+01,6.599999999999811573e-01,1.570000000000067342e+00,2.869999999999999545e+03,-2.174999999999970512e+00,-4.944999999999872387e+00,1.338312111212645839e+01,-2.167104632603760184e+00
2.000000000000020606e+01,3.000000003022274431e+00,1.000000000000986766e+01,6.599999999999882627e-01,1.570000000000032259e+00,2.870000000000001819e+03,-2.175000000000001155e+00,-4.944999999999923013e+00,1.340483705142849757e+01,-2.215958394020732136e+00
2.000000000000001066e+01,3.000000003223168843e+00,1.000000000001092637e+01,6.599999999999921485e-01,1.570000000000066898e+00,2.869999999999998181e+03,-2.174999999999947420e+00,-4.944999999999954099e+00,1.327120244139581473e+01,-2.081144196283183589e+00
1.999999999999999645e+01,3.000000002517712261e+00,1.000000000001352163e+01,6.599999999999898170e-01,1.570000000000066676e+00,2.870000000000000000e+03,-2.174999999999947420e+00,-4.944999999999948770e+00,1.325303332857696681e+01,-2.071480635053948305e+00
1.999999999999927880e+01,3.000000004055847658e+00,1.000000000001000622e+01,6.599999999999913713e-01,1.570000000000117080e+00,2.869999999999997272e+03,-2.174999999999879918e+00,-4.944999999999886597e+00,1.329422822185525099e+01,-2.060223474282458778e+00
1.999999999999912603e+01,3.000000003047947672e+00,1.000000000000752642e+01,6.599999999999822675e-01,1.570000000000163709e+00,2.870000000000000455e+03,-2.174999999999831957e+00,-4.944999999999823537e+00,1.328888657486577607e+01,-2.041548126948284025e+00
2.000000000000025935e+01,3.000000002436038926e+00,1.000000000001616840e+01,6.599999999999852651e-01,1.570000000000047136e+00,2.869999999999999545e+03,-2.174999999999958078e+00,-4.944999999999929230e+00,1.346536865180311437e+01,-2.152184270913441999e+00
1.999999999999974065e+01,3.000000000060389027e+00,9.999999999973841369e+00,6.600000000000074696e-01,1.569999999999977192e+00,2.870000000000002274e+03,-2.174999999999998490e+00,-4.945000000000058904e+00,1.335914929611234392e+01,-2.094884481384274633e+00
1.999999999999966604e+01,2.999999999614805901e+00,9.999999999974017229e+00,6.600000000000141309e-01,1.569999999999952323e+00,2.870000000000005002e+03,-2.175000000000013589e+00,-4.945000000000096207e+00,1.337191383974258763e+01,-2.165202811191181187e+00
1.999999999999961986e+01,3.000000000437792913e+00,9.999999999969899633e+00,6.600000000000021405e-01,1.570000000000012497e+00,2.870000000000004093e+03,-2.174999999999961187e+00,-4.945000000000010942e+00,1.344933692960777627e+01,-2.220128461849374624e+00
1.999999999999967670e+01,3.000000000659447608e+00,9.999999999968634867e+00,6.600000000000044720e-01,1.570000000000008500e+00,2.869999999999997272e+03,-2.174999999999968736e+00,-4.945000000000039364e+00,1.340330070094216097e+01,-2.186327104113526154e+00
1.999999999999970157e+01,3.000000000201628936e+00,9.999999999976489917e+00,6.600000000000084688e-01,1.569999999999984963e+00,2.870000000000000909e+03,-2.174999999999987388e+00,-4.945000000000054463e+00,1.334573378173333325e+01,-2.184613356116840155e+00
2.000000000000018119e+01,2.999999999957485119e+00,9.999999999963641528e+00,6.600000000000015854e-01,1.569999999999958762e+00,2.869999999999998636e+03,-2.175000000000034017e+00,-4.945000000000042029e+00,1.341657732345699472e+01,-2.206429431509516537e+00
2.000000000000009948e+01,3.000000000390441901e+00,9.999999999958584240e+00,6.600000000000040279e-01,1.569999999999968976e+00,2.869999999999998636e+03,-2.175000000000011813e+00,-4.945000000000053575e+00,1.341264303597400520e+01,-2.187026913426827424e+00
2.000000000000112621e+01,3.000000001280257234e+00,9.999999999984771293e+00,6.599999999999757172e-01,1.570000000000039808e+00,2.869999999999993179e+03,-2.175000000000002931e+00,-4.944999999999935447e+00,1.328196563909362737e+01,-2.019078731122215586e+00
2.000000000000138556e+01,3.000000000458710847e+00,9.999999999992528643e+00,6.599999999999850431e-01,1.569999999999965867e+00,2.869999999999992724e+03,-2.175000000000077538e+00,-4.945000000000005613e+00,1.334106929767087202e+01,-2.048317816012440673e+00
1.999999999999984723e+01,2.999999998988796879e+00,1.000000000005687006e+01,6.600000000000022515e-01,1.570000000000009388e+00,2.870000000000002274e+03,-2.174999999999996714e+00,-4.945000000000031370e+00,1.312087804897315202e+01,-2.230578642892425467e+00
2.000000000000027001e+01,2.999999999918150362e+00,1.000000000001317702e+01,6.599999999999829337e-01,1.570000000000059570e+00,2.869999999999999545e+03,-2.174999999999968292e+00,-4.944999999999915019e+00,1.343469698289315417e+01,-2.218733898310350838e+00
2.000000000000024869e+01,2.999999999884098489e+00,1.000000000002883205e+01,6.599999999999885958e-01,1.570000000000036033e+00,2.869999999999999545e+03,-2.174999999999990941e+00,-4.944999999999936335e+00,1.337417191403606687e+01,-2.214982887023488889e+00
2.000000000000001066e+01,2.999999999600142964e+00,1.000000000001952394e+01,6.599999999999688338e-01,1.570000000000133289e+00,2.870000000000003183e+03,-2.174999999999902123e+00,-4.944999999999800444e+00,1.340784803583945184e+01,-2.212507133780161617e+00
2.000000000000073896e+01,2.999999999026812247e+00,1.000000000003991296e+01,6.600000000000350031e-01,1.569999999999770246e+00,2.870000000000002728e+03,-2.175000000000211209e+00,-4.945000000000271179e+00,1.336906951824806633e+01,-2.230322498177210289e+00
2.000000000000085976e+01,2.999999999918870230e+00,1.000000000004451017e+01,6.600000000000393330e-01,1.569999999999740270e+00,2.870000000000002728e+03,-2.175000000000239186e+00,-4.945000000000307594e+00,1.334742417196527420e+01,-2.197183122164653835e+00
1.999999999999916866e+01,2.999999997914169381e+00,9.999999999995104361e+00,6.599999999999828226e-01,1.570000000000200124e+00,2.869999999999989086e+03,-2.174999999999801314e+00,-4.944999999999852847e+00,1.328363528641055957e+01,-2.065669305283127422e+00
1.999999999999900524e+01,2.999999998924620215e+00,9.999999999998379963e+00,6.599999999999713873e-01,1.570000000000254081e+00,2.869999999999990450e+03,-2.174999999999754685e+00,-4.944999999999754259e+00,1.331029354111743501e+01,-1.992933524709670667e+00
1.999999999999909406e+01,2.999999998303437998e+00,1.000000000000228795e+01,6.599999999999812683e-01,1.570000000000199902e+00,2.869999999999992269e+03,-2.174999999999803979e+00,-4.944999999999829754e+00,1.326925126578687042e+01,-2.047210118633089326e+00
1.999999999999898392e+01,2.999999998796230471e+00,9.999999999995349498e+00,6.599999999999742739e-01,1.570000000000242313e+00,2.869999999999992269e+03,-2.174999999999760014e+00,-4.944999999999775575e+00,1.333167428794006781e+01,-2.072087367321278517e+00
1.999999999999967670e+01,2.999999997757273551e+00,1.000000000004058798e+01,6.599999999999657252e-01,1.570000000000139062e+00,2.870000000000000909e+03,-2.174999999999870148e+00,-4.944999999999773799e+00,1.332240143481490868e+01,-2.232815889433587220e+00
1.999999999999982947e+01,3.000000000007746248e+00,1.000000000002884981e+01,6.599999999999996980e-01,1.570000000000001172e+00,2.869999999999998636e+03,-2.174999999999991385e+00,-4.945000000000019824e+00,1.321609044992651150e+01,-2.295436735712301335e+00
1.999999999999971223e+01,2.999999999209173041e+00,1.000000000003529799e+01,6.599999999999935918e-01,1.570000000000027596e+00,2.869999999999997272e+03,-2.174999999999970512e+00,-4.944999999999985185e+00,1.319345119053726201e+01,-2.285138395818475665e+00
1.999999999999920064e+01,3.000000000256698218e+00,1.000000000001322675e+01,6.599999999999425215e-01,1.570000000000278950e+00,2.869999999999996362e+03,-2.174999999999744915e+00,-4.944999999999521556e+00,1.311685652479079600e+01,-2.142199817193432665e+00
1.999999999999910472e+01,3.000000000246816345e+00,1.000000000002455103e+01,6.599999999999360822e-01,1.570000000000327578e+00,2.869999999999995453e+03,-2.174999999999703171e+00,-4.944999999999466489e+00,1.313430082197043269e+01,-2.146564697077830264e+00
1.999999999999996447e+01,2.999999999656948191e+00,1.000000000001926637e+01,6.600000000000380007e-01,1.569999999999856177e+00,2.869999999999992269e+03,-2.175000000000109956e+00,-4.945000000000260520e+00,1.342513924916303658e+01,-2.173580210454973738e+00
1.999999999999904787e+01,2.999999999993714361e+00,1.000000000002864375e+01,6.600000000000681988e-01,1.569999999999786899e+00,2.869999999999995453e+03,-2.175000000000126832e+00,-4.945000000000352003e+00,1.351431223298093798e+01,-2.016077554694869711e+00
2.000000000000034817e+01,2.999999998372586685e+00,1.000000000002040679e+01,6.600000000000428857e-01,1.569999999999788232e+00,2.869999999999989996e+03,-2.175000000000181455e+00,-4.945000000000304041e+00,1.350646185209001437e+01,-2.054937721973683740e+00
1.999999999999950973e+01,2.999999999477918511e+00,1.000000000004879119e+01,6.600000000000247891e-01,1.569999999999943219e+00,2.870000000000000000e+03,-2.175000000000038014e+00,-4.945000000000114859e+00,1.331726020361206153e+01,-2.022600455208121595e+00
1.999999999999952749e+01,2.999999999836116427e+00,1.000000000004305356e+01,6.600000000000263434e-01,1.569999999999933227e+00,2.870000000000002274e+03,-2.175000000000046452e+00,-4.945000000000134399e+00,1.330070553838574909e+01,-2.048173015139709729e+00
2.000000000000001421e+01,2.999999998862567629e+00,1.000000000005498002e+01,6.600000000000076916e-01,1.569999999999961871e+00,2.870000000000002274e+03,-2.175000000000046452e+00,-4.945000000000035811e+00,1.324975802991387397e+01,-2.029793576624878693e+00
2.000000000000013145e+01,2.999999999291205199e+00,1.000000000005695178e+01,6.600000000000164624e-01,1.569999999999916795e+00,2.870000000000002274e+03,-2.175000000000087752e+00,-4.945000000000098872e+00,1.323963896536954721e+01,-2.076733907381413502e+00
2.000000000000003908e+01,3.000000000178416837e+00,1.000000000004838618e+01,6.600000000000081357e-01,1.569999999999967866e+00,2.869999999999996817e+03,-2.175000000000040679e+00,-4.945000000000042029e+00,1.328646341977934497e+01,-2.008721119820612966e+00
2.000000000000012434e+01,3.000000000038558490e+00,1.000000000006103740e+01,6.600000000000102451e-01,1.569999999999943663e+00,2.869999999999999091e+03,-2.175000000000065103e+00,-4.945000000000068674e+00,1.325120664210504273e+01,-2.043006099381807328e+00
2.000000000000020961e+01,2.999999999422503283e+00,1.000000000004264322e+01,6.599999999999980327e-01,1.569999999999993179e+00,2.869999999999995907e+03,-2.175000000000030020e+00,-4.944999999999993179e+00,1.325773591460909451e+01,-2.043777994234373008e+00
2.000000000000015277e+01,3.000000000117305721e+00,1.000000000005476153e+01,6.600000000000101341e-01,1.569999999999942775e+00,2.869999999999997726e+03,-2.175000000000066436e+00,-4.945000000000067786e+00,1.324242734519651599e+01,-1.972172274916599299e+00
2.000000000000025224e+01,2.999999999727972710e+00,1.000000000004956391e+01,6.600000000000106892e-01,1.569999999999944995e+00,2.869999999999993634e+03,-2.175000000000069100e+00,-4.945000000000072227e+00,1.329904039694561391e+01,-2.011273530198579795e+00
2.000000000000060751e+01,3.000000001346272427e+00,1.000000000004879830e+01,6.600000000000298961e-01,1.569999999999818652e+00,2.870000000000001819e+03,-2.175000000000196998e+00,-4.945000000000249862e+00,1.337496056357900009e+01,-2.208782116430275000e+00
2.000000000000056843e+01,3.000000001404990790e+00,1.000000000004319567e+01,6.600000000000305622e-01,1.569999999999827311e+00,2.870000000000001819e+03,-2.175000000000186340e+00,-4.945000000000263185e+00,1.334426541637703068e+01,-2.228230883299292309e+00
2.000000000000041567e+01,3.000000001369730995e+00,1.000000000004929746e+01,6.600000000000295630e-01,1.569999999999835749e+00,2.870000000000001364e+03,-2.175000000000173905e+00,-4.945000000000244533e+00,1.335800993824585703e+01,-2.258239554261253001e+00
2.000000000000029843e+01,3.000000000871481554e+00,1.000000000004777689e+01,6.600000000000293410e-01,1.569999999999847295e+00,2.870000000000001364e+03,-2.175000000000155698e+00,-4.945000000000243645e+00,1.331417038928530161e+01,-2.213370896721554182e+00
1.999999999999999645e+01,3.000000000872069084e+00,1.000000000001388578e+01,6.599999999999980327e-01,1.569999999999952101e+00,2.870000000000002728e+03,-2.175000000000069100e+00,-4.944999999999926565e+00,1.336018247699124117e+01,-2.285228957673283379e+00
1.999999999999997513e+01,3.000000001575902520e+00,1.000000000000652989e+01,6.599999999999965894e-01,1.569999999999970752e+00,2.870000000000001819e+03,-2.175000000000052669e+00,-4.944999999999897256e+00,1.336246827518938041e+01,-2.290729131225345050e+00
1.999999999999947420e+01,2.999999998298026771e+00,1.000000000000931522e+01,6.600000000000033618e-01,1.570000000000058016e+00,2.869999999999989541e+03,-2.174999999999922107e+00,-4.945000000000000284e+00,1.322402825049856823e+01,-2.081155832511368597e+00
1.999999999999925748e+01,2.999999998429925263e+00,1.000000000000879830e+01,6.600000000000171285e-01,1.570000000000020046e+00,2.869999999999988631e+03,-2.174999999999939870e+00,-4.945000000000058904e+00,1.321866935192172754e+01,-2.052858189018824664e+00
1.999999999999948130e+01,2.999999998215992392e+00,9.999999999999676703e+00,6.600000000000075806e-01,1.570000000000030260e+00,2.869999999999990905e+03,-2.174999999999945643e+00,-4.945000000000014495e+00,1.321859796293418832e+01,-2.012242186453887971e+00
1.999999999999959499e+01,2.999999997728227008e+00,1.000000000001234035e+01,6.600000000000150191e-01,1.569999999999992291e+00,2.869999999999989996e+03,-2.174999999999978506e+00,-4.945000000000052687e+00,1.321023442145131810e+01,-2.004318752310828344e+00
1.999999999999952038e+01,2.999999998106438248e+00,1.000000000000171951e+01,6.600000000000187939e-01,1.569999999999985851e+00,2.869999999999987722e+03,-2.174999999999982059e+00,-4.945000000000082885e+00,1.326485062653623892e+01,-2.068673563291711037e+00
1.999999999999956657e+01,2.999999998785068289e+00,1.000000000000840927e+01,6.600000000000193490e-01,1.569999999999982077e+00,2.869999999999990450e+03,-2.174999999999987388e+00,-4.945000000000101537e+00,1.322897166859648443e+01,-2.084421645992784011e+00
2.000000000000023093e+01,2.999999999623057523e+00,9.999999999979143794e+00,6.599999999999920375e-01,1.569999999999992069e+00,2.870000000000001819e+03,-2.175000000000010925e+00,-4.944999999999978968e+00,1.327454417948814935e+01,-2.327289832287528615e+00
2.000000000000040501e+01,3.000000000684884149e+00,9.999999999976072473e+00,6.600000000000094680e-01,1.569999999999911910e+00,2.869999999999999091e+03,-2.175000000000082867e+00,-4.945000000000092655e+00,1.328325172487524775e+01,-2.355211690368056665e+00
1.999999999999996092e+01,3.000000000469359662e+00,9.999999999992935429e+00,6.599999999999626166e-01,1.570000000000181029e+00,2.869999999999995453e+03,-2.174999999999859934e+00,-4.944999999999734719e+00,1.339139245002725254e+01,-2.135116971862788926e+00
1.999999999999972644e+01,3.000000000655208776e+00,1.000000000000285105e+01,6.599999999999718314e-01,1.570000000000162377e+00,2.870000000000000000e+03,-2.174999999999865263e+00,-4.944999999999764917e+00,1.336423872007758362e+01,-2.113542154067313827e+00
2.000000000000029132e+01,2.999999997989353240e+00,9.999999999984215293e+00,6.599999999999641709e-01,1.570000000000126406e+00,2.869999999999998181e+03,-2.174999999999913669e+00,-4.944999999999784457e+00,1.341795615593597901e+01,-2.130659839135831568e+00
1.999999999999980815e+01,3.000000000520928634e+00,1.000000000000056311e+01,6.599999999999794920e-01,1.570000000000097318e+00,2.870000000000001364e+03,-2.174999999999913669e+00,-4.944999999999871498e+00,1.326163511807648909e+01,-2.029521787351531437e+00
1.999999999999947065e+01,3.000000000518964427e+00,9.999999999995356603e+00,6.599999999999667244e-01,1.570000000000170370e+00,2.870000000000003638e+03,-2.174999999999834177e+00,-4.944999999999780016e+00,1.324538726472285077e+01,-2.029823960553911011e+00
1.999999999999953815e+01,3.000000000426313651e+00,1.000000000000232880e+01,6.599999999999701661e-01,1.570000000000159490e+00,2.870000000000003638e+03,-2.174999999999845279e+00,-4.944999999999787121e+00,1.325311953583038260e+01,-2.011628147861148630e+00
2.000000000000026290e+01,2.999999999817691609e+00,9.999999999978385290e+00,6.599999999999637268e-01,1.570000000000135065e+00,2.870000000000000455e+03,-2.174999999999898126e+00,-4.944999999999816431e+00,1.328005386248912423e+01,-2.076362942400796108e+00
2.000000000000036948e+01,2.999999999293155195e+00,9.999999999997248423e+00,6.599999999999741629e-01,1.570000000000064899e+00,2.870000000000003638e+03,-2.174999999999958966e+00,-4.944999999999893703e+00,1.324738937221183477e+01,-2.113922938025286857e+00
2.000000000000022737e+01,3.000000000260675481e+00,1.000000000003093881e+01,6.599999999999657252e-01,1.570000000000091767e+00,2.870000000000002728e+03,-2.174999999999944311e+00,-4.944999999999762252e+00,1.323063219137300450e+01,-2.063805671541716791e+00
2.000000000000013500e+01,2.999999999925016425e+00,1.000000000002098943e+01,6.599999999999672795e-01,1.570000000000101092e+00,2.869999999999999091e+03,-2.174999999999935429e+00,-4.944999999999749818e+00,1.325777307606482935e+01,-2.054410995935292750e+00
2.000000000000049738e+01,2.999999998270435508e+00,9.999999999980449417e+00,6.600000000000875167e-01,1.569999999999585505e+00,2.869999999999992269e+03,-2.175000000000350653e+00,-4.945000000000613127e+00,1.321299704787885254e+01,-2.088721521382530089e+00
1.999999999999923617e+01,3.000000000951014378e+00,9.999999999973301357e+00,6.600000000000497691e-01,1.569999999999895035e+00,2.869999999999997272e+03,-2.175000000000040234e+00,-4.945000000000291607e+00,1.335869780111109151e+01,-2.108713072084508422e+00
1.999999999999993960e+01,3.000000001408361872e+00,9.999999999966904696e+00,6.600000000000398881e-01,1.569999999999896145e+00,2.869999999999998181e+03,-2.175000000000057554e+00,-4.945000000000259632e+00,1.331844559756136626e+01,-2.081033031164732261e+00
1.999999999999988987e+01,3.000000000234793074e+00,9.999999999975299758e+00,6.600000000000538769e-01,1.569999999999836637e+00,2.869999999999999091e+03,-2.175000000000108624e+00,-4.945000000000362661e+00,1.329575826797567295e+01,-2.112109189608321724e+00
2.000000000000042633e+01,3.000000003224570833e+00,1.000000000005352696e+01,6.600000000000416644e-01,1.569999999999780016e+00,2.870000000000002728e+03,-2.175000000000190781e+00,-4.945000000000321805e+00,1.310879018678833141e+01,-2.251405220625213310e+00
2.000000000000046541e+01,3.000000002855568226e+00,1.000000000004848033e+01,6.600000000000414424e-01,1.569999999999770468e+00,2.870000000000001364e+03,-2.175000000000198774e+00,-4.945000000000335127e+00,1.307456599556102361e+01,-2.252949196493479800e+00
2.000000000000038725e+01,3.000000002585717862e+00,1.000000000005721645e+01,6.600000000000389999e-01,1.569999999999794005e+00,2.870000000000002728e+03,-2.175000000000177902e+00,-4.945000000000290719e+00,1.309675040716459549e+01,-2.219514716799882326e+00
1.999999999999957723e+01,3.000000001578807751e+00,1.000000000005670842e+01,6.600000000000053602e-01,1.569999999999992069e+00,2.870000000000001364e+03,-2.174999999999993161e+00,-4.944999999999984297e+00,1.344419230933591791e+01,-2.143683377998163664e+00
2.000000000000071054e+01,2.999999999970514697e+00,1.000000000000248690e+01,6.600000000000000311e-01,1.569999999999932117e+00,2.870000000000000909e+03,-2.175000000000092637e+00,-4.945000000000043805e+00,1.335799808141217859e+01,-2.078573980160113521e+00
2.000000000000079581e+01,3.000000000277850187e+00,1.000000000000094857e+01,6.600000000000028066e-01,1.569999999999919682e+00,2.869999999999998181e+03,-2.175000000000102407e+00,-4.945000000000066898e+00,1.333705752755206753e+01,-2.095653922670412506e+00
2.000000000000024158e+01,3.000000003189867481e+00,9.999999999984355625e+00,6.600000000000459943e-01,1.569999999999754481e+00,2.869999999999998636e+03,-2.175000000000223199e+00,-4.945000000000295159e+00,1.345812780759196947e+01,-2.193940190556638470e+00
2.000000000000003908e+01,3.000000003013534755e+00,1.000000000000682832e+01,6.600000000000575406e-01,1.569999999999729168e+00,2.870000000000000909e+03,-2.175000000000222311e+00,-4.945000000000356444e+00,1.333750248981261954e+01,-2.146394914576436719e+00
2.000000000000004619e+01,3.000000003029373197e+00,9.999999999989729105e+00,6.600000000000422196e-01,1.569999999999794005e+00,2.870000000000000455e+03,-2.175000000000167244e+00,-4.945000000000249862e+00,1.335647850932830139e+01,-2.163647064330472602e+00
2.000000000000119016e+01,3.000000003603245702e+00,9.999999999991617372e+00,6.600000000000414424e-01,1.569999999999715179e+00,2.869999999999998636e+03,-2.175000000000285816e+00,-4.945000000000323581e+00,1.337193119513920081e+01,-2.251150875554909447e+00
2.000000000000133227e+01,3.000000003105546043e+00,9.999999999983478105e+00,6.600000000000517675e-01,1.569999999999655893e+00,2.869999999999998181e+03,-2.175000000000339551e+00,-4.945000000000419504e+00,1.335517463544123906e+01,-2.234814215033538165e+00
2.000000000000097700e+01,3.000000003505119750e+00,1.000000000000158096e+01,6.600000000000509903e-01,1.569999999999694529e+00,2.869999999999997726e+03,-2.175000000000293365e+00,-4.945000000000391083e+00,1.330832216565891990e+01,-2.243158130369305336e+00
2.000000000000106937e+01,3.000000003164855045e+00,9.999999999999863221e+00,6.600000000000474376e-01,1.569999999999702522e+00,2.870000000000000455e+03,-2.175000000000288036e+00,-4.945000000000371543e+00,1.332751151064965889e+01,-2.245935506573096596e+00
2.000000000000032330e+01,3.000000003186387598e+00,9.999999999987535304e+00,6.600000000000428857e-01,1.569999999999781792e+00,2.869999999999994543e+03,-2.175000000000195666e+00,-4.945000000000273843e+00,1.334199986872953403e+01,-2.189122678478781392e+00
2.000000000000044764e+01,3.000000002888702610e+00,1.000000000000510880e+01,6.600000000000458833e-01,1.569999999999755147e+00,2.869999999999995907e+03,-2.175000000000227196e+00,-4.945000000000288054e+00,1.335416813129859115e+01,-2.204854376876276945e+00
2.000000000000054357e+01,3.000000001672050942e+00,9.999999999995221600e+00,6.600000000000477707e-01,1.569999999999760476e+00,2.869999999999993634e+03,-2.175000000000220091e+00,-4.945000000000302265e+00,1.336004127819678899e+01,-2.151073556201708481e+00
2.000000000000050449e+01,3.000000002572779323e+00,9.999999999985599075e+00,6.600000000000372236e-01,1.569999999999806883e+00,2.869999999999992724e+03,-2.175000000000184563e+00,-4.945000000000230322e+00,1.339471420921309353e+01,-2.152700308973181542e+00
2.000000000000047962e+01,3.000000002504489505e+00,1.000000000000025224e+01,6.600000000000360023e-01,1.569999999999790008e+00,2.870000000000000455e+03,-2.175000000000196110e+00,-4.945000000000215223e+00,1.338379259364647389e+01,-2.114925720215699911e+00
2.000000000000061107e+01,3.000000002383174547e+00,9.999999999986012966e+00,6.600000000000370015e-01,1.569999999999780016e+00,2.869999999999997272e+03,-2.175000000000213429e+00,-4.945000000000241869e+00,1.344124046037570608e+01,-2.155982065481242049e+00
2.000000000000052935e+01,3.000000002970267143e+00,9.999999999977012166e+00,6.600000000000071365e-01,1.569999999999938334e+00,2.869999999999986358e+03,-2.175000000000072653e+00,-4.945000000000081108e+00,1.344434789100171024e+01,-2.128388083124729491e+00
2.000000000000013145e+01,3.000000001677219696e+00,9.999999999999880984e+00,6.599999999999787148e-01,1.570000000000073115e+00,2.870000000000000455e+03,-2.174999999999925659e+00,-4.944999999999840412e+00,1.319274614148103630e+01,-2.005614045220280861e+00
2.000000000000050804e+01,3.000000002814790623e+00,1.000000000000696687e+01,6.599999999999756062e-01,1.570000000000038476e+00,2.869999999999998636e+03,-2.174999999999971845e+00,-4.944999999999842188e+00,1.325926611499853713e+01,-2.009904682891297867e+00
2.000000000000063238e+01,3.000000002297655843e+00,9.999999999997239541e+00,6.599999999999799360e-01,1.570000000000017826e+00,2.869999999999997726e+03,-2.174999999999997602e+00,-4.944999999999887486e+00,1.327716492118158165e+01,-2.041436026887939459e+00
2.000000000000043343e+01,3.000000002420242229e+00,1.000000000000987477e+01,6.599999999999655032e-01,1.570000000000100204e+00,2.870000000000000000e+03,-2.174999999999916778e+00,-4.944999999999765805e+00,1.320812781372218225e+01,-1.960310309942353113e+00
1.999999999999986144e+01,2.999999997818696862e+00,1.000000000003499601e+01,6.599999999999920375e-01,1.570000000000005835e+00,2.869999999999998636e+03,-2.174999999999990941e+00,-4.944999999999900808e+00,1.342115873990972474e+01,-2.128938455905815097e+00
1.999999999999910116e+01,3.000000000138378642e+00,9.999999999994496847e+00,6.600000000000179057e-01,1.570000000000028928e+00,2.870000000000002728e+03,-2.174999999999950528e+00,-4.945000000000019824e+00,1.304066260683857514e+01,-2.113276009929596633e+00
