1.999999999999945999e+01,3.000000000221298979e+00,1.000000000004587797e+01,6.599999999999337508e-01,1.570000000000318252e+00,2.869999999999980901e+03,-2.174999999999736477e+00,-4.944999999999613927e+00,1.340787792034585024e+01,-2.223758615681578288e+00
2.000000000000044054e+01,3.000000001360348723e+00,1.000000000005559642e+01,6.600000000000164624e-01,1.569999999999884821e+00,2.869999999999985448e+03,-2.175000000000114397e+00,-4.945000000000133511e+00,1.340773441701451851e+01,-2.216886862114586965e+00
1.999999999999927525e+01,2.999999998676497359e+00,9.999999999984392929e+00,6.599999999999379696e-01,1.570000000000469687e+00,2.869999999999975898e+03,-2.174999999999552625e+00,-4.944999999999500240e+00,1.340115018746549680e+01,-2.226412941190081263e+00
1.999999999999940670e+01,3.000000001449999676e+00,1.000000000002141753e+01,6.599999999999358602e-01,1.570000000000272733e+00,2.869999999999979991e+03,-2.174999999999753797e+00,-4.944999999999588169e+00,1.342383287658974034e+01,-2.216678195370253235e+00
1.999999999999942446e+01,2.999999996801316460e+00,9.999999999984529708e+00,6.599999999999609512e-01,1.570000000000314921e+00,2.869999999999976353e+03,-2.174999999999693401e+00,-4.944999999999721396e+00,1.341041637600962311e+01,-2.217015139595677642e+00
2.000000000000056843e+01,2.999999998108632937e+00,1.000000000000627765e+01,6.600000000000327827e-01,1.569999999999754925e+00,2.869999999999979536e+03,-2.175000000000241851e+00,-4.945000000000254303e+00,1.339626600276630519e+01,-2.243436906672836795e+00
2.000000000000267519e+01,3.000000000745791873e+00,1.000000000000694556e+01,6.600000000002059775e-01,1.569999999998861639e+00,2.869999999999967713e+03,-2.175000000001050093e+00,-4.945000000001482654e+00,1.340584009902785567e+01,-2.231859422284544259e+00
2.000000000000164491e+01,2.999999999035214415e+00,1.000000000002106937e+01,6.600000000001036149e-01,1.569999999999317941e+00,2.869999999999975898e+03,-2.175000000000649525e+00,-4.945000000000786322e+00,1.341530459810793197e+01,-2.215833232649729645e+00
1.999999999999943867e+01,3.000000000856809734e+00,1.000000000005680079e+01,6.599999999999437428e-01,1.570000000000375096e+00,2.869999999999985448e+03,-2.174999999999623679e+00,-4.944999999999616591e+00,1.343082988230643338e+01,-2.224924551843466602e+00
1.999999999999906208e+01,2.999999999319852950e+00,1.000000000003051781e+01,6.599999999999303091e-01,1.570000000000422613e+00,2.869999999999976353e+03,-2.174999999999582379e+00,-4.944999999999536655e+00,1.341813216864475855e+01,-2.247151341774153988e+00
1.999999999999852562e+01,3.000000000145322421e+00,9.999999999997911004e+00,6.599999999998689137e-01,1.570000000000730367e+00,2.869999999999975444e+03,-2.174999999999335021e+00,-4.944999999999136087e+00,1.343807378212001957e+01,-2.196052177785591919e+00
1.999999999999944933e+01,2.999999999859091382e+00,9.999999999998639311e+00,6.599999999999354161e-01,1.570000000000368434e+00,2.869999999999966803e+03,-2.174999999999669864e+00,-4.944999999999579288e+00,1.341974753774407780e+01,-2.233744573307152148e+00
1.999999999999851497e+01,3.000000000588319171e+00,9.999999999969395148e+00,6.599999999999434097e-01,1.570000000000702389e+00,2.869999999999978627e+03,-2.174999999999267075e+00,-4.944999999999414086e+00,1.330086608517739677e+01,-2.322490206611572905e+00
2.000000000000109779e+01,3.000000002450437631e+00,9.999999999958415486e+00,6.600000000001108313e-01,1.569999999999455609e+00,2.869999999999981355e+03,-2.175000000000490985e+00,-4.945000000000707274e+00,1.335024877010082278e+01,-2.292279007866559137e+00
2.000000000000162359e+01,3.000000003425466577e+00,9.999999999989270805e+00,6.600000000001349232e-01,1.569999999999142970e+00,2.869999999999978627e+03,-2.175000000000818279e+00,-4.945000000000979057e+00,1.334283764494941771e+01,-2.275797141670686141e+00
2.000000000000046896e+01,3.000000003847717256e+00,1.000000000001539391e+01,6.600000000000316724e-01,1.569999999999722506e+00,2.869999999999992724e+03,-2.175000000000279599e+00,-4.945000000000241869e+00,1.332018409041313234e+01,-2.301103108337148928e+00
2.000000000000156319e+01,3.000000003348447297e+00,1.000000000000717648e+01,6.600000000000972866e-01,1.569999999999189599e+00,2.869999999999989086e+03,-2.175000000000818279e+00,-4.945000000000757900e+00,1.332398196936346402e+01,-2.293266987320142114e+00
2.000000000000026645e+01,3.000000003428714201e+00,1.000000000003029577e+01,6.600000000000084688e-01,1.569999999999870166e+00,2.869999999999993179e+03,-2.175000000000127276e+00,-4.945000000000161045e+00,1.340266480547199279e+01,-2.179572333970587472e+00
1.999999999999990408e+01,3.000000001839948638e+00,1.000000000000952127e+01,6.599999999999773825e-01,1.570000000000061346e+00,2.870000000000001364e+03,-2.174999999999946976e+00,-4.945000000000018048e+00,1.342976265480278109e+01,-2.157481190938213444e+00
1.999999999999943512e+01,3.000000000923951138e+00,1.000000000002424372e+01,6.599999999999640599e-01,1.570000000000333573e+00,2.870000000000001364e+03,-2.174999999999647660e+00,-4.944999999999761364e+00,1.343027103420849855e+01,-2.189221144472855762e+00
2.000000000000190425e+01,3.000000002724811488e+00,1.000000000000706635e+01,6.600000000001189360e-01,1.569999999999016405e+00,2.869999999999998181e+03,-2.175000000000964828e+00,-4.945000000001063434e+00,1.342936787569058943e+01,-2.202545464037097389e+00
1.999999999999989697e+01,3.000000000787083287e+00,1.000000000000695444e+01,6.599999999999989209e-01,1.569999999999986517e+00,2.870000000000009095e+03,-2.174999999999996270e+00,-4.945000000000044693e+00,1.342909753502043557e+01,-2.198536746932992614e+00
1.999999999999939604e+01,3.000000000218219665e+00,1.000000000004275336e+01,6.599999999999545119e-01,1.570000000000253637e+00,2.870000000000000000e+03,-2.174999999999742695e+00,-4.944999999999731166e+00,1.341845180334895993e+01,-2.190241947351783125e+00
1.999999999999938183e+01,3.000000003498282108e+00,1.000000000003255352e+01,6.599999999999421885e-01,1.570000000000167040e+00,2.870000000000004547e+03,-2.174999999999840838e+00,-4.944999999999674323e+00,1.340903702717696255e+01,-2.150519663527904246e+00
1.999999999999883826e+01,3.000000003030792062e+00,1.000000000001627143e+01,6.599999999999021094e-01,1.570000000000615570e+00,2.870000000000002728e+03,-2.174999999999390976e+00,-4.944999999999358131e+00,1.341705798537061689e+01,-2.178542484243676469e+00
1.999999999999721467e+01,3.000000001537122873e+00,1.000000000004956746e+01,6.599999999997835376e-01,1.570000000001337659e+00,2.869999999999997726e+03,-2.174999999998723954e+00,-4.944999999998468176e+00,1.342002289860849196e+01,-2.202521425179852610e+00
1.999999999999947065e+01,3.000000000420181223e+00,1.000000000002915357e+01,6.599999999999618394e-01,1.570000000000325135e+00,2.869999999999994088e+03,-2.174999999999664535e+00,-4.944999999999709850e+00,1.339973541764327258e+01,-2.194313746968131973e+00
1.999999999999921485e+01,2.999999998747729713e+00,1.000000000004332534e+01,6.599999999999289768e-01,1.570000000000457030e+00,2.869999999999998181e+03,-2.174999999999541522e+00,-4.944999999999515339e+00,1.339582900514435515e+01,-2.204823179986286963e+00
1.999999999999721467e+01,3.000000000267209366e+00,1.000000000003875655e+01,6.599999999997983036e-01,1.570000000001274154e+00,2.870000000000001364e+03,-2.174999999998767919e+00,-4.944999999998564988e+00,1.340997080321959523e+01,-2.210402601595350625e+00
1.999999999999869971e+01,3.000000000847731219e+00,1.000000000002588507e+01,6.599999999999076605e-01,1.570000000000624896e+00,2.869999999999990905e+03,-2.174999999999378097e+00,-4.944999999999327933e+00,1.343726818774871035e+01,-2.204499116144117199e+00
1.999999999999850431e+01,3.000000001446821773e+00,1.000000000004078338e+01,6.599999999998732436e-01,1.570000000000820961e+00,2.870000000000005002e+03,-2.174999999999209344e+00,-4.944999999999141416e+00,1.342322974760972620e+01,-2.200670351455210838e+00
1.999999999999846523e+01,3.000000004497946016e+00,1.000000000002839684e+01,6.599999999998877875e-01,1.570000000000675300e+00,2.869999999999994088e+03,-2.174999999999348788e+00,-4.944999999999252438e+00,1.337861523905057126e+01,-2.181128257648273561e+00
2.000000000000145306e+01,3.000000002413948597e+00,1.000000000005180212e+01,6.600000000000998401e-01,1.569999999999368567e+00,2.869999999999992269e+03,-2.175000000000590905e+00,-4.945000000000817408e+00,1.338156769378061028e+01,-2.211273481415562348e+00
2.000000000000173017e+01,3.000000005942962567e+00,1.000000000000279954e+01,6.600000000001384759e-01,1.569999999999211138e+00,2.869999999999990450e+03,-2.175000000000719247e+00,-4.945000000001029683e+00,1.343518371835897796e+01,-2.132610094098608577e+00
1.999999999999874234e+01,3.000000004772529039e+00,1.000000000002729372e+01,6.599999999999129896e-01,1.570000000000559615e+00,2.870000000000000909e+03,-2.174999999999456701e+00,-4.944999999999339479e+00,1.343761780011699791e+01,-2.139275489856544699e+00
2.000000000000078870e+01,3.000000005933427083e+00,1.000000000004086687e+01,6.600000000000605382e-01,1.569999999999621476e+00,2.869999999999999091e+03,-2.175000000000356870e+00,-4.945000000000435492e+00,1.341332068204557793e+01,-2.189581320705645151e+00
2.000000000000205347e+01,3.000000006443312994e+00,1.000000000005508483e+01,6.600000000001516876e-01,1.569999999999063922e+00,2.869999999999993179e+03,-2.175000000000868461e+00,-4.945000000001114060e+00,1.340885949200510829e+01,-2.143790934545014792e+00
2.000000000000123990e+01,3.000000006840450872e+00,1.000000000002142997e+01,6.600000000000840750e-01,1.569999999999434959e+00,2.870000000000000455e+03,-2.175000000000530953e+00,-4.945000000000621121e+00,1.342884124203750318e+01,-2.173722198639791880e+00
2.000000000000088107e+01,3.000000005876406473e+00,1.000000000001216094e+01,6.600000000000453282e-01,1.569999999999578399e+00,2.870000000000001364e+03,-2.175000000000402611e+00,-4.945000000000399076e+00,1.343598183920193989e+01,-2.142825169049960898e+00
2.000000000000242650e+01,3.000000006527906660e+00,1.000000000003153744e+01,6.600000000001671197e-01,1.569999999998976881e+00,2.869999999999990450e+03,-2.175000000000952838e+00,-4.945000000001252616e+00,1.341205598471305649e+01,-2.174774816558198598e+00
2.000000000000089884e+01,3.000000008336444424e+00,1.000000000001427658e+01,6.600000000000687539e-01,1.569999999999651896e+00,2.870000000000000909e+03,-2.175000000000284928e+00,-4.945000000000475460e+00,1.345277256524295950e+01,-2.146475719280914074e+00
2.000000000000104450e+01,3.000000008485038006e+00,1.000000000001551292e+01,6.600000000000905143e-01,1.569999999999559748e+00,2.869999999999997272e+03,-2.175000000000370637e+00,-4.945000000000587370e+00,1.343450783025660833e+01,-2.149831400873897458e+00
2.000000000000045475e+01,3.000000004550237076e+00,1.000000000005581136e+01,6.600000000000254552e-01,1.570000000000025153e+00,2.870000000000000455e+03,-2.174999999999911005e+00,-4.945000000000152163e+00,1.341172221049775537e+01,-2.207076218344006691e+00
2.000000000000050093e+01,3.000000005534563918e+00,1.000000000004316547e+01,6.600000000000200151e-01,1.569999999999848850e+00,2.869999999999998636e+03,-2.175000000000115286e+00,-4.945000000000185914e+00,1.343326650638673314e+01,-2.143927809313449284e+00
1.999999999999880984e+01,3.000000004408871046e+00,1.000000000003460521e+01,6.599999999998964473e-01,1.570000000000544516e+00,2.869999999999998636e+03,-2.174999999999484679e+00,-4.944999999999243556e+00,1.342749159142922188e+01,-2.175194303620110681e+00
2.000000000000001421e+01,3.000000006967483035e+00,1.000000000007864642e+01,6.599999999999668354e-01,1.570000000000021600e+00,2.870000000000001364e+03,-2.175000000000000711e+00,-4.944999999999890150e+00,1.341727285142191128e+01,-2.183543611265312379e+00
1.999999999999987210e+01,3.000000006068320957e+00,1.000000000003365308e+01,6.599999999999641709e-01,1.570000000000109308e+00,2.869999999999984539e+03,-2.174999999999911449e+00,-4.944999999999810214e+00,1.341182594239364789e+01,-2.208092594044956947e+00
2.000000000000084199e+01,3.000000004847000135e+00,1.000000000007822365e+01,6.600000000000465494e-01,1.569999999999651008e+00,2.869999999999993634e+03,-2.175000000000325340e+00,-4.945000000000397300e+00,1.340186646188334940e+01,-2.200697013113285916e+00
2.000000000000007105e+01,3.000000001915677394e+00,1.000000000005024603e+01,6.599999999999998090e-01,1.570000000000024265e+00,2.869999999999995907e+03,-2.174999999999959410e+00,-4.945000000000027818e+00,1.340587053349376134e+01,-2.196883523302294527e+00
2.000000000000059330e+01,3.000000006100734584e+00,1.000000000001736566e+01,6.600000000000411093e-01,1.569999999999744933e+00,2.869999999999987722e+03,-2.175000000000231637e+00,-4.945000000000314699e+00,1.340987450581266494e+01,-2.161063917396205181e+00
2.000000000000065015e+01,3.000000007119039580e+00,1.000000000007377388e+01,6.600000000000239009e-01,1.569999999999796225e+00,2.870000000000005002e+03,-2.175000000000181899e+00,-4.945000000000241869e+00,1.344092246298164994e+01,-2.189673036563716924e+00
2.000000000000158096e+01,3.000000007174715044e+00,1.000000000007314327e+01,6.600000000000961764e-01,1.569999999999340368e+00,2.870000000000004547e+03,-2.175000000000622880e+00,-4.945000000000769447e+00,1.340638388819323623e+01,-2.197598927286864345e+00
1.999999999999842970e+01,3.000000004190272129e+00,1.000000000004570921e+01,6.599999999998787947e-01,1.570000000000941087e+00,2.870000000000000909e+03,-2.174999999999056577e+00,-4.944999999999056151e+00,1.342104553703989289e+01,-2.177635241755090156e+00
1.999999999999981171e+01,3.000000003252002667e+00,9.999999999994720667e+00,6.599999999999631717e-01,1.570000000000110196e+00,2.869999999999991815e+03,-2.174999999999935874e+00,-4.944999999999827978e+00,1.340169881504997207e+01,-2.225775153927633365e+00
2.000000000000103384e+01,3.000000005973142869e+00,1.000000000003629452e+01,6.600000000000285638e-01,1.569999999999552198e+00,2.869999999999995453e+03,-2.175000000000497646e+00,-4.945000000000392859e+00,1.342141152635112178e+01,-2.217691687380169085e+00
2.000000000000020961e+01,3.000000002314378467e+00,9.999999999997360334e+00,6.600000000000153522e-01,1.569999999999800888e+00,2.869999999999996817e+03,-2.175000000000227196e+00,-4.945000000000119300e+00,1.340409079201345577e+01,-2.203744682313054870e+00
2.000000000000027001e+01,3.000000002844078750e+00,1.000000000001477929e+01,6.600000000000153522e-01,1.569999999999902807e+00,2.869999999999985448e+03,-2.175000000000097966e+00,-4.945000000000134399e+00,1.341316909655945899e+01,-2.184091218688879454e+00
2.000000000000178701e+01,3.000000002931544785e+00,1.000000000000440714e+01,6.600000000000982858e-01,1.569999999999425855e+00,2.869999999999995453e+03,-2.175000000000542943e+00,-4.945000000000801421e+00,1.342364624749750845e+01,-2.184917129847643302e+00
1.999999999999955946e+01,3.000000003683085836e+00,9.999999999997104538e+00,6.599999999999418554e-01,1.570000000000196350e+00,2.869999999999994088e+03,-2.174999999999852385e+00,-4.944999999999645013e+00,1.341525579961763270e+01,-2.132973661505115359e+00
2.000000000000104450e+01,3.000000003503324741e+00,1.000000000001280220e+01,6.600000000000542100e-01,1.569999999999673879e+00,2.869999999999996817e+03,-2.175000000000310241e+00,-4.945000000000485230e+00,1.342434105703711467e+01,-2.173736621931939617e+00
2.000000000000103384e+01,3.000000003027769147e+00,9.999999999941143969e+00,6.600000000000505462e-01,1.569999999999675877e+00,2.870000000000000909e+03,-2.175000000000318234e+00,-4.945000000000442597e+00,1.344710662500454212e+01,-2.147181277416424283e+00
1.999999999999950973e+01,3.000000002330537097e+00,1.000000000002095391e+01,6.599999999999198730e-01,1.570000000000336682e+00,2.870000000000001819e+03,-2.174999999999728928e+00,-4.944999999999536655e+00,1.341542777080220361e+01,-2.207345250142639603e+00
2.000000000000096279e+01,3.000000003547124816e+00,9.999999999953605112e+00,6.600000000000595390e-01,1.569999999999653006e+00,2.869999999999995453e+03,-2.175000000000333777e+00,-4.945000000000439044e+00,1.342341704960154125e+01,-2.172632755033351515e+00
1.999999999999997158e+01,2.999999999657687155e+00,1.000000000000882139e+01,6.599999999999658362e-01,1.569999999999970752e+00,2.870000000000003183e+03,-2.175000000000094413e+00,-4.944999999999851958e+00,1.342652462896508858e+01,-2.157650473023688953e+00
2.000000000000116174e+01,3.000000002391532306e+00,1.000000000000973444e+01,6.600000000000635358e-01,1.569999999999600826e+00,2.870000000000000455e+03,-2.175000000000386180e+00,-4.945000000000483453e+00,1.340645597598134486e+01,-2.174962297388348009e+00
2.000000000000092371e+01,3.000000002229578744e+00,9.999999999985547561e+00,6.600000000000290079e-01,1.569999999999586171e+00,2.869999999999986358e+03,-2.175000000000467448e+00,-4.945000000000375984e+00,1.338667815134181183e+01,-2.211028075627687439e+00
1.999999999999987921e+01,3.000000002470967875e+00,9.999999999959866770e+00,6.599999999999607292e-01,1.570000000000169038e+00,2.870000000000001819e+03,-2.174999999999866152e+00,-4.944999999999793339e+00,1.344061440233863713e+01,-2.184993115161466548e+00
1.999999999999974776e+01,3.000000003674410110e+00,9.999999999967599251e+00,6.599999999999441869e-01,1.570000000000216334e+00,2.869999999999997272e+03,-2.174999999999835065e+00,-4.944999999999702744e+00,1.341441429815420427e+01,-2.219132646901662564e+00
2.000000000000034461e+01,2.999999999957975394e+00,1.000000000000412115e+01,6.599999999999861533e-01,1.569999999999984963e+00,2.869999999999989086e+03,-2.175000000000054445e+00,-4.945000000000014495e+00,1.340263506246278524e+01,-2.235362734466998624e+00
1.999999999999954170e+01,3.000000003756381872e+00,9.999999999977967846e+00,6.599999999999488498e-01,1.570000000000285167e+00,2.870000000000001819e+03,-2.174999999999741807e+00,-4.944999999999686757e+00,1.342303400341704034e+01,-2.175365661724077082e+00
2.000000000000384048e+01,3.000000004318243096e+00,9.999999999981261212e+00,6.600000000002564926e-01,1.569999999998402007e+00,2.869999999999991815e+03,-2.175000000001521716e+00,-4.945000000002012897e+00,1.343402741742322704e+01,-2.204266861059055227e+00
2.000000000000271783e+01,3.000000003527045767e+00,9.999999999948560259e+00,6.600000000001751133e-01,1.569999999998705764e+00,2.869999999999998181e+03,-2.175000000001282796e+00,-4.945000000001419593e+00,1.339520208251716582e+01,-2.184430226104959072e+00
2.000000000000085976e+01,3.000000002919959385e+00,9.999999999978703258e+00,6.600000000000399991e-01,1.569999999999597051e+00,2.869999999999992269e+03,-2.175000000000440359e+00,-4.945000000000431939e+00,1.339467505790223001e+01,-2.184649035711521581e+00
1.999999999999883116e+01,3.000000001329297117e+00,9.999999999971564080e+00,6.599999999999349720e-01,1.570000000000482121e+00,2.869999999999997726e+03,-2.174999999999530420e+00,-4.944999999999483364e+00,1.338421796787006457e+01,-2.156282563782494499e+00
1.999999999999988631e+01,3.000000000327732064e+00,9.999999999945098139e+00,6.600000000000044720e-01,1.569999999999978302e+00,2.869999999999992724e+03,-2.175000000000043787e+00,-4.945000000000060680e+00,1.338584621600166535e+01,-2.133137946734803503e+00
2.000000000000065725e+01,3.000000001093118929e+00,1.000000000001283951e+01,6.600000000000425526e-01,1.569999999999664997e+00,2.869999999999990450e+03,-2.175000000000329781e+00,-4.945000000000333351e+00,1.340163592530056391e+01,-2.214567330985096838e+00
2.000000000000167688e+01,3.000000001274904626e+00,9.999999999941259432e+00,6.600000000001116085e-01,1.569999999999176499e+00,2.869999999999975444e+03,-2.175000000000852030e+00,-4.945000000000844054e+00,1.338941154039453352e+01,-2.205001038669760938e+00
1.999999999999960920e+01,3.000000002800673915e+00,9.999999999997710276e+00,6.599999999999758282e-01,1.570000000000288054e+00,2.869999999999994088e+03,-2.174999999999711608e+00,-4.944999999999739160e+00,1.342453486043087985e+01,-2.142403250596227604e+00
1.999999999999997513e+01,3.000000002119427744e+00,1.000000000000432543e+01,6.599999999999976996e-01,1.570000000000094653e+00,2.869999999999998181e+03,-2.174999999999895905e+00,-4.944999999999902585e+00,1.341293605603888928e+01,-2.188816342610292676e+00
1.999999999999976197e+01,3.000000001060681321e+00,1.000000000000407141e+01,6.599999999999841549e-01,1.570000000000160156e+00,2.869999999999998181e+03,-2.174999999999844391e+00,-4.944999999999803109e+00,1.341284708428645978e+01,-2.182945384317744431e+00
2.000000000000171241e+01,3.000000000372056164e+00,9.999999999955308638e+00,6.600000000001258194e-01,1.569999999999162066e+00,2.869999999999985903e+03,-2.175000000000822720e+00,-4.945000000000957741e+00,1.340656632095866030e+01,-2.168394989139085904e+00
1.999999999999866773e+01,3.000000000444901893e+00,9.999999999986044941e+00,6.599999999999003331e-01,1.570000000000616458e+00,2.869999999999994088e+03,-2.174999999999427391e+00,-4.944999999999224904e+00,1.340019050035417969e+01,-2.191837385616166589e+00
1.999999999999967670e+01,3.000000002806019417e+00,1.000000000000744471e+01,6.599999999999662803e-01,1.570000000000280282e+00,2.869999999999992724e+03,-2.174999999999732925e+00,-4.944999999999693863e+00,1.341324801607163586e+01,-2.188489422168174325e+00
2.000000000000017408e+01,3.000000003129300374e+00,1.000000000005068657e+01,6.599999999999943689e-01,1.570000000000056462e+00,2.870000000000001364e+03,-2.174999999999933653e+00,-4.944999999999960316e+00,1.340219958858811999e+01,-2.243129759123312805e+00
2.000000000000187939e+01,3.000000002372275709e+00,1.000000000000044231e+01,6.600000000001567946e-01,1.569999999999063034e+00,2.869999999999984084e+03,-2.175000000000848477e+00,-4.945000000001085638e+00,1.338312588528472880e+01,-2.145184567616025717e+00
2.000000000000118305e+01,3.000000001090428192e+00,9.999999999991912247e+00,6.600000000001046141e-01,1.569999999999351692e+00,2.869999999999974989e+03,-2.175000000000607336e+00,-4.945000000000735696e+00,1.341593470240720443e+01,-2.147234191288236893e+00
1.999999999999759126e+01,3.000000002547216216e+00,9.999999999979801046e+00,6.599999999998437117e-01,1.570000000000945528e+00,2.869999999999985903e+03,-2.174999999999108091e+00,-4.944999999998833218e+00,1.341299928672718345e+01,-2.149868398121966173e+00
2.000000000000183675e+01,3.000000004588773805e+00,1.000000000001930189e+01,6.600000000001403633e-01,1.569999999999139639e+00,2.869999999999998636e+03,-2.175000000000800515e+00,-4.945000000001043894e+00,1.342991770799743279e+01,-2.153960676620923387e+00
2.000000000000009592e+01,3.000000002586360015e+00,9.999999999979387155e+00,6.600000000000094680e-01,1.569999999999962315e+00,2.869999999999977717e+03,-2.175000000000044231e+00,-4.945000000000122853e+00,1.342236415561576557e+01,-2.172155171600931300e+00
2.000000000000020250e+01,3.000000004009120591e+00,1.000000000000472866e+01,6.600000000000137979e-01,1.569999999999862839e+00,2.869999999999968168e+03,-2.175000000000178346e+00,-4.945000000000172591e+00,1.338721485183838844e+01,-2.207202460190715421e+00
2.000000000000045119e+01,3.000000003112737179e+00,9.999999999973505638e+00,6.600000000000412204e-01,1.569999999999731388e+00,2.869999999999958618e+03,-2.175000000000287148e+00,-4.945000000000387530e+00,1.337415979497787966e+01,-2.186411970137355887e+00
1.999999999999965539e+01,3.000000004080652705e+00,9.999999999976409981e+00,6.599999999999740519e-01,1.570000000000095763e+00,2.869999999999961801e+03,-2.174999999999957634e+00,-4.944999999999887486e+00,1.339965425678471078e+01,-2.197463323851180927e+00
2.000000000000306599e+01,3.000000002626932449e+00,9.999999999977786658e+00,6.600000000002373968e-01,1.569999999998658691e+00,2.869999999999968622e+03,-2.175000000001249489e+00,-4.945000000001764207e+00,1.338323055600552536e+01,-2.200148035284519299e+00
2.000000000000025224e+01,3.000000004737303438e+00,9.999999999997998046e+00,6.600000000000155742e-01,1.569999999999989848e+00,2.869999999999976353e+03,-2.175000000000009592e+00,-4.945000000000185025e+00,1.341057635223713618e+01,-2.200081225308521571e+00
2.000000000000245848e+01,3.000000006555912702e+00,9.999999999991466382e+00,6.600000000001927658e-01,1.569999999998820561e+00,2.869999999999971351e+03,-2.175000000001134026e+00,-4.945000000001415152e+00,1.341804662281417571e+01,-2.173355292785127624e+00
2.000000000000191136e+01,3.000000004819341370e+00,9.999999999989315214e+00,6.600000000001470246e-01,1.569999999999181162e+00,2.869999999999969077e+03,-2.175000000000776090e+00,-4.945000000001138929e+00,1.343097042400722785e+01,-2.164202800533097992e+00
2.000000000000116884e+01,3.000000003813707572e+00,9.999999999955059948e+00,6.600000000000870726e-01,1.569999999999341256e+00,2.869999999999972260e+03,-2.175000000000640199e+00,-4.945000000000725926e+00,1.340696813349799044e+01,-2.241325167259654361e+00
2.000000000000004263e+01,3.000000006353577220e+00,9.999999999957724484e+00,6.600000000000324496e-01,1.570000000000045137e+00,2.869999999999971351e+03,-2.174999999999904343e+00,-4.945000000000085549e+00,1.341690653100200414e+01,-2.218885723252856490e+00
2.000000000000201084e+01,3.000000004242245666e+00,9.999999999945947238e+00,6.600000000001557954e-01,1.569999999999116103e+00,2.869999999999979082e+03,-2.175000000000805844e+00,-4.945000000001095408e+00,1.343062718698592661e+01,-2.169631711959315812e+00
2.000000000000016342e+01,3.000000003981898367e+00,9.999999999958161467e+00,6.600000000000216804e-01,1.569999999999829532e+00,2.869999999999978172e+03,-2.175000000000189893e+00,-4.945000000000137952e+00,1.339127677887950618e+01,-2.183534269091063518e+00
1.999999999999945288e+01,3.000000004532280773e+00,9.999999999989297450e+00,6.599999999999605071e-01,1.570000000000336460e+00,2.869999999999982265e+03,-2.174999999999663203e+00,-4.944999999999629914e+00,1.344185808824205353e+01,-2.182667989335067116e+00
2.000000000000103739e+01,3.000000003468879850e+00,9.999999999947364770e+00,6.600000000000922906e-01,1.569999999999596607e+00,2.869999999999982265e+03,-2.175000000000354650e+00,-4.945000000000573159e+00,1.342361240587908888e+01,-2.190480600392074706e+00
2.000000000000112621e+01,3.000000003821745143e+00,9.999999999978218312e+00,6.600000000000894040e-01,1.569999999999534657e+00,2.869999999999981810e+03,-2.175000000000415490e+00,-4.945000000000564278e+00,1.341688037490997232e+01,-2.196482437701710477e+00
2.000000000000006750e+01,3.000000002316209891e+00,9.999999999942124518e+00,6.600000000000281197e-01,1.570000000000008500e+00,2.869999999999967713e+03,-2.174999999999965183e+00,-4.945000000000067786e+00,1.340798936229680827e+01,-2.205438233244046753e+00
1.999999999999962697e+01,3.000000005556746174e+00,9.999999999958937735e+00,6.599999999999881517e-01,1.570000000000226104e+00,2.869999999999974989e+03,-2.174999999999753353e+00,-4.944999999999855511e+00,1.343578073139410378e+01,-2.226380286858613111e+00
2.000000000000082778e+01,3.000000004062394865e+00,9.999999999983696597e+00,6.600000000000614264e-01,1.569999999999603268e+00,2.869999999999981355e+03,-2.175000000000380407e+00,-4.945000000000455032e+00,1.343331292628339213e+01,-2.210130072504145726e+00
2.000000000000042277e+01,3.000000004605775317e+00,9.999999999935370809e+00,6.600000000000491029e-01,1.569999999999877272e+00,2.869999999999971806e+03,-2.175000000000097522e+00,-4.945000000000283613e+00,1.341783874255643738e+01,-2.184481097065191335e+00
2.000000000000107292e+01,3.000000003967014717e+00,9.999999999963867126e+00,6.600000000000859623e-01,1.569999999999477147e+00,2.869999999999981810e+03,-2.175000000000507860e+00,-4.945000000000576712e+00,1.344196999155181160e+01,-2.195136407653301980e+00
2.000000000000098410e+01,3.000000002352266826e+00,9.999999999960040853e+00,6.600000000000724176e-01,1.569999999999482920e+00,2.869999999999974989e+03,-2.175000000000513634e+00,-4.945000000000507434e+00,1.341685382145848315e+01,-2.219321547166976494e+00
1.999999999999722178e+01,3.000000002404622279e+00,9.999999999974990672e+00,6.599999999998112932e-01,1.570000000001413376e+00,2.869999999999992269e+03,-2.174999999998615596e+00,-4.944999999998573870e+00,1.344938226459145270e+01,-2.152561074468769320e+00
1.999999999999974776e+01,3.000000002890673922e+00,9.999999999947993601e+00,6.600000000000023626e-01,1.570000000000215001e+00,2.869999999999988631e+03,-2.174999999999770228e+00,-4.944999999999945217e+00,1.340884046273886376e+01,-2.176006096515184396e+00
1.999999999999808864e+01,3.000000000566751535e+00,9.999999999990686561e+00,6.599999999998457101e-01,1.570000000000941753e+00,2.869999999999989086e+03,-2.174999999999130740e+00,-4.944999999998963780e+00,1.341365331070876188e+01,-2.235437222299565097e+00
1.999999999999825562e+01,3.000000000304798853e+00,1.000000000000893685e+01,6.599999999998469313e-01,1.570000000000927542e+00,2.870000000000006821e+03,-2.174999999999132516e+00,-4.944999999999017959e+00,1.344044689812924709e+01,-2.216277546808119947e+00
1.999999999999827338e+01,3.000000000337954553e+00,9.999999999971691977e+00,6.599999999998641398e-01,1.570000000000918661e+00,2.869999999999994998e+03,-2.174999999999123634e+00,-4.944999999999018847e+00,1.344696415553981161e+01,-2.184899836291974040e+00
1.999999999999765521e+01,3.000000000728328953e+00,9.999999999974269471e+00,6.599999999998323874e-01,1.570000000001099849e+00,2.869999999999991815e+03,-2.174999999998970868e+00,-4.944999999998779927e+00,1.339938685917488392e+01,-2.191746295906004782e+00
1.999999999999772982e+01,2.999999999865412548e+00,9.999999999992946087e+00,6.599999999998292788e-01,1.570000000001353202e+00,2.869999999999998636e+03,-2.174999999998665778e+00,-4.944999999998668017e+00,1.341931891211510930e+01,-2.216289395501580106e+00
1.999999999999861089e+01,3.000000000345536932e+00,9.999999999952930096e+00,6.599999999999051070e-01,1.570000000000744356e+00,2.870000000000001819e+03,-2.174999999999277289e+00,-4.944999999999243556e+00,1.342505361939823061e+01,-2.168410631379491527e+00
1.999999999999912959e+01,3.000000001015471263e+00,9.999999999981387333e+00,6.599999999999260902e-01,1.570000000000539631e+00,2.870000000000000455e+03,-2.174999999999485567e+00,-4.944999999999478035e+00,1.343425431022481042e+01,-2.202018575159577551e+00
2.000000000000030909e+01,3.000000004214510518e+00,9.999999999990476951e+00,6.600000000000166844e-01,1.570000000000087548e+00,2.869999999999994998e+03,-2.174999999999859490e+00,-4.945000000000056239e+00,1.339938473471577396e+01,-2.189324732152148734e+00
1.999999999999913669e+01,3.000000003662049775e+00,1.000000000001714362e+01,6.599999999999186517e-01,1.570000000000539853e+00,2.870000000000003638e+03,-2.174999999999467359e+00,-4.944999999999365237e+00,1.337326727132332849e+01,-2.196668600804105420e+00
2.000000000000077094e+01,3.000000001844288278e+00,9.999999999952024154e+00,6.600000000000476597e-01,1.569999999999768692e+00,2.869999999999992269e+03,-2.175000000000196110e+00,-4.945000000000336016e+00,1.338312784877201977e+01,-2.188260446134057347e+00
2.000000000000137845e+01,3.000000004726095959e+00,9.999999999994336974e+00,6.600000000001216005e-01,1.569999999999427853e+00,2.869999999999999091e+03,-2.175000000000503864e+00,-4.945000000000862705e+00,1.340719661071583424e+01,-2.183853457300010792e+00
1.999999999999948486e+01,3.000000001636566882e+00,1.000000000002116352e+01,6.599999999999667244e-01,1.570000000000163265e+00,2.869999999999987722e+03,-2.174999999999877254e+00,-4.944999999999803109e+00,1.340183736544985393e+01,-2.216429103623523744e+00
2.000000000000241229e+01,3.000000003945018090e+00,1.000000000009158363e+01,6.600000000001498002e-01,1.569999999999100337e+00,2.870000000000002274e+03,-2.175000000000838707e+00,-4.945000000001149587e+00,1.340379548510569485e+01,-2.146627730504520493e+00
2.000000000000152056e+01,3.000000002367168683e+00,1.000000000007145751e+01,6.600000000000889600e-01,1.569999999999417861e+00,2.869999999999994998e+03,-2.175000000000557598e+00,-4.945000000000693952e+00,1.341954984623883540e+01,-2.133321654642745369e+00
2.000000000000019540e+01,3.000000003531140269e+00,1.000000000005163692e+01,6.599999999999862643e-01,1.569999999999946327e+00,2.869999999999999545e+03,-2.175000000000089084e+00,-4.945000000000002949e+00,1.340288090528200726e+01,-2.167892377479268440e+00
2.000000000000170175e+01,3.000000003047718522e+00,1.000000000004322764e+01,6.600000000001093881e-01,1.569999999999260654e+00,2.870000000000000909e+03,-2.175000000000722356e+00,-4.945000000000836060e+00,1.341648789416614029e+01,-2.119089841108883654e+00
1.999999999999755929e+01,2.999999998874269380e+00,1.000000000000489386e+01,6.599999999998172884e-01,1.570000000001139151e+00,2.869999999999998181e+03,-2.174999999998914024e+00,-4.944999999998683116e+00,1.340336276584393183e+01,-2.175408243047298296e+00
1.999999999999931433e+01,2.999999998060025153e+00,1.000000000003050182e+01,6.599999999999528466e-01,1.570000000000360663e+00,2.869999999999997726e+03,-2.174999999999634337e+00,-4.944999999999684981e+00,1.340291138986103370e+01,-2.198296936597217144e+00
1.999999999999831601e+01,2.999999998612534302e+00,1.000000000000865619e+01,6.599999999998754641e-01,1.570000000000718376e+00,2.869999999999991360e+03,-2.174999999999322586e+00,-4.944999999999056151e+00,1.337148215276820729e+01,-2.191625174084619321e+00
1.999999999999766231e+01,3.000000000020379698e+00,1.000000000005345058e+01,6.599999999998309441e-01,1.570000000001060991e+00,2.870000000000001819e+03,-2.174999999998976197e+00,-4.944999999998759499e+00,1.340867931010888903e+01,-2.188825179925686815e+00
1.999999999999994671e+01,3.000000003046605634e+00,1.000000000001107381e+01,6.600000000000040279e-01,1.570000000000018936e+00,2.869999999999979536e+03,-2.175000000000007372e+00,-4.945000000000017160e+00,1.339492553548418563e+01,-2.171950332666777950e+00
2.000000000000010658e+01,3.000000002187438675e+00,1.000000000004639844e+01,6.600000000000144640e-01,1.569999999999904361e+00,2.869999999999996362e+03,-2.175000000000094857e+00,-4.945000000000084661e+00,1.339047473361062579e+01,-2.198068818533600144e+00
2.000000000000061817e+01,3.000000003021701556e+00,1.000000000001970513e+01,6.600000000000457723e-01,1.569999999999539320e+00,2.869999999999998181e+03,-2.175000000000476330e+00,-4.945000000000368878e+00,1.339478564752276135e+01,-2.149323492513148359e+00
1.999999999999967315e+01,3.000000001741377265e+00,1.000000000002510880e+01,6.600000000000044720e-01,1.570000000000158380e+00,2.869999999999992724e+03,-2.174999999999828848e+00,-4.944999999999921236e+00,1.340293146783579914e+01,-2.143141325523908236e+00
2.000000000000135003e+01,3.000000001993304632e+00,1.000000000001200640e+01,6.600000000001076117e-01,1.569999999999386775e+00,2.869999999999997272e+03,-2.175000000000584244e+00,-4.945000000000755236e+00,1.339050872952515370e+01,-2.167046914721915130e+00
2.000000000000165556e+01,3.000000003000205862e+00,1.000000000004269296e+01,6.600000000001196021e-01,1.569999999999217133e+00,2.869999999999999545e+03,-2.175000000000753886e+00,-4.945000000000885798e+00,1.341728980540929150e+01,-2.147839468972365662e+00
2.000000000000228084e+01,3.000000002553651957e+00,1.000000000001306866e+01,6.600000000001975398e-01,1.569999999998902940e+00,2.869999999999987722e+03,-2.175000000001027889e+00,-4.945000000001380513e+00,1.340262782143927822e+01,-2.150299394563860211e+00
2.000000000000110489e+01,3.000000000866547722e+00,9.999999999997886135e+00,6.600000000000783018e-01,1.569999999999540874e+00,2.869999999999991815e+03,-2.175000000000437250e+00,-4.945000000000521645e+00,1.339849568355450415e+01,-2.127431567889403574e+00
2.000000000000078160e+01,3.000000002543276256e+00,9.999999999984593657e+00,6.600000000000409983e-01,1.569999999999740714e+00,2.870000000000000455e+03,-2.175000000000264055e+00,-4.945000000000263185e+00,1.340749412371097016e+01,-2.161542187365552259e+00
1.999999999999916866e+01,2.999999999879090051e+00,1.000000000001214140e+01,6.599999999999252021e-01,1.570000000000382423e+00,2.869999999999993634e+03,-2.174999999999668532e+00,-4.944999999999448725e+00,1.342316377555888707e+01,-2.226795891023165108e+00
1.999999999999846167e+01,3.000000000624289953e+00,1.000000000003557155e+01,6.599999999998600320e-01,1.570000000000756124e+00,2.870000000000004093e+03,-2.174999999999313705e+00,-4.944999999999003748e+00,1.342381393653712607e+01,-2.209767929000742814e+00
1.999999999999876010e+01,3.000000000149920965e+00,1.000000000000428813e+01,6.599999999998978906e-01,1.570000000000627116e+00,2.869999999999989541e+03,-2.174999999999421174e+00,-4.944999999999229345e+00,1.343283063531757193e+01,-2.212252405068180217e+00
1.999999999999987210e+01,3.000000000217438512e+00,1.000000000001991296e+01,6.599999999999808242e-01,1.570000000000182583e+00,2.869999999999993634e+03,-2.174999999999831068e+00,-4.944999999999827089e+00,1.341429297660924114e+01,-2.210951954601477532e+00
2.000000000000059686e+01,3.000000000789139865e+00,9.999999999982366106e+00,6.600000000000387779e-01,1.569999999999794449e+00,2.870000000000001819e+03,-2.175000000000198330e+00,-4.945000000000272955e+00,1.341752158343503076e+01,-2.239435313292390983e+00
1.999999999999870681e+01,2.999999998713742233e+00,1.000000000001770495e+01,6.599999999998942268e-01,1.570000000000694618e+00,2.870000000000000909e+03,-2.174999999999343459e+00,-4.944999999999210694e+00,1.341731087943733591e+01,-2.235673586942489521e+00
2.000000000000152411e+01,2.999999997223949499e+00,9.999999999997838174e+00,6.600000000001009504e-01,1.569999999999297513e+00,2.869999999999992269e+03,-2.175000000000695710e+00,-4.945000000000785434e+00,1.338740546461949954e+01,-2.248001567524588573e+00
2.000000000000236255e+01,2.999999998723025918e+00,1.000000000000411582e+01,6.600000000001663425e-01,1.569999999998948903e+00,2.869999999999991360e+03,-2.175000000001012346e+00,-4.945000000001236629e+00,1.339317255647645233e+01,-2.226478620400987207e+00
2.000000000000268230e+01,3.000000002937690091e+00,9.999999999994795274e+00,6.600000000001984279e-01,1.569999999998704876e+00,2.869999999999997272e+03,-2.175000000001249045e+00,-4.945000000001468443e+00,1.340190142546978969e+01,-2.198806424753101840e+00
2.000000000000167688e+01,3.000000000914087472e+00,9.999999999972933651e+00,6.600000000001282618e-01,1.569999999999299289e+00,2.869999999999993634e+03,-2.175000000000630429e+00,-4.945000000000955076e+00,1.338552999660712750e+01,-2.216137200366283366e+00
2.000000000000158451e+01,3.000000001837629604e+00,9.999999999996802558e+00,6.600000000001166045e-01,1.569999999999126317e+00,2.869999999999989996e+03,-2.175000000000842704e+00,-4.945000000000839613e+00,1.339848125560425984e+01,-2.182308346391657050e+00
2.000000000000185452e+01,3.000000001581352382e+00,9.999999999994965805e+00,6.600000000001360334e-01,1.569999999999149409e+00,2.870000000000002728e+03,-2.175000000000788969e+00,-4.945000000001030571e+00,1.341929297140955413e+01,-2.197594395608616580e+00
1.999999999999962341e+01,3.000000001501027747e+00,9.999999999983531396e+00,6.599999999999603961e-01,1.570000000000334461e+00,2.869999999999989996e+03,-2.174999999999669420e+00,-4.944999999999668994e+00,1.340693002985344329e+01,-2.193339083033196246e+00
1.999999999999971578e+01,3.000000003519157410e+00,1.000000000001919886e+01,6.599999999999638378e-01,1.570000000000338014e+00,2.870000000000000000e+03,-2.174999999999645883e+00,-4.944999999999689422e+00,1.341707454519164777e+01,-2.197283535883951089e+00
2.000000000000196465e+01,3.000000002218989437e+00,1.000000000001372058e+01,6.600000000001404743e-01,1.569999999999226015e+00,2.869999999999994088e+03,-2.175000000000711253e+00,-4.945000000000932872e+00,1.341125471820654091e+01,-2.171354790916538491e+00
1.999999999999947775e+01,3.000000002668516519e+00,1.000000000002886757e+01,6.599999999999435207e-01,1.570000000000371987e+00,2.869999999999988631e+03,-2.174999999999647216e+00,-4.944999999999595275e+00,1.341649343915622161e+01,-2.228867459378585103e+00
2.000000000000004619e+01,3.000000002473561800e+00,1.000000000000982858e+01,6.599999999999844880e-01,1.570000000000147500e+00,2.869999999999993634e+03,-2.174999999999861711e+00,-4.944999999999873275e+00,1.341754837068266148e+01,-2.240035367234287200e+00
1.999999999999999289e+01,3.000000001196703625e+00,9.999999999970956566e+00,6.599999999999879297e-01,1.570000000000093765e+00,2.869999999999996817e+03,-2.174999999999899902e+00,-4.944999999999859952e+00,1.340790282581666304e+01,-2.196949818310015345e+00
2.000000000000133582e+01,3.000000003347025768e+00,1.000000000002346390e+01,6.600000000001000622e-01,1.569999999999541984e+00,2.869999999999984993e+03,-2.175000000000393285e+00,-4.945000000000620233e+00,1.340577119553926622e+01,-2.218461379243329201e+00
1.999999999999970512e+01,3.000000002099355800e+00,1.000000000001062439e+01,6.599999999999500711e-01,1.570000000000315143e+00,2.869999999999988177e+03,-2.174999999999708944e+00,-4.944999999999635243e+00,1.342298339423372688e+01,-2.225098123963129559e+00
2.000000000000234834e+01,3.000000002113780262e+00,9.999999999983439025e+00,6.600000000001771117e-01,1.569999999998757056e+00,2.869999999999986358e+03,-2.175000000001183764e+00,-4.945000000001400053e+00,1.342149487567741595e+01,-2.184259582074242978e+00
2.000000000000082068e+01,2.999999999975547560e+00,9.999999999956934005e+00,6.600000000000650902e-01,1.569999999999454499e+00,2.869999999999992724e+03,-2.175000000000514966e+00,-4.945000000000533191e+00,1.340587254987569565e+01,-2.142856308073951332e+00
2.000000000000038014e+01,3.000000001613704281e+00,9.999999999959213071e+00,6.600000000000652012e-01,1.569999999999683871e+00,2.869999999999990905e+03,-2.175000000000267164e+00,-4.945000000000353779e+00,1.338315739210047184e+01,-2.146849992809486629e+00
2.000000000000194333e+01,3.000000002385868392e+00,9.999999999993134381e+00,6.600000000001583489e-01,1.569999999999001083e+00,2.869999999999989996e+03,-2.175000000000922196e+00,-4.945000000001192220e+00,1.342773948858265420e+01,-2.141549571929810991e+00
2.000000000000126477e+01,3.000000002109195041e+00,9.999999999979589660e+00,6.600000000001169376e-01,1.569999999999283080e+00,2.869999999999989541e+03,-2.175000000000664180e+00,-4.945000000000829843e+00,1.341919840231391525e+01,-2.132304467870378861e+00
2.000000000000114042e+01,3.000000002562705603e+00,9.999999999966162179e+00,6.600000000001094991e-01,1.569999999999243112e+00,2.869999999999985448e+03,-2.175000000000719247e+00,-4.945000000000816520e+00,1.339784186104767905e+01,-2.145099526251271538e+00
1.999999999999957012e+01,3.000000001127035354e+00,9.999999999982758681e+00,6.599999999999474065e-01,1.570000000000242979e+00,2.870000000000000909e+03,-2.174999999999746247e+00,-4.944999999999709850e+00,1.341968368472413964e+01,-2.175417388031944288e+00
1.999999999999771916e+01,3.000000000415333101e+00,9.999999999933168127e+00,6.599999999998418243e-01,1.570000000001142038e+00,2.869999999999990905e+03,-2.174999999998870948e+00,-4.944999999998793250e+00,1.338230025407518653e+01,-2.211117102584304828e+00
2.000000000000188294e+01,3.000000002088292206e+00,9.999999999994825473e+00,6.600000000001401412e-01,1.569999999999127427e+00,2.870000000000000909e+03,-2.175000000000796518e+00,-4.945000000000998597e+00,1.341632751810639057e+01,-2.152474235607672703e+00
1.999999999999897682e+01,2.999999999398436312e+00,9.999999999968665065e+00,6.599999999999063283e-01,1.570000000000537854e+00,2.869999999999997726e+03,-2.174999999999479794e+00,-4.944999999999371454e+00,1.341003615119496928e+01,-2.221110762845148745e+00
2.000000000000084555e+01,3.000000000402936795e+00,9.999999999966552977e+00,6.600000000000655342e-01,1.569999999999504015e+00,2.869999999999994088e+03,-2.175000000000460343e+00,-4.945000000000495000e+00,1.340950456158577175e+01,-2.199447797029367546e+00
2.000000000000077449e+01,3.000000001200548994e+00,9.999999999976044052e+00,6.600000000000560973e-01,1.569999999999592610e+00,2.869999999999996817e+03,-2.175000000000368860e+00,-4.945000000000449702e+00,1.342744006877130936e+01,-2.157173339777239907e+00
1.999999999999797851e+01,2.999999999038104104e+00,1.000000000000099654e+01,6.599999999998390487e-01,1.570000000000921769e+00,2.869999999999997726e+03,-2.174999999999132960e+00,-4.944999999998898943e+00,1.341099744281029871e+01,-2.211288658623682846e+00
1.999999999999771561e+01,3.000000000170060410e+00,9.999999999968464337e+00,6.599999999998379385e-01,1.570000000001114504e+00,2.870000000000000909e+03,-2.174999999998926903e+00,-4.944999999998760387e+00,1.342852755540443965e+01,-2.189896038623389884e+00
1.999999999999756994e+01,3.000000002500889273e+00,9.999999999989276134e+00,6.599999999998180655e-01,1.570000000001182228e+00,2.870000000000005002e+03,-2.174999999998855404e+00,-4.944999999998671569e+00,1.341586008104319916e+01,-2.187385748590278123e+00
1.999999999999920064e+01,3.000000000439908998e+00,1.000000000001480593e+01,6.599999999999487388e-01,1.570000000000494111e+00,2.870000000000008185e+03,-2.174999999999480682e+00,-4.944999999999568630e+00,1.342695257428050049e+01,-2.168948415989456535e+00
1.999999999999972999e+01,3.000000001462637567e+00,9.999999999975674569e+00,6.599999999999948130e-01,1.570000000000169038e+00,2.869999999999991815e+03,-2.174999999999795541e+00,-4.944999999999947882e+00,1.342434466120188219e+01,-2.183631681214474263e+00
2.000000000000026645e+01,3.000000003853451780e+00,9.999999999988707700e+00,6.600000000000161293e-01,1.569999999999923901e+00,2.870000000000001364e+03,-2.175000000000041567e+00,-4.945000000000177920e+00,1.345247098202708180e+01,-2.154811954181861111e+00
2.000000000000046541e+01,3.000000000900739039e+00,9.999999999969803710e+00,6.600000000000331157e-01,1.569999999999751372e+00,2.869999999999996817e+03,-2.175000000000232525e+00,-4.945000000000279172e+00,1.342305655959413180e+01,-2.173285563274122811e+00
2.000000000000108002e+01,3.000000002056932846e+00,9.999999999982874144e+00,6.600000000000743050e-01,1.569999999999610818e+00,2.869999999999992724e+03,-2.175000000000348876e+00,-4.945000000000566942e+00,1.343718282478813286e+01,-2.180868105437151705e+00
1.999999999999930367e+01,3.000000002015678291e+00,9.999999999928645522e+00,6.599999999999451861e-01,1.570000000000287832e+00,2.870000000000001819e+03,-2.174999999999716938e+00,-4.944999999999697415e+00,1.345367995220942703e+01,-2.113155703181381462e+00
1.999999999999823075e+01,3.000000001037786745e+00,9.999999999960621722e+00,6.599999999998893419e-01,1.570000000000776552e+00,2.870000000000002274e+03,-2.174999999999239098e+00,-4.944999999999117435e+00,1.343436516032739192e+01,-2.166921941680294506e+00
1.999999999999927525e+01,3.000000002272671384e+00,9.999999999985686117e+00,6.599999999999431877e-01,1.570000000000429274e+00,2.870000000000003183e+03,-2.174999999999575273e+00,-4.944999999999650342e+00,1.344196666935342854e+01,-2.148393227046727638e+00
1.999999999999932498e+01,3.000000001805308791e+00,9.999999999983929300e+00,6.599999999999319744e-01,1.570000000000313811e+00,2.869999999999997726e+03,-2.174999999999725819e+00,-4.944999999999565077e+00,1.342651049716293876e+01,-2.199103112941573457e+00
1.999999999999938538e+01,3.000000001517427961e+00,9.999999999956868280e+00,6.599999999999645039e-01,1.570000000000288942e+00,2.869999999999995453e+03,-2.174999999999713385e+00,-4.944999999999728502e+00,1.342835576585617474e+01,-2.178543887667751644e+00
2.000000000000115108e+01,3.000000003813523719e+00,9.999999999987471355e+00,6.600000000001036149e-01,1.569999999999416751e+00,2.870000000000002728e+03,-2.175000000000522959e+00,-4.945000000000759677e+00,1.344489374270403381e+01,-2.138879366614994115e+00
1.999999999999974420e+01,3.000000001424989016e+00,9.999999999966135533e+00,6.599999999999965894e-01,1.570000000000169482e+00,2.869999999999999545e+03,-2.174999999999799094e+00,-4.944999999999993179e+00,1.343125011429915006e+01,-2.181408423165746235e+00
1.999999999999728217e+01,2.999999998238942478e+00,9.999999999939733542e+00,6.599999999998154010e-01,1.570000000001277041e+00,2.870000000000000909e+03,-2.174999999998747491e+00,-4.944999999998644036e+00,1.342824829976454737e+01,-2.174451726325716372e+00
1.999999999999905143e+01,2.999999999573146781e+00,9.999999999945137219e+00,6.599999999999517364e-01,1.570000000000487894e+00,2.869999999999989541e+03,-2.174999999999501554e+00,-4.944999999999547313e+00,1.342888600215365535e+01,-2.173277049067411593e+00
2.000000000000214584e+01,3.000000000739943218e+00,9.999999999959477748e+00,6.600000000001108313e-01,1.569999999999239781e+00,2.869999999999990905e+03,-2.175000000000698819e+00,-4.945000000000836060e+00,1.341774600265820716e+01,-2.161840433363375169e+00
2.000000000000298073e+01,3.000000002805980337e+00,9.999999999973699261e+00,6.600000000001763345e-01,1.569999999998715312e+00,2.869999999999981355e+03,-2.175000000001234390e+00,-4.945000000001336993e+00,1.339541900680256781e+01,-2.149585240064766811e+00
2.000000000000127187e+01,3.000000004758694327e+00,1.000000000003342571e+01,6.600000000000946221e-01,1.569999999999346141e+00,2.869999999999990450e+03,-2.175000000000629541e+00,-4.945000000000669971e+00,1.339135250200710381e+01,-2.149701657220484563e+00
1.999999999999782219e+01,3.000000000318271187e+00,1.000000000000529710e+01,6.599999999998540368e-01,1.570000000001130269e+00,2.870000000000005912e+03,-2.174999999998876721e+00,-4.944999999998805684e+00,1.342104719014224656e+01,-2.175005050066642465e+00
2.000000000000055067e+01,3.000000002854677827e+00,9.999999999993869793e+00,6.600000000000524336e-01,1.569999999999778462e+00,2.869999999999990450e+03,-2.175000000000190337e+00,-4.945000000000342233e+00,1.340265354753347005e+01,-2.184885267275989751e+00
1.999999999999948486e+01,3.000000000486956697e+00,1.000000000005565326e+01,6.599999999999570655e-01,1.570000000000308038e+00,2.870000000000005002e+03,-2.174999999999687184e+00,-4.944999999999581952e+00,1.337630689767136261e+01,-2.188032636451751056e+00
1.999999999999867839e+01,3.000000000315135029e+00,1.000000000000895994e+01,6.599999999998864553e-01,1.570000000000725260e+00,2.870000000000003183e+03,-2.174999999999297717e+00,-4.944999999999079243e+00,1.343105305432480279e+01,-2.114037123919076056e+00
2.000000000000076383e+01,3.000000002923671971e+00,1.000000000001160672e+01,6.600000000000286748e-01,1.569999999999778684e+00,2.869999999999991815e+03,-2.175000000000234301e+00,-4.945000000000232987e+00,1.340583886240152722e+01,-2.124298258995085842e+00
1.999999999999993605e+01,3.000000001498272617e+00,9.999999999975816678e+00,6.599999999999955902e-01,1.570000000000145501e+00,2.869999999999990905e+03,-2.174999999999831513e+00,-4.944999999999840412e+00,1.340907295975939029e+01,-2.118728370091373936e+00
1.999999999999981526e+01,3.000000003217229594e+00,9.999999999993860911e+00,6.599999999999852651e-01,1.570000000000104201e+00,2.869999999999995907e+03,-2.174999999999898126e+00,-4.944999999999796003e+00,1.341177879926734740e+01,-2.146535323541996831e+00
1.999999999999947775e+01,3.000000000972302683e+00,9.999999999989192645e+00,6.599999999999440758e-01,1.570000000000306706e+00,2.869999999999997726e+03,-2.174999999999726708e+00,-4.944999999999543761e+00,1.339762193780249078e+01,-2.138171072797184546e+00
1.999999999999857536e+01,3.000000002504370489e+00,1.000000000000174083e+01,6.599999999998716893e-01,1.570000000000697504e+00,2.869999999999998181e+03,-2.174999999999345235e+00,-4.944999999999057039e+00,1.341495822397992654e+01,-2.131827691814278225e+00
2.000000000000059330e+01,3.000000001566878627e+00,9.999999999937910999e+00,6.600000000000484368e-01,1.569999999999686757e+00,2.869999999999986358e+03,-2.175000000000299138e+00,-4.945000000000311147e+00,1.341541130593837217e+01,-2.154573909845721946e+00
2.000000000000089173e+01,3.000000002297495527e+00,9.999999999966371789e+00,6.600000000000590950e-01,1.569999999999550200e+00,2.869999999999986358e+03,-2.175000000000454126e+00,-4.945000000000457696e+00,1.340572894240218460e+01,-2.177997678466712550e+00
2.000000000000319034e+01,3.000000003381571023e+00,9.999999999990951238e+00,6.600000000002610445e-01,1.569999999998544560e+00,2.869999999999988177e+03,-2.175000000001341860e+00,-4.945000000001864571e+00,1.339374627806519236e+01,-2.163345233447129257e+00
2.000000000000049738e+01,3.000000002248848219e+00,9.999999999971874942e+00,6.600000000000456613e-01,1.569999999999777796e+00,2.869999999999999545e+03,-2.175000000000177902e+00,-4.945000000000279172e+00,1.341752080709938078e+01,-2.136234272601336137e+00
2.000000000000141043e+01,3.000000002092808593e+00,1.000000000000097522e+01,6.600000000000860734e-01,1.569999999999456719e+00,2.869999999999983174e+03,-2.175000000000523848e+00,-4.945000000000673523e+00,1.339791931297278182e+01,-2.174620333901369662e+00
2.000000000000141753e+01,3.000000003223443734e+00,9.999999999960694552e+00,6.600000000001161604e-01,1.569999999999364348e+00,2.869999999999991360e+03,-2.175000000000578915e+00,-4.945000000000774776e+00,1.341247448960078437e+01,-2.150342851668519462e+00
2.000000000000087041e+01,3.000000003786214453e+00,9.999999999961774577e+00,6.600000000000830758e-01,1.569999999999531326e+00,2.869999999999980446e+03,-2.175000000000442579e+00,-4.945000000000538520e+00,1.340887406173085594e+01,-2.185455198046886149e+00
2.000000000000174083e+01,3.000000001886755197e+00,9.999999999961813657e+00,6.600000000001372547e-01,1.569999999999177165e+00,2.869999999999976353e+03,-2.175000000000776534e+00,-4.945000000000985274e+00,1.339820452319312594e+01,-2.191204785257075294e+00
2.000000000000192202e+01,3.000000002197397819e+00,9.999999999962899011e+00,6.600000000001646772e-01,1.569999999999104778e+00,2.869999999999977717e+03,-2.175000000000822720e+00,-4.945000000001064322e+00,1.338880869876798485e+01,-2.100121932410307313e+00
2.000000000000099476e+01,3.000000001983632369e+00,9.999999999929954697e+00,6.600000000001081668e-01,1.569999999999538653e+00,2.869999999999981355e+03,-2.175000000000394174e+00,-4.945000000000593587e+00,1.340643223697790631e+01,-2.156116265157848932e+00
