2.000000000000164846e+01,2.999999999775181614e+00,9.999999999964545694e+00,6.600000000001041700e-01,1.569999999999367901e+00,2.869999999999970441e+03,-2.175000000000619327e+00,-4.945000000000773888e+00,1.340584993563392224e+01,-2.218425886564721505e+00
2.000000000000072831e+01,2.999999999978889775e+00,1.000000000002342482e+01,6.600000000000866285e-01,1.569999999999611262e+00,2.869999999999962711e+03,-2.175000000000320455e+00,-4.945000000000584706e+00,1.340590838518066086e+01,-2.164323994394432127e+00
2.000000000000272493e+01,3.000000002129710630e+00,1.000000000000958345e+01,6.600000000002080869e-01,1.569999999998837437e+00,2.869999999999974079e+03,-2.175000000001092282e+00,-4.945000000001545715e+00,1.342009018954766830e+01,-2.198734603156407452e+00
2.000000000000105516e+01,3.000000000854186499e+00,9.999999999996353139e+00,6.600000000000654232e-01,1.569999999999536211e+00,2.869999999999990450e+03,-2.175000000000449241e+00,-4.945000000000485230e+00,1.341671092145048938e+01,-2.189731522451947132e+00
1.999999999999960920e+01,3.000000002097003460e+00,9.999999999981778132e+00,6.599999999999470734e-01,1.570000000000358886e+00,2.869999999999971351e+03,-2.174999999999675637e+00,-4.944999999999623697e+00,1.340398267489553596e+01,-2.231564429528363647e+00
1.999999999999894840e+01,3.000000001761086388e+00,9.999999999974768627e+00,6.599999999999217604e-01,1.570000000000637774e+00,2.869999999999955435e+03,-2.174999999999392308e+00,-4.944999999999407869e+00,1.340363268908272332e+01,-2.223072697714416623e+00
1.999999999999983658e+01,3.000000002660703213e+00,1.000000000002141931e+01,6.599999999999869305e-01,1.570000000000022711e+00,2.870000000000005002e+03,-2.174999999999989608e+00,-4.944999999999949658e+00,1.339969678861143265e+01,-2.177271062339174001e+00
2.000000000000001066e+01,3.000000003201708232e+00,1.000000000001769251e+01,6.599999999999958122e-01,1.570000000000054907e+00,2.869999999999994543e+03,-2.174999999999919442e+00,-4.945000000000001172e+00,1.339881103935698725e+01,-2.193655069372811184e+00
2.000000000000257927e+01,3.000000003342070620e+00,1.000000000004592060e+01,6.600000000001865486e-01,1.569999999998840545e+00,2.869999999999985448e+03,-2.175000000001069189e+00,-4.945000000001458673e+00,1.342302338466534728e+01,-2.150122167721058020e+00
2.000000000000118305e+01,3.000000000667609967e+00,1.000000000001035261e+01,6.600000000000811884e-01,1.569999999999502682e+00,2.869999999999997726e+03,-2.175000000000439027e+00,-4.945000000000651319e+00,1.340871211358451554e+01,-2.182493658350136201e+00
1.999999999999880274e+01,2.999999998431984949e+00,1.000000000001435652e+01,6.599999999999237588e-01,1.570000000000503659e+00,2.869999999999992269e+03,-2.174999999999525979e+00,-4.944999999999455831e+00,1.339930460267759038e+01,-2.218762461776263351e+00
1.999999999999923617e+01,3.000000001170852304e+00,1.000000000004803447e+01,6.599999999999534017e-01,1.570000000000260965e+00,2.870000000000003183e+03,-2.174999999999739142e+00,-4.944999999999692974e+00,1.341090938075743111e+01,-2.166737754484520551e+00
1.999999999999851497e+01,3.000000002418388600e+00,1.000000000000809308e+01,6.599999999998911182e-01,1.570000000000499663e+00,2.869999999999989996e+03,-2.174999999999537081e+00,-4.944999999999290630e+00,1.340927881695152379e+01,-2.165395955812781104e+00
1.999999999999966960e+01,3.000000003615270749e+00,1.000000000001842793e+01,6.599999999999498490e-01,1.570000000000088658e+00,2.869999999999994088e+03,-2.174999999999945643e+00,-4.944999999999743601e+00,1.342574135931238644e+01,-2.164231334297312070e+00
1.999999999999871392e+01,3.000000000800035149e+00,1.000000000000482991e+01,6.599999999998895639e-01,1.570000000000679963e+00,2.869999999999997272e+03,-2.174999999999354117e+00,-4.944999999999283524e+00,1.341836637665088894e+01,-2.187965916031665792e+00
1.999999999999872458e+01,3.000000000846695158e+00,9.999999999997690736e+00,6.599999999998948930e-01,1.570000000000685958e+00,2.869999999999985448e+03,-2.174999999999339462e+00,-4.944999999999298623e+00,1.342044571823845800e+01,-2.204704412851092421e+00
2.000000000000062883e+01,2.999999999865581746e+00,1.000000000000757616e+01,6.600000000000287859e-01,1.569999999999734053e+00,2.870000000000003638e+03,-2.175000000000259615e+00,-4.945000000000331575e+00,1.339412553565142794e+01,-2.213362407643743701e+00
1.999999999999682743e+01,2.999999998653371858e+00,1.000000000001638689e+01,6.599999999997796518e-01,1.570000000001460894e+00,2.869999999999992269e+03,-2.174999999998592948e+00,-4.944999999998365148e+00,1.340777986394337518e+01,-2.206678306534331835e+00
2.000000000000010303e+01,3.000000003862989484e+00,1.000000000005674750e+01,6.599999999999841549e-01,1.570000000000012275e+00,2.870000000000002274e+03,-2.175000000000004707e+00,-4.944999999999931894e+00,1.342021539990676970e+01,-2.201374918777725842e+00
2.000000000000253308e+01,3.000000006683012810e+00,1.000000000004241940e+01,6.600000000001682299e-01,1.569999999998762164e+00,2.869999999999991360e+03,-2.175000000001201972e+00,-4.945000000001336105e+00,1.340547967260858719e+01,-2.160074162452676028e+00
2.000000000000264322e+01,3.000000005613209897e+00,9.999999999996434852e+00,6.600000000001992051e-01,1.569999999998868745e+00,2.869999999999990905e+03,-2.175000000001021228e+00,-4.945000000001444462e+00,1.341316260667243121e+01,-2.193847198584913283e+00
2.000000000000026290e+01,3.000000006606873715e+00,1.000000000000549427e+01,6.600000000000362244e-01,1.569999999999875717e+00,2.870000000000004547e+03,-2.175000000000081535e+00,-4.945000000000089102e+00,1.342275672805130426e+01,-2.158767819316022241e+00
2.000000000000058265e+01,3.000000003679853755e+00,1.000000000003640110e+01,6.600000000000411093e-01,1.569999999999937890e+00,2.870000000000006821e+03,-2.174999999999998490e+00,-4.945000000000214335e+00,1.341743493691553013e+01,-2.189435601289005273e+00
1.999999999999887024e+01,3.000000003299320817e+00,1.000000000002790479e+01,6.599999999999173195e-01,1.570000000000688622e+00,2.870000000000006366e+03,-2.174999999999307931e+00,-4.944999999999298623e+00,1.341486122451013685e+01,-2.190671813083392649e+00
2.000000000000013500e+01,3.000000000552068169e+00,1.000000000000647660e+01,6.600000000000099121e-01,1.569999999999977414e+00,2.869999999999985903e+03,-2.174999999999995826e+00,-4.945000000000049134e+00,1.340731251218538311e+01,-2.165247323919341937e+00
2.000000000000123279e+01,3.000000005214833010e+00,9.999999999993031352e+00,6.600000000000793010e-01,1.569999999999386331e+00,2.869999999999992269e+03,-2.175000000000591793e+00,-4.945000000000615792e+00,1.341396656557495959e+01,-2.170788326785763278e+00
2.000000000000137490e+01,3.000000005637013523e+00,1.000000000004187228e+01,6.600000000000719735e-01,1.569999999999394547e+00,2.869999999999987267e+03,-2.175000000000604672e+00,-4.945000000000677076e+00,1.340819092275101099e+01,-2.183817591885283349e+00
2.000000000000141043e+01,3.000000008068600899e+00,1.000000000000364331e+01,6.600000000000716405e-01,1.569999999999429630e+00,2.869999999999976353e+03,-2.175000000000564704e+00,-4.945000000000586482e+00,1.341796311132008768e+01,-2.193573033832832753e+00
2.000000000000052225e+01,3.000000004982502855e+00,9.999999999961399766e+00,6.600000000000288969e-01,1.569999999999824425e+00,2.869999999999966349e+03,-2.175000000000161471e+00,-4.945000000000233875e+00,1.342749326917814123e+01,-2.207227025038026813e+00
1.999999999999930012e+01,3.000000000483446172e+00,1.000000000003081801e+01,6.599999999999562883e-01,1.570000000000427942e+00,2.869999999999988631e+03,-2.174999999999540190e+00,-4.944999999999626361e+00,1.341659308540712203e+01,-2.213059704164034525e+00
2.000000000000121148e+01,3.000000003904010892e+00,9.999999999977575271e+00,6.600000000000765255e-01,1.569999999999481144e+00,2.869999999999986358e+03,-2.175000000000520295e+00,-4.945000000000598028e+00,1.340621808161042239e+01,-2.184024425452685492e+00
2.000000000000108002e+01,3.000000005496204825e+00,1.000000000001311840e+01,6.600000000000758593e-01,1.569999999999507123e+00,2.869999999999990905e+03,-2.175000000000467448e+00,-4.945000000000546514e+00,1.340823425222785481e+01,-2.201829141847623905e+00
2.000000000000039080e+01,3.000000005691048521e+00,1.000000000006832934e+01,6.600000000000273426e-01,1.570000000000017604e+00,2.870000000000005002e+03,-2.174999999999936762e+00,-4.945000000000169038e+00,1.340582100028961854e+01,-2.165002626103774030e+00
2.000000000000276046e+01,3.000000005236504119e+00,9.999999999987744914e+00,6.600000000001942091e-01,1.569999999998695772e+00,2.869999999999995453e+03,-2.175000000001277023e+00,-4.945000000001417817e+00,1.340873935742683543e+01,-2.169606652621006937e+00
2.000000000000127187e+01,3.000000004362596062e+00,1.000000000002515321e+01,6.600000000000897371e-01,1.569999999999380558e+00,2.869999999999994998e+03,-2.175000000000585132e+00,-4.945000000000669083e+00,1.340374203148838284e+01,-2.180568113424069754e+00
2.000000000000097700e+01,3.000000002054979742e+00,9.999999999993681499e+00,6.600000000000775247e-01,1.569999999999548423e+00,2.869999999999980901e+03,-2.175000000000415490e+00,-4.945000000000566054e+00,1.341270990459535284e+01,-2.161423679771462325e+00
2.000000000000058620e+01,3.000000004046175839e+00,9.999999999999459988e+00,6.600000000000391109e-01,1.569999999999756923e+00,2.869999999999998181e+03,-2.175000000000235634e+00,-4.945000000000295159e+00,1.340034042523075364e+01,-2.167345609157716346e+00
1.999999999999949551e+01,3.000000002031617541e+00,9.999999999958067320e+00,6.599999999999310862e-01,1.570000000000353335e+00,2.869999999999984993e+03,-2.174999999999671640e+00,-4.944999999999597051e+00,1.341758235715313319e+01,-2.196423526102668333e+00
2.000000000000192557e+01,3.000000004128013487e+00,9.999999999981710630e+00,6.600000000001374767e-01,1.569999999999140972e+00,2.869999999999996362e+03,-2.175000000000840483e+00,-4.945000000001016360e+00,1.342290887957465451e+01,-2.169857967377411434e+00
1.999999999999932498e+01,3.000000001133994676e+00,1.000000000003242207e+01,6.599999999999313083e-01,1.570000000000261409e+00,2.869999999999995907e+03,-2.174999999999792877e+00,-4.944999999999544649e+00,1.342293272449857611e+01,-2.161023769182005783e+00
2.000000000000067857e+01,3.000000001938053718e+00,1.000000000002313705e+01,6.600000000000140199e-01,1.569999999999801776e+00,2.869999999999998181e+03,-2.175000000000208544e+00,-4.945000000000185025e+00,1.340074453231792972e+01,-2.157489817631413676e+00
2.000000000000014211e+01,3.000000000981435377e+00,9.999999999945149654e+00,6.599999999999889289e-01,1.569999999999974083e+00,2.869999999999993179e+03,-2.175000000000062439e+00,-4.944999999999949658e+00,1.340687831575021427e+01,-2.198055795112703326e+00
1.999999999999724309e+01,3.000000000922913301e+00,9.999999999966108888e+00,6.599999999997768763e-01,1.570000000001411822e+00,2.869999999999988177e+03,-2.174999999998670219e+00,-4.944999999998417550e+00,1.339398445106485980e+01,-2.199064006633315138e+00
2.000000000000046896e+01,3.000000003582664387e+00,1.000000000000886402e+01,6.600000000000365574e-01,1.569999999999818430e+00,2.869999999999988631e+03,-2.175000000000161027e+00,-4.945000000000278284e+00,1.341753995454018344e+01,-2.191249717032598188e+00
2.000000000000288125e+01,3.000000005582539764e+00,9.999999999960923702e+00,6.600000000001884359e-01,1.569999999998588303e+00,2.870000000000001819e+03,-2.175000000001364953e+00,-4.945000000001465779e+00,1.340587767685948428e+01,-2.171943337272886687e+00
2.000000000000294165e+01,3.000000006895262139e+00,9.999999999961300290e+00,6.600000000002227418e-01,1.569999999998523688e+00,2.869999999999987722e+03,-2.175000000001420908e+00,-4.945000000001643414e+00,1.339272919764787773e+01,-2.167910657089777704e+00
2.000000000000044409e+01,3.000000001734624888e+00,9.999999999982225773e+00,6.600000000000063594e-01,1.569999999999846407e+00,2.869999999999986812e+03,-2.175000000000183231e+00,-4.945000000000163709e+00,1.341556061437387370e+01,-2.175217542731536113e+00
1.999999999999849010e+01,3.000000001138221517e+00,9.999999999955960561e+00,6.599999999999015543e-01,1.570000000000642659e+00,2.870000000000006366e+03,-2.174999999999391864e+00,-4.944999999999271090e+00,1.340866101664417620e+01,-2.169426951549032978e+00
1.999999999999942446e+01,3.000000004634903572e+00,9.999999999994114930e+00,6.599999999999578426e-01,1.570000000000232543e+00,2.870000000000001364e+03,-2.174999999999784439e+00,-4.944999999999713403e+00,1.339913648536010093e+01,-2.137991704317501185e+00
1.999999999999997513e+01,3.000000002610067273e+00,1.000000000000071232e+01,6.599999999999843769e-01,1.570000000000051132e+00,2.869999999999987267e+03,-2.174999999999955858e+00,-4.944999999999890150e+00,1.339755928800616225e+01,-2.197621166921136293e+00
2.000000000000051870e+01,3.000000001004802019e+00,1.000000000001613110e+01,6.600000000000477707e-01,1.569999999999899698e+00,2.869999999999994088e+03,-2.175000000000052669e+00,-4.945000000000196572e+00,1.341967586429118953e+01,-2.186183966966478653e+00
1.999999999999827338e+01,3.000000000425827817e+00,9.999999999999499067e+00,6.599999999998932276e-01,1.570000000000828511e+00,2.869999999999988631e+03,-2.174999999999186695e+00,-4.944999999999119211e+00,1.342631100205933770e+01,-2.193948630369468855e+00
2.000000000000119371e+01,3.000000000363046038e+00,9.999999999937415396e+00,6.600000000000835199e-01,1.569999999999523776e+00,2.869999999999980901e+03,-2.175000000000445244e+00,-4.945000000000626450e+00,1.340662327625988226e+01,-2.165630892554908815e+00
1.999999999999892353e+01,3.000000000550266499e+00,9.999999999967311481e+00,6.599999999999469624e-01,1.570000000000453921e+00,2.869999999999980446e+03,-2.174999999999565503e+00,-4.944999999999498463e+00,1.340553869292605960e+01,-2.172003742037742491e+00
2.000000000000018119e+01,3.000000002722697179e+00,9.999999999942538409e+00,6.600000000000074696e-01,1.569999999999995843e+00,2.869999999999972260e+03,-2.174999999999994937e+00,-4.945000000000116636e+00,1.342521348598763176e+01,-2.195049527820043256e+00
2.000000000000092015e+01,3.000000002609647609e+00,9.999999999964490627e+00,6.600000000000836309e-01,1.569999999999553308e+00,2.869999999999976353e+03,-2.175000000000395062e+00,-4.945000000000618456e+00,1.340985140209954452e+01,-2.160358308420728513e+00
2.000000000000075318e+01,3.000000001538567940e+00,9.999999999950585305e+00,6.600000000000665334e-01,1.569999999999707185e+00,2.869999999999958618e+03,-2.175000000000255618e+00,-4.945000000000545626e+00,1.337999683198832734e+01,-2.178405975254109617e+00
2.000000000000111555e+01,3.000000002766238794e+00,9.999999999988444799e+00,6.600000000000808553e-01,1.569999999999525109e+00,2.869999999999961801e+03,-2.175000000000444800e+00,-4.945000000000674412e+00,1.339577916882100794e+01,-2.182769660703652193e+00
2.000000000000080647e+01,3.000000004793756059e+00,1.000000000002919975e+01,6.600000000000698641e-01,1.569999999999626139e+00,2.869999999999966803e+03,-2.175000000000353761e+00,-4.945000000000542961e+00,1.339442122185117334e+01,-2.202614788387299960e+00
2.000000000000051514e+01,3.000000006637646877e+00,9.999999999971668885e+00,6.600000000000503242e-01,1.569999999999726947e+00,2.869999999999971806e+03,-2.175000000000255174e+00,-4.945000000000390195e+00,1.340016888322227828e+01,-2.172955986313386045e+00
2.000000000000389733e+01,3.000000004872504178e+00,9.999999999962360775e+00,6.600000000003055645e-01,1.569999999998266782e+00,2.869999999999964075e+03,-2.175000000001612754e+00,-4.945000000002231388e+00,1.341009463410458835e+01,-2.191627468925156030e+00
2.000000000000267164e+01,3.000000003174224439e+00,9.999999999947986495e+00,6.600000000002207434e-01,1.569999999998777263e+00,2.869999999999958618e+03,-2.175000000001126033e+00,-4.945000000001550156e+00,1.339862913693514912e+01,-2.170544966991935443e+00
1.999999999999987210e+01,3.000000004805348564e+00,1.000000000001384137e+01,6.600000000000030287e-01,1.570000000000156160e+00,2.869999999999989996e+03,-2.174999999999835953e+00,-4.945000000000033147e+00,1.339926040128159457e+01,-2.145711798597192743e+00
2.000000000000181188e+01,3.000000004722772839e+00,9.999999999994152233e+00,6.600000000001534639e-01,1.569999999999152740e+00,2.869999999999956344e+03,-2.175000000000803180e+00,-4.945000000001058105e+00,1.340469794301403894e+01,-2.171381841807300539e+00
1.999999999999942446e+01,3.000000005878249443e+00,1.000000000004236433e+01,6.599999999999299760e-01,1.570000000000251195e+00,2.869999999999995453e+03,-2.174999999999800870e+00,-4.944999999999501128e+00,1.337861949088680902e+01,-2.197836815717038039e+00
1.999999999999910116e+01,3.000000002540183619e+00,9.999999999993415045e+00,6.599999999999021094e-01,1.570000000000427276e+00,2.869999999999979082e+03,-2.174999999999682743e+00,-4.944999999999324380e+00,1.337914780806048043e+01,-2.201623108956032748e+00
1.999999999999908695e+01,3.000000004346830007e+00,9.999999999947316809e+00,6.599999999999358602e-01,1.570000000000542295e+00,2.869999999999977263e+03,-2.174999999999483347e+00,-4.944999999999426521e+00,1.341912932201595154e+01,-2.234719808499555427e+00
2.000000000000078515e+01,3.000000004495186445e+00,9.999999999974216180e+00,6.600000000000780798e-01,1.569999999999629692e+00,2.869999999999972715e+03,-2.175000000000354650e+00,-4.945000000000452367e+00,1.340924235797664110e+01,-2.206353014111438249e+00
2.000000000000250466e+01,3.000000003223569855e+00,9.999999999988528288e+00,6.600000000002055334e-01,1.569999999998830331e+00,2.869999999999979082e+03,-2.175000000001068301e+00,-4.945000000001470220e+00,1.341908234317980586e+01,-2.172062375653299071e+00
2.000000000000116884e+01,3.000000003357316647e+00,9.999999999950700769e+00,6.600000000001269296e-01,1.569999999999472706e+00,2.869999999999964530e+03,-2.175000000000447020e+00,-4.945000000000822737e+00,1.341650933869706463e+01,-2.172764228826633559e+00
2.000000000000172307e+01,3.000000004078603677e+00,9.999999999965055508e+00,6.600000000001362555e-01,1.569999999999152962e+00,2.869999999999981810e+03,-2.175000000000812506e+00,-4.945000000000912443e+00,1.340533576732134868e+01,-2.189109107665372367e+00
1.999999999999879563e+01,3.000000001366554869e+00,9.999999999940499151e+00,6.599999999999219824e-01,1.570000000000626450e+00,2.869999999999983629e+03,-2.174999999999404299e+00,-4.944999999999406981e+00,1.341412816322221246e+01,-2.192806594459797420e+00
1.999999999999921840e+01,3.000000001631006441e+00,9.999999999956692420e+00,6.599999999999325295e-01,1.570000000000407514e+00,2.869999999999984539e+03,-2.174999999999641886e+00,-4.944999999999581064e+00,1.341031611079194086e+01,-2.195976938917099996e+00
1.999999999999921840e+01,3.000000001708069686e+00,1.000000000001479172e+01,6.599999999999404121e-01,1.570000000000476348e+00,2.869999999999996817e+03,-2.174999999999552625e+00,-4.944999999999605045e+00,1.341994650798047672e+01,-2.178463415574603435e+00
1.999999999999920419e+01,3.000000002140592148e+00,9.999999999963824493e+00,6.599999999999444089e-01,1.570000000000436602e+00,2.869999999999999545e+03,-2.174999999999573941e+00,-4.944999999999494911e+00,1.342050373026372867e+01,-2.175340473779441286e+00
1.999999999999917932e+01,3.000000002048154091e+00,1.000000000003052492e+01,6.599999999999232037e-01,1.570000000000480123e+00,2.869999999999999545e+03,-2.174999999999521538e+00,-4.944999999999423856e+00,1.341485863671574918e+01,-2.193699158708040997e+00
2.000000000000256506e+01,3.000000006522736129e+00,9.999999999999197087e+00,6.600000000001922107e-01,1.569999999998951790e+00,2.869999999999987267e+03,-2.175000000000961276e+00,-4.945000000001322782e+00,1.339416964953891487e+01,-2.186614945767257012e+00
2.000000000000051514e+01,3.000000003601705600e+00,1.000000000002357758e+01,6.600000000000360023e-01,1.569999999999916795e+00,2.869999999999989996e+03,-2.175000000000037570e+00,-4.945000000000222329e+00,1.338039208763392374e+01,-2.194422877076785294e+00
1.999999999999982236e+01,3.000000001039585307e+00,9.999999999941282525e+00,6.599999999999717204e-01,1.570000000000225882e+00,2.869999999999997726e+03,-2.174999999999773337e+00,-4.944999999999713403e+00,1.340152389192124716e+01,-2.183713662243535580e+00
2.000000000000054001e+01,3.000000003281235283e+00,1.000000000002505907e+01,6.600000000000280087e-01,1.569999999999781570e+00,2.869999999999999091e+03,-2.175000000000202771e+00,-4.945000000000317364e+00,1.340809561680560336e+01,-2.198452308384652998e+00
2.000000000000079581e+01,3.000000000199911199e+00,1.000000000002544986e+01,6.600000000000471045e-01,1.569999999999798446e+00,2.869999999999994088e+03,-2.175000000000160583e+00,-4.945000000000320917e+00,1.340985782621103617e+01,-2.177385129827075883e+00
2.000000000000090239e+01,3.000000001745516176e+00,1.000000000009121770e+01,6.600000000000618705e-01,1.569999999999696749e+00,2.870000000000004547e+03,-2.175000000000255174e+00,-4.945000000000447038e+00,1.339068521037394000e+01,-2.165924166114332028e+00
2.000000000000177636e+01,3.000000003297706996e+00,1.000000000008518342e+01,6.600000000001164935e-01,1.569999999999273310e+00,2.870000000000002728e+03,-2.175000000000679279e+00,-4.945000000000876916e+00,1.341125663089406572e+01,-2.150377623304414065e+00
1.999999999999779376e+01,3.000000001445342956e+00,1.000000000004027534e+01,6.599999999998017453e-01,1.570000000001120721e+00,2.869999999999994998e+03,-2.174999999998970868e+00,-4.944999999998668017e+00,1.341295620136423139e+01,-2.212075895087395772e+00
2.000000000000077804e+01,3.000000004836836265e+00,1.000000000002735590e+01,6.600000000000353362e-01,1.569999999999655893e+00,2.870000000000001364e+03,-2.175000000000370193e+00,-4.945000000000241869e+00,1.339842568591629934e+01,-2.148838105222657724e+00
1.999999999999909761e+01,3.000000001128669602e+00,9.999999999963520736e+00,6.599999999999709432e-01,1.570000000000449480e+00,2.869999999999982265e+03,-2.174999999999512657e+00,-4.944999999999686757e+00,1.340479715153656670e+01,-2.162537798078956186e+00
1.999999999999779021e+01,2.999999999704189513e+00,1.000000000010245493e+01,6.599999999998095168e-01,1.570000000001030349e+00,2.870000000000008185e+03,-2.174999999999051248e+00,-4.944999999998755946e+00,1.341548677962791203e+01,-2.183423463307483825e+00
1.999999999999812061e+01,2.999999999368355930e+00,1.000000000001585398e+01,6.599999999998605871e-01,1.570000000000899121e+00,2.869999999999997272e+03,-2.174999999999133848e+00,-4.944999999998907825e+00,1.339785806764948184e+01,-2.169532989784182408e+00
1.999999999999802824e+01,2.999999999713702792e+00,1.000000000003336531e+01,6.599999999998327205e-01,1.570000000000911555e+00,2.870000000000001364e+03,-2.174999999999136513e+00,-4.944999999998790585e+00,1.339801806013639407e+01,-2.186162978527604661e+00
1.999999999999955591e+01,3.000000003408183513e+00,1.000000000001005773e+01,6.599999999999837108e-01,1.570000000000251195e+00,2.869999999999992269e+03,-2.174999999999723155e+00,-4.944999999999782681e+00,1.341629158202208139e+01,-2.161760601092860501e+00
2.000000000000055778e+01,3.000000003363346490e+00,1.000000000000460432e+01,6.600000000000348921e-01,1.569999999999823315e+00,2.869999999999965894e+03,-2.175000000000170797e+00,-4.945000000000259632e+00,1.340255462967617461e+01,-2.178241886544152184e+00
2.000000000000135358e+01,3.000000004155475963e+00,1.000000000000174616e+01,6.600000000001365885e-01,1.569999999999347695e+00,2.869999999999997272e+03,-2.175000000000564704e+00,-4.945000000000923990e+00,1.338686238074808621e+01,-2.177290303824155782e+00
2.000000000000099831e+01,3.000000001339486300e+00,1.000000000004386180e+01,6.600000000000725286e-01,1.569999999999569074e+00,2.869999999999998181e+03,-2.175000000000390177e+00,-4.945000000000645990e+00,1.340562891282212554e+01,-2.183631805394695036e+00
2.000000000000031619e+01,3.000000001841790276e+00,1.000000000002046185e+01,6.600000000000126876e-01,1.569999999999774465e+00,2.869999999999994088e+03,-2.175000000000242295e+00,-4.945000000000256968e+00,1.339768022405199233e+01,-2.175138720550401583e+00
1.999999999999954525e+01,3.000000003712327779e+00,1.000000000002091838e+01,6.599999999999510703e-01,1.570000000000170370e+00,2.870000000000007276e+03,-2.174999999999869260e+00,-4.944999999999634355e+00,1.340866887910799399e+01,-2.157320613965854950e+00
1.999999999999958078e+01,3.000000000549382762e+00,1.000000000000318146e+01,6.599999999999860423e-01,1.570000000000186802e+00,2.869999999999968622e+03,-2.174999999999803979e+00,-4.944999999999916795e+00,1.339520909121835679e+01,-2.195266889473156180e+00
1.999999999999918643e+01,2.999999999028474473e+00,1.000000000000317257e+01,6.599999999999619504e-01,1.570000000000449258e+00,2.869999999999986358e+03,-2.174999999999525979e+00,-4.944999999999623697e+00,1.340663394325001789e+01,-2.171949661006116639e+00
2.000000000000071765e+01,3.000000001000608485e+00,9.999999999972891018e+00,6.600000000000889600e-01,1.569999999999619700e+00,2.870000000000003183e+03,-2.175000000000350209e+00,-4.945000000000528750e+00,1.339111105564154869e+01,-2.159536672192664764e+00
1.999999999999940670e+01,3.000000002263646603e+00,1.000000000000233058e+01,6.599999999999578426e-01,1.570000000000304041e+00,2.869999999999989996e+03,-2.174999999999714273e+00,-4.944999999999667217e+00,1.341453037956393857e+01,-2.168230842332921071e+00
2.000000000000113687e+01,3.000000002471640226e+00,1.000000000002781064e+01,6.600000000001068345e-01,1.569999999999524887e+00,2.869999999999986812e+03,-2.175000000000422595e+00,-4.945000000000645990e+00,1.339983038148520578e+01,-2.167421131461160222e+00
2.000000000000020250e+01,3.000000000479967621e+00,9.999999999992200017e+00,6.600000000000159073e-01,1.569999999999974305e+00,2.869999999999988631e+03,-2.175000000000021139e+00,-4.945000000000063345e+00,1.338639973223797242e+01,-2.188402228573948616e+00
1.999999999999959854e+01,3.000000001703125196e+00,9.999999999949704232e+00,6.599999999999780487e-01,1.570000000000247642e+00,2.870000000000000000e+03,-2.174999999999749800e+00,-4.944999999999655671e+00,1.341088146597577158e+01,-2.163758516013097211e+00
1.999999999999918288e+01,2.999999998500354703e+00,9.999999999987524646e+00,6.599999999999500711e-01,1.570000000000514317e+00,2.870000000000003183e+03,-2.174999999999454037e+00,-4.944999999999538431e+00,1.341939207008791080e+01,-2.171767849135725736e+00
1.999999999999788969e+01,3.000000001659324678e+00,1.000000000000144063e+01,6.599999999998350519e-01,1.570000000001182672e+00,2.869999999999997272e+03,-2.174999999998855849e+00,-4.944999999998765716e+00,1.341586058378879365e+01,-2.214237404466259829e+00
2.000000000000214584e+01,3.000000002527868137e+00,1.000000000000631317e+01,6.600000000001480238e-01,1.569999999999097451e+00,2.869999999999987267e+03,-2.175000000000843592e+00,-4.945000000001051887e+00,1.339797508170997098e+01,-2.208437975948690291e+00
2.000000000000119371e+01,3.000000001640632519e+00,1.000000000003614176e+01,6.600000000000841860e-01,1.569999999999532880e+00,2.869999999999992724e+03,-2.175000000000427924e+00,-4.945000000000574047e+00,1.339762497657868501e+01,-2.203045840788516063e+00
2.000000000000064659e+01,3.000000001368406721e+00,9.999999999984110488e+00,6.600000000000323386e-01,1.569999999999798224e+00,2.870000000000003183e+03,-2.175000000000155698e+00,-4.945000000000258744e+00,1.341268197522290073e+01,-2.214055675192347916e+00
2.000000000000088463e+01,3.000000003058111098e+00,9.999999999953326224e+00,6.600000000000794120e-01,1.569999999999419193e+00,2.869999999999988177e+03,-2.175000000000550937e+00,-4.945000000000612239e+00,1.341806789512499165e+01,-2.150683992484478946e+00
2.000000000000190070e+01,3.000000002396642440e+00,1.000000000000257572e+01,6.600000000001308154e-01,1.569999999998961115e+00,2.869999999999993634e+03,-2.175000000001015898e+00,-4.945000000001082086e+00,1.339110424972023061e+01,-2.157954830434859694e+00
2.000000000000099476e+01,3.000000000672804479e+00,1.000000000000539124e+01,6.600000000000868505e-01,1.569999999999433404e+00,2.869999999999994088e+03,-2.175000000000525624e+00,-4.945000000000666418e+00,1.340099331008726757e+01,-2.190002804617572352e+00
2.000000000000060751e+01,3.000000000465867789e+00,9.999999999992711608e+00,6.600000000000286748e-01,1.569999999999734053e+00,2.869999999999982265e+03,-2.175000000000267608e+00,-4.945000000000296936e+00,1.342876136047799207e+01,-2.190276205454916081e+00
1.999999999999986144e+01,3.000000002626605600e+00,9.999999999959941377e+00,6.600000000000143530e-01,1.569999999999882379e+00,2.869999999999968168e+03,-2.175000000000114397e+00,-4.945000000000155715e+00,1.340360444602620049e+01,-2.164658329707511264e+00
2.000000000000152056e+01,3.000000004038867907e+00,9.999999999992381206e+00,6.600000000001192690e-01,1.569999999999074580e+00,2.869999999999979536e+03,-2.175000000000896883e+00,-4.945000000000976392e+00,1.339792626270966736e+01,-2.161465309542797364e+00
1.999999999999985434e+01,3.000000000878895179e+00,9.999999999973869791e+00,6.599999999999963674e-01,1.570000000000154827e+00,2.869999999999995907e+03,-2.174999999999780442e+00,-4.945000000000071338e+00,1.342512880616258641e+01,-2.180516495802235610e+00
2.000000000000184741e+01,3.000000003918341651e+00,9.999999999995907274e+00,6.600000000001271516e-01,1.569999999999177831e+00,2.870000000000009550e+03,-2.175000000000754330e+00,-4.945000000000837836e+00,1.339915026230293549e+01,-2.160513306130621647e+00
2.000000000000198241e+01,3.000000003029180462e+00,9.999999999981005416e+00,6.600000000001573497e-01,1.569999999999141194e+00,2.869999999999990905e+03,-2.175000000000757439e+00,-4.945000000001049223e+00,1.340424893159635822e+01,-2.160158665961801727e+00
1.999999999999944933e+01,3.000000000353403085e+00,9.999999999978610887e+00,6.599999999999562883e-01,1.570000000000214113e+00,2.869999999999990905e+03,-2.174999999999805311e+00,-4.944999999999685869e+00,1.340374094282761952e+01,-2.173110672390820231e+00
1.999999999999740652e+01,2.999999999572048104e+00,1.000000000002532197e+01,6.599999999997949729e-01,1.570000000001213314e+00,2.869999999999989996e+03,-2.174999999998877609e+00,-4.944999999998588081e+00,1.339670390568014291e+01,-2.228159426487234196e+00
1.999999999999702993e+01,2.999999999661766559e+00,1.000000000000852651e+01,6.599999999997671063e-01,1.570000000001343210e+00,2.869999999999995907e+03,-2.174999999998759481e+00,-4.944999999998402451e+00,1.340810593649717575e+01,-2.226665975724424928e+00
2.000000000000054001e+01,3.000000003145718797e+00,9.999999999992951416e+00,6.600000000000539879e-01,1.569999999999811102e+00,2.869999999999995453e+03,-2.175000000000140599e+00,-4.945000000000345786e+00,1.341573112213318453e+01,-2.182676271562084214e+00
2.000000000000064659e+01,2.999999999317784827e+00,9.999999999972661868e+00,6.600000000000573186e-01,1.569999999999686979e+00,2.869999999999970441e+03,-2.175000000000286260e+00,-4.945000000000439044e+00,1.340500661313001807e+01,-2.197579999909226256e+00
2.000000000000051870e+01,3.000000002196250293e+00,1.000000000000304468e+01,6.600000000000444400e-01,1.569999999999829976e+00,2.870000000000001364e+03,-2.175000000000112621e+00,-4.945000000000304041e+00,1.343041078738156990e+01,-2.166443561460489775e+00
2.000000000000085265e+01,3.000000003940084259e+00,9.999999999977260856e+00,6.600000000000790790e-01,1.569999999999675433e+00,2.869999999999979536e+03,-2.175000000000281819e+00,-4.945000000000478124e+00,1.342503886432984395e+01,-2.190481185984839652e+00
1.999999999999838707e+01,3.000000000964858415e+00,9.999999999995290878e+00,6.599999999998815703e-01,1.570000000000709717e+00,2.869999999999989086e+03,-2.174999999999335909e+00,-4.944999999999229345e+00,1.341572882423532143e+01,-2.189755994868039402e+00
1.999999999999868550e+01,3.000000002577870362e+00,1.000000000002478373e+01,6.599999999998807931e-01,1.570000000000591811e+00,2.869999999999999545e+03,-2.174999999999485567e+00,-4.944999999999301288e+00,1.341932431942379189e+01,-2.198729496444830733e+00
1.999999999999866773e+01,3.000000004566896195e+00,1.000000000003483613e+01,6.599999999998653610e-01,1.570000000000619567e+00,2.870000000000001364e+03,-2.174999999999486011e+00,-4.944999999999164508e+00,1.341971656083502928e+01,-2.207589966938512394e+00
1.999999999999914024e+01,3.000000002767754026e+00,1.000000000000406430e+01,6.599999999999428546e-01,1.570000000000438600e+00,2.869999999999993634e+03,-2.174999999999580158e+00,-4.944999999999587281e+00,1.339992491465941526e+01,-2.215834998717807647e+00
1.999999999999996447e+01,3.000000002514890962e+00,9.999999999988080646e+00,6.600000000000063594e-01,1.570000000000101092e+00,2.869999999999991815e+03,-2.174999999999895017e+00,-4.945000000000002949e+00,1.338464796989256556e+01,-2.214809436319741476e+00
1.999999999999906564e+01,3.000000001161022833e+00,9.999999999982607690e+00,6.599999999999494049e-01,1.570000000000562723e+00,2.870000000000001364e+03,-2.174999999999413181e+00,-4.944999999999559748e+00,1.342068611645894549e+01,-2.189824147499972007e+00
1.999999999999853273e+01,3.000000000192887928e+00,9.999999999962332353e+00,6.599999999998910072e-01,1.570000000000604468e+00,2.869999999999989086e+03,-2.174999999999440714e+00,-4.944999999999268425e+00,1.340667089078041485e+01,-2.209233136683040666e+00
2.000000000000149569e+01,3.000000001965831053e+00,9.999999999954336971e+00,6.600000000001046141e-01,1.569999999999510010e+00,2.869999999999997726e+03,-2.175000000000411493e+00,-4.945000000000666418e+00,1.341810727246335588e+01,-2.168104192299017186e+00
2.000000000000116174e+01,3.000000001364492963e+00,9.999999999939596762e+00,6.600000000000735279e-01,1.569999999999634133e+00,2.869999999999975898e+03,-2.175000000000332001e+00,-4.945000000000426610e+00,1.342834957774870297e+01,-2.141174758219589247e+00
1.999999999999751665e+01,2.999999999549292973e+00,1.000000000005029577e+01,6.599999999998292788e-01,1.570000000001102514e+00,2.870000000000000909e+03,-2.174999999998947775e+00,-4.944999999998718643e+00,1.338646269091384688e+01,-2.165534002849113460e+00
2.000000000000022737e+01,3.000000002434549007e+00,1.000000000005150547e+01,6.600000000000030287e-01,1.569999999999922569e+00,2.869999999999991815e+03,-2.175000000000061107e+00,-4.945000000000079332e+00,1.338381839145208119e+01,-2.149661833396964816e+00
1.999999999999781508e+01,2.999999998293822134e+00,1.000000000000315836e+01,6.599999999998222844e-01,1.570000000001038121e+00,2.870000000000002728e+03,-2.174999999999049916e+00,-4.944999999998745288e+00,1.341781894759988170e+01,-2.189494942134293964e+00
2.000000000000015632e+01,3.000000002228382368e+00,9.999999999985606181e+00,6.600000000000120215e-01,1.569999999999982965e+00,2.869999999999996362e+03,-2.175000000000009592e+00,-4.945000000000094431e+00,1.341005151661443051e+01,-2.182777383237556101e+00
2.000000000000087752e+01,3.000000000888471074e+00,1.000000000002696510e+01,6.600000000000532108e-01,1.569999999999593943e+00,2.869999999999996362e+03,-2.175000000000395506e+00,-4.945000000000470131e+00,1.340738188107249051e+01,-2.150097683201434240e+00
1.999999999999932498e+01,3.000000001822950679e+00,1.000000000004310152e+01,6.599999999999375255e-01,1.570000000000347784e+00,2.870000000000001819e+03,-2.174999999999690292e+00,-4.944999999999502904e+00,1.340134513827695528e+01,-2.148484189615762041e+00
1.999999999999921130e+01,3.000000003559744055e+00,9.999999999989222843e+00,6.599999999999154321e-01,1.570000000000388418e+00,2.869999999999996362e+03,-2.174999999999684519e+00,-4.944999999999405205e+00,1.340372261806025556e+01,-2.157771566684630660e+00
1.999999999999909051e+01,3.000000000775734144e+00,1.000000000000803979e+01,6.599999999999284217e-01,1.570000000000407514e+00,2.869999999999997272e+03,-2.174999999999585043e+00,-4.944999999999438955e+00,1.341466773028694526e+01,-2.150801046861044785e+00
2.000000000000131095e+01,3.000000004459661529e+00,9.999999999943625539e+00,6.600000000001140510e-01,1.569999999999384777e+00,2.869999999999973170e+03,-2.175000000000582911e+00,-4.945000000000762341e+00,1.341195638805660195e+01,-2.188720160239187695e+00
1.999999999999872813e+01,3.000000000837192093e+00,1.000000000000911804e+01,6.599999999999169864e-01,1.570000000000651985e+00,2.869999999999983629e+03,-2.174999999999366551e+00,-4.944999999999284412e+00,1.339743502136814790e+01,-2.164541840270458817e+00
2.000000000000312994e+01,3.000000005545824244e+00,1.000000000001302425e+01,6.600000000002429479e-01,1.569999999998750617e+00,2.869999999999980446e+03,-2.175000000001135803e+00,-4.945000000001646967e+00,1.341007980948623235e+01,-2.179428374738133556e+00
2.000000000000217426e+01,3.000000002440327940e+00,1.000000000000512301e+01,6.600000000001704503e-01,1.569999999999144302e+00,2.869999999999955890e+03,-2.175000000000780087e+00,-4.945000000001163798e+00,1.338612245938586476e+01,-2.193992192229957450e+00
2.000000000000204992e+01,3.000000002650638820e+00,1.000000000000686562e+01,6.600000000001345901e-01,1.569999999999199369e+00,2.869999999999964530e+03,-2.175000000000752554e+00,-4.945000000001050999e+00,1.338581245095540773e+01,-2.186571346257129900e+00
1.999999999999824496e+01,3.000000001802962668e+00,9.999999999970592413e+00,6.599999999999132116e-01,1.570000000000664420e+00,2.869999999999982720e+03,-2.174999999999347899e+00,-4.944999999999314610e+00,1.340923940350826271e+01,-2.196968336134675237e+00
2.000000000000126121e+01,3.000000000777140574e+00,9.999999999946052043e+00,6.600000000001043921e-01,1.569999999999422080e+00,2.869999999999972715e+03,-2.175000000000508749e+00,-4.945000000000758789e+00,1.339639718699658921e+01,-2.185962553991897206e+00
2.000000000000123279e+01,3.000000001006041472e+00,9.999999999937092099e+00,6.600000000001232658e-01,1.569999999999305951e+00,2.869999999999974534e+03,-2.175000000000648193e+00,-4.945000000000828067e+00,1.340334755012793977e+01,-2.176078871934229220e+00
2.000000000000060396e+01,2.999999999940476947e+00,9.999999999942788875e+00,6.600000000000710854e-01,1.569999999999675433e+00,2.869999999999995453e+03,-2.175000000000293809e+00,-4.945000000000404405e+00,1.340625884566280313e+01,-2.170274111312685328e+00
