5.819223587099078658e-03
6.250657882986602847e-03
5.756753914197835359e-03
6.284331252988785942e-03
6.287942889067935082e-03
5.890612829499040567e-03
6.283652054854483616e-03
6.164160727086765053e-03
6.276985725166310363e-03
6.286990313684576691e-03
6.087469069752075509e-03
6.109546829606390082e-03
6.284477705086493650e-03
6.289504620277996082e-03
6.289895159205218661e-03
6.244175361293525725e-03
6.289974540487165700e-03
6.280270921642162017e-03
6.172832389266463306e-03
6.142837301660359836e-03
6.248786692126601788e-03
5.754578782172733477e-03
5.988401229882812406e-03
6.147853179882178595e-03
6.194858784761871073e-03
6.127852068323491434e-03
6.238283317478458302e-03
6.288628879183579337e-03
6.262547670826389482e-03
6.243487673182545120e-03
6.263670045743323887e-03
6.287711961702272152e-03
6.275549221112262238e-03
6.261491093228716519e-03
6.231733300470784255e-03
5.904589878105303766e-03
5.767430908869060346e-03
6.289600132515631506e-03
6.258531062859663124e-03
6.153664144419964364e-03
6.217143275548313829e-03
6.091367667042967178e-03
5.946662382035796356e-03
6.037509801985837914e-03
5.968522373988299941e-03
6.258379516775947234e-03
5.745612942301116244e-03
6.047783947263654820e-03
6.289670174823231222e-03
6.146964703822744430e-03
6.287365570653778192e-03
6.055321773057903076e-03
6.268406603732411091e-03
6.221895964493091152e-03
6.112205890302181699e-03
6.194726341125681747e-03
6.289838700860305408e-03
6.109923784570927066e-03
5.925794443858207854e-03
6.287516692238661296e-03
5.672139410626515083e-03
6.287630457926155977e-03
6.040910462144519731e-03
5.960757016819060589e-03
5.551838139083642085e-03
5.498566931415015298e-03
6.071470557698596324e-03
6.033907929379868015e-03
6.110696796947529333e-03
5.949659768302236439e-03
6.263703156652370568e-03
6.288651377621779469e-03
5.742515798808698994e-03
6.145516738300179846e-03
6.025782172700614586e-03
5.868943013024142258e-03
5.988446651258044588e-03
6.269852022261972017e-03
5.706016115570154527e-03
6.199957864755141490e-03
6.283622764434941554e-03
6.182286827295944802e-03
6.263060040918953970e-03
6.287523484220004094e-03
6.284465394620309883e-03
6.204400245052309713e-03
6.231024387418107081e-03
6.289471933867782187e-03
6.271142498717146088e-03
6.245637335277610426e-03
6.225625186749242194e-03
6.289045312539673881e-03
6.221777104819587421e-03
6.274909925868350259e-03
6.012805243347111098e-03
6.281532107677793159e-03
6.258655865516841478e-03
6.227326578075668105e-03
6.074086744012160283e-03
6.105463575322734107e-03
6.139001530196889697e-03
6.289846341839316381e-03
6.287550652145376152e-03
6.281877649728619811e-03
6.284052781753720826e-03
5.958571272323111290e-03
6.030968274954843882e-03
6.122975425719203932e-03
6.261345490128676118e-03
5.797514292232623656e-03
5.771076080356091556e-03
5.734537343224823183e-03
6.248467893502313540e-03
6.288410262284101042e-03
6.205455973652314501e-03
6.272343405918357623e-03
6.289395099578838806e-03
6.092039224198258530e-03
6.165737740254847131e-03
6.163819430024278408e-03
6.180447898347322250e-03
6.243336551597663750e-03
6.272666449530985011e-03
6.254015244264224220e-03
5.673180706266166967e-03
6.004643404266972809e-03
6.185042673725874539e-03
6.132214642839879833e-03
6.209254389218398819e-03
6.271774152982046227e-03
6.289975389484833874e-03
6.165612088600000602e-03
6.255904688574085402e-03
6.285752050585978468e-03
6.241779489874776411e-03
6.128796153730171545e-03
5.840981274832604021e-03
5.779265936359269211e-03
6.273183913609556815e-03
6.173301884976799270e-03
6.286010145877012588e-03
6.095826602794659176e-03
6.254954235684896148e-03
6.185722296359009650e-03
6.278479112064107130e-03
6.204887145214837627e-03
6.289877330254193058e-03
6.289975389484833874e-03
5.923871888639299123e-03
6.220665766872336688e-03
5.563995361188810163e-03
6.272939402281208290e-03
5.852108238267803887e-03
5.749970422831495592e-03
6.163666185945226167e-03
5.940147598431340728e-03
6.277458192368485373e-03
5.980534417492262139e-03
6.258975088639962513e-03
6.289923600627092548e-03
6.231374174457272874e-03
6.272366328855390541e-03
6.195173338397820181e-03
