6.044661281724395333e-03
6.018269686638996231e-03
5.978942815853885429e-03
5.746972074312521779e-03
5.581777789355039238e-03
6.146360220538197965e-03
6.152246130899294112e-03
6.153875386376806908e-03
6.151900860986900775e-03
6.137727635710388784e-03
5.816695252657812405e-03
4.872649469502489568e-03
5.165055419491263768e-03
5.698404525144803306e-03
6.108478879786308560e-03
6.086175280463650659e-03
5.771888425226784532e-03
6.050789508787643087e-03
6.157071958002095259e-03
6.140378471619602034e-03
6.063507578324286128e-03
5.939761586195457625e-03
6.139691698375677673e-03
6.125436863847144586e-03
5.970818719442509172e-03
5.975778887929405515e-03
5.209995332779433601e-03
5.663383693303472056e-03
5.655637929014282854e-03
6.093494165588425431e-03
6.084808848628541281e-03
5.544088544227135547e-03
6.157053543606767244e-03
6.154206008474736277e-03
6.077738976349673916e-03
5.362071035101896588e-03
5.282095223648946257e-03
6.083826189532419784e-03
6.107687897805189232e-03
6.158665221706922585e-03
6.146175658075936875e-03
6.147816213296037474e-03
6.136102983831707124e-03
5.582610622234631011e-03
5.628204665065917635e-03
5.975729085360224034e-03
5.863576210617111976e-03
6.112697450352281778e-03
6.052921812064789714e-03
6.129147364505668424e-03
6.148971298093863433e-03
6.087268844440722054e-03
5.827197317120365663e-03
5.766033903039542718e-03
6.106075801196049480e-03
6.052203650647011018e-03
5.864885306721314383e-03
6.115021012235445294e-03
6.099288422481867651e-03
5.269597289838266231e-03
4.850183907202745316e-03
5.689828439029930539e-03
5.738714473535020018e-03
6.133591929923389897e-03
5.800241153414579902e-03
5.748876708701979900e-03
6.100505865118416998e-03
5.684120813496325829e-03
5.431113717838033372e-03
5.748130088673241225e-03
6.112149203582299337e-03
6.132833591643078140e-03
6.085148259415148510e-03
6.058564987214748107e-03
5.573852066202420949e-03
5.349656384579176173e-03
5.978771227170150658e-03
5.675644332519816024e-03
6.138264582737784289e-03
6.153521746284719256e-03
6.156912924587901528e-03
6.132704272366799360e-03
5.692010963385243059e-03
5.514103212489950348e-03
5.739177344472119920e-03
5.985447282494396441e-03
5.702870853029730694e-03
5.424211249153054921e-03
5.772670618519225132e-03
5.979016473435195753e-03
5.930316675428306747e-03
6.144940219553044793e-03
6.130423398400078848e-03
6.087251267063364599e-03
6.123498330229923924e-03
6.075702511630027940e-03
6.013325840002504107e-03
6.054807195040950996e-03
5.831283220338181333e-03
5.475906734472566102e-03
6.118247297998647728e-03
6.155499201237518876e-03
5.995743440536467107e-03
5.624844037918619137e-03
5.613301560120053865e-03
5.435983906893216040e-03
5.576606692339843886e-03
5.897410569486762934e-03
6.156314038230768781e-03
6.153241345264956648e-03
6.085452933956025240e-03
6.025191406737273256e-03
6.137967859867617462e-03
6.094634602571786554e-03
5.925547765547427292e-03
6.146434715137477980e-03
6.118695102612298382e-03
6.092067886968501739e-03
6.087752222318073766e-03
6.153026231646810916e-03
6.155299153942822392e-03
6.012415164451754418e-03
5.564950380097435229e-03
5.717024408383960567e-03
6.006705446373225912e-03
6.139494580643874676e-03
6.149416591653605012e-03
6.119260508250653867e-03
6.035261151418609520e-03
6.020626310731951730e-03
6.119514961713362969e-03
6.009570977391600483e-03
6.042130139384810708e-03
5.735283536878289963e-03
6.128037478678191943e-03
6.071061665498474029e-03
5.959498888423815990e-03
5.913874294436644724e-03
5.643282288258407928e-03
5.893367772694372078e-03
5.934783003313233267e-03
6.122398907127065554e-03
6.150192507311275959e-03
6.143047721924143299e-03
5.463908081880657595e-03
5.551471042717588678e-03
6.002817079396196784e-03
6.109005782598070367e-03
5.984028955545182653e-03
6.136948790489825216e-03
6.156065862402830199e-03
6.128349686380793297e-03
6.086417597165803134e-03
6.132479114533019929e-03
6.144109897727362095e-03
6.109755750698688676e-03
6.107002380088218975e-03
6.091103642267707390e-03
5.927013384011915222e-03
5.927987672928341535e-03
5.850156301513094459e-03
5.077751515715873791e-03
5.639486830275985962e-03
5.575670906250011251e-03
5.668433004204113251e-03
5.930544344315994386e-03
5.593128171529617061e-03
6.040179050498049006e-03
6.093836505937926147e-03
