4.654657276269814729e-03
6.028992541014075932e-03
4.251389517864735852e-03
3.655270125023808540e-03
4.204275144599355432e-03
6.379927222867483663e-03
6.645499557330446574e-03
9.099087870254521718e-03
6.473543114228893711e-03
3.526685261117679018e-03
8.133967021402170594e-03
9.051794621773455798e-03
7.907295895238005204e-03
4.026609789550806250e-03
5.990676262218043620e-03
6.060045504881244466e-03
3.823564154690300716e-03
9.606328923332569172e-03
5.201859203481352077e-03
8.455320497492141776e-03
3.550559819177353128e-03
8.624075300657263118e-03
7.300138316619072393e-03
7.446332200175571382e-03
3.892868111673516204e-03
4.840929019860353705e-03
8.499679286738684447e-03
5.336100901740038413e-03
9.375047797938863489e-03
5.388429072431363993e-03
7.648944987204030731e-03
7.742862022915897140e-03
8.219779575822807813e-03
5.468703665269362274e-03
8.330223322917988671e-03
6.866288934313892652e-03
8.269743121827466056e-03
4.372615213878322873e-03
6.898230613651393575e-03
5.210772019608015532e-03
9.805032117039313988e-03
7.442297318728104301e-03
5.958879117073806637e-03
8.040581328103138178e-03
9.879559683169166634e-03
5.225483940037263693e-03
6.054441502870873230e-03
4.326643151325765095e-03
9.591313971683499903e-03
8.005047049497036188e-03
6.524508965239583617e-03
8.626887490757014637e-03
9.489713603922396781e-03
7.788105376520170105e-03
5.174114676356602292e-03
7.523358736090790706e-03
7.223173670018985873e-03
9.349513172212950765e-03
7.693072068892703626e-03
6.223154794909991835e-03
9.236439129224687308e-03
6.328591922835368616e-03
3.519726486904126324e-03
6.341924919133580529e-03
6.123137510545085226e-03
5.356883635660253384e-03
5.507532040410719788e-03
4.520115943156163309e-03
6.093340069552563402e-03
6.710760330640993393e-03
4.391122005971969354e-03
6.107753864622336888e-03
6.401045064786702217e-03
7.003257536177088551e-03
6.586371864199869371e-03
7.962924577820423150e-03
6.591123756005566256e-03
9.007570932373358541e-03
5.962013207087014585e-03
9.263800244494720462e-03
9.268323447733529258e-03
5.804505277451529367e-03
8.763981380745963085e-03
7.917062331064834285e-03
9.035256589173958075e-03
7.663949372384662798e-03
8.526831336883212639e-03
7.739567549006769014e-03
9.273774990699309301e-03
9.151438683378211245e-03
6.986303637569818252e-03
8.986575359588910850e-03
9.973443509980231894e-03
6.792708576604648309e-03
9.451358078243599081e-03
8.924236214801211861e-03
7.657724967727485253e-03
4.927836713259718324e-03
5.713063814344917883e-03
3.451448986854796855e-03
5.440907815297918622e-03
6.280299010965382719e-03
5.303054649076991561e-03
9.207584368166299091e-03
1.002220398807855857e-02
8.020827315360046575e-03
5.336751871670535920e-03
1.023020265501893740e-02
9.858879594942341132e-03
6.963919328933642315e-03
7.325285756751540728e-03
9.281373791001050130e-03
9.041102865210636289e-03
3.969159145910740837e-03
5.234692617280165342e-03
5.023542501128431918e-03
4.824855911872086810e-03
5.211410158826839355e-03
5.951765619572424969e-03
3.553835047018970728e-03
3.998061456077094296e-03
4.395610490814484857e-03
3.379592850370157376e-03
4.821133495991258497e-03
7.356881006873856529e-03
1.001555616993615207e-02
1.027795931861574287e-02
9.966080945722835538e-03
7.425987219947748595e-03
6.261706932376495151e-03
9.834297460871254878e-03
9.947057528797391759e-03
9.630136686216766648e-03
9.575130670524390625e-03
7.222055888607893659e-03
7.678322788450052221e-03
8.418446541637767191e-03
7.660920569681952536e-03
7.058775270840916306e-03
5.830904466719916655e-03
7.432880331107442028e-03
7.407172113400064574e-03
6.894855381733496456e-03
