6.732237572673592865e-03
6.798335727184140129e-03
6.711819280049386403e-03
6.747916740213186389e-03
6.776270738855734443e-03
6.643344451326593098e-03
6.710453839420884269e-03
6.669079978978931407e-03
6.587398090951213092e-03
6.667787490319491278e-03
6.790314222309100367e-03
6.792179773920489945e-03
6.717014469644997689e-03
6.682978934946417170e-03
6.685613005728755116e-03
6.679681414181280232e-03
6.573283490798445365e-03
6.784903847345624336e-03
6.790416997410170588e-03
6.796874393715799170e-03
6.736654149115114260e-03
6.798349950524020142e-03
6.765963405616716268e-03
6.789389246399470113e-03
6.778440945231009943e-03
6.735699808890892142e-03
6.627787788036935621e-03
6.385039881570561682e-03
6.606662457775457423e-03
6.587257234004656806e-03
6.795987499651654114e-03
6.789789335185778506e-03
6.600669384694305905e-03
6.769083822859474527e-03
6.541861380098505131e-03
6.661937109454558852e-03
6.772810337908097104e-03
6.762832894390817355e-03
6.791903107018948567e-03
6.793330946815957436e-03
6.797056544229749045e-03
6.772275815619049205e-03
6.662949719490548345e-03
6.740911057096045378e-03
6.758161674283697830e-03
6.686090634658281226e-03
6.653729783526245341e-03
6.739052387745888932e-03
6.689227110510582303e-03
6.673392862684551612e-03
6.741341427831776603e-03
6.600322059910779075e-03
6.789252977627069537e-03
6.760163953484903468e-03
6.776717168201008487e-03
6.784484029410449250e-03
6.787070841998991445e-03
6.509531269733306695e-03
6.638803076548057368e-03
6.586818145738031378e-03
6.773689890893594412e-03
6.706222166397804788e-03
6.781944933833118291e-03
6.783069954135904044e-03
6.762681025826290312e-03
6.797082696822432518e-03
6.737353386856323630e-03
6.745149153562940772e-03
6.684479267895075162e-03
6.701231609369502976e-03
6.756014408779197414e-03
6.527436160555449320e-03
6.798446760998689067e-03
6.790754687027972247e-03
6.709818836117843570e-03
6.798235246170147329e-03
6.646948920942695113e-03
6.713683914025944145e-03
6.791676910033110463e-03
6.798484842844175133e-03
6.622726114309232873e-03
6.783573735658113626e-03
6.623639619783476019e-03
6.688094749129148801e-03
6.626641203315622106e-03
6.775087448741182183e-03
6.650686906426704799e-03
6.622563234126734207e-03
6.792421111881038163e-03
6.713902311115718148e-03
6.651561871238048131e-03
6.797981520139381034e-03
6.670356867846244202e-03
6.798385279465013302e-03
6.750670103523551124e-03
6.585401317558994133e-03
6.756124524958915384e-03
6.779843091252752557e-03
6.740239348399765067e-03
6.658839174265159325e-03
6.789811358421721753e-03
6.645890429165156321e-03
6.737249235303007823e-03
6.720601045381894949e-03
6.625291821296661922e-03
6.668845982097030070e-03
6.798481172304851258e-03
6.789536985607257796e-03
6.796039804837019326e-03
6.748888056681781426e-03
6.567885503905186544e-03
6.718521684854887079e-03
6.784930917573137911e-03
6.683108321457586348e-03
6.771248064608348730e-03
6.719200734629815139e-03
6.797394233847551571e-03
6.637223368186520589e-03
6.704645210940760915e-03
6.640077671328292741e-03
6.551816800379840766e-03
6.703142583905026368e-03
6.780887818507826820e-03
6.776944741639091309e-03
6.776171634293988097e-03
6.708421737087672150e-03
6.744389810740302957e-03
6.614229733409159907e-03
6.713784853857353296e-03
6.723607217088196746e-03
6.793181831155923299e-03
6.772312521012288818e-03
6.699153625294741558e-03
6.581595885914905651e-03
6.629494130005148672e-03
6.795096476230769698e-03
6.700237810847548339e-03
6.577349530734532407e-03
6.633436748056467831e-03
6.725483780317557080e-03
6.717537980316073964e-03
6.489953530614280507e-03
6.444010766348862856e-03
6.797282282398171664e-03
6.712256533046350761e-03
6.789459904281455564e-03
6.726122454159920785e-03
6.783889402039972906e-03
6.724024282118878926e-03
