4.851114820304160656e-03
4.350110413419324730e-03
4.596405211339327571e-03
4.564158631063234238e-03
4.371230080729877898e-03
3.507709063650348794e-03
3.815603302841489176e-03
5.622974923450077891e-03
3.781557266878019744e-03
4.479785208701385184e-03
5.539810510378183339e-03
5.346213243404247979e-03
5.447542052178500765e-03
5.080247917530035864e-03
5.421358756078745872e-03
5.624677871167733240e-03
5.510508563036456767e-03
5.443666155331600663e-03
5.599928136366220076e-03
5.313001963383592006e-03
5.405554626155521444e-03
4.792266236122677721e-03
5.513024229443998572e-03
5.622480985022377045e-03
5.609423912662438345e-03
5.629049606205517760e-03
5.567330479853822151e-03
5.574937511593042530e-03
5.629724402088282821e-03
5.611654994545097093e-03
5.622150046275818484e-03
5.478002855062139194e-03
5.493479845765171336e-03
5.368650586458851084e-03
5.400880828771567263e-03
5.466530565149845151e-03
5.529571166771956973e-03
5.373728653448247260e-03
4.891985185575263226e-03
5.143024452069646854e-03
4.936323758514096424e-03
5.383724827366990345e-03
4.714405961859011347e-03
5.442648262217900622e-03
4.496451071204628398e-03
4.720726473970391322e-03
4.289680846316563413e-03
5.287257892531854048e-03
5.561650567887905551e-03
5.576704671306299647e-03
5.620490413158745618e-03
5.296249091726545899e-03
5.578183826920943625e-03
5.361119165294331301e-03
5.307100159077847608e-03
5.583818144570457109e-03
5.310970736587834057e-03
5.420435851124220071e-03
5.558046337176240567e-03
5.556054245502061763e-03
5.466097039191379799e-03
5.470606697036283113e-03
5.475237939724928067e-03
5.467868758336277314e-03
5.319551586934897873e-03
5.583511522792646183e-03
5.617809467354243497e-03
5.568385228373280704e-03
5.460266665981332659e-03
5.553476646814739688e-03
5.276050809559972021e-03
5.608144232182058972e-03
5.541915068032823855e-03
5.564845209657215755e-03
5.565242260162559657e-03
5.572084067291482867e-03
5.558550154372494598e-03
5.616929877000299311e-03
5.588359338484206150e-03
5.614926766699656138e-03
5.615664634720112652e-03
5.611365090683301249e-03
5.555580064611469887e-03
5.610529194882577474e-03
5.610000300812301686e-03
4.648549911199008691e-03
5.266792883614322511e-03
5.302794155846210500e-03
5.105646611435021680e-03
4.883338223469415804e-03
5.075299034437116483e-03
4.443234145004202121e-03
5.324337850299312898e-03
4.047432923929971706e-03
4.406118091736257146e-03
4.601093066970840008e-03
4.073793277958425406e-03
4.251991064567212791e-03
4.569075978087308761e-03
4.503445239340864853e-03
4.960541179671604586e-03
4.439268199382406105e-03
5.627158201980062176e-03
5.553128230246892789e-03
5.626879696697366026e-03
5.393281776037715629e-03
5.149170945873421043e-03
5.619864251213475825e-03
5.565693263942314215e-03
5.599142774266176875e-03
5.572468199407178829e-03
5.565602075309507984e-03
5.617707260094972899e-03
5.534464196827283862e-03
5.575148385306407696e-03
5.629889681485244872e-03
5.620652272981975853e-03
5.568021233747329039e-03
5.572871709107345833e-03
5.615640317751365018e-03
5.628245246473638844e-03
5.616496351041833091e-03
5.465598161379402360e-03
5.544835004045805919e-03
4.278594208330512710e-03
4.591318405439288527e-03
4.563148337002269350e-03
3.589070981413772926e-03
4.233831228296494956e-03
5.574108834892416847e-03
5.328260101367890238e-03
5.279998137502570250e-03
5.118539164303270717e-03
4.562158180431047892e-03
4.364276567525767966e-03
5.467586453527214022e-03
4.221661725295870055e-03
5.429585110615775881e-03
4.005923478323951403e-03
5.569672887859031425e-03
5.544026844787560727e-03
5.527920652518164904e-03
5.570069178459101204e-03
5.570774370552803410e-03
5.558249991789507641e-03
5.565550021798281767e-03
5.603970832420627872e-03
5.556773875795957551e-03
5.511844096554431235e-03
5.464385352563078981e-03
5.428281873071921261e-03
5.493588892171902098e-03
4.772722612349124607e-03
5.009640179195556930e-03
5.351942549212933969e-03
5.213450573043787450e-03
4.824817538413397541e-03
5.051363538136035419e-03
4.892435429449744529e-03
5.312428614854822553e-03
4.880851813414899959e-03
5.481344538501849856e-03
5.308554997723743084e-03
4.979370112535537636e-03
5.583483786250167599e-03
4.822490708466293033e-03
5.336467838225721592e-03
5.402635450047812635e-03
5.519117909831272421e-03
5.515851077060990836e-03
5.564630916370121375e-03
5.594873626440299147e-03
5.594365629765041779e-03
5.629891581248427576e-03
5.540655904994824105e-03
5.532021861278623755e-03
5.556119977308210042e-03
5.554263148772693205e-03
5.556716882900453007e-03
5.556660269957586391e-03
5.561740236710165271e-03
5.614149763557620479e-03
5.625250459791229438e-03
5.612780794207616712e-03
5.619043553518220623e-03
5.627461024231505959e-03
5.584880872095286143e-03
5.628475117818837990e-03
5.466058284022436847e-03
5.497013785239049377e-03
