6.271264448326121371e-03
6.544437070379228658e-03
5.800298324449424531e-03
5.390834901412919732e-03
6.038082965051325482e-03
6.564315220291059953e-03
5.099500179804784643e-03
6.194469495022578674e-03
6.750041974848009635e-03
5.579187249627644285e-03
6.428906242197504964e-03
6.158081486664268057e-03
5.791186677614345961e-03
5.714165776808779844e-03
5.416609653495618910e-03
5.128685588509466868e-03
6.181127085817431088e-03
6.982098427852311689e-03
7.345607685558254787e-03
6.679781193171276804e-03
5.538706034901655362e-03
5.488926975862066376e-03
5.310286186021358906e-03
5.647875290242837694e-03
5.376448531064162949e-03
7.061127227871462526e-03
6.580415025863496289e-03
5.695106686591783554e-03
7.245981574017821419e-03
6.108839575968610935e-03
6.926174852021579377e-03
6.384436949455472854e-03
6.326402438166020027e-03
5.464772037237162691e-03
6.722031806969826738e-03
5.866385353658219899e-03
5.734109828075368079e-03
5.683210969031538343e-03
6.757292169924518713e-03
5.456075150515752106e-03
6.397361983413825913e-03
5.288012051140151930e-03
5.575400536862247687e-03
5.212594226940378897e-03
5.383677805075670099e-03
5.060109475592034639e-03
5.759833846575437150e-03
5.247992668924085329e-03
6.837156766490507832e-03
5.360249873459591204e-03
5.921849189085529215e-03
6.305323942149687090e-03
5.475656221304551693e-03
5.381954955372739678e-03
6.321055013951460549e-03
5.137875689338304401e-03
5.656190890554583378e-03
5.532280652812857254e-03
5.356538999554828762e-03
5.567027403621745835e-03
5.329371950596233087e-03
5.231299228132212792e-03
5.432078688958238456e-03
6.277895902905191068e-03
5.213243826008696555e-03
5.087693899797423973e-03
5.123922908061718205e-03
5.917239232412296358e-03
5.115415356978576800e-03
5.936702622210459669e-03
5.268891766808024568e-03
6.015577129375219989e-03
6.234632186533910214e-03
6.987100654494335893e-03
5.808806398559190551e-03
5.569287924695232733e-03
5.608064072623542874e-03
5.557081529319704560e-03
5.198220932257248753e-03
5.270563359901699399e-03
5.459224816851831336e-03
5.580321694377388120e-03
5.181876350224287262e-03
5.239477795468194116e-03
5.856980288886486259e-03
5.316814081328667327e-03
5.264447609574934156e-03
5.872064899779689748e-03
5.344574242480074587e-03
6.307259140662390545e-03
7.063156571176675523e-03
5.972584340795717567e-03
6.155634245085636787e-03
6.856892130133699671e-03
6.422450001537828579e-03
6.710575431774627210e-03
6.501680166807626005e-03
7.026224092101682368e-03
7.029019146385975456e-03
6.345277946037622234e-03
6.496306068235188635e-03
6.844451418830146440e-03
5.485472385003580149e-03
5.261385811711863023e-03
6.110783665933939776e-03
5.596479555905205239e-03
5.991217164313293077e-03
6.945720880026502037e-03
6.851365830813371111e-03
5.129333095471284333e-03
5.431215172000273053e-03
6.014236089108579951e-03
6.055556761567780326e-03
5.772289725651116345e-03
6.572035616303492991e-03
6.863111962758849938e-03
6.226857918779095044e-03
6.071806675781608528e-03
6.087169536839341991e-03
7.021056066019516588e-03
7.279701623561726960e-03
5.677591570971949470e-03
6.069280980209218294e-03
6.324323407331427886e-03
5.481434619458156951e-03
6.120039668117534248e-03
6.326541040221659098e-03
5.949323254673031212e-03
5.196614194465079897e-03
5.446993316198300850e-03
6.799939760931484993e-03
6.602285907216785474e-03
6.258299664344262915e-03
5.425936264273595322e-03
6.133297347009422293e-03
6.355067958405397413e-03
5.278802598326187180e-03
5.470784751318792140e-03
5.329590575725505833e-03
6.428033310760287826e-03
5.216574982583670542e-03
6.668487479256469432e-03
5.859359537003859530e-03
5.399483146658200401e-03
5.354124185626950479e-03
5.821079218316101145e-03
6.223956167063292126e-03
5.664950017444375131e-03
5.029595056233089785e-03
5.977555708866862626e-03
5.550963163859813643e-03
5.031018211679863690e-03
5.601100496137564541e-03
6.281553951120823209e-03
5.101794174582275493e-03
5.491222539719431937e-03
6.833764938827027388e-03
6.004322119430666183e-03
5.860952153077151651e-03
5.677889696148231274e-03
5.508454697935111916e-03
5.414210007339867459e-03
5.814606763831047832e-03
6.092871050079063863e-03
6.089308715735815107e-03
5.700580160222981814e-03
6.431491039778524342e-03
5.696031397664880896e-03
5.919912944519576531e-03
