5.962354494163503091e-03
6.051538018206779369e-03
5.813056849091354991e-03
5.838375101815120385e-03
5.945781584372039283e-03
6.175261178656568303e-03
6.059606993631557609e-03
6.219823082250354289e-03
6.150264380496491858e-03
6.145533196134209467e-03
6.190822290091439924e-03
6.051542676968571510e-03
5.913718291620190769e-03
6.130311750786398596e-03
6.251479792154848551e-03
5.989674320362888514e-03
5.977215097234287594e-03
6.036668944660008446e-03
6.208735652707773195e-03
6.119717726470033647e-03
6.016835325137526169e-03
5.944034548699814700e-03
5.990337135108834803e-03
6.271029650731780973e-03
6.274562262741967093e-03
6.023374532599134676e-03
6.089277376917207225e-03
6.223229060644541732e-03
6.165690811363177745e-03
6.000352625915319170e-03
6.082751722217176645e-03
6.061941033289648326e-03
6.226097587337383471e-03
6.171917458260882221e-03
5.943926973654786554e-03
6.055908783815833890e-03
5.912437132127227116e-03
6.270673043692748250e-03
6.251161302257753419e-03
6.147733825795513411e-03
6.106619829452047607e-03
6.240384739183878898e-03
6.221259674977670795e-03
6.273960858946922570e-03
6.256459161463535056e-03
6.094745492690317734e-03
6.042766416798918926e-03
6.228148713097523929e-03
6.239477974729520406e-03
5.872061337765989257e-03
6.260823150691800613e-03
6.176364034630016028e-03
6.163385571323440337e-03
6.270260531512202896e-03
6.116564168260244828e-03
6.275207713012141177e-03
5.992483130200025078e-03
6.115737873327757763e-03
6.209014754891530041e-03
5.901712238956870714e-03
6.222974099317347789e-03
6.259993467568918633e-03
5.892352362991744308e-03
5.841299110125674522e-03
5.823913881687100939e-03
5.816537791198022993e-03
6.155995081025184001e-03
6.016631186666249881e-03
5.868385998235430348e-03
6.238330225233344392e-03
6.191263601890338586e-03
6.242963999121779912e-03
5.756756559875422091e-03
5.942606849972283979e-03
5.877169881833471492e-03
6.054074078717149553e-03
6.107007353728432196e-03
6.211586391401042496e-03
6.271280800344782372e-03
5.987727381457382154e-03
6.273322608581336814e-03
6.195895681683577516e-03
5.924849344114102925e-03
5.872460297184954950e-03
6.059877625339326300e-03
6.271459103864298300e-03
6.239589361488743699e-03
6.001341977510546780e-03
6.275443615768366325e-03
6.214503199807008306e-03
5.968617140584150070e-03
6.022914585753065715e-03
6.244418803372469087e-03
6.071543588391787975e-03
5.968948759719023764e-03
5.988480406772585252e-03
5.934836458826032481e-03
6.265993952757783342e-03
6.219806988345980177e-03
5.924204317367727339e-03
5.983479437750132898e-03
6.255100497115294658e-03
6.116636590829930067e-03
6.065744700531403369e-03
6.222955887793975120e-03
6.235274077497400709e-03
6.182674962763787078e-03
6.072593927414118853e-03
6.137238906048191056e-03
6.260907008404066956e-03
6.229565400206272044e-03
6.275519003004647114e-03
5.924003143563047469e-03
6.031683222494330608e-03
6.174709327146045944e-03
6.275505873766867686e-03
6.174999440948583662e-03
5.895921821572472528e-03
6.097764370331919953e-03
6.071776950005217804e-03
5.956409490592349913e-03
6.193396044219949201e-03
6.105994284800441915e-03
6.010294847104520437e-03
5.854235221052317244e-03
6.132742777394535952e-03
6.116874187681351806e-03
6.167564904175198634e-03
6.157911526217139594e-03
6.236101219477486503e-03
6.105223895009465745e-03
6.268033219851542465e-03
6.265323938107248726e-03
6.235875904816244597e-03
6.275457168529945118e-03
6.239515244823861002e-03
6.191976392444606403e-03
6.252000302904220548e-03
6.165164371280613780e-03
6.256580289270142863e-03
5.926496004645886821e-03
6.259695306814192992e-03
6.043160717456091610e-03
5.794622128678049260e-03
6.274615626740682670e-03
5.818450001151984942e-03
6.123549769806343503e-03
6.267146784539551728e-03
5.858567022471833710e-03
5.877479901254578469e-03
6.167086745805757872e-03
6.270543021886354658e-03
6.273711826952918860e-03
6.209698745827443682e-03
5.910898046640473101e-03
5.905750114859654315e-03
5.856421450904442799e-03
5.995676923170749177e-03
5.858747867134145824e-03
5.975676435271332944e-03
6.237229063355094125e-03
5.868147977860208378e-03
6.271897027472802914e-03
5.954452810639459907e-03
