4.858530181362919267e-03
4.919374403793741295e-03
4.778710918735568774e-03
4.608234646317863059e-03
4.540073879940305888e-03
4.916648332445088844e-03
4.512440885047987529e-03
4.921936458401498203e-03
4.914012420400255994e-03
4.706385524442168074e-03
4.520795425407682366e-03
4.768463032995696148e-03
4.806788389014975821e-03
4.802046209248843865e-03
4.927548958236957141e-03
4.852425631304778039e-03
4.885986517250339063e-03
4.571581063367534219e-03
4.536123172439056501e-03
4.889253211730740234e-03
4.926191578312317208e-03
4.660957544890748268e-03
4.823983531516203016e-03
4.804702415454316020e-03
4.865548634032085436e-03
4.856344400454858795e-03
4.377302069359562814e-03
4.825462343713513361e-03
4.903359982212255469e-03
4.918963530213611018e-03
4.908317745848769613e-03
4.705124957644506861e-03
4.736717975390498936e-03
4.868345235906233401e-03
4.547596027022685408e-03
4.550703029747246893e-03
3.981572923432932613e-03
4.884428524557424961e-03
4.768707893687984360e-03
4.329560555495411481e-03
4.927879985939168442e-03
4.269761648683025219e-03
4.722651793230260575e-03
4.589925321128493496e-03
4.889977813072864457e-03
4.683201941096941379e-03
4.846714654886549734e-03
3.867263235764569450e-03
4.292560973740762453e-03
4.726267148044245407e-03
4.414680253652015877e-03
4.644329640813910608e-03
3.910606905211120102e-03
4.566509852046140953e-03
3.948759594519396857e-03
4.368090516576860101e-03
4.118861256693195048e-03
4.594074645251068796e-03
4.387968480576200266e-03
4.520650704753952434e-03
4.897201203495359784e-03
4.878805711296068000e-03
4.889632812342018832e-03
4.090026914029338406e-03
4.899747621618690853e-03
4.666087309855950112e-03
3.954000145640211746e-03
4.885702731692565491e-03
4.417037037815287753e-03
4.893961124307597693e-03
4.308676200743122645e-03
4.823403318136651116e-03
4.795974262924186486e-03
4.832432223473611364e-03
4.912035569539420325e-03
4.521191993268018974e-03
4.483808153225878751e-03
4.472230500927480701e-03
4.668135023933438904e-03
4.907244816864220205e-03
4.878193559565347469e-03
4.921044180715743004e-03
4.869955461110952837e-03
4.891399402390998394e-03
4.891019469088563054e-03
4.750657402219539069e-03
4.728933002293300367e-03
4.845775135056357673e-03
4.407524399534594982e-03
4.413754706850460743e-03
4.883520277696085446e-03
4.537299568373744617e-03
4.571966652419655851e-03
4.570831177497402219e-03
4.810980297605775384e-03
4.492730597392280076e-03
4.265036436165951274e-03
4.407118849012993389e-03
4.434398858586673965e-03
4.352297334615444491e-03
4.374242641470595799e-03
4.565257269836271031e-03
4.843732744037396697e-03
4.604026768551479180e-03
4.928037016165743786e-03
3.841587130263606799e-03
4.632407320475824541e-03
4.607868020661747693e-03
4.671594346594322954e-03
4.925911452357281672e-03
4.531828129589276707e-03
4.640031271052551254e-03
4.924726739143643790e-03
4.885177412354084134e-03
4.485467949413140913e-03
4.390246749626183602e-03
4.923805850018300387e-03
4.715120663486615203e-03
4.841889302330918375e-03
4.818534715730480276e-03
4.313280313678683787e-03
4.473006669399095039e-03
4.648890171207773793e-03
4.303550428071816446e-03
4.663377207682881977e-03
4.929570722404122939e-03
4.827269854774926539e-03
4.328923784618999258e-03
4.520419151707985063e-03
3.876779200956842648e-03
4.598145454260356424e-03
4.740757511430934018e-03
4.920628982150558606e-03
4.453933152619798941e-03
4.879320051826336116e-03
4.920077380210594910e-03
4.867816922347329225e-03
4.361452329901286881e-03
4.777318273548180651e-03
4.560895688754891368e-03
4.893867970783358744e-03
4.472525930675784467e-03
4.553624390805644830e-03
4.585452621200342312e-03
4.438085741999629741e-03
4.422022082126759665e-03
4.713677116552053049e-03
3.958921645940505739e-03
3.841329294616156655e-03
4.277908589760128291e-03
4.742720721954291237e-03
4.752651885711747966e-03
4.929484555394200718e-03
4.784423225918428384e-03
3.855253750343087035e-03
4.889080212328580574e-03
4.896137589863233837e-03
4.081873651820233824e-03
4.915160537586513514e-03
4.568412180087584595e-03
4.891249025987582169e-03
3.946971712236305163e-03
4.340215987903833957e-03
4.331509127607817422e-03
4.250344129246358058e-03
4.928995166700783637e-03
4.762418700037152411e-03
4.853060073343082662e-03
4.704075649732174583e-03
4.792473021177395126e-03
4.869338651704021442e-03
4.569925592165326178e-03
4.806799700514347538e-03
4.898272136332961803e-03
4.929426001750393874e-03
4.417965246146108096e-03
4.891391417803206236e-03
4.720442058558824497e-03
4.548502610428235143e-03
4.379077642069809095e-03
4.921362566153948681e-03
4.860789154325738728e-03
4.408974600292317123e-03
4.838409685509397623e-03
4.425734915450038436e-03
4.484705088587847416e-03
4.843024111870856789e-03
4.373455494190767352e-03
4.706489324083464390e-03
4.555975519219230413e-03
4.891716124373414291e-03
4.792345267772723204e-03
4.761148485195909261e-03
4.872305258759907116e-03
4.620561851795235500e-03
4.929247013907389445e-03
4.586429402440229952e-03
4.927320066720254112e-03
4.788788133911387607e-03
4.865291463766951811e-03
4.656733032566464855e-03
4.626462794864680608e-03
4.637135527213319570e-03
4.695401725860800374e-03
4.284947336589932897e-03
4.920999932791728960e-03
4.863251734277253442e-03
4.266911816223597359e-03
4.355124876767285658e-03
4.889950199706750815e-03
4.671999564424766938e-03
4.504723115564704915e-03
4.295819683633371466e-03
3.897842543552135480e-03
4.657860522900927197e-03
3.905030003329566530e-03
