1.999999999999959499e+01,3.000000000749720730e+00,1.000000000001922729e+01,6.600000000010315393e-01,1.569999999999754703e+00,2.869999999999997726e+03,-2.174999999998027178e+00,-4.944999999997279794e+00,1.341195238029691694e+01,-2.174686947462415976e+00
2.000000000000086686e+01,2.999999998237466770e+00,1.000000000000355804e+01,6.599999999999657252e-01,1.569999999999996065e+00,2.869999999999998636e+03,-2.175000000000376854e+00,-4.945000000000462137e+00,1.340763267412297566e+01,-2.163533986027444733e+00
2.000000000000058975e+01,2.999999997285281772e+00,9.999999999996729727e+00,6.599999999994166089e-01,1.570000000000088658e+00,2.869999999999990905e+03,-2.175000000001060751e+00,-4.945000000001292584e+00,1.339657830803389693e+01,-2.164192448185894069e+00
1.999999999999921485e+01,3.000000000211303863e+00,1.000000000001427658e+01,6.599999999998298339e-01,1.569999999999978080e+00,2.869999999999997726e+03,-2.174999999999832401e+00,-4.944999999999613927e+00,1.339379750860453377e+01,-2.163037544769482512e+00
1.999999999999992895e+01,2.999999997797610618e+00,1.000000000000648015e+01,6.599999999996092326e-01,1.570000000000004947e+00,2.869999999999999091e+03,-2.175000000000240519e+00,-4.945000000000125517e+00,1.339532401642642334e+01,-2.160876258087307544e+00
2.000000000000077449e+01,2.999999998065598916e+00,1.000000000000695977e+01,6.600000000000866285e-01,1.569999999999939222e+00,2.869999999999996362e+03,-2.174999999999847500e+00,-4.944999999999677875e+00,1.340415015705675827e+01,-2.158041088488548809e+00
2.000000000000102673e+01,2.999999996218531528e+00,1.000000000000133937e+01,6.600000000005417089e-01,1.569999999999845963e+00,2.869999999999989086e+03,-2.174999999999204459e+00,-4.944999999998814566e+00,1.340839657832469456e+01,-2.171420649903882172e+00
1.999999999999831601e+01,3.000000001084072832e+00,1.000000000002237677e+01,6.600000000007569811e-01,1.569999999999775575e+00,2.870000000000002274e+03,-2.174999999998199041e+00,-4.944999999997397033e+00,1.339998411751751917e+01,-2.184657222454713832e+00
1.999999999999805667e+01,3.000000000826957613e+00,1.000000000002256506e+01,6.600000000005935563e-01,1.569999999999799778e+00,2.870000000000003183e+03,-2.174999999998221689e+00,-4.944999999997403251e+00,1.339702963153374426e+01,-2.186190624489153134e+00
1.999999999999848654e+01,2.999999996923357948e+00,1.000000000000811085e+01,6.600000000002784750e-01,1.569999999999906137e+00,2.869999999999999545e+03,-2.174999999999037481e+00,-4.944999999998605844e+00,1.339802364459432304e+01,-2.200469408171723984e+00
1.999999999999906208e+01,2.999999995546685394e+00,1.000000000000335021e+01,6.600000000002468337e-01,1.569999999999919238e+00,2.869999999999997726e+03,-2.174999999999284395e+00,-4.944999999998945128e+00,1.339951068189077965e+01,-2.197876608618017258e+00
1.999999999999795364e+01,2.999999997680842245e+00,1.000000000001382006e+01,6.600000000006310819e-01,1.569999999999817319e+00,2.870000000000002274e+03,-2.174999999998278088e+00,-4.944999999997547135e+00,1.339942186776015376e+01,-2.205896845430878717e+00
1.999999999999905853e+01,2.999999995658567009e+00,1.000000000000473932e+01,6.600000000004966338e-01,1.569999999999843299e+00,2.869999999999997726e+03,-2.174999999998648459e+00,-4.944999999998044515e+00,1.340111417125067383e+01,-2.199396415564553564e+00
1.999999999999977263e+01,2.999999995061315872e+00,1.000000000000022382e+01,6.600000000003359846e-01,1.569999999999886375e+00,2.869999999999995453e+03,-2.174999999999091660e+00,-4.944999999998665352e+00,1.340150550757354253e+01,-2.191446820295470665e+00
1.999999999999962341e+01,2.999999995892786320e+00,1.000000000000471090e+01,6.600000000005800116e-01,1.569999999999843965e+00,2.869999999999996362e+03,-2.174999999998769251e+00,-4.944999999998258566e+00,1.340589396393816557e+01,-2.192405014020093024e+00
1.999999999999993250e+01,2.999999997293203435e+00,9.999999999997115196e+00,6.599999999993337862e-01,1.570000000000132845e+00,2.869999999999994088e+03,-2.175000000001158451e+00,-4.945000000001509299e+00,1.339475701742470015e+01,-2.177769191950731376e+00
1.999999999999984013e+01,2.999999996387789025e+00,9.999999999998069100e+00,6.599999999995875832e-01,1.570000000000100204e+00,2.869999999999996362e+03,-2.175000000000927525e+00,-4.945000000001247287e+00,1.339788583334696881e+01,-2.181424541625363922e+00
2.000000000000014921e+01,2.999999996736018915e+00,9.999999999998212985e+00,6.599999999995453948e-01,1.570000000000106644e+00,2.869999999999994998e+03,-2.175000000001054090e+00,-4.945000000001405382e+00,1.339810099050176895e+01,-2.174009946628040701e+00
1.999999999999804956e+01,3.000000003254377656e+00,1.000000000002303224e+01,6.600000000000992850e-01,1.569999999999916795e+00,2.869999999999997272e+03,-2.174999999999270184e+00,-4.944999999998842988e+00,1.339076640135697360e+01,-2.175491095017727083e+00
1.999999999999772271e+01,3.000000002978180369e+00,1.000000000002249223e+01,6.599999999999361933e-01,1.569999999999958984e+00,2.870000000000000455e+03,-2.174999999999475353e+00,-4.944999999999142304e+00,1.338803920038815676e+01,-2.179845363565862115e+00
1.999999999999860023e+01,3.000000001120539217e+00,1.000000000001604761e+01,6.600000000003768408e-01,1.569999999999897478e+00,2.870000000000000909e+03,-2.174999999999183142e+00,-4.944999999998850093e+00,1.340534849716560650e+01,-2.187661547554759167e+00
2.000000000000036948e+01,2.999999995198056713e+00,9.999999999992642330e+00,6.599999999995153077e-01,1.570000000000070450e+00,2.869999999999995907e+03,-2.175000000000547384e+00,-4.945000000000630003e+00,1.339054120728262731e+01,-2.176489827094628016e+00
2.000000000000056843e+01,2.999999995710028511e+00,9.999999999992256861e+00,6.599999999993801936e-01,1.570000000000100870e+00,2.869999999999994543e+03,-2.175000000000838263e+00,-4.945000000001022578e+00,1.338993494289508135e+01,-2.170502875643514962e+00
2.000000000000064304e+01,2.999999993969648227e+00,9.999999999987323918e+00,6.599999999991978950e-01,1.570000000000183249e+00,2.869999999999994543e+03,-2.175000000001484857e+00,-4.945000000002021778e+00,1.339331031378399750e+01,-2.181383860940783403e+00
2.000000000000100187e+01,2.999999993065471937e+00,9.999999999987633004e+00,6.599999999996091216e-01,1.570000000000089768e+00,2.869999999999994088e+03,-2.175000000000802292e+00,-4.945000000001082974e+00,1.339842187108131988e+01,-2.181736535773870944e+00
2.000000000000023448e+01,2.999999999950977880e+00,1.000000000001796785e+01,6.600000000007344436e-01,1.569999999999825313e+00,2.869999999999998636e+03,-2.174999999999012612e+00,-4.944999999998611173e+00,1.340996322945117569e+01,-2.159659842872953206e+00
2.000000000000198952e+01,2.999999992544468252e+00,9.999999999980651921e+00,6.600000000000570965e-01,1.570000000000045359e+00,2.869999999999981355e+03,-2.175000000000624212e+00,-4.945000000000934648e+00,1.340253016955955445e+01,-2.179124000729208976e+00
