2.000000000000061817e+01,2.999999997085076586e+00,9.999999999998186340e+00,6.599999999998993339e-01,1.569999999999990292e+00,2.869999999999995907e+03,-2.175000000000066436e+00,-4.944999999999994067e+00,1.339923950180787848e+01,-2.171936959042180426e+00
2.000000000000100897e+01,2.999999998803287937e+00,1.000000000001123901e+01,6.600000000006754908e-01,1.569999999999800222e+00,2.869999999999996362e+03,-2.174999999998927791e+00,-4.944999999998427320e+00,1.341292221103093496e+01,-2.156112800892796333e+00
1.999999999999874234e+01,3.000000000337065043e+00,1.000000000002048495e+01,6.600000000010557422e-01,1.569999999999737827e+00,2.870000000000000909e+03,-2.174999999997788702e+00,-4.944999999996933404e+00,1.341517017411214496e+01,-2.189807065096332828e+00
2.000000000000091305e+01,2.999999995008626463e+00,9.999999999998506084e+00,6.600000000007567591e-01,1.569999999999848628e+00,2.869999999999995453e+03,-2.174999999999016609e+00,-4.944999999998674234e+00,1.341343589004644166e+01,-2.179751332074904013e+00
2.000000000000046185e+01,2.999999999214902235e+00,1.000000000000053646e+01,6.599999999996662980e-01,1.570000000000054907e+00,2.869999999999998636e+03,-2.175000000000540723e+00,-4.945000000000678853e+00,1.340192964505165918e+01,-2.174087478394591599e+00
2.000000000000195755e+01,2.999999998598613882e+00,9.999999999999815259e+00,6.599999999996021272e-01,1.570000000000050910e+00,2.869999999999994998e+03,-2.175000000001005684e+00,-4.945000000001255280e+00,1.340418295032072038e+01,-2.139086642369545821e+00
1.999999999999828049e+01,2.999999996990723172e+00,1.000000000000984635e+01,6.599999999997255840e-01,1.570000000000009832e+00,2.870000000000002274e+03,-2.174999999999752465e+00,-4.944999999999535767e+00,1.339171233076834078e+01,-2.187174585845306662e+00
1.999999999999992895e+01,3.000000005377834178e+00,1.000000000003526068e+01,6.600000000006668310e-01,1.569999999999766693e+00,2.870000000000001364e+03,-2.174999999998666222e+00,-4.944999999998014317e+00,1.341792334024151856e+01,-2.140053048543640646e+00
2.000000000000246914e+01,2.999999997090404769e+00,1.000000000000260236e+01,6.599999999999436318e-01,1.569999999999948992e+00,2.869999999999989996e+03,-2.175000000000161027e+00,-4.945000000000066009e+00,1.341231687999311006e+01,-2.134282394648498560e+00
2.000000000000190070e+01,2.999999998266540402e+00,1.000000000001200284e+01,6.600000000003155565e-01,1.569999999999838414e+00,2.869999999999995453e+03,-2.174999999999227995e+00,-4.944999999998764828e+00,1.342046055892403622e+01,-2.140289672484911421e+00
2.000000000000070344e+01,2.999999994955209637e+00,1.000000000000872369e+01,6.600000000006457368e-01,1.569999999999823315e+00,2.869999999999991360e+03,-2.174999999998895372e+00,-4.944999999998415774e+00,1.340813141060729663e+01,-2.165164660674184116e+00
2.000000000000105160e+01,2.999999999621070224e+00,1.000000000000992273e+01,6.600000000003942713e-01,1.569999999999887041e+00,2.869999999999994998e+03,-2.174999999999610356e+00,-4.944999999999367013e+00,1.339976406487856586e+01,-2.144878827587621384e+00
2.000000000000191136e+01,2.999999993813205812e+00,9.999999999993191224e+00,6.600000000003429790e-01,1.569999999999917462e+00,2.869999999999989541e+03,-2.174999999999782663e+00,-4.944999999999668105e+00,1.341392200184976602e+01,-2.172119944056944973e+00
1.999999999999864286e+01,3.000000001172340891e+00,1.000000000002469136e+01,6.600000000001891021e-01,1.569999999999887486e+00,2.870000000000003183e+03,-2.174999999999077005e+00,-4.944999999998587192e+00,1.340462266325743634e+01,-2.167714110901310054e+00
2.000000000000273204e+01,2.999999991665339927e+00,9.999999999976136422e+00,6.599999999996821742e-01,1.570000000000074003e+00,2.869999999999986358e+03,-2.175000000001076295e+00,-4.945000000001419593e+00,1.339919845013207933e+01,-2.164224356886037093e+00
2.000000000000071765e+01,2.999999995391836816e+00,9.999999999995187849e+00,6.600000000003124478e-01,1.569999999999948770e+00,2.869999999999991815e+03,-2.174999999999847944e+00,-4.944999999999772022e+00,1.339937691660967722e+01,-2.183516944182116504e+00
2.000000000000003197e+01,2.999999998118191513e+00,1.000000000000348166e+01,6.599999999992678390e-01,1.570000000000120854e+00,2.869999999999993634e+03,-2.175000000001260148e+00,-4.945000000001601670e+00,1.339412728001322783e+01,-2.164494025957303336e+00
1.999999999999979039e+01,3.000000002987252223e+00,1.000000000003199929e+01,6.600000000011960744e-01,1.569999999999649898e+00,2.870000000000000455e+03,-2.174999999997524025e+00,-4.944999999996446682e+00,1.341481814640361669e+01,-2.154791089728451237e+00
1.999999999999880629e+01,3.000000001761357726e+00,1.000000000001512923e+01,6.600000000000191269e-01,1.569999999999949880e+00,2.870000000000002274e+03,-2.174999999999545075e+00,-4.944999999999278195e+00,1.339974148980761015e+01,-2.181518587844359036e+00
2.000000000000004619e+01,3.000000001466182731e+00,1.000000000001991296e+01,6.600000000007480994e-01,1.569999999999786455e+00,2.869999999999997726e+03,-2.174999999998673772e+00,-4.944999999998080931e+00,1.340786549683656759e+01,-2.158962875270932891e+00
2.000000000000284572e+01,2.999999993568104983e+00,9.999999999985032417e+00,6.599999999988850341e-01,1.570000000000213669e+00,2.869999999999992724e+03,-2.175000000002278444e+00,-4.945000000003001439e+00,1.340382661346282944e+01,-2.143714045559200976e+00
2.000000000000292033e+01,2.999999992717911290e+00,9.999999999992668975e+00,6.600000000004039302e-01,1.569999999999925455e+00,2.869999999999991360e+03,-2.175000000000047340e+00,-4.945000000000060680e+00,1.341612975821012554e+01,-2.144243701335425190e+00
2.000000000000391509e+01,2.999999993941450782e+00,9.999999999980410337e+00,6.599999999996628564e-01,1.570000000000074447e+00,2.869999999999984993e+03,-2.175000000001487077e+00,-4.945000000001967599e+00,1.340097527774963559e+01,-2.129815912649815068e+00
2.000000000000091305e+01,3.000000002445387004e+00,1.000000000001854161e+01,6.600000000006228662e-01,1.569999999999780238e+00,2.869999999999994088e+03,-2.174999999998806111e+00,-4.944999999998187512e+00,1.340280963246704893e+01,-2.141748892591145648e+00
1.999999999999865352e+01,3.000000002509382924e+00,1.000000000003381473e+01,6.600000000010743939e-01,1.569999999999726503e+00,2.870000000000001364e+03,-2.174999999998012523e+00,-4.944999999997201634e+00,1.340885145563889225e+01,-2.163828056649579334e+00
2.000000000000094857e+01,2.999999999470023937e+00,1.000000000001434586e+01,6.600000000005019629e-01,1.569999999999851292e+00,2.869999999999994998e+03,-2.174999999999499334e+00,-4.944999999999212470e+00,1.341024809093100956e+01,-2.148508872915000811e+00
