2.000000000000863665e+01,2.999999999099615344e+00,9.999999999972109421e+00,6.599999999984137444e-01,1.570000000000306928e+00,2.869999999999990905e+03,-2.175000000003858514e+00,-4.945000000005085994e+00,1.342780911809997946e+01,-1.858934380819949439e+00
2.000000000000230926e+01,3.000000002210186700e+00,1.000000000002487788e+01,6.599999999993223510e-01,1.570000000000085105e+00,2.869999999999996362e+03,-2.175000000001032774e+00,-4.945000000001239293e+00,1.340332946516117474e+01,-2.022913358780566551e+00
2.000000000000336087e+01,3.000000001751543355e+00,1.000000000002024514e+01,6.600000000000377787e-01,1.569999999999894147e+00,2.869999999999997726e+03,-2.175000000000024691e+00,-4.944999999999813767e+00,1.343698192455097029e+01,-1.951027993167487651e+00
1.999999999999707612e+01,3.000000000069345862e+00,1.000000000002322942e+01,6.599999999994531352e-01,1.570000000000070228e+00,2.870000000000000909e+03,-2.175000000000223643e+00,-4.945000000000189466e+00,1.341728110194279111e+01,-2.409224725663860589e+00
1.999999999999650413e+01,3.000000001020814100e+00,1.000000000002977885e+01,6.600000000001130518e-01,1.569999999999932339e+00,2.870000000000000455e+03,-2.174999999999063682e+00,-4.944999999998670681e+00,1.342318384106982343e+01,-2.471137108274486405e+00
2.000000000000094502e+01,3.000000002497608342e+00,9.999999999994861000e+00,6.600000000004245804e-01,1.569999999999866391e+00,2.870000000000001364e+03,-2.174999999999209344e+00,-4.944999999998801243e+00,1.338804522421369114e+01,-2.105374491030348238e+00
2.000000000000018119e+01,2.999999999063099665e+00,1.000000000001560352e+01,6.600000000015113777e-01,1.569999999999674545e+00,2.869999999999995453e+03,-2.174999999997925482e+00,-4.944999999997338413e+00,1.346859013427418006e+01,-2.144396790250036933e+00
1.999999999999987210e+01,2.999999997602398327e+00,1.000000000001606537e+01,6.600000000013453993e-01,1.569999999999698526e+00,2.869999999999995907e+03,-2.174999999998131095e+00,-4.944999999997553353e+00,1.346518081709411696e+01,-2.214086604704633476e+00
2.000000000000212452e+01,2.999999997460063739e+00,1.000000000000640377e+01,6.599999999983926502e-01,1.570000000000309814e+00,2.869999999999997726e+03,-2.175000000003065370e+00,-4.945000000004119656e+00,1.345010804948363159e+01,-1.975785887194918544e+00
2.000000000000039080e+01,3.000000000485551599e+00,1.000000000003499601e+01,6.599999999995526112e-01,1.570000000000016493e+00,2.869999999999998181e+03,-2.175000000000401279e+00,-4.945000000000343121e+00,1.341219827572708745e+01,-2.129020983115536669e+00
1.999999999999959499e+01,2.999999995603216618e+00,1.000000000000705747e+01,6.599999999986768673e-01,1.570000000000307594e+00,2.869999999999996817e+03,-2.175000000002466294e+00,-4.945000000003353158e+00,1.339660033097887748e+01,-2.227844564443664854e+00
1.999999999999966249e+01,2.999999997057921863e+00,1.000000000000860645e+01,6.600000000003117817e-01,1.569999999999930562e+00,2.869999999999996817e+03,-2.174999999999600586e+00,-4.944999999999471818e+00,1.339689248683413680e+01,-2.260985537463621853e+00
2.000000000000113332e+01,2.999999994331071562e+00,9.999999999982271959e+00,6.599999999993493294e-01,1.570000000000146612e+00,2.870000000000000000e+03,-2.175000000001536371e+00,-4.945000000002021778e+00,1.337888193080950572e+01,-2.180795997215781323e+00
2.000000000000294875e+01,2.999999994770820688e+00,9.999999999982829735e+00,6.599999999966914555e-01,1.570000000000700835e+00,2.869999999999994998e+03,-2.175000000006149126e+00,-4.945000000008237251e+00,1.339159033861737669e+01,-2.124083213138113990e+00
1.999999999999881339e+01,2.999999997293606668e+00,1.000000000001044143e+01,6.600000000002304024e-01,1.569999999999917017e+00,2.869999999999998636e+03,-2.174999999999390976e+00,-4.944999999999103224e+00,1.338847544384373833e+01,-2.298114368333923352e+00
2.000000000000062172e+01,2.999999993819438160e+00,9.999999999984487076e+00,6.599999999988663824e-01,1.570000000000230767e+00,2.869999999999998636e+03,-2.175000000002158984e+00,-4.945000000002836238e+00,1.337799145713877635e+01,-2.276673032761578508e+00
1.999999999999891642e+01,2.999999995572512290e+00,1.000000000000438583e+01,6.599999999993061417e-01,1.570000000000105755e+00,2.869999999999996362e+03,-2.175000000001050537e+00,-4.945000000001427587e+00,1.341969394226978629e+01,-2.257909251665824790e+00
2.000000000000303046e+01,2.999999996724918461e+00,9.999999999990242472e+00,6.599999999991843502e-01,1.570000000000250306e+00,2.869999999999998636e+03,-2.175000000002233147e+00,-4.945000000003076046e+00,1.340204410895515608e+01,-2.003807244066860171e+00
1.999999999999840483e+01,3.000000002226728135e+00,1.000000000005617196e+01,6.600000000006311929e-01,1.569999999999807327e+00,2.869999999999999091e+03,-2.174999999998326938e+00,-4.944999999997570228e+00,1.341800827005864427e+01,-2.234689839762722841e+00
2.000000000000105160e+01,2.999999998557841163e+00,1.000000000002117773e+01,6.599999999999172084e-01,1.569999999999941664e+00,2.870000000000001364e+03,-2.174999999999846167e+00,-4.944999999999525109e+00,1.338604765398477170e+01,-2.116444284280778465e+00
2.000000000000240519e+01,2.999999992706163798e+00,9.999999999988581578e+00,6.599999999994836664e-01,1.570000000000098206e+00,2.869999999999996362e+03,-2.175000000001416023e+00,-4.945000000001805063e+00,1.338593756188771700e+01,-2.201944087891781088e+00
2.000000000000148148e+01,3.000000000839500469e+00,1.000000000003270451e+01,6.600000000011906343e-01,1.569999999999638129e+00,2.869999999999998181e+03,-2.174999999997710987e+00,-4.944999999996656292e+00,1.341067059883071089e+01,-2.084234709145795783e+00
1.999999999999964473e+01,2.999999996687154447e+00,1.000000000002857803e+01,6.600000000027490543e-01,1.569999999999490692e+00,2.870000000000000455e+03,-2.174999999995919531e+00,-4.944999999994510453e+00,1.337988221224394003e+01,-2.043527405847795020e+00
1.999999999999930367e+01,2.999999998931980549e+00,1.000000000003525003e+01,6.600000000016376100e-01,1.569999999999625029e+00,2.870000000000000455e+03,-2.174999999997174083e+00,-4.944999999996080753e+00,1.340713209947442408e+01,-2.155678999005778529e+00
2.000000000000162714e+01,2.999999999340712709e+00,1.000000000002885869e+01,6.600000000020249669e-01,1.569999999999541984e+00,2.870000000000000909e+03,-2.174999999996819700e+00,-4.944999999995538964e+00,1.340712439272825662e+01,-2.011646112414129828e+00
2.000000000000072831e+01,2.999999997061199242e+00,1.000000000001875833e+01,6.600000000011663204e-01,1.569999999999775575e+00,2.870000000000000909e+03,-2.174999999998417533e+00,-4.944999999997809148e+00,1.344112723042163360e+01,-2.167986732007863626e+00
2.000000000000288480e+01,2.999999996483496023e+00,1.000000000001346123e+01,6.600000000015885382e-01,1.569999999999610152e+00,2.870000000000000000e+03,-2.174999999997808242e+00,-4.944999999996849027e+00,1.343166372736375713e+01,-2.040206860404619071e+00
2.000000000000189360e+01,2.999999997474914526e+00,1.000000000001377032e+01,6.600000000016874591e-01,1.569999999999601936e+00,2.869999999999999091e+03,-2.174999999997527134e+00,-4.944999999996534612e+00,1.343616956968948983e+01,-2.115180067130327579e+00
2.000000000000069633e+01,2.999999994426859384e+00,9.999999999993303135e+00,6.599999999994229372e-01,1.570000000000136620e+00,2.869999999999998636e+03,-2.175000000001565681e+00,-4.945000000002138130e+00,1.344902533203551975e+01,-2.205313966526490699e+00
