1.999999999999985789e+01,3.000000003365864032e+00,1.000000000001066347e+01,6.600000000003162226e-01,1.569999999999873497e+00,2.870000000000001819e+03,-2.174999999999055245e+00,-4.944999999998563212e+00,1.340050316334668778e+01,-2.167934987079676468e+00
1.999999999999964828e+01,3.000000005065682540e+00,1.000000000001691447e+01,6.600000000006808198e-01,1.569999999999798890e+00,2.870000000000000909e+03,-2.174999999998559197e+00,-4.944999999997923723e+00,1.340836057065336639e+01,-2.170569906903310198e+00
2.000000000000032330e+01,3.000000004655949404e+00,1.000000000001017497e+01,6.600000000004114797e-01,1.569999999999847962e+00,2.870000000000000455e+03,-2.174999999998967759e+00,-4.944999999998445972e+00,1.340414680358129296e+01,-2.162399792129313880e+00
2.000000000000073896e+01,3.000000004459852043e+00,1.000000000000567191e+01,6.599999999997655520e-01,1.569999999999966533e+00,2.870000000000000909e+03,-2.174999999999885247e+00,-4.944999999999626361e+00,1.339224191566351685e+01,-2.153502453473883360e+00
2.000000000000091305e+01,2.999999999299595821e+00,1.000000000002186518e+01,6.599999999994510258e-01,1.570000000000041362e+00,2.869999999999998181e+03,-2.175000000000752554e+00,-4.945000000000847606e+00,1.340573463373325858e+01,-2.113137130219406856e+00
2.000000000000084555e+01,2.999999999646116855e+00,1.000000000002411760e+01,6.599999999994548006e-01,1.570000000000016716e+00,2.869999999999998181e+03,-2.175000000000576250e+00,-4.945000000000571383e+00,1.340904662581623086e+01,-2.120403338900270551e+00
2.000000000000170175e+01,2.999999992794428305e+00,9.999999999973219644e+00,6.599999999986189136e-01,1.570000000000304929e+00,2.870000000000000455e+03,-2.175000000002945910e+00,-4.945000000003949125e+00,1.339080298376749489e+01,-2.176619897578238927e+00
2.000000000000128964e+01,2.999999993980402735e+00,9.999999999982577492e+00,6.599999999990837640e-01,1.570000000000214557e+00,2.870000000000000455e+03,-2.175000000002258460e+00,-4.945000000003038743e+00,1.339377949559357539e+01,-2.160333478214903735e+00
2.000000000000192557e+01,2.999999993854908453e+00,9.999999999981680432e+00,6.599999999993060307e-01,1.570000000000137286e+00,2.869999999999999545e+03,-2.175000000001577227e+00,-4.945000000002043095e+00,1.339069368908661417e+01,-2.139987129687523026e+00
2.000000000000159517e+01,2.999999996922561696e+00,9.999999999995431210e+00,6.599999999976472465e-01,1.570000000000485674e+00,2.869999999999999545e+03,-2.175000000004254641e+00,-4.945000000005665974e+00,1.339885777848447290e+01,-2.129856064522078096e+00
2.000000000000204992e+01,2.999999996154640858e+00,9.999999999991283417e+00,6.599999999974609510e-01,1.570000000000522755e+00,2.869999999999999091e+03,-2.175000000004608580e+00,-4.945000000006134044e+00,1.339377282814583481e+01,-2.112974123516643932e+00
2.000000000000321521e+01,2.999999992838450869e+00,9.999999999989853450e+00,6.599999999997661071e-01,1.570000000000042695e+00,2.869999999999992724e+03,-2.175000000001092726e+00,-4.945000000001430251e+00,1.340662792321584007e+01,-2.152541537723862586e+00
2.000000000000340350e+01,2.999999992627680356e+00,9.999999999987728927e+00,6.599999999994966560e-01,1.570000000000103979e+00,2.869999999999992724e+03,-2.175000000001585665e+00,-4.945000000002090168e+00,1.340225846889860328e+01,-2.145262071120915603e+00
2.000000000000222400e+01,2.999999994143795590e+00,9.999999999993459454e+00,6.600000000002375078e-01,1.569999999999957874e+00,2.869999999999994543e+03,-2.175000000000288924e+00,-4.945000000000394635e+00,1.341449289438086012e+01,-2.163684162694317958e+00
2.000000000000208544e+01,2.999999993785849917e+00,9.999999999996147082e+00,6.600000000004805356e-01,1.569999999999914797e+00,2.869999999999993179e+03,-2.175000000000021583e+00,-4.945000000000066009e+00,1.342113908562786939e+01,-2.166973717383012588e+00
2.000000000000173017e+01,2.999999997454552148e+00,1.000000000000770939e+01,6.599999999997827604e-01,1.569999999999969198e+00,2.869999999999996817e+03,-2.175000000000350653e+00,-4.945000000000315588e+00,1.341340852501068959e+01,-2.142338083508848801e+00
2.000000000000191136e+01,2.999999998141400948e+00,1.000000000000997780e+01,6.600000000002748113e-01,1.569999999999878160e+00,2.869999999999996817e+03,-2.174999999999737366e+00,-4.944999999999501128e+00,1.341669790368472270e+01,-2.126656398536937775e+00
1.999999999999937472e+01,2.999999998898483788e+00,1.000000000002348521e+01,6.600000000010990409e-01,1.569999999999695417e+00,2.870000000000001364e+03,-2.174999999997772715e+00,-4.944999999996816165e+00,1.340219253229171770e+01,-2.170297379120725179e+00
1.999999999999855760e+01,2.999999999905477388e+00,1.000000000003544010e+01,6.600000000015692203e-01,1.569999999999583729e+00,2.870000000000002274e+03,-2.174999999996799716e+00,-4.944999999995499884e+00,1.341047401402893691e+01,-2.171592624605128030e+00
1.999999999999938183e+01,2.999999998766788689e+00,1.000000000002148148e+01,6.600000000007760770e-01,1.569999999999776241e+00,2.870000000000000909e+03,-2.174999999998406874e+00,-4.944999999997731877e+00,1.341517552986624118e+01,-2.174326748392582331e+00
1.999999999999886668e+01,3.000000000556421575e+00,1.000000000002969003e+01,6.600000000011196910e-01,1.569999999999669660e+00,2.870000000000001364e+03,-2.174999999997479616e+00,-4.944999999996428031e+00,1.341847518628033065e+01,-2.176730426421286335e+00
