1.999999999999936762e+01,3.000000003835503914e+00,1.000000000002560796e+01,6.600000000006361889e-01,1.569999999999770024e+00,2.870000000000002274e+03,-2.174999999998186606e+00,-4.944999999997338413e+00,1.340523072641103752e+01,-2.158046585953289132e+00
1.999999999999914735e+01,3.000000002920237385e+00,1.000000000001543654e+01,6.600000000005082912e-01,1.569999999999834639e+00,2.870000000000002274e+03,-2.174999999998795452e+00,-4.944999999998237250e+00,1.340255208933115050e+01,-2.176811492612159782e+00
1.999999999999992895e+01,3.000000005346111553e+00,1.000000000001609202e+01,6.600000000006466250e-01,1.569999999999789120e+00,2.870000000000001364e+03,-2.174999999998488587e+00,-4.944999999997800266e+00,1.340621328699168302e+01,-2.164500615971320485e+00
2.000000000000142109e+01,2.999999999558310648e+00,9.999999999996932232e+00,6.599999999989942800e-01,1.570000000000162377e+00,2.869999999999998636e+03,-2.175000000001651390e+00,-4.945000000002088392e+00,1.339458573439942590e+01,-2.147960443330101388e+00
1.999999999999980815e+01,2.999999999229122860e+00,1.000000000001291056e+01,6.599999999998407141e-01,1.569999999999978080e+00,2.870000000000001819e+03,-2.175000000000035794e+00,-4.944999999999918572e+00,1.340075570470884081e+01,-2.159525621108813631e+00
2.000000000000026645e+01,3.000000002812782007e+00,1.000000000002689760e+01,6.599999999997755440e-01,1.569999999999947216e+00,2.869999999999999545e+03,-2.174999999999957634e+00,-4.944999999999742712e+00,1.341486784154726841e+01,-2.123569251018703863e+00
2.000000000000275691e+01,2.999999994670569770e+00,1.000000000000345679e+01,6.599999999994369260e-01,1.570000000000060014e+00,2.869999999999992269e+03,-2.175000000001172662e+00,-4.945000000001449791e+00,1.340984101080019997e+01,-2.125941883931637300e+00
2.000000000000249045e+01,2.999999992132690085e+00,9.999999999981012522e+00,6.599999999989359933e-01,1.570000000000236984e+00,2.869999999999995907e+03,-2.175000000002575540e+00,-4.945000000003467733e+00,1.340265016418348942e+01,-2.156877509690497075e+00
2.000000000000070699e+01,2.999999994466191477e+00,9.999999999988352428e+00,6.599999999992476329e-01,1.570000000000157936e+00,2.870000000000000909e+03,-2.175000000001683365e+00,-4.945000000002234053e+00,1.339459412550504602e+01,-2.180345196303637323e+00
2.000000000000052225e+01,2.999999996597267238e+00,1.000000000000112088e+01,6.599999999996362110e-01,1.570000000000047136e+00,2.870000000000000000e+03,-2.175000000000808509e+00,-4.945000000000996820e+00,1.339725457678541432e+01,-2.155217930687702843e+00
2.000000000000300915e+01,2.999999992482561328e+00,9.999999999978324894e+00,6.599999999994894395e-01,1.570000000000116414e+00,2.869999999999994088e+03,-2.175000000001617639e+00,-4.945000000002144347e+00,1.339762584916089061e+01,-2.134059202367652119e+00
2.000000000000161648e+01,2.999999996650937195e+00,1.000000000000096456e+01,6.599999999983773291e-01,1.570000000000316920e+00,2.869999999999998181e+03,-2.175000000003021405e+00,-4.945000000003997087e+00,1.340345344803060179e+01,-2.134107517994761949e+00
2.000000000000410338e+01,2.999999989802134337e+00,9.999999999978570031e+00,6.599999999994697886e-01,1.570000000000145723e+00,2.869999999999989086e+03,-2.175000000002131895e+00,-4.945000000002932161e+00,1.341256445473407943e+01,-2.155094429566846603e+00
2.000000000000295586e+01,2.999999992944522909e+00,9.999999999987558397e+00,6.600000000001182698e-01,1.569999999999976525e+00,2.869999999999991360e+03,-2.175000000000519851e+00,-4.945000000000668194e+00,1.340516147521003809e+01,-2.164260498487398543e+00
2.000000000000241585e+01,2.999999993389331099e+00,9.999999999986043164e+00,6.600000000001784439e-01,1.569999999999989182e+00,2.869999999999993634e+03,-2.175000000000573142e+00,-4.945000000000817408e+00,1.341288530511445565e+01,-2.171846097774035922e+00
2.000000000000223110e+01,2.999999991137248578e+00,9.999999999976992626e+00,6.599999999996356559e-01,1.570000000000129292e+00,2.869999999999994543e+03,-2.175000000001708234e+00,-4.945000000002391261e+00,1.340838887664264867e+01,-2.184160692857342490e+00
2.000000000000222400e+01,2.999999995314647894e+00,9.999999999996584066e+00,6.599999999997152589e-01,1.570000000000018048e+00,2.869999999999994543e+03,-2.175000000000828493e+00,-4.945000000001027907e+00,1.341044676458621865e+01,-2.153486872965513221e+00
2.000000000000202505e+01,3.000000000615653306e+00,1.000000000000328804e+01,6.600000000006964740e-01,1.569999999999799334e+00,2.869999999999995453e+03,-2.174999999999041922e+00,-4.944999999998572093e+00,1.341048021768717469e+01,-2.134582016535737203e+00
2.000000000000020250e+01,2.999999996275258596e+00,1.000000000000968114e+01,6.600000000009282886e-01,1.569999999999774687e+00,2.869999999999998181e+03,-2.174999999998478373e+00,-4.944999999997850004e+00,1.339942125263817019e+01,-2.171690384189928658e+00
1.999999999999958433e+01,2.999999998586051486e+00,1.000000000001701750e+01,6.600000000004864198e-01,1.569999999999832863e+00,2.870000000000001819e+03,-2.174999999998834976e+00,-4.944999999998271001e+00,1.340161624530626483e+01,-2.168038518359161948e+00
1.999999999999972644e+01,2.999999998598283035e+00,1.000000000001647926e+01,6.600000000001878808e-01,1.569999999999905471e+00,2.869999999999999545e+03,-2.174999999999481570e+00,-4.944999999999183160e+00,1.340937260635062600e+01,-2.166886699481364698e+00
1.999999999999979394e+01,3.000000002066173899e+00,1.000000000001393374e+01,6.600000000011044810e-01,1.569999999999694085e+00,2.870000000000000000e+03,-2.174999999997826894e+00,-4.944999999996921858e+00,1.341321802632929305e+01,-2.178826619055435732e+00
