1.999999999999884892e+01,3.000000001480367384e+00,1.000000000002418155e+01,6.600000000010807222e-01,1.569999999999735163e+00,2.870000000000000455e+03,-2.174999999997774935e+00,-4.944999999996917417e+00,1.340956184035475118e+01,-2.179838603908037964e+00
2.000000000000105160e+01,2.999999996473289077e+00,9.999999999997049471e+00,6.599999999999409672e-01,1.570000000000006279e+00,2.869999999999996817e+03,-2.175000000000486544e+00,-4.945000000000625562e+00,1.340916776170587532e+01,-2.172402859102191996e+00
2.000000000000062883e+01,2.999999997075707192e+00,9.999999999994949818e+00,6.599999999990286970e-01,1.570000000000192131e+00,2.869999999999991360e+03,-2.175000000001799272e+00,-4.945000000002345075e+00,1.339301921506014992e+01,-2.160123657579181788e+00
1.999999999999927169e+01,2.999999999398183181e+00,1.000000000001040412e+01,6.599999999997341327e-01,1.569999999999988960e+00,2.869999999999998181e+03,-2.174999999999959410e+00,-4.944999999999770246e+00,1.339446781237223405e+01,-2.169216309842349144e+00
2.000000000000036948e+01,2.999999998464769835e+00,1.000000000001196376e+01,6.600000000002016476e-01,1.569999999999892593e+00,2.869999999999998181e+03,-2.174999999999472244e+00,-4.944999999999136975e+00,1.340487017537621917e+01,-2.155380627109322322e+00
2.000000000000158451e+01,2.999999996328905461e+00,1.000000000000179412e+01,6.599999999999225375e-01,1.569999999999973195e+00,2.869999999999994998e+03,-2.175000000000328448e+00,-4.945000000000322693e+00,1.340479830338296274e+01,-2.149249823330977360e+00
2.000000000000096279e+01,2.999999995449703860e+00,9.999999999998655298e+00,6.600000000002000933e-01,1.569999999999934559e+00,2.869999999999987267e+03,-2.174999999999723599e+00,-4.944999999999565077e+00,1.340500403572880650e+01,-2.172363515838943826e+00
1.999999999999842260e+01,3.000000001013090944e+00,1.000000000002298606e+01,6.600000000007347767e-01,1.569999999999783569e+00,2.870000000000001364e+03,-2.174999999998248335e+00,-4.944999999997487627e+00,1.340229767685940310e+01,-2.182877829786095347e+00
1.999999999999889511e+01,2.999999999443152543e+00,1.000000000001096190e+01,6.599999999997855360e-01,1.570000000000007168e+00,2.870000000000000909e+03,-2.174999999999948752e+00,-4.944999999999808438e+00,1.339297819833515746e+01,-2.178173125196726456e+00
1.999999999999895195e+01,2.999999996841134386e+00,1.000000000000622258e+01,6.600000000003941603e-01,1.569999999999897033e+00,2.869999999999998636e+03,-2.174999999999077449e+00,-4.944999999998702656e+00,1.340378133075839351e+01,-2.199613922919933628e+00
2.000000000000017764e+01,2.999999993459801839e+00,9.999999999991986854e+00,6.599999999999507372e-01,1.570000000000022711e+00,2.869999999999991815e+03,-2.175000000000229416e+00,-4.945000000000299600e+00,1.339807703459524291e+01,-2.191356007622980773e+00
1.999999999999806377e+01,2.999999998027767401e+00,1.000000000001394973e+01,6.600000000004840883e-01,1.569999999999833751e+00,2.870000000000001819e+03,-2.174999999998384670e+00,-4.944999999997657270e+00,1.339648316175170351e+01,-2.199619071003870552e+00
1.999999999999889511e+01,2.999999995973482658e+00,1.000000000000558309e+01,6.600000000003446443e-01,1.569999999999881934e+00,2.870000000000000000e+03,-2.174999999998926459e+00,-4.944999999998433537e+00,1.339858352396852759e+01,-2.197889146850083630e+00
1.999999999999949907e+01,2.999999995070379288e+00,1.000000000000443734e+01,6.600000000006835954e-01,1.569999999999814433e+00,2.869999999999994088e+03,-2.174999999998472155e+00,-4.944999999997836682e+00,1.340422825202989898e+01,-2.194982208847845673e+00
2.000000000000017764e+01,2.999999995207518921e+00,9.999999999999952038e+00,6.600000000002184120e-01,1.569999999999912799e+00,2.869999999999993634e+03,-2.174999999999517097e+00,-4.944999999999247997e+00,1.340704361750801965e+01,-2.185355941237511868e+00
2.000000000000014211e+01,2.999999995486727133e+00,9.999999999990540900e+00,6.599999999992496313e-01,1.570000000000175033e+00,2.869999999999992269e+03,-2.175000000001400924e+00,-4.945000000001893881e+00,1.339450197542955046e+01,-2.185308103741673502e+00
1.999999999999946354e+01,2.999999995870378910e+00,9.999999999999635847e+00,6.600000000000674216e-01,1.569999999999990292e+00,2.869999999999994543e+03,-2.174999999999827072e+00,-4.944999999999760476e+00,1.340038953159067958e+01,-2.194816302530910868e+00
1.999999999999894840e+01,2.999999998780509269e+00,1.000000000000678924e+01,6.599999999995643796e-01,1.570000000000086660e+00,2.869999999999998181e+03,-2.175000000000715250e+00,-4.945000000000922213e+00,1.339594960018247782e+01,-2.181501517656790679e+00
1.999999999999856826e+01,3.000000000697644165e+00,1.000000000001420020e+01,6.599999999997976374e-01,1.569999999999989626e+00,2.869999999999997726e+03,-2.174999999999795985e+00,-4.944999999999571294e+00,1.338813387333744487e+01,-2.175382372232452344e+00
1.999999999999852918e+01,3.000000002180319925e+00,1.000000000001719336e+01,6.599999999999188738e-01,1.569999999999984963e+00,2.870000000000000909e+03,-2.174999999999776445e+00,-4.944999999999615703e+00,1.339350651554214444e+01,-2.177090296311297024e+00
1.999999999999840483e+01,3.000000002670840882e+00,1.000000000002580514e+01,6.600000000008635626e-01,1.569999999999775131e+00,2.870000000000002274e+03,-2.174999999998256772e+00,-4.944999999997553353e+00,1.340780256207188970e+01,-2.181118573486875434e+00
1.999999999999958789e+01,2.999999997651703776e+00,1.000000000000049383e+01,6.599999999994413669e-01,1.570000000000097540e+00,2.869999999999998181e+03,-2.175000000000705480e+00,-4.945000000000862705e+00,1.338753732836416255e+01,-2.174524696339551699e+00
2.000000000000051870e+01,2.999999995737394176e+00,9.999999999992015276e+00,6.599999999993628741e-01,1.570000000000120188e+00,2.869999999999994998e+03,-2.175000000001068745e+00,-4.945000000001370744e+00,1.339190441938828791e+01,-2.173000900429345350e+00
2.000000000000046185e+01,2.999999992993189757e+00,9.999999999987288390e+00,6.599999999993895194e-01,1.570000000000156382e+00,2.869999999999994543e+03,-2.175000000001245493e+00,-4.945000000001729568e+00,1.339593882091943478e+01,-2.188657899315578081e+00
2.000000000000033396e+01,2.999999993934019837e+00,9.999999999994013677e+00,6.599999999998403810e-01,1.570000000000031593e+00,2.869999999999996362e+03,-2.175000000000236522e+00,-4.945000000000306706e+00,1.339861162094538294e+01,-2.186225164253566167e+00
2.000000000000069988e+01,2.999999998835787274e+00,1.000000000001013056e+01,6.600000000004001555e-01,1.569999999999909690e+00,2.869999999999997726e+03,-2.174999999999620570e+00,-4.944999999999459384e+00,1.340497714454512490e+01,-2.157538763842560048e+00
2.000000000000086331e+01,2.999999994787424740e+00,9.999999999993189448e+00,6.600000000005686873e-01,1.569999999999941664e+00,2.869999999999984084e+03,-2.174999999999657430e+00,-4.944999999999666329e+00,1.340879667661593011e+01,-2.189353570838808327e+00
