2.000000000000019895e+01,3.000000002394297649e+00,1.000000000002491518e+01,6.600000000013633850e-01,1.569999999999615925e+00,2.869999999999998181e+03,-2.174999999997014211e+00,-4.944999999995768114e+00,1.341310713573569657e+01,-2.157107647885296409e+00
1.999999999999833378e+01,3.000000003410803640e+00,1.000000000002192202e+01,6.600000000005280532e-01,1.569999999999816653e+00,2.870000000000001364e+03,-2.174999999998477929e+00,-4.944999999997788720e+00,1.340195270974503572e+01,-2.185169969703679715e+00
1.999999999999797851e+01,3.000000007799450419e+00,1.000000000003247536e+01,6.600000000007034684e-01,1.569999999999744489e+00,2.870000000000002274e+03,-2.174999999997765610e+00,-4.944999999996769979e+00,1.340379936134150540e+01,-2.170165345604209595e+00
2.000000000000154898e+01,2.999999997730530499e+00,9.999999999994235722e+00,6.599999999985892707e-01,1.570000000000271401e+00,2.869999999999999545e+03,-2.175000000002719425e+00,-4.945000000003575202e+00,1.339390870370113440e+01,-2.145553299791749247e+00
1.999999999999876010e+01,2.999999999230912984e+00,1.000000000001094058e+01,6.600000000002077538e-01,1.569999999999918572e+00,2.870000000000002728e+03,-2.174999999999292388e+00,-4.944999999998932694e+00,1.339060390477567530e+01,-2.184076438149557653e+00
2.000000000000005684e+01,3.000000001392751692e+00,1.000000000002477307e+01,6.600000000002631539e-01,1.569999999999865947e+00,2.869999999999998636e+03,-2.174999999999331912e+00,-4.944999999998932694e+00,1.341113986681728854e+01,-2.142119179022380138e+00
2.000000000000121858e+01,3.000000000046515236e+00,1.000000000001705658e+01,6.599999999997407940e-01,1.569999999999973639e+00,2.869999999999996362e+03,-2.175000000000319123e+00,-4.945000000000260520e+00,1.341178467585794998e+01,-2.126932750899562574e+00
2.000000000000325429e+01,2.999999994659113156e+00,1.000000000000168043e+01,6.599999999989776267e-01,1.570000000000146390e+00,2.869999999999991360e+03,-2.175000000001973799e+00,-4.945000000002519158e+00,1.341359139273849443e+01,-2.116092313481036324e+00
2.000000000000373035e+01,2.999999992552618622e+00,9.999999999971594278e+00,6.599999999989141219e-01,1.570000000000252305e+00,2.869999999999992724e+03,-2.175000000002822897e+00,-4.945000000003824780e+00,1.340307203210558917e+01,-2.155268448218954802e+00
2.000000000000241229e+01,2.999999990654496074e+00,9.999999999970402342e+00,6.599999999985558530e-01,1.570000000000346008e+00,2.869999999999995453e+03,-2.175000000003447287e+00,-4.945000000004689866e+00,1.339206615362076391e+01,-2.173213515369854409e+00
1.999999999999925748e+01,2.999999999480288615e+00,1.000000000000925482e+01,6.600000000001768896e-01,1.569999999999907692e+00,2.870000000000003183e+03,-2.174999999999395417e+00,-4.944999999999039275e+00,1.339585888261298763e+01,-2.168453124809770038e+00
2.000000000000222045e+01,2.999999997367692739e+00,9.999999999994276578e+00,6.600000000000360023e-01,1.569999999999959872e+00,2.869999999999995453e+03,-2.175000000000259170e+00,-4.945000000000239204e+00,1.340330678806475362e+01,-2.132959967430388737e+00
2.000000000000103029e+01,3.000000000610689277e+00,1.000000000001652012e+01,6.599999999989070165e-01,1.570000000000171259e+00,2.869999999999998636e+03,-2.175000000001729994e+00,-4.945000000002176321e+00,1.340043389825236275e+01,-2.114123134164045847e+00
2.000000000000155254e+01,3.000000000588964877e+00,1.000000000001328893e+01,6.599999999990538990e-01,1.570000000000122409e+00,2.869999999999997726e+03,-2.175000000001348521e+00,-4.945000000001641638e+00,1.340639722315460602e+01,-2.117101315045080590e+00
2.000000000000366285e+01,2.999999995976956768e+00,9.999999999991034727e+00,6.599999999997238076e-01,1.570000000000054685e+00,2.869999999999989086e+03,-2.175000000001263700e+00,-4.945000000001674501e+00,1.341067239155305835e+01,-2.133487318431649182e+00
2.000000000000498446e+01,2.999999992499004176e+00,9.999999999979428011e+00,6.599999999996772893e-01,1.570000000000075557e+00,2.869999999999984084e+03,-2.175000000001816591e+00,-4.945000000002457874e+00,1.341901367087787911e+01,-2.133780739131902582e+00
2.000000000000301270e+01,2.999999995018626020e+00,9.999999999988219201e+00,6.600000000000750822e-01,1.569999999999972307e+00,2.869999999999990450e+03,-2.175000000000559819e+00,-4.945000000000709939e+00,1.341063157899888658e+01,-2.162210685288935785e+00
2.000000000000104095e+01,2.999999996667863655e+00,9.999999999999678479e+00,6.600000000003337641e-01,1.569999999999926343e+00,2.869999999999996817e+03,-2.174999999999761791e+00,-4.944999999999668105e+00,1.341132423781683158e+01,-2.178140595527057854e+00
2.000000000000180123e+01,2.999999992747920174e+00,9.999999999986325605e+00,6.599999999997663291e-01,1.570000000000074891e+00,2.869999999999995453e+03,-2.175000000001126033e+00,-4.945000000001547491e+00,1.340478694648459168e+01,-2.173043678579507088e+00
2.000000000000223821e+01,2.999999993274224064e+00,9.999999999987345234e+00,6.600000000002492762e-01,1.569999999999942997e+00,2.869999999999992724e+03,-2.175000000000273825e+00,-4.945000000000344897e+00,1.340953500583416158e+01,-2.166748496732548990e+00
2.000000000000182609e+01,2.999999999633100156e+00,1.000000000000213340e+01,6.600000000010589618e-01,1.569999999999729612e+00,2.869999999999995907e+03,-2.174999999998558309e+00,-4.944999999997939710e+00,1.341107268462046243e+01,-2.149030906114278050e+00
1.999999999999915801e+01,2.999999997300298205e+00,1.000000000001231193e+01,6.600000000006391865e-01,1.569999999999845519e+00,2.870000000000002728e+03,-2.174999999998913580e+00,-4.944999999998443307e+00,1.339087531008025600e+01,-2.176054645889867967e+00
1.999999999999898392e+01,3.000000002556022505e+00,1.000000000003058709e+01,6.600000000006509548e-01,1.569999999999752260e+00,2.870000000000001364e+03,-2.174999999997898392e+00,-4.944999999996920081e+00,1.340112677282683507e+01,-2.157828894573917466e+00
1.999999999999995026e+01,2.999999998368314991e+00,1.000000000001475087e+01,6.599999999999577316e-01,1.569999999999979412e+00,2.869999999999998636e+03,-2.175000000000238742e+00,-4.945000000000256968e+00,1.341079410595544452e+01,-2.168051061744533659e+00
2.000000000000092015e+01,2.999999998747946872e+00,1.000000000000339462e+01,6.600000000002232969e-01,1.569999999999910578e+00,2.869999999999998181e+03,-2.174999999999687628e+00,-4.944999999999485141e+00,1.341023500877423658e+01,-2.171439140028481596e+00
