2.000000000000033040e+01,2.999999997948672892e+00,1.000000000000681766e+01,6.600000000004788703e-01,1.569999999999839524e+00,2.869999999999998181e+03,-2.174999999998740385e+00,-4.944999999998154649e+00,1.340386824030292878e+01,-2.168951096065347084e+00
2.000000000000028422e+01,2.999999999364671766e+00,1.000000000000661160e+01,6.599999999998784617e-01,1.569999999999946771e+00,2.869999999999997726e+03,-2.174999999999855049e+00,-4.944999999999630802e+00,1.340213451866971539e+01,-2.162077986821587583e+00
1.999999999999845457e+01,3.000000006220493898e+00,1.000000000003664447e+01,6.600000000011853052e-01,1.569999999999687423e+00,2.870000000000000909e+03,-2.174999999997669686e+00,-4.944999999996718465e+00,1.340985739989985071e+01,-2.162113006236427992e+00
1.999999999999983302e+01,3.000000004766845141e+00,1.000000000002426148e+01,6.600000000002624878e-01,1.569999999999872164e+00,2.869999999999997272e+03,-2.174999999999042366e+00,-4.944999999998522355e+00,1.339926024061208665e+01,-2.147535808455885764e+00
2.000000000000128253e+01,2.999999997499540161e+00,9.999999999990921040e+00,6.599999999995407318e-01,1.570000000000117968e+00,2.869999999999997272e+03,-2.175000000001453770e+00,-4.945000000001956941e+00,1.339773041057961400e+01,-2.167275812738703067e+00
1.999999999999865707e+01,2.999999996878903730e+00,1.000000000001131362e+01,6.599999999997001598e-01,1.570000000000012941e+00,2.870000000000000455e+03,-2.174999999999953193e+00,-4.944999999999796891e+00,1.339070746279850077e+01,-2.177824433863167819e+00
1.999999999999805311e+01,3.000000000059646066e+00,1.000000000000961720e+01,6.599999999998131806e-01,1.569999999999978080e+00,2.870000000000002274e+03,-2.174999999999733369e+00,-4.944999999999489582e+00,1.338555132137486225e+01,-2.193295983961365714e+00
1.999999999999977973e+01,3.000000003625342693e+00,1.000000000002885336e+01,6.600000000007056888e-01,1.569999999999795781e+00,2.869999999999999545e+03,-2.174999999998940670e+00,-4.944999999998455742e+00,1.341506178089978363e+01,-2.151061145684557196e+00
2.000000000000168043e+01,2.999999998992073369e+00,1.000000000001474731e+01,6.600000000001506884e-01,1.569999999999891260e+00,2.869999999999996362e+03,-2.174999999999589484e+00,-4.944999999999271090e+00,1.341633897748835658e+01,-2.128872561541581110e+00
2.000000000000159872e+01,2.999999997519616546e+00,1.000000000001169198e+01,6.599999999998559241e-01,1.569999999999951434e+00,2.869999999999993634e+03,-2.175000000000159694e+00,-4.945000000000050910e+00,1.341267625909593697e+01,-2.140675800961767905e+00
2.000000000000226308e+01,2.999999997800157914e+00,9.999999999999831246e+00,6.600000000003792833e-01,1.569999999999919904e+00,2.869999999999991815e+03,-2.175000000000146372e+00,-4.945000000000161933e+00,1.340744954842086578e+01,-2.147283775031943787e+00
2.000000000000343547e+01,2.999999989549999135e+00,9.999999999962644992e+00,6.599999999996430944e-01,1.570000000000145501e+00,2.869999999999986812e+03,-2.175000000001860556e+00,-4.945000000002602647e+00,1.340228824593956425e+01,-2.181585855596911649e+00
2.000000000000090949e+01,2.999999996978835792e+00,1.000000000000065903e+01,6.599999999995959099e-01,1.570000000000045359e+00,2.869999999999999091e+03,-2.175000000000727685e+00,-4.945000000000879581e+00,1.340601213817486759e+01,-2.159926723653023739e+00
2.000000000000422062e+01,2.999999993730286363e+00,9.999999999976001419e+00,6.599999999993951816e-01,1.570000000000117080e+00,2.869999999999990905e+03,-2.175000000001756195e+00,-4.945000000002305107e+00,1.340964027082177878e+01,-2.131169013716057936e+00
2.000000000000072475e+01,3.000000001379144798e+00,1.000000000001287859e+01,6.599999999994244915e-01,1.570000000000047802e+00,2.869999999999998181e+03,-2.175000000000709477e+00,-4.945000000000772999e+00,1.339891840304116855e+01,-2.134055954844185976e+00
2.000000000000177636e+01,2.999999996961109971e+00,9.999999999996571631e+00,6.600000000002920197e-01,1.569999999999948548e+00,2.869999999999991360e+03,-2.175000000000207212e+00,-4.945000000000248086e+00,1.340036713909516486e+01,-2.160506047016771625e+00
2.000000000000070344e+01,3.000000001093381830e+00,1.000000000001650236e+01,6.599999999997419042e-01,1.569999999999972529e+00,2.869999999999992724e+03,-2.175000000000309797e+00,-4.945000000000247198e+00,1.340729023299434175e+01,-2.144603671182022886e+00
2.000000000000161648e+01,2.999999996397068269e+00,1.000000000000297184e+01,6.600000000003422018e-01,1.569999999999864171e+00,2.869999999999992269e+03,-2.174999999999391864e+00,-4.944999999999022400e+00,1.340909523698592132e+01,-2.154912065286652911e+00
2.000000000000000355e+01,2.999999997728768797e+00,1.000000000000557598e+01,6.600000000003108935e-01,1.569999999999922569e+00,2.869999999999999545e+03,-2.174999999999367883e+00,-4.944999999999097895e+00,1.340511817294430585e+01,-2.181808875423520533e+00
2.000000000000009948e+01,2.999999998915421795e+00,1.000000000001004885e+01,6.600000000002824718e-01,1.569999999999877938e+00,2.869999999999999545e+03,-2.174999999999210676e+00,-4.944999999998791473e+00,1.340526464229271575e+01,-2.170648256170987445e+00
2.000000000000261835e+01,2.999999991085873230e+00,9.999999999986782129e+00,6.599999999993760857e-01,1.570000000000128626e+00,2.869999999999994998e+03,-2.175000000001585221e+00,-4.945000000002112372e+00,1.340985337789479281e+01,-2.153540879927847929e+00
2.000000000000108002e+01,2.999999996882588782e+00,1.000000000000912870e+01,6.600000000007848477e-01,1.569999999999809548e+00,2.869999999999995907e+03,-2.174999999998885158e+00,-4.944999999998429097e+00,1.341436893536697639e+01,-2.154655851336201966e+00
2.000000000000224176e+01,2.999999998139085466e+00,1.000000000000165912e+01,6.600000000009009771e-01,1.569999999999801554e+00,2.869999999999989541e+03,-2.174999999999206679e+00,-4.944999999998870521e+00,1.340427822474420161e+01,-2.143283559625433377e+00
1.999999999999932854e+01,3.000000002356991491e+00,1.000000000002803624e+01,6.600000000004651035e-01,1.569999999999844187e+00,2.869999999999998181e+03,-2.174999999999049027e+00,-4.944999999998549889e+00,1.339614733501934651e+01,-2.146746336702460400e+00
2.000000000000071054e+01,3.000000000834302849e+00,1.000000000002110667e+01,6.600000000008023893e-01,1.569999999999752038e+00,2.869999999999996362e+03,-2.174999999998409983e+00,-4.944999999997661710e+00,1.340452344782908689e+01,-2.142402985678091731e+00
2.000000000000034461e+01,3.000000000439605685e+00,1.000000000002073008e+01,6.600000000008798828e-01,1.569999999999790896e+00,2.869999999999999545e+03,-2.174999999998839417e+00,-4.944999999998363371e+00,1.341188709769315146e+01,-2.152778226924782601e+00
2.000000000000015987e+01,3.000000000749406315e+00,1.000000000001568523e+01,6.600000000000976197e-01,1.569999999999910800e+00,2.869999999999998636e+03,-2.174999999999703171e+00,-4.944999999999444285e+00,1.340443614787722737e+01,-2.155247405065463084e+00
