1.999999999999985434e+01,3.000000002622673634e+00,1.000000000000252420e+01,6.600000000000486589e-01,1.569999999999995177e+00,2.869999999999993634e+03,-2.174999999999969180e+00,-4.944999999999987850e+00,1.367064346659345553e+01,-2.318676045258438734e+00
1.999999999999997868e+01,3.000000003952022265e+00,1.000000000001339551e+01,6.600000000001445821e-01,1.569999999999968310e+00,2.869999999999996362e+03,-2.174999999999776890e+00,-4.944999999999717843e+00,1.318160703819886770e+01,-1.892666184150631148e+00
1.999999999999949551e+01,3.000000000178213444e+00,1.000000000000793143e+01,6.599999999997022693e-01,1.570000000000077556e+00,2.869999999999995453e+03,-2.175000000000529177e+00,-4.945000000000777440e+00,1.342074721237601054e+01,-1.812354083531095617e+00
2.000000000000020961e+01,3.000000000291705327e+00,9.999999999953336882e+00,6.599999999994653477e-01,1.570000000000127960e+00,2.869999999999995907e+03,-2.175000000000940847e+00,-4.945000000001299689e+00,1.354878137279745864e+01,-1.920426338353859341e+00
1.999999999999898748e+01,3.000000000281211943e+00,1.000000000000038725e+01,6.599999999999844880e-01,1.570000000000022489e+00,2.869999999999994543e+03,-2.175000000000026912e+00,-4.945000000000112195e+00,1.350228477905441338e+01,-2.059424697952783045e+00
1.999999999999900169e+01,2.999999999368656134e+00,9.999999999975642595e+00,6.599999999999264233e-01,1.570000000000024265e+00,2.870000000000000455e+03,-2.175000000000105072e+00,-4.945000000000200124e+00,1.325571254011212119e+01,-1.864140495599544423e+00
1.999999999999994671e+01,3.000000000228674413e+00,9.999999999979756637e+00,6.600000000001308154e-01,1.569999999999968976e+00,2.870000000000001364e+03,-2.174999999999788436e+00,-4.944999999999724949e+00,1.311065889703867526e+01,-1.437268030460647106e+00
1.999999999999901945e+01,2.999999999151718999e+00,9.999999999974068743e+00,6.600000000004998535e-01,1.569999999999899698e+00,2.870000000000001364e+03,-2.174999999999140510e+00,-4.944999999998879403e+00,1.254322469002373630e+01,-1.203782949455656448e+00
2.000000000000054357e+01,2.999999998198294104e+00,9.999999999976745713e+00,6.599999999995980193e-01,1.570000000000092877e+00,2.870000000000000000e+03,-2.175000000000710809e+00,-4.945000000000979057e+00,1.214835595739043583e+01,-1.405941172087267210e+00
1.999999999999977973e+01,2.999999998843292826e+00,9.999999999990508925e+00,6.600000000001373657e-01,1.569999999999960316e+00,2.869999999999999091e+03,-2.174999999999766676e+00,-4.944999999999709850e+00,1.209151823419162142e+01,-1.363319765834289043e+00
2.000000000000053291e+01,2.999999997654429595e+00,9.999999999977063680e+00,6.599999999999834888e-01,1.570000000000000506e+00,2.869999999999998636e+03,-2.175000000000025580e+00,-4.945000000000026930e+00,1.102907914657357402e+01,-1.901984192671021923e+00
2.000000000000011724e+01,2.999999999518141447e+00,9.999999999967418063e+00,6.599999999998070743e-01,1.570000000000046247e+00,2.869999999999990905e+03,-2.175000000000391953e+00,-4.945000000000560725e+00,1.121625384642528900e+01,-2.076576423771526514e+00
2.000000000000068567e+01,2.999999999442631182e+00,1.000000000000538769e+01,6.599999999998332756e-01,1.570000000000030260e+00,2.870000000000001819e+03,-2.175000000000307132e+00,-4.945000000000391971e+00,1.283079659358968883e+01,-2.554893094689843380e+00
1.999999999999885603e+01,3.000000000619094109e+00,9.999999999983904431e+00,6.600000000004406786e-01,1.569999999999913243e+00,2.870000000000001364e+03,-2.174999999999226219e+00,-4.944999999998987761e+00,1.271756567166098151e+01,-2.750940673506311551e+00
2.000000000000069988e+01,3.000000002372508412e+00,9.999999999993129052e+00,6.599999999996780664e-01,1.570000000000078666e+00,2.870000000000002728e+03,-2.175000000000548717e+00,-4.945000000000721485e+00,1.133741974101279126e+01,-1.985295508786748986e+00
2.000000000000002132e+01,3.000000000897012242e+00,9.999999999983328891e+00,6.599999999998030775e-01,1.570000000000052243e+00,2.870000000000001364e+03,-2.175000000000343547e+00,-4.945000000000488782e+00,1.138005425611540744e+01,-2.360255846868792862e+00
1.999999999999975842e+01,3.000000000108692166e+00,9.999999999950000884e+00,6.600000000001748912e-01,1.569999999999962093e+00,2.870000000000002728e+03,-2.174999999999654765e+00,-4.944999999999533991e+00,1.110077009552404625e+01,-1.995085243121858198e+00
1.999999999999977973e+01,3.000000000757490071e+00,9.999999999959074515e+00,6.599999999999988098e-01,1.570000000000005613e+00,2.870000000000004093e+03,-2.174999999999996270e+00,-4.945000000000005613e+00,1.281749934766020615e+01,-3.225906785256671849e+00
2.000000000000080647e+01,2.999999997913167515e+00,9.999999999996349587e+00,6.600000000002947953e-01,1.569999999999905249e+00,2.870000000000000909e+03,-2.174999999999538858e+00,-4.944999999999301288e+00,1.238298732360031629e+01,-1.512751941854915128e+00
2.000000000000044054e+01,2.999999998522826949e+00,1.000000000004910028e+01,6.599999999999668354e-01,1.570000000000005613e+00,2.869999999999996362e+03,-2.175000000000031353e+00,-4.945000000000034035e+00,1.242537118742643720e+01,-1.712765012707390788e+00
1.999999999999930012e+01,3.000000001424788731e+00,9.999999999998978595e+00,6.600000000001234879e-01,1.569999999999981855e+00,2.870000000000001364e+03,-2.174999999999779554e+00,-4.944999999999747153e+00,1.340108219747486196e+01,-2.177936664014897161e+00
1.999999999999966249e+01,2.999999999022091579e+00,1.000000000000165024e+01,6.600000000000645350e-01,1.569999999999988738e+00,2.870000000000001364e+03,-2.174999999999910116e+00,-4.944999999999905249e+00,1.231485908427720233e+01,-2.874525075063639967e+00
2.000000000000021316e+01,2.999999996587895179e+00,1.000000000000308020e+01,6.599999999997357980e-01,1.570000000000062235e+00,2.869999999999996362e+03,-2.175000000000473221e+00,-4.945000000000658424e+00,1.269502533197923100e+01,-3.373881331615612211e+00
2.000000000000033396e+01,3.000000000203284056e+00,1.000000000002077627e+01,6.600000000000081357e-01,1.569999999999986739e+00,2.869999999999990450e+03,-2.175000000000021583e+00,-4.944999999999978080e+00,1.179429655240373442e+01,-2.401609706211827344e+00
2.000000000000126121e+01,3.000000000598726402e+00,1.000000000004530953e+01,6.599999999997181455e-01,1.570000000000047136e+00,2.869999999999987267e+03,-2.175000000000519851e+00,-4.945000000000625562e+00,1.197145217156962005e+01,-2.318985450979676344e+00
1.999999999999992895e+01,3.000000000374309916e+00,9.999999999993995914e+00,6.599999999999790479e-01,1.569999999999999840e+00,2.870000000000002274e+03,-2.175000000000037570e+00,-4.945000000000054463e+00,1.213566466147239531e+01,-1.471855367854183916e+00
1.999999999999802824e+01,3.000000000933365385e+00,9.999999999978712140e+00,6.600000000003602985e-01,1.569999999999962093e+00,2.870000000000004547e+03,-2.174999999999352784e+00,-4.944999999999226681e+00,1.230495905343495444e+01,-1.523485036998964537e+00
1.999999999999992184e+01,2.999999999869357836e+00,1.000000000000394174e+01,6.599999999995870281e-01,1.570000000000112195e+00,2.869999999999998636e+03,-2.175000000000721467e+00,-4.945000000001019025e+00,1.298646090347382653e+01,-1.912442644249292556e+00
1.999999999999977973e+01,3.000000000824850410e+00,1.000000000002056311e+01,6.599999999996551958e-01,1.570000000000091989e+00,2.869999999999997272e+03,-2.175000000000628209e+00,-4.945000000000908891e+00,1.337493903247971261e+01,-2.212101868619777534e+00
2.000000000000034461e+01,3.000000000736557482e+00,1.000000000001818812e+01,6.600000000000053602e-01,1.569999999999988738e+00,2.869999999999997272e+03,-2.175000000000013589e+00,-4.945000000000008278e+00,1.372913251300515647e+01,-2.133410381167847092e+00
2.000000000000002132e+01,3.000000001761161883e+00,9.999999999994038546e+00,6.600000000002779199e-01,1.569999999999925677e+00,2.870000000000000000e+03,-2.174999999999537081e+00,-4.944999999999352802e+00,1.329009637642359642e+01,-2.044751339293368275e+00
1.999999999999880984e+01,2.999999997506925364e+00,9.999999999983462118e+00,6.600000000001147171e-01,1.569999999999988516e+00,2.870000000000005912e+03,-2.174999999999764455e+00,-4.944999999999718732e+00,1.231738084853719428e+01,-1.381248471767970054e+00
1.999999999999852207e+01,2.999999999279681528e+00,9.999999999979344523e+00,6.599999999998682476e-01,1.570000000000064677e+00,2.870000000000004547e+03,-2.175000000000189004e+00,-4.945000000000352891e+00,1.222951402421765366e+01,-1.360256512959651110e+00
1.999999999999970868e+01,2.999999998607216334e+00,9.999999999959289454e+00,6.599999999995607158e-01,1.570000000000113305e+00,2.870000000000001364e+03,-2.175000000000747225e+00,-4.945000000001050999e+00,1.216570619071403492e+01,-1.089346956662589738e+00
2.000000000000066791e+01,2.999999998088227482e+00,1.000000000000917133e+01,6.600000000001481348e-01,1.569999999999953655e+00,2.869999999999996817e+03,-2.174999999999750688e+00,-4.944999999999627249e+00,1.217757440296366767e+01,-1.312057484061157409e+00
2.000000000000087397e+01,3.000000000151644475e+00,1.000000000000374811e+01,6.600000000002836931e-01,1.569999999999912355e+00,2.869999999999998181e+03,-2.174999999999510436e+00,-4.944999999999262208e+00,1.271483749502477600e+01,-1.479618095600011118e+00
2.000000000000148148e+01,2.999999999128202699e+00,1.000000000002080647e+01,6.600000000002584910e-01,1.569999999999895923e+00,2.869999999999995907e+03,-2.174999999999582379e+00,-4.944999999999323492e+00,1.235257706583163895e+01,-1.282929076298434223e+00
2.000000000000070699e+01,2.999999999400518202e+00,1.000000000000838085e+01,6.599999999997390177e-01,1.570000000000047580e+00,2.869999999999997726e+03,-2.175000000000468336e+00,-4.945000000000624674e+00,1.225578566537780212e+01,-1.036899942093537197e+00
2.000000000000043698e+01,2.999999999290324126e+00,1.000000000000897593e+01,6.600000000001017275e-01,1.569999999999964757e+00,2.869999999999999091e+03,-2.174999999999875921e+00,-4.944999999999818208e+00,1.243219397998314513e+01,-1.392740888966289781e+00
2.000000000000062172e+01,2.999999998290726833e+00,1.000000000001732836e+01,6.599999999999404121e-01,1.569999999999997842e+00,2.869999999999999545e+03,-2.175000000000123279e+00,-4.945000000000136176e+00,1.230659531736152701e+01,-1.567277216058276412e+00
2.000000000000029488e+01,3.000000000035191849e+00,1.000000000001637623e+01,6.599999999998559241e-01,1.570000000000023155e+00,2.870000000000001819e+03,-2.175000000000249845e+00,-4.945000000000328910e+00,1.262280865686125964e+01,-1.554314860792980868e+00
2.000000000000223821e+01,3.000000001467254762e+00,1.000000000000968114e+01,6.599999999995406208e-01,1.570000000000071783e+00,2.869999999999993179e+03,-2.175000000000846256e+00,-4.945000000001058105e+00,1.342321539257605423e+01,-2.008007520567512305e+00
2.000000000000054712e+01,3.000000002030906998e+00,1.000000000004669864e+01,6.600000000004808687e-01,1.569999999999864837e+00,2.870000000000001364e+03,-2.174999999999171596e+00,-4.944999999998809237e+00,1.336218936482834430e+01,-1.939046301366241121e+00
1.999999999999950617e+01,3.000000003193375786e+00,1.000000000002563461e+01,6.600000000002630429e-01,1.569999999999933005e+00,2.870000000000003183e+03,-2.174999999999529976e+00,-4.944999999999366125e+00,1.331783763038744439e+01,-2.003726394736788485e+00
1.999999999999985079e+01,2.999999999917528637e+00,1.000000000000923528e+01,6.599999999998252820e-01,1.570000000000048690e+00,2.870000000000000909e+03,-2.175000000000302247e+00,-4.945000000000431939e+00,1.382352370483836168e+01,-1.985441517277855450e+00
2.000000000000012079e+01,3.000000001189524479e+00,1.000000000003031353e+01,6.600000000001269296e-01,1.569999999999956763e+00,2.870000000000000455e+03,-2.174999999999787104e+00,-4.944999999999693863e+00,1.335134405677699476e+01,-1.761049729190654167e+00
1.999999999999976907e+01,2.999999997787470729e+00,1.000000000000071232e+01,6.599999999998766853e-01,1.570000000000039142e+00,2.869999999999999545e+03,-2.175000000000218314e+00,-4.945000000000338680e+00,1.367123041710556564e+01,-1.963218618109159097e+00
2.000000000000087041e+01,3.000000004160178424e+00,1.000000000001382183e+01,6.600000000001522427e-01,1.569999999999944329e+00,2.869999999999997272e+03,-2.174999999999740474e+00,-4.944999999999570406e+00,1.247829393456447811e+01,-7.282955350502704484e-01
1.999999999999968026e+01,2.999999999934185091e+00,1.000000000001474909e+01,6.599999999997684386e-01,1.570000000000053353e+00,2.869999999999992269e+03,-2.175000000000440359e+00,-4.945000000000653095e+00,1.248895029104606813e+01,-1.061651397733381907e+00
1.999999999999977973e+01,2.999999999417666263e+00,1.000000000000351186e+01,6.599999999997188116e-01,1.570000000000062457e+00,2.869999999999995453e+03,-2.175000000000511413e+00,-4.945000000000750795e+00,1.211723505749323948e+01,-6.560645803626279360e-01
1.999999999999996803e+01,3.000000003110005142e+00,1.000000000001385914e+01,6.599999999996362110e-01,1.570000000000091100e+00,2.870000000000000909e+03,-2.175000000000588685e+00,-4.945000000000815632e+00,1.323533916467242477e+01,-1.695758364212527791e+00
2.000000000000017053e+01,3.000000001242736136e+00,9.999999999985812238e+00,6.599999999994150546e-01,1.570000000000140838e+00,2.870000000000000909e+03,-2.175000000000997691e+00,-4.945000000001392948e+00,1.323290651549502073e+01,-1.733029366528102688e+00
1.999999999999983302e+01,2.999999998708482885e+00,1.000000000000983746e+01,6.599999999998708011e-01,1.570000000000045581e+00,2.870000000000000455e+03,-2.175000000000201439e+00,-4.945000000000320917e+00,1.307926006754656179e+01,-1.535791415932189929e+00
1.999999999999983658e+01,3.000000000231836328e+00,9.999999999991453947e+00,6.599999999999280886e-01,1.570000000000044915e+00,2.869999999999999545e+03,-2.175000000000149036e+00,-4.945000000000217000e+00,1.255283810096587516e+01,-1.258530587375993770e+00
1.999999999999999289e+01,3.000000000283810753e+00,9.999999999962845720e+00,6.600000000001694511e-01,1.569999999999970752e+00,2.870000000000003183e+03,-2.174999999999695621e+00,-4.944999999999547313e+00,1.226430270268089551e+01,-1.186960467092761595e+00
1.999999999999996092e+01,3.000000001082832490e+00,9.999999999992947863e+00,6.600000000000866285e-01,1.569999999999987850e+00,2.870000000000003638e+03,-2.174999999999841727e+00,-4.944999999999757812e+00,1.223642097903224979e+01,-1.105254969627474493e+00
1.999999999999854339e+01,3.000000000320168336e+00,9.999999999998811617e+00,6.600000000002740341e-01,1.569999999999951656e+00,2.870000000000007731e+03,-2.174999999999459810e+00,-4.944999999999318163e+00,1.278577445009391411e+01,-1.350234906518168687e+00
1.999999999999927525e+01,2.999999999600929002e+00,1.000000000000496847e+01,6.600000000001386979e-01,1.569999999999972751e+00,2.870000000000004547e+03,-2.174999999999739586e+00,-4.944999999999661888e+00,1.236176248636737895e+01,-1.479568724065193130e+00
1.999999999999976907e+01,2.999999999682269713e+00,9.999999999994287236e+00,6.600000000000091349e-01,1.570000000000004503e+00,2.870000000000002274e+03,-2.174999999999977174e+00,-4.944999999999975415e+00,1.261739303158167580e+01,-1.276914919439209983e+00
1.999999999999909406e+01,2.999999999962455810e+00,1.000000000000958345e+01,6.600000000001554623e-01,1.569999999999982521e+00,2.870000000000003638e+03,-2.174999999999706723e+00,-4.944999999999632578e+00,1.301668394591943745e+01,-1.926429415921091071e+00
2.000000000000031974e+01,3.000000001157589136e+00,1.000000000000696332e+01,6.600000000002365086e-01,1.569999999999935669e+00,2.869999999999999545e+03,-2.174999999999573053e+00,-4.944999999999375895e+00,1.306003777120336906e+01,-1.402537387755003806e+00
2.000000000000036593e+01,2.999999999395800643e+00,9.999999999926963312e+00,6.600000000002110845e-01,1.569999999999953655e+00,2.870000000000003183e+03,-2.174999999999616129e+00,-4.944999999999454054e+00,1.348752798547474185e+01,-1.671354724925251611e+00
2.000000000000055067e+01,3.000000000345257600e+00,9.999999999956783014e+00,6.600000000000885159e-01,1.569999999999978524e+00,2.870000000000001364e+03,-2.174999999999841727e+00,-4.944999999999766693e+00,1.320668336654635056e+01,-1.605270595333110561e+00
1.999999999999968736e+01,3.000000000497613950e+00,9.999999999958296470e+00,6.600000000001051692e-01,1.569999999999985629e+00,2.870000000000007276e+03,-2.174999999999771561e+00,-4.944999999999706297e+00,1.279680186166181421e+01,-1.653331759134934131e+00
2.000000000000018119e+01,3.000000001724691057e+00,9.999999999942383866e+00,6.599999999997835376e-01,1.570000000000045359e+00,2.870000000000005002e+03,-2.175000000000391509e+00,-4.945000000000529639e+00,1.255387404893790126e+01,-1.690369805147162285e+00
2.000000000000015987e+01,3.000000000994301974e+00,9.999999999962490449e+00,6.599999999997292477e-01,1.570000000000076223e+00,2.870000000000002274e+03,-2.175000000000453682e+00,-4.945000000000624674e+00,1.313917184071377697e+01,-1.711325703411745280e+00
2.000000000000045119e+01,2.999999999674276552e+00,9.999999999964094499e+00,6.600000000000680878e-01,1.569999999999972973e+00,2.870000000000002274e+03,-2.174999999999890576e+00,-4.944999999999811102e+00,1.296786830759710085e+01,-1.493803319103728766e+00
2.000000000000084199e+01,2.999999999964962694e+00,9.999999999996548539e+00,6.600000000000292300e-01,1.569999999999973417e+00,2.870000000000004093e+03,-2.174999999999967848e+00,-4.944999999999892815e+00,1.255838308586229424e+01,-1.630971362111252265e+00
2.000000000000086686e+01,3.000000000668374689e+00,9.999999999964545694e+00,6.599999999996283284e-01,1.570000000000074891e+00,2.870000000000005912e+03,-2.175000000000645084e+00,-4.945000000000848495e+00,1.245335303762832169e+01,-1.558527464187012379e+00
1.999999999999983302e+01,3.000000000975608483e+00,1.000000000000571809e+01,6.599999999999719424e-01,1.569999999999999618e+00,2.870000000000001364e+03,-2.175000000000066880e+00,-4.945000000000097096e+00,1.327493098386801584e+01,-2.318709165592143684e+00
2.000000000000079226e+01,2.999999999457112043e+00,9.999999999997122302e+00,6.599999999998651390e-01,1.570000000000018492e+00,2.870000000000000455e+03,-2.175000000000240519e+00,-4.945000000000291607e+00,1.380177813104855389e+01,-1.862035686030716564e+00
2.000000000000137490e+01,2.999999996470362085e+00,1.000000000003104006e+01,6.599999999997592237e-01,1.570000000000020934e+00,2.870000000000000455e+03,-2.175000000000454570e+00,-4.945000000000550955e+00,1.366999200439603790e+01,-2.158738242105387339e+00
1.999999999999917577e+01,2.999999996952246839e+00,1.000000000003402789e+01,6.600000000008003909e-01,1.569999999999807327e+00,2.870000000000004547e+03,-2.174999999998585398e+00,-4.944999999998071161e+00,1.368921904244424859e+01,-2.139352886540242249e+00
1.999999999999920774e+01,2.999999999150592345e+00,1.000000000003989697e+01,6.600000000001310374e-01,1.569999999999978524e+00,2.870000000000002274e+03,-2.174999999999756017e+00,-4.944999999999699192e+00,1.307698091950049601e+01,-1.576651738729128560e+00
2.000000000000050449e+01,2.999999998156779757e+00,1.000000000003703171e+01,6.599999999994473621e-01,1.570000000000127072e+00,2.869999999999998636e+03,-2.175000000000991918e+00,-4.945000000001362750e+00,1.284970001637231185e+01,-1.741983646682147890e+00
1.999999999999879563e+01,3.000000000451272797e+00,1.000000000003240430e+01,6.600000000006311929e-01,1.569999999999857954e+00,2.870000000000005912e+03,-2.174999999998867839e+00,-4.944999999998486828e+00,1.247884211998391990e+01,-9.419520519833706196e-01
2.000000000000072120e+01,3.000000000119551924e+00,1.000000000004308554e+01,6.599999999996759570e-01,1.570000000000068674e+00,2.869999999999999091e+03,-2.175000000000572253e+00,-4.945000000000771223e+00,1.261608965980725472e+01,-1.100274096403327517e+00
1.999999999999981171e+01,3.000000002113877962e+00,1.000000000001918643e+01,6.600000000000538769e-01,1.569999999999991624e+00,2.869999999999999091e+03,-2.174999999999940314e+00,-4.944999999999938112e+00,1.302257251489158207e+01,-1.771922529231541699e+00
2.000000000000067502e+01,3.000000002802349020e+00,1.000000000003743672e+01,6.599999999998288347e-01,1.570000000000024265e+00,2.869999999999998181e+03,-2.175000000000326672e+00,-4.945000000000418616e+00,1.281743234881960625e+01,-1.370900777495013045e+00
1.999999999999978328e+01,3.000000002804373622e+00,1.000000000004880896e+01,6.599999999997542277e-01,1.570000000000067786e+00,2.870000000000002728e+03,-2.175000000000417266e+00,-4.945000000000601581e+00,1.209603039483809539e+01,-1.342177949127291603e+00
2.000000000000055422e+01,3.000000002881765493e+00,1.000000000002608047e+01,6.599999999997103739e-01,1.570000000000053131e+00,2.870000000000001819e+03,-2.175000000000522959e+00,-4.945000000000692175e+00,1.215034364156791291e+01,-1.283448652943626422e+00
2.000000000000067857e+01,3.000000003240663737e+00,1.000000000000538947e+01,6.600000000000105782e-01,1.569999999999986739e+00,2.870000000000003183e+03,-2.174999999999952305e+00,-4.944999999999887486e+00,1.209027264988123029e+01,-1.122942187512390833e+00
2.000000000000019185e+01,3.000000002526408860e+00,1.000000000003131184e+01,6.599999999998301670e-01,1.570000000000032703e+00,2.870000000000000909e+03,-2.175000000000299583e+00,-4.945000000000407070e+00,1.223432057370019699e+01,-1.589440188449233737e+00
1.999999999999973355e+01,2.999999999596255851e+00,9.999999999995385025e+00,6.599999999999311973e-01,1.570000000000012275e+00,2.870000000000000455e+03,-2.175000000000111733e+00,-4.945000000000161933e+00,1.314531891106175188e+01,-1.810543734408981420e+00
2.000000000000080647e+01,3.000000000102391873e+00,1.000000000001820410e+01,6.600000000002002043e-01,1.569999999999946105e+00,2.870000000000002728e+03,-2.174999999999675193e+00,-4.944999999999486917e+00,1.327538532701481166e+01,-2.017517895295004582e+00
2.000000000000007105e+01,3.000000002011078859e+00,1.000000000000431477e+01,6.599999999995994626e-01,1.570000000000111529e+00,2.870000000000003183e+03,-2.175000000000683720e+00,-4.945000000000967511e+00,1.301426382840004869e+01,-1.561796005236877116e+00
2.000000000000048672e+01,3.000000001567629138e+00,1.000000000001895195e+01,6.599999999996087885e-01,1.570000000000089990e+00,2.870000000000000455e+03,-2.175000000000652634e+00,-4.945000000000896456e+00,1.320243333709061595e+01,-1.857985076923005519e+00
2.000000000000018119e+01,3.000000001687080697e+00,1.000000000000303046e+01,6.599999999999732747e-01,1.570000000000002283e+00,2.870000000000000909e+03,-2.175000000000022471e+00,-4.945000000000030482e+00,1.334429022725593939e+01,-2.101884329259695150e+00
2.000000000000070344e+01,3.000000001420299434e+00,1.000000000002787637e+01,6.599999999998970024e-01,1.570000000000016493e+00,2.870000000000001364e+03,-2.175000000000136158e+00,-4.945000000000148610e+00,1.354280759735804374e+01,-1.965878686435689859e+00
2.000000000000095923e+01,2.999999998796930356e+00,1.000000000002475709e+01,6.599999999999245359e-01,1.569999999999996509e+00,2.869999999999991815e+03,-2.175000000000181011e+00,-4.945000000000212559e+00,1.273647529809348988e+01,-1.500146364231137674e+00
2.000000000000132161e+01,2.999999999479916912e+00,1.000000000000070521e+01,6.599999999996400968e-01,1.570000000000064455e+00,2.869999999999992724e+03,-2.175000000000654854e+00,-4.945000000000848495e+00,1.316857642927094219e+01,-1.743391588837700512e+00
2.000000000000039435e+01,3.000000003980243690e+00,1.000000000005472955e+01,6.600000000001051692e-01,1.569999999999956319e+00,2.869999999999995453e+03,-2.174999999999871481e+00,-4.944999999999802220e+00,1.386970604065883705e+01,-2.257773294815628606e+00
2.000000000000070344e+01,3.000000001674115513e+00,1.000000000001968203e+01,6.600000000002419487e-01,1.569999999999930562e+00,2.869999999999998636e+03,-2.174999999999606359e+00,-4.944999999999407869e+00,1.345029822855867607e+01,-2.321565513289363114e+00
2.000000000000012790e+01,3.000000001686724538e+00,9.999999999985405452e+00,6.600000000003682921e-01,1.569999999999905915e+00,2.870000000000000455e+03,-2.174999999999392308e+00,-4.944999999999159179e+00,1.362587360514040391e+01,-2.332444353084321520e+00
2.000000000000217071e+01,3.000000001748377443e+00,1.000000000000939693e+01,6.599999999995854738e-01,1.570000000000045137e+00,2.870000000000000000e+03,-2.175000000000754330e+00,-4.945000000000914220e+00,1.355965046660689310e+01,-2.032135819984217662e+00
2.000000000000007461e+01,2.999999999383030413e+00,9.999999999988492760e+00,6.599999999998572564e-01,1.570000000000039808e+00,2.870000000000001364e+03,-2.175000000000240519e+00,-4.945000000000351115e+00,1.276628913879038230e+01,-2.535685725438665106e+00
1.999999999999872102e+01,2.999999999713016230e+00,9.999999999996614264e+00,6.600000000002962386e-01,1.569999999999962093e+00,2.870000000000001819e+03,-2.174999999999433165e+00,-4.944999999999277307e+00,1.312685859420630230e+01,-2.147762280807365975e+00
1.999999999999905498e+01,2.999999998116366307e+00,1.000000000001465850e+01,6.599999999999178746e-01,1.570000000000036033e+00,2.870000000000000909e+03,-2.175000000000115730e+00,-4.945000000000208118e+00,1.310640273175695825e+01,-2.257369529450489409e+00
1.999999999999815969e+01,2.999999998230906684e+00,1.000000000001390177e+01,6.600000000003917178e-01,1.569999999999934337e+00,2.870000000000001364e+03,-2.174999999999296829e+00,-4.944999999999109441e+00,1.341428246135356694e+01,-2.604842422474446639e+00
1.999999999999902656e+01,2.999999999160182895e+00,1.000000000001656630e+01,6.599999999999623945e-01,1.570000000000038254e+00,2.870000000000000455e+03,-2.175000000000018918e+00,-4.945000000000090878e+00,1.343400836410625132e+01,-2.489481074396371341e+00
2.000000000000062528e+01,2.999999998154777803e+00,1.000000000002003020e+01,6.599999999994681232e-01,1.570000000000131513e+00,2.870000000000000455e+03,-2.175000000000895106e+00,-4.945000000001212648e+00,1.283124983225602200e+01,-2.179195569856623660e+00
2.000000000000003197e+01,2.999999998741609719e+00,1.000000000000912337e+01,6.599999999995427302e-01,1.570000000000119744e+00,2.869999999999999091e+03,-2.175000000000786304e+00,-4.945000000001087415e+00,1.326430333957717167e+01,-2.547809473543865888e+00
1.999999999999918643e+01,2.999999998607636886e+00,9.999999999999051425e+00,6.599999999996921662e-01,1.570000000000093321e+00,2.870000000000001364e+03,-2.175000000000493650e+00,-4.945000000000733920e+00,1.329899301432750924e+01,-2.385811856549307386e+00
2.000000000000138556e+01,3.000000000193939531e+00,1.000000000002106937e+01,6.599999999997454569e-01,1.570000000000046025e+00,2.869999999999999545e+03,-2.175000000000455014e+00,-4.945000000000572271e+00,1.292864694650866397e+01,-2.276247247483036862e+00
2.000000000000178701e+01,3.000000000285548030e+00,1.000000000003451994e+01,6.600000000000066924e-01,1.569999999999965201e+00,2.869999999999998181e+03,-2.175000000000008704e+00,-4.944999999999903473e+00,1.332885325107795360e+01,-2.650770849304859400e+00
1.999999999999953459e+01,2.999999999667696926e+00,1.000000000002505551e+01,6.600000000001379208e-01,1.569999999999974305e+00,2.870000000000000000e+03,-2.174999999999776445e+00,-4.944999999999724061e+00,1.399861986851443696e+01,-2.856780780359340799e+00
1.999999999999996447e+01,3.000000000427821778e+00,1.000000000004244960e+01,6.600000000000637579e-01,1.569999999999980744e+00,2.870000000000002728e+03,-2.174999999999871925e+00,-4.944999999999826201e+00,1.359584976232475029e+01,-2.378395127996924430e+00
1.999999999999903721e+01,2.999999998376971622e+00,9.999999999977697840e+00,6.600000000000351141e-01,1.570000000000021823e+00,2.870000000000000000e+03,-2.174999999999914557e+00,-4.944999999999944329e+00,1.342325141299898661e+01,-2.765105407733536413e+00
1.999999999999875300e+01,2.999999999518841332e+00,9.999999999961691088e+00,6.600000000001966516e-01,1.569999999999987850e+00,2.870000000000002274e+03,-2.174999999999597478e+00,-4.944999999999518892e+00,1.301583262201469005e+01,-2.211468292484376708e+00
1.999999999999839417e+01,2.999999998107063082e+00,1.000000000001408473e+01,6.600000000001047251e-01,1.570000000000014273e+00,2.870000000000007276e+03,-2.174999999999766231e+00,-4.944999999999772911e+00,1.364753672430484244e+01,-2.651000813351505947e+00
1.999999999999888090e+01,2.999999999528948358e+00,9.999999999987407406e+00,6.600000000002054223e-01,1.569999999999982965e+00,2.870000000000005002e+03,-2.174999999999625011e+00,-4.944999999999540208e+00,1.354181369366645171e+01,-2.632169843890758809e+00
1.999999999999992184e+01,2.999999998465932460e+00,1.000000000001005951e+01,6.599999999996231104e-01,1.570000000000105089e+00,2.870000000000002274e+03,-2.175000000000665956e+00,-4.945000000000943530e+00,1.327822560413115838e+01,-2.423331608540337800e+00
2.000000000000016698e+01,2.999999998309707205e+00,1.000000000000400391e+01,6.599999999999300870e-01,1.570000000000030260e+00,2.869999999999999545e+03,-2.175000000000128164e+00,-4.945000000000172591e+00,1.343052318158743930e+01,-2.538294087071229832e+00
2.000000000000021672e+01,3.000000000291802138e+00,1.000000000000067857e+01,6.599999999995170841e-01,1.570000000000123741e+00,2.869999999999996817e+03,-2.175000000000869349e+00,-4.945000000001207319e+00,1.326443946832395504e+01,-2.371957137471346400e+00
1.999999999999884892e+01,2.999999997186071798e+00,9.999999999999879208e+00,6.600000000007996137e-01,1.569999999999822871e+00,2.870000000000005002e+03,-2.174999999998538769e+00,-4.944999999998012541e+00,1.351092378988264642e+01,-2.105223714421329273e+00
1.999999999999941025e+01,2.999999997227358772e+00,9.999999999961938002e+00,6.600000000003221068e-01,1.569999999999941220e+00,2.870000000000002728e+03,-2.174999999999375433e+00,-4.944999999999161844e+00,1.341033853830028200e+01,-1.963657986604070649e+00
1.999999999999958433e+01,2.999999996437651362e+00,1.000000000002337153e+01,6.599999999998393818e-01,1.570000000000053575e+00,2.870000000000005457e+03,-2.175000000000260947e+00,-4.945000000000403517e+00,1.305626502560994240e+01,-1.576623570814232433e+00
2.000000000000160227e+01,3.000000001263791294e+00,9.999999999973805842e+00,6.599999999996258859e-01,1.570000000000072449e+00,2.869999999999995453e+03,-2.175000000000676170e+00,-4.945000000000860041e+00,1.295149480506729667e+01,-1.992804063415351212e+00
2.000000000000030909e+01,3.000000001316871501e+00,1.000000000000342304e+01,6.600000000001858824e-01,1.569999999999939888e+00,2.869999999999999091e+03,-2.174999999999663203e+00,-4.944999999999516227e+00,1.349635524805146858e+01,-2.501342932564110555e+00
2.000000000000159517e+01,2.999999998015409730e+00,1.000000000000271783e+01,6.600000000000337819e-01,1.569999999999960760e+00,2.870000000000000455e+03,-2.174999999999977174e+00,-4.944999999999873275e+00,1.346116590619730147e+01,-2.696728161738019658e+00
2.000000000000127542e+01,2.999999999439626475e+00,9.999999999980531129e+00,6.600000000000751932e-01,1.569999999999962981e+00,2.869999999999999091e+03,-2.174999999999891465e+00,-4.944999999999767581e+00,1.335017487663157176e+01,-2.542725691563072044e+00
2.000000000000137135e+01,2.999999999386431693e+00,9.999999999995710098e+00,6.599999999999964784e-01,1.569999999999970086e+00,2.870000000000000455e+03,-2.175000000000036682e+00,-4.944999999999969198e+00,1.362292001323854862e+01,-2.370519138823320660e+00
2.000000000000096634e+01,3.000000001350568546e+00,1.000000000000100719e+01,6.600000000000288969e-01,1.569999999999955653e+00,2.869999999999995907e+03,-2.174999999999981615e+00,-4.944999999999915019e+00,1.372363559845337377e+01,-2.620143437126715824e+00
1.999999999999938538e+01,3.000000001651064618e+00,9.999999999984906296e+00,6.600000000003072298e-01,1.569999999999932561e+00,2.869999999999998636e+03,-2.174999999999495337e+00,-4.944999999999340368e+00,1.333505304584178752e+01,-2.105797334484326822e+00
1.999999999999890932e+01,2.999999999693482522e+00,9.999999999992809308e+00,6.600000000004706546e-01,1.569999999999901252e+00,2.870000000000004093e+03,-2.174999999999163602e+00,-4.944999999998904272e+00,1.364155929420576641e+01,-2.395160624168292340e+00
1.999999999999993960e+01,3.000000001242024705e+00,9.999999999970471620e+00,6.600000000002724798e-01,1.569999999999936557e+00,2.870000000000000909e+03,-2.174999999999557065e+00,-4.944999999999404316e+00,1.360684980316411696e+01,-1.925483724542401243e+00
1.999999999999953815e+01,3.000000003499378565e+00,1.000000000000175504e+01,6.600000000001117195e-01,1.569999999999979190e+00,2.870000000000000455e+03,-2.174999999999827516e+00,-4.944999999999816431e+00,1.385473417750200653e+01,-2.164789663851584223e+00
2.000000000000099476e+01,3.000000004698200051e+00,9.999999999982817300e+00,6.599999999997635536e-01,1.570000000000027818e+00,2.870000000000000909e+03,-2.175000000000423928e+00,-4.945000000000545626e+00,1.299367089346325344e+01,-1.848936589700119093e+00
2.000000000000042988e+01,3.000000000750349116e+00,1.000000000003547562e+01,6.599999999999678346e-01,1.569999999999978080e+00,2.869999999999992269e+03,-2.175000000000101519e+00,-4.945000000000115747e+00,1.319001322182969993e+01,-2.329707212305294650e+00
2.000000000000151701e+01,3.000000000521310106e+00,1.000000000003819345e+01,6.599999999995344035e-01,1.570000000000076001e+00,2.869999999999993179e+03,-2.175000000000839595e+00,-4.945000000001071427e+00,1.320212239453143255e+01,-2.402331084106207992e+00
2.000000000000096279e+01,2.999999999655896143e+00,1.000000000004687095e+01,6.599999999995560529e-01,1.570000000000076446e+00,2.869999999999997272e+03,-2.175000000000801403e+00,-4.945000000001079421e+00,1.347927659883092844e+01,-2.100770040162146302e+00
2.000000000000111910e+01,2.999999999301736331e+00,1.000000000002138201e+01,6.599999999992571809e-01,1.570000000000158824e+00,2.869999999999995453e+03,-2.175000000001350742e+00,-4.945000000001857465e+00,1.363334369460806172e+01,-2.041756259791867034e+00
2.000000000000103029e+01,2.999999998532279832e+00,1.000000000003568346e+01,6.599999999995564970e-01,1.570000000000087104e+00,2.869999999999995453e+03,-2.175000000000801403e+00,-4.945000000001082086e+00,1.344811567369279892e+01,-2.497901591671046084e+00
1.999999999999936406e+01,3.000000000410242951e+00,1.000000000003510969e+01,6.600000000003319878e-01,1.569999999999926343e+00,2.870000000000004093e+03,-2.174999999999419398e+00,-4.944999999999233786e+00,1.335316506270066839e+01,-2.275926530331114250e+00
2.000000000000161648e+01,2.999999998473118268e+00,9.999999999995409894e+00,6.599999999995334043e-01,1.570000000000094653e+00,2.869999999999996362e+03,-2.175000000000820499e+00,-4.945000000001037677e+00,1.353244205920345777e+01,-2.413092182717422762e+00
2.000000000000013500e+01,2.999999999057767486e+00,9.999999999971191045e+00,6.600000000004008216e-01,1.569999999999893259e+00,2.869999999999999545e+03,-2.174999999999303046e+00,-4.944999999998993978e+00,1.342149178554548428e+01,-2.357391388095815277e+00
2.000000000000076028e+01,2.999999999862235978e+00,9.999999999962744468e+00,6.599999999998168443e-01,1.570000000000037366e+00,2.869999999999999091e+03,-2.175000000000312905e+00,-4.945000000000378648e+00,1.315861538042316958e+01,-2.159270948372414622e+00
1.999999999999926104e+01,3.000000000462986982e+00,9.999999999985638155e+00,6.599999999997682165e-01,1.570000000000065787e+00,2.870000000000001364e+03,-2.175000000000393285e+00,-4.945000000000584706e+00,1.352046690314965360e+01,-1.951168037322574822e+00
2.000000000000057199e+01,2.999999999727461564e+00,1.000000000002857270e+01,6.599999999997706590e-01,1.570000000000060236e+00,2.869999999999998636e+03,-2.175000000000450129e+00,-4.945000000000610463e+00,1.350873660613370930e+01,-2.206669633421697974e+00
2.000000000000150990e+01,2.999999999330629663e+00,1.000000000002511946e+01,6.599999999997508970e-01,1.570000000000043361e+00,2.869999999999999545e+03,-2.175000000000449685e+00,-4.945000000000541185e+00,1.403188466317946315e+01,-2.120284660201377847e+00
2.000000000000033396e+01,2.999999998512083987e+00,1.000000000000317257e+01,6.599999999996185585e-01,1.570000000000104423e+00,2.870000000000001819e+03,-2.175000000000665068e+00,-4.945000000000939089e+00,1.253439990330308795e+01,-1.296127788125553737e+00
2.000000000000046896e+01,2.999999999707999354e+00,9.999999999974880538e+00,6.600000000002477218e-01,1.569999999999932783e+00,2.870000000000001819e+03,-2.174999999999582379e+00,-4.944999999999399876e+00,1.268309211698235828e+01,-1.325163443945461594e+00
2.000000000000001776e+01,2.999999999788022897e+00,9.999999999972953191e+00,6.600000000006064349e-01,1.569999999999840412e+00,2.869999999999996817e+03,-2.174999999998947331e+00,-4.944999999998522355e+00,1.250019884590223640e+01,-1.549867108246171465e+00
1.999999999999950617e+01,2.999999999791907790e+00,9.999999999961904251e+00,6.600000000000953992e-01,1.569999999999982965e+00,2.869999999999999545e+03,-2.174999999999841283e+00,-4.944999999999816431e+00,1.250764655586043794e+01,-1.523879895029574438e+00
2.000000000000093081e+01,2.999999998903530418e+00,9.999999999984519050e+00,6.599999999999875966e-01,1.569999999999983853e+00,2.870000000000000455e+03,-2.175000000000029576e+00,-4.944999999999985185e+00,1.264205288774435409e+01,-1.585634154400854756e+00
2.000000000000037303e+01,2.999999997904239546e+00,9.999999999984179766e+00,6.600000000000076916e-01,1.569999999999983187e+00,2.870000000000001364e+03,-2.174999999999989608e+00,-4.944999999999967422e+00,1.342922714513672666e+01,-2.201749953455588660e+00
2.000000000000118661e+01,2.999999998779503851e+00,9.999999999990432542e+00,6.600000000000004752e-01,1.569999999999964979e+00,2.870000000000002728e+03,-2.174999999999967404e+00,-4.944999999999875051e+00,1.347822139340830994e+01,-2.142197840345929194e+00
2.000000000000147793e+01,2.999999997609344327e+00,1.000000000000665779e+01,6.599999999992189892e-01,1.570000000000167706e+00,2.869999999999997272e+03,-2.175000000001372502e+00,-4.945000000001850360e+00,1.301004905404196599e+01,-1.569467846141622047e+00
2.000000000000028066e+01,2.999999998538767088e+00,9.999999999996644462e+00,6.600000000004336842e-01,1.569999999999886153e+00,2.870000000000003183e+03,-2.174999999999220890e+00,-4.944999999998883844e+00,1.359735137480132039e+01,-2.365448913245410623e+00
2.000000000000054001e+01,2.999999998838017046e+00,9.999999999993226751e+00,6.600000000001237099e-01,1.569999999999968532e+00,2.870000000000001364e+03,-2.174999999999783551e+00,-4.944999999999682316e+00,1.369015015572534288e+01,-2.107933679756735845e+00
1.999999999999970512e+01,3.000000000365731889e+00,1.000000000005326939e+01,6.600000000000411093e-01,1.569999999999994955e+00,2.870000000000002274e+03,-2.174999999999915001e+00,-4.944999999999907914e+00,1.378184462689616296e+01,-2.395128035891075147e+00
1.999999999999996092e+01,2.999999998874109064e+00,9.999999999977244869e+00,6.599999999997325784e-01,1.570000000000059792e+00,2.869999999999999545e+03,-2.175000000000466560e+00,-4.945000000000672635e+00,1.326893980780847215e+01,-2.001652042130285913e+00
2.000000000000006750e+01,2.999999998153688896e+00,9.999999999966252773e+00,6.599999999999640599e-01,1.570000000000001616e+00,2.870000000000000455e+03,-2.175000000000063327e+00,-4.945000000000093543e+00,1.328769202367074342e+01,-2.266635913728389795e+00
1.999999999999974065e+01,2.999999999959271690e+00,9.999999999981890042e+00,6.600000000003529710e-01,1.569999999999912799e+00,2.870000000000000455e+03,-2.174999999999359446e+00,-4.944999999999143192e+00,1.242527356531786609e+01,-1.197386190107642134e+00
2.000000000000046896e+01,3.000000001695997565e+00,1.000000000003803180e+01,6.599999999996015720e-01,1.570000000000094431e+00,2.869999999999997726e+03,-2.175000000000716138e+00,-4.945000000001010143e+00,1.278986677044910714e+01,-1.154274261612402874e+00
2.000000000000038725e+01,3.000000001413362316e+00,1.000000000004705569e+01,6.600000000000194600e-01,1.569999999999973861e+00,2.870000000000001819e+03,-2.174999999999946088e+00,-4.944999999999923013e+00,1.216833965860546307e+01,-9.947678363549206093e-01
1.999999999999997513e+01,3.000000000177164949e+00,1.000000000001810285e+01,6.600000000002809175e-01,1.569999999999940776e+00,2.870000000000002274e+03,-2.174999999999483347e+00,-4.944999999999288853e+00,1.232979346407903520e+01,-1.455112646563894607e+00
2.000000000000126477e+01,3.000000001087617552e+00,1.000000000002371969e+01,6.599999999996998268e-01,1.570000000000055351e+00,2.869999999999998181e+03,-2.175000000000512745e+00,-4.945000000000641549e+00,1.287296923833575946e+01,-1.759068032857771247e+00
1.999999999999888800e+01,3.000000002238838004e+00,9.999999999998470557e+00,6.599999999998629185e-01,1.570000000000063567e+00,2.870000000000000909e+03,-2.175000000000216094e+00,-4.945000000000375984e+00,1.243239541011604210e+01,-1.275792049955970509e+00
1.999999999999851852e+01,2.999999999776896242e+00,1.000000000000007461e+01,6.600000000007784084e-01,1.569999999999834639e+00,2.870000000000005002e+03,-2.174999999998623590e+00,-4.944999999998161755e+00,1.348861871151128611e+01,-2.359849092770756496e+00
2.000000000000012790e+01,3.000000000196320293e+00,9.999999999976799003e+00,6.599999999997122613e-01,1.570000000000070894e+00,2.870000000000000000e+03,-2.175000000000511413e+00,-4.945000000000707274e+00,1.334487051474957831e+01,-2.091849888613474207e+00
2.000000000000000000e+01,3.000000000576634740e+00,9.999999999986966870e+00,6.599999999999690559e-01,1.570000000000008500e+00,2.870000000000001364e+03,-2.175000000000047784e+00,-4.945000000000069562e+00,1.375862166777302065e+01,-2.674615975839455650e+00
1.999999999999847944e+01,3.000000000453620697e+00,1.000000000000025047e+01,6.600000000002737011e-01,1.569999999999966089e+00,2.870000000000001364e+03,-2.174999999999494005e+00,-4.944999999999386553e+00,1.333891655440420898e+01,-2.381214074854752560e+00
2.000000000000020606e+01,2.999999999347281232e+00,1.000000000000991918e+01,6.600000000001596812e-01,1.569999999999955209e+00,2.870000000000001819e+03,-2.174999999999710276e+00,-4.944999999999602380e+00,1.332230515538835647e+01,-1.821986570345394574e+00
2.000000000000011013e+01,3.000000001701184971e+00,1.000000000004584777e+01,6.599999999999687228e-01,1.570000000000001616e+00,2.870000000000001819e+03,-2.175000000000051337e+00,-4.945000000000088214e+00,1.349614124670142346e+01,-1.781368302521285196e+00
2.000000000000159517e+01,3.000000000526408250e+00,1.000000000003417533e+01,6.599999999996852829e-01,1.570000000000048246e+00,2.870000000000001819e+03,-2.175000000000488765e+00,-4.945000000000598916e+00,1.378150774801260425e+01,-1.796889372231851523e+00
2.000000000000042277e+01,3.000000000311624504e+00,9.999999999970391684e+00,6.599999999999897060e-01,1.569999999999999396e+00,2.869999999999999545e+03,-2.175000000000005151e+00,-4.945000000000013607e+00,1.331418621545452829e+01,-1.881822340716546638e+00
1.999999999999877431e+01,3.000000000580422377e+00,9.999999999986982857e+00,6.600000000002828049e-01,1.569999999999948326e+00,2.870000000000006366e+03,-2.174999999999435829e+00,-4.944999999999287965e+00,1.356294023506207225e+01,-2.336943849259449646e+00
2.000000000000063949e+01,3.000000002236296037e+00,9.999999999995727862e+00,6.600000000000817435e-01,1.569999999999955875e+00,2.870000000000002274e+03,-2.174999999999880362e+00,-4.944999999999793339e+00,1.289728561470864321e+01,-2.051249907465941824e+00
1.999999999999947775e+01,3.000000003611219324e+00,9.999999999964391151e+00,6.600000000001073897e-01,1.569999999999972973e+00,2.870000000000000909e+03,-2.174999999999803535e+00,-4.944999999999763141e+00,1.296610206375123653e+01,-1.915534941905728816e+00
1.999999999999866063e+01,2.999999999507305670e+00,9.999999999961453057e+00,6.599999999999583977e-01,1.570000000000051354e+00,2.870000000000004093e+03,-2.175000000000031797e+00,-4.945000000000129070e+00,1.226865423709870484e+01,-1.333455782376281151e+00
1.999999999999782929e+01,2.999999998869046003e+00,1.000000000001212364e+01,6.600000000004170309e-01,1.569999999999948104e+00,2.870000000000005002e+03,-2.174999999999241762e+00,-4.944999999999077467e+00,1.237031794670757989e+01,-1.301331225178269824e+00
2.000000000000074607e+01,2.999999999291542707e+00,1.000000000000461498e+01,6.599999999996135625e-01,1.570000000000087104e+00,2.869999999999998181e+03,-2.175000000000675282e+00,-4.945000000000910667e+00,1.281714035882809277e+01,-1.345610046027394535e+00
2.000000000000035527e+01,2.999999999207021428e+00,9.999999999958195218e+00,6.599999999999845990e-01,1.569999999999997398e+00,2.870000000000000000e+03,-2.175000000000034461e+00,-4.945000000000034035e+00,1.353156381917781914e+01,-2.149157522119090835e+00
2.000000000000062883e+01,2.999999998949868463e+00,9.999999999961227459e+00,6.599999999998892308e-01,1.570000000000018048e+00,2.870000000000001364e+03,-2.175000000000187228e+00,-4.945000000000224993e+00,1.306237895845678487e+01,-1.733025149589756175e+00
2.000000000000068923e+01,2.999999999313926580e+00,9.999999999969848119e+00,6.599999999998393818e-01,1.570000000000031370e+00,2.869999999999999545e+03,-2.175000000000321787e+00,-4.945000000000428386e+00,1.357859503371065202e+01,-2.317023607549829389e+00
2.000000000000134293e+01,2.999999998795241929e+00,9.999999999959058528e+00,6.599999999999823785e-01,1.569999999999977192e+00,2.870000000000001364e+03,-2.175000000000022915e+00,-4.944999999999941664e+00,1.350120921905628002e+01,-2.226777602482874929e+00
1.999999999999900524e+01,3.000000002226587359e+00,9.999999999992541078e+00,6.600000000001442491e-01,1.569999999999995843e+00,2.870000000000001819e+03,-2.174999999999713385e+00,-4.944999999999676987e+00,1.320255901942760701e+01,-2.093682189670278859e+00
2.000000000000107292e+01,3.000000002333990334e+00,1.000000000001806377e+01,6.599999999997105959e-01,1.570000000000050688e+00,2.870000000000001364e+03,-2.175000000000478106e+00,-4.945000000000598916e+00,1.314648299648453111e+01,-1.782589854135859353e+00
2.000000000000033040e+01,2.999999997903405990e+00,9.999999999981328713e+00,6.599999999995336264e-01,1.570000000000107310e+00,2.870000000000000909e+03,-2.175000000000849365e+00,-4.945000000001186002e+00,1.362816397825355352e+01,-1.978944032392011776e+00
2.000000000000035172e+01,2.999999998369444310e+00,1.000000000000849987e+01,6.599999999998085176e-01,1.570000000000030260e+00,2.869999999999997726e+03,-2.175000000000352429e+00,-4.945000000000474571e+00,1.368081958962744338e+01,-2.175053509331364321e+00
1.999999999999885247e+01,2.999999998152415248e+00,9.999999999962964736e+00,6.600000000002170797e-01,1.569999999999962093e+00,2.870000000000001819e+03,-2.174999999999619682e+00,-4.944999999999551754e+00,1.363396409759547545e+01,-2.137014471959300277e+00
2.000000000000064659e+01,3.000000001536474503e+00,1.000000000003029221e+01,6.599999999996077893e-01,1.570000000000070894e+00,2.869999999999995453e+03,-2.175000000000705036e+00,-4.945000000000934648e+00,1.288207074437952038e+01,-1.827502620695349966e+00
1.999999999999883826e+01,3.000000000406636058e+00,1.000000000002657785e+01,6.600000000005623590e-01,1.569999999999873719e+00,2.870000000000004547e+03,-2.174999999998984634e+00,-4.944999999998647588e+00,1.387189010572176606e+01,-2.783032938384783161e+00
1.999999999999861089e+01,2.999999999897259073e+00,1.000000000002930278e+01,6.600000000003810596e-01,1.569999999999937224e+00,2.870000000000002728e+03,-2.174999999999311484e+00,-4.944999999999131646e+00,1.352198345392278078e+01,-2.649211075114201286e+00
2.000000000000017764e+01,2.999999999851612920e+00,9.999999999996918021e+00,6.599999999999931477e-01,1.569999999999997620e+00,2.870000000000000455e+03,-2.174999999999996270e+00,-4.944999999999991402e+00,1.305672686093489787e+01,-2.255544952231654410e+00
2.000000000000013856e+01,3.000000002492583473e+00,1.000000000004765788e+01,6.600000000000773026e-01,1.569999999999968310e+00,2.870000000000001364e+03,-2.174999999999860822e+00,-4.944999999999782681e+00,1.340252866031458545e+01,-1.703026726159757587e+00
1.999999999999960210e+01,3.000000001946725448e+00,1.000000000002133405e+01,6.600000000001011724e-01,1.569999999999991624e+00,2.870000000000001819e+03,-2.174999999999806644e+00,-4.944999999999765805e+00,1.277801317765495703e+01,-1.461571855652083363e+00
2.000000000000057909e+01,2.999999999613001123e+00,1.000000000003413270e+01,6.600000000001691181e-01,1.569999999999942109e+00,2.870000000000001364e+03,-2.174999999999670752e+00,-4.944999999999473594e+00,1.380214885309482398e+01,-1.727570557538754770e+00
2.000000000000088818e+01,3.000000002570407887e+00,1.000000000000496847e+01,6.600000000000185718e-01,1.569999999999987850e+00,2.869999999999999545e+03,-2.174999999999978950e+00,-4.944999999999923901e+00,1.344334803191650529e+01,-2.128956206575072674e+00
2.000000000000125056e+01,3.000000003641124735e+00,1.000000000002818368e+01,6.599999999998171774e-01,1.570000000000018936e+00,2.869999999999996817e+03,-2.175000000000340883e+00,-4.945000000000394635e+00,1.337646484649756751e+01,-2.216379739571999963e+00
1.999999999999927525e+01,3.000000002859867010e+00,1.000000000001574385e+01,6.600000000005543654e-01,1.569999999999882823e+00,2.870000000000002274e+03,-2.174999999999049471e+00,-4.944999999998724860e+00,1.277647336257732924e+01,-1.712286754166623570e+00
2.000000000000061817e+01,3.000000003815570082e+00,9.999999999995869970e+00,6.599999999997441247e-01,1.570000000000073337e+00,2.869999999999999545e+03,-2.175000000000459011e+00,-4.945000000000622897e+00,1.310303269700815143e+01,-1.873275690358676471e+00
2.000000000000087752e+01,3.000000003227170975e+00,1.000000000000203748e+01,6.599999999999760503e-01,1.569999999999993179e+00,2.869999999999997726e+03,-2.175000000000061107e+00,-4.945000000000038476e+00,1.340179079255125316e+01,-1.950846517819597503e+00
1.999999999999976552e+01,3.000000003162230922e+00,1.000000000001308109e+01,6.600000000002207434e-01,1.569999999999947660e+00,2.869999999999998181e+03,-2.174999999999614353e+00,-4.944999999999481588e+00,1.361823210778155335e+01,-2.300265269248059408e+00
1.999999999999933564e+01,3.000000002303119473e+00,9.999999999983483434e+00,6.600000000000529887e-01,1.570000000000009388e+00,2.870000000000002728e+03,-2.174999999999905675e+00,-4.944999999999922125e+00,1.309398710434208901e+01,-2.490950843032421869e+00
1.999999999999965894e+01,3.000000002627750018e+00,1.000000000001048228e+01,6.600000000006468470e-01,1.569999999999847073e+00,2.870000000000003183e+03,-2.174999999998882050e+00,-4.944999999998475282e+00,1.385719806019974776e+01,-2.553276876025252218e+00
1.999999999999901235e+01,3.000000002539219501e+00,9.999999999998836486e+00,6.599999999999119904e-01,1.570000000000034479e+00,2.870000000000002274e+03,-2.175000000000138822e+00,-4.945000000000260520e+00,1.325171667229861150e+01,-2.365793805852850706e+00
1.999999999999970157e+01,2.999999997825074871e+00,1.000000000001280576e+01,6.600000000002645972e-01,1.569999999999939222e+00,2.870000000000001819e+03,-2.174999999999570388e+00,-4.944999999999416751e+00,1.326320545002013773e+01,-2.298997518733263856e+00
1.999999999999930012e+01,2.999999998861108796e+00,1.000000000000015277e+01,6.599999999999826006e-01,1.570000000000017160e+00,2.870000000000000909e+03,-2.175000000000069100e+00,-4.945000000000143281e+00,1.353838568715884882e+01,-2.456752780203378617e+00
2.000000000000041567e+01,3.000000000309046566e+00,9.999999999983824495e+00,6.599999999997795408e-01,1.570000000000041140e+00,2.869999999999999545e+03,-2.175000000000411049e+00,-4.945000000000563389e+00,1.312748482605257649e+01,-2.034141909478948573e+00
2.000000000000043698e+01,2.999999999906899806e+00,1.000000000003074518e+01,6.600000000000848521e-01,1.569999999999964535e+00,2.870000000000002274e+03,-2.174999999999855049e+00,-4.944999999999774687e+00,1.362890137418720649e+01,-2.040128517205734404e+00
2.000000000000035882e+01,3.000000000763721975e+00,1.000000000003173106e+01,6.599999999999649480e-01,1.570000000000002283e+00,2.869999999999998636e+03,-2.175000000000080647e+00,-4.945000000000114859e+00,1.374734840536552838e+01,-2.289742436835154216e+00
2.000000000000109424e+01,2.999999999841182152e+00,1.000000000000177991e+01,6.599999999996877253e-01,1.570000000000052687e+00,2.869999999999998636e+03,-2.175000000000567812e+00,-4.945000000000746354e+00,1.343891797018627976e+01,-1.931074149899604908e+00
2.000000000000091305e+01,2.999999998160954195e+00,1.000000000001966427e+01,6.599999999996752909e-01,1.570000000000058460e+00,2.869999999999991815e+03,-2.175000000000600231e+00,-4.945000000000784546e+00,1.317869811290912452e+01,-2.477515337208249235e+00
2.000000000000049027e+01,2.999999999662893213e+00,1.000000000002311396e+01,6.600000000000801892e-01,1.569999999999961648e+00,2.869999999999992724e+03,-2.174999999999878142e+00,-4.944999999999785345e+00,1.353149758670978287e+01,-2.631680560310234895e+00
1.999999999999874589e+01,2.999999998623933184e+00,9.999999999963803177e+00,6.600000000005022960e-01,1.569999999999890372e+00,2.870000000000002728e+03,-2.174999999999096545e+00,-4.944999999998795914e+00,1.310820853205581926e+01,-2.306637776541427876e+00
1.999999999999894484e+01,3.000000000523547872e+00,1.000000000000683364e+01,6.600000000006742695e-01,1.569999999999841744e+00,2.870000000000001819e+03,-2.174999999998806111e+00,-4.944999999998398010e+00,1.317515564922799243e+01,-1.922842339103325360e+00
2.000000000000076028e+01,2.999999998004375890e+00,1.000000000004956568e+01,6.599999999997467892e-01,1.570000000000054463e+00,2.869999999999997272e+03,-2.175000000000486100e+00,-4.945000000000639773e+00,1.374013716714369693e+01,-2.497570601048184180e+00
2.000000000000019540e+01,2.999999998152063974e+00,1.000000000002903455e+01,6.599999999999041078e-01,1.570000000000022045e+00,2.869999999999997726e+03,-2.175000000000198330e+00,-4.945000000000274731e+00,1.303718542106895484e+01,-2.078765996453048714e+00
2.000000000000034817e+01,2.999999998520132216e+00,1.000000000002442313e+01,6.599999999996524203e-01,1.570000000000087548e+00,2.869999999999999545e+03,-2.175000000000643308e+00,-4.945000000000887574e+00,1.310386329768757108e+01,-2.163990984695556730e+00
1.999999999999975131e+01,3.000000000377474496e+00,9.999999999995187849e+00,6.599999999998832356e-01,1.570000000000030482e+00,2.870000000000000000e+03,-2.175000000000190337e+00,-4.945000000000280060e+00,1.227824405238950334e+01,-1.281453501447220589e+00
1.999999999999911182e+01,3.000000000135210954e+00,9.999999999989462651e+00,6.600000000003116707e-01,1.569999999999935225e+00,2.869999999999998636e+03,-2.174999999999436273e+00,-4.944999999999271090e+00,1.234698886644723359e+01,-1.198339093145391665e+00
2.000000000000104805e+01,2.999999998387205657e+00,9.999999999988000710e+00,6.600000000001103873e-01,1.569999999999955209e+00,2.869999999999997272e+03,-2.174999999999855049e+00,-4.944999999999733831e+00,1.206644474897718133e+01,-1.361764616083697144e+00
2.000000000000180478e+01,2.999999999602542822e+00,1.000000000000889067e+01,6.599999999997102629e-01,1.570000000000028928e+00,2.869999999999998181e+03,-2.175000000000567812e+00,-4.945000000000677964e+00,1.241627498373417104e+01,-1.505307789208660152e+00
1.999999999999984013e+01,3.000000001505479297e+00,9.999999999991739941e+00,6.600000000001720046e-01,1.569999999999956319e+00,2.870000000000002274e+03,-2.174999999999690736e+00,-4.944999999999556195e+00,1.308416944059887399e+01,-1.949835687230724979e+00
1.999999999999791811e+01,3.000000001540614303e+00,9.999999999999106493e+00,6.599999999996180033e-01,1.570000000000131957e+00,2.870000000000001364e+03,-2.175000000000628209e+00,-4.945000000001010143e+00,1.358525628775180749e+01,-2.297961882010255419e+00
1.999999999999915090e+01,3.000000001455876308e+00,1.000000000000789591e+01,6.599999999996896127e-01,1.570000000000085549e+00,2.870000000000001819e+03,-2.175000000000501199e+00,-4.945000000000749907e+00,1.375813664996360153e+01,-2.413273243912473554e+00
1.999999999999963407e+01,3.000000000940254097e+00,1.000000000000605915e+01,6.599999999998585887e-01,1.570000000000035589e+00,2.870000000000001364e+03,-2.175000000000201439e+00,-4.945000000000285389e+00,1.344658463968334061e+01,-2.245041597829240398e+00
1.999999999999912248e+01,3.000000000611750206e+00,1.000000000000206057e+01,6.599999999996858380e-01,1.570000000000087992e+00,2.870000000000000909e+03,-2.175000000000495870e+00,-4.945000000000739249e+00,1.335370335410779852e+01,-2.166189384285056363e+00
1.999999999999980460e+01,3.000000001246251990e+00,9.999999999995687006e+00,6.600000000000650902e-01,1.569999999999982077e+00,2.870000000000002728e+03,-2.174999999999905231e+00,-4.944999999999874163e+00,1.418838830069750045e+01,-2.887964214719239475e+00
2.000000000000066080e+01,2.999999999073999390e+00,9.999999999935532458e+00,6.600000000002291811e-01,1.569999999999938778e+00,2.870000000000000909e+03,-2.174999999999643219e+00,-4.944999999999487805e+00,1.236077985961932058e+01,-1.763226082362043368e+00
2.000000000000132516e+01,2.999999998590695771e+00,9.999999999957456254e+00,6.599999999998673594e-01,1.570000000000018936e+00,2.870000000000001819e+03,-2.175000000000252065e+00,-4.945000000000289830e+00,1.214554757354576076e+01,-1.250258129807438445e+00
1.999999999999821654e+01,2.999999999407078288e+00,9.999999999973152143e+00,6.600000000005397105e-01,1.569999999999905693e+00,2.870000000000003638e+03,-2.174999999998993516e+00,-4.944999999998707096e+00,1.453628219921421838e+01,-2.910865671572821167e+00
1.999999999999868194e+01,3.000000000482813789e+00,1.000000000000345857e+01,6.600000000004636602e-01,1.569999999999911244e+00,2.870000000000000909e+03,-2.174999999999177369e+00,-4.944999999998943352e+00,1.425523012523317945e+01,-2.710893672753516448e+00
2.000000000000139977e+01,3.000000002033043955e+00,1.000000000000833111e+01,6.599999999997736566e-01,1.570000000000027596e+00,2.869999999999996362e+03,-2.175000000000450573e+00,-4.945000000000562501e+00,1.340894628723810555e+01,-2.359187355726464652e+00
1.999999999999959854e+01,3.000000001900175128e+00,9.999999999997116973e+00,6.600000000001073897e-01,1.569999999999990958e+00,2.870000000000000455e+03,-2.174999999999821299e+00,-4.944999999999792450e+00,1.379739605102820654e+01,-2.137694944296539834e+00
2.000000000000017053e+01,2.999999998230385767e+00,1.000000000001120348e+01,6.600000000002451683e-01,1.569999999999931672e+00,2.870000000000000000e+03,-2.174999999999594369e+00,-4.944999999999434515e+00,1.325459226994610340e+01,-2.329905703760292823e+00
2.000000000000025224e+01,3.000000000123701938e+00,9.999999999999761968e+00,6.599999999996918332e-01,1.570000000000085549e+00,2.870000000000000000e+03,-2.175000000000554490e+00,-4.945000000000776552e+00,1.308861689729087452e+01,-2.201194958893042397e+00
2.000000000000040146e+01,3.000000000615540063e+00,1.000000000000888001e+01,6.599999999999793809e-01,1.569999999999988960e+00,2.870000000000001364e+03,-2.175000000000067324e+00,-4.945000000000064233e+00,1.417510914652283915e+01,-2.533165541022985856e+00
2.000000000000017764e+01,2.999999999809245921e+00,1.000000000001561418e+01,6.599999999998256150e-01,1.570000000000054907e+00,2.870000000000000455e+03,-2.175000000000317790e+00,-4.945000000000442597e+00,1.375911768730913032e+01,-2.371293976822009597e+00
1.999999999999875655e+01,3.000000000662460309e+00,9.999999999976303400e+00,6.599999999998649169e-01,1.570000000000054241e+00,2.870000000000000909e+03,-2.175000000000239186e+00,-4.945000000000413287e+00,1.357240823109296102e+01,-2.341614735573671169e+00
2.000000000000043698e+01,3.000000000255917065e+00,1.000000000008392576e+01,6.599999999998256150e-01,1.570000000000025153e+00,2.869999999999999545e+03,-2.175000000000298250e+00,-4.945000000000383977e+00,1.358683421735218388e+01,-1.917233043655560909e+00
2.000000000000187228e+01,3.000000000782931942e+00,1.000000000008170353e+01,6.599999999992396393e-01,1.570000000000145501e+00,2.869999999999995907e+03,-2.175000000001299227e+00,-4.945000000001686935e+00,1.355962620205720270e+01,-1.994594819117565088e+00
1.999999999999903366e+01,2.999999999910312631e+00,1.000000000007290879e+01,6.599999999997567812e-01,1.570000000000081108e+00,2.870000000000000909e+03,-2.175000000000388845e+00,-4.945000000000598916e+00,1.381687490571625787e+01,-2.273526119873559459e+00
2.000000000000080647e+01,2.999999998939838708e+00,1.000000000008017231e+01,6.599999999997863132e-01,1.570000000000045137e+00,2.869999999999999545e+03,-2.175000000000361311e+00,-4.945000000000439933e+00,1.351506178366478927e+01,-1.901151424031066517e+00
1.999999999999961631e+01,2.999999998071965823e+00,1.000000000001085532e+01,6.600000000001078337e-01,1.569999999999979634e+00,2.869999999999997272e+03,-2.174999999999798206e+00,-4.944999999999760476e+00,1.370324626293617420e+01,-2.468514008379296243e+00
1.999999999999964828e+01,3.000000000678217926e+00,1.000000000004332357e+01,6.599999999999387468e-01,1.570000000000019824e+00,2.870000000000002728e+03,-2.175000000000071765e+00,-4.945000000000125517e+00,1.336201131357962524e+01,-2.423306984706992573e+00
1.999999999999957723e+01,2.999999998704911963e+00,9.999999999998021138e+00,6.599999999999487388e-01,1.570000000000019158e+00,2.870000000000002274e+03,-2.175000000000046896e+00,-4.945000000000087326e+00,1.372610784928932404e+01,-2.466861805971786392e+00
2.000000000000049383e+01,2.999999999821786556e+00,1.000000000001773159e+01,6.599999999999336397e-01,1.569999999999994511e+00,2.869999999999995907e+03,-2.175000000000136602e+00,-4.945000000000181473e+00,1.343995788653543322e+01,-2.336056828437321986e+00
2.000000000000046541e+01,3.000000000760589369e+00,1.000000000001760192e+01,6.600000000000141309e-01,1.569999999999974305e+00,2.869999999999996817e+03,-2.174999999999984279e+00,-4.944999999999969198e+00,1.347916911044204724e+01,-2.379626767758085570e+00
1.999999999999964828e+01,3.000000001067668176e+00,9.999999999977875476e+00,6.599999999998995559e-01,1.570000000000038698e+00,2.870000000000002728e+03,-2.175000000000150813e+00,-4.945000000000224993e+00,1.370304033642636199e+01,-2.575710080090511056e+00
1.999999999999950973e+01,3.000000000493645125e+00,9.999999999986103560e+00,6.600000000000234568e-01,1.570000000000004059e+00,2.869999999999999091e+03,-2.174999999999976286e+00,-4.944999999999996732e+00,1.338162005575327740e+01,-2.453940118878912280e+00
1.999999999999989342e+01,3.000000000229135821e+00,9.999999999998433253e+00,6.600000000000090239e-01,1.570000000000014939e+00,2.870000000000001364e+03,-2.174999999999938538e+00,-4.944999999999927454e+00,1.339906341753363783e+01,-2.388200856251689430e+00
2.000000000000062883e+01,2.999999999133983408e+00,9.999999999976608933e+00,6.600000000003003464e-01,1.569999999999907914e+00,2.869999999999998181e+03,-2.174999999999501554e+00,-4.944999999999262208e+00,1.478164856018543816e+01,-3.286483926790900068e+00
1.999999999999847944e+01,2.999999999284678864e+00,9.999999999973811171e+00,6.600000000001535749e-01,1.569999999999997398e+00,2.870000000000001364e+03,-2.174999999999684519e+00,-4.944999999999650342e+00,1.382958547788379811e+01,-2.453210597851094299e+00
1.999999999999906564e+01,3.000000000721155136e+00,1.000000000000990852e+01,6.599999999999532907e-01,1.570000000000046025e+00,2.870000000000001819e+03,-2.175000000000026024e+00,-4.945000000000082885e+00,1.321782877521015287e+01,-2.201994125602187768e+00
1.999999999999933564e+01,3.000000000335596884e+00,9.999999999988069987e+00,6.599999999997935296e-01,1.570000000000066454e+00,2.870000000000002274e+03,-2.175000000000353317e+00,-4.945000000000529639e+00,1.315681046852518676e+01,-1.357569573078108549e+00
1.999999999999932854e+01,3.000000000816004153e+00,1.000000000001173817e+01,6.599999999998689137e-01,1.570000000000030260e+00,2.870000000000002274e+03,-2.175000000000216538e+00,-4.945000000000336904e+00,1.360373262653764748e+01,-1.646336032052365228e+00
1.999999999999984013e+01,3.000000001228535051e+00,9.999999999961298514e+00,6.599999999999455191e-01,1.570000000000018492e+00,2.870000000000000909e+03,-2.175000000000039790e+00,-4.945000000000044693e+00,1.342245436098629874e+01,-1.745129599871645842e+00
1.999999999999864997e+01,2.999999999410678519e+00,1.000000000002071765e+01,6.600000000004599965e-01,1.569999999999914797e+00,2.870000000000005002e+03,-2.174999999999150280e+00,-4.944999999998910489e+00,1.468356906956333674e+01,-3.135016654180922124e+00
2.000000000000067146e+01,2.999999999056039091e+00,9.999999999990819788e+00,6.599999999999563993e-01,1.569999999999998286e+00,2.869999999999997726e+03,-2.175000000000087308e+00,-4.945000000000079332e+00,1.375386901952664687e+01,-2.315904498987766846e+00
2.000000000000068923e+01,3.000000000141821666e+00,1.000000000001294609e+01,6.599999999999478506e-01,1.570000000000003171e+00,2.869999999999999545e+03,-2.175000000000101075e+00,-4.945000000000102425e+00,1.358442727375816084e+01,-2.126453549160588263e+00
2.000000000000075673e+01,3.000000000059117156e+00,9.999999999984193977e+00,6.599999999996847277e-01,1.570000000000061791e+00,2.869999999999999091e+03,-2.175000000000571365e+00,-4.945000000000765006e+00,1.351530052180443242e+01,-2.266343382240521453e+00
2.000000000000033040e+01,3.000000000627486951e+00,9.999999999995123900e+00,6.600000000001863265e-01,1.569999999999946549e+00,2.870000000000001819e+03,-2.174999999999691624e+00,-4.944999999999552642e+00,1.371547870223007770e+01,-2.371190854476759480e+00
2.000000000000041567e+01,3.000000000208905782e+00,1.000000000001166178e+01,6.599999999998285016e-01,1.570000000000037366e+00,2.870000000000000455e+03,-2.175000000000306688e+00,-4.945000000000412399e+00,1.340104006419679727e+01,-2.283895055911089322e+00
2.000000000000000000e+01,2.999999998810299218e+00,9.999999999973594456e+00,6.600000000002985701e-01,1.569999999999919016e+00,2.869999999999998636e+03,-2.174999999999471800e+00,-4.944999999999270202e+00,1.378071880970727037e+01,-2.243847628611622458e+00
1.999999999999968026e+01,2.999999997743742153e+00,9.999999999945840656e+00,6.600000000002022027e-01,1.569999999999956097e+00,2.870000000000000455e+03,-2.174999999999640110e+00,-4.944999999999531326e+00,1.340125097499524465e+01,-1.996835189172733394e+00
1.999999999999939249e+01,2.999999998415427971e+00,9.999999999970640374e+00,6.600000000001653433e-01,1.569999999999966533e+00,2.870000000000001364e+03,-2.174999999999716049e+00,-4.944999999999653895e+00,1.415013915498197861e+01,-2.858076868984361862e+00
2.000000000000106937e+01,2.999999997520661488e+00,9.999999999973057996e+00,6.599999999997159250e-01,1.570000000000047802e+00,2.869999999999997272e+03,-2.175000000000526956e+00,-4.945000000000685070e+00,1.318241071544368914e+01,-2.193779548686763281e+00
1.999999999999963407e+01,2.999999997511610506e+00,9.999999999971398879e+00,6.599999999997840927e-01,1.570000000000070894e+00,2.869999999999998636e+03,-2.175000000000387956e+00,-4.945000000000603357e+00,1.365342220481377566e+01,-2.305610530025616889e+00
1.999999999999902300e+01,2.999999998294719195e+00,9.999999999976997955e+00,6.600000000003213296e-01,1.569999999999935669e+00,2.869999999999999545e+03,-2.174999999999478462e+00,-4.944999999999356355e+00,1.386107301834970684e+01,-2.796360759913514293e+00
2.000000000000072831e+01,3.000000001633757574e+00,9.999999999877653423e+00,6.599999999995393996e-01,1.570000000000115525e+00,2.870000000000000000e+03,-2.175000000000786304e+00,-4.945000000001061657e+00,1.261658957229864697e+01,-1.540836919471066047e+00
2.000000000000020250e+01,3.000000000773575870e+00,9.999999999884717994e+00,6.599999999999133227e-01,1.570000000000031815e+00,2.870000000000001364e+03,-2.175000000000133493e+00,-4.945000000000171703e+00,1.270321414788218206e+01,-1.429426643082757575e+00
1.999999999999890576e+01,3.000000001057161914e+00,9.999999999907069892e+00,6.600000000005121770e-01,1.569999999999895257e+00,2.870000000000002274e+03,-2.174999999999082778e+00,-4.944999999998770157e+00,1.198160077818296188e+01,-1.159772853682242033e+00
1.999999999999942801e+01,3.000000002694666268e+00,9.999999999939765516e+00,6.600000000001895462e-01,1.569999999999962093e+00,2.870000000000001819e+03,-2.174999999999686739e+00,-4.944999999999598828e+00,1.271805956119520253e+01,-1.187718719192039973e+00
2.000000000000085620e+01,2.999999997405152552e+00,1.000000000007920242e+01,6.599999999999546230e-01,1.569999999999992069e+00,2.869999999999996817e+03,-2.175000000000122391e+00,-4.945000000000125517e+00,1.286275464809431135e+01,-2.002721306730669504e+00
2.000000000000045119e+01,2.999999998196058115e+00,1.000000000004674661e+01,6.599999999999156541e-01,1.570000000000005391e+00,2.869999999999999545e+03,-2.175000000000170353e+00,-4.945000000000204565e+00,1.301460404089249856e+01,-2.228685967991067773e+00
2.000000000000034817e+01,3.000000000677893297e+00,1.000000000001713651e+01,6.600000000000733058e-01,1.569999999999981855e+00,2.870000000000001364e+03,-2.174999999999879030e+00,-4.944999999999802220e+00,1.369255396709573169e+01,-2.515594327852960888e+00
1.999999999999936406e+01,3.000000000523665111e+00,9.999999999999563016e+00,6.600000000001661205e-01,1.569999999999989182e+00,2.870000000000002274e+03,-2.174999999999684075e+00,-4.944999999999598828e+00,1.326672565296350115e+01,-2.119871978900286003e+00
1.999999999999893774e+01,3.000000002399116461e+00,1.000000000000386535e+01,6.600000000002158584e-01,1.569999999999956097e+00,2.870000000000001819e+03,-2.174999999999596589e+00,-4.944999999999488693e+00,1.345862206733920097e+01,-2.156728937845906025e+00
1.999999999999995381e+01,3.000000002671190380e+00,1.000000000003810818e+01,6.599999999993954036e-01,1.570000000000157492e+00,2.869999999999999545e+03,-2.175000000001052758e+00,-4.945000000001487983e+00,1.342271023156305709e+01,-2.254044894200122773e+00
1.999999999999849365e+01,3.000000002674293675e+00,1.000000000000633804e+01,6.600000000004706546e-01,1.569999999999905249e+00,2.870000000000003638e+03,-2.174999999999159161e+00,-4.944999999998909601e+00,1.373900149886968691e+01,-2.516630042639406817e+00
2.000000000000025580e+01,2.999999996122409751e+00,1.000000000000170353e+01,6.599999999998075184e-01,1.570000000000053797e+00,2.869999999999999545e+03,-2.175000000000358646e+00,-4.945000000000509210e+00,1.382588121966491279e+01,-2.261916171342658100e+00
2.000000000000082068e+01,2.999999997087713144e+00,9.999999999994731326e+00,6.599999999998809042e-01,1.570000000000021378e+00,2.869999999999999091e+03,-2.175000000000213429e+00,-4.945000000000268514e+00,1.341199389974706868e+01,-2.082047257278479613e+00
2.000000000000020961e+01,2.999999999544120222e+00,9.999999999949300999e+00,6.599999999997198108e-01,1.570000000000072449e+00,2.869999999999997272e+03,-2.175000000000482991e+00,-4.945000000000687734e+00,1.440875417863349384e+01,-2.807424521032257481e+00
1.999999999999804601e+01,3.000000000036406433e+00,9.999999999983234744e+00,6.600000000002129719e-01,1.569999999999978302e+00,2.870000000000002274e+03,-2.174999999999577938e+00,-4.944999999999526885e+00,1.471971331771572800e+01,-3.231770491320402616e+00
2.000000000000009237e+01,2.999999998828776882e+00,9.999999999996484590e+00,6.599999999998898970e-01,1.570000000000027596e+00,2.870000000000002728e+03,-2.175000000000161915e+00,-4.945000000000194795e+00,1.327615857016771450e+01,-2.257743125890993241e+00
2.000000000000120082e+01,2.999999998000939083e+00,1.000000000002234657e+01,6.599999999997662181e-01,1.570000000000021378e+00,2.869999999999997726e+03,-2.175000000000435474e+00,-4.945000000000512763e+00,1.328591562752587940e+01,-1.963033292283643094e+00
2.000000000000078515e+01,2.999999998476960972e+00,9.999999999995408118e+00,6.599999999997137046e-01,1.570000000000061346e+00,2.869999999999996817e+03,-2.175000000000500755e+00,-4.945000000000641549e+00,1.328475371926176329e+01,-2.200078248128901404e+00
1.999999999999976907e+01,2.999999998873162266e+00,9.999999999986602717e+00,6.600000000000664224e-01,1.569999999999992957e+00,2.870000000000001819e+03,-2.174999999999876810e+00,-4.944999999999828866e+00,1.296529278409689390e+01,-1.764021863492794662e+00
2.000000000000065725e+01,2.999999999381562255e+00,1.000000000000550315e+01,6.600000000001480238e-01,1.569999999999941220e+00,2.870000000000001364e+03,-2.174999999999753797e+00,-4.944999999999597051e+00,1.310022277117790424e+01,-1.954034685973329299e+00
1.999999999999958078e+01,2.999999998804610879e+00,1.000000000000931877e+01,6.599999999997282485e-01,1.570000000000082441e+00,2.869999999999999545e+03,-2.175000000000460787e+00,-4.945000000000687734e+00,1.308949040357591009e+01,-2.391074292081495134e+00
1.999999999999961986e+01,2.999999999677217755e+00,9.999999999985114130e+00,6.600000000001342570e-01,1.569999999999973861e+00,2.870000000000001364e+03,-2.174999999999770672e+00,-4.944999999999711626e+00,1.317752799599736591e+01,-2.346061051950008025e+00
2.000000000000063949e+01,2.999999998652369548e+00,9.999999999980037302e+00,6.599999999999864864e-01,1.569999999999986739e+00,2.870000000000001364e+03,-2.175000000000021583e+00,-4.944999999999992291e+00,1.463296324262445403e+01,-3.384544726414319804e+00
1.999999999999868550e+01,2.999999997276735275e+00,9.999999999989274357e+00,6.600000000007574252e-01,1.569999999999833973e+00,2.870000000000006366e+03,-2.174999999998637801e+00,-4.944999999998165308e+00,1.335061378753622741e+01,-2.435079478398500807e+00
2.000000000000068567e+01,2.999999997887164760e+00,9.999999999939376494e+00,6.599999999997809841e-01,1.570000000000034923e+00,2.870000000000001819e+03,-2.175000000000362643e+00,-4.945000000000451479e+00,1.444857388660245334e+01,-3.123410027630885821e+00
1.999999999999999645e+01,2.999999999264521655e+00,9.999999999997966071e+00,6.599999999998353850e-01,1.570000000000032481e+00,2.870000000000000455e+03,-2.175000000000260503e+00,-4.945000000000368878e+00,1.437719554813675771e+01,-3.273726354246053738e+00
2.000000000000082068e+01,3.000000000492837771e+00,9.999999999959710451e+00,6.599999999994609068e-01,1.570000000000141283e+00,2.870000000000001364e+03,-2.175000000000934630e+00,-4.945000000001302354e+00,1.428988570555750393e+01,-3.152570153833137212e+00
2.000000000000088107e+01,3.000000000037185810e+00,9.999999999979925391e+00,6.599999999998781286e-01,1.570000000000016716e+00,2.869999999999995453e+03,-2.175000000000211653e+00,-4.945000000000232987e+00,1.508025070779708798e+01,-3.877296996889070257e+00
1.999999999999975131e+01,2.999999997937639495e+00,1.000000000001971934e+01,6.599999999999403011e-01,1.570000000000024931e+00,2.870000000000002728e+03,-2.175000000000046896e+00,-4.945000000000077556e+00,1.424922894279448826e+01,-3.294595246861013571e+00
2.000000000000067857e+01,3.000000001084659917e+00,1.000000000003200107e+01,6.599999999999361933e-01,1.569999999999989404e+00,2.869999999999996362e+03,-2.175000000000125944e+00,-4.945000000000133511e+00,1.335696886852156773e+01,-2.134477433322856221e+00
1.999999999999915801e+01,3.000000000626287022e+00,9.999999999970397013e+00,6.600000000003818368e-01,1.569999999999920792e+00,2.869999999999997272e+03,-2.174999999999316813e+00,-4.944999999999103224e+00,1.394761025763304119e+01,-2.497909748163300581e+00
1.999999999999891642e+01,3.000000000545882006e+00,9.999999999992626343e+00,6.600000000005712408e-01,1.569999999999869944e+00,2.870000000000001819e+03,-2.174999999998989964e+00,-4.944999999998635154e+00,1.330491653596563140e+01,-2.204762973305751661e+00
2.000000000000119726e+01,3.000000000895960195e+00,1.000000000001429434e+01,6.599999999995198596e-01,1.570000000000080886e+00,2.869999999999996817e+03,-2.175000000000882228e+00,-4.945000000001170015e+00,1.419615610249394955e+01,-2.574393287843226297e+00
2.000000000000060396e+01,3.000000002071693483e+00,1.000000000002965095e+01,6.600000000001456923e-01,1.569999999999950102e+00,2.869999999999998636e+03,-2.174999999999775557e+00,-4.944999999999654783e+00,1.411659181835825194e+01,-2.693949696301453756e+00
1.999999999999975842e+01,3.000000000602968342e+00,9.999999999980447640e+00,6.599999999998807931e-01,1.570000000000030704e+00,2.870000000000000455e+03,-2.175000000000201439e+00,-4.945000000000298712e+00,1.279002301841462774e+01,-1.491368261736162548e+00
1.999999999999974420e+01,3.000000000767423014e+00,9.999999999993686828e+00,6.600000000002670397e-01,1.569999999999931006e+00,2.870000000000001364e+03,-2.174999999999554401e+00,-4.944999999999381224e+00,1.429634751814982252e+01,-2.652167858808718304e+00
1.999999999999941025e+01,3.000000000591452665e+00,1.000000000000096456e+01,6.600000000000441069e-01,1.570000000000000950e+00,2.869999999999999091e+03,-2.174999999999918998e+00,-4.944999999999917684e+00,1.455413756058865182e+01,-3.034051663134916588e+00
2.000000000000009237e+01,2.999999999056223832e+00,1.000000000003194778e+01,6.599999999999276445e-01,1.570000000000025597e+00,2.870000000000000909e+03,-2.175000000000110401e+00,-4.945000000000140616e+00,1.354318154651028294e+01,-2.452637998260284391e+00
2.000000000000071054e+01,3.000000000273178369e+00,1.000000000005772094e+01,6.599999999997866462e-01,1.570000000000051354e+00,2.870000000000000909e+03,-2.175000000000351541e+00,-4.945000000000459472e+00,1.434024003810262826e+01,-2.838529786703394286e+00
1.999999999999991473e+01,3.000000003769184964e+00,1.000000000001458744e+01,6.600000000000034728e-01,1.569999999999994955e+00,2.869999999999999545e+03,-2.174999999999991385e+00,-4.944999999999991402e+00,1.394429046026885999e+01,-2.789330991588793829e+00
1.999999999999952749e+01,3.000000000197324379e+00,9.999999999917704940e+00,6.599999999999409672e-01,1.570000000000022267e+00,2.869999999999995453e+03,-2.175000000000132605e+00,-4.945000000000226770e+00,1.329145043163477169e+01,-2.043199601035158075e+00
1.999999999999996447e+01,3.000000002685102807e+00,1.000000000002323119e+01,6.600000000002539391e-01,1.569999999999951878e+00,2.870000000000002274e+03,-2.174999999999555733e+00,-4.944999999999397211e+00,1.369306127767935521e+01,-2.680899823497762569e+00
2.000000000000128608e+01,3.000000001316905696e+00,9.999999999994283684e+00,6.599999999996709610e-01,1.570000000000052909e+00,2.870000000000000000e+03,-2.175000000000572253e+00,-4.945000000000706386e+00,1.363929229277220756e+01,-2.397768572519348051e+00
1.999999999999931788e+01,2.999999998425302739e+00,1.000000000001909228e+01,6.600000000002914646e-01,1.569999999999932117e+00,2.870000000000001819e+03,-2.174999999999484235e+00,-4.944999999999307505e+00,1.406869779578000035e+01,-2.461252922240504404e+00
2.000000000000083844e+01,2.999999996832095839e+00,1.000000000002455458e+01,6.599999999995028732e-01,1.570000000000097540e+00,2.870000000000000000e+03,-2.175000000000896438e+00,-4.945000000001191331e+00,1.383900831074892857e+01,-2.705916357943531914e+00
2.000000000000009592e+01,3.000000003169813301e+00,9.999999999954480856e+00,6.600000000001614575e-01,1.569999999999964979e+00,2.870000000000000000e+03,-2.174999999999743139e+00,-4.944999999999661888e+00,1.377677655373835464e+01,-2.530455862956692226e+00
2.000000000000109779e+01,3.000000001388983595e+00,1.000000000001992717e+01,6.599999999998797939e-01,1.570000000000009832e+00,2.870000000000000455e+03,-2.175000000000208988e+00,-4.945000000000210783e+00,1.297518082229267478e+01,-2.174023529569298674e+00
2.000000000000042988e+01,3.000000001113942272e+00,1.000000000003272227e+01,6.599999999997963052e-01,1.570000000000048690e+00,2.870000000000003638e+03,-2.175000000000347544e+00,-4.945000000000460361e+00,1.370252191087284643e+01,-2.295412401078229081e+00
2.000000000000012079e+01,3.000000004207790116e+00,1.000000000000623857e+01,6.599999999997055999e-01,1.570000000000069118e+00,2.870000000000001364e+03,-2.175000000000478551e+00,-4.945000000000649543e+00,1.394349934933599222e+01,-2.911273770088231849e+00
1.999999999999903366e+01,3.000000000534067013e+00,1.000000000000534861e+01,6.600000000002833600e-01,1.569999999999945439e+00,2.870000000000004547e+03,-2.174999999999444267e+00,-4.944999999999266649e+00,1.385775443871938428e+01,-2.440017216809026390e+00
1.999999999999971578e+01,3.000000000898170427e+00,1.000000000001030642e+01,6.600000000003102274e-01,1.569999999999924345e+00,2.870000000000003638e+03,-2.174999999999443823e+00,-4.944999999999246221e+00,1.451117022390268296e+01,-3.261033820462837074e+00
2.000000000000037659e+01,3.000000001289076401e+00,1.000000000001296740e+01,6.599999999999368594e-01,1.570000000000007390e+00,2.869999999999996362e+03,-2.175000000000123723e+00,-4.945000000000167262e+00,1.407665193122012148e+01,-2.457302984096887855e+00
1.999999999999980815e+01,3.000000000586364735e+00,1.000000000002018119e+01,6.599999999998281686e-01,1.570000000000043139e+00,2.870000000000000000e+03,-2.175000000000314238e+00,-4.945000000000456808e+00,1.498271354438770153e+01,-3.262130951598134931e+00
2.000000000000093436e+01,3.000000001504890434e+00,1.000000000003579537e+01,6.599999999997900879e-01,1.570000000000029150e+00,2.869999999999997272e+03,-2.175000000000369749e+00,-4.945000000000454143e+00,1.329472893753111506e+01,-2.638584961467800305e+00
1.999999999999890932e+01,2.999999996952448011e+00,1.000000000000785860e+01,6.600000000001683409e-01,1.569999999999974527e+00,2.870000000000001819e+03,-2.174999999999700062e+00,-4.944999999999647677e+00,1.345345568607350728e+01,-2.531851848616795131e+00
2.000000000000164491e+01,2.999999999267880302e+00,9.999999999991610267e+00,6.599999999998102940e-01,1.570000000000012275e+00,2.869999999999991815e+03,-2.175000000000363087e+00,-4.945000000000414175e+00,1.500845144264825493e+01,-3.441844683067715405e+00
2.000000000000135003e+01,3.000000002500415874e+00,1.000000000003018563e+01,6.599999999998602540e-01,1.570000000000002283e+00,2.869999999999999545e+03,-2.175000000000200107e+00,-4.945000000000178808e+00,1.455211259969127369e+01,-3.378875820331733060e+00
2.000000000000006750e+01,2.999999999029834274e+00,9.999999999975075937e+00,6.600000000002260725e-01,1.569999999999940998e+00,2.870000000000000000e+03,-2.174999999999643663e+00,-4.944999999999505569e+00,1.407814019811488926e+01,-2.695538932340955984e+00
1.999999999999952394e+01,2.999999999042708865e+00,9.999999999969718445e+00,6.599999999997758771e-01,1.570000000000070228e+00,2.869999999999998636e+03,-2.175000000000371081e+00,-4.945000000000545626e+00,1.476389838219863293e+01,-3.054289160775394141e+00
