2.000000000000357048e+01,2.999999999188972311e+00,9.999999999977418952e+00,6.599999999997460121e-01,1.569999999999964979e+00,2.869999999999994998e+03,-2.175000000000545164e+00,-4.945000000000545626e+00,1.342812662748960584e+01,-2.001760143917555634e+00
2.000000000000196110e+01,2.999999999578251142e+00,1.000000000000925482e+01,6.599999999999930367e-01,1.569999999999946771e+00,2.869999999999995453e+03,-2.174999999999964739e+00,-4.944999999999829754e+00,1.345323522074600930e+01,-2.036265096390793339e+00
2.000000000000180478e+01,3.000000000679004408e+00,9.999999999987325694e+00,6.600000000005337153e-01,1.569999999999985185e+00,2.869999999999996362e+03,-2.175000000000328004e+00,-4.945000000000698392e+00,1.347198185995151576e+01,-2.085280888390544263e+00
2.000000000000231282e+01,3.000000000608839201e+00,9.999999999997234212e+00,6.600000000006042145e-01,1.569999999999963425e+00,2.869999999999995907e+03,-2.175000000000344880e+00,-4.945000000000717044e+00,1.346978488395175511e+01,-2.086504466441572614e+00
2.000000000000071765e+01,2.999999999630157621e+00,1.000000000001430145e+01,6.599999999996164490e-01,1.570000000000029594e+00,2.869999999999995907e+03,-2.175000000000504308e+00,-4.945000000000646878e+00,1.350758251722472103e+01,-2.090240600716122277e+00
2.000000000000398614e+01,3.000000004694437283e+00,1.000000000002405542e+01,6.600000000001314815e-01,1.569999999999914353e+00,2.869999999999996362e+03,-2.174999999999966072e+00,-4.944999999999789786e+00,1.333469969139674305e+01,-1.921262924783568860e+00
2.000000000000358114e+01,3.000000004256024422e+00,1.000000000002224176e+01,6.600000000001084999e-01,1.569999999999895035e+00,2.869999999999997726e+03,-2.174999999999781330e+00,-4.944999999999459384e+00,1.334006915827278306e+01,-1.923804811486038213e+00
2.000000000000327560e+01,3.000000002043415659e+00,1.000000000002987655e+01,6.599999999999128786e-01,1.569999999999937002e+00,2.869999999999998181e+03,-2.175000000000101963e+00,-4.944999999999893703e+00,1.335952011260327055e+01,-1.953917239967691621e+00
2.000000000000449774e+01,3.000000002599565008e+00,1.000000000003136158e+01,6.599999999998643618e-01,1.569999999999931228e+00,2.869999999999997272e+03,-2.175000000000334666e+00,-4.945000000000193019e+00,1.334925156682158409e+01,-1.856857950151633130e+00
1.999999999999649702e+01,3.000000000593182836e+00,1.000000000003932321e+01,6.600000000002318457e-01,1.569999999999950546e+00,2.870000000000000455e+03,-2.174999999999010392e+00,-4.944999999998698215e+00,1.348375245782782272e+01,-2.385825479463723475e+00
1.999999999999712230e+01,2.999999999658416350e+00,1.000000000004548006e+01,6.600000000007283374e-01,1.569999999999870166e+00,2.870000000000000000e+03,-2.174999999998521893e+00,-4.944999999998034745e+00,1.351828276114386895e+01,-2.400063640338320869e+00
1.999999999999509015e+01,3.000000000653533672e+00,1.000000000003852918e+01,6.600000000006683853e-01,1.569999999999864615e+00,2.870000000000002728e+03,-2.174999999998053823e+00,-4.944999999997426343e+00,1.346600197759660489e+01,-2.427636309397024572e+00
1.999999999999736744e+01,3.000000002347346761e+00,1.000000000004272138e+01,6.599999999999383027e-01,1.569999999999985629e+00,2.870000000000002274e+03,-2.174999999999488232e+00,-4.944999999999273754e+00,1.344540526113412149e+01,-2.324564925595870690e+00
1.999999999999716493e+01,3.000000000544139844e+00,1.000000000003054446e+01,6.599999999997281375e-01,1.570000000000070228e+00,2.870000000000001819e+03,-2.175000000000004263e+00,-4.945000000000056239e+00,1.349186155638704321e+01,-2.332005322883407672e+00
1.999999999999691269e+01,3.000000000189806837e+00,1.000000000003505463e+01,6.599999999997325784e-01,1.570000000000141505e+00,2.869999999999998636e+03,-2.175000000000405720e+00,-4.945000000000702833e+00,1.351380437221913233e+01,-2.456327428257908618e+00
1.999999999999299405e+01,3.000000000743732631e+00,1.000000000005108802e+01,6.600000000012546941e-01,1.569999999999818874e+00,2.870000000000001364e+03,-2.174999999997182965e+00,-4.944999999996405826e+00,1.350570803378642282e+01,-2.417056418429706088e+00
1.999999999999161915e+01,3.000000000929420541e+00,1.000000000004868816e+01,6.600000000010123324e-01,1.569999999999879936e+00,2.870000000000001819e+03,-2.174999999997172750e+00,-4.944999999996396056e+00,1.348591595191999915e+01,-2.427464234842208857e+00
1.999999999999932498e+01,2.999999998660792588e+00,9.999999999999708677e+00,6.600000000006810419e-01,1.569999999999958540e+00,2.869999999999994543e+03,-2.174999999999599698e+00,-4.944999999999673435e+00,1.340762232139438126e+01,-2.252183374647167557e+00
1.999999999999958078e+01,3.000000001127165916e+00,1.000000000000281375e+01,6.599999999998116262e-01,1.570000000000117524e+00,2.869999999999994543e+03,-2.175000000001017231e+00,-4.945000000001562590e+00,1.324588328115356717e+01,-2.301729514796550191e+00
2.000000000000200373e+01,2.999999998266247303e+00,9.999999999995768718e+00,6.599999999999398570e-01,1.570000000000008056e+00,2.869999999999996817e+03,-2.175000000000074873e+00,-4.944999999999990514e+00,1.346200792633351462e+01,-2.192671338996866837e+00
2.000000000000392930e+01,2.999999999130178008e+00,9.999999999990048849e+00,6.599999999994553557e-01,1.570000000000097096e+00,2.869999999999997272e+03,-2.175000000001353850e+00,-4.945000000001720686e+00,1.339126850501993182e+01,-2.157305346363307841e+00
2.000000000000443023e+01,2.999999997228120385e+00,9.999999999981154630e+00,6.599999999995431743e-01,1.570000000000058238e+00,2.869999999999997272e+03,-2.175000000001137579e+00,-4.945000000001396501e+00,1.333192714750132168e+01,-2.159602890143198728e+00
2.000000000000374811e+01,2.999999996631887100e+00,9.999999999982838617e+00,6.600000000022632207e-01,1.569999999999547535e+00,2.869999999999994543e+03,-2.174999999997278000e+00,-4.944999999996350759e+00,1.338579575842365976e+01,-2.123855336008108718e+00
2.000000000000087041e+01,2.999999997258013806e+00,9.999999999991844746e+00,6.600000000018518831e-01,1.569999999999629248e+00,2.869999999999996362e+03,-2.174999999997170974e+00,-4.944999999996179341e+00,1.338138504340588852e+01,-2.156856814151343560e+00
2.000000000000604672e+01,2.999999997330864865e+00,9.999999999988727239e+00,6.600000000020955770e-01,1.569999999999569740e+00,2.869999999999994543e+03,-2.174999999998045830e+00,-4.944999999997360618e+00,1.335518658119623581e+01,-2.095510267302032936e+00
2.000000000000495248e+01,2.999999997374071192e+00,9.999999999977902121e+00,6.600000000012695711e-01,1.569999999999718066e+00,2.869999999999995907e+03,-2.174999999998866951e+00,-4.944999999998429985e+00,1.333347649522763234e+01,-2.106674905451889401e+00
1.999999999999695177e+01,3.000000002054973081e+00,9.999999999963597119e+00,6.599999999990533439e-01,1.570000000000159046e+00,2.870000000000001364e+03,-2.175000000000657963e+00,-4.945000000000806750e+00,1.329182526602881076e+01,-2.227931552529192949e+00
1.999999999999528200e+01,3.000000001962161544e+00,9.999999999968812503e+00,6.599999999989198951e-01,1.570000000000180362e+00,2.870000000000001819e+03,-2.175000000000445688e+00,-4.945000000000547402e+00,1.328988135889652789e+01,-2.246987870492432204e+00
2.000000000000030909e+01,3.000000001813183381e+00,9.999999999968315123e+00,6.599999999990669997e-01,1.570000000000075113e+00,2.870000000000000455e+03,-2.175000000001010125e+00,-4.945000000001134488e+00,1.330951009429323939e+01,-2.185704458989115473e+00
1.999999999999885603e+01,3.000000001859445931e+00,9.999999999973621101e+00,6.599999999980937782e-01,1.570000000000312257e+00,2.870000000000000909e+03,-2.175000000002436540e+00,-4.945000000003142659e+00,1.330165340360234794e+01,-2.251327325641243160e+00
2.000000000000119726e+01,3.000000000999020866e+00,9.999999999968956388e+00,6.600000000001819966e-01,1.569999999999912577e+00,2.870000000000000455e+03,-2.174999999999802647e+00,-4.944999999999664553e+00,1.338984956960207739e+01,-2.254942419551583921e+00
1.999999999999820233e+01,3.000000002704084068e+00,9.999999999986446397e+00,6.600000000003184430e-01,1.569999999999974305e+00,2.870000000000000909e+03,-2.174999999999345679e+00,-4.944999999999263096e+00,1.338356296107990850e+01,-2.218659586361164671e+00
2.000000000000007105e+01,3.000000001451352816e+00,9.999999999973223197e+00,6.599999999996132294e-01,1.570000000000082441e+00,2.869999999999999091e+03,-2.175000000000647304e+00,-4.945000000000913332e+00,1.335396079773338407e+01,-2.184378686683982718e+00
1.999999999999714717e+01,3.000000001830930074e+00,9.999999999965622166e+00,6.600000000001854383e-01,1.569999999999911688e+00,2.870000000000000000e+03,-2.174999999998674660e+00,-4.944999999998139550e+00,1.330656030376977306e+01,-2.275844084830013436e+00
1.999999999999774403e+01,3.000000001481137879e+00,9.999999999968421704e+00,6.599999999996473132e-01,1.570000000000035367e+00,2.870000000000000000e+03,-2.174999999999597922e+00,-4.944999999999368789e+00,1.332953098461595687e+01,-2.215944833800066238e+00
1.999999999999863576e+01,2.999999999281795837e+00,1.000000000000260414e+01,6.599999999995986855e-01,1.570000000000196350e+00,2.869999999999997726e+03,-2.175000000000810729e+00,-4.945000000001279261e+00,1.346516187823920419e+01,-2.381379843903685511e+00
1.999999999999688782e+01,2.999999999953175678e+00,1.000000000002741984e+01,6.600000000004176970e-01,1.570000000000031148e+00,2.869999999999997272e+03,-2.174999999999189804e+00,-4.944999999999098783e+00,1.346539684324703323e+01,-2.395778427937011124e+00
1.999999999999883471e+01,3.000000000621177332e+00,1.000000000001851497e+01,6.600000000008319212e-01,1.569999999999916795e+00,2.869999999999996817e+03,-2.174999999998835420e+00,-4.944999999998529461e+00,1.346584284783848950e+01,-2.401506298664992656e+00
1.999999999999866063e+01,2.999999999465181144e+00,1.000000000001325695e+01,6.600000000002157474e-01,1.570000000000048468e+00,2.869999999999996817e+03,-2.174999999999786215e+00,-4.944999999999830642e+00,1.352225366047352040e+01,-2.400497416623317282e+00
1.999999999999598188e+01,2.999999999094245418e+00,1.000000000001204192e+01,6.600000000002594902e-01,1.570000000000043805e+00,2.869999999999998181e+03,-2.174999999999068567e+00,-4.944999999998880291e+00,1.347181616094279022e+01,-2.353354741096153724e+00
1.999999999999558753e+01,2.999999998876638596e+00,1.000000000002874501e+01,6.600000000011648771e-01,1.569999999999905471e+00,2.869999999999997272e+03,-2.174999999997979661e+00,-4.944999999997483187e+00,1.351623262251973046e+01,-2.465436502797319296e+00
1.999999999999704059e+01,2.999999998982495253e+00,1.000000000002019540e+01,6.600000000006073231e-01,1.569999999999983187e+00,2.869999999999998181e+03,-2.174999999998863398e+00,-4.944999999998628049e+00,1.350599717194554472e+01,-2.325060985997407847e+00
1.999999999999849720e+01,3.000000000699474700e+00,1.000000000002187939e+01,6.600000000007989476e-01,1.569999999999933671e+00,2.869999999999996817e+03,-2.174999999998862510e+00,-4.944999999998572981e+00,1.348839836902068434e+01,-2.321508847857482127e+00
2.000000000000025935e+01,2.999999999204669532e+00,9.999999999974594544e+00,6.599999999998297229e-01,1.569999999999938334e+00,2.869999999999994998e+03,-2.174999999999474021e+00,-4.944999999999063256e+00,1.337588253018376427e+01,-2.220886696486761291e+00
2.000000000000482814e+01,2.999999997560444331e+00,9.999999999979406695e+00,6.600000000001020606e-01,1.569999999999885265e+00,2.869999999999991360e+03,-2.175000000000193889e+00,-4.945000000000010942e+00,1.339247800090039320e+01,-2.141021044227473524e+00
2.000000000000162004e+01,2.999999997816324093e+00,9.999999999992978061e+00,6.600000000006128742e-01,1.569999999999859730e+00,2.869999999999994088e+03,-2.174999999999559730e+00,-4.944999999999512674e+00,1.345022896934937151e+01,-2.165326249135378855e+00
2.000000000000225242e+01,2.999999998366627008e+00,9.999999999995791811e+00,6.600000000004501155e-01,1.569999999999813545e+00,2.869999999999994998e+03,-2.174999999999517097e+00,-4.944999999999277307e+00,1.338054500911797717e+01,-2.161076989002725046e+00
1.999999999999818101e+01,2.999999998449057514e+00,1.000000000001887024e+01,6.599999999986894128e-01,1.570000000000372209e+00,2.869999999999999091e+03,-2.175000000002455192e+00,-4.945000000003529017e+00,1.341120855451674565e+01,-2.179225755706109435e+00
2.000000000000138911e+01,2.999999998330855622e+00,1.000000000001546141e+01,6.599999999987512522e-01,1.570000000000330465e+00,2.869999999999996817e+03,-2.175000000002991207e+00,-4.945000000004234231e+00,1.340266709069631546e+01,-2.059646785474518627e+00
2.000000000000014921e+01,2.999999998241427601e+00,1.000000000002854250e+01,6.599999999991679189e-01,1.570000000000252971e+00,2.869999999999995907e+03,-2.175000000001923173e+00,-4.945000000002732321e+00,1.342288036927146777e+01,-2.151159048237743843e+00
2.000000000000186517e+01,2.999999997469646296e+00,1.000000000000086509e+01,6.599999999989313304e-01,1.570000000000199680e+00,2.869999999999997272e+03,-2.175000000002010214e+00,-4.945000000002631957e+00,1.337982894338762030e+01,-2.128856036513963268e+00
1.999999999999839773e+01,2.999999998722489014e+00,1.000000000002188294e+01,6.599999999988531707e-01,1.570000000000389972e+00,2.870000000000001364e+03,-2.175000000002267342e+00,-4.945000000003353158e+00,1.342530872865752833e+01,-2.126752814212696130e+00
2.000000000000189715e+01,2.999999998799278700e+00,1.000000000000591349e+01,6.599999999978238829e-01,1.570000000000503659e+00,2.870000000000000909e+03,-2.175000000004016165e+00,-4.945000000005477681e+00,1.336923757491516795e+01,-2.188128324711089867e+00
2.000000000000153477e+01,2.999999998938609913e+00,1.000000000002154543e+01,6.599999999995842526e-01,1.570000000000126850e+00,2.869999999999994543e+03,-2.175000000001539480e+00,-4.945000000002208296e+00,1.338465604599486980e+01,-2.215238442592607715e+00
2.000000000000181899e+01,2.999999999345668300e+00,1.000000000000924061e+01,6.599999999996213340e-01,1.570000000000114193e+00,2.869999999999994543e+03,-2.175000000001018563e+00,-4.945000000001340545e+00,1.334715293590046592e+01,-2.132264526288785600e+00
2.000000000000079936e+01,2.999999998930046541e+00,1.000000000002683542e+01,6.599999999981293053e-01,1.570000000000445484e+00,2.869999999999990450e+03,-2.175000000003548539e+00,-4.945000000004851515e+00,1.336613104604954927e+01,-2.149081284036378214e+00
1.999999999999996803e+01,2.999999997389553474e+00,1.000000000000279599e+01,6.600000000013495072e-01,1.569999999999625473e+00,2.870000000000000000e+03,-2.174999999997506706e+00,-4.944999999996457341e+00,1.335820421229663957e+01,-2.110864149614633867e+00
2.000000000000044409e+01,2.999999996900872823e+00,1.000000000001030287e+01,6.600000000011182477e-01,1.569999999999672990e+00,2.870000000000000000e+03,-2.174999999997953015e+00,-4.944999999997036433e+00,1.337180215862851718e+01,-2.078344768733711767e+00
2.000000000000165556e+01,2.999999996258600365e+00,1.000000000002204281e+01,6.600000000014477619e-01,1.569999999999628360e+00,2.869999999999998181e+03,-2.174999999998046718e+00,-4.944999999997199858e+00,1.340423031800339793e+01,-2.123555091048971999e+00
2.000000000000185096e+01,2.999999998517349553e+00,1.000000000000722800e+01,6.600000000004851985e-01,1.569999999999821538e+00,2.870000000000000000e+03,-2.174999999999402078e+00,-4.944999999999057927e+00,1.336606330494415218e+01,-2.059351974068565738e+00
2.000000000000033040e+01,2.999999998562192349e+00,1.000000000000272138e+01,6.600000000008044987e-01,1.569999999999759144e+00,2.870000000000000455e+03,-2.174999999998547207e+00,-4.944999999997935269e+00,1.334530551864435033e+01,-2.085368192201621618e+00
1.999999999999832312e+01,2.999999996499082222e+00,1.000000000000005329e+01,6.600000000007425482e-01,1.569999999999812212e+00,2.870000000000001364e+03,-2.174999999998466826e+00,-4.944999999997899742e+00,1.336218883493329201e+01,-2.236505480674504831e+00
1.999999999999985079e+01,2.999999996797233948e+00,1.000000000000253664e+01,6.600000000007602008e-01,1.569999999999767359e+00,2.870000000000000909e+03,-2.174999999998568523e+00,-4.944999999997957474e+00,1.335421320517816035e+01,-2.166666030052804448e+00
2.000000000000247624e+01,2.999999996165434002e+00,9.999999999994264144e+00,6.599999999999502931e-01,1.569999999999903695e+00,2.869999999999998636e+03,-2.175000000000260503e+00,-4.945000000000153939e+00,1.338427648817151727e+01,-2.216541114564379189e+00
2.000000000000083134e+01,3.000000001741006006e+00,1.000000000001069722e+01,6.600000000004119238e-01,1.569999999999852180e+00,2.869999999999999091e+03,-2.174999999999195577e+00,-4.944999999998755946e+00,1.331857062782280110e+01,-2.144085797628621393e+00
1.999999999999930367e+01,3.000000002311761893e+00,1.000000000002760636e+01,6.600000000010570744e-01,1.569999999999717843e+00,2.870000000000001819e+03,-2.174999999997714095e+00,-4.944999999996740669e+00,1.333319457432811816e+01,-2.211183979045236558e+00
2.000000000000043343e+01,3.000000002386883136e+00,1.000000000001453948e+01,6.600000000026490232e-01,1.569999999999432072e+00,2.870000000000000909e+03,-2.174999999996100719e+00,-4.944999999994783124e+00,1.332329140370343445e+01,-2.290915747424684845e+00
2.000000000000027711e+01,3.000000001265421545e+00,1.000000000001180922e+01,6.600000000008418022e-01,1.569999999999800666e+00,2.870000000000000455e+03,-2.174999999998738609e+00,-4.944999999998335838e+00,1.329269723404976489e+01,-2.206734719050934768e+00
1.999999999999758771e+01,3.000000003203018739e+00,1.000000000001035083e+01,6.600000000011608803e-01,1.569999999999703633e+00,2.870000000000001819e+03,-2.174999999997503597e+00,-4.944999999996620765e+00,1.331816223732481674e+01,-2.288171037802471997e+00
1.999999999999984723e+01,2.999999998487477004e+00,1.000000000000587619e+01,6.599999999991281729e-01,1.570000000000145723e+00,2.869999999999998181e+03,-2.175000000000795630e+00,-4.945000000000985274e+00,1.327175865887303097e+01,-2.396807025402907687e+00
