1.999999999999897682e+01,3.000000000967259162e+00,1.000000000002193623e+01,6.600000000011363444e-01,1.569999999999738050e+00,2.869999999999999091e+03,-2.174999999997791367e+00,-4.944999999996972484e+00,1.341071413350125852e+01,-2.182829051849539681e+00
2.000000000000124345e+01,2.999999996572854766e+00,9.999999999997708500e+00,6.600000000000009193e-01,1.569999999999990736e+00,2.869999999999996817e+03,-2.175000000000438138e+00,-4.945000000000554508e+00,1.341091059685495779e+01,-2.169013282326849534e+00
2.000000000000039080e+01,2.999999997408203445e+00,9.999999999995809574e+00,6.599999999989965005e-01,1.570000000000202567e+00,2.869999999999991360e+03,-2.175000000001825917e+00,-4.945000000002391261e+00,1.339295204755300972e+01,-2.162917887929084682e+00
1.999999999999887024e+01,2.999999999958542052e+00,1.000000000001336176e+01,6.599999999997913092e-01,1.569999999999976747e+00,2.869999999999999091e+03,-2.174999999999791545e+00,-4.944999999999545537e+00,1.339439878563079311e+01,-2.172514101358364424e+00
2.000000000000053291e+01,2.999999997701742860e+00,1.000000000000864375e+01,6.600000000000491029e-01,1.569999999999926343e+00,2.869999999999997272e+03,-2.174999999999771561e+00,-4.944999999999541096e+00,1.340404698599596145e+01,-2.155884577605661878e+00
2.000000000000142819e+01,2.999999996722624740e+00,1.000000000000409095e+01,6.600000000000293410e-01,1.569999999999947660e+00,2.869999999999995907e+03,-2.175000000000100631e+00,-4.945000000000010054e+00,1.340516696338887037e+01,-2.149789582611051575e+00
2.000000000000095213e+01,2.999999995641426054e+00,1.000000000000105160e+01,6.600000000003297673e-01,1.569999999999904139e+00,2.869999999999987722e+03,-2.174999999999514877e+00,-4.944999999999277307e+00,1.340669036892823840e+01,-2.170760605251448094e+00
1.999999999999845457e+01,3.000000000980470816e+00,1.000000000002349765e+01,6.600000000007816281e-01,1.569999999999763807e+00,2.870000000000001819e+03,-2.174999999998102229e+00,-4.944999999997270912e+00,1.340254810815713959e+01,-2.182100045668953214e+00
1.999999999999879563e+01,2.999999999563156550e+00,1.000000000001205436e+01,6.599999999998787947e-01,1.570000000000000950e+00,2.870000000000000455e+03,-2.174999999999888356e+00,-4.944999999999757812e+00,1.339431368322997606e+01,-2.180147872009202903e+00
1.999999999999887379e+01,2.999999997450678357e+00,1.000000000000895284e+01,6.600000000005661338e-01,1.569999999999852180e+00,2.869999999999999091e+03,-2.174999999998727507e+00,-4.944999999998213269e+00,1.340496017298432285e+01,-2.198968189931657768e+00
1.999999999999999289e+01,2.999999993280491939e+00,9.999999999990675903e+00,6.599999999998180655e-01,1.570000000000050688e+00,2.869999999999991360e+03,-2.175000000000386624e+00,-4.945000000000507434e+00,1.339560121643582846e+01,-2.194316264201171318e+00
1.999999999999794653e+01,2.999999998872471263e+00,1.000000000001685763e+01,6.600000000004301315e-01,1.569999999999842411e+00,2.870000000000002274e+03,-2.174999999998461053e+00,-4.944999999997751416e+00,1.339544770152089370e+01,-2.194954762036447793e+00
1.999999999999908340e+01,2.999999995612925296e+00,1.000000000000527400e+01,6.600000000004314638e-01,1.569999999999854401e+00,2.870000000000000455e+03,-2.174999999998756817e+00,-4.944999999998189288e+00,1.340067133507353603e+01,-2.197198185418461236e+00
1.999999999999949196e+01,2.999999995016001453e+00,1.000000000000385469e+01,6.600000000006228662e-01,1.569999999999821094e+00,2.869999999999994543e+03,-2.174999999998530331e+00,-4.944999999997901519e+00,1.340415384896252604e+01,-2.195518552243434396e+00
2.000000000000011013e+01,2.999999995579159418e+00,1.000000000000170353e+01,6.600000000002960165e-01,1.569999999999900586e+00,2.869999999999994543e+03,-2.174999999999407407e+00,-4.944999999999109441e+00,1.340772686378326739e+01,-2.184818041294943836e+00
1.999999999999966249e+01,2.999999996340707131e+00,9.999999999994141575e+00,6.599999999992746114e-01,1.570000000000159934e+00,2.869999999999993634e+03,-2.175000000001215295e+00,-4.945000000001621210e+00,1.339335033826849219e+01,-2.187897358129086367e+00
1.999999999999947775e+01,2.999999996031752936e+00,9.999999999998548716e+00,6.599999999997632205e-01,1.570000000000062235e+00,2.869999999999994543e+03,-2.175000000000422595e+00,-4.945000000000574936e+00,1.339824743595835166e+01,-2.191282317937122137e+00
1.999999999999871392e+01,2.999999999657152028e+00,1.000000000000956391e+01,6.599999999995452837e-01,1.570000000000088214e+00,2.869999999999998181e+03,-2.175000000000685940e+00,-4.945000000000876028e+00,1.339451244183600487e+01,-2.179704534271326377e+00
1.999999999999849720e+01,3.000000001009218042e+00,1.000000000001488409e+01,6.599999999997526734e-01,1.569999999999999174e+00,2.869999999999997726e+03,-2.174999999999884359e+00,-4.944999999999689422e+00,1.338784977325109260e+01,-2.174725663863510405e+00
1.999999999999872813e+01,3.000000001715429132e+00,1.000000000001508127e+01,6.599999999997944178e-01,1.570000000000028262e+00,2.870000000000000000e+03,-2.175000000000161471e+00,-4.945000000000170814e+00,1.339399414110778430e+01,-2.175765905346539686e+00
1.999999999999846878e+01,3.000000002157219292e+00,1.000000000002396661e+01,6.600000000007988366e-01,1.569999999999792228e+00,2.870000000000001819e+03,-2.174999999998393552e+00,-4.944999999997746976e+00,1.340811883721694642e+01,-2.182670445231507106e+00
1.999999999999982947e+01,2.999999997425738751e+00,9.999999999999737099e+00,6.599999999994710098e-01,1.570000000000085771e+00,2.869999999999998181e+03,-2.175000000000663736e+00,-4.945000000000793428e+00,1.338838232984662469e+01,-2.171917287935997809e+00
2.000000000000081712e+01,2.999999995289380994e+00,9.999999999989775290e+00,6.599999999992046673e-01,1.570000000000157048e+00,2.869999999999994088e+03,-2.175000000001415135e+00,-4.945000000001841478e+00,1.339096625481660752e+01,-2.168457840736335296e+00
2.000000000000040501e+01,2.999999993438730250e+00,9.999999999989880095e+00,6.599999999995475042e-01,1.570000000000119300e+00,2.869999999999994543e+03,-2.175000000000960387e+00,-4.945000000001341434e+00,1.339848041613504215e+01,-2.188377169162846414e+00
2.000000000000057909e+01,2.999999993581543123e+00,9.999999999993850253e+00,6.599999999999129896e-01,1.570000000000015383e+00,2.869999999999995907e+03,-2.175000000000160583e+00,-4.945000000000206342e+00,1.340109077623268696e+01,-2.183986302626628184e+00
2.000000000000077804e+01,2.999999998552675962e+00,1.000000000000961009e+01,6.600000000004246914e-01,1.569999999999914797e+00,2.869999999999997272e+03,-2.174999999999691180e+00,-4.944999999999581952e+00,1.340711788104126612e+01,-2.158626617599642028e+00
2.000000000000104450e+01,2.999999994568974149e+00,9.999999999990798472e+00,6.600000000004482281e-01,1.569999999999974083e+00,2.869999999999982720e+03,-2.174999999999932765e+00,-4.945000000000050022e+00,1.340835045058212494e+01,-2.188144539708542613e+00
