3.768792465415095327e-02
2.098352181242122555e-02
4.014636278172293432e-02
4.131835767634508411e-02
4.224615125333257282e-02
2.989407664933190975e-02
4.620294418416138332e-02
3.431750135423845827e-02
1.577266938172915134e-02
1.637452786571218580e-02
1.745336783554302107e-02
2.710727295703031781e-02
4.033192074523436060e-02
3.389399776520474888e-02
3.902563523886555530e-02
4.437214671395387638e-02
4.149980658247740678e-02
4.435701124734062195e-02
4.523389461844716519e-02
3.947503002476102779e-02
4.331828815883865397e-02
4.098796765836877631e-02
3.828250112153441798e-02
2.969139823997926295e-02
1.735724296077047202e-02
1.100383291500131068e-02
4.361493728936986780e-02
4.196446089618788289e-02
3.608524941794549051e-02
