3.784047200363618163e-02
3.202609386849778611e-02
4.157045210332462742e-02
3.570938940240321602e-02
3.729828119365490718e-02
2.218425531584840987e-02
2.704698668815235657e-02
4.009970183315037656e-02
4.366709523773971979e-02
4.178175715924475897e-02
3.963152584358069219e-02
3.992715377523878978e-02
4.120729572631170318e-02
4.060325255306383024e-02
3.358248928353282925e-02
2.400217984127513832e-02
2.426564801095974083e-02
3.393905245581899793e-02
2.541789872182855306e-02
2.837764093224036735e-02
3.511296540184476178e-02
3.534395936750837214e-02
4.060335333577136385e-02
4.474682875923086806e-02
4.189401297020232950e-02
3.725115923092119086e-02
3.855941149477896956e-02
3.630968749023918973e-02
