3.544525950123821045e-02
3.580317535182930139e-02
3.564897883910173731e-02
3.592887550394536361e-02
3.591646308353690226e-02
3.600368180492908438e-02
3.599482136646140612e-02
3.524595330577225821e-02
3.542461848530345514e-02
3.464817865270856251e-02
3.596123366909825120e-02
3.556700270643946976e-02
3.584517461082146333e-02
3.539035503313425757e-02
3.553235624522858155e-02
3.598663668279977051e-02
3.589284825854595351e-02
3.596465391544508006e-02
3.596546384539311969e-02
3.596911340925535577e-02
3.594909447806984154e-02
3.602144659372909230e-02
3.599533367154902214e-02
3.516186696405863149e-02
3.528375410259403100e-02
3.576070769961417484e-02
3.571674460445282279e-02
3.597620761494478570e-02
