3.447966298641916977e-02
3.831704511558130244e-02
3.775922981982358928e-02
3.438287296236863105e-02
3.287965351839206712e-02
3.790896783903044409e-02
3.363946745736761529e-02
3.401013745173638025e-02
3.531924600652932428e-02
3.525348296318800423e-02
3.610278105567420182e-02
3.287398440785668785e-02
3.503154375110024282e-02
3.370621391784263399e-02
3.477735254042047669e-02
3.835826016168241565e-02
4.203342270054300639e-02
3.640737494657603213e-02
3.497130689954129623e-02
3.481303799191175913e-02
3.633034854436791028e-02
3.444324252419821153e-02
3.357876782127517529e-02
4.171351948893370354e-02
3.620682590785283955e-02
3.331666843959648489e-02
3.583002742124265227e-02
3.555555535894774910e-02
