1.999999999998288303e+01,3.000000002926397347e+00,1.000000000000581224e+01,6.600000000004812017e-01,1.570000000001042562e+00,2.870000000000004093e+03,-2.174999999998771028e+00,-4.945000000000814744e+00,1.340228712612632478e+01,-2.162752571850700800e+00
1.999999999999150191e+01,3.000000002047769510e+00,9.999999999960483166e+00,6.600000000002879119e-01,1.570000000000364881e+00,2.869999999999991815e+03,-2.174999999999218225e+00,-4.945000000000923990e+00,1.341590560579400560e+01,-2.169199226365609690e+00
1.999999999999424105e+01,3.000000002664324317e+00,1.000000000001499956e+01,6.600000000002247402e-01,1.570000000000280060e+00,2.869999999999997272e+03,-2.174999999999543299e+00,-4.945000000000798757e+00,1.339200713086198569e+01,-2.178058024852470798e+00
2.000000000000992273e+01,3.000000002877382332e+00,9.999999999955941021e+00,6.600000000002685940e-01,1.570000000000181917e+00,2.869999999999982265e+03,-2.175000000000784084e+00,-4.945000000001334328e+00,1.340493978538335185e+01,-2.176104872101498167e+00
2.000000000000057199e+01,3.000000002623973483e+00,9.999999999986510346e+00,6.600000000000086908e-01,1.570000000000067342e+00,2.869999999999992724e+03,-2.175000000000125944e+00,-4.944999999999877716e+00,1.340113084825396150e+01,-2.179082843478930442e+00
2.000000000000089173e+01,3.000000003386149583e+00,9.999999999891876712e+00,6.600000000004342393e-01,1.570000000000422613e+00,2.869999999999996817e+03,-2.175000000000159694e+00,-4.945000000001745555e+00,1.339738500177707792e+01,-2.211691327547028685e+00
2.000000000000639133e+01,3.000000003036391583e+00,9.999999999944355622e+00,6.600000000005686873e-01,1.570000000000514540e+00,2.869999999999990905e+03,-2.175000000000736566e+00,-4.945000000002170992e+00,1.340120169865852162e+01,-2.181562383943080885e+00
2.000000000000667555e+01,3.000000002064898030e+00,9.999999999950622609e+00,6.600000000010137757e-01,1.570000000001002816e+00,2.869999999999980901e+03,-2.175000000000765876e+00,-4.945000000003883400e+00,1.341257166271570611e+01,-2.171343147337123636e+00
2.000000000000589040e+01,3.000000002632408513e+00,1.000000000000888178e+01,6.600000000023908964e-01,1.570000000002676588e+00,2.869999999999986812e+03,-2.175000000001396927e+00,-4.945000000008244356e+00,1.342045278986720724e+01,-2.184622292700754809e+00
1.999999999997065459e+01,3.000000001863598165e+00,1.000000000007536727e+01,6.599999999985137755e-01,1.569999999998995532e+00,2.870000000000004547e+03,-2.174999999997272671e+00,-4.944999999993390460e+00,1.340804172846197595e+01,-2.162733758499544745e+00
1.999999999997861266e+01,3.000000001362148172e+00,1.000000000008948220e+01,6.599999999980535881e-01,1.569999999998242801e+00,2.869999999999994998e+03,-2.174999999997910827e+00,-4.944999999991956052e+00,1.340202194678000502e+01,-2.146704544493430067e+00
1.999999999999314682e+01,3.000000002155087664e+00,9.999999999981687537e+00,6.600000000007572032e-01,1.570000000001066986e+00,2.869999999999992269e+03,-2.174999999999660094e+00,-4.945000000002395701e+00,1.339908751548468224e+01,-2.189872563329590349e+00
2.000000000000892797e+01,3.000000002216166806e+00,9.999999999965414332e+00,6.600000000008079404e-01,1.570000000000281837e+00,2.869999999999984993e+03,-2.175000000000975042e+00,-4.945000000003619611e+00,1.338837189393763616e+01,-2.180281581223366238e+00
1.999999999999798916e+01,3.000000002452856140e+00,9.999999999995392130e+00,6.600000000010429746e-01,1.570000000001146256e+00,2.869999999999997726e+03,-2.175000000000225420e+00,-4.945000000003473062e+00,1.340229231303051805e+01,-2.182277726472618085e+00
2.000000000000042277e+01,3.000000001532942662e+00,9.999999999999539924e+00,6.600000000000458833e-01,1.569999999999915685e+00,2.869999999999975444e+03,-2.175000000000054001e+00,-4.945000000000153939e+00,1.342051797323463802e+01,-2.147407541253657293e+00
2.000000000000671818e+01,3.000000001724042686e+00,9.999999999995502264e+00,6.600000000003917178e-01,1.570000000000022933e+00,2.869999999999983174e+03,-2.175000000000758327e+00,-4.945000000001734008e+00,1.340361642232341310e+01,-2.150211041023631253e+00
2.000000000000655120e+01,3.000000001545812367e+00,9.999999999986989963e+00,6.600000000005091794e-01,1.570000000000069340e+00,2.869999999999982265e+03,-2.175000000000709477e+00,-4.945000000002342411e+00,1.339515105344558243e+01,-2.144883647417042294e+00
2.000000000000898837e+01,3.000000002333843341e+00,9.999999999965686115e+00,6.600000000006035483e-01,1.570000000000529639e+00,2.869999999999986358e+03,-2.175000000001050982e+00,-4.945000000002246487e+00,1.342216497465977909e+01,-2.180651851657806617e+00
2.000000000000175859e+01,3.000000002558957934e+00,9.999999999931981520e+00,6.600000000007587575e-01,1.570000000000983054e+00,2.869999999999988631e+03,-2.175000000000434142e+00,-4.945000000002448104e+00,1.344575350049073670e+01,-2.192522690823915710e+00
2.000000000000357758e+01,3.000000002259112009e+00,9.999999999947965179e+00,6.600000000002159695e-01,1.570000000000092655e+00,2.869999999999983629e+03,-2.175000000000491429e+00,-4.945000000000733031e+00,1.344159330055023815e+01,-2.185287663334456010e+00
2.000000000000976286e+01,3.000000002147993783e+00,9.999999999932965622e+00,6.600000000007367751e-01,1.570000000000568940e+00,2.869999999999979991e+03,-2.175000000001098499e+00,-4.945000000002852225e+00,1.342914426815640105e+01,-2.176245601041921773e+00
1.999999999999123546e+01,3.000000002246905328e+00,1.000000000003830181e+01,6.599999999983863219e-01,1.569999999998783036e+00,2.869999999999987722e+03,-2.174999999998875833e+00,-4.944999999993317630e+00,1.344562784369992769e+01,-2.170575101000650431e+00
1.999999999999438671e+01,3.000000002276248523e+00,1.000000000006457768e+01,6.599999999993279021e-01,1.569999999999456053e+00,2.869999999999986358e+03,-2.174999999999279510e+00,-4.944999999997336637e+00,1.340195601551817361e+01,-2.147247378715932076e+00
2.000000000002027534e+01,3.000000002106957275e+00,9.999999999929057637e+00,6.600000000004131451e-01,1.569999999999871942e+00,2.869999999999958618e+03,-2.175000000001904965e+00,-4.945000000002235829e+00,1.339908350485682220e+01,-2.160525121929156356e+00
2.000000000000890665e+01,3.000000002385577069e+00,9.999999999995250022e+00,6.600000000015323609e-01,1.570000000001452456e+00,2.869999999999982265e+03,-2.175000000001143352e+00,-4.945000000005997265e+00,1.340471653292835263e+01,-2.178636636602542698e+00
1.999999999999456435e+01,3.000000002308145675e+00,9.999999999966480146e+00,6.600000000002655964e-01,1.570000000000615348e+00,2.869999999999998636e+03,-2.174999999999549516e+00,-4.945000000000650431e+00,1.340309370356570184e+01,-2.178810153606898670e+00
1.999999999999469580e+01,3.000000001634645752e+00,9.999999999937804418e+00,6.600000000002642642e-01,1.570000000000493445e+00,2.869999999999994088e+03,-2.174999999999690292e+00,-4.945000000000463913e+00,1.341474668852736407e+01,-2.181549453126828020e+00
2.000000000000421352e+01,3.000000001788060811e+00,9.999999999953109509e+00,6.600000000002783640e-01,1.570000000000248752e+00,2.869999999999989086e+03,-2.175000000000397726e+00,-4.945000000000965734e+00,1.341234934033363224e+01,-2.160332998652490843e+00
1.999999999999565503e+01,3.000000002944898991e+00,9.999999999978202325e+00,6.599999999996677413e-01,1.569999999999625473e+00,2.869999999999991815e+03,-2.174999999999609468e+00,-4.944999999998711537e+00,1.340655071782636298e+01,-2.187371820444891313e+00
2.000000000000866862e+01,3.000000001959169715e+00,9.999999999964289898e+00,6.600000000006518430e-01,1.570000000000383755e+00,2.869999999999980446e+03,-2.175000000000895550e+00,-4.945000000002551133e+00,1.339893381076955414e+01,-2.157351256620352320e+00
1.999999999997780620e+01,3.000000002379280328e+00,1.000000000000697753e+01,6.599999999992604005e-01,1.569999999999585061e+00,2.870000000000001364e+03,-2.174999999998024958e+00,-4.944999999996471551e+00,1.342135537334157291e+01,-2.191878441941223610e+00
1.999999999998987832e+01,3.000000002214520567e+00,9.999999999972946085e+00,6.600000000002536060e-01,1.570000000000611351e+00,2.869999999999992724e+03,-2.174999999999339462e+00,-4.945000000000119300e+00,1.343727522517142070e+01,-2.185864341852441495e+00
1.999999999998632916e+01,3.000000002455478043e+00,9.999999999972756015e+00,6.599999999998342748e-01,1.570000000000113083e+00,2.869999999999997272e+03,-2.174999999998944666e+00,-4.944999999998637819e+00,1.343186569234756433e+01,-2.189339990103908562e+00
1.999999999998441780e+01,3.000000002337967153e+00,9.999999999986702193e+00,6.600000000000999512e-01,1.570000000000348894e+00,2.870000000000001819e+03,-2.174999999998909139e+00,-4.944999999999548201e+00,1.342241801832070891e+01,-2.180862818353618060e+00
1.999999999999885958e+01,3.000000002561679313e+00,1.000000000006769341e+01,6.600000000011884138e-01,1.570000000000881801e+00,2.869999999999996362e+03,-2.175000000000490097e+00,-4.945000000004394991e+00,1.339142723233992349e+01,-2.167327829357430513e+00
