1.999999999999850786e+01,3.000000001917104697e+00,1.000000000000979128e+01,6.599999999998824585e-01,1.569999999999954543e+00,2.869999999999995907e+03,-2.174999999999840394e+00,-4.944999999999462936e+00,1.337375440371320856e+01,-2.115249893323940089e+00
2.000000000001168132e+01,3.000000002153154544e+00,9.999999999983478105e+00,6.599999999996550848e-01,1.569999999999566409e+00,2.869999999999984539e+03,-2.175000000000974154e+00,-4.944999999998787032e+00,1.336042460523134245e+01,-2.219366888308561325e+00
2.000000000000384759e+01,3.000000002364250573e+00,9.999999999997896794e+00,6.600000000001614575e-01,1.570000000000165707e+00,2.869999999999990905e+03,-2.175000000000365308e+00,-4.945000000000552731e+00,1.340293168006523139e+01,-2.147818740482332789e+00
1.999999999999467448e+01,3.000000001856422127e+00,1.000000000006527046e+01,6.599999999998764633e-01,1.570000000000008500e+00,2.869999999999999091e+03,-2.174999999999458922e+00,-4.944999999999367013e+00,1.340827122884081568e+01,-2.100647294975570567e+00
2.000000000001028511e+01,3.000000001534162575e+00,9.999999999979493737e+00,6.599999999996902789e-01,1.569999999999577511e+00,2.869999999999991360e+03,-2.175000000000824940e+00,-4.944999999999051710e+00,1.344941828880478241e+01,-2.123957881911567203e+00
2.000000000001076828e+01,3.000000003269079230e+00,9.999999999968437692e+00,6.600000000000713074e-01,1.570000000000023155e+00,2.869999999999984993e+03,-2.175000000001118039e+00,-4.945000000000174367e+00,1.340614882631858329e+01,-2.160957475607200085e+00
2.000000000000012434e+01,3.000000003012889493e+00,9.999999999997756461e+00,6.599999999996334354e-01,1.569999999999714735e+00,2.869999999999997726e+03,-2.174999999999922107e+00,-4.944999999998479723e+00,1.338924516381956487e+01,-2.182269007939238392e+00
1.999999999999446132e+01,3.000000003092141210e+00,1.000000000001911005e+01,6.600000000001620126e-01,1.570000000000295381e+00,2.869999999999999545e+03,-2.174999999999763123e+00,-4.945000000000041140e+00,1.338660461129494372e+01,-2.200769133210079609e+00
1.999999999999775824e+01,3.000000003407803817e+00,9.999999999995983657e+00,6.599999999997970823e-01,1.569999999999889040e+00,2.870000000000000000e+03,-2.174999999999854161e+00,-4.944999999998900719e+00,1.341947440968332117e+01,-2.256596693996325342e+00
1.999999999999967315e+01,2.999999999018292396e+00,9.999999999974107823e+00,6.600000000004783152e-01,1.570000000000495000e+00,2.869999999999992724e+03,-2.175000000000185008e+00,-4.945000000001523510e+00,1.352960574247307690e+01,-2.066535473308150905e+00
1.999999999999998579e+01,2.999999998856127892e+00,9.999999999977847054e+00,6.600000000005574741e-01,1.570000000000570051e+00,2.869999999999993179e+03,-2.175000000000221867e+00,-4.945000000001873453e+00,1.353218396487577024e+01,-2.071048936134003426e+00
1.999999999999452527e+01,3.000000000028092195e+00,1.000000000003654144e+01,6.599999999998292788e-01,1.569999999999960316e+00,2.870000000000000000e+03,-2.174999999999640110e+00,-4.944999999998937135e+00,1.344215553897951843e+01,-2.012915351594930957e+00
1.999999999999494094e+01,2.999999999147542784e+00,1.000000000001265654e+01,6.600000000002858025e-01,1.570000000000401297e+00,2.869999999999998636e+03,-2.174999999999637890e+00,-4.945000000000772111e+00,1.344086838357371150e+01,-1.983487341928003245e+00
1.999999999999632294e+01,3.000000002713545388e+00,1.000000000003074341e+01,6.599999999997756550e-01,1.569999999999813989e+00,2.869999999999996817e+03,-2.174999999999651656e+00,-4.944999999998990425e+00,1.339407750652306284e+01,-2.215107721819074005e+00
1.999999999998963673e+01,3.000000001663967630e+00,1.000000000006245493e+01,6.600000000001794431e-01,1.570000000000284945e+00,2.869999999999996362e+03,-2.174999999999259526e+00,-4.945000000000387530e+00,1.342630636089334040e+01,-2.205758786445908726e+00
2.000000000000087752e+01,3.000000000733313854e+00,9.999999999982611243e+00,6.600000000009700329e-01,1.570000000000984608e+00,2.869999999999982265e+03,-2.175000000000526512e+00,-4.945000000003365592e+00,1.343096542651848146e+01,-2.132802635446728878e+00
2.000000000000591172e+01,3.000000000836526404e+00,9.999999999972562392e+00,6.600000000010931567e-01,1.570000000001097407e+00,2.869999999999974079e+03,-2.175000000001178435e+00,-4.945000000003612506e+00,1.345578924492106054e+01,-2.153049627957130507e+00
1.999999999999714362e+01,3.000000000911629883e+00,1.000000000002728129e+01,6.600000000009584866e-01,1.570000000001120499e+00,2.869999999999985903e+03,-2.175000000000435030e+00,-4.945000000002783835e+00,1.343473119344818478e+01,-2.182419843835482265e+00
1.999999999998649969e+01,3.000000000338834738e+00,1.000000000006525269e+01,6.599999999997424593e-01,1.569999999999936779e+00,2.870000000000002728e+03,-2.174999999998829203e+00,-4.944999999998673346e+00,1.341995671976973270e+01,-2.069854732598630509e+00
1.999999999999100808e+01,3.000000002581692193e+00,1.000000000006483702e+01,6.599999999995741495e-01,1.569999999999741602e+00,2.869999999999998636e+03,-2.174999999999297717e+00,-4.944999999997866880e+00,1.336753225883576768e+01,-2.145293079611410914e+00
2.000000000000008527e+01,3.000000001756663259e+00,1.000000000001512923e+01,6.600000000012350432e-01,1.570000000001254392e+00,2.869999999999991815e+03,-2.175000000000417266e+00,-4.945000000004488250e+00,1.337928169604131767e+01,-2.184549260027398354e+00
2.000000000000010658e+01,3.000000001421554874e+00,9.999999999994168220e+00,6.599999999999009992e-01,1.569999999999925011e+00,2.870000000000000000e+03,-2.174999999999903899e+00,-4.944999999999605045e+00,1.344980774202025842e+01,-2.183231551468967968e+00
2.000000000000677858e+01,3.000000002450449621e+00,1.000000000000722444e+01,6.599999999993440003e-01,1.569999999999344586e+00,2.870000000000001364e+03,-2.175000000000393285e+00,-4.944999999997556905e+00,1.345951023738210317e+01,-2.280124361368888852e+00
2.000000000000012434e+01,3.000000000695111524e+00,9.999999999978243181e+00,6.599999999997504530e-01,1.569999999999778240e+00,2.869999999999993634e+03,-2.174999999999976286e+00,-4.944999999999032170e+00,1.336147844146721653e+01,-2.109676758965100873e+00
2.000000000000929390e+01,3.000000001884006728e+00,9.999999999938031792e+00,6.599999999998306111e-01,1.569999999999768914e+00,2.869999999999986812e+03,-2.175000000000880451e+00,-4.944999999999387441e+00,1.341658010037757087e+01,-2.217355397748952850e+00
2.000000000001482903e+01,3.000000000608053607e+00,9.999999999923083749e+00,6.599999999997251399e-01,1.569999999999574625e+00,2.869999999999982265e+03,-2.175000000001311662e+00,-4.944999999999172502e+00,1.345698460205770353e+01,-2.252264225865262315e+00
2.000000000000500222e+01,3.000000001933500027e+00,9.999999999994420463e+00,6.600000000005152856e-01,1.570000000000470353e+00,2.869999999999982265e+03,-2.175000000000750777e+00,-4.945000000001845919e+00,1.336566659439979077e+01,-2.209012155215133610e+00
1.999999999999323563e+01,3.000000000067652550e+00,1.000000000001417000e+01,6.599999999998975575e-01,1.569999999999967422e+00,2.870000000000000909e+03,-2.174999999999196021e+00,-4.944999999999740936e+00,1.324587697096653116e+01,-1.933475035472064674e+00
1.999999999999822009e+01,2.999999999996854960e+00,9.999999999982751575e+00,6.599999999995194155e-01,1.569999999999527329e+00,2.870000000000002728e+03,-2.174999999999346123e+00,-4.944999999998609397e+00,1.329572584365525145e+01,-1.967418536302516285e+00
1.999999999999912248e+01,3.000000000637108144e+00,9.999999999991048938e+00,6.600000000006132073e-01,1.570000000000668638e+00,2.869999999999994543e+03,-2.174999999999889688e+00,-4.945000000002321983e+00,1.323443296377375589e+01,-2.052228792204456642e+00
1.999999999999310774e+01,3.000000001852531017e+00,1.000000000003083578e+01,6.600000000004613288e-01,1.570000000000569829e+00,2.869999999999996817e+03,-2.174999999999566391e+00,-4.945000000001518181e+00,1.322966831597575954e+01,-2.100733001042993653e+00
2.000000000002007283e+01,2.999999999736695067e+00,9.999999999916521887e+00,6.600000000001533529e-01,1.569999999999875051e+00,2.869999999999981810e+03,-2.175000000001800160e+00,-4.945000000001050111e+00,1.356099467512263601e+01,-2.188830865972986928e+00
2.000000000002042455e+01,3.000000000231479724e+00,9.999999999927581484e+00,6.599999999991268407e-01,1.569999999998860973e+00,2.869999999999984993e+03,-2.175000000001383160e+00,-4.944999999997286899e+00,1.359274662384580346e+01,-2.200509949185210257e+00
2.000000000000413181e+01,3.000000000780175036e+00,9.999999999973841369e+00,6.600000000000008082e-01,1.569999999999889040e+00,2.869999999999993179e+03,-2.175000000000273825e+00,-4.945000000000260520e+00,1.342911923911735883e+01,-2.078328570214541759e+00
2.000000000002393463e+01,3.000000001300255903e+00,9.999999999886972191e+00,6.599999999997999689e-01,1.569999999999517115e+00,2.869999999999976808e+03,-2.175000000001874323e+00,-4.944999999999871498e+00,1.342428103534003192e+01,-2.162672097932230031e+00
2.000000000002270539e+01,3.000000001944023165e+00,9.999999999903966597e+00,6.600000000001677858e-01,1.569999999999884821e+00,2.869999999999974534e+03,-2.175000000001998668e+00,-4.945000000001097185e+00,1.340738508941806018e+01,-2.180668416733716253e+00
1.999999999997934452e+01,3.000000001562748153e+00,9.999999999989121591e+00,6.599999999997389066e-01,1.570000000000005169e+00,2.870000000000006366e+03,-2.174999999998072475e+00,-4.944999999998661799e+00,1.348020655708332782e+01,-2.249598967572447705e+00
1.999999999998923883e+01,3.000000001830368301e+00,9.999999999936079575e+00,6.600000000002798073e-01,1.570000000000383533e+00,2.870000000000000000e+03,-2.174999999999019273e+00,-4.945000000001011919e+00,1.349001523056445251e+01,-2.296455896042444600e+00
2.000000000000130740e+01,3.000000000658721078e+00,1.000000000000314948e+01,6.600000000017307578e-01,1.570000000001697593e+00,2.869999999999973170e+03,-2.175000000000800515e+00,-4.945000000006332996e+00,1.335609995524169591e+01,-1.952544735370263629e+00
1.999999999998791722e+01,3.000000000010458301e+00,1.000000000006718182e+01,6.600000000001210454e-01,1.570000000000321139e+00,2.869999999999996362e+03,-2.174999999999018829e+00,-4.945000000000145057e+00,1.338436136264777510e+01,-1.941886012707735976e+00
1.999999999999372591e+01,2.999999999912084991e+00,1.000000000002001954e+01,6.600000000009144108e-01,1.570000000001030127e+00,2.869999999999987722e+03,-2.174999999999735589e+00,-4.945000000003223484e+00,1.329607516841473647e+01,-1.902889574511059001e+00
1.999999999998804157e+01,3.000000002040963842e+00,1.000000000001965894e+01,6.599999999994442534e-01,1.569999999999523554e+00,2.870000000000002728e+03,-2.174999999998678213e+00,-4.944999999997982343e+00,1.340400134041916580e+01,-2.141750346097376134e+00
1.999999999999389289e+01,3.000000001870934074e+00,1.000000000003266365e+01,6.599999999996146727e-01,1.569999999999650342e+00,2.870000000000000909e+03,-2.174999999999215561e+00,-4.944999999998704432e+00,1.338335773753937907e+01,-2.091108047796565117e+00
1.999999999999789324e+01,3.000000002923816744e+00,9.999999999992304822e+00,6.600000000001060574e-01,1.570000000000110862e+00,2.869999999999995907e+03,-2.174999999999623235e+00,-4.945000000000699281e+00,1.340292456450675651e+01,-2.168018444012810519e+00
1.999999999998374989e+01,3.000000001692531892e+00,1.000000000004475353e+01,6.600000000006126522e-01,1.570000000000804308e+00,2.870000000000000909e+03,-2.174999999998623590e+00,-4.945000000002168328e+00,1.342604172713657107e+01,-2.111679598848899442e+00
1.999999999999498712e+01,3.000000003396618542e+00,9.999999999969144682e+00,6.599999999996931654e-01,1.569999999999814877e+00,2.869999999999998181e+03,-2.174999999999521538e+00,-4.944999999998605844e+00,1.337223339251723253e+01,-2.217216247809318030e+00
2.000000000000739320e+01,3.000000001126713389e+00,9.999999999921902472e+00,6.600000000006306378e-01,1.570000000000550733e+00,2.869999999999985903e+03,-2.175000000000773870e+00,-4.945000000002491625e+00,1.338899766670640012e+01,-2.121677902796781368e+00
1.999999999999443645e+01,3.000000001824142615e+00,9.999999999977953635e+00,6.600000000003160006e-01,1.570000000000384865e+00,2.869999999999997272e+03,-2.174999999999615241e+00,-4.945000000001038565e+00,1.337926868084877086e+01,-2.121589987599969529e+00
1.999999999999900524e+01,3.000000002444827896e+00,9.999999999955189622e+00,6.599999999997634426e-01,1.569999999999833085e+00,2.869999999999997272e+03,-2.175000000000080647e+00,-4.944999999998684892e+00,1.349108415078993595e+01,-2.220089472748644877e+00
1.999999999998453148e+01,3.000000002570190283e+00,1.000000000001068656e+01,6.599999999994980993e-01,1.569999999999781348e+00,2.870000000000005457e+03,-2.174999999998771028e+00,-4.944999999997332196e+00,1.344749922678083820e+01,-2.187875710912014604e+00
1.999999999998914646e+01,3.000000001929463700e+00,1.000000000003544542e+01,6.599999999997268052e-01,1.569999999999973639e+00,2.870000000000003638e+03,-2.174999999999361222e+00,-4.944999999998080042e+00,1.337688672285404401e+01,-2.126081916739464894e+00
1.999999999998783906e+01,3.000000001045084463e+00,1.000000000005094947e+01,6.600000000008889867e-01,1.570000000001080309e+00,2.870000000000000000e+03,-2.174999999999413181e+00,-4.945000000002777618e+00,1.329910653625934103e+01,-2.058986674972511643e+00
1.999999999997889688e+01,3.000000000986775994e+00,1.000000000011975132e+01,6.600000000001682299e-01,1.570000000000477902e+00,2.870000000000010914e+03,-2.174999999998462830e+00,-4.944999999999915907e+00,1.328729387715005039e+01,-2.034661961667731944e+00
2.000000000000125766e+01,2.999999999747490875e+00,1.000000000000735234e+01,6.600000000000527667e-01,1.569999999999961204e+00,2.869999999999994998e+03,-2.174999999999866152e+00,-4.945000000000786322e+00,1.347731093493906052e+01,-2.058527864603729274e+00
2.000000000000309441e+01,2.999999998937528112e+00,1.000000000000397549e+01,6.599999999997249178e-01,1.569999999999575069e+00,2.869999999999994998e+03,-2.174999999999785327e+00,-4.944999999999861728e+00,1.353359157774377053e+01,-1.997761573611894548e+00
