1.999999999998262368e+01,3.000000002903282947e+00,1.000000000002180300e+01,6.600000000003840572e-01,1.570000000000986162e+00,2.870000000000002728e+03,-2.174999999998703082e+00,-4.945000000000464802e+00,1.339999044215381296e+01,-2.163581504151518953e+00
1.999999999999284839e+01,3.000000002141690825e+00,9.999999999943771201e+00,6.600000000003679590e-01,1.570000000000452367e+00,2.869999999999989996e+03,-2.174999999999392752e+00,-4.945000000001164686e+00,1.341556909450547153e+01,-2.170924788431875196e+00
1.999999999999849720e+01,3.000000002347955608e+00,9.999999999999007017e+00,6.600000000002415046e-01,1.570000000000227214e+00,2.869999999999992269e+03,-2.174999999999899014e+00,-4.945000000000967511e+00,1.340227191545896801e+01,-2.175008541974618126e+00
2.000000000000977352e+01,3.000000002642404517e+00,9.999999999955877072e+00,6.600000000002206324e-01,1.570000000000079332e+00,2.869999999999978627e+03,-2.175000000000723244e+00,-4.945000000001248175e+00,1.341345389251570630e+01,-2.173445917026064489e+00
2.000000000000663292e+01,3.000000002753379302e+00,9.999999999976443732e+00,6.600000000001792211e-01,1.570000000000259854e+00,2.869999999999987267e+03,-2.175000000000579803e+00,-4.945000000000757900e+00,1.340190650262299599e+01,-2.182341572087520554e+00
2.000000000000084910e+01,3.000000003341979582e+00,9.999999999905693215e+00,6.600000000001347011e-01,1.570000000000112417e+00,2.869999999999996817e+03,-2.175000000000030909e+00,-4.945000000000704610e+00,1.339842131078980358e+01,-2.205273505361228459e+00
2.000000000000685674e+01,3.000000002765977669e+00,9.999999999934887640e+00,6.600000000002074207e-01,1.570000000000168372e+00,2.869999999999986812e+03,-2.175000000000637979e+00,-4.945000000000836060e+00,1.340668257872840918e+01,-2.173879839277282677e+00
2.000000000000936140e+01,3.000000001917476400e+00,9.999999999944323648e+00,6.600000000008036105e-01,1.570000000000888685e+00,2.869999999999974534e+03,-2.175000000000915534e+00,-4.945000000003044072e+00,1.341864697640843040e+01,-2.164505264641103821e+00
2.000000000000521183e+01,3.000000002742971628e+00,9.999999999997875477e+00,6.600000000019541346e-01,1.570000000002329754e+00,2.869999999999986812e+03,-2.175000000001137135e+00,-4.945000000006666951e+00,1.342338862814833966e+01,-2.192628965448795153e+00
1.999999999996493116e+01,3.000000001857171750e+00,1.000000000010363443e+01,6.599999999985063370e-01,1.569999999999185158e+00,2.870000000000008185e+03,-2.174999999996785505e+00,-4.944999999993095585e+00,1.341680558003824508e+01,-2.163452311158391872e+00
1.999999999998237499e+01,3.000000001516867520e+00,1.000000000006286882e+01,6.599999999981558396e-01,1.569999999998392459e+00,2.869999999999990905e+03,-2.174999999998161737e+00,-4.944999999992454320e+00,1.341122054160381261e+01,-2.148084048966211856e+00
1.999999999998973621e+01,3.000000002310765801e+00,9.999999999985528021e+00,6.600000000001640110e-01,1.570000000000446150e+00,2.869999999999995453e+03,-2.174999999999207123e+00,-4.945000000000200124e+00,1.340185983205200237e+01,-2.194337319009380227e+00
2.000000000000579092e+01,3.000000002088538231e+00,9.999999999969299225e+00,6.600000000006256418e-01,1.570000000000173035e+00,2.869999999999984539e+03,-2.175000000000724576e+00,-4.945000000002685248e+00,1.339683790606644642e+01,-2.176670220863310412e+00
2.000000000000328271e+01,3.000000002561026058e+00,1.000000000000641798e+01,6.600000000012067325e-01,1.570000000001292584e+00,2.869999999999995453e+03,-2.175000000000726352e+00,-4.945000000004156071e+00,1.340157610097869956e+01,-2.179327346439105639e+00
1.999999999999385736e+01,3.000000001540421124e+00,1.000000000002960476e+01,6.599999999995019850e-01,1.569999999999609042e+00,2.869999999999976808e+03,-2.174999999999356337e+00,-4.944999999997791384e+00,1.342687817820296559e+01,-2.144319060875359728e+00
2.000000000000292033e+01,3.000000001624498314e+00,9.999999999996711963e+00,6.600000000002085310e-01,1.570000000000089546e+00,2.869999999999985448e+03,-2.175000000000429701e+00,-4.945000000000620233e+00,1.342425474935016716e+01,-2.152889693651517611e+00
2.000000000000689226e+01,3.000000001661200510e+00,9.999999999990762944e+00,6.600000000006797096e-01,1.570000000000116414e+00,2.869999999999981810e+03,-2.175000000000863132e+00,-4.945000000003010321e+00,1.339815953406927562e+01,-2.149442577969678414e+00
2.000000000001011458e+01,3.000000002351371098e+00,9.999999999958605557e+00,6.600000000004810907e-01,1.570000000000443485e+00,2.869999999999982720e+03,-2.175000000001110489e+00,-4.945000000001732232e+00,1.343185317418605429e+01,-2.178204271785666446e+00
2.000000000000520117e+01,3.000000002603398386e+00,9.999999999928276040e+00,6.600000000006263079e-01,1.570000000000792095e+00,2.869999999999984084e+03,-2.175000000000710365e+00,-4.945000000002031548e+00,1.344451413192381040e+01,-2.193271245127342173e+00
2.000000000000240519e+01,3.000000002416947531e+00,9.999999999937625006e+00,6.600000000005674661e-01,1.570000000000614460e+00,2.869999999999986358e+03,-2.175000000000493650e+00,-4.945000000001834373e+00,1.343994392750819422e+01,-2.190457069385006950e+00
2.000000000001118750e+01,3.000000001951744100e+00,9.999999999928951055e+00,6.600000000009318413e-01,1.570000000000732143e+00,2.869999999999978627e+03,-2.175000000001261480e+00,-4.945000000003635598e+00,1.342809961623613901e+01,-2.177508856047838837e+00
1.999999999999837286e+01,3.000000002510629482e+00,1.000000000001188383e+01,6.599999999988818145e-01,1.569999999999245555e+00,2.869999999999984539e+03,-2.174999999999598366e+00,-4.944999999995288498e+00,1.344940044481221442e+01,-2.172652151356418315e+00
1.999999999999568701e+01,3.000000002062217952e+00,1.000000000003990586e+01,6.599999999993830802e-01,1.569999999999504903e+00,2.869999999999983174e+03,-2.174999999999407407e+00,-4.944999999997508944e+00,1.340994781082427956e+01,-2.146225897930156279e+00
2.000000000001821476e+01,3.000000002190611248e+00,9.999999999908087744e+00,6.600000000003554135e-01,1.570000000000093321e+00,2.869999999999960437e+03,-2.175000000001654499e+00,-4.945000000001797957e+00,1.340261272725818031e+01,-2.172177724430659485e+00
2.000000000000963851e+01,3.000000002212511063e+00,9.999999999985975663e+00,6.600000000012328227e-01,1.570000000000972395e+00,2.869999999999984084e+03,-2.175000000001106937e+00,-4.945000000005083329e+00,1.339636866372981849e+01,-2.170401502151128259e+00
1.999999999999452172e+01,3.000000002322148696e+00,9.999999999967464248e+00,6.600000000003150014e-01,1.570000000000586038e+00,2.869999999999998636e+03,-2.174999999999570832e+00,-4.945000000000860929e+00,1.340306476536709823e+01,-2.175722011421110214e+00
1.999999999999245048e+01,3.000000001798849070e+00,9.999999999941406870e+00,6.600000000000461053e-01,1.570000000000330243e+00,2.869999999999996817e+03,-2.174999999999451372e+00,-4.944999999999572182e+00,1.340902258707440176e+01,-2.179941555954767463e+00
1.999999999999741718e+01,3.000000001833737162e+00,9.999999999981708854e+00,6.600000000001741141e-01,1.570000000000173479e+00,2.869999999999994543e+03,-2.174999999999855937e+00,-4.945000000000401741e+00,1.340515525732465818e+01,-2.160033934476677686e+00
1.999999999999626255e+01,3.000000003093505896e+00,9.999999999957621455e+00,6.599999999997061551e-01,1.569999999999702966e+00,2.869999999999993634e+03,-2.174999999999640998e+00,-4.944999999998858087e+00,1.341087034608722739e+01,-2.194127654047137721e+00
2.000000000000599343e+01,3.000000001794421944e+00,9.999999999980881071e+00,6.600000000004233591e-01,1.570000000000059792e+00,2.869999999999981810e+03,-2.175000000000744116e+00,-4.945000000001567919e+00,1.340090880269812956e+01,-2.150327581706791502e+00
1.999999999998130917e+01,3.000000002482023476e+00,1.000000000000028777e+01,6.599999999997222533e-01,1.569999999999832196e+00,2.870000000000001364e+03,-2.174999999998449951e+00,-4.944999999998437090e+00,1.341235719797348658e+01,-2.189459787436705884e+00
1.999999999999640110e+01,3.000000002057684689e+00,9.999999999953264052e+00,6.600000000002169687e-01,1.570000000000556284e+00,2.869999999999984084e+03,-2.174999999999800870e+00,-4.945000000000191243e+00,1.344549946013650299e+01,-2.184336919468520044e+00
1.999999999998779288e+01,3.000000002570521129e+00,9.999999999982554399e+00,6.599999999997299138e-01,1.569999999999958540e+00,2.870000000000000000e+03,-2.174999999998993072e+00,-4.944999999998415774e+00,1.341741918276937362e+01,-2.185692480617933864e+00
1.999999999998508571e+01,3.000000002376329356e+00,9.999999999966433961e+00,6.600000000003687362e-01,1.570000000000663753e+00,2.870000000000002274e+03,-2.174999999998972644e+00,-4.945000000000581153e+00,1.341980939618352053e+01,-2.183464701869577418e+00
2.000000000000134293e+01,3.000000002446286729e+00,1.000000000005844569e+01,6.600000000014294432e-01,1.570000000001081863e+00,2.869999999999994543e+03,-2.175000000000744560e+00,-4.945000000005363994e+00,1.339942207887771985e+01,-2.166385000949563544e+00
