1.999999999998630784e+01,3.000000003133741266e+00,9.999999999932590811e+00,6.600000000000930678e-01,1.570000000001121387e+00,2.869999999999999091e+03,-2.174999999998724398e+00,-4.944999999999439844e+00,1.341952201889868945e+01,-2.188850042868929702e+00
1.999999999999717559e+01,3.000000001891988788e+00,1.000000000000021849e+01,6.600000000005918910e-01,1.570000000000449480e+00,2.869999999999981810e+03,-2.174999999999886136e+00,-4.945000000002201190e+00,1.341010446825048952e+01,-2.155017204257455798e+00
2.000000000000366285e+01,3.000000001954021389e+00,1.000000000001055867e+01,6.599999999999159872e-01,1.569999999999452722e+00,2.869999999999971351e+03,-2.175000000000285372e+00,-4.945000000000040252e+00,1.341892571246487265e+01,-2.162395327371793297e+00
2.000000000000840572e+01,3.000000002822309941e+00,9.999999999948029128e+00,6.600000000009605960e-01,1.570000000000779883e+00,2.869999999999982265e+03,-2.175000000000978595e+00,-4.945000000003949125e+00,1.340307293063189320e+01,-2.193427102137577300e+00
2.000000000001354294e+01,3.000000002601441729e+00,9.999999999927741356e+00,6.600000000003816147e-01,1.569999999999970752e+00,2.869999999999975898e+03,-2.175000000001330314e+00,-4.945000000001718909e+00,1.341568346949812351e+01,-2.173445300510497891e+00
2.000000000000071765e+01,3.000000002671689980e+00,9.999999999914809479e+00,6.600000000006398526e-01,1.570000000000478790e+00,2.869999999999990450e+03,-2.175000000000274714e+00,-4.945000000002396590e+00,1.340881893597709862e+01,-2.187588567714056964e+00
1.999999999999088374e+01,3.000000002665261789e+00,9.999999999947528195e+00,6.599999999995634914e-01,1.569999999999965423e+00,2.869999999999995907e+03,-2.174999999999265743e+00,-4.944999999997607532e+00,1.343069445448485411e+01,-2.199689870795357383e+00
1.999999999999939604e+01,3.000000001975767105e+00,1.000000000003899103e+01,6.599999999996840616e-01,1.569999999999438733e+00,2.869999999999980901e+03,-2.175000000000053113e+00,-4.944999999998652029e+00,1.340572775004332406e+01,-2.157023287318319937e+00
1.999999999999979750e+01,3.000000002617277506e+00,9.999999999946075135e+00,6.600000000005469269e-01,1.570000000000349338e+00,2.869999999999999545e+03,-2.175000000000316458e+00,-4.945000000001994245e+00,1.340548116956232505e+01,-2.204742767538844905e+00
2.000000000000657963e+01,3.000000002157680701e+00,9.999999999959163333e+00,6.600000000000257883e-01,1.569999999999640350e+00,2.869999999999977263e+03,-2.175000000000632205e+00,-4.945000000000466578e+00,1.341673563135350733e+01,-2.181047422920235235e+00
1.999999999999629452e+01,3.000000001870448241e+00,1.000000000004792788e+01,6.600000000002161915e-01,1.570000000000439933e+00,2.869999999999993179e+03,-2.174999999999908784e+00,-4.945000000000021600e+00,1.342798909985355316e+01,-2.157522502601981085e+00
2.000000000000189360e+01,3.000000000912080189e+00,1.000000000000322409e+01,6.599999999999851541e-01,1.569999999999768692e+00,2.869999999999959527e+03,-2.175000000000107736e+00,-4.945000000000079332e+00,1.341877199308106405e+01,-2.143136443122181323e+00
2.000000000000519762e+01,3.000000001152494988e+00,1.000000000001542055e+01,6.599999999999491829e-01,1.569999999999723395e+00,2.869999999999961801e+03,-2.175000000000440803e+00,-4.944999999999853735e+00,1.342366544993490329e+01,-2.142089746215939172e+00
2.000000000000781597e+01,3.000000001216925227e+00,1.000000000000648726e+01,6.599999999999468514e-01,1.569999999999913687e+00,2.869999999999959073e+03,-2.175000000000522959e+00,-4.945000000000020712e+00,1.341984835142722687e+01,-2.145902472591325161e+00
1.999999999998337685e+01,3.000000001453672294e+00,9.999999999998445688e+00,6.599999999991725819e-01,1.569999999999319051e+00,2.869999999999986812e+03,-2.174999999998428635e+00,-4.944999999996282369e+00,1.342326985371140147e+01,-2.158463884236946129e+00
2.000000000000282441e+01,3.000000002321075776e+00,9.999999999950967222e+00,6.600000000003021228e-01,1.570000000000324469e+00,2.869999999999991360e+03,-2.175000000000372857e+00,-4.945000000001028795e+00,1.341321794518308330e+01,-2.175940494291275673e+00
1.999999999999872458e+01,3.000000001462590493e+00,1.000000000003094591e+01,6.600000000000703082e-01,1.569999999999637241e+00,2.869999999999987722e+03,-2.175000000000154809e+00,-4.945000000000088214e+00,1.342242535199546438e+01,-2.142148890627446178e+00
2.000000000000802203e+01,3.000000001944108430e+00,9.999999999991540989e+00,6.600000000003201084e-01,1.569999999999919016e+00,2.869999999999969987e+03,-2.175000000000915090e+00,-4.945000000001391172e+00,1.342913272808904424e+01,-2.166711079529822559e+00
2.000000000000917311e+01,3.000000001644511194e+00,9.999999999970654585e+00,6.600000000004907497e-01,1.570000000000221885e+00,2.869999999999965439e+03,-2.175000000000866685e+00,-4.945000000002270468e+00,1.341901980573922870e+01,-2.162446591839460197e+00
2.000000000000765965e+01,3.000000002700072166e+00,9.999999999936157735e+00,6.600000000007874013e-01,1.570000000000638662e+00,2.869999999999986358e+03,-2.175000000000958611e+00,-4.945000000003141771e+00,1.342798845496276172e+01,-2.204121920396819423e+00
2.000000000000511591e+01,3.000000001704878461e+00,9.999999999969787723e+00,6.600000000012615775e-01,1.570000000000731033e+00,2.869999999999976808e+03,-2.175000000001071410e+00,-4.945000000004546870e+00,1.341775416293867451e+01,-2.157453382235754891e+00
2.000000000001125144e+01,3.000000001750584122e+00,1.000000000003071676e+01,6.599999999989535349e-01,1.569999999998940465e+00,2.869999999999966349e+03,-2.175000000000579803e+00,-4.944999999996330331e+00,1.343171047350728387e+01,-2.139671776139929094e+00
2.000000000001851319e+01,3.000000001920844817e+00,1.000000000000722444e+01,6.599999999994593525e-01,1.569999999999262874e+00,2.869999999999959982e+03,-2.175000000001343192e+00,-4.944999999998452189e+00,1.342813036741860699e+01,-2.142267883531416839e+00
2.000000000001459810e+01,3.000000002109667552e+00,1.000000000002606448e+01,6.599999999986091437e-01,1.569999999998694884e+00,2.869999999999968622e+03,-2.175000000000701483e+00,-4.944999999995213003e+00,1.343671765592546308e+01,-2.145145825944154705e+00
2.000000000001271161e+01,3.000000001847539899e+00,1.000000000003195488e+01,6.599999999989424326e-01,1.569999999998765716e+00,2.869999999999968622e+03,-2.175000000000752554e+00,-4.944999999996387174e+00,1.343192144701506763e+01,-2.143169791173065164e+00
1.999999999998902922e+01,3.000000001917532799e+00,1.000000000001229772e+01,6.599999999995236344e-01,1.569999999999380114e+00,2.869999999999998181e+03,-2.174999999999072564e+00,-4.944999999997915729e+00,1.341297277319166525e+01,-2.164529734169958530e+00
2.000000000000357403e+01,3.000000003419418526e+00,9.999999999994260591e+00,6.600000000000788569e-01,1.569999999999928120e+00,2.869999999999994998e+03,-2.175000000000419931e+00,-4.945000000000593587e+00,1.340212633893259841e+01,-2.193385248362743400e+00
2.000000000000418865e+01,3.000000002063839322e+00,9.999999999976816767e+00,6.600000000003034550e-01,1.570000000000366436e+00,2.869999999999981355e+03,-2.175000000000399503e+00,-4.945000000001120277e+00,1.341498691707156077e+01,-2.156945734328444608e+00
1.999999999999702283e+01,3.000000002034644453e+00,9.999999999898081526e+00,6.600000000000824096e-01,1.570000000000245644e+00,2.869999999999994088e+03,-2.174999999999750244e+00,-4.945000000000098872e+00,1.340819242638763065e+01,-2.184131586997819063e+00
2.000000000000971312e+01,3.000000002226576257e+00,9.999999999923883109e+00,6.600000000006356338e-01,1.570000000000373097e+00,2.869999999999984993e+03,-2.175000000001071410e+00,-4.945000000002529816e+00,1.341838143507729875e+01,-2.181887512197692391e+00
1.999999999999416644e+01,3.000000002466856497e+00,9.999999999952807528e+00,6.599999999997342437e-01,1.569999999999777351e+00,2.869999999999995453e+03,-2.174999999999580158e+00,-4.944999999998562323e+00,1.342608905362262739e+01,-2.185773181526966980e+00
2.000000000000819966e+01,3.000000002031169455e+00,9.999999999975530685e+00,6.600000000001955414e-01,1.570000000000281615e+00,2.869999999999979082e+03,-2.175000000000737455e+00,-4.945000000000684182e+00,1.341245373284350606e+01,-2.167206913845991956e+00
1.999999999998779998e+01,3.000000002231944407e+00,9.999999999977594811e+00,6.599999999997261391e-01,1.569999999999840634e+00,2.869999999999994088e+03,-2.174999999998948219e+00,-4.944999999998591633e+00,1.341641730725496906e+01,-2.183568946285228574e+00
1.999999999998877698e+01,3.000000002293704338e+00,9.999999999996250111e+00,6.599999999994816680e-01,1.569999999999733165e+00,2.870000000000001819e+03,-2.174999999999013500e+00,-4.944999999997498286e+00,1.342702482348119730e+01,-2.178560286647861943e+00
2.000000000000134648e+01,3.000000001836856445e+00,9.999999999967370101e+00,6.600000000003897194e-01,1.570000000000476570e+00,2.869999999999972260e+03,-2.175000000000228972e+00,-4.945000000001363638e+00,1.342272933337364371e+01,-2.177866654525492329e+00
