2.000000000000423128e+01,3.000000002901297869e+00,9.999999999969507058e+00,6.600000000000523226e-01,1.570000000000296936e+00,2.869999999999967713e+03,-2.175000000000280043e+00,-4.945000000000125517e+00,1.343001833638843934e+01,-2.173849880926103761e+00
2.000000000000555289e+01,3.000000002183150105e+00,9.999999999996965983e+00,6.600000000005216139e-01,1.570000000000259854e+00,2.869999999999969987e+03,-2.175000000000653522e+00,-4.945000000002042206e+00,1.341930856434721697e+01,-2.155448267652726457e+00
2.000000000000582645e+01,3.000000000947830703e+00,1.000000000004579981e+01,6.599999999995251887e-01,1.569999999998730411e+00,2.869999999999964530e+03,-2.175000000000613110e+00,-4.944999999998191065e+00,1.343489366851415312e+01,-2.121982811182132611e+00
2.000000000001654854e+01,3.000000003101086055e+00,9.999999999944282791e+00,6.600000000013762635e-01,1.570000000000867368e+00,2.869999999999989996e+03,-2.175000000001853007e+00,-4.945000000005740581e+00,1.341505441628430439e+01,-2.198822425226682586e+00
2.000000000000214939e+01,3.000000002437475111e+00,9.999999999989608312e+00,6.600000000005030731e-01,1.570000000000328688e+00,2.869999999999986812e+03,-2.175000000000403499e+00,-4.945000000001932960e+00,1.341569653763166770e+01,-2.182344010142291069e+00
2.000000000000537881e+01,3.000000001941867556e+00,9.999999999977594811e+00,6.600000000002298473e-01,1.570000000000123297e+00,2.869999999999973170e+03,-2.175000000000581579e+00,-4.945000000000738360e+00,1.342767827062676567e+01,-2.156693180109523489e+00
2.000000000000866862e+01,3.000000002506809871e+00,9.999999999949093166e+00,6.600000000001972067e-01,1.570000000000522089e+00,2.869999999999975898e+03,-2.175000000000520739e+00,-4.945000000001120277e+00,1.340455246720314797e+01,-2.187494007529572571e+00
2.000000000002239986e+01,3.000000002763731466e+00,9.999999999929128691e+00,6.600000000005126211e-01,1.570000000000426166e+00,2.869999999999954525e+03,-2.175000000001705569e+00,-4.945000000003042295e+00,1.340439909480582159e+01,-2.186538426071160668e+00
2.000000000000093436e+01,3.000000002489258577e+00,9.999999999987846167e+00,6.600000000003106715e-01,1.570000000000270068e+00,2.869999999999978627e+03,-2.175000000000206324e+00,-4.945000000001259721e+00,1.340348790027001513e+01,-2.183497761036444551e+00
2.000000000000946088e+01,3.000000001969838070e+00,1.000000000000718181e+01,6.600000000000499911e-01,1.570000000000050910e+00,2.869999999999980901e+03,-2.175000000000824496e+00,-4.945000000000391971e+00,1.341941715904670396e+01,-2.177786850211047120e+00
2.000000000001050537e+01,3.000000002135747579e+00,9.999999999985664800e+00,6.600000000003372058e-01,1.569999999999802887e+00,2.869999999999975444e+03,-2.175000000001075851e+00,-4.945000000001702034e+00,1.341623012605010068e+01,-2.171138731310104930e+00
2.000000000001175593e+01,3.000000001923148751e+00,9.999999999987009502e+00,6.600000000001333689e-01,1.569999999999748264e+00,2.869999999999954525e+03,-2.175000000001015898e+00,-4.945000000000996820e+00,1.341906877174559654e+01,-2.166556041497210927e+00
1.999999999999438316e+01,3.000000002286474565e+00,9.999999999999729994e+00,6.599999999996130073e-01,1.569999999999868612e+00,2.869999999999994998e+03,-2.174999999999508216e+00,-4.944999999997907736e+00,1.342329883542537949e+01,-2.160844000744853499e+00
2.000000000000768452e+01,3.000000002111244957e+00,1.000000000001960565e+01,6.599999999997648858e-01,1.569999999999801332e+00,2.869999999999971351e+03,-2.175000000000579803e+00,-4.944999999999224016e+00,1.342787780549325305e+01,-2.169482721727914676e+00
2.000000000001023892e+01,3.000000002016671719e+00,1.000000000000811795e+01,6.600000000002642642e-01,1.570000000000056239e+00,2.869999999999964530e+03,-2.175000000000983924e+00,-4.945000000001096296e+00,1.342954291119761656e+01,-2.159971637392017918e+00
2.000000000001185541e+01,3.000000002004671984e+00,9.999999999939111817e+00,6.600000000006386314e-01,1.570000000000532969e+00,2.869999999999961801e+03,-2.175000000001115374e+00,-4.945000000002591101e+00,1.342073310534994590e+01,-2.164749046234303531e+00
2.000000000001260503e+01,3.000000001595569010e+00,9.999999999989190869e+00,6.600000000009156320e-01,1.570000000000205675e+00,2.869999999999964984e+03,-2.175000000001400924e+00,-4.945000000004024621e+00,1.341723096334582976e+01,-2.172503836870741889e+00
1.999999999999412381e+01,3.000000001989466369e+00,1.000000000000529887e+01,6.599999999996415401e-01,1.569999999999503792e+00,2.869999999999986812e+03,-2.174999999999545075e+00,-4.944999999998320739e+00,1.342303090009983002e+01,-2.156728606803898884e+00
1.999999999999304023e+01,3.000000002346715267e+00,9.999999999954436447e+00,6.599999999997840927e-01,1.570000000000161489e+00,2.870000000000010459e+03,-2.174999999999361666e+00,-4.944999999998890061e+00,1.340568257029841703e+01,-2.193570203890081949e+00
1.999999999999926814e+01,3.000000001285241691e+00,1.000000000004877521e+01,6.599999999999067724e-01,1.569999999999184048e+00,2.869999999999994543e+03,-2.175000000000264055e+00,-4.944999999999561524e+00,1.342247713018564781e+01,-2.148880630367316247e+00
2.000000000001332978e+01,3.000000002629789719e+00,9.999999999946945550e+00,6.600000000003398704e-01,1.570000000000371765e+00,2.869999999999957254e+03,-2.175000000001093170e+00,-4.945000000001727791e+00,1.341704153340068473e+01,-2.186071634405468700e+00
2.000000000001173106e+01,3.000000003090896872e+00,9.999999999907824844e+00,6.600000000005624701e-01,1.570000000001041229e+00,2.869999999999962711e+03,-2.175000000000862688e+00,-4.945000000002531593e+00,1.341156510840357186e+01,-2.206346785844517377e+00
1.999999999999865707e+01,3.000000001937154437e+00,9.999999999970052400e+00,6.599999999999982547e-01,1.569999999999940554e+00,2.869999999999989541e+03,-2.174999999999855493e+00,-4.944999999999982521e+00,1.342280635042359727e+01,-2.170649014021455159e+00
2.000000000000772005e+01,3.000000001954253648e+00,9.999999999989697130e+00,6.600000000004427880e-01,1.570000000000175921e+00,2.869999999999959527e+03,-2.175000000000907985e+00,-4.945000000001559037e+00,1.342534096815166933e+01,-2.148516266427654919e+00
2.000000000001167422e+01,3.000000002132096721e+00,9.999999999963446129e+00,6.600000000004384582e-01,1.570000000000307372e+00,2.869999999999958618e+03,-2.175000000000987921e+00,-4.945000000002131912e+00,1.341584905085478496e+01,-2.170196927597030978e+00
2.000000000000432365e+01,3.000000002329817228e+00,9.999999999944586548e+00,6.599999999996830624e-01,1.569999999999866391e+00,2.869999999999969077e+03,-2.175000000000175682e+00,-4.944999999998819007e+00,1.342039985910445488e+01,-2.173100405981283068e+00
2.000000000002123457e+01,3.000000002371895569e+00,9.999999999968174791e+00,6.600000000001500222e-01,1.570000000000063789e+00,2.869999999999952706e+03,-2.175000000001627853e+00,-4.945000000001289031e+00,1.342156717602923166e+01,-2.160903003637291153e+00
1.999999999999984723e+01,3.000000001734638211e+00,1.000000000001424283e+01,6.599999999995890265e-01,1.569999999999176055e+00,2.869999999999974989e+03,-2.175000000000043343e+00,-4.944999999998356266e+00,1.341820493310502904e+01,-2.147939918309452079e+00
2.000000000000348876e+01,3.000000002252069642e+00,9.999999999974956921e+00,6.600000000001671197e-01,1.570000000000121743e+00,2.869999999999974534e+03,-2.175000000000336886e+00,-4.945000000000767670e+00,1.340972316899968853e+01,-2.171715495703191223e+00
2.000000000000285993e+01,3.000000002653297582e+00,1.000000000001331735e+01,6.599999999994403677e-01,1.569999999999669882e+00,2.869999999999987267e+03,-2.175000000000049560e+00,-4.944999999998042739e+00,1.341197765110845452e+01,-2.183825662518930510e+00
1.999999999999956302e+01,3.000000002751793460e+00,1.000000000001128520e+01,6.599999999995553868e-01,1.569999999999885931e+00,2.869999999999992724e+03,-2.174999999999830180e+00,-4.944999999998231921e+00,1.341434715151339496e+01,-2.177857256493231031e+00
1.999999999999880984e+01,3.000000002065771110e+00,9.999999999995143440e+00,6.600000000002355094e-01,1.570000000000025819e+00,2.869999999999991360e+03,-2.175000000000128164e+00,-4.945000000000828955e+00,1.341364103396533558e+01,-2.170153476755527500e+00
2.000000000000478195e+01,3.000000002733821169e+00,9.999999999947165819e+00,6.600000000002976819e-01,1.570000000000355556e+00,2.869999999999990450e+03,-2.175000000000522071e+00,-4.945000000001146923e+00,1.341070863074141428e+01,-2.182420742019361537e+00
2.000000000000711253e+01,3.000000002274478383e+00,9.999999999910073711e+00,6.600000000011528867e-01,1.570000000001128049e+00,2.869999999999982720e+03,-2.175000000000858691e+00,-4.945000000004418084e+00,1.342067703421958491e+01,-2.181577355145334352e+00
1.999999999999289813e+01,3.000000002095698282e+00,9.999999999952311924e+00,6.599999999999515143e-01,1.570000000000100648e+00,2.869999999999999545e+03,-2.174999999999503775e+00,-4.944999999999264872e+00,1.342292805529691435e+01,-2.180494876565537421e+00
2.000000000000372324e+01,3.000000002320821757e+00,9.999999999970158981e+00,6.599999999999048850e-01,1.570000000000065343e+00,2.869999999999992724e+03,-2.175000000000292477e+00,-4.944999999999604157e+00,1.341557510977554912e+01,-2.172322202929375390e+00
1.999999999999657163e+01,3.000000002489572548e+00,9.999999999951825203e+00,6.600000000004779821e-01,1.570000000000569829e+00,2.869999999999994543e+03,-2.174999999999833733e+00,-4.945000000001602558e+00,1.341405566258522519e+01,-2.181456867945945177e+00
1.999999999998830447e+01,3.000000001786472303e+00,1.000000000000383515e+01,6.599999999991652544e-01,1.569999999999579954e+00,2.869999999999998181e+03,-2.174999999998858513e+00,-4.944999999996190887e+00,1.341723505687484774e+01,-2.168200498469588400e+00
1.999999999999365130e+01,3.000000001882158873e+00,1.000000000000365574e+01,6.599999999999131006e-01,1.569999999999976525e+00,2.869999999999992269e+03,-2.174999999999598810e+00,-4.944999999999284412e+00,1.341324861310381067e+01,-2.174607992605011031e+00
