1.999999999999166889e+01,3.000000003352719880e+00,9.999999999958749441e+00,6.600000000002446132e-01,1.570000000000935314e+00,2.870000000000000909e+03,-2.174999999999228883e+00,-4.945000000000433715e+00,1.340528660850690734e+01,-2.182790264918240908e+00
1.999999999999482370e+01,3.000000001978627928e+00,9.999999999989844568e+00,6.600000000002419487e-01,1.570000000000140394e+00,2.869999999999985448e+03,-2.174999999999554845e+00,-4.945000000000897344e+00,1.340513812916306868e+01,-2.156688768149117141e+00
1.999999999999637623e+01,3.000000002402431143e+00,1.000000000000765432e+01,6.600000000001138289e-01,1.570000000000073115e+00,2.870000000000000909e+03,-2.174999999999728928e+00,-4.945000000000415952e+00,1.339149134695916921e+01,-2.175386032531035241e+00
1.999999999999672085e+01,3.000000001855953169e+00,1.000000000002448886e+01,6.599999999997401279e-01,1.569999999999412088e+00,2.869999999999979082e+03,-2.174999999999609024e+00,-4.944999999999211582e+00,1.341267364316766830e+01,-2.157150239261873548e+00
2.000000000000106226e+01,3.000000002552474676e+00,9.999999999968975928e+00,6.600000000003123368e-01,1.570000000000301599e+00,2.869999999999982720e+03,-2.175000000000211209e+00,-4.945000000001084750e+00,1.341442519825968205e+01,-2.180684893921525092e+00
2.000000000000937206e+01,3.000000002782687414e+00,9.999999999905968551e+00,6.600000000009753620e-01,1.570000000000785878e+00,2.869999999999985448e+03,-2.175000000000927525e+00,-4.945000000004091234e+00,1.340642876186476862e+01,-2.188271213579736862e+00
2.000000000001271161e+01,3.000000002960899526e+00,9.999999999935695882e+00,6.600000000004940803e-01,1.570000000000313589e+00,2.869999999999989541e+03,-2.175000000001230394e+00,-4.945000000002139906e+00,1.340377453428008359e+01,-2.182830954047253247e+00
2.000000000000067502e+01,3.000000002210436278e+00,9.999999999933120165e+00,6.600000000009000889e-01,1.570000000000744356e+00,2.869999999999986812e+03,-2.175000000000317346e+00,-4.945000000003314078e+00,1.341192039646377765e+01,-2.177881153766633826e+00
1.999999999998609823e+01,3.000000002115167597e+00,1.000000000001776712e+01,6.599999999993915178e-01,1.569999999999777129e+00,2.869999999999991360e+03,-2.174999999998757261e+00,-4.944999999997036433e+00,1.342562556751538239e+01,-2.177346895111172742e+00
1.999999999998725997e+01,3.000000002146851585e+00,1.000000000004456346e+01,6.599999999993341193e-01,1.569999999999585061e+00,2.869999999999999091e+03,-2.174999999998958877e+00,-4.944999999996734452e+00,1.340732056309654752e+01,-2.161197643566206583e+00
2.000000000000093792e+01,3.000000002254037845e+00,9.999999999990180299e+00,6.599999999999005551e-01,1.569999999999962759e+00,2.869999999999987267e+03,-2.175000000000070877e+00,-4.944999999999614815e+00,1.341549280448380088e+01,-2.188255848591861064e+00
2.000000000000538591e+01,3.000000002237681596e+00,9.999999999962287944e+00,6.600000000001792211e-01,1.569999999999762030e+00,2.869999999999986358e+03,-2.175000000000549605e+00,-4.945000000001076756e+00,1.340642470398859132e+01,-2.178171302472486026e+00
2.000000000000573763e+01,3.000000002041182334e+00,1.000000000001891109e+01,6.600000000013607204e-01,1.570000000001418261e+00,2.869999999999989541e+03,-2.175000000001038103e+00,-4.945000000004541540e+00,1.341523133855415928e+01,-2.164690707962952043e+00
2.000000000000594369e+01,3.000000001352402190e+00,9.999999999985160315e+00,6.599999999996913891e-01,1.569999999999714069e+00,2.869999999999959982e+03,-2.175000000000365752e+00,-4.944999999998800355e+00,1.343221850576705911e+01,-2.149709208234304114e+00
1.999999999998562927e+01,3.000000001106001957e+00,1.000000000002397194e+01,6.599999999992502975e-01,1.569999999999432072e+00,2.869999999999979082e+03,-2.174999999998570743e+00,-4.944999999996607443e+00,1.342113946214255726e+01,-2.138330766089554302e+00
2.000000000000691003e+01,3.000000001862658916e+00,9.999999999974255260e+00,6.600000000003831691e-01,1.570000000000082219e+00,2.869999999999983174e+03,-2.175000000000804068e+00,-4.945000000001522622e+00,1.341500141282572045e+01,-2.161053733857567938e+00
1.999999999999875300e+01,3.000000001389948157e+00,1.000000000002694200e+01,6.599999999999885958e-01,1.569999999999551532e+00,2.869999999999981810e+03,-2.175000000000107736e+00,-4.944999999999863505e+00,1.342120738711464334e+01,-2.146533349047961892e+00
2.000000000001367439e+01,3.000000002283168321e+00,9.999999999938060213e+00,6.600000000007077983e-01,1.570000000000229212e+00,2.869999999999974989e+03,-2.175000000001473754e+00,-4.945000000002989893e+00,1.342493971498648442e+01,-2.175091921486317137e+00
2.000000000001076828e+01,3.000000001871814703e+00,9.999999999940227369e+00,6.600000000005609158e-01,1.570000000000514540e+00,2.869999999999969987e+03,-2.175000000000985700e+00,-4.945000000002337970e+00,1.342694105638880586e+01,-2.166303627666480658e+00
2.000000000000767031e+01,3.000000002591985737e+00,9.999999999940882844e+00,6.600000000011894130e-01,1.570000000000924212e+00,2.869999999999985903e+03,-2.175000000001197975e+00,-4.945000000004416307e+00,1.342431757622611066e+01,-2.199888536298530983e+00
2.000000000000550315e+01,3.000000001669781202e+00,9.999999999980477838e+00,6.600000000010707302e-01,1.570000000000733253e+00,2.869999999999974534e+03,-2.175000000000912426e+00,-4.945000000003973106e+00,1.341855714867493354e+01,-2.162129080510337253e+00
2.000000000000999378e+01,3.000000001953555540e+00,1.000000000002610356e+01,6.599999999990181498e-01,1.569999999998902496e+00,2.869999999999967258e+03,-2.175000000000539835e+00,-4.944999999996556816e+00,1.343842674718736419e+01,-2.145535095767000744e+00
1.999999999998269118e+01,3.000000001398740679e+00,1.000000000004375345e+01,6.599999999989566435e-01,1.569999999998982210e+00,2.869999999999987722e+03,-2.174999999998286970e+00,-4.944999999995658868e+00,1.341997917359289438e+01,-2.146672399275928456e+00
2.000000000002405898e+01,3.000000002527676290e+00,9.999999999869135792e+00,6.600000000009760281e-01,1.570000000000432605e+00,2.869999999999963165e+03,-2.175000000002328626e+00,-4.945000000004532659e+00,1.340616504336107262e+01,-2.198338351488031250e+00
2.000000000000038725e+01,3.000000002338605753e+00,1.000000000002960654e+01,6.600000000000199041e-01,1.569999999999650786e+00,2.869999999999984993e+03,-2.175000000000198330e+00,-4.945000000000288942e+00,1.341568478830285827e+01,-2.173041004066613269e+00
1.999999999999149480e+01,3.000000002253286890e+00,9.999999999981964649e+00,6.600000000005202816e-01,1.570000000000747686e+00,2.869999999999994543e+03,-2.174999999999403855e+00,-4.945000000001531504e+00,1.340215121009318722e+01,-2.165308688969385109e+00
1.999999999998766143e+01,3.000000001939636451e+00,9.999999999939030104e+00,6.600000000001000622e-01,1.570000000000280505e+00,2.870000000000004547e+03,-2.174999999999083666e+00,-4.944999999999720508e+00,1.341170556713007223e+01,-2.176799251107323752e+00
2.000000000000578027e+01,3.000000001974851394e+00,9.999999999932279948e+00,6.600000000008475753e-01,1.570000000000611351e+00,2.869999999999990450e+03,-2.175000000000745892e+00,-4.945000000003231477e+00,1.340016930934806361e+01,-2.172282272949745519e+00
2.000000000000088107e+01,3.000000002865911064e+00,9.999999999939682027e+00,6.599999999998313882e-01,1.569999999999677875e+00,2.869999999999990905e+03,-2.175000000000153477e+00,-4.944999999999354579e+00,1.342302549016173607e+01,-2.194211313191078538e+00
2.000000000000106937e+01,3.000000001218747325e+00,1.000000000004276757e+01,6.599999999991110755e-01,1.569999999999048601e+00,2.869999999999980901e+03,-2.174999999999867484e+00,-4.944999999996560369e+00,1.341491968857388706e+01,-2.137300615464995168e+00
1.999999999998833644e+01,3.000000002228722984e+00,9.999999999992933652e+00,6.599999999995251887e-01,1.569999999999518003e+00,2.869999999999991815e+03,-2.174999999998937117e+00,-4.944999999998054285e+00,1.340968307550771321e+01,-2.179800218147765811e+00
1.999999999998935962e+01,3.000000002182286796e+00,9.999999999997788436e+00,6.599999999992860467e-01,1.569999999999547979e+00,2.869999999999994543e+03,-2.174999999999008615e+00,-4.944999999996730011e+00,1.343125311416275203e+01,-2.176986292691907909e+00
1.999999999998848565e+01,3.000000001953680329e+00,9.999999999964281017e+00,6.600000000001104983e-01,1.570000000000443707e+00,2.869999999999989996e+03,-2.174999999999122302e+00,-4.944999999999758700e+00,1.342628505242507053e+01,-2.183555346889407556e+00
2.000000000000293099e+01,3.000000002639740870e+00,9.999999999997182698e+00,6.600000000018871882e-01,1.570000000001407159e+00,2.870000000000002274e+03,-2.175000000000922196e+00,-4.945000000007350849e+00,1.339060382304778685e+01,-2.176053418312669407e+00
