7.656910075399999890e-03
7.610936509116082195e-03
5.842445403399520315e-03
2.158282645655304477e-03
7.627670668829336122e-03
1.541801589366666343e-03
1.522030953735401589e-03
2.271607707559419615e-03
7.666431369728286642e-03
5.356532811585367274e-03
7.397136154394357010e-03
7.208986454691626057e-03
6.848505955945521917e-03
7.032985258828707009e-03
7.375104412873126694e-03
5.281527332118574232e-03
7.675553278287600319e-03
6.789487347975816864e-03
7.694138757450780589e-03
7.516677307370054142e-03
7.366517618840209489e-03
7.104294859831841724e-03
7.540408518543633559e-03
7.155783381949036397e-03
7.535300228949074960e-03
7.667675289987900544e-03
7.590068082653696549e-03
6.931765407971088658e-03
6.728572177637045203e-03
7.578383448743471369e-03
6.475066741083485185e-03
7.508441015952094927e-03
7.629288493213807164e-03
7.681153519623628440e-03
7.521617106093326371e-03
7.480338402729055404e-03
7.191485245487181863e-03
6.094907132611506080e-03
7.561707532788193749e-03
7.480237516219705694e-03
7.683832732490487351e-03
7.524874076237959494e-03
6.693234337586244712e-03
7.577518112910697386e-03
7.479711762297267842e-03
6.152992800386499622e-03
3.378466363751273134e-03
2.867063027235782630e-03
7.232280837680391851e-03
5.152957876623166962e-03
5.699610387468611802e-03
7.431352802104134424e-03
6.036482922993280896e-03
7.367757378831396760e-03
7.433707514033703959e-03
7.499270224238766165e-03
7.065759333461491508e-03
7.645050710215850129e-03
5.819265947826045629e-03
7.689464175839716073e-03
1.307429357316352431e-03
7.481976508422107791e-03
2.228830787527945854e-03
7.624566588549389068e-03
2.868537062342753352e-03
3.284415175426585315e-03
7.583060110488750068e-03
7.680428072816704484e-03
7.705424525625584505e-03
6.838055881690951153e-03
6.234916286213510427e-03
7.288191205101722352e-03
6.744148742660540860e-03
7.401225698257902011e-03
6.451439016587023206e-03
5.941401548199406676e-03
7.145356189170813839e-03
7.331394032613389178e-03
7.058259929588629918e-03
7.604725228354869415e-03
7.697346844441397759e-03
5.780757463200470250e-03
5.449235032872665717e-03
7.171144653081445650e-03
7.494271141690412273e-03
2.787562117717053926e-03
5.219663620578491627e-03
7.619177480836022455e-03
7.703399514968839804e-03
7.704690758281807286e-03
7.503373809008252564e-03
7.619850404254056506e-03
2.675341477071866737e-03
5.645789514864641388e-03
2.606742030932016063e-03
7.622081348197928125e-03
7.695243828751649820e-03
7.659308990181603466e-03
7.533157170675719612e-03
7.226808004564934731e-03
7.495965931040779462e-03
7.402548143584071830e-03
6.038449169858497480e-03
7.637919490098760145e-03
7.005282031374640561e-03
7.681824362907449175e-03
7.677475842334335540e-03
7.544664993177804292e-03
7.614332328219459121e-03
6.638960515757307695e-03
5.816883674118149446e-03
7.705472888746046911e-03
3.520588933714092865e-03
7.331405473351563715e-03
7.684123951280364545e-03
7.703359472385231527e-03
7.532757784906746537e-03
7.687438125115864281e-03
5.989978922484946906e-03
5.521806235276227950e-03
2.843658657150484412e-03
7.682985597832080529e-03
7.704915412776854912e-03
7.584525565042089454e-03
5.306971533816888867e-03
5.449399363475524588e-03
7.418028502400197954e-03
7.370331544920479330e-03
5.672764175310464341e-03
7.645952968430911982e-03
7.528985981544298288e-03
7.558647655360281603e-03
7.517847382865092305e-03
5.990840618082847804e-03
7.621297137599476919e-03
7.670340461948819792e-03
5.200295490917519921e-03
5.482775116929534259e-03
7.597648611760880050e-03
7.678744204170957419e-03
7.634159127474484698e-03
6.998920460916508574e-03
6.276651059004070138e-03
6.928656127355607014e-03
7.673825726823371024e-03
7.675896500432812138e-03
3.231116416510178800e-03
7.674964600305208585e-03
7.293280773488359375e-03
7.705546733510621783e-03
7.601644029551268833e-03
