2.663859556577479176e-03
9.931355013892940401e-04
1.424770274622335188e-03
1.493916871487247682e-03
2.102363556305495915e-03
6.930541751134740910e-05
7.641555775144764310e-04
1.853600123060560609e-03
1.230763585208410546e-03
2.662378009570471552e-03
1.590785955026146866e-03
1.146750908421355917e-03
2.360847519608592383e-03
2.308568939298224262e-03
2.736665965674671408e-03
1.647413759056825557e-03
2.620841827031975078e-03
1.962958879964670032e-03
1.640496971822412876e-03
1.915716356016676242e-03
2.453517919560400159e-03
1.199862133622738415e-03
2.262419201327984120e-03
2.637354177747151807e-03
7.203865979037348205e-04
1.027759302221902069e-03
1.358705613589667339e-03
2.590913889798165948e-03
9.558647300772384189e-04
2.533195233924207500e-03
2.367151293666693891e-03
1.741672835575111804e-03
2.409808414584731391e-03
1.570079326252402530e-03
1.845404980390815113e-03
1.491263131537141472e-03
1.785256299454231633e-03
2.664370597886249730e-03
7.289341828553908605e-04
2.712316931878912350e-03
1.987014355128056790e-03
2.418531575965851207e-03
2.348532240701779218e-03
1.751346946405899158e-03
2.148221239970177047e-03
5.222070066466257915e-05
7.151413192309434943e-05
2.605752354578097160e-03
2.462734285232364480e-03
1.088728700886910537e-03
1.835120542681596689e-03
2.512792908974356958e-03
2.622623809593928063e-03
2.483466272658100670e-03
2.289329458974848248e-03
2.413520233543975987e-03
2.171100761373433077e-03
1.632249607521872332e-03
1.109216020301697714e-03
2.598573062314810719e-03
2.572862182945595284e-03
1.673861758564427213e-03
2.457695220216363566e-03
2.202574286955718413e-03
2.158805038715188793e-03
1.305089606153575683e-04
2.375966433887239694e-03
2.539929675258497353e-03
2.592687061303071763e-03
2.276640247403080575e-03
2.321425560953899007e-03
1.965762515336503310e-03
2.419354657636410902e-03
2.342609491135036123e-03
2.660281192896933253e-03
2.009645877510993130e-03
1.667973501062468755e-03
2.237682481022123127e-03
1.316176038094992503e-03
7.489611782653898906e-04
8.230313024744667259e-05
1.593318757845676927e-04
1.288318376911663224e-03
2.602316901944790040e-03
2.551962355628291206e-03
2.056938259147646827e-03
1.663775677090698979e-03
2.661973990369256859e-03
9.418494544197818881e-04
2.554578809763817255e-03
1.803781117089501467e-03
1.966806947952409040e-03
1.411454725836769732e-03
1.754073968562183455e-03
2.525656837360266450e-03
2.500250906526436251e-03
2.425418384115918258e-03
1.998583702839436347e-03
2.637089201324227701e-03
1.870983479000483266e-03
2.661591246647255181e-03
2.023068340952199028e-03
1.431822236366090458e-03
2.115210292384971016e-03
1.629327667591385460e-03
4.067795066017174067e-04
1.781958250957507532e-04
3.925672447206899718e-04
2.647691481798656720e-03
2.539849731033576394e-03
1.309476518633148102e-03
1.906308511031795444e-03
8.542080727299026848e-04
1.063568190227434911e-03
2.680497626033459448e-03
2.543412621638330758e-03
2.423398073206014386e-03
1.122228984494012859e-03
3.421408399358901006e-04
2.635392105775295063e-03
1.875719314711743078e-03
2.517891932159049134e-03
2.512034298452927097e-03
1.918121344783055683e-03
2.637196653239444379e-03
1.425657719990109729e-03
1.808578415296265181e-03
2.681926091794349740e-03
2.356142844952745664e-03
2.541303770350288298e-03
2.529586353899740576e-03
2.009101311204674993e-03
2.566105176709109967e-03
1.185443376023643212e-03
1.847488473026866369e-03
2.641632913011079595e-03
8.175005509259234825e-05
2.311791422235572567e-03
2.170927119078442432e-03
2.654808451951117844e-03
2.702504852788986667e-03
2.180489909725065976e-03
2.646267958825866250e-03
6.427698889180375515e-04
7.877016231478214557e-04
1.983749321232282890e-03
2.354027976357451341e-03
2.384691314499003210e-03
2.698226117525058445e-03
9.416983770269872489e-05
7.277543608263118075e-04
9.420076236389807569e-04
2.604038926338052198e-03
2.680129280868096854e-03
2.556380133670509147e-03
2.203331178246504575e-03
8.332873997410466258e-04
1.764007360864388663e-03
1.271837939415305799e-03
2.553062663240109574e-03
2.225311971830888549e-03
2.335152543122829324e-03
1.701737364217597746e-03
2.348072561408482296e-03
2.636070772071803965e-03
2.442934550623049230e-03
6.562937332412505532e-04
2.584671148427907742e-03
6.865315080725869221e-04
1.821001790829786466e-03
2.617873145518368784e-03
2.560790175174832393e-03
1.514380766384517546e-03
2.676431000850169276e-03
2.604478619575118555e-03
2.751358295849908563e-03
1.351864472503567453e-03
2.456459738095202391e-03
2.401455532503447843e-03
2.648160187052831654e-03
2.629999953765891837e-03
2.615449889926402260e-03
2.127425641010632657e-03
2.422680509316197262e-03
2.383930554939268833e-03
2.554349292472914406e-03
7.032162116597711959e-04
1.381103428057007003e-03
2.411413316390407634e-03
1.487061331844508711e-03
2.600326408941358775e-04
1.896770864133332912e-03
1.823083994042855272e-03
1.267276927970103660e-03
1.879137360134785833e-03
9.952389800815756443e-04
1.044704576703486864e-03
2.318014392453430616e-03
2.230703049321139299e-03
8.320467599279548956e-04
2.449923867900233136e-03
2.255921798918662270e-03
2.510912500458064873e-03
2.055576198670360476e-03
2.439711852781870517e-03
2.506760128646431853e-03
2.538155214330609522e-03
1.195005092151114282e-03
2.411106648624379133e-03
2.289992867099396000e-03
1.668938849068775376e-03
1.421295816943803992e-03
2.675912008099672751e-03
2.654421410152507568e-03
2.456294477049599401e-03
2.480596876714154242e-03
1.807550100467641583e-03
2.478965971544995570e-03
1.057811668773531860e-03
2.466535289281239322e-03
2.617629014766996443e-03
2.191690482463421255e-03
2.056968345683907878e-03
2.354346893641814410e-03
1.713396326826267715e-03
1.456380908848437222e-03
4.717852558729037130e-04
2.450593938043524409e-03
1.286837582068062246e-03
2.353156971132704979e-03
1.034122067381457351e-03
2.376261926654085234e-03
1.898451626991152358e-03
4.005938221984391384e-04
1.274772881027534102e-03
2.251368201655609864e-03
2.597065082136659851e-03
2.241684635056283466e-03
2.341595359959220985e-03
1.391519494362365847e-03
1.167616995837281787e-03
7.058926239639880728e-04
1.057458151972469167e-03
2.579096972874127518e-03
2.589547961051931382e-03
7.182544026871116134e-05
1.515959879730541769e-03
1.824441326635872209e-03
2.586804713656450181e-03
2.104097185505601850e-03
1.233022976629671299e-03
2.312737213993309223e-03
2.028056258856557152e-03
1.912881129781769055e-03
2.087757402566262858e-03
2.651252868076597793e-03
1.500296291693661768e-03
2.076151521203710004e-03
2.219511287639831191e-03
2.093162878613153127e-03
2.562456324572181914e-03
2.388820906504610358e-03
1.615213751075759855e-03
1.906892619642913461e-03
2.427507679155391403e-03
2.678489779545720987e-03
2.442594787667133963e-03
2.180140691000611881e-03
1.163394135569266420e-03
2.427467492139100298e-03
9.216102414772300378e-04
1.022935355940164702e-03
2.254938184086769000e-03
1.843145481517638939e-03
1.856319301227033489e-03
2.662964267219893651e-03
2.572620201232527024e-03
1.702266672351955166e-03
2.398622025499183921e-03
2.641871026455200073e-03
2.731580696335127092e-03
2.100894473720653702e-03
1.930252236203357577e-03
2.522207630881811470e-03
2.351462239525907265e-03
2.319698808676367435e-03
2.632609745882674799e-03
2.603367781675608884e-03
2.352007880351377877e-03
1.626833923543036806e-03
2.520869209825872623e-03
1.133591379816685030e-03
7.704669269326006953e-04
1.913073092628303680e-04
2.385173343790665187e-03
1.305741275156386194e-03
2.209515465774885298e-04
1.732054384836406247e-03
1.475069402613561002e-04
2.099562741546436961e-04
1.760663779618591458e-03
3.263653675922904385e-04
3.693478260466248326e-04
2.354013362896981414e-03
1.516479732096360144e-03
1.210166879743932800e-03
2.127017323732809367e-03
2.172967201140746461e-03
1.863883056442965742e-03
1.343777426460530076e-03
2.202695492716082951e-03
8.184474843602598327e-04
2.667802826962100728e-03
2.678798596350053570e-03
2.326305382231549229e-03
2.040819397345993488e-03
2.643899718614490732e-03
2.472219925403862373e-03
2.479571140731495760e-03
9.654984389879044766e-04
1.787175713015747361e-03
2.314584527319714542e-03
1.785637323945589829e-03
7.842400596991163774e-04
2.445031367296587529e-03
2.304627603048076383e-03
3.059885356093248348e-04
1.943105419397745792e-03
2.247847647105451121e-03
2.350689230447838753e-03
2.376094301666347320e-03
2.703318908498667916e-03
2.573375803100330737e-03
2.583739970130639711e-03
2.694120809652290026e-03
2.546512394488501668e-03
2.539357601261883930e-03
2.708419865817833765e-03
2.114568159739636279e-03
6.766207881244921648e-04
8.030501621692863858e-04
1.255240782276044204e-04
2.223178245424473195e-04
1.273083172797773155e-04
1.294276988555109970e-04
2.695186732651240046e-03
2.739688588049716666e-03
2.201517175013816864e-03
2.654874212523230560e-03
2.452013807651197506e-03
2.360988281617526670e-03
2.584523724400230368e-03
2.627132921764080767e-03
8.748966495818906713e-04
2.430613899120474992e-03
2.650125482582144521e-03
1.756666246016785546e-03
2.438253085580889198e-03
2.599727525691898460e-03
2.045157446067121312e-03
7.489554833138833143e-04
1.329897755120076951e-03
2.266664411594364759e-03
3.437489652990227923e-04
2.406154189852042699e-03
9.261207370907909671e-05
8.884314405689665002e-05
1.291919198042489189e-03
2.091790717655835855e-03
2.489024115520767702e-03
2.666822435687663580e-03
1.897105899204978548e-03
1.167906363844960259e-03
2.178614229093043305e-03
1.077023748858527575e-03
2.336416607453438259e-03
1.795249864828958510e-03
1.685794508653069325e-03
2.391453048619757941e-03
2.047051823332391232e-03
7.308005151707892572e-04
1.604797792222316432e-03
2.668358138459940576e-03
2.616316382170709616e-03
2.311197213144424063e-03
2.160128846310658147e-03
2.655603811027551844e-03
2.565856532977298619e-03
7.758979765353122508e-04
2.628979375475164453e-03
2.384334574140483526e-03
2.618847304581722792e-03
2.675841304739459778e-03
2.704683118014258782e-03
2.181903117313995551e-03
2.628275995238156006e-03
2.613353073252863961e-03
2.544385276374872343e-03
2.695344901870438698e-03
2.621711542833738556e-03
2.630930702255499052e-03
2.689899023903426917e-03
2.598296695988873244e-03
1.285000154317857222e-03
2.702764026808489317e-03
2.544100958607208897e-03
2.700725663976828988e-03
2.680274555857469713e-03
2.723029458018354221e-03
2.714896852363264668e-03
2.708486915812928931e-03
2.582563371659017323e-03
2.609706155250410015e-03
2.731762934783334932e-03
2.602493337989575991e-03
2.584203302789054007e-03
2.544428472044789162e-03
2.538191747981783254e-03
2.557403505711033139e-03
2.165997440112132303e-03
7.680709641270992661e-04
1.118037070377579959e-03
2.289295933977300666e-03
7.103274331347682498e-04
1.990115632305040991e-03
1.396431390036708016e-04
1.153258975433263075e-04
1.573246149097668389e-03
2.241820884084778313e-03
2.629196428343901892e-03
2.423214975142484913e-03
2.604193657095964318e-03
2.355449780099598111e-03
2.408828453117955060e-03
1.709567707635182383e-03
1.046662672954480405e-03
9.951520514821653347e-04
2.074864462163244789e-03
2.648937064399848381e-03
2.593537435760096335e-03
1.672130923114117018e-03
2.602267688967620923e-03
2.517862705238110149e-03
7.588941407599343906e-04
2.546094406538308708e-03
2.031319358617856945e-03
2.659192275188127820e-03
2.614462836633222025e-03
2.396373486721359650e-03
1.438791218368319332e-04
2.629275083145840401e-03
2.664013857527730480e-03
1.299903520054579301e-03
2.564624919125084793e-03
2.552462866649370457e-03
2.636692918660908571e-03
2.652647379032280119e-03
2.642270102868314510e-03
2.689351878751143881e-03
2.619631703562804673e-03
2.704051085848954532e-03
2.660534134705353632e-03
2.667337345265382350e-03
2.651078366166285949e-03
2.400933960906985985e-03
2.124271497491362834e-03
2.410958150077549718e-03
2.568068753007779568e-03
2.656619446530179840e-03
2.565969572392106345e-03
2.677382595011328255e-03
2.556252480795231929e-03
2.597701412378573133e-03
2.638404197862649018e-03
2.684499780067619787e-03
2.741290051394105944e-03
2.761021446585344014e-03
2.732645544814924637e-03
2.528384611679956959e-03
2.411534522150771739e-03
2.621352653436915224e-03
2.337600727559126235e-03
2.013753119518235223e-03
2.649878343177146465e-03
2.109603236545134868e-03
2.630192937405620955e-03
2.722741057077912585e-03
2.527998214592838341e-03
2.591046700365373830e-03
2.254713179776305157e-03
2.561140683322268938e-03
2.698352480977353213e-03
2.587974650109329047e-03
2.476929113040148532e-03
2.656312134052660114e-03
2.676044603763049791e-03
2.518901335450594425e-03
2.531384454248976346e-03
2.696983328673662524e-03
2.720538937527462123e-03
2.619163428116290555e-03
