2.220599837215131607e-03
2.534314052345299721e-03
1.444806083837500612e-03
2.237107582945415361e-03
2.443050587718007070e-03
2.487726996419231847e-03
1.624751561246721423e-03
2.340034188286099770e-03
2.392292296941031949e-03
1.668738693400088338e-03
2.399987222967861315e-03
1.383009790258403352e-03
2.416283225679224846e-03
2.446234087565470321e-03
2.528050700687098189e-03
2.474724127864804876e-03
2.503605157292775052e-03
2.405498698768895882e-03
2.483487175986267160e-03
2.498389574401862611e-03
2.490114321991191825e-03
1.711410384876141172e-03
2.145382149098329968e-03
1.670807207189118574e-03
2.205358615761991020e-03
1.943300803357383890e-03
2.235614948594756481e-03
1.829445829524050651e-03
2.397624526632350685e-03
2.341106415253475185e-03
1.469081103976683936e-03
2.512270885722988917e-03
1.009213236955114291e-03
1.171483902002709793e-03
7.735190552515182772e-04
7.720264209008593972e-04
9.894230468406586473e-04
1.138988275571227796e-03
9.604440135759831874e-04
9.937526613648451409e-04
7.104000091905364900e-04
6.984231022669593232e-04
7.848522668183055681e-04
1.210417764774821036e-03
8.425998731014681595e-04
9.225999945167625291e-04
2.244237917933912096e-03
1.105526464718195254e-03
2.464489482865483538e-03
9.854441423813311510e-04
2.417843077321027000e-03
1.214393676097774580e-03
1.530406705481412652e-03
2.514229423129817845e-03
2.459193683919746500e-03
2.409809670329381148e-03
2.512950584234449787e-03
1.415064827015622166e-03
1.974397437847624608e-03
1.893132245964283073e-03
2.403378189925138835e-03
2.206538766675196928e-03
2.468309751096985517e-03
2.432280598898637920e-03
1.596587003148522031e-03
2.507929982798762832e-03
2.168402275433137932e-03
2.212772186969657641e-03
2.476462028361773021e-03
2.408060139359644979e-03
2.412761929012401975e-03
1.209486642807938240e-03
8.511867537677710515e-04
7.963701976584642694e-04
2.530968752097272241e-03
2.498770472385008698e-03
1.966115515018748618e-03
2.530239453040184026e-03
2.398151489670551344e-03
2.503900708130168962e-03
2.504943858915624315e-03
2.479167481571206092e-03
2.192488300389844325e-03
2.468109467514468993e-03
2.471100893524898982e-03
2.505956907300974524e-03
2.512288673504869171e-03
1.218496752957535199e-03
2.030501470188692762e-03
2.063693813249876854e-03
1.351579292785180537e-03
7.535831421547363853e-04
7.621472749845963112e-04
1.040522298609731664e-03
1.967842982297499013e-03
2.415902156659714434e-03
1.238654842291455173e-03
1.256495816480932828e-03
7.920498190979462271e-04
8.075356225519394289e-04
7.322038531801947428e-04
2.440748951364527918e-03
2.527214161829635913e-03
1.107951247253922229e-03
1.655561367754143599e-03
2.415057065984040682e-03
2.530173604039954484e-03
2.512890379434239933e-03
8.428018670476269568e-04
2.464718329520827148e-03
2.506225776465548487e-03
2.450848819708833191e-03
2.422803816029232317e-03
2.501468399994415809e-03
2.228509926988165527e-03
2.531568063517543755e-03
2.416347877424904547e-03
2.477062194963865725e-03
1.012829031213175737e-03
1.979109660718599787e-03
1.954724664197214721e-03
1.990207868320931564e-03
9.176000884811478337e-04
2.491463285795894947e-03
1.141422037516077060e-03
2.326982916440595295e-03
1.261191961933670136e-03
8.687257632561957554e-04
8.938141468254879023e-04
2.176782886244176506e-03
2.461038995253453029e-03
8.926316014031828545e-04
1.819191857415571436e-03
2.524902947439759335e-03
1.183272241334720407e-03
2.486236072432215349e-03
2.522953303923870967e-03
2.378705168166385820e-03
2.487669528200849457e-03
2.534300369436161098e-03
2.492218753416711001e-03
1.301740236947774134e-03
2.462116866420847698e-03
1.499292967354748764e-03
2.529390086455404751e-03
9.499581161576045726e-04
2.102113198638376652e-03
8.030141907452659428e-04
2.066653768569287966e-03
1.565069619202269198e-03
9.769557786608261928e-04
2.513465403690790315e-03
2.436049385184505846e-03
1.977016688729483877e-03
2.442120491969309790e-03
2.512853435579565694e-03
2.484723084754212642e-03
2.360443615557260375e-03
2.473513190406036958e-03
2.532274101629096354e-03
2.531391896062384038e-03
2.425627113293621524e-03
1.653181738818574340e-03
2.435901096656715916e-03
1.648024137255137264e-03
2.434561710888409787e-03
2.130559624664831331e-03
9.477526877590059439e-04
2.464407385410652233e-03
8.198823100949878496e-04
1.145452937030131150e-03
2.494616512206889163e-03
2.519891410931376832e-03
2.457220608421958191e-03
8.420793239269258905e-04
1.611106451144600580e-03
2.051860662390437174e-03
1.545631849516314934e-03
1.750116256174730645e-03
2.525782416424644187e-03
2.491441906250366038e-03
2.527304297993586586e-03
2.530227993603780326e-03
2.445318700944097180e-03
2.445825481691318339e-03
8.513607832683778992e-04
1.731790907001746040e-03
2.406997832501395641e-03
2.482431197473494808e-03
1.470886734873888763e-03
2.395850879535257709e-03
2.407631522230877820e-03
9.939493531837127922e-04
2.408200218141951215e-03
2.469069152554178876e-03
2.534315420636213453e-03
1.142088993818402443e-03
7.009588018848912855e-04
1.692192567954590391e-03
9.317523214032185936e-04
2.338345375225666430e-03
1.336278294122740908e-03
9.319887791767703274e-04
9.375175296505924979e-04
2.501579744667531066e-03
2.532625581357594597e-03
2.533315199978180676e-03
2.426835314170561544e-03
2.118084232257697996e-03
1.246021121944411317e-03
1.067706305231785023e-03
1.615370045632193424e-03
7.153727204442381559e-04
7.497385867595135998e-04
2.494201235914531977e-03
2.534213482963130863e-03
2.415539217494812492e-03
1.689396123399385672e-03
2.412867971558226195e-03
1.621448506980659437e-03
2.406807811100732976e-03
1.625641805522552675e-03
1.617280863893401496e-03
2.519563021112050313e-03
2.405306795968226944e-03
1.989412720263613807e-03
1.152276005190284438e-03
2.433850541685930041e-03
1.520157351354767608e-03
1.579489524034364189e-03
1.032558845491056984e-03
2.482140435654298961e-03
1.728864474809724402e-03
2.113933350734134575e-03
9.261932974929273877e-04
2.412828633194452708e-03
2.412238557737849971e-03
2.494064406823146181e-03
2.502997123017927737e-03
2.413590771233473532e-03
2.525398781859670202e-03
7.435636609016203595e-04
2.020161466789004937e-03
2.300050333273964080e-03
2.304524302489562981e-03
2.141494492539320824e-03
2.498204513055762768e-03
2.420417687711821746e-03
9.680923321935591599e-04
2.247326663635590936e-03
2.531953408446160122e-03
1.341807130114745132e-03
1.696043109622561188e-03
9.287525146109412363e-04
1.181540840219592707e-03
2.499556384478658112e-03
9.001006739110428874e-04
1.514715145281247130e-03
2.448473124609640804e-03
2.184621824889689846e-03
9.878194098896127262e-04
2.444695786505561401e-03
2.410063317257537998e-03
2.521230454626954744e-03
2.399830895730952450e-03
2.412190154446772032e-03
2.414469214000172868e-03
2.441075630820212054e-03
2.335374815651672809e-03
1.074774040910973089e-03
2.500209059244569952e-03
2.532577862211973525e-03
2.483890821805856321e-03
1.296868608185333975e-03
2.428120994520498697e-03
9.880683533177534589e-04
1.611827369419841427e-03
1.459435337179416144e-03
2.443423104919306005e-03
2.525867763570395930e-03
2.502965823363272752e-03
2.515218868496903789e-03
2.179178592597984070e-03
2.479619017572780217e-03
2.479202201953145408e-03
2.413365858414507660e-03
1.763215076129492085e-03
2.424665717890269693e-03
2.334728469231237523e-03
1.826950751042623637e-03
2.523031809615053616e-03
1.087009298262723873e-03
2.381159026884032640e-03
2.447297762714633826e-03
2.489398192734149258e-03
2.490425266101366740e-03
2.467873266295463747e-03
1.343088106964665952e-03
1.909980011986661371e-03
2.514686090222319117e-03
2.449460175467627933e-03
2.519504184602754191e-03
2.534085205689956544e-03
1.406732277422933098e-03
2.466128695380289965e-03
1.476547354384534234e-03
2.137257237651819710e-03
2.507015280322846557e-03
1.491453857672871315e-03
2.409240632345579104e-03
2.446604552330398658e-03
2.532716914776094678e-03
2.481089417196088998e-03
2.529696241547381170e-03
1.248216117124791762e-03
2.497449558544039688e-03
2.525713488769858097e-03
1.107763791398723137e-03
1.641777889233358902e-03
2.422208780518066758e-03
2.533385666960244822e-03
2.459128005955881283e-03
2.530107241930631967e-03
2.068324451775112836e-03
2.463221419261062313e-03
2.362400784673175137e-03
1.640687532411375235e-03
2.516593829828970424e-03
2.518721180127296566e-03
2.371411322413682476e-03
2.534015764926077913e-03
2.487513543036669241e-03
2.321570983803543636e-03
1.625683880468154060e-03
2.475962602178213498e-03
2.416382084697751322e-03
2.407521545848675861e-03
1.918451785179835700e-03
7.462260129472667470e-04
2.097660266895578010e-03
2.194288116050665139e-03
2.506613515903263669e-03
2.533936404053074073e-03
2.497540891962539769e-03
2.474776293955895361e-03
2.156561941046400942e-03
2.421143395005261306e-03
1.466731748477583279e-03
1.845675128053363232e-03
2.426048546895090939e-03
9.381769603528915952e-04
2.211412618910372010e-03
2.356885717108491481e-03
2.516255348864153939e-03
8.386198569057732016e-04
2.265375618043975400e-03
1.264504166645218520e-03
2.445192305070929134e-03
2.268048061235111105e-03
2.432687152336419304e-03
2.430557236492629156e-03
1.979386910665020902e-03
9.841458908586228366e-04
8.021870588878365514e-04
1.306397642664012875e-03
2.140114229079962717e-03
1.260540313385943379e-03
1.106744756740624808e-03
1.886960227724581839e-03
1.063367027153019157e-03
7.256021060753587793e-04
2.011365750721973936e-03
2.281393686663460950e-03
2.196630288022467618e-03
1.114535035540513939e-03
2.122294805472378296e-03
2.218368496807351410e-03
1.211269953459610587e-03
2.078448607283139675e-03
2.445483751035581847e-03
1.226217590993545700e-03
2.416859618226688960e-03
8.567343182416588829e-04
9.183875399020751968e-04
2.471790683181849819e-03
2.527675104831243139e-03
8.279657452231716430e-04
2.439530317269369714e-03
1.095073577318113681e-03
1.046698421722174746e-03
2.502361893961167500e-03
1.528506149402058872e-03
1.941040215731320391e-03
2.522927135360143128e-03
9.321447643409505428e-04
2.534298145963426174e-03
2.484819378227275978e-03
2.505413011662714368e-03
7.896708743078335088e-04
2.511664048702691009e-03
1.969974095395838568e-03
2.428918879159643919e-03
2.511827730503261944e-03
2.365224081937563911e-03
2.089681078431394109e-03
2.493951864895481083e-03
2.455445079924858508e-03
2.481242323705713099e-03
2.441087945438436945e-03
1.661885608358012285e-03
2.293644166251627980e-03
1.340752947483796892e-03
2.340545929087884183e-03
2.474191349590219770e-03
2.394687490185746972e-03
1.964867633705306895e-03
2.512305092995835692e-03
2.508136594726755909e-03
2.094308809338437868e-03
2.189889915944420989e-03
2.188370770957306054e-03
1.671520257791604810e-03
1.586130010875699044e-03
2.514225318257076215e-03
1.752830432238739302e-03
1.338868297786316658e-03
9.530934692685363733e-04
1.431213396381016958e-03
1.045149174334954884e-03
9.761138521578908251e-04
2.008363891493325764e-03
2.389914378369104638e-03
2.532242459901713153e-03
2.302122096753914538e-03
9.629036875300136947e-04
2.393622959854762276e-03
2.526555500790975736e-03
2.096908562074774936e-03
2.481746196834742468e-03
1.904513689785784086e-03
2.413251948195928396e-03
1.782433406160135623e-03
1.026819805807410810e-03
1.815778997803672032e-03
1.192666670194748001e-03
1.855635259688090486e-03
9.286828172925163348e-04
2.057914152429725623e-03
7.352280326543752858e-04
2.312400184989750560e-03
2.172984681703660735e-03
1.798605749580159006e-03
1.414233590285450927e-03
1.042465442743779371e-03
8.203075920146522988e-04
2.533628709633819597e-03
1.175785979672254932e-03
2.377104438833532122e-03
2.422117960208659219e-03
2.290812146132662971e-03
1.869833159319411612e-03
2.481923732580815917e-03
1.789565280475910848e-03
2.417050152736444166e-03
1.701022833367196382e-03
1.672911980687366400e-03
2.488540274331158073e-03
2.530557751714021010e-03
2.306349260495926118e-03
2.528669510252892338e-03
2.530677135096255637e-03
2.428202749902602219e-03
2.468323262969759815e-03
2.453800394246396718e-03
2.252261062743704089e-03
1.163047447818749483e-03
8.381586573496195959e-04
1.906047543900222943e-03
2.320210389526072923e-03
2.511690046230054957e-03
1.570525850257656732e-03
1.838699752010860980e-03
1.015249623357978919e-03
2.500822908755801280e-03
2.462537273804131597e-03
2.475533642976718122e-03
2.489443688407035407e-03
2.534210062235846099e-03
2.347670277803633448e-03
1.003353531116501704e-03
9.665366709426804733e-04
2.438151251064561448e-03
2.175061234201809690e-03
1.028238894521449646e-03
2.205405821798519118e-03
2.334804067304228382e-03
2.533690111688578859e-03
1.032801717128267651e-03
1.342310746689228448e-03
1.703576577321554977e-03
1.179442395066821652e-03
2.367088036234972319e-03
1.891450616431147045e-03
1.128879256781435908e-03
9.227890752174217320e-04
2.053877010088376708e-03
1.368826172163495987e-03
2.384260942385757129e-03
2.159762886603015797e-03
2.174142939962244326e-03
2.512446026959963118e-03
