2.212790864450227962e-02
2.679927955759870903e-02
2.715773395087429237e-02
2.336736983353395955e-02
2.534737170969708631e-02
2.643301349777976011e-02
2.477691936452460289e-02
2.548047296547303539e-02
2.727814077519768315e-02
2.364341739259566422e-02
2.333428290078751535e-02
2.581142181062889146e-02
2.652277003861538626e-02
2.591315901697261587e-02
2.665567628671950198e-02
2.656863281378418068e-02
2.700517547331789461e-02
2.652026144477875186e-02
2.621261506976727343e-02
2.679349180562995772e-02
2.486651119014227432e-02
2.510614153980950808e-02
2.720390154386021289e-02
2.675712571475140009e-02
2.568445667004127381e-02
2.686620126804666747e-02
2.745207057896384417e-02
2.723768709632418128e-02
2.398830455309138021e-02
2.437967548406035079e-02
2.718105535380234417e-02
2.420084398260132288e-02
2.152402857647724502e-02
2.492889849890061668e-02
2.682659388460333777e-02
2.466188566420752723e-02
2.569344406245071405e-02
2.624686447543122039e-02
2.544519550965566174e-02
