3.256198623857480456e-05
1.001507997550292998e-04
4.779785924502492293e-04
5.298755382255197809e-04
3.524889107642025031e-05
6.532228248401172302e-05
5.671918371453084622e-04
1.331852064176215409e-04
1.290381309001493017e-04
6.006519254753801482e-05
3.771022449121512509e-04
1.002597011169032939e-04
5.279512948069132842e-04
8.380971099173828627e-05
3.471899375082549734e-04
2.068446469260177471e-04
1.018529823321214487e-04
7.878838475631305108e-05
5.904103242800025293e-05
1.719284686125119991e-05
1.330691963646987621e-04
1.277046665765635188e-06
4.122548286013966710e-04
1.486649784956748245e-04
5.211438256702303450e-06
4.863657597021782912e-05
3.900185827824516425e-04
3.142168004290783528e-04
7.178766563908418198e-07
9.170726160325729224e-07
9.277280752260628382e-07
2.501734192207187285e-06
7.366014428063813453e-06
2.457740923632149177e-05
9.958508441430541815e-07
8.036242718927252665e-07
9.591277202487863941e-06
3.760235498364290482e-06
1.675948668376907064e-04
1.306114817585999862e-04
9.203444731452595538e-06
5.141561694011717637e-07
6.399277273945013899e-04
1.597263146734913199e-04
3.471138118250768033e-04
7.653607702002033965e-05
3.352895628807921148e-04
5.641416409363388926e-05
5.650380930072013938e-05
4.739165373508448173e-04
8.457031727774973911e-05
3.651420910424910322e-04
1.151939491685646344e-04
3.488180051800031075e-04
5.711921377089960235e-05
4.490545646096568935e-05
1.501443905449582482e-04
3.532186752666703579e-05
1.331228723047643678e-04
1.288792321388355629e-04
2.742710191637390401e-04
1.005886880267722536e-04
2.376844196918412810e-04
2.302463159213986648e-04
1.754866493999264183e-04
2.322260804644361485e-04
1.426843367688354454e-05
3.606315851736621681e-04
7.403755600643664610e-07
4.063646216076460403e-04
2.926742766591813651e-06
5.864410913427366249e-07
6.030149442735974891e-05
9.591230074882378151e-07
1.653781084706944097e-05
8.296135199542561240e-05
2.814362832990472007e-06
4.158772566976369316e-04
1.678483786101513510e-04
1.138164199794063326e-06
5.366438992118425513e-05
9.211470285445784247e-07
9.228783637039822375e-05
1.743235526638743106e-06
1.917378031675610070e-04
7.552375683349396226e-05
1.006163288294256090e-06
4.719679280361309100e-04
3.060014829740789853e-06
2.555173754988822524e-05
2.709482915896193342e-04
6.236168180408792989e-04
2.081700333932089142e-04
7.438623615653248272e-05
1.228864636474408093e-04
5.048168463575796686e-04
1.206684574153769012e-04
4.536532903989307476e-04
4.515969980171483252e-04
5.361299089131312174e-05
2.559556363559297273e-05
1.789173084313178206e-04
3.798994261290661182e-04
3.787038649413285033e-04
2.204310232830606643e-04
2.543459377311013789e-04
2.190281863849418136e-04
1.567122533250111822e-04
4.415380996442088048e-05
4.185606278891415631e-04
1.853644180883804674e-04
4.494622143312064022e-04
1.957386359959694463e-04
1.345322885862374286e-05
9.553725926436003866e-05
1.014710295381095340e-06
7.270297614470689121e-07
4.032427115986286000e-04
4.925025871187684502e-06
2.472302651433833261e-05
3.806726234327505366e-05
2.937012777416663550e-05
1.432751561533384918e-06
6.607603087176124549e-07
8.385512795755294566e-06
1.604363203267128478e-04
5.606654673572673744e-04
1.958534721094802835e-05
1.459384110650516978e-06
4.049927033757527305e-04
1.006907172596955934e-04
3.297798364516208049e-05
7.407625701124824849e-05
1.849882156014944762e-06
2.693229916944192789e-05
5.433292505579315548e-04
1.252987228463839104e-04
5.298391076624078995e-04
4.294874312017517032e-04
5.546798666974459414e-05
5.215808194415398006e-04
5.999195410476754935e-04
2.852609845565497486e-04
8.768650248399244436e-05
3.482793473685093406e-05
6.394500612059579570e-05
2.402813984051089375e-04
3.317742264463751723e-04
5.393597858637350865e-04
3.570276207491809481e-05
1.583498633203926165e-05
5.851815803969372641e-04
5.451615186327852169e-04
5.849187125934955222e-04
2.897930412325183170e-04
4.777179483305299423e-04
4.294180238821604509e-04
3.420440495000596028e-04
4.257069796239608417e-05
1.821434831850859168e-04
8.343680632835154634e-05
8.366623866662057085e-07
1.386633872910072567e-06
1.315309106624998642e-06
4.575934786853422723e-07
1.380818049171795979e-06
5.748133249631059327e-07
1.915476759915245139e-06
1.724591217540102450e-05
1.768216166320918706e-04
4.499329788205369188e-07
1.506385488080241306e-06
5.815635227854599968e-07
6.798857980608385510e-05
6.734217387294449140e-05
3.760239712126663348e-05
5.732840681708618272e-04
7.767530094408835217e-05
5.303740259446097066e-07
1.612201333545508497e-04
1.284749257050635224e-06
1.971580825104032528e-05
7.988140218856390929e-05
1.328129049875850353e-04
3.540993723017973275e-04
5.073705342068895964e-04
5.237741759029785607e-04
3.973050502479931359e-04
8.961776588286093524e-05
4.711230701588705705e-04
1.615268922982742683e-05
3.144488087068190356e-05
5.831850672573521746e-05
5.324643792026118191e-05
3.522218262413616798e-04
4.338988589498313854e-05
5.290405213315416740e-04
2.025635412377976610e-05
4.363271097466080265e-05
1.286726491118479327e-06
4.154367174518817972e-06
9.856670306327105141e-07
1.158945256044060200e-06
2.193178892013900855e-05
1.755762228991266540e-06
7.978505488153502206e-06
2.662153604257936299e-06
9.378770512711741315e-07
2.633124219051402823e-05
5.638409095209502107e-07
9.599863667393416102e-07
3.219248688659065395e-04
4.227013635423839582e-04
1.262298497460362746e-06
3.652621995337639016e-05
4.473327473784199405e-05
5.730222412406518750e-04
5.076577205940190334e-04
4.128596705738946560e-04
2.441729632003913192e-04
9.834193210722001085e-06
3.206597111088991896e-04
4.150920538674724022e-05
3.199938834275033216e-04
7.492623645793311581e-05
2.137440278303896096e-04
1.990247792416134393e-04
1.525734574809734911e-04
4.361222883679949521e-04
5.001462589169464006e-04
5.693291757019100898e-04
1.365907041128506273e-05
6.241188856098448478e-05
2.391206118457963865e-04
3.253796217469924219e-04
2.254535707703174955e-05
1.100422653889650639e-04
5.137592366819240309e-05
4.248161340748240577e-04
3.036402605692942280e-06
1.706076389227360358e-05
4.052407150794318821e-04
4.436010153951105928e-07
2.597668291783725896e-04
1.164121068418412446e-06
5.538901869295743833e-04
3.927415041997373364e-06
6.180311965765755255e-05
2.597897424353461041e-06
2.336920084741262280e-06
2.201206441999792542e-06
3.596345468986750075e-04
6.062769618815150107e-07
5.621736087644838387e-07
1.984549957720582692e-04
5.826337352618228796e-07
3.837841542797124967e-05
2.094838881973728483e-06
1.184642220544503510e-05
1.367349862935261350e-04
3.238020837394048291e-04
2.239098818419459828e-04
5.362946300590851817e-06
4.350554879302693232e-04
1.754699362876935721e-04
2.951060603630423131e-04
5.979142514542498460e-04
1.729023149308037718e-04
4.296391148190724331e-04
9.386713085156444809e-05
2.470142395923975612e-04
8.089753102487016198e-05
6.072487552843489631e-04
5.121059869748301012e-04
2.859414790880296159e-04
1.714830487949698258e-04
5.639280845022523350e-05
1.864113118255484702e-04
5.340618830512816010e-05
7.226865644917706004e-05
1.074613255859505680e-04
1.392724341547994771e-04
8.074921250339528770e-05
3.521252556788526767e-05
4.221774435496037232e-05
3.818376976800916473e-04
5.105354038929273532e-04
2.821281350290069710e-06
9.984920673612377026e-05
3.325752020544324775e-04
1.397863032154354831e-05
1.186848587182082834e-06
1.511789176288182620e-06
5.471833801404414365e-07
8.483905071234022993e-07
1.209307755815687093e-06
1.045518719972634002e-04
1.458670635666275268e-06
5.067057473987255723e-04
8.135976745056309834e-07
1.777753640431213025e-04
2.816063307884918200e-06
1.010727088646767255e-05
2.964854029485340753e-06
1.450677886182787988e-05
8.673451154654161701e-05
3.010376893801754335e-04
6.676535268096996090e-05
7.341855801013527786e-07
2.061137883238460717e-04
5.051769884957724079e-04
1.666724993889781472e-04
5.135869130215414127e-04
1.457253159270564932e-04
4.369099455299275481e-04
2.601983480156233906e-05
2.789428130710727228e-04
1.574957943064363077e-04
4.077733489020083594e-04
3.110208701395560712e-04
5.290796487025722439e-04
5.095509152372460290e-05
3.169411678321888340e-05
5.257726879922928901e-05
5.938396112512248515e-04
1.271575331886477226e-04
1.448223110860758617e-04
1.947984051518218825e-05
3.775213501533026942e-05
2.247210296202228517e-04
5.098743074534942002e-04
2.090618251907382194e-04
1.213708235913419403e-05
4.854370316900523031e-06
3.293204624273152284e-05
1.436742622868627597e-06
4.630226250409533739e-07
3.375199886230078315e-04
1.424849186163948960e-06
1.440064971204133832e-05
1.345160840825155660e-06
3.600318529424837550e-04
6.366800964584328848e-05
1.075596925418922428e-05
8.294491684365805264e-05
2.338282209302292686e-04
1.847248724560868562e-04
6.410190829780128578e-04
4.706127569222721263e-07
1.610513817818500306e-04
4.078173494522604114e-04
7.956646115327141607e-05
6.616824628908083913e-05
2.257564404852963701e-06
4.742700557502897989e-04
4.935985039152345584e-04
6.773461856563672628e-05
5.697768931288303609e-04
5.622434784890512549e-04
5.892297729573912684e-04
8.751610089065719100e-05
6.949212710342895583e-05
5.055172594177221451e-04
5.151397539460843451e-04
4.586316924416503310e-04
5.740725178158230589e-05
3.568549008472840257e-05
5.028051695875044615e-04
1.068367306782587613e-04
2.926322595342707830e-04
3.734453733744233657e-04
4.208079678213735918e-04
1.860851429616734829e-05
1.918207980226635450e-05
1.461305346034194514e-06
6.719825928759176625e-07
1.449219037293884469e-04
4.946703312975454060e-05
5.846797479115566990e-06
5.400474363986833862e-05
1.236869920052813257e-06
3.284197049262668148e-04
1.339030648236161271e-06
1.803459986097360170e-06
5.770563494851884957e-06
2.211082355154289530e-06
6.573262901347992030e-05
4.363250693985117252e-05
2.988889958428635432e-05
1.621307909794059642e-04
2.151664757264434066e-04
1.572219736778512141e-04
3.588528451875627853e-05
1.295844758709474045e-06
4.235324535055331584e-04
5.259808271543323348e-04
5.085382047232577711e-04
3.392576082023998282e-04
3.728856437940386874e-04
2.225474497501876898e-04
2.233713718817635695e-04
4.643495402907036923e-04
2.538378260005286387e-04
1.585351771969887300e-04
5.962310648136374394e-04
2.399325875914167048e-04
4.543283440021536309e-04
5.737649989163595048e-04
5.487985189542702626e-04
4.141481770099874303e-04
5.398117140960020151e-04
2.118269758995662642e-04
1.539442047304810375e-04
7.459483070061078129e-05
6.113927909788603623e-05
5.559286898415775457e-04
4.925204845200051117e-05
1.748747342206943541e-04
4.480308421300006259e-05
4.763663744390757597e-04
4.324841052360192412e-04
1.033950740967022789e-06
1.305348086559416734e-06
1.332904613965298317e-06
9.585031223840682739e-06
4.447374541701014372e-04
5.550788711831937436e-07
5.136784152410979595e-04
3.063872159564933622e-05
1.328326638368313215e-05
1.883491339085875964e-04
5.914004194574097335e-04
9.027715907518760944e-05
1.247299813589453790e-06
2.210532052573515335e-04
6.242492313259141593e-05
5.589108862754394585e-04
9.368691784520925716e-05
3.802448777609648378e-04
5.698639006685223907e-04
7.397403852864641255e-05
2.456299491627720634e-04
1.391825405575102220e-04
8.126239257692047062e-05
1.637857439336065082e-04
2.368132561092688810e-04
2.778313970216398786e-04
1.867123725797332167e-04
1.162730508353929999e-04
5.321955973467168595e-04
3.486784098858967604e-04
3.412351254055051076e-04
3.048073300700818188e-04
2.989265382478366860e-04
4.438551721689169252e-04
2.156503161857480316e-04
2.161071412534463002e-04
4.684458968943369618e-04
3.873756637097271758e-04
3.996102532694276242e-04
1.215563814226017410e-04
1.777302686539087676e-06
8.371910475112838378e-07
1.118818225334673440e-06
1.991404137522054715e-05
4.476080406060659283e-04
4.955675632840751940e-07
1.696815204862550051e-06
1.108800929363716329e-06
2.777698664806597628e-06
3.018019742068128557e-04
4.031703812586122806e-06
6.973018989236865503e-07
4.710573532080101350e-04
2.077214081592371152e-06
7.386952299110890413e-07
1.205698021493781237e-05
2.441909670545720882e-06
1.441545081111606657e-04
1.335498166224425953e-05
3.799070670848356452e-04
2.262903648370578256e-05
4.866706882466674219e-04
5.550060976588716902e-04
6.389265965952165352e-04
4.899782754768786363e-07
6.347237279069004598e-05
2.231633243875372151e-05
1.955537390600713100e-04
5.970430878716773918e-04
2.434731859008876790e-05
5.128406542267815570e-04
3.798039733224707528e-04
2.791165442759391399e-04
6.308506977520065293e-04
2.267063297163566149e-04
1.311058728874812485e-04
4.445576669755228728e-04
4.607651986922623203e-04
3.359182266565717578e-04
5.884981337002958592e-04
2.799384556296809321e-04
4.404613576843092646e-04
4.637361820826730154e-04
4.091246389189446826e-04
4.133624596572595383e-04
5.480017304953498656e-04
4.152147881980345766e-04
1.368569307284574754e-06
5.296564850493062120e-07
3.448841046402341861e-06
6.304433973291799925e-07
5.315634897442680848e-07
6.674422916412010070e-06
1.129085242170468637e-05
1.286043706370187066e-04
2.013209433731297192e-06
5.084113512551619245e-06
5.262035267135115003e-04
4.308157451249072518e-05
4.537720445721918220e-04
6.084252732231871337e-04
3.360005620948258118e-05
3.875453733589254179e-04
1.816389317140900198e-04
4.993909634500379039e-04
2.860958949975837801e-05
3.036910171852176348e-04
5.859604847612391327e-04
5.888563833417033390e-04
7.451473668823652130e-05
1.769085532031544898e-04
4.732973124027804756e-04
5.751130362044465529e-05
2.403743673096739005e-04
5.290315319718126401e-04
5.029059450413077390e-05
5.768745130714348452e-04
1.761737913263637114e-04
4.169381903953289499e-04
3.947580334498504645e-04
1.470454743718790165e-04
5.432397354599992649e-04
2.599065664097377579e-04
3.870351562256792947e-04
5.654705166944774515e-04
5.503093937626048985e-04
4.863299442005214511e-04
4.824168759105190805e-04
9.382754809849491598e-05
4.178780989236177777e-04
1.218814133098926040e-06
9.697081449017757434e-07
9.901563287094419471e-05
2.119310454805859730e-05
8.698598297090591968e-05
4.635144524280960867e-06
1.647004652517535653e-06
6.902455564798075863e-07
7.913428179028722629e-07
1.213123557902760725e-04
1.882117807796176090e-06
5.943029000086261894e-07
5.012894644768286361e-06
1.086761196418944159e-06
4.438999060616732904e-07
8.500101997576200606e-05
5.288014989875914479e-04
3.970684881498634544e-04
4.448953830268127969e-04
8.672741320508461126e-06
3.143630845165092818e-05
4.984181254776894748e-04
3.179419201321166829e-04
1.047150052201336273e-04
2.396071550270721713e-05
2.051426299423942637e-04
1.117304789741626486e-04
5.733486969360708117e-04
1.723757040441572586e-04
4.808230151181605355e-04
5.026950262746152391e-04
1.455706397991943951e-04
6.075454041554036134e-04
3.459628425928366544e-04
3.098215712706680323e-04
3.483372873403937160e-04
4.404744632245456335e-04
4.230636820518793285e-04
5.073143743647936426e-04
5.270762042935120319e-04
3.406297156839716207e-04
4.087775550085688135e-04
2.825667788209508102e-04
4.081347684755308155e-04
3.018009806460006730e-04
5.148984132935723957e-04
4.926295928737149275e-04
3.949348636182023931e-04
1.189752017308346390e-06
2.785294208045911127e-04
4.515896645921062443e-04
1.910847350543330141e-06
5.278989025858582752e-07
1.421112798712474018e-06
2.367153829767070586e-06
7.772029653366574020e-06
1.358096536867648352e-06
1.799317007539724778e-06
2.272413592566703127e-05
8.517822162053366811e-07
5.321937059588166226e-07
5.755168199838330659e-07
2.591577054318984280e-04
8.018106722636969086e-05
8.862537013904955017e-05
8.025406437580005444e-05
4.710539467137970691e-04
5.391448928537941000e-05
3.001464121052095993e-05
5.977621420251524355e-04
5.862742134157786656e-04
2.943500788660492425e-04
5.720738164768303553e-04
5.221520695961033055e-04
3.243381571099765285e-04
4.548382299484623418e-04
8.676315330257267208e-05
4.477979053460248151e-04
3.778895235747268275e-04
5.763684121186962196e-04
3.622474698973565969e-04
5.905082018481036662e-04
3.178912721869071238e-04
5.202961453114366645e-04
4.671387493649115119e-04
4.081545923793541563e-04
3.389384622758130606e-04
3.965323201544524866e-04
3.400369383784782691e-04
4.381525589189831735e-04
5.684265020478668435e-04
4.668705825704717156e-04
4.093886895328770897e-04
4.669114131886088997e-04
2.923889554163443803e-04
5.273044017037031077e-07
2.605703973591740399e-06
1.050513506897675155e-06
1.337160144333684325e-06
4.716646968246958208e-05
2.134316475798093667e-04
2.153542587199387410e-04
1.408622042710018028e-06
1.166659860248105970e-06
1.226039966741690500e-04
1.270589695904619982e-04
1.019107034840651007e-04
3.405861409454961409e-04
5.789830368859712259e-06
1.004256468413433307e-06
4.556706150890988283e-05
3.236347397111879174e-04
5.538603801052099885e-04
5.338901389680394136e-04
8.509196627438796623e-05
2.188110933474882028e-04
5.050205736364889089e-04
6.947584571702517333e-05
3.165922091671852885e-05
4.925809083939198217e-04
4.973100212976304824e-04
5.281560156466347071e-04
3.515850010731966149e-04
2.417182765891486170e-04
1.760319960047447942e-04
3.642607079772794344e-04
2.693911688911002794e-04
1.630891276951391272e-04
3.884667590749307504e-04
4.932622072365333349e-04
4.241991328104822252e-04
2.278982241915732164e-04
3.998124665509088954e-04
5.599066707713066518e-04
5.565004131203373384e-04
2.103042493301153081e-04
5.372345119741380381e-04
5.331371618096926402e-04
5.228837561656184303e-04
4.108751038202651008e-04
4.370016369991626317e-04
4.380789407940451552e-04
2.409991529455573161e-06
1.729932612294297184e-04
3.157587358408974051e-04
2.704085988189462286e-04
1.139270312416958881e-06
5.426577901112022907e-07
1.640713394406260410e-06
5.500732264274765686e-07
1.510068464245498003e-06
6.162925242958468101e-04
6.132470711569449522e-04
2.674655948106918115e-05
1.654405349906211558e-06
3.423199637032130964e-05
1.816902331620956729e-05
1.546360897269858118e-04
5.276004732153869370e-04
1.446684510974523112e-04
3.566753206445412829e-04
1.340360493159645900e-04
1.067173141311229031e-04
4.920186949115049578e-04
2.355808148904328463e-04
4.844718908569716235e-04
5.106957456830397589e-04
2.811931336857411367e-04
7.111787055256294280e-05
3.854863841692243069e-04
4.873297029396371580e-04
2.822440844628921011e-04
5.847727537789495274e-04
4.911583303887120781e-05
5.266150501394179255e-04
5.354144031911281694e-04
2.166184702285535967e-04
1.534239928485889315e-04
5.452090676145093188e-04
3.198295437379326529e-04
3.204143489007190652e-04
5.760447478560351857e-04
5.576404531836439121e-04
4.663977422487301035e-04
3.964345253830857028e-04
3.730699729809013217e-04
5.439920029320517150e-04
4.271527525428901783e-04
4.221340403186493056e-04
5.926435059706615383e-04
3.909386674069172921e-04
8.728027915796899665e-07
1.296168553081289048e-06
5.895920707677031318e-06
1.499478891292620004e-06
1.700874647429283212e-06
1.684459640402892250e-05
5.144816455816530801e-06
9.833473026984508071e-05
1.753554402321987895e-04
3.998980074055926174e-04
4.012074850716845976e-05
6.680904717900763550e-06
2.577445891713592871e-06
1.542303284363102578e-06
2.659415139232290602e-05
2.888862987103872344e-04
4.100789304227998671e-04
1.920519576338771935e-04
2.845955117183012048e-04
3.125506699157411337e-04
7.455671463254963827e-05
5.270525480836990529e-04
4.365211793778612419e-04
2.890063480611355679e-05
3.123814570469489829e-04
3.868512055381736797e-04
1.500052328907334565e-04
4.207097472382301273e-04
5.448801043608501220e-04
5.462494677220836731e-04
3.358768046331892139e-04
4.544706124479688087e-04
2.533522822941174806e-04
5.628093350277773828e-04
4.429348036699335789e-04
2.848634892630624643e-04
5.645370426552578447e-04
4.416008773109999434e-04
4.413239577189293655e-04
5.238601898818585163e-04
5.654790329300101977e-04
5.443183640026314375e-04
4.342170172296584891e-04
5.831476194772182257e-04
4.336403261468378917e-04
5.548061553735325353e-04
5.228874465343493014e-04
4.297946780548025166e-04
5.769410343334288723e-04
8.081417245554171154e-05
5.784259793484106420e-07
3.014654173098037389e-04
1.361643582233550203e-06
2.932274261169552144e-04
6.912001677121234875e-07
1.478068258284995792e-04
1.295394532985057136e-04
9.203819238824197688e-05
2.364650840132416151e-04
1.131932961922622709e-04
4.631673448615103938e-04
2.653772068662456135e-04
5.268150397371767959e-04
4.525876254592761227e-04
2.051755357302441427e-04
6.302412309904901892e-05
2.524267803976047047e-04
3.104564093172088404e-04
4.786448932558412224e-04
7.319376210417545038e-05
1.199273675024611126e-04
2.108377205176075603e-04
2.762150391737491621e-04
3.086890538820819679e-04
3.138289805254045137e-04
3.928021616787239953e-04
5.920451931120719342e-04
5.585466752691590998e-04
1.457701681008618795e-04
2.421196041886256479e-04
6.360729480054781596e-04
2.485516093557226859e-04
3.442896152165556066e-04
2.599853179322050975e-04
4.775023456342944971e-04
3.428635715766102611e-04
3.476961094296230638e-04
5.246891034737049229e-04
5.376150457651894575e-04
4.835527524808986037e-04
4.383357052953551426e-04
4.774069164839090437e-04
5.341581638252202802e-04
5.022809006656295564e-04
5.715035125706593175e-04
4.746794028048933762e-04
5.155455998816356423e-04
4.915055917206615551e-04
4.510955336815329836e-04
1.318107931948495425e-06
8.254606723215894613e-05
3.946350211588230171e-04
2.447534895462277803e-05
4.257091086828440418e-05
1.652824080131525982e-06
6.606349123241897748e-07
3.533890236335335668e-04
2.101959038891719142e-04
1.665089285262263648e-04
6.032527483227422905e-04
2.710037949718929686e-05
5.372023868412120285e-04
6.196517534017080249e-04
2.156391031422967054e-04
5.057147887696603625e-04
8.219807255770527460e-05
5.938723987580255773e-04
8.859697085916907631e-05
3.250190537970232052e-05
2.715614132355518131e-04
6.570435984275342016e-05
4.586908329661827785e-04
3.818075596687899487e-04
3.212159159140216759e-04
2.582452381069926103e-04
5.620348780309205325e-04
2.802153279093319571e-04
3.617124610562264908e-04
3.947591689479214684e-04
5.808783738946993310e-04
4.037156938576290876e-04
4.690403301345171579e-04
3.590219693455681729e-04
4.273999126230160770e-04
5.719400169541281539e-04
4.617128191449502484e-04
3.817619978086901579e-04
5.885464869931534984e-04
3.981417230766582500e-04
4.004209042672984289e-04
4.259804927218183808e-04
5.151201192919394869e-04
4.536492215308429114e-04
4.194069524514103188e-04
5.485295951611164275e-04
5.586717219942304111e-04
3.906933288549469712e-04
4.170835814608394427e-04
5.386721944693113363e-04
1.253489978366606457e-06
7.159586644953067355e-06
3.886907124132301002e-04
2.320665902978771584e-04
6.108069449428420248e-05
2.833084246547971718e-05
7.548409719774252797e-05
3.195099660855167672e-05
3.809441080106166355e-05
2.492252672425666177e-04
5.677895822548624559e-04
1.529069154144970693e-04
2.440936912413080577e-04
3.696735090007945796e-04
3.971080413326707591e-04
4.439406183987614331e-04
3.298419931429043565e-05
8.460551771795144307e-05
6.393010270841361460e-04
5.530184555979665356e-04
5.704004708195001272e-04
2.268797533904955046e-04
4.522526062159048870e-04
4.176838814410533036e-04
5.312387036597823091e-04
2.212374398193749537e-04
5.192255125677213432e-04
2.629872909574708525e-04
1.442989647563835661e-04
3.059011222432040278e-04
4.094426730036702499e-04
3.338173896317114765e-04
3.268592230459543553e-04
4.343944388032557231e-04
5.511555290751951174e-04
5.120849802605160952e-04
3.945969110048143250e-04
3.778854310504292419e-04
4.707191640325239772e-04
5.305667726762546867e-04
3.754446779467663850e-04
3.554822433588340704e-04
5.518845188367916621e-04
3.694903626244226105e-04
5.520381895757366488e-04
4.072468562964108910e-04
4.830058209100227397e-04
6.313794613537459513e-04
5.904668981057703027e-04
4.947285610580000239e-04
2.285415548174368858e-04
1.720158339523774922e-06
1.615125876839030028e-06
5.434369336250002326e-04
4.234791856350868266e-05
2.896655342616264069e-04
2.737009244671735541e-06
4.215400328902456817e-04
3.115408617229942851e-06
3.825959265170169221e-04
2.897836911155897112e-05
1.865755214059651923e-04
2.775029542045965767e-04
1.948822575445301989e-04
3.246424232805909024e-04
6.065830695402120790e-04
4.197192144209415440e-04
3.256277044193010384e-04
5.971133468148220056e-04
2.669629535786382894e-04
6.549428087150936629e-05
5.861287750378484573e-04
3.320969681168535427e-04
5.246089089224390250e-04
5.255815103326894186e-04
5.014427611519559720e-04
4.170049482194211209e-04
3.898258083286857811e-04
3.853572449198552474e-04
3.095205223445881876e-04
5.817762689943605263e-04
2.740769199622236380e-04
3.977378169503116025e-04
5.202676632348219189e-04
5.677345579108375060e-04
4.770732219882872945e-04
3.440612854794408118e-04
4.316871275274203616e-04
3.559054766085979131e-04
5.633200725976394551e-04
3.718939518224692424e-04
4.515464210405681768e-04
4.061798666090067253e-04
3.253680538603938798e-04
5.828617105254187223e-04
6.200454873578350274e-04
5.391829793515929073e-04
5.252404824120256426e-04
4.701554365526809274e-04
4.794164168826814030e-04
4.519344301939204984e-04
1.501318900862134995e-06
6.834823699197530998e-05
6.126618874948014935e-05
2.934468552051278825e-06
2.673659607690120226e-04
8.099064186669400047e-05
4.245081775354788128e-04
2.973073653109782632e-04
1.724396349511768216e-04
6.388824067952859464e-04
1.614312413709217508e-04
1.492833045077661977e-04
2.471173806671820607e-04
2.926229626438142488e-04
3.907834826705441737e-04
1.680715039811072785e-04
5.631667330456318265e-04
1.620647546697130724e-04
5.396535486771926200e-04
1.101318396274218628e-04
4.282696095205800607e-04
5.526499391615000882e-04
1.365587475304195120e-04
5.286942890447189495e-04
4.894346324887951334e-04
3.361949096865442460e-04
4.497633578821254611e-04
3.765152397218522414e-04
4.792237607099646677e-04
5.388863304805383654e-04
5.312661921755849805e-04
4.267695219439201246e-04
4.364835186918389798e-04
5.926029592270421050e-04
5.707423503637172645e-04
4.643774073058633831e-04
5.372860351991106537e-04
5.909490116617585912e-04
5.622303256363952789e-04
5.861533301836342963e-04
4.855187254536151445e-04
5.394325050527001364e-04
5.385419433780810764e-04
4.515118356618216225e-04
5.573541657324873350e-04
6.206530261382517009e-04
4.982616159935668700e-04
5.666145310010327557e-04
4.804544040568548740e-04
5.148854023781753494e-04
1.597045139976355469e-06
1.398180967917958302e-06
5.969838527223057844e-04
6.914309746979595901e-05
5.471441810615247971e-06
5.014199092532766388e-04
3.148454405486481381e-04
6.115102322324767435e-04
1.200988158830806066e-04
1.120100007493126737e-04
5.671299051880180579e-04
5.851753351575466342e-04
2.605095395416605038e-04
4.126664939645619716e-04
3.928975435166899501e-04
5.497030851050985515e-04
3.670564639075530824e-05
5.422713921675152444e-04
1.949093084204513149e-04
3.188816157545172245e-04
5.885354158869611019e-04
5.056400351466513402e-04
5.762706646597490429e-04
2.492256930543432442e-04
5.649198947548708790e-04
5.987845161008492232e-04
3.364388052097159001e-04
5.909434761086623930e-04
3.431263210990028768e-04
5.536256631914457426e-04
3.307486351261438012e-04
3.315424665588375622e-04
5.286461723139594540e-04
4.481254019146754873e-04
4.734023932867697333e-04
4.380027677984474322e-04
5.303504129813052569e-04
5.151572122289263013e-04
6.216389696508366073e-04
5.063556354934936566e-04
6.214036849880367509e-04
5.719484858772411846e-04
4.724850527826424335e-04
4.455074164870939332e-04
6.066832299325601932e-04
5.861896661219071804e-04
6.111515567792924746e-04
5.762800798312545407e-04
5.690142169244602303e-04
7.443948517593662863e-07
8.190375973736967316e-05
3.590917433364114886e-05
6.099547891248544452e-04
5.157914825264317158e-04
2.939743709417996982e-04
5.160993444409375840e-04
4.831165792843670711e-04
3.149809255762995198e-05
3.623950373341698833e-04
2.675992583101875137e-04
2.224547174077208436e-04
1.747429218196165179e-04
2.968284453433147002e-04
3.630208623647719623e-04
2.918951320364986742e-04
5.331729773113495210e-04
2.660060835479135968e-04
1.767718439666453680e-04
6.096988289346781578e-04
3.320338770052823308e-04
6.017425832007020862e-04
5.030291465820136690e-04
4.685830082864128523e-04
4.839159699263669424e-04
5.690320063942395446e-04
4.183358938959183711e-04
3.053626595954412487e-04
4.718376769449007043e-04
5.712096078199429628e-04
5.040080405440742995e-04
3.921115896018638599e-04
5.635659552424354202e-04
5.531676789694667208e-04
5.050248790666749974e-04
5.638296273570108080e-04
4.613340359134249962e-04
5.869171418860755392e-04
5.359545217735779557e-04
4.388226920305649133e-04
4.444524441542747938e-04
5.581589499903244749e-04
5.692530500187319197e-04
5.630018492632354052e-04
4.990855144689328648e-04
5.760439435449015398e-04
6.155751260770587737e-04
6.427140030986923771e-04
4.520575371097871600e-04
5.282225369086287342e-04
6.231054535814573242e-05
7.257518770188105858e-05
2.659522183581694002e-04
8.528389501865302560e-05
1.475945586578478435e-04
2.348687393188526678e-04
3.610784746332389356e-04
2.341545583445991605e-04
5.437878498413657941e-04
1.599167353343808069e-04
3.326426222523994189e-04
2.478639943050891322e-04
2.572827378983323426e-04
5.604234643308807088e-04
3.742534221892146961e-04
2.375481599233185621e-04
5.563360970869764190e-04
4.700187036599619479e-04
5.729372681350037091e-04
5.540647224455744462e-04
4.606161645704406177e-04
3.488922383663961807e-04
5.655469735645929797e-04
4.788712831837513674e-04
3.365353698581724658e-04
5.254239126629153085e-04
4.716760104070388663e-04
5.354085364510946131e-04
5.411750214675233647e-04
4.505300556421637666e-04
4.048693598977879250e-04
5.747972139753384710e-04
5.084120225001154559e-04
4.792507287891514443e-04
5.677934145608521483e-04
4.210335061257304296e-04
5.808736426527368870e-04
4.814273366540426798e-04
4.599374205984869176e-04
5.764404216213669463e-04
4.776806661438646453e-04
5.268127687410347881e-04
4.938430618122809828e-04
5.183329164590584192e-04
4.475023446606215616e-04
6.406148456647288523e-04
5.640169845387295973e-04
5.800010123851560709e-04
5.809561555125643999e-04
5.385823954968612954e-04
3.646960295502577141e-04
5.821428929340418225e-04
1.726885929032484946e-04
2.193808768170433729e-04
2.970449469755230597e-04
1.580256342657222789e-04
2.601255282877666078e-04
4.602298586641948562e-04
4.647042888130589462e-04
1.852615490600087629e-04
4.321767637581291595e-04
2.444496698865736110e-04
5.159523447531597995e-04
1.642729199184947886e-04
3.391463293914396019e-04
7.283294576400316093e-05
5.956727782620513736e-04
5.483091665980792699e-04
3.717012956497524529e-04
4.523698463917379922e-04
4.954982868128943218e-04
5.620941131802921400e-04
5.046496915790412395e-04
5.063922553062841832e-04
4.939872227548811490e-04
4.524137996295704372e-04
5.369602891899860403e-04
3.912340151864322053e-04
4.584058702627757421e-04
3.499630840159998423e-04
4.166933959361843274e-04
6.088427580139664378e-04
4.838051169271832884e-04
5.423179949008467707e-04
4.130685075941235222e-04
4.618567908378719863e-04
5.696411064845039026e-04
5.347443173919660909e-04
4.442787129494083767e-04
5.909522762187127817e-04
5.761370070743057712e-04
6.059137880521835379e-04
4.925561639984554459e-04
4.583171121635574909e-04
5.476634466950244936e-04
5.304771629534831825e-04
4.475815929634949925e-04
6.113593056138700525e-04
5.045679830303472641e-04
5.159232003026702294e-04
5.391582349561286399e-04
8.850196160650775784e-05
2.986907094922112396e-04
5.368698751560809987e-04
6.179005315016735137e-04
4.426670153748508019e-04
4.883252508734060989e-04
2.970424630734926573e-04
4.025465093438329437e-04
1.878440856571856081e-04
5.645061476452420532e-04
3.333915068864486066e-04
3.111390565637816435e-04
1.462420740023158720e-04
4.624731770407586556e-04
3.366920212795539461e-04
1.217966812018819007e-04
3.952857325221483475e-04
4.962213152096179875e-04
5.385591177864053900e-04
3.774652967641509106e-04
4.562021523814388546e-04
3.160564965538132558e-04
5.591615947870374071e-04
4.362177648308000668e-04
6.086721021163756743e-04
5.502965720968862806e-04
4.028530465105893796e-04
4.631056967787378488e-04
3.643870794501003407e-04
4.458232268880970997e-04
5.920476060454728717e-04
5.277836195917589603e-04
4.394172672080040934e-04
5.378640983421003989e-04
5.807236149701030560e-04
4.947654174328885860e-04
5.445015576914230679e-04
5.858198722501107994e-04
4.064630314404679874e-04
5.849417064294336766e-04
5.234471524585241221e-04
6.210438740367815865e-04
4.179953390994508829e-04
5.270613955061690488e-04
4.596685914301723509e-04
5.197796829387999655e-04
4.925915063759160389e-04
4.986798104706404973e-04
5.625867774058570386e-04
1.804353037588061700e-04
3.910679959059647258e-04
2.366790780872097280e-05
4.779135851856831712e-04
3.942458528511898880e-04
1.642716779674796145e-04
4.819452183992681336e-04
2.127466110560454024e-04
5.402661971989288110e-04
7.642669070584516956e-05
2.882072708639157291e-04
3.207529165755622423e-04
2.613708621409507253e-04
5.301273349227690179e-04
4.312577673193149609e-04
4.240360469000316324e-04
4.853692182075971541e-04
5.696613088876841544e-04
4.026232974008858300e-04
3.892654400306361901e-04
2.644525802494958940e-04
4.841342221181013606e-04
3.158102354096602713e-04
4.047553369664894031e-04
4.045895069357005147e-04
5.892750036305536470e-04
4.824780981815149990e-04
5.504012744815185189e-04
3.834494898794884362e-04
5.803944151543457153e-04
5.184833226410493238e-04
4.710491681594148553e-04
5.580693402675529708e-04
3.839949784215656876e-04
4.674847450896359841e-04
4.539376380408826207e-04
5.742688761853756213e-04
5.706079830919795612e-04
4.990606281362096677e-04
5.135302800552491711e-04
5.565210413352941624e-04
5.721399592394673089e-04
5.242190072723016065e-04
5.291477312744139556e-04
6.587093386134096080e-04
5.732450827370900786e-04
5.139549090213919652e-04
4.879198780620510353e-04
5.006533534304972088e-04
5.211345686996279999e-04
5.973676983827308929e-04
1.845169816842504842e-04
5.446086256970365282e-04
2.387776677721377915e-04
5.087962939723172451e-04
3.609614710195039743e-04
5.439016362105661721e-04
5.825152889889175694e-04
6.249890674597099668e-04
7.851133505508848588e-05
2.285173545147982084e-04
3.837853607464129790e-04
4.867092478686625440e-04
6.111727054308653019e-04
3.559274295713043320e-04
5.190713213921604617e-04
5.950876655685374611e-04
2.561710852868013546e-04
5.366122590312175956e-04
4.347844350782323558e-04
4.614474910956879619e-04
5.070172523695427045e-04
4.343219088639691558e-04
3.670990273430590404e-04
5.244131301300268121e-04
5.178943303291260033e-04
5.732217104017948506e-04
5.778843966683504816e-04
5.013813496312815709e-04
5.856412678660227918e-04
6.068972240065282926e-04
5.171059634808990299e-04
6.361935946755243850e-04
5.652488106961103603e-04
5.592245676175594928e-04
5.016049008140140977e-04
6.150691197491593622e-04
5.560380288433330138e-04
4.803114732371649258e-04
5.191568149344245224e-04
4.644824408774329253e-04
6.153119743990992808e-04
5.803937054680512837e-04
5.763730960482392734e-04
6.081340652803895758e-04
5.694183596129049132e-04
5.353070986234165652e-04
5.455584698334468028e-04
6.611582294532479748e-04
5.875857610002292557e-04
3.561373488631321984e-05
2.606780427241582772e-04
6.892564367514270865e-05
7.453202346355734754e-05
1.529104638459690378e-04
4.501562402146992107e-04
2.175190621361332906e-04
4.454474243390082328e-04
5.426699993028638374e-04
5.764060254922988204e-04
3.587363206120765626e-04
4.220096559674527104e-04
4.642051427860053280e-04
5.706327747998635441e-04
3.998124665509088954e-04
1.558672416823870654e-04
5.484849322369895509e-04
5.945675601395894981e-04
5.329729404011710435e-04
4.408460076558681274e-04
4.968535037606597142e-04
3.931661834353259799e-04
5.668892269093809329e-04
4.336591091774293885e-04
5.700804969255699644e-04
6.207415476753718082e-04
4.395549936615352014e-04
6.130746646998279674e-04
5.076325030743584783e-04
5.570443166963571016e-04
6.133185602229996756e-04
4.594612684073715080e-04
5.599773082138081223e-04
4.583090690522210325e-04
5.289724387596999623e-04
4.283074594562808054e-04
4.929401515961395926e-04
6.135487351444799059e-04
6.117432458991344836e-04
6.326501310076397501e-04
5.866260285681170871e-04
4.977604355324693336e-04
5.879808197041059073e-04
6.241518741944289579e-04
6.003630949816687141e-04
5.328086716802298397e-04
5.357769109503022391e-04
4.804433329506624232e-04
5.473372748741231995e-04
5.997727779219958529e-04
3.108482034641312473e-04
5.551962462733482737e-04
5.366323194971391345e-04
1.704636554017093691e-04
9.969572524685722554e-05
5.231496519639162188e-04
5.617386076592229558e-04
4.414214213033587912e-04
4.341043663585291150e-04
3.467561062764949677e-04
3.335534336426183920e-04
4.362353177384812914e-04
5.379328432878168267e-04
5.468109715182043222e-04
3.812991167512797962e-04
5.555160782300196153e-04
4.743538933578669067e-04
3.417403747346904803e-04
5.261010953250214867e-04
5.866362953631759462e-04
5.182205021500271890e-04
5.683296062124729197e-04
5.154575987811314298e-04
6.326110982614482859e-04
5.139128482803445629e-04
4.555647121518185722e-04
5.929188642528844316e-04
6.099652924820114482e-04
4.922521343899392702e-04
6.003968287368619070e-04
5.878715280147699378e-04
4.997521464614624329e-04
5.068682655601406632e-04
4.361001461556099964e-04
4.595131228192815358e-04
6.309540280764696198e-04
6.251501662485361944e-04
4.754521092422241677e-04
5.980501800358351255e-04
6.171557867043416272e-04
5.491835947376058060e-04
5.868412054525759059e-04
6.386698320939066019e-04
5.723649297947886990e-04
5.335812834927213628e-04
5.601876592314650660e-04
6.077361205189156989e-04
6.410375821340866037e-04
4.887758543579234869e-04
5.010608079883157977e-04
5.773887990727687505e-04
3.639429577670716723e-04
5.567183814375539514e-04
2.891977800249945631e-04
2.568441517683999267e-04
5.681676084876737236e-04
4.018339843042663352e-04
3.391945880594580813e-04
4.091867601259135696e-04
4.618323776293449686e-04
2.620628062779800085e-04
4.607044968578822425e-04
5.483402035453537743e-04
5.300081076253116558e-04
5.777975310659172730e-04
5.740223784791245471e-04
4.823160058318765888e-04
5.612387992582944587e-04
3.226004902181649247e-04
4.935455140052534724e-04
5.092896678841764670e-04
4.566437665062273170e-04
5.893534949347131475e-04
5.224169718335890198e-04
5.856151987228088752e-04
5.219371765861623462e-04
5.450113490128925646e-04
5.426760552925758221e-04
4.996802315836309204e-04
6.223140232540594905e-04
4.940120144627651319e-04
4.965682098703153198e-04
5.167722216728576736e-04
4.896076066949475118e-04
5.291374171669355978e-04
4.831987609572573343e-04
4.828428296244114694e-04
4.836572656158522510e-04
5.656883903868549588e-04
6.456562678503901826e-04
5.584578225451015260e-04
6.052805113154904144e-04
5.674286831179557863e-04
4.661400314990275947e-04
5.675479577278327555e-04
5.228147746578038586e-04
5.468178318190499527e-04
6.038195984222807094e-04
6.367301648265020131e-04
5.628093350277773828e-04
1.362081033604668268e-04
3.282526684287774576e-04
4.706466814056570170e-04
4.967853738763983954e-04
3.835058862836825339e-04
2.826933868558698061e-04
3.855132103111521538e-04
5.566740497003644329e-04
2.063533547606220234e-04
3.570245572700101963e-04
5.214108732302433604e-04
4.344306801166892304e-04
4.455344318787003168e-04
4.014563838832317481e-04
5.131966801844667445e-04
5.102130643780159684e-04
5.752470131487223215e-04
4.402573465308822192e-04
5.537460259869741086e-04
4.466902742901620021e-04
4.060896891371997192e-04
6.117659085481352800e-04
6.010003932740299584e-04
4.072604822732631548e-04
6.250161774761555647e-04
4.879549365649939316e-04
5.055912087295974132e-04
5.852250605105735297e-04
4.272654980388588208e-04
5.072460552308536786e-04
4.691468303910951705e-04
5.057355589218761162e-04
4.772417961394145327e-04
4.925618414888105739e-04
5.336006342723482532e-04
5.750110661120477491e-04
5.796061429309579561e-04
5.097725384388787943e-04
5.325700751480560774e-04
6.173664689089359290e-04
6.030209647789948769e-04
5.198038595852288394e-04
5.692476564028946511e-04
5.222071885649675780e-04
6.104662363810108407e-04
5.388602140249048418e-04
5.381348200071999540e-04
5.589514330190590002e-04
5.394407374137151316e-04
6.618785610420529521e-04
7.247473160691027803e-05
4.079704524421699503e-04
4.935822284428832132e-04
3.973762554395301625e-04
3.875525648467085691e-04
5.259507364554501891e-04
3.545943548359239495e-04
5.469282116940373190e-04
4.580086825000160124e-04
6.174823843370194935e-04
4.457025329056312673e-04
4.653647228786173830e-04
5.879381439016031791e-04
5.346884414243878881e-04
5.639730786133166510e-04
5.406938541599276516e-04
6.185330512396527069e-04
5.515393274232008357e-04
5.260324923165638801e-04
4.413009638829911568e-04
4.735432896724157091e-04
5.427391700603569459e-04
5.174471333388216271e-04
4.572480407296898000e-04
6.387423620331932235e-04
4.672899125456164010e-04
5.574138740060552303e-04
6.404018451515729356e-04
4.944731213044395229e-04
5.983504719632008230e-04
5.095617142970256712e-04
5.505113704819881342e-04
5.145903621293879907e-04
5.036419843534283968e-04
5.704727168842689978e-04
6.046275052998132185e-04
5.038984176678009720e-04
5.338074841709529710e-04
5.489114536999173876e-04
5.184423973980729254e-04
5.139178633968248663e-04
4.918276000486356903e-04
5.807203977255683642e-04
6.159190873677392736e-04
6.463672315801091608e-04
6.412414513502547736e-04
6.482632767966185544e-04
5.302147209618181213e-04
5.043936840764452366e-04
5.955919686493302582e-04
4.445333957042547847e-04
5.098115238726505429e-04
3.474297405071290418e-04
5.414220869228100492e-04
5.541752442578206338e-04
4.847196659985526855e-04
3.250495466514720789e-04
4.282414113184830119e-04
3.914362757803330293e-04
5.233457146308460742e-04
4.413886811089776183e-04
6.050579536935699618e-04
3.998754393814310353e-04
5.282166228561755708e-04
4.818381503936546191e-04
6.064410376564950992e-04
6.023744405648064548e-04
5.551381939344672773e-04
5.827246464457623305e-04
5.441419833022659389e-04
6.196738956140929264e-04
5.978501904380762550e-04
5.109156064970414145e-04
4.806542990297744760e-04
5.248422064636145161e-04
4.718555137270997340e-04
6.075995295634557033e-04
6.464461013836256265e-04
4.914737977746729035e-04
6.226069817563832697e-04
6.031449233184148998e-04
4.941534312850271110e-04
5.276668998525417499e-04
5.924835899923259217e-04
5.156801564030517740e-04
5.168538829091320419e-04
6.274228183252681008e-04
5.344366920395582582e-04
5.434286066391460232e-04
5.065712381897290477e-04
4.910067295681257420e-04
4.888299797659755768e-04
4.873213286413633958e-04
5.753734792463823878e-04
5.343056366371944609e-04
6.592122696340333658e-04
6.080822581808992093e-04
5.841053174752864219e-04
5.805224898742730733e-04
5.580272322140858530e-04
5.683512279882420347e-04
3.421992342364326670e-04
4.300119839981444677e-04
5.662209862945841816e-04
3.489598714702514624e-04
4.333086187728405077e-04
4.085112807109140599e-04
4.015053995499642120e-04
4.667583101986994150e-04
5.455939068357466100e-04
5.767994755739080720e-04
5.066885256779817600e-04
5.852755901747339626e-04
6.301228908009007040e-04
6.262467261982065025e-04
4.551685652622906321e-04
5.009394516319752490e-04
4.597589581516579480e-04
6.233492189954748961e-04
6.127162258087418423e-04
4.710361572440177006e-04
5.121545295173661689e-04
5.390451582732226935e-04
5.277991380653962667e-04
6.388449353589422753e-04
5.219482003799352440e-04
5.606200474344265675e-04
6.244667383470396032e-04
6.057242544991620634e-04
5.278738443759856819e-04
5.060322077929307666e-04
5.957709515327752310e-04
4.720186469499699339e-04
4.961199246943595468e-04
5.199603690693514442e-04
5.732833111721477885e-04
5.170396787810031466e-04
6.554662141853104945e-04
6.581124451274087588e-04
6.037157003487821170e-04
6.522125390876347710e-04
5.720621776216023484e-04
5.666284408524026621e-04
5.513500304322773967e-04
5.354853245081474993e-04
6.391500531531098478e-04
5.754180002332503346e-04
5.995722678876211961e-04
5.687752892053492184e-04
6.033742466163417688e-04
5.843813854438037469e-04
5.107276342538676246e-04
4.970856184913444858e-04
2.967880878493738038e-04
3.385500509668939160e-04
4.730528018181537125e-04
4.895899118500074117e-04
5.625560243331001768e-04
5.519621585173978013e-04
4.762794615242229440e-04
4.493328621759490565e-04
5.841604837565703015e-04
4.916563764020094249e-04
4.468573817562807699e-04
4.579375719333181999e-04
5.143615592680769082e-04
5.392863096760561062e-04
4.993133710818514802e-04
5.014885122617342454e-04
5.862591680663376470e-04
4.754528189285185994e-04
5.820099923473125896e-04
5.482524390069477057e-04
5.397284915498800706e-04
4.988421393823770514e-04
4.624684457987960490e-04
5.759924676323485314e-04
6.221958368298339181e-04
5.970949895960070810e-04
5.353026039435521567e-04
5.331142152861739845e-04
5.244043773323960305e-04
5.615970962121217625e-04
5.222276748426655808e-04
6.422019880935004796e-04
5.807809576226896208e-04
5.813263751961374615e-04
5.156285385532398359e-04
5.453101269428302931e-04
5.732389321225386629e-04
6.232366154367652376e-04
5.530101286121123262e-04
6.217651991863985296e-04
5.769707465329539445e-04
6.271234253338752633e-04
5.954196095046329889e-04
5.843387569537208427e-04
5.657517417167341181e-04
5.633987058390577769e-04
5.181103115247184679e-04
4.471367615941719467e-04
4.348544574592787173e-04
5.818030478238687660e-04
5.084509606214675974e-04
3.958449653221269345e-04
4.761808151293028530e-04
5.539602566230403518e-04
4.789869147373171268e-04
4.586996803886528285e-04
5.480524494091889437e-04
6.062568977193107849e-04
4.450627270550297086e-04
4.473244972752476469e-04
6.111677849392242127e-04
4.756933079574771875e-04
5.190575061656296611e-04
5.086130529711060076e-04
5.079538017160381818e-04
4.946500224414209163e-04
4.888411454970072959e-04
4.864474682508723074e-04
5.109561059282412407e-04
4.917485883078604033e-04
5.608344200077516320e-04
5.340308461040069610e-04
5.132909265243616953e-04
5.797623685405628099e-04
5.139375453633893316e-04
5.333247082410898579e-04
6.272347987696745954e-04
6.236119921740774239e-04
5.399946239102758946e-04
5.178898829616812019e-04
5.920841312334240757e-04
5.161320846353187027e-04
5.652758734001364594e-04
6.290931833001617811e-04
6.489626016711095256e-04
5.947054758427991429e-04
5.601791903083519269e-04
6.076237535223040758e-04
5.619301283338686871e-04
5.708993329720360487e-04
5.574850791975923111e-04
5.411044786498612168e-04
5.457101534507675326e-04
6.665162663510461718e-04
6.257098721727111235e-04
5.571552170079602543e-04
5.089924039516667076e-04
3.395367987906124682e-04
4.237521250698563858e-04
4.519164041620429861e-04
4.752310183053121313e-04
6.084834674993270598e-04
3.876189678276535785e-04
4.842166403530897135e-04
5.242381688022501769e-04
4.177142087020335390e-04
5.707065821744799908e-04
4.617034039734446422e-04
4.514194345062921615e-04
4.838504422251849895e-04
5.224000812997825656e-04
5.414739413347201312e-04
5.550809459067199267e-04
5.479547965750809812e-04
4.952008809431257411e-04
5.435514296804950423e-04
5.903009261377224846e-04
5.611450260425959041e-04
4.685462465363635044e-04
6.287355960326290174e-04
4.649024332264523811e-04
5.413259480861301641e-04
6.620941637382882347e-04
5.659271761687071495e-04
5.057958822568991205e-04
5.476922126461569902e-04
6.150610293254032968e-04
6.259922800054582926e-04
6.058032189275177433e-04
5.176915019861896231e-04
5.536065962863364947e-04
6.406891261635415868e-04
5.892671024564761183e-04
5.243815727461364129e-04
6.391884708378460945e-04
5.861746207724660533e-04
5.777903868905537831e-04
5.631166291932479659e-04
6.617286752966780507e-04
5.466507243529312391e-04
6.067268046710355646e-04
6.383814155838668384e-04
6.233459071261012070e-04
5.915052637793007930e-04
6.482977202381061789e-04
5.425398428364727917e-04
5.374655385191715214e-04
3.962996849871518201e-04
3.879849057372504093e-04
3.974462305081569169e-04
5.496067570187401297e-04
4.892195975415952443e-04
6.164695200576674177e-04
4.227426199722977688e-04
5.582003956699167681e-04
6.055999174603850753e-04
4.751083372012220962e-04
5.511859036485950141e-04
5.384370990561900168e-04
6.155180199865702443e-04
4.677708906035336857e-04
6.061737697980281630e-04
5.498441707404230641e-04
5.823192736344073210e-04
6.273188729393499013e-04
5.255799963352613411e-04
5.902906120302441268e-04
5.456030381327344652e-04
5.370604022699145474e-04
5.866616548200954311e-04
6.181660488006142287e-04
5.147175379133424886e-04
6.013264231576723228e-04
5.801006996533078974e-04
6.529641441858123965e-04
6.158400283145443795e-04
4.847539201903619359e-04
6.382297792789657156e-04
5.181284794938547473e-04
6.517836993161452109e-04
5.751047920153266966e-04
5.187951587988039225e-04
6.638882033780842953e-04
5.964315748480122047e-04
5.961623671803405102e-04
6.025311866110272035e-04
5.419818874718241924e-04
5.478814623246607137e-04
5.584226221048998627e-04
5.569937397197768448e-04
5.720154329510118924e-04
5.783505659389248914e-04
5.936229676817576708e-04
6.104499609086596040e-04
5.434881256630354901e-04
6.056249930427868092e-04
6.264485609803308085e-04
5.924692070167596192e-04
5.066396046360885103e-04
5.098945098566744520e-04
4.479348274884222773e-04
5.588379778367958718e-04
5.831334730637500671e-04
5.944447370982405875e-04
5.588395391466436648e-04
4.892582991008491335e-04
4.875336667806445964e-04
4.418800678992125834e-04
5.526865116618707909e-04
4.673968859263906471e-04
6.475283256701493476e-04
5.138198320633599386e-04
4.912983633226999805e-04
5.203166789015543827e-04
6.038404158869160702e-04
5.620732957156567792e-04
5.254828166253496663e-04
6.248910834386646462e-04
5.913884494152443685e-04
5.108533433528137605e-04
6.129625342653144881e-04
6.564719342892990804e-04
6.492505450569530014e-04
6.023301561400365434e-04
6.509130088577691530e-04
5.827483499679949165e-04
5.920093776104150534e-04
6.067696697232167211e-04
5.808367862778482165e-04
5.416024891788437769e-04
6.691743727104704784e-04
5.191137133201453304e-04
6.202656793587740412e-04
5.479064432822232334e-04
6.043067744071689085e-04
6.345506709040136606e-04
5.489319399776153904e-04
5.438919371645428149e-04
5.760048161738708615e-04
5.616909640526595313e-04
5.497304789960620088e-04
5.354062654549526052e-04
5.576872451666539752e-04
5.728968160162234901e-04
6.389416892570771609e-04
5.883238347463938317e-04
5.763441881598477387e-04
5.449796970041627343e-04
4.251293896051674113e-04
4.422268679350707557e-04
6.065588455813635980e-04
4.409095009230061079e-04
5.775335750768241343e-04
4.951300069385261267e-04
4.852609200790733673e-04
5.725440073030728860e-04
5.854336136562846449e-04
6.042947570525839364e-04
6.505783208013352211e-04
4.971544580619003447e-04
5.734524057598908674e-04
4.894480692159688603e-04
5.895018666826600797e-04
5.038776948280048254e-04
6.157128052181701661e-04
5.735014687390429383e-04
6.456973350306255107e-04
6.451025706035078480e-04
4.889886183089813682e-04
6.253444783559399369e-04
6.265284716570790639e-04
5.838845104128921907e-04
4.947080747803019127e-04
5.514215668107518356e-04
6.270979239396968488e-04
6.307356339474762177e-04
5.800559894167614137e-04
5.452709049469605090e-04
5.266998813078072701e-04
6.176906062957932507e-04
6.318928957315266036e-04
5.730689859112423311e-04
6.348197366344264254e-04
6.359332817427424019e-04
6.320270264411661631e-04
6.656029947150067082e-04
6.678315989290668471e-04
6.399910787243805492e-04
5.656606179965345364e-04
5.411194766868826283e-04
6.005316218203762910e-04
5.976453276610960109e-04
6.341878792703219483e-04
5.629865200392766356e-04
6.453155238042442661e-04
6.165013613160756764e-04
6.667385874108684805e-04
6.235988393214213395e-04
6.002403665651589093e-04
5.814861019247945413e-04
4.908857990235617657e-04
4.880755359226203872e-04
5.502123086775325463e-04
4.382750507733947261e-04
5.414319279060923360e-04
5.507407410923346102e-04
4.599367582246121472e-04
6.497043657860049727e-04
5.113466699522533753e-04
5.805460514592468381e-04
5.817471245438708477e-04
4.767673945078251818e-04
5.904542183773105061e-04
6.373244088170037808e-04
4.837444150928032647e-04
6.151017180062816597e-04
6.617398410277097699e-04
6.190570362870099694e-04
6.085579372478183311e-04
5.370858563516733549e-04
5.642430905921218829e-04
6.568780167869484130e-04
6.289106992976645823e-04
5.342400616235927924e-04
6.306827386623343459e-04
5.247568075461896695e-04
5.225593349042434660e-04
5.622718659408268947e-04
6.283121971893964415e-04
5.676981746601451233e-04
5.906193387218049628e-04
5.230298569174233548e-04
5.491980250255917156e-04
6.695577925591191231e-04
5.577002087696314144e-04
5.858506726352871600e-04
5.719306490950422633e-04
5.548000047589811195e-04
6.684860243173327979e-04
5.865129045727915337e-04
6.443126424454331900e-04
6.025239478108243910e-04
6.055113012984256454e-04
5.567306353542370674e-04
6.115240474590075441e-04
5.455327791895899598e-04
5.715602874742103804e-04
4.983262920711954615e-04
5.037293703924775002e-04
6.377315321878850116e-04
4.659666787935181969e-04
6.179078176142959334e-04
6.233942604189588463e-04
5.480464407318963492e-04
6.055055291832313032e-04
4.306419961778834007e-04
5.129153605373709722e-04
5.003166782524390201e-04
5.676703076449854867e-04
5.478843956946775461e-04
6.188166891953102025e-04
5.492351652749981371e-04
6.029389723557831504e-04
6.403551477934021951e-04
5.835834614868123460e-04
6.194013760770475429e-04
5.479661515557912371e-04
6.542888919353386781e-04
6.060397337132278177e-04
5.926610588783428170e-04
6.176244635331561888e-04
6.054571758903736639e-04
5.349104786096924458e-04
6.477275582691940708e-04
6.547051939156272628e-04
5.027529366762374143e-04
6.616136114921476307e-04
5.620694634096670868e-04
5.872019626522236458e-04
5.669774172595636822e-04
6.355749374764955995e-04
6.456159576688688933e-04
6.046791231496251567e-04
5.787377707811435130e-04
6.515979980691135372e-04
5.449359330160087177e-04
5.689428224832447211e-04
6.178310768696626543e-04
6.083580895873183904e-04
6.291286676148811954e-04
6.509677966396960674e-04
5.794782574607090266e-04
6.455463137871794970e-04
5.864513511148580945e-04
6.361653018485880677e-04
6.259206963145642465e-04
5.854801690771965642e-04
5.148577719251138567e-04
4.776294267934098350e-04
5.435001903300400693e-04
5.528776065247400584e-04
5.441804009870021856e-04
4.934430826167633503e-04
4.951229100755822439e-04
5.050384577311075457e-04
4.944384886132733616e-04
5.506305977794453878e-04
5.916777175488372766e-04
6.083718575014294755e-04
6.149405245926161095e-04
6.332968444715067089e-04
6.236276052725539445e-04
6.045647217189695612e-04
4.724617750721864739e-04
5.453999732276999411e-04
6.577390081993012222e-04
6.224223213825831689e-04
5.700192273421543845e-04
5.860664172687814807e-04
6.239578932739626820e-04
5.960081286923600216e-04
5.876562091930522978e-04
5.628416967228016448e-04
5.440455605910681945e-04
5.457094437644732093e-04
5.395126522915465357e-04
5.179512471699361043e-04
5.407298589112629608e-04
6.497271703722646988e-04
6.242924867055572912e-04
6.334702444894357680e-04
5.837433774651479626e-04
5.607614642566883297e-04
5.803064613662611100e-04
5.919592737580313012e-04
6.375575644209204506e-04
5.793927639184449658e-04
6.562040986817965337e-04
5.881813297384805642e-04
6.069174264097085443e-04
5.797152453706153888e-04
6.305264184278902779e-04
5.514541650678740246e-04
6.262376422136384712e-04
6.556932191746757486e-04
5.672019146906886761e-04
6.229492397999572637e-04
6.192803509076444607e-04
6.252950841898505079e-04
6.221834882883115880e-04
5.990081145960014656e-04
6.255624939855762654e-04
6.421049976332673416e-04
5.636052718631446353e-04
5.140484929874121998e-04
6.129641428875817798e-04
6.542854854411255579e-04
5.272910499910333842e-04
4.995206467922327703e-04
6.268383206932092973e-04
6.553171327510691306e-04
5.227457931499891785e-04
6.468442827071975388e-04
5.070820230720107270e-04
5.313567481467489518e-04
5.839539177324834431e-04
6.311651360928404939e-04
5.950924441229196206e-04
5.623527228659675088e-04
5.978565776147257062e-04
5.922942456889828755e-04
6.379890063754893766e-04
6.410600555334089717e-04
6.541086789289834872e-04
6.537010824339060770e-04
5.830908918860867700e-04
6.220481747681813091e-04
6.291064307776570797e-04
5.653322698043305571e-04
6.384547025218674987e-04
5.666269741673943001e-04
6.398241605079402639e-04
6.700346544365289644e-04
6.347317355339221045e-04
5.565662246960369338e-04
6.417854968635334665e-04
5.684326526624182592e-04
5.667143602064435119e-04
6.503296467237813534e-04
5.505182307828337647e-04
5.808524466887444527e-04
6.444610141933802307e-04
5.838380496168194857e-04
5.931920461638046397e-04
6.241149705071207887e-04
5.838608542030792117e-04
5.911659391057435230e-04
4.203563707760439670e-04
5.147669320794319176e-04
5.319482480169124240e-04
5.310087653004002227e-04
5.319713364776899010e-04
5.318733051442249733e-04
5.451268386291994485e-04
5.642646650554712824e-04
5.893401055199589192e-04
6.238453370276725220e-04
6.442775366300707409e-04
5.108085858038476697e-04
6.034483378654759665e-04
6.501922514571877119e-04
5.454143088908466365e-04
5.312409273435047099e-04
5.729366057611288846e-04
5.249099578485188697e-04
6.043591965681146009e-04
6.336451585047927961e-04
6.062454954261810303e-04
5.395434053643033976e-04
6.407567829236066178e-04
5.915259393066772241e-04
6.044647505762999837e-04
5.478071818258479792e-04
6.251929839882977439e-04
5.717983162573485323e-04
5.922257846177840903e-04
6.158710179493993853e-04
5.803080699885284017e-04
6.321363181305020241e-04
6.040184052095489689e-04
5.325663374669057076e-04
5.685513595232597264e-04
6.225732953136096839e-04
6.359656907501861625e-04
5.958739506703009635e-04
5.771240860849616815e-04
5.563290948488717504e-04
5.653129663371231654e-04
6.389574916052323268e-04
5.829680688447377510e-04
6.618862256540324453e-04
6.237820330102129699e-04
6.396964642873697628e-04
6.055370392547023122e-04
5.746715521888119422e-04
6.060381724033801331e-04
6.090799824859708354e-04
6.153763192897906227e-04
4.975366004752190558e-04
5.196838279766378315e-04
6.597537602766520830e-04
6.246509729090630233e-04
5.087681430826397492e-04
6.188420486522296874e-04
6.488211848488475465e-04
5.077578809863671477e-04
4.828727783860345770e-04
5.497714042390384071e-04
5.918264677961411740e-04
5.761588654121730302e-04
5.193402451853142967e-04
5.600809224127888553e-04
6.373227528823168821e-04
6.461530482564625246e-04
5.559194639197504763e-04
5.081014637776907908e-04
6.418232048619752815e-04
5.808045192076632772e-04
6.195757223433690690e-04
5.677741110936447566e-04
5.531609132934600876e-04
6.299756545510247756e-04
6.430421620412179280e-04
5.730152390025472064e-04
5.595099088203234943e-04
5.349492747937856577e-04
5.973852986028317788e-04
6.570500447447083243e-04
5.649391509096586637e-04
6.386573416151253421e-04
5.840462242631737442e-04
6.237803770755260711e-04
6.079739127399557070e-04
5.886011801502410903e-04
5.867020123140363275e-04
6.470451239285096622e-04
5.555978814035529133e-04
6.056814367594006224e-04
5.485538664323845156e-04
6.381780668043145633e-04
6.339148866090802770e-04
5.837843973329636836e-04
6.647845371678976975e-04
5.840833172001603417e-04
6.576625513291856941e-04
6.408344699166324725e-04
6.035167989366747518e-04
6.190259993397353565e-04
5.549618605465214943e-04
5.276971798011024324e-04
5.200005846260335194e-04
6.191135273160433897e-04
6.323799297791560898e-04
6.446740620189557545e-04
5.087118413032849741e-04
6.256407487276376220e-04
5.880490442132064403e-04
5.330643479958882677e-04
5.058862962908043789e-04
6.461446739581888166e-04
6.445062921789622163e-04
5.604825575429934949e-04
6.315591539234852473e-04
5.993638566791689021e-04
5.634311148465015375e-04
6.405154895835143839e-04
5.804124884986428890e-04
6.071307581098019275e-04
6.129576610860931144e-04
5.862822092146954085e-04
5.661019009343856408e-04
6.589430146539420642e-04
6.565998670719676170e-04
6.295681999932062952e-04
6.032359051013555518e-04
5.719843013788979569e-04
6.180507957464054887e-04
5.824947553987998511e-04
5.623457206278629486e-04
6.077029545127578996e-04
5.925933074934383550e-04
6.691222344240428622e-04
6.240680365868519043e-04
6.535117854429826380e-04
5.690250041561348759e-04
6.295062207234962837e-04
5.791377499766612539e-04
6.190668772702921478e-04
6.245538878239905627e-04
6.569882074122572425e-04
5.827057687903316194e-04
6.458223344432772149e-04
6.586642971899256578e-04
6.443470858869209230e-04
5.678948997009498033e-04
6.659141211864667668e-04
5.648650596605243575e-04
5.099436201482462384e-04
5.803111452958040553e-04
6.019804700465813084e-04
6.293483864916241382e-04
6.364638432164276523e-04
6.063433375099674212e-04
5.048246529068179831e-04
5.667630919986582248e-04
5.448070066725281069e-04
5.282188465398979715e-04
6.543405570975702234e-04
6.147759719971570462e-04
5.410736309522650323e-04
5.297829005078921218e-04
6.413049446173927541e-04
5.530717766948848712e-04
6.308084950737001973e-04
6.014942876225051836e-04
6.268070471838366490e-04
5.639884078372754206e-04
6.514056730833340516e-04
6.317123042258144475e-04
6.147148916634200032e-04
5.285796983643849256e-04
5.506101115017473851e-04
6.377874554678829300e-04
5.750688345764109945e-04
6.376816648975992948e-04
5.913383455628603994e-04
5.567022952148811430e-04
5.947023059106841666e-04
5.867486150473679623e-04
5.506192427987351319e-04
5.734219838740713636e-04
6.042964129872709436e-04
5.727332569815766095e-04
6.604620745108719798e-04
5.480782346778850008e-04
6.444409537274586918e-04
6.633343641939430310e-04
6.363316050035732439e-04
6.438150577282273105e-04
6.581599941091327522e-04
6.609088456893997838e-04
6.107711176130803778e-04
6.428596780387207292e-04
6.155360460184477025e-04
6.152850063199125042e-04
6.089326989236754084e-04
5.942700596449815948e-04
