2.857347395212688629e-02
2.854197065679120113e-02
2.859872475009973131e-02
2.843590409280230200e-02
2.848483297468739836e-02
2.882674697839700609e-02
2.850500122112296572e-02
2.859853295570210022e-02
2.828520057933756743e-02
2.856618789606568676e-02
2.884039421531304354e-02
2.859738432036516148e-02
2.865376334907387967e-02
2.855720126301213718e-02
2.916485066674029750e-02
2.883446137527958739e-02
2.865054120319364059e-02
2.838625491640164866e-02
2.852248647704052828e-02
2.839564431769022596e-02
2.854325994135306632e-02
2.885524123273871394e-02
2.894908196940292749e-02
2.855175643316821762e-02
2.850287017226037570e-02
2.848900130626262975e-02
2.837681863203809704e-02
2.869714511076965069e-02
2.837800775730342159e-02
2.858886012491479792e-02
2.829059852610651266e-02
2.842692811499306776e-02
2.831964472210363182e-02
2.844374635261663620e-02
2.856748144272528225e-02
