2.867877492243102108e-02
2.863886642598550969e-02
2.865933669062196293e-02
2.864805403530257255e-02
2.866601682806007786e-02
2.858667034919731148e-02
2.866976545011230837e-02
2.860172679810130472e-02
2.847787704999864278e-02
2.868360785664711421e-02
2.867590536774020787e-02
2.860942154192132672e-02
2.868925208871439536e-02
2.864735116866777564e-02
2.862948712576805083e-02
2.868920174564964024e-02
2.868243060344062914e-02
2.843647375178437117e-02
2.816695828209635558e-02
2.821309576466894328e-02
2.832344001751628884e-02
2.841959527119073195e-02
2.864215615163981377e-02
2.866555212284699339e-02
2.861423704969193529e-02
2.866507773627530176e-02
2.855578294270083931e-02
2.868648322015308547e-02
2.866516874104619791e-02
2.868642706827317229e-02
2.835168441311333026e-02
2.836253721611061568e-02
2.841551554667417698e-02
2.851912738274693659e-02
2.867694127311104860e-02
