2.957658792823648561e-02
2.926192560244793642e-02
3.040436663923082664e-02
2.995043376938510277e-02
3.111675678857760835e-02
3.061704351419838183e-02
2.872677939207093911e-02
2.951851195284668425e-02
3.097514184729524556e-02
3.140982104206471032e-02
2.929026903117843209e-02
2.980922555182063602e-02
2.936013373709916649e-02
3.062728878036397387e-02
3.083828244486825146e-02
2.956229836828118060e-02
3.147588340266380819e-02
3.077784747191466760e-02
3.081003287545726332e-02
2.989350079193071191e-02
3.105149744660101740e-02
3.055989153166512734e-02
3.014826210000558226e-02
2.996040580064277675e-02
3.046762364905778939e-02
3.050236411185381497e-02
3.066229413501729215e-02
3.006260817077997805e-02
2.960175056891679521e-02
3.047690320711371817e-02
3.044323065479748874e-02
3.138790593383957578e-02
3.067313175777714937e-02
