2.488724646782329922e-02
2.633069811163797971e-02
3.976300086313713095e-02
3.422557231898300939e-02
2.813953482930368552e-02
3.543881510303276833e-02
2.836722275777934718e-02
2.428411301047454091e-02
2.489555132043982585e-02
2.147371804829639047e-02
2.125981508922452495e-02
3.110933926557677212e-02
2.898747010661901005e-02
3.741569580765545522e-02
3.300721010523813281e-02
2.375754346834388353e-02
2.346759758652036676e-02
2.819470314819496823e-02
2.332540930509428845e-02
2.863114228641545911e-02
2.570120476250046734e-02
2.229729337264577463e-02
4.267557110964702305e-02
2.640573654022976280e-02
2.473173215576659340e-02
3.189157519513807770e-02
2.545348641895002137e-02
2.521795386941627984e-02
2.284242472577706698e-02
2.536484271810788074e-02
2.490264871160805665e-02
2.552232464935548853e-02
5.924366417021598163e-02
2.609847767798275167e-02
2.468966492286781694e-02
