2.851952826615375067e-02
2.804133110090617498e-02
3.017528885840910571e-02
2.712491763607145084e-02
3.417036153998995879e-02
3.663358054735220415e-02
3.084304559998060982e-02
2.715870315583003916e-02
3.069614311867317064e-02
2.462774052967438287e-02
2.361210648675088342e-02
3.525358162932422379e-02
3.346848662585205636e-02
3.071594971705696175e-02
1.948108760675439782e-02
2.169863251095352150e-02
2.447913226479607116e-02
2.542672755335231502e-02
2.686441046917363226e-02
2.764288306932032729e-02
2.705457282238990860e-02
2.138765966207694519e-02
2.243496575391242323e-02
3.097777749059029903e-02
3.295306486106591021e-02
3.240037097491149654e-02
3.121527408732384379e-02
2.894255008598568130e-02
3.315381457770667784e-02
2.568045410549846946e-02
3.280851846205137118e-02
2.397925013831759752e-02
3.072977606834697423e-02
2.973599956593060353e-02
2.991231305751649097e-02
