2.000000000000038369e+01,2.999999997763290072e+00,9.999999999987448263e+00,6.600000000000837419e-01,1.569999999998155982e+00,2.869999999999983629e+03,-2.175000000001788614e+00,-4.945000000006280594e+00,1.339778749609707553e+01,-2.146298500319963054e+00
2.000000000000026290e+01,2.999999997641187299e+00,9.999999999961906028e+00,6.599999999999669464e-01,1.569999999999938556e+00,2.869999999999998181e+03,-2.175000000000492761e+00,-4.944999999999989626e+00,1.339615398425191373e+01,-2.156456609643606193e+00
2.000000000000123279e+01,2.999999999355753566e+00,9.999999999996736832e+00,6.599999999985994847e-01,1.569999999999151630e+00,2.869999999999982265e+03,-2.175000000003077805e+00,-4.945000000000172591e+00,1.342019752953954992e+01,-2.154070220885152764e+00
2.000000000000046541e+01,2.999999998721386785e+00,1.000000000003493916e+01,6.600000000002810285e-01,1.570000000000042695e+00,2.869999999999957708e+03,-2.174999999999556621e+00,-4.945000000000214335e+00,1.340129415684812386e+01,-2.155227917841780361e+00
2.000000000000069278e+01,2.999999999203880385e+00,1.000000000002179945e+01,6.600000000000945111e-01,1.569999999997634399e+00,2.869999999999968168e+03,-2.175000000002053291e+00,-4.945000000006837482e+00,1.340817657817486008e+01,-2.139720320712807045e+00
2.000000000000044409e+01,2.999999998763656528e+00,1.000000000000193623e+01,6.599999999999962563e-01,1.569999999999586837e+00,2.869999999999984993e+03,-2.175000000000662848e+00,-4.944999999999767581e+00,1.339729205811226542e+01,-2.191476571405811313e+00
2.000000000000062172e+01,2.999999998653700928e+00,1.000000000002794032e+01,6.600000000003670708e-01,1.569999999999951656e+00,2.869999999999984084e+03,-2.174999999999859490e+00,-4.944999999999363460e+00,1.338615690292450289e+01,-2.202311271703224271e+00
1.999999999999923972e+01,2.999999997791497730e+00,9.999999999976743936e+00,6.599999999997574474e-01,1.569999999998632045e+00,2.869999999999997726e+03,-2.175000000001690026e+00,-4.945000000004366569e+00,1.339289272330491265e+01,-2.143487868133246099e+00
2.000000000000107292e+01,2.999999998669630408e+00,1.000000000000888711e+01,6.599999999993547695e-01,1.569999999997026441e+00,2.869999999999970441e+03,-2.175000000003945555e+00,-4.945000000008262120e+00,1.339138142688563171e+01,-2.152527432854341338e+00
2.000000000000086686e+01,2.999999998526655887e+00,1.000000000000806288e+01,6.599999999995826983e-01,1.569999999998638485e+00,2.869999999999970441e+03,-2.175000000002183409e+00,-4.945000000003491714e+00,1.340208017807235308e+01,-2.149530352668665767e+00
2.000000000000058975e+01,2.999999998521757139e+00,1.000000000000807354e+01,6.600000000000969536e-01,1.569999999999383666e+00,2.869999999999976353e+03,-2.175000000000883560e+00,-4.945000000001648743e+00,1.339707316589701236e+01,-2.150913945925964743e+00
2.000000000000062883e+01,2.999999999875693657e+00,9.999999999987151611e+00,6.599999999995720401e-01,1.569999999999728058e+00,2.869999999999979991e+03,-2.175000000001030553e+00,-4.945000000000085549e+00,1.340582521231206492e+01,-2.159078029300336876e+00
2.000000000000094857e+01,2.999999999608688572e+00,9.999999999999564793e+00,6.600000000003740652e-01,1.569999999998120677e+00,2.869999999999994998e+03,-2.175000000001527045e+00,-4.945000000005701501e+00,1.339854133264756619e+01,-2.182838954446882695e+00
2.000000000000144240e+01,2.999999997148309117e+00,1.000000000002061107e+01,6.600000000010011192e-01,1.569999999996276152e+00,2.869999999999952706e+03,-2.175000000002121237e+00,-4.945000000011546604e+00,1.338088641709623161e+01,-2.142958015051078302e+00
2.000000000000039790e+01,2.999999998200270745e+00,9.999999999987354116e+00,6.600000000004602185e-01,1.569999999998932250e+00,2.869999999999966803e+03,-2.175000000000233413e+00,-4.945000000004800889e+00,1.339725579015449419e+01,-2.120323798992907793e+00
2.000000000000090594e+01,2.999999998226369868e+00,1.000000000001248779e+01,6.600000000005253886e-01,1.569999999998133777e+00,2.869999999999961346e+03,-2.175000000001160227e+00,-4.945000000006757546e+00,1.339492419944051349e+01,-2.129054512690819578e+00
2.000000000000127542e+01,2.999999998456235328e+00,1.000000000003421974e+01,6.600000000003312106e-01,1.569999999998064055e+00,2.869999999999962711e+03,-2.175000000001378275e+00,-4.945000000006214869e+00,1.340119802350672273e+01,-2.166101850934312179e+00
2.000000000000007105e+01,2.999999998768773324e+00,1.000000000000105693e+01,6.600000000002375078e-01,1.570000000001459783e+00,2.869999999999975898e+03,-2.174999999998392219e+00,-4.944999999996265494e+00,1.341332998455406944e+01,-2.150411950835256381e+00
1.999999999999969091e+01,2.999999999422003683e+00,1.000000000002474287e+01,6.600000000018435564e-01,1.570000000003239249e+00,2.869999999999953616e+03,-2.174999999994618793e+00,-4.944999999992122142e+00,1.340146693857828453e+01,-2.134485072752582369e+00
2.000000000000003553e+01,2.999999999391843364e+00,1.000000000001378275e+01,6.600000000014670798e-01,1.570000000002364837e+00,2.869999999999962711e+03,-2.174999999996106492e+00,-4.944999999994191597e+00,1.339811154866866261e+01,-2.132685309728799439e+00
2.000000000000045119e+01,2.999999999480135404e+00,1.000000000001858602e+01,6.600000000004987433e-01,1.570000000000298268e+00,2.869999999999967713e+03,-2.174999999999090328e+00,-4.944999999999946105e+00,1.340730657300627193e+01,-2.163479493405607190e+00
2.000000000000096989e+01,2.999999998566561743e+00,1.000000000000191314e+01,6.600000000006958079e-01,1.569999999999459828e+00,2.869999999999982720e+03,-2.175000000000066880e+00,-4.945000000002416130e+00,1.340410689465396921e+01,-2.173928783139723375e+00
2.000000000000118661e+01,2.999999997378567596e+00,1.000000000007459100e+01,6.600000000003178879e-01,1.570000000000509877e+00,2.869999999999961801e+03,-2.174999999999625455e+00,-4.944999999996976925e+00,1.339248390899057384e+01,-2.145220450110083110e+00
2.000000000000170886e+01,2.999999997705470545e+00,1.000000000008390089e+01,6.600000000006966960e-01,1.570000000000677964e+00,2.869999999999972260e+03,-2.174999999999291944e+00,-4.944999999997760298e+00,1.338229207167600521e+01,-2.162808861999799159e+00
2.000000000000254019e+01,2.999999996604753694e+00,1.000000000011791990e+01,6.600000000003662937e-01,1.569999999999651230e+00,2.869999999999954980e+03,-2.175000000000749889e+00,-4.944999999999743601e+00,1.337337419733118082e+01,-2.164039886014794245e+00
2.000000000000042277e+01,2.999999998976127014e+00,9.999999999982239984e+00,6.599999999992377520e-01,1.569999999999537099e+00,2.869999999999973170e+03,-2.175000000001422684e+00,-4.944999999999465601e+00,1.340696631382736648e+01,-2.202250120123114385e+00
1.999999999999996803e+01,2.999999998857529437e+00,9.999999999953653074e+00,6.599999999992000044e-01,1.569999999999933893e+00,2.869999999999987722e+03,-2.175000000001288569e+00,-4.944999999999039275e+00,1.340609407689344224e+01,-2.196750679350516489e+00
2.000000000000145661e+01,2.999999998455835204e+00,1.000000000011793944e+01,6.600000000008456880e-01,1.570000000000835394e+00,2.869999999999944521e+03,-2.174999999998691091e+00,-4.944999999997059525e+00,1.338436730808578901e+01,-2.174436885874445835e+00
2.000000000000127542e+01,2.999999998515384902e+00,1.000000000007947243e+01,6.600000000006772671e-01,1.569999999999426965e+00,2.869999999999949978e+03,-2.174999999999898126e+00,-4.945000000001521734e+00,1.338818799763110867e+01,-2.178708789352737263e+00
2.000000000000090239e+01,2.999999998117125255e+00,1.000000000000819966e+01,6.600000000006618350e-01,1.569999999996813056e+00,2.869999999999969987e+03,-2.175000000002144329e+00,-4.945000000009808439e+00,1.337994263802687200e+01,-2.183774949298525225e+00
2.000000000000072475e+01,2.999999998904956389e+00,1.000000000001504574e+01,6.600000000005449285e-01,1.569999999997421014e+00,2.869999999999970441e+03,-2.175000000001624745e+00,-4.945000000007865992e+00,1.338908666135222347e+01,-2.185764690116509978e+00
2.000000000000078515e+01,2.999999998544050417e+00,1.000000000001948131e+01,6.599999999998170663e-01,1.569999999999402984e+00,2.869999999999974534e+03,-2.175000000001310330e+00,-4.945000000000464802e+00,1.339391520569910199e+01,-2.181576807310544375e+00
2.000000000000063594e+01,2.999999998851575533e+00,1.000000000003245582e+01,6.599999999999175415e-01,1.569999999999429408e+00,2.869999999999971806e+03,-2.175000000000975042e+00,-4.945000000000920437e+00,1.340132427272135729e+01,-2.150766977361890486e+00
1.999999999999995381e+01,2.999999999577524612e+00,9.999999999989748645e+00,6.599999999998454880e-01,1.569999999999014628e+00,2.869999999999970896e+03,-2.175000000001176659e+00,-4.945000000003380691e+00,1.340616554210993527e+01,-2.150999018268742624e+00
2.000000000000038725e+01,2.999999999374698856e+00,9.999999999984201082e+00,6.600000000005642464e-01,1.569999999999992735e+00,2.869999999999998636e+03,-2.174999999999672973e+00,-4.945000000000395524e+00,1.340588467100918812e+01,-2.174728858104974627e+00
1.999999999999864997e+01,2.999999999459947553e+00,9.999999999946696860e+00,6.600000000006271961e-01,1.570000000001340767e+00,2.870000000000003638e+03,-2.174999999997764721e+00,-4.944999999998364260e+00,1.341829782723996445e+01,-2.163299238326231944e+00
2.000000000000089528e+01,2.999999998424770276e+00,1.000000000002741807e+01,6.600000000006910339e-01,1.569999999999543761e+00,2.869999999999973170e+03,-2.174999999999943423e+00,-4.945000000003109797e+00,1.338922298922193654e+01,-2.137220227684350604e+00
2.000000000000042633e+01,2.999999998079871055e+00,9.999999999966918907e+00,6.599999999991180699e-01,1.569999999996827045e+00,2.869999999999982265e+03,-2.175000000004272405e+00,-4.945000000009078356e+00,1.338739106963152281e+01,-2.122801366678938262e+00
2.000000000000105160e+01,2.999999997671476404e+00,9.999999999978149035e+00,6.599999999998501510e-01,1.569999999995706386e+00,2.869999999999979536e+03,-2.175000000004468692e+00,-4.945000000012443664e+00,1.338891678710228028e+01,-2.116196157924950860e+00
2.000000000000163780e+01,2.999999999043488241e+00,1.000000000003644018e+01,6.599999999998337197e-01,1.569999999999952545e+00,2.869999999999966349e+03,-2.175000000000931077e+00,-4.944999999999530438e+00,1.340574132685994790e+01,-2.155440948940424040e+00
2.000000000000040856e+01,2.999999999382568117e+00,1.000000000002159162e+01,6.600000000005208367e-01,1.570000000000813856e+00,2.869999999999961346e+03,-2.174999999998704858e+00,-4.944999999998625384e+00,1.340934174421878033e+01,-2.141872976874109824e+00
2.000000000000023093e+01,3.000000000001584954e+00,9.999999999991358024e+00,6.600000000004295764e-01,1.570000000000838725e+00,2.869999999999976353e+03,-2.174999999998918909e+00,-4.944999999998525908e+00,1.341490845810800714e+01,-2.143864208059773624e+00
2.000000000000170175e+01,2.999999998286698499e+00,9.999999999985833554e+00,6.599999999998296119e-01,1.569999999997637508e+00,2.869999999999978627e+03,-2.175000000003213696e+00,-4.945000000006977814e+00,1.339638221037213484e+01,-2.155307876603867356e+00
2.000000000000124700e+01,2.999999998187025785e+00,1.000000000001111822e+01,6.599999999997538946e-01,1.569999999997626405e+00,2.869999999999974079e+03,-2.175000000002994316e+00,-4.945000000006566587e+00,1.338973303672838000e+01,-2.145243361492100931e+00
2.000000000000192912e+01,2.999999998361841946e+00,1.000000000004352430e+01,6.599999999996004618e-01,1.569999999999583729e+00,2.869999999999953161e+03,-2.175000000001520828e+00,-4.944999999999894591e+00,1.339311909079436091e+01,-2.164528819751855515e+00
2.000000000000088107e+01,2.999999999344968860e+00,9.999999999989491073e+00,6.599999999994132782e-01,1.570000000000206120e+00,2.869999999999962256e+03,-2.175000000000843592e+00,-4.944999999998405116e+00,1.341429425578725088e+01,-2.138851142822825846e+00
1.999999999999897682e+01,2.999999999411315788e+00,9.999999999954297891e+00,6.600000000010468604e-01,1.570000000003539231e+00,2.870000000000004547e+03,-2.174999999995694822e+00,-4.944999999990215223e+00,1.341084304021403284e+01,-2.162355483864085937e+00
2.000000000000117595e+01,2.999999999218491809e+00,1.000000000009795187e+01,6.599999999996384314e-01,1.570000000001579465e+00,2.869999999999955890e+03,-2.174999999999143174e+00,-4.944999999992647943e+00,1.339385612251123270e+01,-2.171017708314308514e+00
2.000000000000189004e+01,2.999999998913013499e+00,1.000000000005069900e+01,6.599999999999767164e-01,1.569999999998936469e+00,2.869999999999960437e+03,-2.175000000001801936e+00,-4.945000000001775753e+00,1.339077999498611149e+01,-2.196585039086281999e+00
2.000000000000205347e+01,2.999999998688027247e+00,1.000000000000487610e+01,6.599999999995713740e-01,1.569999999997585771e+00,2.869999999999972715e+03,-2.175000000003751932e+00,-4.945000000004967866e+00,1.339473403825271092e+01,-2.179950974937447050e+00
2.000000000000041211e+01,2.999999999167351827e+00,1.000000000005009504e+01,6.600000000004011547e-01,1.570000000000592033e+00,2.869999999999967258e+03,-2.174999999999227995e+00,-4.944999999998352713e+00,1.340405716165522421e+01,-2.179659431503980116e+00
2.000000000000144595e+01,2.999999998416814417e+00,1.000000000001921663e+01,6.599999999995028732e-01,1.569999999996735118e+00,2.869999999999972715e+03,-2.175000000004041922e+00,-4.945000000007848229e+00,1.339089086756828273e+01,-2.197516367568077555e+00
2.000000000000122924e+01,2.999999998566719839e+00,1.000000000000448885e+01,6.599999999994191624e-01,1.569999999997852447e+00,2.869999999999964530e+03,-2.175000000003101341e+00,-4.945000000004468710e+00,1.340139203538562818e+01,-2.192043276017982656e+00
2.000000000000086331e+01,2.999999998821707425e+00,9.999999999981323384e+00,6.599999999990885380e-01,1.569999999997668594e+00,2.869999999999994088e+03,-2.175000000003957101e+00,-4.945000000005635776e+00,1.340481902852843277e+01,-2.169490948758947990e+00
2.000000000000045119e+01,2.999999998911307753e+00,1.000000000000571632e+01,6.600000000009395018e-01,1.569999999999887041e+00,2.869999999999994543e+03,-2.174999999999148947e+00,-4.945000000000775664e+00,1.341366695015893917e+01,-2.158872118749430413e+00
1.999999999999987566e+01,2.999999997500159665e+00,9.999999999983916865e+00,6.600000000011200241e-01,1.569999999999787343e+00,2.869999999999997272e+03,-2.174999999999126299e+00,-4.945000000002814922e+00,1.339929043006889131e+01,-2.141673361977186829e+00
2.000000000000098765e+01,2.999999998651992072e+00,9.999999999987139176e+00,6.599999999998380495e-01,1.569999999998459517e+00,2.869999999999993634e+03,-2.175000000002021761e+00,-4.945000000004715623e+00,1.339285688779085426e+01,-2.172090505338905686e+00
2.000000000000045119e+01,2.999999998256014599e+00,1.000000000009178791e+01,6.600000000015632251e-01,1.570000000000537188e+00,2.869999999999957254e+03,-2.174999999997420108e+00,-4.945000000000506546e+00,1.341446725793434958e+01,-2.184403847577761848e+00
2.000000000000073896e+01,2.999999999053565958e+00,9.999999999991942445e+00,6.599999999997421263e-01,1.570000000000416174e+00,2.869999999999985448e+03,-2.175000000000145928e+00,-4.944999999998973550e+00,1.338905602157650598e+01,-2.161208378956517961e+00
2.000000000000013856e+01,2.999999999049026922e+00,9.999999999952809304e+00,6.599999999985796117e-01,1.569999999998225926e+00,2.869999999999973170e+03,-2.175000000003400213e+00,-4.945000000004109886e+00,1.342161510222840093e+01,-2.142873631902712184e+00
2.000000000000057909e+01,2.999999999325681621e+00,9.999999999984469312e+00,6.599999999987589128e-01,1.569999999997693019e+00,2.869999999999969532e+03,-2.175000000003664447e+00,-4.945000000005835616e+00,1.341658180098561637e+01,-2.167072976103992410e+00
2.000000000000120082e+01,2.999999999281318441e+00,9.999999999957964292e+00,6.599999999989086819e-01,1.569999999997566453e+00,2.869999999999996817e+03,-2.175000000004130740e+00,-4.945000000005807195e+00,1.341978575142817576e+01,-2.170218282829553313e+00
2.000000000000024158e+01,3.000000000313426174e+00,9.999999999961676878e+00,6.599999999993751976e-01,1.569999999998440199e+00,2.869999999999992724e+03,-2.175000000002444978e+00,-4.945000000003060059e+00,1.340538478622463536e+01,-2.199192707821980175e+00
2.000000000000046541e+01,2.999999998872562301e+00,9.999999999984693133e+00,6.599999999997734346e-01,1.569999999999091456e+00,2.869999999999967713e+03,-2.175000000001093170e+00,-4.945000000002098162e+00,1.338933498478246698e+01,-2.192388157814832539e+00
2.000000000000052580e+01,2.999999998882592056e+00,9.999999999989173105e+00,6.600000000001426947e-01,1.570000000000067120e+00,2.869999999999979536e+03,-2.174999999999894129e+00,-4.944999999999769358e+00,1.338439059820369614e+01,-2.190784080801433831e+00
2.000000000000141753e+01,2.999999998757686193e+00,1.000000000004620304e+01,6.599999999991990052e-01,1.570000000000332907e+00,2.869999999999966349e+03,-2.175000000001268141e+00,-4.944999999996804618e+00,1.340468796757330239e+01,-2.150499530429478945e+00
2.000000000000128608e+01,2.999999997949252872e+00,1.000000000005968737e+01,6.599999999999244249e-01,1.569999999997565121e+00,2.869999999999964984e+03,-2.175000000002526246e+00,-4.945000000006850804e+00,1.338640012973829307e+01,-2.154503937037429484e+00
2.000000000000202149e+01,2.999999999128383443e+00,1.000000000002972911e+01,6.600000000001549072e-01,1.569999999998908269e+00,2.869999999999951342e+03,-2.175000000001332978e+00,-4.945000000002414353e+00,1.339317209239577977e+01,-2.168415198908962171e+00
2.000000000000143885e+01,2.999999998906535570e+00,1.000000000007209344e+01,6.599999999996689626e-01,1.569999999997572671e+00,2.869999999999956344e+03,-2.175000000002952127e+00,-4.945000000006798402e+00,1.337967373086569545e+01,-2.150110581722886494e+00
2.000000000000190781e+01,2.999999999124444372e+00,1.000000000007680789e+01,6.599999999993190203e-01,1.569999999996491535e+00,2.869999999999959527e+03,-2.175000000004525536e+00,-4.945000000008988650e+00,1.338432794685291860e+01,-2.172998570471214475e+00
2.000000000000020606e+01,2.999999999085497748e+00,1.000000000005422685e+01,6.600000000005361578e-01,1.569999999998494378e+00,2.869999999999972715e+03,-2.175000000000585576e+00,-4.945000000004554863e+00,1.339001974911879955e+01,-2.150771238950131448e+00
2.000000000000021316e+01,2.999999998820447544e+00,9.999999999976132870e+00,6.600000000006017720e-01,1.570000000000349782e+00,2.870000000000000909e+03,-2.174999999999517097e+00,-4.944999999999057927e+00,1.338274438583899162e+01,-2.190517120274611429e+00
2.000000000000093792e+01,2.999999998200939544e+00,9.999999999994079403e+00,6.600000000006681633e-01,1.569999999998414886e+00,2.870000000000001819e+03,-2.175000000001305889e+00,-4.945000000005125962e+00,1.337385213180414745e+01,-2.178428004209183477e+00
2.000000000000050449e+01,2.999999999037065379e+00,1.000000000002841638e+01,6.600000000008908740e-01,1.570000000000331575e+00,2.869999999999984993e+03,-2.174999999998781242e+00,-4.944999999999329710e+00,1.338723253169626837e+01,-2.156916476926863613e+00
2.000000000000063949e+01,2.999999998140570501e+00,1.000000000000026823e+01,6.600000000003877210e-01,1.569999999999152074e+00,2.869999999999979082e+03,-2.175000000000574918e+00,-4.945000000003538787e+00,1.339194716506031035e+01,-2.166912298439203521e+00
2.000000000000030553e+01,2.999999999622804836e+00,1.000000000002486189e+01,6.599999999998259481e-01,1.569999999998853202e+00,2.869999999999969987e+03,-2.175000000001371614e+00,-4.945000000003784812e+00,1.339712808784178577e+01,-2.150059714077407147e+00
1.999999999999894129e+01,2.999999998908009946e+00,9.999999999987117860e+00,6.600000000008529044e-01,1.570000000001515073e+00,2.870000000000001364e+03,-2.174999999997485389e+00,-4.944999999997388151e+00,1.341085980861483584e+01,-2.147713788643989652e+00
2.000000000000070344e+01,2.999999999782188009e+00,1.000000000006813572e+01,6.600000000008443557e-01,1.570000000000288720e+00,2.869999999999987722e+03,-2.174999999999116529e+00,-4.944999999999420304e+00,1.340040275182775531e+01,-2.200004990082618850e+00
2.000000000000031264e+01,2.999999999590173605e+00,1.000000000004660627e+01,6.600000000009178525e-01,1.570000000000092877e+00,2.869999999999995453e+03,-2.174999999998934896e+00,-4.945000000000738360e+00,1.340683355623414030e+01,-2.193340496343418433e+00
2.000000000000002842e+01,2.999999999956016516e+00,9.999999999992065014e+00,6.599999999992492983e-01,1.569999999999182494e+00,2.869999999999968168e+03,-2.175000000001488409e+00,-4.945000000001650520e+00,1.341745395718005973e+01,-2.143737373871642315e+00
2.000000000000032685e+01,2.999999997154851439e+00,1.000000000001465139e+01,6.599999999997747668e-01,1.570000000001287033e+00,2.869999999999984084e+03,-2.174999999999441158e+00,-4.944999999995713935e+00,1.339895418812742456e+01,-2.155282216962663533e+00
2.000000000000020961e+01,2.999999997200762270e+00,1.000000000001443645e+01,6.600000000011828627e-01,1.570000000000935314e+00,2.869999999999980901e+03,-2.174999999997681233e+00,-4.944999999998076490e+00,1.338934789948922521e+01,-2.152222251765549377e+00
2.000000000000046896e+01,2.999999998603196438e+00,1.000000000000908784e+01,6.599999999998672484e-01,1.570000000001068319e+00,2.869999999999994543e+03,-2.174999999999356781e+00,-4.944999999996328555e+00,1.340431970058143385e+01,-2.195024514335050636e+00
2.000000000000061462e+01,2.999999997588774558e+00,9.999999999981081800e+00,6.600000000012757884e-01,1.570000000000112639e+00,2.870000000000000455e+03,-2.174999999999062350e+00,-4.945000000000785434e+00,1.338018841572363193e+01,-2.165473725735284738e+00
1.999999999999995381e+01,2.999999998229763154e+00,9.999999999990816235e+00,6.600000000004413447e-01,1.570000000002520046e+00,2.869999999999996817e+03,-2.174999999997763389e+00,-4.944999999991997797e+00,1.340019635701198553e+01,-2.153976189923674234e+00
2.000000000000162004e+01,2.999999998626784237e+00,1.000000000002407852e+01,6.600000000004800915e-01,1.569999999999565299e+00,2.869999999999949068e+03,-2.175000000000319123e+00,-4.945000000000878693e+00,1.339891074754139666e+01,-2.187433603737710008e+00
2.000000000000064659e+01,2.999999999550671870e+00,9.999999999980115462e+00,6.599999999998829026e-01,1.570000000001427365e+00,2.870000000000000455e+03,-2.174999999999518874e+00,-4.944999999995372875e+00,1.340351635412901032e+01,-2.172075361267726379e+00
2.000000000000079936e+01,2.999999999564748610e+00,9.999999999977553955e+00,6.599999999999964784e-01,1.570000000000854712e+00,2.869999999999982265e+03,-2.174999999999690292e+00,-4.944999999996473328e+00,1.340007083097800233e+01,-2.181158171859006956e+00
2.000000000000167333e+01,2.999999998344415886e+00,9.999999999985002219e+00,6.599999999993513278e-01,1.569999999997095053e+00,2.870000000000000909e+03,-2.175000000004194689e+00,-4.945000000007815366e+00,1.338319516155323363e+01,-2.186874742480421574e+00
2.000000000000221689e+01,2.999999998086457342e+00,1.000000000002407141e+01,6.599999999998068523e-01,1.569999999996750883e+00,2.869999999999991360e+03,-2.175000000003947775e+00,-4.945000000009356356e+00,1.337868949015579467e+01,-2.185591492800288194e+00
2.000000000000234834e+01,2.999999998596322826e+00,1.000000000001946887e+01,6.599999999992554045e-01,1.569999999996607221e+00,2.869999999999993179e+03,-2.175000000004794654e+00,-4.945000000008485053e+00,1.338204945396387124e+01,-2.211733933742376035e+00
2.000000000000082068e+01,2.999999998234573528e+00,1.000000000000349942e+01,6.599999999998069633e-01,1.569999999998465290e+00,2.869999999999961801e+03,-2.175000000001584777e+00,-4.945000000005891572e+00,1.340495002160162663e+01,-2.152486608222190956e+00
2.000000000000081002e+01,2.999999999195672284e+00,1.000000000000440536e+01,6.600000000000068034e-01,1.570000000001133156e+00,2.869999999999995453e+03,-2.174999999999833289e+00,-4.944999999996528395e+00,1.340211714437412738e+01,-2.165502161678162896e+00
2.000000000000141043e+01,2.999999998782849620e+00,1.000000000001490896e+01,6.599999999993871880e-01,1.569999999997055751e+00,2.869999999999967713e+03,-2.175000000003637357e+00,-4.945000000007503616e+00,1.339634624539434782e+01,-2.169903967591146010e+00
2.000000000000126121e+01,2.999999996694366011e+00,1.000000000000551736e+01,6.599999999998221734e-01,1.569999999997583995e+00,2.869999999999984539e+03,-2.175000000002792699e+00,-4.945000000007114593e+00,1.338112593102732006e+01,-2.163136146723645403e+00
2.000000000000136424e+01,2.999999997403790086e+00,9.999999999982232879e+00,6.599999999994272670e-01,1.569999999996684048e+00,2.869999999999989996e+03,-2.175000000004103651e+00,-4.945000000009090790e+00,1.338639153523455150e+01,-2.174530400070552538e+00
2.000000000000003553e+01,2.999999999010915186e+00,9.999999999940312634e+00,6.599999999985172172e-01,1.569999999998644924e+00,2.870000000000010459e+03,-2.175000000003521450e+00,-4.945000000002408136e+00,1.341728075826166133e+01,-2.196861657819970670e+00
2.000000000000116529e+01,2.999999998355875164e+00,1.000000000001345768e+01,6.599999999997999689e-01,1.569999999999298401e+00,2.869999999999978627e+03,-2.175000000001366729e+00,-4.945000000000226770e+00,1.341696211831849261e+01,-2.162871067977845563e+00
2.000000000000034106e+01,2.999999997451471057e+00,1.000000000004582823e+01,6.600000000002729239e-01,1.569999999999582174e+00,2.869999999999971806e+03,-2.175000000000094413e+00,-4.945000000001887663e+00,1.339453133550725639e+01,-2.170545250386533453e+00
1.999999999999941380e+01,2.999999997334654278e+00,1.000000000000891553e+01,6.600000000000407763e-01,1.570000000000150164e+00,2.869999999999982265e+03,-2.174999999999890132e+00,-4.944999999999547313e+00,1.340562519589531654e+01,-2.168129976155683369e+00
2.000000000000095923e+01,2.999999996406049529e+00,1.000000000002197353e+01,6.600000000004557776e-01,1.569999999997760076e+00,2.869999999999964530e+03,-2.175000000001594547e+00,-4.945000000007955698e+00,1.337660992077246291e+01,-2.161989774497868222e+00
2.000000000000137490e+01,2.999999996219064879e+00,1.000000000005085354e+01,6.600000000004559997e-01,1.569999999995948858e+00,2.869999999999962256e+03,-2.175000000003132872e+00,-4.945000000013026309e+00,1.338703010773493851e+01,-2.162321363739102775e+00
2.000000000000149569e+01,2.999999997767748727e+00,1.000000000001917577e+01,6.599999999998460432e-01,1.569999999997915729e+00,2.869999999999976353e+03,-2.175000000002632827e+00,-4.945000000006079865e+00,1.338566607733119440e+01,-2.202240253804615744e+00
2.000000000000135358e+01,2.999999998017284675e+00,1.000000000003218581e+01,6.599999999996634115e-01,1.569999999999596163e+00,2.869999999999966803e+03,-2.175000000001295231e+00,-4.945000000000589147e+00,1.338575674155774031e+01,-2.165467795146235108e+00
2.000000000000200728e+01,2.999999997641432437e+00,1.000000000000385647e+01,6.599999999994919930e-01,1.569999999995945972e+00,2.869999999999963165e+03,-2.175000000004656542e+00,-4.945000000010754349e+00,1.338037997098120080e+01,-2.173373883650916660e+00
2.000000000000225597e+01,2.999999997254760853e+00,1.000000000005649348e+01,6.600000000000789679e-01,1.569999999996096962e+00,2.869999999999951797e+03,-2.175000000003695533e+00,-4.945000000011079422e+00,1.338139620505594962e+01,-2.181629347047975287e+00
2.000000000000023093e+01,2.999999998900074960e+00,1.000000000010222401e+01,6.600000000011883028e-01,1.570000000001299689e+00,2.869999999999954071e+03,-2.174999999997027533e+00,-4.944999999997437001e+00,1.339246058563449182e+01,-2.197236050187859391e+00
1.999999999999988276e+01,2.999999998840136239e+00,1.000000000007706191e+01,6.600000000007344436e-01,1.570000000002217400e+00,2.869999999999961346e+03,-2.174999999996741540e+00,-4.944999999993688888e+00,1.339352630837103675e+01,-2.177985145294582203e+00
2.000000000000037303e+01,2.999999998975911630e+00,1.000000000003803358e+01,6.599999999995918021e-01,1.570000000000045137e+00,2.869999999999964075e+03,-2.175000000000413714e+00,-4.944999999999327045e+00,1.339729439974298586e+01,-2.166135667985535029e+00
2.000000000000074252e+01,2.999999998892318942e+00,1.000000000001675104e+01,6.600000000004078160e-01,1.569999999998984874e+00,2.869999999999980901e+03,-2.175000000000975930e+00,-4.945000000002510276e+00,1.340019907757342210e+01,-2.177873173908004389e+00
2.000000000000030553e+01,2.999999998904282705e+00,1.000000000000453859e+01,6.599999999991453814e-01,1.569999999999545981e+00,2.869999999999964075e+03,-2.175000000001859668e+00,-4.944999999999768470e+00,1.339796511007604707e+01,-2.185206605720670492e+00
2.000000000000018119e+01,2.999999998885380492e+00,1.000000000000211386e+01,6.599999999993283462e-01,1.569999999999157847e+00,2.869999999999969077e+03,-2.175000000001857892e+00,-4.945000000001583906e+00,1.339964760759812279e+01,-2.189957332258169576e+00
2.000000000000120792e+01,2.999999997775111726e+00,1.000000000000412115e+01,6.599999999992895994e-01,1.569999999999124762e+00,2.869999999999996362e+03,-2.175000000002523137e+00,-4.945000000000977280e+00,1.340586126612299012e+01,-2.129886539355863029e+00
2.000000000000146727e+01,2.999999997931890316e+00,1.000000000001657696e+01,6.599999999992025579e-01,1.569999999999073470e+00,2.869999999999994543e+03,-2.175000000002703882e+00,-4.945000000000723261e+00,1.340362354614402562e+01,-2.139012094539373798e+00
2.000000000000114042e+01,2.999999998556339698e+00,1.000000000001200462e+01,6.600000000001736700e-01,1.569999999998070495e+00,2.869999999999991815e+03,-2.175000000002010214e+00,-4.945000000007218510e+00,1.339022619468963349e+01,-2.141057263904766916e+00
2.000000000000200018e+01,2.999999997685897757e+00,1.000000000005371881e+01,6.599999999999022204e-01,1.569999999997844231e+00,2.869999999999977263e+03,-2.175000000002742961e+00,-4.945000000007451213e+00,1.337781594869199786e+01,-2.150668898078885949e+00
1.999999999999942801e+01,3.000000000133544731e+00,9.999999999950480500e+00,6.600000000004322409e-01,1.570000000001902984e+00,2.870000000000004093e+03,-2.174999999997907718e+00,-4.944999999994231565e+00,1.342145286023851902e+01,-2.170193431526099559e+00
1.999999999999899458e+01,3.000000000676776413e+00,9.999999999942678741e+00,6.600000000003548584e-01,1.570000000001814389e+00,2.870000000000000909e+03,-2.174999999997858424e+00,-4.944999999995273399e+00,1.342980143342627741e+01,-2.150689034047814641e+00
1.999999999999929301e+01,2.999999999697794628e+00,9.999999999926687977e+00,6.599999999985798338e-01,1.570000000000529639e+00,2.869999999999997272e+03,-2.175000000001420020e+00,-4.944999999996225526e+00,1.340430201906831442e+01,-2.150045413382596582e+00
2.000000000000019185e+01,2.999999999544530560e+00,1.000000000002117240e+01,6.599999999996729594e-01,1.570000000000149720e+00,2.869999999999973625e+03,-2.175000000000159250e+00,-4.944999999999566853e+00,1.340507380684280925e+01,-2.172199516023261889e+00
2.000000000000094857e+01,2.999999998764642406e+00,1.000000000008670931e+01,6.600000000006718270e-01,1.569999999999573292e+00,2.869999999999955890e+03,-2.174999999999593925e+00,-4.945000000001911644e+00,1.338175644049010948e+01,-2.156185312265288090e+00
1.999999999999984013e+01,2.999999999799439543e+00,1.000000000001011458e+01,6.599999999999450750e-01,1.570000000000223217e+00,2.869999999999981355e+03,-2.174999999999757350e+00,-4.944999999999448725e+00,1.341309993919636234e+01,-2.144472793836362357e+00
2.000000000000038014e+01,2.999999999351659952e+00,9.999999999995305089e+00,6.600000000000268985e-01,1.569999999999668550e+00,2.870000000000002274e+03,-2.175000000000928857e+00,-4.945000000000675300e+00,1.339511080035956958e+01,-2.155724210370127736e+00
1.999999999999944222e+01,2.999999999217660029e+00,9.999999999958442132e+00,6.599999999997263611e-01,1.570000000002637730e+00,2.869999999999992269e+03,-2.174999999998290079e+00,-4.944999999991688711e+00,1.340773309580472983e+01,-2.139504632311515664e+00
1.999999999999918643e+01,2.999999999100920967e+00,9.999999999937978501e+00,6.600000000001695621e-01,1.570000000002394591e+00,2.869999999999998636e+03,-2.174999999997941913e+00,-4.944999999993109796e+00,1.340319946706947718e+01,-2.136142524536820630e+00
1.999999999999975486e+01,2.999999998508525501e+00,9.999999999977854159e+00,6.600000000005786793e-01,1.570000000001664953e+00,2.869999999999991360e+03,-2.174999999998069367e+00,-4.944999999995988382e+00,1.339945873543132215e+01,-2.147142269830158323e+00
2.000000000000072120e+01,2.999999997888152858e+00,9.999999999994813038e+00,6.599999999997300248e-01,1.569999999998416218e+00,2.869999999999974989e+03,-2.175000000002130118e+00,-4.945000000004384333e+00,1.338626367619994006e+01,-2.143346317430383063e+00
2.000000000000186162e+01,2.999999997925240081e+00,1.000000000003747225e+01,6.600000000005907808e-01,1.569999999999020623e+00,2.869999999999950887e+03,-2.175000000000662848e+00,-4.945000000004543317e+00,1.337306064858895027e+01,-2.157445284923057205e+00
2.000000000000017053e+01,2.999999999925448080e+00,9.999999999947933205e+00,6.599999999989587529e-01,1.569999999998963558e+00,2.869999999999976808e+03,-2.175000000002363265e+00,-4.945000000001739338e+00,1.339625100716420825e+01,-2.170206018924038638e+00
2.000000000000112266e+01,2.999999998718750671e+00,1.000000000001657341e+01,6.600000000003346523e-01,1.569999999997276463e+00,2.869999999999957254e+03,-2.175000000001977352e+00,-4.945000000008432650e+00,1.338912723485099221e+01,-2.161441525007038233e+00
2.000000000000018829e+01,2.999999998903382092e+00,9.999999999953619323e+00,6.599999999991137400e-01,1.569999999999772466e+00,2.869999999999967713e+03,-2.175000000001217515e+00,-4.944999999999760476e+00,1.339146008639756680e+01,-2.145575700031868482e+00
1.999999999999940314e+01,2.999999998507599130e+00,9.999999999962456698e+00,6.600000000001157163e-01,1.570000000000848051e+00,2.869999999999981355e+03,-2.174999999998991296e+00,-4.944999999998073825e+00,1.340573423634205774e+01,-2.154040686887618516e+00
2.000000000000051159e+01,2.999999998808823953e+00,1.000000000006631673e+01,6.600000000009129675e-01,1.569999999999033502e+00,2.869999999999955435e+03,-2.174999999999228439e+00,-4.945000000006363194e+00,1.340374568706935499e+01,-2.161368979564944670e+00
2.000000000000036593e+01,2.999999999780908588e+00,9.999999999944840567e+00,6.599999999997844258e-01,1.569999999998999751e+00,2.870000000000008185e+03,-2.175000000001911626e+00,-4.945000000002091056e+00,1.340560331629210999e+01,-2.174748181661947832e+00
2.000000000000071765e+01,2.999999998966880188e+00,1.000000000001631584e+01,6.600000000008786616e-01,1.569999999997804929e+00,2.869999999999983174e+03,-2.175000000001324985e+00,-4.945000000007452101e+00,1.340002923710640204e+01,-2.158249639643590623e+00
2.000000000000034106e+01,2.999999999061157663e+00,1.000000000002161826e+01,6.599999999998534816e-01,1.570000000000239204e+00,2.869999999999994543e+03,-2.175000000000428368e+00,-4.944999999998907825e+00,1.340387014824498735e+01,-2.151192211393269993e+00
2.000000000000013145e+01,2.999999998324022865e+00,1.000000000000060041e+01,6.600000000000511013e-01,1.570000000000455254e+00,2.869999999999997726e+03,-2.174999999999787548e+00,-4.944999999997930828e+00,1.338728252476752090e+01,-2.188895882771002999e+00
2.000000000000056488e+01,2.999999997650957706e+00,1.000000000001573675e+01,6.600000000008364731e-01,1.570000000000256746e+00,2.869999999999980446e+03,-2.174999999999012612e+00,-4.944999999999562412e+00,1.338572027932292130e+01,-2.189999909358920416e+00
2.000000000000139977e+01,2.999999997324243051e+00,1.000000000001043610e+01,6.600000000004350165e-01,1.569999999998153317e+00,2.869999999999980901e+03,-2.175000000001882761e+00,-4.945000000006057661e+00,1.337041171036593212e+01,-2.167485213236515662e+00
2.000000000000152411e+01,2.999999997535717444e+00,1.000000000004241230e+01,6.600000000005611378e-01,1.569999999997428564e+00,2.869999999999978172e+03,-2.175000000002233147e+00,-4.945000000008065832e+00,1.337354698186114810e+01,-2.185607678201049620e+00
2.000000000000168754e+01,2.999999997440399468e+00,1.000000000005313794e+01,6.600000000003399814e-01,1.569999999997335305e+00,2.869999999999973170e+03,-2.175000000002571543e+00,-4.945000000008585417e+00,1.337622322178942369e+01,-2.176619715015525536e+00
1.999999999999825917e+01,2.999999999506698600e+00,9.999999999920829552e+00,6.599999999995935784e-01,1.570000000001328111e+00,2.870000000000000909e+03,-2.174999999999123634e+00,-4.944999999995985718e+00,1.340500242818583843e+01,-2.175117591194632993e+00
2.000000000000030553e+01,2.999999999530019501e+00,1.000000000000271072e+01,6.600000000011193579e-01,1.570000000001043228e+00,2.869999999999996817e+03,-2.174999999997775824e+00,-4.944999999998114681e+00,1.339336809383808102e+01,-2.168793155763332425e+00
