2.000000000000019540e+01,2.999999998605222817e+00,1.000000000002108180e+01,6.600000000000225686e-01,1.570000000000035811e+00,2.870000000000000455e+03,-2.174999999999968736e+00,-4.944999999999871498e+00,1.359799173538855754e+01,-2.060001476230928219e+00
1.999999999999962697e+01,2.999999999196073297e+00,1.000000000003990586e+01,6.599999999998875655e-01,1.569999999999901252e+00,2.870000000000005457e+03,-2.175000000000040234e+00,-4.945000000000411511e+00,1.374357605209723410e+01,-1.968387155368288344e+00
1.999999999999902656e+01,2.999999997776977789e+00,9.999999999972466469e+00,6.599999999999028866e-01,1.569999999999963647e+00,2.870000000000006366e+03,-2.174999999999972733e+00,-4.945000000000197460e+00,1.344859870561747073e+01,-2.187960365101993432e+00
1.999999999999968026e+01,3.000000000860753691e+00,1.000000000000129319e+01,6.599999999999762723e-01,1.570000000000006724e+00,2.870000000000001364e+03,-2.174999999999963407e+00,-4.945000000000056239e+00,1.377301644312350781e+01,-1.712267793117686177e+00
2.000000000000007105e+01,3.000000001494441904e+00,1.000000000003269562e+01,6.599999999999883737e-01,1.570000000000017382e+00,2.869999999999993634e+03,-2.174999999999995826e+00,-4.944999999999914131e+00,1.381510764163107829e+01,-1.764885082095203339e+00
1.999999999999958078e+01,3.000000000110233600e+00,1.000000000002786038e+01,6.599999999999501821e-01,1.570000000000031593e+00,2.869999999999998181e+03,-2.174999999999887024e+00,-4.945000000000113083e+00,1.353760828265410865e+01,-1.997577661116625825e+00
1.999999999999974776e+01,2.999999999477147572e+00,1.000000000002252243e+01,6.599999999999305311e-01,1.570000000000029372e+00,2.869999999999995453e+03,-2.174999999999898126e+00,-4.945000000000009166e+00,1.372976310149306656e+01,-1.914750000510387906e+00
2.000000000000015632e+01,2.999999999484324054e+00,1.000000000002952838e+01,6.600000000000505462e-01,1.570000000000131513e+00,2.869999999999990905e+03,-2.174999999999827516e+00,-4.944999999999727613e+00,1.369678479829161510e+01,-2.057872212916644905e+00
1.999999999999987921e+01,2.999999999257714656e+00,1.000000000000957812e+01,6.599999999999829337e-01,1.569999999999990958e+00,2.869999999999992724e+03,-2.175000000000006040e+00,-4.944999999999968310e+00,1.358712310113290300e+01,-1.949575155051892938e+00
2.000000000000002487e+01,3.000000000656396715e+00,1.000000000003969269e+01,6.600000000000467715e-01,1.570000000000037810e+00,2.869999999999989086e+03,-2.174999999999919886e+00,-4.944999999999914131e+00,1.337864029633878893e+01,-2.345942172932461212e+00
1.999999999999993605e+01,2.999999998334621942e+00,1.000000000001342748e+01,6.600000000000857403e-01,1.570000000000091989e+00,2.870000000000000455e+03,-2.174999999999942091e+00,-4.944999999999740936e+00,1.380213349238686860e+01,-2.124356057835029343e+00
1.999999999999992184e+01,2.999999998918348787e+00,9.999999999954752639e+00,6.599999999999794920e-01,1.569999999999918572e+00,2.870000000000004547e+03,-2.175000000000126832e+00,-4.945000000000136176e+00,1.399889267738531906e+01,-1.910683989343616274e+00
1.999999999999967315e+01,2.999999999988915089e+00,1.000000000001313971e+01,6.599999999999441869e-01,1.569999999999907025e+00,2.870000000000004547e+03,-2.175000000000105960e+00,-4.945000000000249862e+00,1.377759847786782466e+01,-2.062627242539257555e+00
2.000000000000020250e+01,2.999999998024778680e+00,1.000000000000802736e+01,6.599999999999909273e-01,1.570000000000027596e+00,2.869999999999997272e+03,-2.175000000000010925e+00,-4.944999999999899920e+00,1.378878747384939629e+01,-2.150346436076092882e+00
2.000000000000031974e+01,3.000000000037438497e+00,1.000000000005495870e+01,6.600000000000172395e-01,1.569999999999998064e+00,2.869999999999996362e+03,-2.175000000000034017e+00,-4.945000000000009166e+00,1.370993807111555007e+01,-1.962487047268516305e+00
1.999999999999993250e+01,3.000000000720424609e+00,1.000000000003187672e+01,6.599999999999696110e-01,1.569999999999976081e+00,2.869999999999993179e+03,-2.174999999999964295e+00,-4.945000000000225882e+00,1.366266912185190741e+01,-2.056200881082611787e+00
1.999999999999999645e+01,3.000000002350247996e+00,9.999999999970892617e+00,6.600000000000321165e-01,1.569999999999936779e+00,2.870000000000002728e+03,-2.175000000000182787e+00,-4.944999999999978968e+00,1.341450355782424353e+01,-2.321729841822875340e+00
2.000000000000000355e+01,3.000000000849955217e+00,9.999999999973416820e+00,6.599999999999640599e-01,1.570000000000052021e+00,2.870000000000004547e+03,-2.174999999999990941e+00,-4.944999999999859064e+00,1.370946648090746400e+01,-2.191722430271035638e+00
2.000000000000002487e+01,3.000000001989296283e+00,9.999999999995745625e+00,6.599999999999494049e-01,1.569999999999983853e+00,2.870000000000003183e+03,-2.175000000000058886e+00,-4.944999999999984297e+00,1.347557891751074166e+01,-2.400378255973806052e+00
2.000000000000038369e+01,3.000000001117117954e+00,1.000000000000066258e+01,6.600000000001242650e-01,1.570000000000101759e+00,2.869999999999998636e+03,-2.174999999999882139e+00,-4.944999999999724061e+00,1.350297457977897686e+01,-2.430979933798020021e+00
1.999999999999963052e+01,3.000000001199450761e+00,9.999999999979257481e+00,6.599999999999437428e-01,1.570000000000003171e+00,2.870000000000001819e+03,-2.174999999999856382e+00,-4.945000000000274731e+00,1.343563478353627438e+01,-2.443515782181901574e+00
2.000000000000034461e+01,3.000000001538717154e+00,1.000000000000212275e+01,6.600000000001572387e-01,1.570000000000084217e+00,2.869999999999994543e+03,-2.174999999999928768e+00,-4.944999999999683205e+00,1.358700794258658817e+01,-2.295289003632906777e+00
1.999999999999994316e+01,3.000000002112761965e+00,9.999999999968338216e+00,6.599999999998490408e-01,1.569999999999814655e+00,2.870000000000003638e+03,-2.175000000000147260e+00,-4.945000000000535856e+00,1.375016900571463552e+01,-2.328330104557756020e+00
1.999999999999963762e+01,3.000000000766946062e+00,9.999999999968876452e+00,6.599999999999688338e-01,1.570000000000113971e+00,2.870000000000000909e+03,-2.174999999999740918e+00,-4.944999999999930118e+00,1.320394362158893209e+01,-2.475565027883896985e+00
1.999999999999963052e+01,3.000000000004335643e+00,9.999999999979127807e+00,6.600000000001042810e-01,1.570000000000126184e+00,2.870000000000000909e+03,-2.174999999999756906e+00,-4.944999999999792450e+00,1.323473821012876606e+01,-2.359467405357456027e+00
1.999999999999991829e+01,2.999999999813077523e+00,9.999999999998351541e+00,6.600000000002185230e-01,1.570000000000187246e+00,2.869999999999999091e+03,-2.174999999999777334e+00,-4.944999999999471818e+00,1.314189274745495872e+01,-2.464316270801312214e+00
1.999999999999987566e+01,2.999999998985214855e+00,9.999999999955589303e+00,6.600000000001698952e-01,1.570000000000152385e+00,2.870000000000003183e+03,-2.174999999999883915e+00,-4.944999999999443396e+00,1.354495535025869302e+01,-2.071604355564740541e+00
1.999999999999961631e+01,2.999999999641959736e+00,9.999999999990649258e+00,6.600000000000199041e-01,1.570000000000064677e+00,2.870000000000004093e+03,-2.174999999999931433e+00,-4.944999999999891038e+00,1.356339056810547206e+01,-2.325769279203574680e+00
1.999999999999950973e+01,2.999999998955700242e+00,9.999999999995266009e+00,6.599999999999685008e-01,1.569999999999979412e+00,2.870000000000003183e+03,-2.174999999999998046e+00,-4.945000000000113083e+00,1.327108519400312936e+01,-2.559965935598146558e+00
1.999999999999926459e+01,2.999999999268621931e+00,9.999999999947998930e+00,6.599999999999300870e-01,1.569999999999895701e+00,2.870000000000002728e+03,-2.175000000000093525e+00,-4.945000000000296936e+00,1.339896787258917676e+01,-2.424473539201946970e+00
1.999999999999951328e+01,2.999999998793805744e+00,1.000000000000032685e+01,6.599999999999385247e-01,1.569999999999991847e+00,2.869999999999994088e+03,-2.174999999999981171e+00,-4.945000000000108642e+00,1.324721817143817937e+01,-2.597379159946309191e+00
1.999999999999938183e+01,3.000000001162659746e+00,1.000000000000518163e+01,6.599999999999714984e-01,1.570000000000010498e+00,2.869999999999997272e+03,-2.174999999999887024e+00,-4.945000000000202789e+00,1.373041039765936588e+01,-1.911624411302018878e+00
1.999999999999972999e+01,3.000000001145262551e+00,9.999999999953805840e+00,6.600000000000516565e-01,1.570000000000108420e+00,2.870000000000006366e+03,-2.174999999999859934e+00,-4.944999999999681428e+00,1.371600534588581688e+01,-2.031417276719547083e+00
1.999999999999967315e+01,2.999999999342795931e+00,9.999999999960193620e+00,6.599999999999777156e-01,1.570000000000112639e+00,2.870000000000002274e+03,-2.174999999999748468e+00,-4.944999999999912355e+00,1.356065281560613300e+01,-2.304963018499821548e+00
2.000000000000000711e+01,2.999999998280018065e+00,9.999999999964526154e+00,6.599999999999903721e-01,1.569999999999966089e+00,2.870000000000003183e+03,-2.174999999999954081e+00,-4.945000000000211671e+00,1.362875088227642273e+01,-1.961213200132485568e+00
2.000000000000024514e+01,2.999999997976340094e+00,9.999999999964058972e+00,6.600000000001559064e-01,1.570000000000192131e+00,2.869999999999998181e+03,-2.174999999999714717e+00,-4.944999999999578399e+00,1.349090828314444579e+01,-2.046722505992386587e+00
1.999999999999993605e+01,2.999999998698704040e+00,9.999999999949523044e+00,6.599999999999676126e-01,1.569999999999999840e+00,2.869999999999995907e+03,-2.174999999999936762e+00,-4.945000000000169926e+00,1.336326387467788379e+01,-2.205197182020847801e+00
2.000000000000042633e+01,2.999999998274685886e+00,9.999999999987858601e+00,6.600000000000759703e-01,1.569999999999994955e+00,2.869999999999995907e+03,-2.175000000000080203e+00,-4.944999999999881268e+00,1.309378239118255927e+01,-2.275250244251730614e+00
2.000000000000046541e+01,2.999999998006992907e+00,9.999999999976305176e+00,6.599999999999472955e-01,1.569999999999925899e+00,2.869999999999997726e+03,-2.175000000000207212e+00,-4.945000000000066009e+00,1.360546351247921315e+01,-2.104535344389656615e+00
1.999999999999972289e+01,2.999999999327306988e+00,9.999999999960406782e+00,6.600000000000879607e-01,1.570000000000093543e+00,2.870000000000008640e+03,-2.174999999999963851e+00,-4.944999999999672546e+00,1.382076373835739425e+01,-2.062194947098437314e+00
1.999999999999930012e+01,2.999999997812013319e+00,1.000000000000742695e+01,6.599999999999005551e-01,1.569999999999840856e+00,2.870000000000000909e+03,-2.175000000000107292e+00,-4.945000000000515428e+00,1.354407053008243089e+01,-2.285371893943687116e+00
1.999999999999970868e+01,2.999999998058522355e+00,9.999999999964442665e+00,6.600000000000643130e-01,1.570000000000070894e+00,2.870000000000001819e+03,-2.174999999999950973e+00,-4.944999999999767581e+00,1.366782323893543705e+01,-2.320174145239749297e+00
1.999999999999987210e+01,3.000000001886973244e+00,1.000000000000592237e+01,6.599999999999646150e-01,1.569999999999977192e+00,2.869999999999995907e+03,-2.175000000000030020e+00,-4.945000000000121076e+00,1.375351944918798708e+01,-1.943476249760934138e+00
1.999999999999990408e+01,3.000000000195681693e+00,9.999999999963099739e+00,6.599999999999757172e-01,1.570000000000024487e+00,2.869999999999996362e+03,-2.175000000000012257e+00,-4.944999999999972751e+00,1.339422406804382426e+01,-2.127733773255188421e+00
2.000000000000022382e+01,2.999999998898643216e+00,9.999999999971556974e+00,6.599999999999428546e-01,1.569999999999943885e+00,2.870000000000000909e+03,-2.175000000000114841e+00,-4.945000000000137064e+00,1.333615670561643540e+01,-2.210344375007107676e+00
2.000000000000052580e+01,2.999999999574728626e+00,9.999999999983636201e+00,6.600000000000403322e-01,1.570000000000107088e+00,2.870000000000004547e+03,-2.174999999999997158e+00,-4.944999999999614815e+00,1.371364146821016661e+01,-1.974180668027258001e+00
1.999999999999942091e+01,3.000000000827992341e+00,1.000000000000199485e+01,6.600000000000644240e-01,1.570000000000091323e+00,2.869999999999995453e+03,-2.174999999999836398e+00,-4.944999999999807550e+00,1.371899951910909543e+01,-1.815485617348125302e+00
1.999999999999909761e+01,2.999999999607027235e+00,9.999999999971237230e+00,6.599999999999611733e-01,1.570000000000089990e+00,2.870000000000003183e+03,-2.174999999999766676e+00,-4.944999999999957652e+00,1.365500846787757894e+01,-1.975137140319243478e+00
2.000000000000052935e+01,3.000000001504584013e+00,9.999999999974576781e+00,6.600000000000899592e-01,1.570000000000076668e+00,2.870000000000001819e+03,-2.175000000000012257e+00,-4.944999999999629914e+00,1.395040211141893671e+01,-1.841015373102768304e+00
2.000000000000046896e+01,3.000000000713091364e+00,9.999999999979333865e+00,6.599999999999667244e-01,1.570000000000026708e+00,2.869999999999993179e+03,-2.175000000000026024e+00,-4.944999999999941664e+00,1.391281593542561268e+01,-1.765544944268942817e+00
2.000000000000016342e+01,2.999999998505429755e+00,9.999999999997831068e+00,6.600000000000194600e-01,1.570000000000033591e+00,2.869999999999994543e+03,-2.174999999999979838e+00,-4.944999999999939888e+00,1.377352469545062341e+01,-1.913753355203841489e+00
1.999999999999965183e+01,3.000000001647318726e+00,9.999999999966558306e+00,6.599999999999544009e-01,1.569999999999839968e+00,2.869999999999991815e+03,-2.175000000000152589e+00,-4.945000000000424834e+00,1.352937156735909241e+01,-2.305847362070750695e+00
1.999999999999993960e+01,3.000000001986566023e+00,9.999999999958394170e+00,6.599999999999787148e-01,1.569999999999941664e+00,2.869999999999993179e+03,-2.175000000000133493e+00,-4.945000000000052687e+00,1.369769317223676808e+01,-2.298810654654240171e+00
1.999999999999996092e+01,3.000000002851370695e+00,9.999999999973212539e+00,6.600000000001139400e-01,1.570000000000184803e+00,2.869999999999987722e+03,-2.174999999999799094e+00,-4.944999999999558860e+00,1.370598652018795427e+01,-2.203182711044374020e+00
2.000000000000015632e+01,3.000000001784937531e+00,9.999999999976385112e+00,6.600000000000497691e-01,1.570000000000178142e+00,2.869999999999988177e+03,-2.174999999999736922e+00,-4.944999999999711626e+00,1.360126107366922632e+01,-2.389112877623408071e+00
2.000000000000058975e+01,3.000000001038944042e+00,1.000000000001477751e+01,6.599999999999556222e-01,1.569999999999939000e+00,2.869999999999974989e+03,-2.175000000000075318e+00,-4.945000000000149498e+00,1.390051459545138357e+01,-2.083408318920654256e+00
2.000000000000066791e+01,3.000000000764982300e+00,1.000000000008116174e+01,6.600000000000600942e-01,1.570000000000087992e+00,2.869999999999969532e+03,-2.174999999999833289e+00,-4.944999999999870610e+00,1.350186705207058502e+01,-2.431101044139715839e+00
2.000000000000028066e+01,3.000000002219755935e+00,1.000000000000719247e+01,6.599999999999615063e-01,1.569999999999836637e+00,2.869999999999978627e+03,-2.175000000000121947e+00,-4.945000000000500329e+00,1.380230239250759894e+01,-2.118562353599764858e+00
2.000000000000002842e+01,3.000000000817870216e+00,1.000000000002639844e+01,6.600000000000045830e-01,1.570000000000045581e+00,2.869999999999989086e+03,-2.174999999999854605e+00,-4.945000000000077556e+00,1.366819680139878557e+01,-2.304665758152362631e+00
2.000000000000025935e+01,2.999999999597016132e+00,9.999999999999847233e+00,6.599999999999260902e-01,1.569999999999942997e+00,2.870000000000001364e+03,-2.175000000000159250e+00,-4.945000000000067786e+00,1.353098319050073783e+01,-2.140248212991684440e+00
1.999999999999965183e+01,3.000000002661244114e+00,9.999999999927688066e+00,6.600000000000575406e-01,1.569999999999992957e+00,2.870000000000001819e+03,-2.175000000000049116e+00,-4.944999999999939000e+00,1.418834673185203954e+01,-1.714595157230999423e+00
1.999999999999970512e+01,3.000000002343059524e+00,9.999999999944385820e+00,6.600000000000432188e-01,1.570000000000114193e+00,2.870000000000001364e+03,-2.174999999999864375e+00,-4.944999999999783569e+00,1.382110793764485379e+01,-2.025888671150751108e+00
1.999999999999991829e+01,3.000000002014098666e+00,9.999999999966458830e+00,6.599999999999185407e-01,1.569999999999937224e+00,2.869999999999998636e+03,-2.175000000000121059e+00,-4.945000000000153939e+00,1.388597693737625249e+01,-1.926918114849917707e+00
2.000000000000031619e+01,3.000000001554730122e+00,9.999999999980060394e+00,6.600000000000618705e-01,1.570000000000139950e+00,2.869999999999996817e+03,-2.174999999999882583e+00,-4.944999999999574847e+00,1.378047538344107359e+01,-1.804334966529425932e+00
2.000000000000029488e+01,3.000000001957624285e+00,9.999999999985030641e+00,6.600000000000840750e-01,1.570000000000001394e+00,2.870000000000000000e+03,-2.175000000000031797e+00,-4.944999999999866169e+00,1.375806495110531991e+01,-1.831149141601152053e+00
2.000000000000001776e+01,3.000000000182805771e+00,1.000000000006052048e+01,6.600000000000783018e-01,1.570000000000116414e+00,2.869999999999994088e+03,-2.174999999999867040e+00,-4.944999999999739160e+00,1.354433710000787627e+01,-1.968220249352939044e+00
2.000000000000018829e+01,3.000000000686039225e+00,1.000000000004034639e+01,6.599999999999973666e-01,1.569999999999909024e+00,2.870000000000000909e+03,-2.175000000000174794e+00,-4.945000000000058904e+00,1.396378943213963808e+01,-1.649432483340912636e+00
1.999999999999989342e+01,2.999999999429193931e+00,1.000000000003480238e+01,6.600000000000805223e-01,1.570000000000106866e+00,2.869999999999994998e+03,-2.174999999999899458e+00,-4.944999999999746265e+00,1.383917598957342676e+01,-2.039891392841707951e+00
1.999999999999979394e+01,2.999999999188886601e+00,1.000000000005638334e+01,6.599999999999287548e-01,1.569999999999935891e+00,2.869999999999990450e+03,-2.175000000000021139e+00,-4.945000000000278284e+00,1.382719698333910152e+01,-2.070048642805898620e+00
1.999999999999976907e+01,2.999999998655777933e+00,1.000000000004742517e+01,6.599999999998933387e-01,1.569999999999878826e+00,2.869999999999992724e+03,-2.175000000000107292e+00,-4.945000000000423057e+00,1.361228481774330490e+01,-2.242986760753892028e+00
2.000000000000038014e+01,2.999999997856428902e+00,1.000000000002097522e+01,6.600000000000877387e-01,1.570000000000077112e+00,2.869999999999987722e+03,-2.174999999999928324e+00,-4.944999999999814655e+00,1.333576000478447376e+01,-2.421938654084583753e+00
2.000000000000007105e+01,2.999999998368521492e+00,1.000000000000566480e+01,6.600000000001022826e-01,1.570000000000255636e+00,2.870000000000002274e+03,-2.174999999999675637e+00,-4.944999999999476259e+00,1.327051264574438605e+01,-2.615751866571957684e+00
1.999999999999996803e+01,2.999999999127135553e+00,1.000000000001575273e+01,6.599999999999346390e-01,1.569999999999980300e+00,2.869999999999989996e+03,-2.174999999999906120e+00,-4.945000000000248086e+00,1.333754775159490791e+01,-2.488955955011516785e+00
2.000000000000007105e+01,3.000000001467895583e+00,1.000000000001166356e+01,6.600000000001167155e-01,1.570000000000151719e+00,2.870000000000000000e+03,-2.174999999999847944e+00,-4.944999999999592610e+00,1.374038871693532116e+01,-1.880785521517370773e+00
1.999999999999942446e+01,2.999999998363652498e+00,9.999999999988636645e+00,6.599999999999046629e-01,1.569999999999853513e+00,2.870000000000006821e+03,-2.175000000000165912e+00,-4.945000000000405294e+00,1.374103758415141918e+01,-1.937201872367342315e+00
2.000000000000002487e+01,2.999999998196510642e+00,9.999999999994475530e+00,6.600000000001119416e-01,1.570000000000062235e+00,2.870000000000002274e+03,-2.175000000000015810e+00,-4.944999999999690310e+00,1.391143229979155826e+01,-1.857479508488903974e+00
2.000000000000013145e+01,2.999999998569968795e+00,1.000000000006113154e+01,6.600000000001190470e-01,1.570000000000123963e+00,2.869999999999992724e+03,-2.174999999999876810e+00,-4.944999999999661888e+00,1.415378357553381150e+01,-1.653051370318140645e+00
1.999999999999984368e+01,3.000000000050746518e+00,1.000000000003142553e+01,6.599999999999622835e-01,1.569999999999965645e+00,2.869999999999997272e+03,-2.174999999999974065e+00,-4.945000000000210783e+00,1.373491004427807383e+01,-2.080568288430991508e+00
2.000000000000022382e+01,2.999999998832784343e+00,1.000000000003541523e+01,6.599999999999670575e-01,1.569999999999833751e+00,2.869999999999998181e+03,-2.175000000000225864e+00,-4.945000000000320028e+00,1.392692916738398523e+01,-1.924670820731969378e+00
2.000000000000003553e+01,2.999999999595907685e+00,1.000000000003859846e+01,6.599999999999430766e-01,1.569999999999819540e+00,2.869999999999995453e+03,-2.175000000000147260e+00,-4.945000000000511875e+00,1.395667467216062185e+01,-2.047124592667782572e+00
2.000000000000069278e+01,2.999999998876657248e+00,1.000000000002243006e+01,6.600000000001299272e-01,1.570000000000090656e+00,2.869999999999984084e+03,-2.174999999999975397e+00,-4.944999999999592610e+00,1.395699501139883481e+01,-1.813818628922256426e+00
2.000000000000011369e+01,2.999999999337070733e+00,1.000000000002503064e+01,6.600000000000029177e-01,1.569999999999898588e+00,2.869999999999997726e+03,-2.175000000000107736e+00,-4.945000000000194795e+00,1.384831262038612465e+01,-1.951613114992611919e+00
2.000000000000015987e+01,3.000000000323064686e+00,1.000000000004215828e+01,6.600000000000723066e-01,1.570000000000046469e+00,2.869999999999994543e+03,-2.174999999999871481e+00,-4.944999999999946994e+00,1.355171372030225996e+01,-2.042946625512731984e+00
2.000000000000014921e+01,3.000000000179785076e+00,9.999999999980550669e+00,6.600000000000717515e-01,1.570000000000068674e+00,2.869999999999991360e+03,-2.174999999999939870e+00,-4.944999999999796891e+00,1.328575152892667433e+01,-2.353491405846352524e+00
1.999999999999933920e+01,3.000000000236436648e+00,1.000000000000646949e+01,6.600000000000533218e-01,1.570000000000160156e+00,2.870000000000005912e+03,-2.174999999999739142e+00,-4.944999999999793339e+00,1.348631147849640932e+01,-2.295804367157928461e+00
1.999999999999957012e+01,3.000000001413965389e+00,9.999999999931022288e+00,6.600000000000082467e-01,1.570000000000135065e+00,2.869999999999991360e+03,-2.174999999999708944e+00,-4.944999999999883933e+00,1.323756155575214244e+01,-2.346487491856326546e+00
1.999999999999964828e+01,2.999999998994964834e+00,9.999999999987325694e+00,6.600000000000367795e-01,1.570000000000119744e+00,2.869999999999993634e+03,-2.174999999999784439e+00,-4.944999999999866169e+00,1.315283908792317646e+01,-2.535917484269814448e+00
2.000000000000061817e+01,2.999999998544987889e+00,9.999999999982623677e+00,6.600000000000109113e-01,1.570000000000109530e+00,2.869999999999986358e+03,-2.174999999999922995e+00,-4.944999999999692086e+00,1.367579381294602570e+01,-1.994768733571546049e+00
2.000000000000055067e+01,2.999999998581548866e+00,9.999999999991128874e+00,6.599999999999742739e-01,1.569999999999942109e+00,2.869999999999995907e+03,-2.175000000000140599e+00,-4.945000000000043805e+00,1.368496344642397844e+01,-1.870104303768100440e+00
2.000000000000055778e+01,3.000000000869770922e+00,9.999999999930349048e+00,6.600000000000010303e-01,1.569999999999907914e+00,2.870000000000001364e+03,-2.175000000000214317e+00,-4.944999999999977192e+00,1.394631096742728715e+01,-1.896626663536191026e+00
2.000000000000050093e+01,2.999999999633941261e+00,1.000000000000676081e+01,6.599999999999804912e-01,1.569999999999929008e+00,2.869999999999996362e+03,-2.175000000000158362e+00,-4.945000000000037588e+00,1.399503231317285312e+01,-1.879323261645720056e+00
2.000000000000014566e+01,2.999999999492176439e+00,9.999999999961834973e+00,6.600000000000820766e-01,1.570000000000073115e+00,2.870000000000001364e+03,-2.174999999999994937e+00,-4.944999999999628137e+00,1.327613148763534667e+01,-2.570115698375909918e+00
1.999999999999993250e+01,2.999999998813630775e+00,9.999999999960939689e+00,6.599999999999297540e-01,1.569999999999917240e+00,2.869999999999999091e+03,-2.175000000000083755e+00,-4.945000000000209006e+00,1.331786707837386174e+01,-2.457092157518677045e+00
2.000000000000028777e+01,2.999999998105449706e+00,9.999999999970382802e+00,6.600000000000284528e-01,1.569999999999947438e+00,2.869999999999999091e+03,-2.175000000000132605e+00,-4.944999999999977192e+00,1.364253443886772210e+01,-2.278925623857582572e+00
2.000000000000047606e+01,2.999999998727086670e+00,9.999999999980182963e+00,6.599999999999942579e-01,1.569999999999926343e+00,2.869999999999999545e+03,-2.175000000000191669e+00,-4.944999999999955875e+00,1.345779023270315555e+01,-2.487301706097750920e+00
1.999999999999993250e+01,2.999999999353299973e+00,9.999999999989295674e+00,6.599999999998321654e-01,1.569999999999811546e+00,2.869999999999990450e+03,-2.175000000000181011e+00,-4.945000000000534079e+00,1.329112671938966450e+01,-2.228537788818309551e+00
1.999999999999975842e+01,2.999999997766780169e+00,1.000000000001599076e+01,6.600000000000255662e-01,1.569999999999979190e+00,2.869999999999995907e+03,-2.174999999999935429e+00,-4.945000000000171703e+00,1.366012693365958164e+01,-2.124181084785251805e+00
2.000000000000013500e+01,2.999999999264677975e+00,1.000000000007009859e+01,6.599999999999872635e-01,1.570000000000027596e+00,2.869999999999991815e+03,-2.174999999999929656e+00,-4.945000000000021600e+00,1.372751313235439774e+01,-2.189432292805313374e+00
1.999999999999983658e+01,2.999999998581071914e+00,1.000000000001628742e+01,6.599999999999097700e-01,1.569999999999932561e+00,2.869999999999993634e+03,-2.175000000000001599e+00,-4.945000000000308482e+00,1.386552299910364994e+01,-1.950566271502986115e+00
2.000000000000017053e+01,2.999999999786141736e+00,1.000000000000782485e+01,6.600000000000018074e-01,1.570000000000141060e+00,2.869999999999991815e+03,-2.174999999999840394e+00,-4.944999999999707185e+00,1.361071522037554971e+01,-1.933120129721127567e+00
2.000000000000030553e+01,3.000000001829911334e+00,1.000000000000944667e+01,6.599999999999912603e-01,1.569999999999985851e+00,2.869999999999986358e+03,-2.175000000000064659e+00,-4.944999999999946994e+00,1.361806921453026753e+01,-2.030255544178478200e+00
2.000000000000042277e+01,2.999999998811020419e+00,1.000000000003007194e+01,6.599999999999649480e-01,1.569999999999991180e+00,2.869999999999982265e+03,-2.175000000000026912e+00,-4.944999999999984297e+00,1.353160985546987938e+01,-2.000793156787720406e+00
2.000000000000048317e+01,2.999999999660947658e+00,9.999999999987789323e+00,6.600000000000069145e-01,1.569999999999781126e+00,2.869999999999996362e+03,-2.175000000000323563e+00,-4.945000000000324469e+00,1.350037573477654718e+01,-2.057614937507993069e+00
1.999999999999978684e+01,3.000000001805560590e+00,9.999999999991697308e+00,6.600000000000604272e-01,1.570000000000153273e+00,2.869999999999992269e+03,-2.174999999999815081e+00,-4.944999999999664553e+00,1.342686209617068371e+01,-2.267606629076707847e+00
1.999999999999903011e+01,2.999999999347789714e+00,9.999999999996886046e+00,6.599999999999983658e-01,1.570000000000056017e+00,2.869999999999999545e+03,-2.174999999999847500e+00,-4.945000000000023377e+00,1.352315658629062334e+01,-2.068986096432105626e+00
1.999999999999894129e+01,2.999999999614495039e+00,9.999999999963321784e+00,6.599999999999777156e-01,1.569999999999858176e+00,2.870000000000005912e+03,-2.175000000000072209e+00,-4.945000000000359108e+00,1.348772262814162737e+01,-2.086900714738078477e+00
1.999999999999957723e+01,3.000000000718413329e+00,1.000000000002041745e+01,6.599999999999885958e-01,1.569999999999974083e+00,2.870000000000002274e+03,-2.174999999999946976e+00,-4.945000000000231211e+00,1.359043346573540667e+01,-2.250080920019645436e+00
1.999999999999970868e+01,3.000000001685577455e+00,1.000000000000669687e+01,6.599999999999495159e-01,1.569999999999883489e+00,2.870000000000002274e+03,-2.175000000000095302e+00,-4.945000000000318252e+00,1.340581491625154342e+01,-2.300938545925489187e+00
1.999999999999964473e+01,3.000000001280577866e+00,9.999999999958523844e+00,6.599999999998885647e-01,1.569999999999925899e+00,2.870000000000003183e+03,-2.175000000000006040e+00,-4.945000000000258744e+00,1.358128378761966815e+01,-2.090099204989899206e+00
2.000000000000007105e+01,3.000000000124420030e+00,1.000000000002836487e+01,6.600000000000554312e-01,1.570000000000101981e+00,2.869999999999994088e+03,-2.174999999999899458e+00,-4.944999999999751594e+00,1.375761456860613485e+01,-1.941718927683046880e+00
2.000000000000063594e+01,3.000000001211763134e+00,1.000000000000315836e+01,6.600000000001283729e-01,1.570000000000159934e+00,2.869999999999992724e+03,-2.174999999999958522e+00,-4.944999999999470042e+00,1.313019226289316421e+01,-2.492298008012105992e+00
2.000000000000064304e+01,3.000000001651112136e+00,1.000000000002421352e+01,6.600000000000681988e-01,1.570000000000014273e+00,2.869999999999992269e+03,-2.175000000000110401e+00,-4.944999999999842188e+00,1.311720834462474805e+01,-2.510917529447526775e+00
2.000000000000063594e+01,2.999999999536500539e+00,9.999999999996871836e+00,6.600000000001151612e-01,1.570000000000127516e+00,2.869999999999996817e+03,-2.174999999999938982e+00,-4.944999999999564189e+00,1.349138090316486682e+01,-2.458646789870964078e+00
2.000000000000093792e+01,2.999999999392207517e+00,1.000000000006556178e+01,6.600000000000171285e-01,1.570000000000046469e+00,2.869999999999992269e+03,-2.175000000000058886e+00,-4.944999999999811102e+00,1.364759376162060356e+01,-2.266197036889404437e+00
2.000000000000060751e+01,2.999999999846018728e+00,1.000000000001454659e+01,6.600000000000290079e-01,1.569999999999976303e+00,2.869999999999992724e+03,-2.175000000000096190e+00,-4.944999999999970086e+00,1.364352031555885780e+01,-2.171871242790259782e+00
1.999999999999992539e+01,3.000000000824791346e+00,1.000000000004384404e+01,6.599999999999838218e-01,1.569999999999917240e+00,2.870000000000000455e+03,-2.175000000000046896e+00,-4.945000000000350227e+00,1.333964264576711045e+01,-2.335752211457547300e+00
2.000000000000001066e+01,3.000000001189697674e+00,1.000000000009608137e+01,6.599999999999796030e-01,1.569999999999993401e+00,2.869999999999998636e+03,-2.174999999999938094e+00,-4.945000000000136176e+00,1.365697553778033146e+01,-2.185597778446303430e+00
2.000000000000035527e+01,3.000000001206001521e+00,1.000000000007001333e+01,6.600000000000979528e-01,1.569999999999939666e+00,2.870000000000001819e+03,-2.175000000000098410e+00,-4.944999999999972751e+00,1.361367973867887748e+01,-2.293619194973407716e+00
2.000000000000040146e+01,3.000000000575486325e+00,1.000000000000940581e+01,6.600000000000341149e-01,1.569999999999904139e+00,2.869999999999993634e+03,-2.175000000000175238e+00,-4.945000000000136176e+00,1.393838413582587776e+01,-2.013934275890982395e+00
1.999999999999996447e+01,3.000000001405782157e+00,1.000000000005493739e+01,6.599999999999397460e-01,1.569999999999832863e+00,2.869999999999996362e+03,-2.175000000000169464e+00,-4.945000000000392859e+00,1.371102825459465713e+01,-2.128756264766450634e+00
1.999999999999983302e+01,2.999999999024778319e+00,9.999999999988103738e+00,6.599999999999948130e-01,1.569999999999971196e+00,2.869999999999990905e+03,-2.174999999999911005e+00,-4.945000000000272955e+00,1.367282960211984921e+01,-1.929251495028098118e+00
2.000000000000010303e+01,2.999999999425618569e+00,9.999999999949288565e+00,6.599999999999540679e-01,1.570000000000054685e+00,2.870000000000007731e+03,-2.174999999999947864e+00,-4.944999999999975415e+00,1.353105020756866139e+01,-2.254870493758653005e+00
1.999999999999995381e+01,2.999999998927317613e+00,9.999999999999294786e+00,6.599999999999508482e-01,1.570000000000061124e+00,2.869999999999996817e+03,-2.174999999999874145e+00,-4.945000000000100648e+00,1.334765825844129239e+01,-2.433070209724416788e+00
1.999999999999963407e+01,2.999999998631822429e+00,1.000000000000538414e+01,6.600000000000492140e-01,1.570000000000050910e+00,2.869999999999997272e+03,-2.174999999999929212e+00,-4.944999999999870610e+00,1.336435716653929262e+01,-2.191141715811248503e+00
1.999999999999957723e+01,3.000000000118753452e+00,1.000000000000113154e+01,6.600000000000550981e-01,1.570000000000062901e+00,2.869999999999994998e+03,-2.174999999999920330e+00,-4.944999999999891038e+00,1.284323008836622115e+01,-2.562343775444058114e+00
1.999999999999986144e+01,3.000000000721723570e+00,1.000000000003389466e+01,6.599999999999422995e-01,1.570000000000081108e+00,2.869999999999996362e+03,-2.174999999999888356e+00,-4.944999999999999396e+00,1.383010568211367364e+01,-1.825231362585288730e+00
2.000000000000007105e+01,2.999999999487278579e+00,1.000000000002022915e+01,6.600000000001653433e-01,1.570000000000063345e+00,2.869999999999989996e+03,-2.174999999999966072e+00,-4.944999999999634355e+00,1.435858869325989495e+01,-1.485151298736603787e+00
1.999999999999979750e+01,2.999999998941210055e+00,1.000000000004976819e+01,6.600000000000402212e-01,1.570000000000038476e+00,2.869999999999986812e+03,-2.174999999999942979e+00,-4.944999999999898144e+00,1.397921814707524035e+01,-1.710071897952915032e+00
1.999999999999954170e+01,2.999999999644663795e+00,1.000000000003442047e+01,6.600000000000125766e-01,1.570000000000044027e+00,2.870000000000001819e+03,-2.174999999999903455e+00,-4.945000000000010942e+00,1.332341056102159271e+01,-2.048723107009954081e+00
1.999999999999962697e+01,3.000000000217421636e+00,1.000000000004777156e+01,6.600000000000312284e-01,1.570000000000077778e+00,2.869999999999999545e+03,-2.174999999999865263e+00,-4.944999999999917684e+00,1.368350311624963922e+01,-2.025930719006623359e+00
1.999999999999942801e+01,2.999999998256797529e+00,1.000000000003082867e+01,6.600000000000282308e-01,1.570000000000104423e+00,2.869999999999992269e+03,-2.174999999999788436e+00,-4.944999999999918572e+00,1.369566791438539965e+01,-1.870333885223131265e+00
1.999999999999995026e+01,2.999999997899585491e+00,1.000000000007104362e+01,6.600000000001692291e-01,1.570000000000150164e+00,2.870000000000001364e+03,-2.174999999999846167e+00,-4.944999999999579288e+00,1.370245770028371268e+01,-1.940074023707283768e+00
1.999999999999920419e+01,2.999999999525519545e+00,1.000000000003349854e+01,6.599999999998299449e-01,1.569999999999871276e+00,2.870000000000001364e+03,-2.174999999999954081e+00,-4.945000000000685958e+00,1.396030680211596575e+01,-1.649346676780602428e+00
1.999999999999947420e+01,2.999999999637518844e+00,1.000000000001666400e+01,6.600000000000328937e-01,1.570000000000079110e+00,2.870000000000003183e+03,-2.174999999999811973e+00,-4.945000000000015383e+00,1.400047710171026161e+01,-1.626870855758449030e+00
2.000000000000038014e+01,2.999999999032749720e+00,1.000000000006277823e+01,6.600000000000757483e-01,1.570000000000046247e+00,2.869999999999977717e+03,-2.174999999999994049e+00,-4.944999999999842188e+00,1.335925412816005675e+01,-2.229527556775943609e+00
1.999999999999968736e+01,2.999999999573859100e+00,1.000000000007704593e+01,6.600000000000171285e-01,1.569999999999965201e+00,2.869999999999993634e+03,-2.175000000000010036e+00,-4.945000000000158380e+00,1.378444504504541612e+01,-1.879573643266900351e+00
1.999999999999956657e+01,2.999999998753475339e+00,1.000000000005125145e+01,6.600000000000306732e-01,1.570000000000086882e+00,2.869999999999990905e+03,-2.174999999999859046e+00,-4.944999999999876827e+00,1.349203778512067942e+01,-2.197300304612646915e+00
1.999999999999957723e+01,2.999999998540810342e+00,1.000000000002553691e+01,6.600000000000902922e-01,1.570000000000006501e+00,2.869999999999998181e+03,-2.174999999999954969e+00,-4.944999999999987850e+00,1.366977517639485740e+01,-2.016015406872831761e+00
1.999999999999983302e+01,2.999999999068340806e+00,1.000000000004617107e+01,6.600000000001632339e-01,1.570000000000257634e+00,2.869999999999993634e+03,-2.174999999999673417e+00,-4.944999999999453166e+00,1.359578044629182614e+01,-2.143055190456677472e+00
1.999999999999942801e+01,2.999999999122835881e+00,9.999999999977847054e+00,6.599999999998610312e-01,1.569999999999896589e+00,2.870000000000003638e+03,-2.175000000000081535e+00,-4.945000000000340457e+00,1.346149854484697350e+01,-2.248718344957458370e+00
1.999999999999955591e+01,2.999999999817712037e+00,1.000000000001279332e+01,6.599999999999264233e-01,1.569999999999921680e+00,2.870000000000001364e+03,-2.175000000000045119e+00,-4.945000000000268514e+00,1.334345862151348960e+01,-2.239138857023315943e+00
1.999999999999912248e+01,2.999999999775443627e+00,9.999999999976571630e+00,6.599999999999998090e-01,1.570000000000052909e+00,2.870000000000024556e+03,-2.175000000000014921e+00,-4.944999999999844853e+00,1.374783130155510058e+01,-1.836228477214277177e+00
1.999999999999975486e+01,3.000000000466311878e+00,1.000000000000068390e+01,6.600000000000331157e-01,1.569999999999949214e+00,2.870000000000000000e+03,-2.175000000000134381e+00,-4.944999999999962093e+00,1.371072662560945332e+01,-2.009306503792539722e+00
1.999999999999957723e+01,2.999999999272178641e+00,9.999999999917745797e+00,6.599999999999636158e-01,1.569999999999948326e+00,2.870000000000024556e+03,-2.175000000000151257e+00,-4.945000000000007390e+00,1.362208032710942440e+01,-2.315284674253567765e+00
1.999999999999984368e+01,3.000000000928444432e+00,9.999999999955790031e+00,6.599999999999840439e-01,1.569999999999902363e+00,2.870000000000007276e+03,-2.175000000000179678e+00,-4.945000000000026041e+00,1.328161307749263820e+01,-2.381053349444781198e+00
1.999999999999972999e+01,3.000000001541927031e+00,9.999999999997577049e+00,6.599999999998876765e-01,1.569999999999864837e+00,2.870000000000012733e+03,-2.175000000000218314e+00,-4.945000000000313811e+00,1.373631851795432368e+01,-1.906851428970083751e+00
1.999999999999979750e+01,3.000000001837737074e+00,1.000000000000681588e+01,6.599999999999979217e-01,1.570000000000106422e+00,2.870000000000006366e+03,-2.174999999999891909e+00,-4.944999999999818208e+00,1.363690546949382743e+01,-2.021095749921355988e+00
2.000000000000007816e+01,2.999999999291947717e+00,1.000000000001336353e+01,6.600000000000029177e-01,1.570000000000133733e+00,2.869999999999998636e+03,-2.174999999999857270e+00,-4.944999999999802220e+00,1.377034171742213431e+01,-1.897159917465349288e+00
1.999999999999986144e+01,2.999999999351357971e+00,9.999999999976488141e+00,6.599999999999963674e-01,1.570000000000093321e+00,2.870000000000006821e+03,-2.174999999999920330e+00,-4.944999999999891038e+00,1.373531180208737368e+01,-1.972424966164470383e+00
2.000000000000030198e+01,2.999999999652207539e+00,1.000000000003205258e+01,6.600000000000509903e-01,1.570000000000020268e+00,2.870000000000003183e+03,-2.175000000000119282e+00,-4.944999999999804885e+00,1.360634361182127172e+01,-2.074921470894243392e+00
1.999999999999982236e+01,2.999999999607428247e+00,9.999999999974875209e+00,6.599999999999084377e-01,1.570000000000013607e+00,2.870000000000020464e+03,-2.175000000000150369e+00,-4.944999999999975415e+00,1.385128189582850844e+01,-1.843719878188906147e+00
2.000000000000002842e+01,3.000000001496470503e+00,9.999999999961382002e+00,6.599999999999452971e-01,1.569999999999866391e+00,2.870000000000011369e+03,-2.175000000000165912e+00,-4.945000000000290719e+00,1.383879962228325411e+01,-1.930350315596523370e+00
1.999999999999997158e+01,3.000000000266883404e+00,9.999999999981811882e+00,6.600000000000421085e-01,1.570000000000094431e+00,2.870000000000010914e+03,-2.174999999999815969e+00,-4.944999999999890150e+00,1.353345692668609779e+01,-2.369131613469799724e+00
2.000000000000041211e+01,3.000000002315430070e+00,1.000000000003123013e+01,6.599999999999925926e-01,1.570000000000050022e+00,2.870000000000004093e+03,-2.174999999999943423e+00,-4.944999999999907914e+00,1.367556284993070825e+01,-2.299427421046448039e+00
2.000000000000030198e+01,3.000000001070333600e+00,9.999999999994027888e+00,6.600000000001094991e-01,1.570000000000065121e+00,2.870000000000007276e+03,-2.174999999999944755e+00,-4.944999999999754259e+00,1.381182071233099329e+01,-1.936784321676662701e+00
2.000000000000046541e+01,3.000000000562610847e+00,1.000000000001477574e+01,6.600000000001529088e-01,1.570000000000080220e+00,2.870000000000000909e+03,-2.174999999999966072e+00,-4.944999999999647677e+00,1.360760336702993811e+01,-2.301371235003340399e+00
2.000000000000017764e+01,3.000000000238407516e+00,9.999999999996530775e+00,6.599999999999945910e-01,1.570000000000044915e+00,2.870000000000005457e+03,-2.175000000000007372e+00,-4.944999999999843965e+00,1.380845255733263066e+01,-2.115564387929253165e+00
2.000000000000030553e+01,3.000000001935935856e+00,1.000000000001574563e+01,6.599999999999316413e-01,1.569999999999867279e+00,2.870000000000002274e+03,-2.175000000000257394e+00,-4.945000000000160156e+00,1.373535598844554606e+01,-2.089790071981010300e+00
2.000000000000027711e+01,3.000000000774576847e+00,1.000000000001783285e+01,6.599999999999004441e-01,1.569999999999942109e+00,2.870000000000003183e+03,-2.175000000000095746e+00,-4.945000000000130846e+00,1.381262396823821170e+01,-2.118280779240280243e+00
2.000000000000006750e+01,3.000000002567698054e+00,1.000000000001628031e+01,6.600000000000031397e-01,1.570000000000007390e+00,2.870000000000011369e+03,-2.175000000000047784e+00,-4.944999999999958540e+00,1.327942611015662955e+01,-2.516740768800541428e+00
1.999999999999961275e+01,2.999999998807325596e+00,9.999999999961689312e+00,6.600000000000163514e-01,1.570000000000061124e+00,2.870000000000003638e+03,-2.174999999999931433e+00,-4.944999999999919460e+00,1.346144690733642690e+01,-2.468960888479306615e+00
2.000000000000022382e+01,2.999999999968322228e+00,1.000000000005213607e+01,6.600000000000546541e-01,1.570000000000070006e+00,2.869999999999999545e+03,-2.174999999999997602e+00,-4.944999999999715179e+00,1.355089263769631636e+01,-2.341954337102830852e+00
1.999999999999997158e+01,3.000000000330514727e+00,9.999999999994571453e+00,6.599999999999722755e-01,1.569999999999987406e+00,2.869999999999999545e+03,-2.175000000000058886e+00,-4.944999999999994955e+00,1.339002629182448345e+01,-2.426389497141721474e+00
1.999999999999957012e+01,2.999999999185144706e+00,1.000000000001579537e+01,6.599999999998246158e-01,1.569999999999834861e+00,2.870000000000000455e+03,-2.175000000000166356e+00,-4.945000000000510099e+00,1.326705155735302455e+01,-2.535700668195189245e+00
1.999999999999997513e+01,3.000000000001575629e+00,1.000000000001514522e+01,6.600000000000478817e-01,1.570000000000102203e+00,2.869999999999990905e+03,-2.174999999999863931e+00,-4.944999999999786233e+00,1.370813034481585824e+01,-2.145905453370760441e+00
2.000000000000011013e+01,2.999999999933664618e+00,1.000000000007715073e+01,6.599999999999746070e-01,1.569999999999970086e+00,2.869999999999985448e+03,-2.175000000000020695e+00,-4.945000000000139728e+00,1.393082226553149638e+01,-1.944105865813485323e+00
2.000000000000009592e+01,2.999999999743653945e+00,1.000000000002321343e+01,6.599999999999364153e-01,1.569999999999919904e+00,2.869999999999990450e+03,-2.175000000000071321e+00,-4.945000000000233875e+00,1.403215470177137725e+01,-1.840367913711929315e+00
2.000000000000047251e+01,2.999999999685729613e+00,1.000000000006621903e+01,6.599999999999750511e-01,1.570000000000035811e+00,2.869999999999987722e+03,-2.175000000000026468e+00,-4.944999999999898144e+00,1.409769240543801416e+01,-1.881295499563657270e+00
2.000000000000063949e+01,2.999999999427728437e+00,1.000000000007489831e+01,6.599999999998725775e-01,1.569999999999966755e+00,2.869999999999983629e+03,-2.175000000000062439e+00,-4.945000000000152163e+00,1.361737713796394722e+01,-2.189619166582428722e+00
2.000000000000060396e+01,2.999999999706361553e+00,1.000000000006333956e+01,6.600000000000584288e-01,1.570000000000016938e+00,2.869999999999994998e+03,-2.175000000000063771e+00,-4.944999999999804885e+00,1.365908496864628319e+01,-2.125482560432264023e+00
2.000000000000007105e+01,3.000000000091135988e+00,9.999999999941323381e+00,6.599999999999845990e-01,1.569999999999862617e+00,2.870000000000004547e+03,-2.175000000000175682e+00,-4.945000000000202789e+00,1.337786168931340569e+01,-2.068444468461815955e+00
2.000000000000050804e+01,2.999999999579247678e+00,1.000000000002312817e+01,6.600000000000448841e-01,1.569999999999974527e+00,2.869999999999997272e+03,-2.175000000000122835e+00,-4.944999999999909690e+00,1.390330296268798627e+01,-1.747125172802186155e+00
2.000000000000050804e+01,3.000000000801288813e+00,1.000000000001772626e+01,6.599999999999791589e-01,1.570000000000084883e+00,2.869999999999994088e+03,-2.175000000000023359e+00,-4.944999999999713403e+00,1.343680782042607369e+01,-2.321987740500215835e+00
2.000000000000043698e+01,3.000000000481524154e+00,1.000000000005157652e+01,6.599999999998914513e-01,1.569999999999902141e+00,2.870000000000004093e+03,-2.175000000000234746e+00,-4.945000000000135287e+00,1.400054325331335114e+01,-1.924744491328090001e+00
2.000000000000058620e+01,3.000000000436320313e+00,1.000000000000529887e+01,6.599999999999713873e-01,1.570000000000049356e+00,2.870000000000001819e+03,-2.175000000000054001e+00,-4.944999999999776463e+00,1.397019909734085807e+01,-1.852532428392156705e+00
2.000000000000033040e+01,2.999999999788675709e+00,1.000000000001989342e+01,6.599999999998993339e-01,1.570000000000018270e+00,2.870000000000001364e+03,-2.175000000000035350e+00,-4.945000000000001172e+00,1.392458565999047337e+01,-2.059978243394935848e+00
2.000000000000023803e+01,3.000000002770734309e+00,1.000000000003927703e+01,6.600000000000123546e-01,1.570000000000002505e+00,2.870000000000000909e+03,-2.175000000000031797e+00,-4.944999999999978080e+00,1.381599065950048377e+01,-2.020950674256073221e+00
2.000000000000063238e+01,3.000000000197076577e+00,1.000000000002638778e+01,6.599999999999786038e-01,1.570000000000056239e+00,2.869999999999995453e+03,-2.175000000000018918e+00,-4.944999999999858176e+00,1.374503855177136025e+01,-2.112686305921880336e+00
2.000000000000049383e+01,2.999999997854517986e+00,1.000000000003727862e+01,6.600000000000669775e-01,1.570000000000060458e+00,2.869999999999998181e+03,-2.175000000000017142e+00,-4.944999999999721396e+00,1.372746109206404341e+01,-1.881935395660889965e+00
2.000000000000017408e+01,3.000000000609411188e+00,1.000000000005600498e+01,6.600000000002149703e-01,1.570000000000209228e+00,2.869999999999991360e+03,-2.174999999999795541e+00,-4.944999999999434515e+00,1.386169837564076168e+01,-1.928092288000239352e+00
1.999999999999968026e+01,3.000000000508979081e+00,1.000000000004142997e+01,6.599999999999330846e-01,1.569999999999918128e+00,2.869999999999990450e+03,-2.174999999999984723e+00,-4.945000000000327134e+00,1.363740962263347889e+01,-1.981417295718605587e+00
2.000000000000080647e+01,3.000000000447535342e+00,1.000000000004941825e+01,6.599999999999851541e-01,1.570000000000005391e+00,2.869999999999980446e+03,-2.175000000000022027e+00,-4.944999999999989626e+00,1.319604203828358635e+01,-2.338258889086882952e+00
2.000000000000009948e+01,3.000000002318661707e+00,9.999999999962890129e+00,6.599999999998604761e-01,1.569999999999819096e+00,2.869999999999996817e+03,-2.175000000000177458e+00,-4.945000000000420393e+00,1.361744427521890266e+01,-2.162289179324108357e+00
2.000000000000087397e+01,2.999999998509532695e+00,9.999999999940559547e+00,6.600000000000091349e-01,1.569999999999884821e+00,2.870000000000000909e+03,-2.175000000000243183e+00,-4.945000000000042917e+00,1.394134522607870608e+01,-1.942774224023879892e+00
2.000000000000040146e+01,2.999999999674713091e+00,9.999999999920435201e+00,6.599999999999563993e-01,1.569999999999945439e+00,2.870000000000003638e+03,-2.175000000000050449e+00,-4.945000000000132623e+00,1.376100955666546888e+01,-2.143895950423782004e+00
2.000000000000076383e+01,3.000000000851891002e+00,9.999999999940706985e+00,6.599999999999355271e-01,1.569999999999849738e+00,2.870000000000005002e+03,-2.175000000000276490e+00,-4.945000000000160156e+00,1.403289556972464602e+01,-1.937418250445164691e+00
2.000000000000056843e+01,2.999999998811928137e+00,9.999999999918303573e+00,6.600000000000794120e-01,1.570000000000101537e+00,2.870000000000001364e+03,-2.174999999999956302e+00,-4.944999999999621032e+00,1.356134668735413840e+01,-2.327674100943629920e+00
2.000000000000094147e+01,3.000000000243757459e+00,9.999999999945339724e+00,6.599999999999976996e-01,1.569999999999976525e+00,2.869999999999997726e+03,-2.175000000000138378e+00,-4.944999999999863505e+00,1.385898687131067142e+01,-1.965604034010924206e+00
1.999999999999988631e+01,2.999999999088421188e+00,9.999999999991995736e+00,6.600000000000110223e-01,1.569999999999993623e+00,2.870000000000000909e+03,-2.174999999999977618e+00,-4.945000000000002949e+00,1.355862398198772922e+01,-2.085947884930110519e+00
2.000000000000024158e+01,3.000000003026024320e+00,1.000000000006335732e+01,6.599999999998789058e-01,1.569999999999912577e+00,2.869999999999992269e+03,-2.175000000000161027e+00,-4.945000000000291607e+00,1.395584272906137535e+01,-1.876544173150219486e+00
1.999999999999980815e+01,2.999999999514466609e+00,1.000000000005256950e+01,6.600000000000559863e-01,1.570000000000054241e+00,2.869999999999992269e+03,-2.174999999999882139e+00,-4.944999999999843077e+00,1.379285498110344932e+01,-1.705601420272614188e+00
2.000000000000058975e+01,3.000000000200546246e+00,1.000000000003605649e+01,6.599999999999773825e-01,1.569999999999922791e+00,2.869999999999984084e+03,-2.175000000000127720e+00,-4.945000000000164597e+00,1.320727392709557790e+01,-2.520020432186189652e+00
2.000000000000068923e+01,3.000000000561732438e+00,9.999999999994013677e+00,6.600000000000628697e-01,1.570000000000110862e+00,2.869999999999987722e+03,-2.174999999999971845e+00,-4.944999999999609486e+00,1.336963212793435751e+01,-2.297401940350040306e+00
2.000000000000077449e+01,3.000000000313642445e+00,1.000000000007647927e+01,6.600000000000580958e-01,1.570000000000101981e+00,2.869999999999979536e+03,-2.174999999999931877e+00,-4.944999999999764917e+00,1.403159743834104667e+01,-2.051332606904236133e+00
2.000000000000054357e+01,3.000000001768388103e+00,1.000000000000713030e+01,6.600000000001166045e-01,1.570000000000113083e+00,2.869999999999994543e+03,-2.174999999999966072e+00,-4.944999999999620144e+00,1.386915036511030053e+01,-2.382575043095146672e+00
2.000000000000053291e+01,2.999999999724697552e+00,1.000000000002659029e+01,6.599999999999562883e-01,1.569999999999959428e+00,2.869999999999994998e+03,-2.175000000000137490e+00,-4.945000000000059792e+00,1.409037484756334102e+01,-2.086691770257589340e+00
2.000000000000003197e+01,3.000000000973075842e+00,1.000000000003586287e+01,6.599999999999075495e-01,1.569999999999914131e+00,2.869999999999996817e+03,-2.175000000000116174e+00,-4.945000000000304041e+00,1.390234826894069187e+01,-2.299023911841593382e+00
1.999999999999994671e+01,3.000000000435401493e+00,9.999999999974718889e+00,6.600000000000144640e-01,1.570000000000024931e+00,2.869999999999993179e+03,-2.174999999999948752e+00,-4.945000000000045581e+00,1.384199595337617517e+01,-2.173846376785188550e+00
1.999999999999990763e+01,3.000000001656996318e+00,1.000000000001991474e+01,6.600000000000154632e-01,1.570000000000089102e+00,2.869999999999990905e+03,-2.174999999999880362e+00,-4.944999999999859952e+00,1.349120005327197980e+01,-2.008800161922271954e+00
1.999999999999995026e+01,3.000000001195131549e+00,1.000000000001986855e+01,6.600000000000342260e-01,1.570000000000171259e+00,2.869999999999992724e+03,-2.174999999999760458e+00,-4.944999999999700080e+00,1.343650342117500784e+01,-2.119528363234923329e+00
2.000000000000006395e+01,3.000000000127509558e+00,1.000000000007105250e+01,6.600000000000189049e-01,1.570000000000023821e+00,2.870000000000003183e+03,-2.174999999999977618e+00,-4.944999999999902585e+00,1.390576466229252084e+01,-2.015888605220799157e+00
1.999999999999966604e+01,3.000000000986960735e+00,1.000000000007875656e+01,6.599999999999561773e-01,1.569999999999765805e+00,2.869999999999999545e+03,-2.175000000000207212e+00,-4.945000000000598916e+00,1.366100696602624609e+01,-2.205398604874518664e+00
1.999999999999955591e+01,3.000000000746970041e+00,1.000000000005225331e+01,6.600000000000130207e-01,1.569999999999999396e+00,2.870000000000002728e+03,-2.174999999999923883e+00,-4.945000000000128182e+00,1.368571798173987020e+01,-2.216501657281590987e+00
1.999999999999997513e+01,2.999999999510200688e+00,1.000000000005492851e+01,6.600000000000439959e-01,1.569999999999982521e+00,2.869999999999993634e+03,-2.175000000000026024e+00,-4.945000000000020712e+00,1.356497267989736066e+01,-2.247229814706650064e+00
1.999999999999997513e+01,2.999999999678778284e+00,1.000000000003017497e+01,6.600000000000569855e-01,1.570000000000027374e+00,2.869999999999998636e+03,-2.174999999999953637e+00,-4.944999999999975415e+00,1.323356880419578552e+01,-2.573746505174943078e+00
2.000000000000025580e+01,2.999999998027079506e+00,1.000000000001173817e+01,6.600000000000448841e-01,1.569999999999986962e+00,2.869999999999990450e+03,-2.175000000000037570e+00,-4.945000000000047358e+00,1.373098771648068706e+01,-2.100434017468505221e+00
1.999999999999998934e+01,2.999999998652109312e+00,1.000000000000679634e+01,6.600000000000385558e-01,1.570000000000038920e+00,2.869999999999992724e+03,-2.174999999999935429e+00,-4.944999999999930118e+00,1.347545225089452892e+01,-2.370783450587782504e+00
2.000000000000097344e+01,2.999999997706876975e+00,1.000000000005611334e+01,6.600000000001995382e-01,1.570000000000184359e+00,2.869999999999986812e+03,-2.174999999999931877e+00,-4.944999999999361684e+00,1.363245258288574746e+01,-2.089255645866594069e+00
1.999999999999926459e+01,3.000000000868744632e+00,9.999999999991638688e+00,6.599999999999491829e-01,1.569999999999977414e+00,2.869999999999987722e+03,-2.174999999999857270e+00,-4.945000000000344009e+00,1.334746489159461724e+01,-2.122793574348482704e+00
1.999999999999982236e+01,3.000000001950196005e+00,9.999999999975976550e+00,6.600000000000888489e-01,1.570000000000097984e+00,2.869999999999985903e+03,-2.174999999999855493e+00,-4.944999999999796891e+00,1.420809781886870127e+01,-1.581641495573769429e+00
2.000000000000027356e+01,3.000000000099540376e+00,9.999999999978298248e+00,6.600000000000406652e-01,1.570000000000033591e+00,2.870000000000004093e+03,-2.174999999999978506e+00,-4.944999999999858176e+00,1.376367461967265271e+01,-1.827836131118984575e+00
2.000000000000071054e+01,3.000000000817896861e+00,9.999999999961234565e+00,6.600000000000380007e-01,1.570000000000034257e+00,2.869999999999998181e+03,-2.175000000000007372e+00,-4.944999999999838636e+00,1.360344897204875103e+01,-1.984363125882141698e+00
2.000000000000079936e+01,3.000000002930108156e+00,1.000000000002222045e+01,6.599999999999457412e-01,1.569999999999900808e+00,2.869999999999998181e+03,-2.175000000000187672e+00,-4.945000000000102425e+00,1.398705742626134985e+01,-1.696448446065131899e+00
1.999999999999981881e+01,2.999999997736710000e+00,9.999999999992239097e+00,6.600000000000837419e-01,1.570000000000166374e+00,2.869999999999992724e+03,-2.174999999999832401e+00,-4.944999999999596163e+00,1.382375918063315900e+01,-2.126904154829686533e+00
1.999999999999980460e+01,2.999999998593207540e+00,9.999999999955187846e+00,6.600000000000350031e-01,1.569999999999856399e+00,2.869999999999993179e+03,-2.175000000000230749e+00,-4.945000000000170814e+00,1.375850906421803188e+01,-2.085705644819566107e+00
1.999999999999992895e+01,2.999999998231994702e+00,9.999999999926528105e+00,6.600000000000624256e-01,1.570000000000029372e+00,2.869999999999996817e+03,-2.175000000000053113e+00,-4.944999999999706297e+00,1.355251765524329777e+01,-2.430538032432810525e+00
2.000000000000014921e+01,2.999999998056845918e+00,9.999999999957200458e+00,6.600000000002230749e-01,1.570000000000030704e+00,2.870000000000002274e+03,-2.175000000000107736e+00,-4.944999999999586393e+00,1.386296078163102052e+01,-1.998192307357753661e+00
1.999999999999964118e+01,3.000000000508216580e+00,9.999999999959189978e+00,6.599999999999403011e-01,1.569999999999899032e+00,2.869999999999994998e+03,-2.175000000000102851e+00,-4.945000000000258744e+00,1.323613926924107176e+01,-2.163778569990808531e+00
1.999999999999992539e+01,2.999999999135415596e+00,1.000000000000669154e+01,6.600000000000435518e-01,1.570000000000079554e+00,2.869999999999986358e+03,-2.174999999999875033e+00,-4.944999999999899920e+00,1.333122000969412113e+01,-2.209382116631415371e+00
1.999999999999973710e+01,2.999999999746389090e+00,9.999999999978832932e+00,6.599999999999633937e-01,1.570000000000027374e+00,2.869999999999989541e+03,-2.174999999999903899e+00,-4.945000000000140616e+00,1.323157712838093936e+01,-2.287092146660723913e+00
2.000000000000007816e+01,3.000000001396442517e+00,9.999999999955164753e+00,6.600000000001265965e-01,1.570000000000086438e+00,2.869999999999985448e+03,-2.174999999999982947e+00,-4.944999999999712514e+00,1.362198889382486477e+01,-2.228552019085332070e+00
1.999999999999940314e+01,3.000000001252257853e+00,9.999999999965121233e+00,6.600000000000236788e-01,1.570000000000032925e+00,2.869999999999988631e+03,-2.174999999999940758e+00,-4.945000000000039364e+00,1.359469183544333681e+01,-2.317639224034854006e+00
1.999999999999959144e+01,3.000000002387676279e+00,9.999999999942431828e+00,6.600000000000468825e-01,1.570000000000065121e+00,2.869999999999994088e+03,-2.174999999999942979e+00,-4.944999999999908802e+00,1.389812586758914037e+01,-2.027400953557760843e+00
1.999999999999982592e+01,3.000000002193942361e+00,9.999999999982662757e+00,6.599999999999245359e-01,1.569999999999928786e+00,2.869999999999988177e+03,-2.175000000000135270e+00,-4.945000000000240092e+00,1.356271597923978867e+01,-2.324258620627035921e+00
1.999999999999979039e+01,3.000000001640873215e+00,1.000000000000435030e+01,6.600000000000255662e-01,1.570000000000072671e+00,2.869999999999989996e+03,-2.174999999999970957e+00,-4.944999999999879492e+00,1.369126716782704456e+01,-2.257854749399990979e+00
1.999999999999880984e+01,3.000000000495831820e+00,9.999999999947402074e+00,6.599999999998193978e-01,1.569999999999914797e+00,2.870000000000006366e+03,-2.174999999999995826e+00,-4.945000000000515428e+00,1.331604857232332684e+01,-2.149478973993732112e+00
1.999999999999945288e+01,3.000000001049202059e+00,9.999999999900918368e+00,6.599999999999353051e-01,1.570000000000046469e+00,2.870000000000000000e+03,-2.174999999999852385e+00,-4.945000000000062457e+00,1.359254730916047293e+01,-2.332893111718684409e+00
1.999999999999981881e+01,3.000000000964949010e+00,9.999999999959371166e+00,6.600000000000797451e-01,1.570000000000176810e+00,2.869999999999997272e+03,-2.174999999999782219e+00,-4.944999999999590834e+00,1.319624548329254843e+01,-2.749330094477639985e+00
1.999999999999980815e+01,3.000000000112277299e+00,9.999999999964698461e+00,6.600000000000239009e-01,1.570000000000066231e+00,2.869999999999998181e+03,-2.174999999999900346e+00,-4.944999999999929230e+00,1.324102514114340678e+01,-2.595499045705431662e+00
1.999999999999992184e+01,3.000000000822725443e+00,9.999999999961076469e+00,6.599999999999713873e-01,1.569999999999959650e+00,2.870000000000001364e+03,-2.174999999999985167e+00,-4.945000000000124629e+00,1.323183003183440576e+01,-2.587048606721216171e+00
2.000000000000011013e+01,3.000000000159432467e+00,9.999999999975482723e+00,6.600000000001065015e-01,1.569999999999995843e+00,2.869999999999991360e+03,-2.175000000000005151e+00,-4.944999999999883933e+00,1.372507939651600672e+01,-2.211905225745831149e+00
2.000000000000000355e+01,3.000000001312333797e+00,9.999999999991032951e+00,6.600000000000152411e-01,1.570000000000045803e+00,2.869999999999990450e+03,-2.174999999999906564e+00,-4.945000000000012719e+00,1.356538318250532704e+01,-2.289008063185288933e+00
2.000000000000019185e+01,3.000000000775286058e+00,9.999999999980852650e+00,6.600000000001634559e-01,1.570000000000136620e+00,2.869999999999988631e+03,-2.174999999999805755e+00,-4.944999999999650342e+00,1.346481614689248651e+01,-2.326114574527813339e+00
2.000000000000020606e+01,3.000000001617899592e+00,9.999999999968443021e+00,6.599999999999376366e-01,1.569999999999998286e+00,2.870000000000005912e+03,-2.175000000000077982e+00,-4.944999999999928342e+00,1.389902122926410222e+01,-2.058933048094385931e+00
2.000000000000014921e+01,3.000000001460156884e+00,1.000000000003566214e+01,6.599999999999891509e-01,1.570000000000016493e+00,2.870000000000001364e+03,-2.175000000000035794e+00,-4.944999999999906137e+00,1.361343443382073382e+01,-2.266771275909305494e+00
2.000000000000000000e+01,3.000000002127755749e+00,1.000000000001530864e+01,6.600000000000769695e-01,1.570000000000153717e+00,2.869999999999994088e+03,-2.174999999999786660e+00,-4.944999999999736495e+00,1.354342089863587795e+01,-2.362728653459150063e+00
2.000000000000033751e+01,3.000000000535449018e+00,9.999999999995333511e+00,6.600000000000376676e-01,1.570000000000089546e+00,2.869999999999994543e+03,-2.174999999999930989e+00,-4.944999999999767581e+00,1.370212883749205091e+01,-2.117832869400312568e+00
2.000000000000038369e+01,3.000000001379533376e+00,9.999999999937013939e+00,6.600000000001353673e-01,1.569999999999996065e+00,2.869999999999992724e+03,-2.175000000000130829e+00,-4.944999999999799556e+00,1.379652586728205677e+01,-2.252438396383299235e+00
1.999999999999966604e+01,3.000000001220616941e+00,9.999999999963428365e+00,6.599999999999767164e-01,1.569999999999994511e+00,2.869999999999993179e+03,-2.175000000000012257e+00,-4.945000000000077556e+00,1.364715201826338919e+01,-2.297457473359531210e+00
1.999999999999938893e+01,2.999999998917516564e+00,1.000000000000683187e+01,6.599999999999265343e-01,1.569999999999964757e+00,2.870000000000001819e+03,-2.175000000000018474e+00,-4.945000000000134399e+00,1.380390991080062513e+01,-1.723864115212972337e+00
2.000000000000064659e+01,2.999999999114497218e+00,1.000000000003062439e+01,6.600000000001066125e-01,1.569999999999921680e+00,2.869999999999993634e+03,-2.175000000000254730e+00,-4.944999999999918572e+00,1.390784408345560585e+01,-2.107720913852853428e+00
2.000000000000040501e+01,2.999999998854326222e+00,9.999999999996553868e+00,6.599999999999704992e-01,1.570000000000055129e+00,2.869999999999990450e+03,-2.175000000000032685e+00,-4.944999999999831530e+00,1.398172345944166395e+01,-1.857345848611986705e+00
2.000000000000022737e+01,2.999999999049587807e+00,9.999999999992363442e+00,6.599999999998407141e-01,1.569999999999889928e+00,2.869999999999987722e+03,-2.175000000000165912e+00,-4.945000000000352003e+00,1.394947486909928180e+01,-2.007319144816234857e+00
2.000000000000016698e+01,2.999999998986477401e+00,9.999999999975793585e+00,6.599999999999273115e-01,1.569999999999986295e+00,2.870000000000000455e+03,-2.175000000000081535e+00,-4.945000000000094431e+00,1.366347375611905335e+01,-2.220091980820499966e+00
1.999999999999887024e+01,3.000000002269216814e+00,9.999999999994797051e+00,6.599999999999029976e-01,1.570000000000007612e+00,2.869999999999989086e+03,-2.174999999999760014e+00,-4.945000000000391971e+00,1.339670434959240630e+01,-2.345965500247344959e+00
1.999999999999901235e+01,2.999999999831832742e+00,9.999999999988569144e+00,6.599999999998867883e-01,1.569999999999877716e+00,2.870000000000004547e+03,-2.175000000000082867e+00,-4.945000000000366214e+00,1.360516977887646028e+01,-1.973702017894766847e+00
1.999999999999914380e+01,3.000000000020015101e+00,1.000000000001561951e+01,6.600000000000046940e-01,1.569999999999980966e+00,2.870000000000008185e+03,-2.175000000000018030e+00,-4.945000000000017160e+00,1.358349363275353205e+01,-2.053055387298600820e+00
2.000000000000018474e+01,3.000000002620553552e+00,1.000000000002594192e+01,6.599999999999750511e-01,1.570000000000081108e+00,2.869999999999998636e+03,-2.174999999999889688e+00,-4.944999999999886597e+00,1.345573562873655327e+01,-2.128303171641721114e+00
2.000000000000040146e+01,3.000000001333359201e+00,1.000000000003279332e+01,6.600000000001505773e-01,1.570000000000109086e+00,2.869999999999998181e+03,-2.174999999999915890e+00,-4.944999999999682316e+00,1.333036775927405237e+01,-2.237602902528782245e+00
1.999999999999983658e+01,3.000000001993729626e+00,1.000000000002524025e+01,6.600000000000129097e-01,1.570000000000084661e+00,2.870000000000002274e+03,-2.174999999999842615e+00,-4.944999999999964757e+00,1.368300631924196509e+01,-1.683672900229879810e+00
2.000000000000011724e+01,2.999999999823651287e+00,9.999999999998758327e+00,6.600000000000232347e-01,1.569999999999998286e+00,2.870000000000002728e+03,-2.175000000000061995e+00,-4.944999999999865281e+00,1.377385487158530175e+01,-2.005968872795921065e+00
2.000000000000052935e+01,3.000000002017033651e+00,1.000000000000146194e+01,6.600000000000459943e-01,1.569999999999911022e+00,2.869999999999989996e+03,-2.175000000000190337e+00,-4.945000000000015383e+00,1.332957505567875245e+01,-2.291573236548196668e+00
2.000000000000014921e+01,3.000000000295720337e+00,1.000000000004067147e+01,6.599999999999981437e-01,1.569999999999970974e+00,2.870000000000007731e+03,-2.175000000000123279e+00,-4.944999999999961204e+00,1.385222328473198417e+01,-1.718423769630682774e+00
2.000000000000004619e+01,3.000000000344952955e+00,1.000000000000508038e+01,6.600000000000011413e-01,1.569999999999934559e+00,2.870000000000002728e+03,-2.175000000000101519e+00,-4.945000000000101537e+00,1.382886995285095821e+01,-1.684656960983017537e+00
2.000000000000091305e+01,2.999999999887172475e+00,1.000000000000679989e+01,6.600000000000719735e-01,1.569999999999988072e+00,2.870000000000001364e+03,-2.175000000000215650e+00,-4.944999999999699192e+00,1.407796797634607522e+01,-1.389306230232488337e+00
2.000000000000067857e+01,2.999999998714747651e+00,1.000000000001422507e+01,6.599999999999787148e-01,1.569999999999972085e+00,2.870000000000000909e+03,-2.175000000000179234e+00,-4.944999999999819984e+00,1.432740784964069469e+01,-1.177484062190091052e+00
2.000000000000038725e+01,2.999999997576729083e+00,1.000000000003489831e+01,6.600000000000439959e-01,1.570000000000001172e+00,2.870000000000004093e+03,-2.175000000000129052e+00,-4.944999999999827089e+00,1.431378423205482164e+01,-1.315813709743641757e+00
2.000000000000008171e+01,2.999999999347831903e+00,1.000000000005138467e+01,6.599999999999376366e-01,1.569999999999918350e+00,2.870000000000013188e+03,-2.175000000000178346e+00,-4.945000000000165485e+00,1.392522896367397678e+01,-1.800969616626920011e+00
2.000000000000068567e+01,3.000000000575044901e+00,1.000000000003862688e+01,6.600000000000202371e-01,1.569999999999860174e+00,2.869999999999999545e+03,-2.175000000000260059e+00,-4.945000000000147722e+00,1.433483115026374222e+01,-1.617174437980482660e+00
2.000000000000032330e+01,3.000000000280022228e+00,9.999999999983865351e+00,6.599999999999737188e-01,1.569999999999796003e+00,2.870000000000001364e+03,-2.175000000000286704e+00,-4.945000000000340457e+00,1.446206544673678707e+01,-1.409990599541974143e+00
2.000000000000042277e+01,3.000000000028353320e+00,1.000000000001359446e+01,6.599999999998915623e-01,1.569999999999805551e+00,2.870000000000000455e+03,-2.175000000000253397e+00,-4.945000000000427498e+00,1.436942333486026691e+01,-1.449153444259131618e+00
1.999999999999946709e+01,2.999999999148976748e+00,1.000000000005148060e+01,6.599999999999371925e-01,1.569999999999948992e+00,2.869999999999996817e+03,-2.175000000000085976e+00,-4.945000000000097984e+00,1.444923056359640690e+01,-1.420737314761717496e+00
1.999999999999952394e+01,2.999999999839549236e+00,1.000000000000377831e+01,6.600000000000790790e-01,1.570000000000165041e+00,2.869999999999997272e+03,-2.174999999999749800e+00,-4.944999999999644125e+00,1.403394589415164972e+01,-1.653495474561605505e+00
2.000000000000018829e+01,3.000000001219545798e+00,9.999999999982344789e+00,6.600000000000544320e-01,1.569999999999980522e+00,2.870000000000007276e+03,-2.175000000000096634e+00,-4.944999999999929230e+00,1.441706023398952219e+01,-1.396934437111507998e+00
2.000000000000018829e+01,3.000000001889557844e+00,1.000000000000967226e+01,6.599999999999569544e-01,1.569999999999859286e+00,2.869999999999997726e+03,-2.175000000000212541e+00,-4.945000000000260520e+00,1.429103099056767867e+01,-1.673942294045248191e+00
1.999999999999991829e+01,3.000000001233514180e+00,9.999999999957466912e+00,6.600000000000039169e-01,1.569999999999838636e+00,2.870000000000012278e+03,-2.175000000000228528e+00,-4.945000000000273843e+00,1.441952567375938976e+01,-1.483228410147615195e+00
2.000000000000072475e+01,2.999999999128494022e+00,1.000000000008204459e+01,6.600000000001198242e-01,1.570000000000071561e+00,2.869999999999988177e+03,-2.175000000000044231e+00,-4.944999999999651230e+00,1.410717500387640122e+01,-1.483644437005956052e+00
2.000000000000051159e+01,3.000000000285321100e+00,1.000000000006722800e+01,6.599999999999911493e-01,1.570000000000044471e+00,2.869999999999989996e+03,-2.174999999999987388e+00,-4.944999999999915907e+00,1.395893438880209558e+01,-1.605406847175896878e+00
2.000000000000054357e+01,3.000000000359332120e+00,9.999999999995273114e+00,6.600000000000262323e-01,1.569999999999910800e+00,2.870000000000000455e+03,-2.175000000000204992e+00,-4.945000000000003837e+00,1.410454356734645209e+01,-1.631084766393467334e+00
1.999999999999991829e+01,3.000000000001633804e+00,9.999999999974949816e+00,6.599999999999254241e-01,1.569999999999967422e+00,2.870000000000005002e+03,-2.175000000000067324e+00,-4.945000000000071338e+00,1.407197026176055132e+01,-1.722359737006926128e+00
2.000000000000023803e+01,3.000000001334358402e+00,9.999999999981191934e+00,6.600000000000559863e-01,1.569999999999976081e+00,2.870000000000003183e+03,-2.175000000000110845e+00,-4.944999999999896367e+00,1.397615327598537682e+01,-1.873209209536032871e+00
1.999999999999966960e+01,3.000000003723680475e+00,1.000000000003236167e+01,6.600000000000326716e-01,1.569999999999896145e+00,2.870000000000004093e+03,-2.175000000000222755e+00,-4.944999999999991402e+00,1.378932058045098863e+01,-1.899835382571584574e+00
1.999999999999977263e+01,3.000000004546675925e+00,1.000000000006803802e+01,6.600000000001248202e-01,1.570000000000165929e+00,2.869999999999983629e+03,-2.174999999999847500e+00,-4.944999999999499352e+00,1.355482261498201524e+01,-1.952273091050047649e+00
1.999999999999942801e+01,2.999999999942442930e+00,9.999999999939275241e+00,6.599999999999739408e-01,1.569999999999939222e+00,2.870000000000013188e+03,-2.175000000000054001e+00,-4.945000000000124629e+00,1.355972816157902194e+01,-2.048775162434097741e+00
1.999999999999961631e+01,3.000000001273082972e+00,9.999999999912793314e+00,6.600000000000307843e-01,1.569999999999981188e+00,2.870000000000012278e+03,-2.175000000000041123e+00,-4.944999999999984297e+00,1.349260055824910864e+01,-2.248795145755192681e+00
1.999999999999981526e+01,3.000000001409447226e+00,1.000000000000265032e+01,6.600000000001412515e-01,1.570000000000190576e+00,2.869999999999998636e+03,-2.174999999999827516e+00,-4.944999999999413198e+00,1.395804036470883247e+01,-1.806511062643447518e+00
1.999999999999916511e+01,3.000000001235302971e+00,9.999999999977699616e+00,6.599999999999327516e-01,1.569999999999855733e+00,2.870000000000003638e+03,-2.175000000000098854e+00,-4.945000000000357332e+00,1.374050973999174374e+01,-1.806475871643515418e+00
1.999999999999949196e+01,3.000000001069969446e+00,9.999999999912247972e+00,6.600000000000019185e-01,1.570000000000024043e+00,2.870000000000007276e+03,-2.174999999999889688e+00,-4.944999999999983409e+00,1.396241336292626478e+01,-1.932388121973635853e+00
1.999999999999974776e+01,2.999999999879020773e+00,9.999999999965869080e+00,6.600000000000374456e-01,1.570000000000087548e+00,2.869999999999994543e+03,-2.174999999999900346e+00,-4.944999999999779128e+00,1.338679416467095251e+01,-2.368360411139305732e+00
1.999999999999943867e+01,2.999999999438840437e+00,9.999999999926634686e+00,6.599999999999482947e-01,1.569999999999898588e+00,2.870000000000003183e+03,-2.175000000000109512e+00,-4.945000000000234763e+00,1.314133690663841669e+01,-2.446062390836775791e+00
1.999999999999982592e+01,2.999999999382589877e+00,9.999999999953626428e+00,6.600000000001509104e-01,1.570000000000176366e+00,2.869999999999999091e+03,-2.174999999999847500e+00,-4.944999999999440732e+00,1.354675816134726496e+01,-1.959985753863262570e+00
1.999999999999964828e+01,3.000000000657134347e+00,9.999999999951471708e+00,6.600000000000265654e-01,1.570000000000130180e+00,2.869999999999997272e+03,-2.174999999999805755e+00,-4.944999999999751594e+00,1.354708339296571395e+01,-2.134345956390849786e+00
1.999999999999970512e+01,3.000000001479078637e+00,9.999999999989613642e+00,6.599999999999947020e-01,1.570000000000012719e+00,2.869999999999995453e+03,-2.174999999999993605e+00,-4.944999999999941664e+00,1.318680253885451847e+01,-2.377772398332952175e+00
2.000000000000035172e+01,3.000000001242134395e+00,9.999999999951677765e+00,6.600000000001613465e-01,1.570000000000190354e+00,2.869999999999995453e+03,-2.174999999999939870e+00,-4.944999999999222240e+00,1.371436397468435153e+01,-1.884072174052840110e+00
1.999999999999944222e+01,3.000000000944319734e+00,9.999999999958037122e+00,6.600000000000038058e-01,1.570000000000040252e+00,2.870000000000003183e+03,-2.174999999999920330e+00,-4.944999999999935447e+00,1.309196664679336131e+01,-2.488777964119953889e+00
1.999999999999950262e+01,3.000000000200442773e+00,9.999999999947021934e+00,6.599999999998736877e-01,1.569999999999778018e+00,2.870000000000008185e+03,-2.175000000000177458e+00,-4.945000000000685070e+00,1.342945705733818329e+01,-2.108004674823371616e+00
2.000000000000026645e+01,2.999999998938785328e+00,9.999999999988878230e+00,6.600000000000134648e-01,1.570000000000011831e+00,2.869999999999996817e+03,-2.175000000000014921e+00,-4.944999999999910578e+00,1.353763628091552285e+01,-2.020986925548494018e+00
2.000000000000048317e+01,3.000000003818455330e+00,9.999999999972565945e+00,6.600000000001379208e-01,1.570000000000070894e+00,2.869999999999997272e+03,-2.175000000000019362e+00,-4.944999999999559748e+00,1.451280658155200953e+01,-1.451391343576027504e+00
2.000000000000040856e+01,3.000000003791164271e+00,1.000000000000539302e+01,6.599999999999918154e-01,1.569999999999932561e+00,2.869999999999997272e+03,-2.175000000000182787e+00,-4.944999999999945217e+00,1.455039220899865882e+01,-1.341865142799806954e+00
1.999999999999985434e+01,3.000000003888716016e+00,1.000000000000395595e+01,6.599999999999053291e-01,1.569999999999809104e+00,2.869999999999997272e+03,-2.175000000000150369e+00,-4.945000000000518092e+00,1.434367437908723808e+01,-1.544351878533534173e+00
2.000000000000022027e+01,3.000000004135943588e+00,9.999999999941286077e+00,6.599999999999258682e-01,1.569999999999752482e+00,2.869999999999993634e+03,-2.175000000000283151e+00,-4.945000000000470131e+00,1.453324340504623535e+01,-1.306356575756383975e+00
2.000000000000022737e+01,3.000000004348344351e+00,9.999999999966595610e+00,6.600000000000207923e-01,1.570000000000031370e+00,2.869999999999995907e+03,-2.175000000000006928e+00,-4.944999999999813767e+00,1.431505303057674539e+01,-1.592923105615245305e+00
1.999999999999967315e+01,3.000000001948312178e+00,9.999999999887075219e+00,6.600000000000587619e-01,1.570000000000148610e+00,2.870000000000004547e+03,-2.174999999999786215e+00,-4.944999999999660112e+00,1.398598867404054502e+01,-1.649136499346191886e+00
2.000000000000004974e+01,3.000000002817966305e+00,9.999999999989107380e+00,6.599999999999938138e-01,1.569999999999875939e+00,2.869999999999998181e+03,-2.175000000000144151e+00,-4.945000000000288942e+00,1.412344883054655220e+01,-1.765714488421527451e+00
2.000000000000028066e+01,3.000000002451846726e+00,1.000000000001880984e+01,6.599999999999035527e-01,1.569999999999921236e+00,2.869999999999993179e+03,-2.175000000000125500e+00,-4.945000000000225882e+00,1.439102951827577748e+01,-1.552627467993500820e+00
2.000000000000002132e+01,3.000000001756338630e+00,9.999999999984215293e+00,6.600000000000391109e-01,1.570000000000099760e+00,2.870000000000000909e+03,-2.174999999999919886e+00,-4.944999999999727613e+00,1.382871620851982897e+01,-1.881193629879886142e+00
1.999999999999984723e+01,3.000000004225841010e+00,9.999999999984003907e+00,6.599999999999532907e-01,1.570000000000066676e+00,2.869999999999997726e+03,-2.174999999999887912e+00,-4.944999999999984297e+00,1.416820539839490856e+01,-1.738722290798539793e+00
1.999999999999974420e+01,3.000000001672538108e+00,9.999999999972207121e+00,6.600000000000915135e-01,1.569999999999985629e+00,2.869999999999998636e+03,-2.174999999999982503e+00,-4.945000000000021600e+00,1.414653273673743428e+01,-1.615507969303987768e+00
1.999999999999979394e+01,3.000000003136245930e+00,1.000000000000803091e+01,6.599999999999859313e-01,1.569999999999837081e+00,2.869999999999992724e+03,-2.175000000000160583e+00,-4.945000000000410623e+00,1.403819973916885644e+01,-1.820017156567099725e+00
1.999999999999982236e+01,3.000000002325340365e+00,9.999999999952521534e+00,6.600000000000796341e-01,1.570000000000145945e+00,2.870000000000003183e+03,-2.174999999999853717e+00,-4.944999999999665441e+00,1.445670287107298080e+01,-1.305216886374209961e+00
1.999999999999961275e+01,3.000000002923862041e+00,9.999999999960301977e+00,6.599999999999590639e-01,1.569999999999946549e+00,2.870000000000001364e+03,-2.174999999999993161e+00,-4.945000000000300489e+00,1.429472722263031237e+01,-1.482987497157836732e+00
2.000000000000008882e+01,3.000000001294004015e+00,9.999999999956067143e+00,6.600000000001102762e-01,1.570000000000139506e+00,2.869999999999999091e+03,-2.174999999999844835e+00,-4.944999999999633467e+00,1.408684645406159142e+01,-1.674393290414188717e+00
2.000000000000014566e+01,3.000000002787954756e+00,9.999999999999221956e+00,6.599999999999339728e-01,1.569999999999948548e+00,2.869999999999995453e+03,-2.175000000000091305e+00,-4.945000000000143281e+00,1.377291716799224197e+01,-1.791742571360661618e+00
2.000000000000068567e+01,2.999999998806400114e+00,1.000000000002682121e+01,6.600000000000935119e-01,1.570000000000168372e+00,2.869999999999993179e+03,-2.174999999999839062e+00,-4.944999999999581064e+00,1.345422548960851294e+01,-1.965313214022178290e+00
2.000000000000068567e+01,2.999999999381957938e+00,9.999999999983499421e+00,6.600000000000204592e-01,1.569999999999978524e+00,2.869999999999997726e+03,-2.175000000000092193e+00,-4.944999999999954987e+00,1.349685988526602820e+01,-2.063278927510286742e+00
2.000000000000045475e+01,3.000000001340763056e+00,9.999999999962186692e+00,6.600000000000033618e-01,1.570000000000002283e+00,2.869999999999994088e+03,-2.175000000000003819e+00,-4.944999999999960316e+00,1.359297422607273731e+01,-2.101948720909329715e+00
1.999999999999986144e+01,2.999999999317403354e+00,9.999999999969672260e+00,6.599999999998857891e-01,1.569999999999884155e+00,2.869999999999996362e+03,-2.175000000000098410e+00,-4.945000000000325358e+00,1.363918479188909494e+01,-1.807732975963885158e+00
1.999999999999980460e+01,2.999999999715227350e+00,9.999999999972787990e+00,6.599999999999726086e-01,1.570000000000030260e+00,2.870000000000003183e+03,-2.174999999999958522e+00,-4.944999999999961204e+00,1.366546577512919569e+01,-1.943924976953564920e+00
2.000000000000062528e+01,3.000000000400138589e+00,9.999999999987268851e+00,6.600000000000291189e-01,1.569999999999991180e+00,2.870000000000000000e+03,-2.175000000000051781e+00,-4.944999999999932783e+00,1.370672876385051353e+01,-2.095363030584066699e+00
2.000000000000083844e+01,3.000000000437754721e+00,9.999999999962973618e+00,6.600000000001112754e-01,1.569999999999902363e+00,2.870000000000008640e+03,-2.175000000000146816e+00,-4.944999999999994955e+00,1.364189776034218227e+01,-1.965492149659539667e+00
2.000000000000092015e+01,2.999999998501663878e+00,1.000000000000496847e+01,6.600000000000262323e-01,1.570000000000120410e+00,2.869999999999997726e+03,-2.174999999999843947e+00,-4.944999999999674323e+00,1.346546978046498566e+01,-2.270356039898883793e+00
2.000000000000029843e+01,2.999999998410788127e+00,9.999999999974660270e+00,6.599999999999494049e-01,1.569999999999811324e+00,2.869999999999994998e+03,-2.175000000000268496e+00,-4.945000000000347562e+00,1.429773550323429454e+01,-1.399683870635239247e+00
2.000000000000037659e+01,2.999999997879574831e+00,9.999999999935150541e+00,6.599999999999848210e-01,1.569999999999980744e+00,2.869999999999991360e+03,-2.175000000000050449e+00,-4.944999999999971863e+00,1.393063321801739995e+01,-1.655029810376850374e+00
2.000000000000007105e+01,2.999999997131968854e+00,1.000000000004694378e+01,6.600000000000455502e-01,1.570000000000027374e+00,2.869999999999985448e+03,-2.174999999999986500e+00,-4.944999999999880380e+00,1.359657028923836819e+01,-1.900194029791236749e+00
2.000000000000019895e+01,2.999999997252771333e+00,1.000000000003113421e+01,6.600000000000064704e-01,1.569999999999980966e+00,2.869999999999982265e+03,-2.175000000000006040e+00,-4.945000000000045581e+00,1.397104120714198316e+01,-1.844094412175101283e+00
2.000000000000101963e+01,2.999999999521119065e+00,1.000000000002977352e+01,6.599999999999974776e-01,1.570000000000032925e+00,2.869999999999974534e+03,-2.174999999999973621e+00,-4.944999999999803109e+00,1.420364844819509109e+01,-1.359410959052736345e+00
2.000000000000101963e+01,2.999999998932882050e+00,1.000000000004777156e+01,6.600000000000233458e-01,1.569999999999962537e+00,2.869999999999976808e+03,-2.175000000000117062e+00,-4.944999999999904361e+00,1.418943451643446174e+01,-1.339475155773789394e+00
2.000000000000014211e+01,2.999999999116293115e+00,9.999999999956678209e+00,6.599999999999472955e-01,1.569999999999935891e+00,2.869999999999988177e+03,-2.175000000000057998e+00,-4.945000000000185025e+00,1.422658223085571727e+01,-1.627988609531193953e+00
2.000000000000029132e+01,3.000000000416369605e+00,9.999999999959163333e+00,6.599999999999064393e-01,1.569999999999885709e+00,2.869999999999980446e+03,-2.175000000000100631e+00,-4.945000000000303153e+00,1.447610210453859381e+01,-1.497062710813144681e+00
2.000000000000040856e+01,2.999999999849623400e+00,9.999999999997003286e+00,6.599999999999722755e-01,1.569999999999864615e+00,2.869999999999991815e+03,-2.175000000000217426e+00,-4.945000000000185025e+00,1.461388060028400560e+01,-1.279193470303515046e+00
2.000000000000035172e+01,3.000000000174976478e+00,9.999999999985860200e+00,6.599999999999379696e-01,1.569999999999899032e+00,2.869999999999991360e+03,-2.175000000000145928e+00,-4.945000000000185025e+00,1.491960956236079383e+01,-1.015627370267321306e+00
2.000000000000017408e+01,2.999999999255644756e+00,1.000000000000028599e+01,6.600000000000081357e-01,1.569999999999821982e+00,2.869999999999994543e+03,-2.175000000000232525e+00,-4.945000000000324469e+00,1.434429151151650927e+01,-1.412599760067698051e+00
2.000000000000011369e+01,3.000000000091223473e+00,1.000000000000109246e+01,6.599999999998794609e-01,1.569999999999859952e+00,2.869999999999989996e+03,-2.175000000000179234e+00,-4.945000000000307594e+00,1.446257164460405953e+01,-1.375340158695239623e+00
2.000000000000013500e+01,3.000000000882638407e+00,9.999999999941412199e+00,6.599999999998951150e-01,1.569999999999850182e+00,2.869999999999988631e+03,-2.175000000000141043e+00,-4.945000000000365326e+00,1.459693868934789762e+01,-1.282184804664119326e+00
2.000000000000020961e+01,3.000000001097171243e+00,9.999999999946016516e+00,6.600000000000389999e-01,1.569999999999888374e+00,2.869999999999999545e+03,-2.175000000000143263e+00,-4.945000000000133511e+00,1.447362297767311468e+01,-1.378934817760374854e+00
2.000000000000046185e+01,2.999999999319884481e+00,9.999999999966544095e+00,6.599999999999711653e-01,1.569999999999892593e+00,2.869999999999984084e+03,-2.175000000000173905e+00,-4.945000000000074891e+00,1.455889744604858116e+01,-1.371869767647880600e+00
2.000000000000014211e+01,3.000000000074161122e+00,9.999999999990871302e+00,6.599999999998412692e-01,1.569999999999786011e+00,2.869999999999987267e+03,-2.175000000000216094e+00,-4.945000000000543849e+00,1.435988669479494639e+01,-1.517968096538090617e+00
1.999999999999988987e+01,2.999999998442859361e+00,1.000000000000299671e+01,6.599999999999881517e-01,1.570000000000030482e+00,2.869999999999997726e+03,-2.174999999999895017e+00,-4.945000000000041140e+00,1.399646851065680764e+01,-1.898711834918854091e+00
2.000000000000031974e+01,2.999999998814997237e+00,1.000000000002883738e+01,6.600000000000058042e-01,1.569999999999838636e+00,2.869999999999994543e+03,-2.175000000000202771e+00,-4.945000000000309370e+00,1.421772382919977673e+01,-1.653086397994343981e+00
2.000000000000016342e+01,2.999999998828061010e+00,1.000000000001386802e+01,6.599999999999823785e-01,1.569999999999904361e+00,2.869999999999987267e+03,-2.175000000000075762e+00,-4.945000000000206342e+00,1.400280504022573780e+01,-1.743814850058928334e+00
2.000000000000081357e+01,2.999999999324574951e+00,9.999999999975955234e+00,6.600000000000817435e-01,1.570000000000028928e+00,2.869999999999992269e+03,-2.175000000000087752e+00,-4.944999999999673435e+00,1.387605039200460766e+01,-1.839211851616966653e+00
2.000000000000062528e+01,2.999999998911842880e+00,9.999999999942257745e+00,6.600000000000473266e-01,1.569999999999987850e+00,2.869999999999999091e+03,-2.175000000000172129e+00,-4.944999999999706297e+00,1.442415696988543772e+01,-1.316380891385554808e+00
2.000000000000044764e+01,3.000000001962754848e+00,1.000000000006551204e+01,6.600000000000102451e-01,1.569999999999941220e+00,2.869999999999995907e+03,-2.175000000000151257e+00,-4.945000000000024265e+00,1.401987730022294265e+01,-1.650585038190048426e+00
2.000000000000057909e+01,3.000000000025631053e+00,1.000000000007646506e+01,6.600000000000110223e-01,1.570000000000093765e+00,2.869999999999970896e+03,-2.174999999999871036e+00,-4.944999999999842188e+00,1.394776259120217965e+01,-1.619249032871694638e+00
2.000000000000049027e+01,2.999999998485979535e+00,1.000000000001806022e+01,6.600000000000926237e-01,1.570000000000087770e+00,2.869999999999979536e+03,-2.174999999999916334e+00,-4.944999999999667217e+00,1.357744892939596149e+01,-1.969228466677918732e+00
1.999999999999974776e+01,3.000000001670875438e+00,1.000000000004170708e+01,6.599999999999999201e-01,1.570000000000052687e+00,2.870000000000000909e+03,-2.174999999999874145e+00,-4.945000000000046469e+00,1.344117329826944918e+01,-2.424790978006596376e+00
1.999999999999974065e+01,3.000000001560581886e+00,1.000000000001822542e+01,6.600000000000419975e-01,1.570000000000102647e+00,2.869999999999994543e+03,-2.174999999999837286e+00,-4.944999999999925677e+00,1.363743400936711936e+01,-2.242857365451068841e+00
1.999999999999950262e+01,3.000000000639455600e+00,9.999999999977097431e+00,6.599999999999157652e-01,1.569999999999978968e+00,2.870000000000002274e+03,-2.174999999999911893e+00,-4.945000000000197460e+00,1.352193515434706050e+01,-2.445405041109544708e+00
1.999999999999971578e+01,2.999999999829117581e+00,9.999999999940294870e+00,6.600000000000297851e-01,1.569999999999875051e+00,2.870000000000017280e+03,-2.175000000000176126e+00,-4.945000000000163709e+00,1.356098264094289085e+01,-2.360346500712318107e+00
2.000000000000002132e+01,3.000000001264912619e+00,1.000000000000025224e+01,6.600000000000471045e-01,1.570000000000061791e+00,2.870000000000001819e+03,-2.174999999999915445e+00,-4.944999999999815543e+00,1.397626901938933841e+01,-1.992319779621525067e+00
1.999999999999942446e+01,3.000000001603313038e+00,1.000000000002266809e+01,6.600000000000383338e-01,1.569999999999948326e+00,2.870000000000002274e+03,-2.175000000000058886e+00,-4.945000000000186802e+00,1.363383171507546798e+01,-2.120364385048160827e+00
1.999999999999964118e+01,3.000000000745726147e+00,1.000000000000852296e+01,6.600000000000479927e-01,1.570000000000084217e+00,2.870000000000001819e+03,-2.174999999999887912e+00,-4.944999999999837748e+00,1.427089720876865719e+01,-1.610011766116097753e+00
1.999999999999947420e+01,3.000000000001771472e+00,9.999999999992109423e+00,6.600000000000277867e-01,1.570000000000052021e+00,2.870000000000000455e+03,-2.174999999999900346e+00,-4.944999999999945217e+00,1.428113334262256195e+01,-1.600643433236548008e+00
1.999999999999975131e+01,3.000000000802053091e+00,9.999999999988066435e+00,6.600000000000879607e-01,1.570000000000089768e+00,2.870000000000001364e+03,-2.174999999999894129e+00,-4.944999999999766693e+00,1.428622380562418037e+01,-1.744700578667281565e+00
1.999999999999937828e+01,3.000000000464653649e+00,1.000000000000551381e+01,6.599999999999737188e-01,1.570000000000093765e+00,2.869999999999998636e+03,-2.174999999999810196e+00,-4.944999999999950546e+00,1.446484042406342851e+01,-1.538894456033927272e+00
1.999999999999978684e+01,2.999999999933276040e+00,1.000000000004184386e+01,6.600000000000089129e-01,1.570000000000070228e+00,2.869999999999998181e+03,-2.174999999999887912e+00,-4.944999999999919460e+00,1.451161998415057042e+01,-1.422753671438194534e+00
2.000000000000075673e+01,2.999999999498611736e+00,1.000000000003247003e+01,6.600000000000253442e-01,1.570000000000012053e+00,2.869999999999994998e+03,-2.175000000000132605e+00,-4.944999999999755147e+00,1.408255068776418284e+01,-1.870785780035347345e+00
2.000000000000029843e+01,2.999999999247571214e+00,1.000000000004861000e+01,6.600000000000103562e-01,1.570000000000031148e+00,2.870000000000000455e+03,-2.175000000000058886e+00,-4.944999999999901696e+00,1.410740224524465525e+01,-1.853769836132533877e+00
2.000000000000013145e+01,3.000000000658546551e+00,1.000000000001784350e+01,6.599999999999603961e-01,1.569999999999973639e+00,2.870000000000001364e+03,-2.175000000000082867e+00,-4.945000000000020712e+00,1.417451234900135582e+01,-1.602098969688168006e+00
1.999999999999994671e+01,2.999999999774241921e+00,1.000000000002097522e+01,6.599999999998645839e-01,1.569999999999834417e+00,2.870000000000001819e+03,-2.175000000000201439e+00,-4.945000000000420393e+00,1.417285557800226137e+01,-1.752916249772798363e+00
2.000000000000006750e+01,3.000000000711990467e+00,1.000000000003857537e+01,6.599999999999394129e-01,1.569999999999916351e+00,2.869999999999995453e+03,-2.175000000000103295e+00,-4.945000000000251639e+00,1.407334933724143156e+01,-1.925159690432005410e+00
1.999999999999961275e+01,3.000000001771001568e+00,1.000000000003283773e+01,6.599999999999468514e-01,1.570000000000000728e+00,2.869999999999994543e+03,-2.174999999999916334e+00,-4.945000000000218776e+00,1.333631039845895216e+01,-2.305524337905222154e+00
1.999999999999986144e+01,2.999999999940581308e+00,1.000000000002716583e+01,6.599999999999434097e-01,1.570000000000112639e+00,2.869999999999984084e+03,-2.174999999999768452e+00,-4.945000000000042029e+00,1.471407503382312143e+01,-1.535119803125135185e+00
1.999999999999995381e+01,2.999999998824389280e+00,1.000000000004621192e+01,6.599999999999692779e-01,1.570000000000047580e+00,2.869999999999987267e+03,-2.174999999999847056e+00,-4.945000000000115747e+00,1.467820197219620759e+01,-1.537109164305522357e+00
2.000000000000053646e+01,3.000000000080134566e+00,9.999999999995928590e+00,6.600000000000075806e-01,1.569999999999987850e+00,2.869999999999979536e+03,-2.175000000000077538e+00,-4.944999999999989626e+00,1.410600424279855680e+01,-1.659887036703705743e+00
2.000000000000048672e+01,3.000000001220540113e+00,9.999999999936806105e+00,6.599999999999338618e-01,1.569999999999920570e+00,2.869999999999990450e+03,-2.175000000000163691e+00,-4.945000000000115747e+00,1.394294114049918853e+01,-1.633234750213887088e+00
1.999999999999993605e+01,3.000000001984187925e+00,9.999999999932093431e+00,6.599999999999912603e-01,1.570000000000042473e+00,2.869999999999997272e+03,-2.174999999999966072e+00,-4.944999999999941664e+00,1.378832907438127897e+01,-1.877756251064451209e+00
1.999999999999949551e+01,3.000000000648473275e+00,9.999999999918404825e+00,6.599999999999784928e-01,1.569999999999943663e+00,2.870000000000001364e+03,-2.175000000000019806e+00,-4.945000000000152163e+00,1.429674852966615184e+01,-1.261686722947362282e+00
1.999999999999982592e+01,2.999999999454948441e+00,9.999999999995383249e+00,6.599999999999232037e-01,1.569999999999916573e+00,2.870000000000000000e+03,-2.174999999999995826e+00,-4.945000000000438156e+00,1.365159063188799848e+01,-2.343262376659160484e+00
1.999999999999974776e+01,3.000000001560487739e+00,9.999999999915011983e+00,6.599999999999955902e-01,1.570000000000043361e+00,2.869999999999997726e+03,-2.174999999999871925e+00,-4.944999999999955875e+00,1.419665279697106541e+01,-1.662147046580579213e+00
1.999999999999991829e+01,2.999999999437863885e+00,9.999999999939745976e+00,6.599999999999778266e-01,1.570000000000019602e+00,2.869999999999997726e+03,-2.174999999999977618e+00,-4.944999999999935447e+00,1.447484024600803565e+01,-1.578372688126571388e+00
1.999999999999964473e+01,3.000000000828386248e+00,9.999999999924675365e+00,6.599999999999061062e-01,1.569999999999892815e+00,2.869999999999998636e+03,-2.175000000000041123e+00,-4.945000000000313811e+00,1.425767616905218382e+01,-1.751895417355628704e+00
1.999999999999954881e+01,3.000000000509313924e+00,9.999999999901863390e+00,6.599999999999393019e-01,1.570000000000034035e+00,2.870000000000001819e+03,-2.174999999999869704e+00,-4.945000000000016271e+00,1.422463336027574243e+01,-1.752494355158499717e+00
1.999999999999968381e+01,2.999999999910342829e+00,9.999999999942641438e+00,6.599999999999275335e-01,1.569999999999954543e+00,2.870000000000001819e+03,-2.174999999999979394e+00,-4.945000000000161933e+00,1.417618622101227821e+01,-1.742725215790337456e+00
2.000000000000043343e+01,3.000000001888319279e+00,9.999999999930329508e+00,6.599999999999609512e-01,1.569999999999974083e+00,2.870000000000009095e+03,-2.175000000000163247e+00,-4.944999999999923013e+00,1.470005941536616056e+01,-8.231369970548685355e-01
1.999999999999990763e+01,2.999999998179063265e+00,1.000000000003416112e+01,6.599999999999536238e-01,1.569999999999958096e+00,2.870000000000000909e+03,-2.175000000000051781e+00,-4.945000000000145057e+00,1.442603101321845571e+01,-1.093724087096971775e+00
2.000000000000082423e+01,3.000000000088788532e+00,9.999999999986700416e+00,6.600000000000389999e-01,1.569999999999841078e+00,2.869999999999993634e+03,-2.175000000000290257e+00,-4.945000000000175255e+00,1.437016775616673669e+01,-1.302305136366919802e+00
1.999999999999977618e+01,3.000000000178333348e+00,9.999999999987997157e+00,6.600000000000063594e-01,1.569999999999998952e+00,2.870000000000002728e+03,-2.175000000000015365e+00,-4.944999999999992291e+00,1.455705713985847005e+01,-1.170470717804812821e+00
1.999999999999965539e+01,2.999999999405339235e+00,9.999999999983408827e+00,6.599999999999449640e-01,1.569999999999961648e+00,2.870000000000000455e+03,-2.174999999999984723e+00,-4.945000000000187690e+00,1.455335147105611071e+01,-1.261737634097062966e+00
1.999999999999961986e+01,2.999999999625484470e+00,9.999999999962748021e+00,6.600000000000124656e-01,1.570000000000020934e+00,2.870000000000006366e+03,-2.175000000000002487e+00,-4.944999999999891926e+00,1.484805294633555128e+01,-1.077761212606723307e+00
1.999999999999951683e+01,2.999999998456680306e+00,9.999999999998426148e+00,6.599999999999293099e-01,1.569999999999947882e+00,2.869999999999994998e+03,-2.175000000000047340e+00,-4.945000000000191243e+00,1.492532425592074219e+01,-9.130834499592216380e-01
1.999999999999957367e+01,2.999999998310172611e+00,9.999999999994729549e+00,6.599999999999793809e-01,1.570000000000048468e+00,2.869999999999984539e+03,-2.174999999999863043e+00,-4.944999999999996732e+00,1.446702468472526704e+01,-1.212951671915556862e+00
1.999999999999976552e+01,2.999999999346463220e+00,9.999999999989549693e+00,6.600000000000251221e-01,1.569999999999961871e+00,2.870000000000000000e+03,-2.175000000000127276e+00,-4.945000000000040252e+00,1.434496219889505042e+01,-1.490792619829759191e+00
1.999999999999946354e+01,2.999999998740506157e+00,9.999999999970212272e+00,6.599999999999014433e-01,1.569999999999869500e+00,2.869999999999997272e+03,-2.175000000000164135e+00,-4.945000000000441709e+00,1.458914163357924743e+01,-1.328535994450965596e+00
1.999999999999975486e+01,2.999999999577763532e+00,1.000000000000178524e+01,6.599999999999942579e-01,1.570000000000142837e+00,2.869999999999994088e+03,-2.174999999999854605e+00,-4.944999999999785345e+00,1.439434093619296284e+01,-1.589731360046413355e+00
2.000000000000071765e+01,2.999999999958217423e+00,1.000000000004696865e+01,6.600000000000163514e-01,1.569999999999997842e+00,2.869999999999988177e+03,-2.175000000000055334e+00,-4.944999999999940776e+00,1.454475639034865964e+01,-1.343165736978126468e+00
2.000000000000043698e+01,2.999999998201125173e+00,9.999999999980433429e+00,6.599999999999783817e-01,1.569999999999950546e+00,2.870000000000004547e+03,-2.175000000000117062e+00,-4.945000000000042917e+00,1.451763830022265545e+01,-1.304631045737465689e+00
2.000000000000085620e+01,2.999999999667043671e+00,1.000000000006952838e+01,6.600000000001080558e-01,1.570000000000101759e+00,2.869999999999988631e+03,-2.174999999999928768e+00,-4.944999999999734719e+00,1.456521454924925685e+01,-1.531463647553270135e+00
2.000000000000045475e+01,2.999999998171929860e+00,1.000000000002927791e+01,6.599999999999931477e-01,1.569999999999915907e+00,2.870000000000001364e+03,-2.175000000000154365e+00,-4.945000000000129070e+00,1.463609578221048935e+01,-1.327683353270033839e+00
2.000000000000042277e+01,3.000000000996611238e+00,1.000000000003708323e+01,6.599999999999506262e-01,1.569999999999947660e+00,2.870000000000000000e+03,-2.175000000000128164e+00,-4.945000000000080220e+00,1.435993757946770444e+01,-1.467957211383147831e+00
1.999999999999964828e+01,2.999999999549197494e+00,9.999999999998097522e+00,6.599999999999699440e-01,1.569999999999899032e+00,2.870000000000002274e+03,-2.175000000000062883e+00,-4.945000000000302265e+00,1.430109637440434334e+01,-1.641898299589908072e+00
1.999999999999986500e+01,2.999999998702381987e+00,1.000000000005958078e+01,6.600000000000806333e-01,1.570000000000131957e+00,2.869999999999988631e+03,-2.174999999999829736e+00,-4.944999999999688534e+00,1.403019848600305686e+01,-1.696700615301795390e+00
