2.000000000000024514e+01,2.999999998019398983e+00,9.999999999989325872e+00,6.600000000003110046e-01,1.570000000000447926e+00,2.869999999999996362e+03,-2.174999999999784439e+00,-4.944999999998948681e+00,1.339795773847874649e+01,-2.166561987541982592e+00
1.999999999999992539e+01,2.999999998141758439e+00,9.999999999972306597e+00,6.600000000000381117e-01,1.570000000000646656e+00,2.870000000000006366e+03,-2.174999999999632116e+00,-4.944999999997455653e+00,1.339328356875041237e+01,-2.168745167446424649e+00
2.000000000000101608e+01,2.999999998807742152e+00,9.999999999966485476e+00,6.599999999987913313e-01,1.569999999998821005e+00,2.869999999999988177e+03,-2.175000000003196376e+00,-4.945000000001441798e+00,1.340396860571066640e+01,-2.156806968245684075e+00
2.000000000000061107e+01,2.999999999130556816e+00,1.000000000004042100e+01,6.600000000000593170e-01,1.570000000000946194e+00,2.869999999999966803e+03,-2.174999999999335465e+00,-4.944999999997495621e+00,1.340242885486384949e+01,-2.161583536317297494e+00
2.000000000000056133e+01,2.999999999475398749e+00,1.000000000003727685e+01,6.600000000001938760e-01,1.569999999998745954e+00,2.869999999999961801e+03,-2.175000000000892442e+00,-4.945000000003135554e+00,1.341011888013596476e+01,-2.147742839645304436e+00
2.000000000000001776e+01,2.999999999054023370e+00,9.999999999988466115e+00,6.600000000004200285e-01,1.569999999999802665e+00,2.870000000000005002e+03,-2.174999999999794209e+00,-4.945000000000062457e+00,1.339816331841238295e+01,-2.188425295872098442e+00
2.000000000000095568e+01,2.999999998923855493e+00,1.000000000000807177e+01,6.599999999994708988e-01,1.570000000000678408e+00,2.869999999999982265e+03,-2.175000000000703704e+00,-4.944999999997028439e+00,1.338890270885477385e+01,-2.202431138383541320e+00
2.000000000000042277e+01,2.999999998737351348e+00,1.000000000002775202e+01,6.600000000002559375e-01,1.570000000001226192e+00,2.869999999999984084e+03,-2.174999999998801226e+00,-4.944999999995755680e+00,1.338549004183619573e+01,-2.209676853885483183e+00
1.999999999999950617e+01,2.999999997637376570e+00,1.000000000000633271e+01,6.599999999996303268e-01,1.569999999999396101e+00,2.869999999999979082e+03,-2.175000000000809841e+00,-4.945000000001432028e+00,1.338072299964607481e+01,-2.159692307327211402e+00
2.000000000000069988e+01,2.999999998989336003e+00,9.999999999985172749e+00,6.599999999992700594e-01,1.569999999996438023e+00,2.869999999999959527e+03,-2.175000000004093437e+00,-4.945000000010504770e+00,1.339523128568458965e+01,-2.141504913769266771e+00
2.000000000000011369e+01,2.999999998603611662e+00,9.999999999979149123e+00,6.599999999997588906e-01,1.569999999999154072e+00,2.869999999999975898e+03,-2.175000000001239275e+00,-4.945000000002862883e+00,1.341053886900020053e+01,-2.128159465210063495e+00
1.999999999999982947e+01,2.999999998526414302e+00,9.999999999965861974e+00,6.600000000001386979e-01,1.569999999999843743e+00,2.870000000000004093e+03,-2.175000000000373745e+00,-4.945000000001549267e+00,1.340132828850537550e+01,-2.149618570836023146e+00
2.000000000000104450e+01,3.000000000354505314e+00,1.000000000002429523e+01,6.600000000001146061e-01,1.570000000000464135e+00,2.869999999999982265e+03,-2.175000000000078426e+00,-4.944999999998289653e+00,1.340557405609150798e+01,-2.164471013512651254e+00
2.000000000000271427e+01,2.999999999282795926e+00,1.000000000000615152e+01,6.599999999996821742e-01,1.569999999996111839e+00,2.869999999999985903e+03,-2.175000000004912337e+00,-4.945000000010968400e+00,1.339598424172153912e+01,-2.183770725318427974e+00
2.000000000000182965e+01,2.999999997161543863e+00,1.000000000003982770e+01,6.600000000009217382e-01,1.569999999994654116e+00,2.869999999999944976e+03,-2.175000000003652012e+00,-4.945000000016140262e+00,1.338055058723895741e+01,-2.138017600109448413e+00
2.000000000000073896e+01,2.999999998310574068e+00,9.999999999996415312e+00,6.600000000000860734e-01,1.569999999999171836e+00,2.869999999999957708e+03,-2.175000000000737455e+00,-4.945000000002957030e+00,1.339077110135011139e+01,-2.128385239946455787e+00
2.000000000000080291e+01,2.999999997619230196e+00,9.999999999962149388e+00,6.599999999997928635e-01,1.569999999997826468e+00,2.869999999999979536e+03,-2.175000000002840661e+00,-4.945000000007727436e+00,1.339685857133267710e+01,-2.110570824088120467e+00
2.000000000000120437e+01,2.999999998326175366e+00,1.000000000003347722e+01,6.600000000002115286e-01,1.569999999998268336e+00,2.869999999999966349e+03,-2.175000000001293010e+00,-4.945000000004611707e+00,1.338997261374876757e+01,-2.182443696238319131e+00
2.000000000000003197e+01,2.999999998055675299e+00,1.000000000002591527e+01,6.600000000007589795e-01,1.570000000003796581e+00,2.869999999999969987e+03,-2.174999999995841815e+00,-4.944999999989969197e+00,1.341153464959933928e+01,-2.155461707180796438e+00
2.000000000000026290e+01,2.999999999349313828e+00,1.000000000004072120e+01,6.600000000011547741e-01,1.570000000000950413e+00,2.869999999999947704e+03,-2.174999999997612399e+00,-4.944999999998402451e+00,1.339899701068467763e+01,-2.134922041306360985e+00
1.999999999999952749e+01,2.999999999946378892e+00,1.000000000001068301e+01,6.600000000012750112e-01,1.570000000001140483e+00,2.869999999999952706e+03,-2.174999999996959144e+00,-4.944999999997857110e+00,1.339880668106716222e+01,-2.142795454667778543e+00
2.000000000000108713e+01,2.999999998952382008e+00,1.000000000005690026e+01,6.600000000008044987e-01,1.569999999999160067e+00,2.869999999999949978e+03,-2.174999999999822631e+00,-4.945000000003918039e+00,1.340622368253815822e+01,-2.164999700566784480e+00
2.000000000000039790e+01,2.999999998487177244e+00,9.999999999961348252e+00,6.600000000000179057e-01,1.569999999998495488e+00,2.869999999999995453e+03,-2.175000000001616307e+00,-4.945000000004003304e+00,1.340321885316692097e+01,-2.182357347907216027e+00
2.000000000000103029e+01,2.999999997530681028e+00,1.000000000004901324e+01,6.599999999999148770e-01,1.569999999998793694e+00,2.869999999999969532e+03,-2.175000000001594547e+00,-4.945000000001857465e+00,1.338717522026349904e+01,-2.151405994648650122e+00
2.000000000000097344e+01,2.999999997810567365e+00,1.000000000010268764e+01,6.600000000012128387e-01,1.570000000000934426e+00,2.869999999999962256e+03,-2.174999999997821565e+00,-4.944999999998316298e+00,1.338799841143383240e+01,-2.163404689656611701e+00
2.000000000000274269e+01,2.999999996927965817e+00,1.000000000007562129e+01,6.599999999996363220e-01,1.569999999999072138e+00,2.869999999999963165e+03,-2.175000000002516476e+00,-4.945000000000934648e+00,1.338055305986148369e+01,-2.155554990223100376e+00
2.000000000000033040e+01,2.999999999454208588e+00,9.999999999984833465e+00,6.599999999992529620e-01,1.569999999999232454e+00,2.869999999999965894e+03,-2.175000000001718448e+00,-4.944999999999652118e+00,1.341126388689175464e+01,-2.217086777957315125e+00
2.000000000000164135e+01,2.999999998690308978e+00,1.000000000002833822e+01,6.599999999994982103e-01,1.569999999998147100e+00,2.869999999999963620e+03,-2.175000000002962786e+00,-4.945000000003160423e+00,1.340003456757070843e+01,-2.218936996866673894e+00
1.999999999999980815e+01,2.999999998537570711e+00,9.999999999961321606e+00,6.599999999994686783e-01,1.569999999999992069e+00,2.870000000000001364e+03,-2.175000000001019895e+00,-4.944999999999711626e+00,1.340904675626075182e+01,-2.205367657100872236e+00
2.000000000000101252e+01,2.999999998181521743e+00,1.000000000004684253e+01,6.600000000006910339e-01,1.570000000000789653e+00,2.869999999999959982e+03,-2.174999999998839861e+00,-4.944999999997976126e+00,1.339161730416870633e+01,-2.164700031561038074e+00
2.000000000000082068e+01,2.999999997767767379e+00,1.000000000009022827e+01,6.600000000014438761e-01,1.569999999998982432e+00,2.869999999999968622e+03,-2.174999999999006839e+00,-4.945000000003697771e+00,1.338230264937047664e+01,-2.194320723509443294e+00
2.000000000000138556e+01,2.999999997824366549e+00,1.000000000008009771e+01,6.600000000008552359e-01,1.569999999998336726e+00,2.869999999999962711e+03,-2.175000000000598011e+00,-4.945000000005076224e+00,1.338457678392063244e+01,-2.192755469225563303e+00
2.000000000000103029e+01,2.999999997910502092e+00,1.000000000002614087e+01,6.600000000009305090e-01,1.569999999997014228e+00,2.869999999999968622e+03,-2.175000000001635847e+00,-4.945000000010169039e+00,1.337832909881675825e+01,-2.170935729650189661e+00
2.000000000000126832e+01,2.999999997856189982e+00,1.000000000002321698e+01,6.600000000007074652e-01,1.569999999997623297e+00,2.869999999999973625e+03,-2.175000000001608313e+00,-4.945000000007147456e+00,1.337840574515210434e+01,-2.194842567521418264e+00
2.000000000000063949e+01,2.999999999407890527e+00,9.999999999986318500e+00,6.600000000002440581e-01,1.569999999997774731e+00,2.869999999999974534e+03,-2.175000000001875211e+00,-4.945000000006267271e+00,1.338978843761500492e+01,-2.173467380353431011e+00
2.000000000000067857e+01,2.999999998742224783e+00,1.000000000001960743e+01,6.600000000001156053e-01,1.569999999999954987e+00,2.869999999999971351e+03,-2.175000000000352429e+00,-4.944999999999560636e+00,1.339618106938255515e+01,-2.161376523744030997e+00
2.000000000000028066e+01,2.999999999548483842e+00,9.999999999958388841e+00,6.599999999989020205e-01,1.570000000000093765e+00,2.869999999999985903e+03,-2.175000000001908962e+00,-4.944999999998022311e+00,1.341970046406579620e+01,-2.148152701377905149e+00
1.999999999999948841e+01,2.999999999232503267e+00,9.999999999978546938e+00,6.600000000004968559e-01,1.569999999999429185e+00,2.869999999999988177e+03,-2.174999999999896794e+00,-4.945000000002819363e+00,1.340411538861345164e+01,-2.155273591171352532e+00
2.000000000000065370e+01,2.999999999318513133e+00,9.999999999997447375e+00,6.600000000008295897e-01,1.569999999998836548e+00,2.869999999999989996e+03,-2.175000000000071321e+00,-4.945000000004736940e+00,1.340602092379005228e+01,-2.160421671999487980e+00
2.000000000000014211e+01,2.999999998636527554e+00,9.999999999980692778e+00,6.599999999997294697e-01,1.569999999999412754e+00,2.869999999999995453e+03,-2.175000000001120704e+00,-4.945000000001980922e+00,1.340735301075170405e+01,-2.164400178918084894e+00
2.000000000000103739e+01,2.999999997428959286e+00,9.999999999994937383e+00,6.600000000000022515e-01,1.569999999998543228e+00,2.869999999999968168e+03,-2.175000000001923173e+00,-4.945000000004521112e+00,1.338784449159920875e+01,-2.145603617561610665e+00
1.999999999999959854e+01,2.999999998364660136e+00,9.999999999932795092e+00,6.599999999996337685e-01,1.569999999998252127e+00,2.869999999999995453e+03,-2.175000000002265566e+00,-4.945000000004927010e+00,1.339341171463635760e+01,-2.134258088443270474e+00
2.000000000000102318e+01,2.999999997636523474e+00,9.999999999986124877e+00,6.599999999996783995e-01,1.569999999996520845e+00,2.869999999999994543e+03,-2.175000000003963319e+00,-4.945000000010287167e+00,1.338605303669647029e+01,-2.139571385228314249e+00
2.000000000000162714e+01,2.999999998668679613e+00,1.000000000006794210e+01,6.600000000003471978e-01,1.569999999998822116e+00,2.869999999999960437e+03,-2.175000000000891553e+00,-4.945000000003803464e+00,1.339868567269206068e+01,-2.154174750817154038e+00
2.000000000000018119e+01,2.999999998575529681e+00,9.999999999998593125e+00,6.600000000002740341e-01,1.570000000000844720e+00,2.869999999999971351e+03,-2.174999999998903366e+00,-4.944999999998264784e+00,1.340479181796269970e+01,-2.139467854292677718e+00
2.000000000000062528e+01,3.000000000390229182e+00,9.999999999969965359e+00,6.599999999999094369e-01,1.569999999999565743e+00,2.869999999999983174e+03,-2.175000000000943068e+00,-4.945000000001336105e+00,1.341679333181135725e+01,-2.158896092276933132e+00
2.000000000000072831e+01,2.999999998819876001e+00,9.999999999973265830e+00,6.600000000001742251e-01,1.569999999998850093e+00,2.869999999999978172e+03,-2.175000000001202860e+00,-4.945000000004149854e+00,1.340212352584313571e+01,-2.149151824879675488e+00
2.000000000000106581e+01,2.999999998624317321e+00,9.999999999985332622e+00,6.599999999997733235e-01,1.569999999998165752e+00,2.869999999999972715e+03,-2.175000000002625278e+00,-4.945000000004844409e+00,1.339873378201398069e+01,-2.133629976654880522e+00
2.000000000000168399e+01,2.999999997672243346e+00,1.000000000003098144e+01,6.599999999994583533e-01,1.569999999999001750e+00,2.869999999999957708e+03,-2.175000000002176748e+00,-4.945000000001428475e+00,1.338980814740351022e+01,-2.159398109291282175e+00
2.000000000000123279e+01,3.000000000516798604e+00,1.000000000001223910e+01,6.599999999998493738e-01,1.569999999999457607e+00,2.869999999999963620e+03,-2.175000000001126477e+00,-4.945000000001453344e+00,1.341379576538045626e+01,-2.148269055566939478e+00
1.999999999999898037e+01,2.999999999394985739e+00,9.999999999941596940e+00,6.600000000008676704e-01,1.570000000003424656e+00,2.870000000000017735e+03,-2.174999999996149125e+00,-4.944999999990442596e+00,1.340615006752496363e+01,-2.173626642970021283e+00
2.000000000000158096e+01,2.999999998446105653e+00,1.000000000010394530e+01,6.599999999999905942e-01,1.569999999999115659e+00,2.869999999999953616e+03,-2.175000000000894662e+00,-4.945000000000788098e+00,1.338157101830893225e+01,-2.181408286089112192e+00
2.000000000000117240e+01,2.999999999736531642e+00,1.000000000004638068e+01,6.600000000003940492e-01,1.570000000000163931e+00,2.869999999999951797e+03,-2.174999999999739142e+00,-4.944999999999349249e+00,1.340447474605553957e+01,-2.185772418391970451e+00
2.000000000000104095e+01,2.999999998402726131e+00,9.999999999983421262e+00,6.599999999998664713e-01,1.569999999999867502e+00,2.869999999999979082e+03,-2.175000000001220624e+00,-4.944999999999461160e+00,1.339895896153983301e+01,-2.150724891982846110e+00
2.000000000000083844e+01,2.999999999038764908e+00,1.000000000007400835e+01,6.600000000005158407e-01,1.570000000000431051e+00,2.869999999999960892e+03,-2.174999999999391864e+00,-4.944999999999152074e+00,1.340935199636870934e+01,-2.170385254056544699e+00
2.000000000000161648e+01,2.999999998392870904e+00,1.000000000007641354e+01,6.600000000002222977e-01,1.569999999997200080e+00,2.869999999999955890e+03,-2.175000000002469402e+00,-4.945000000007113705e+00,1.339193958723772404e+01,-2.189630408216290736e+00
2.000000000000286704e+01,2.999999998362457454e+00,1.000000000007353052e+01,6.599999999999697220e-01,1.569999999995819184e+00,2.869999999999956344e+03,-2.175000000004609024e+00,-4.945000000011011920e+00,1.338840076064935403e+01,-2.202442137513206610e+00
2.000000000000115108e+01,2.999999999539436857e+00,1.000000000000872724e+01,6.599999999992095523e-01,1.569999999998448637e+00,2.869999999999956799e+03,-2.175000000002758060e+00,-4.945000000002708340e+00,1.341020517285567770e+01,-2.169182320227331484e+00
2.000000000000145306e+01,2.999999998723045014e+00,1.000000000001563016e+01,6.599999999991266186e-01,1.569999999999079909e+00,2.869999999999999545e+03,-2.175000000003051603e+00,-4.945000000001149587e+00,1.340076446280868439e+01,-2.164732135891098697e+00
2.000000000000024158e+01,2.999999998747202135e+00,1.000000000000098588e+01,6.600000000008553469e-01,1.569999999999843077e+00,2.870000000000000455e+03,-2.174999999999331468e+00,-4.945000000001122942e+00,1.341011978346108968e+01,-2.150856676097312015e+00
2.000000000000081357e+01,2.999999998224196496e+00,1.000000000001481482e+01,6.600000000000583178e-01,1.569999999998116458e+00,2.869999999999979082e+03,-2.175000000002035083e+00,-4.945000000006038121e+00,1.340294326207915709e+01,-2.140192994027445117e+00
2.000000000000129674e+01,2.999999998796711864e+00,1.000000000000268052e+01,6.599999999997760991e-01,1.569999999999248663e+00,2.870000000000002274e+03,-2.175000000001892086e+00,-4.945000000002355733e+00,1.339895259533100003e+01,-2.178829820630792113e+00
2.000000000000062528e+01,2.999999997902836224e+00,1.000000000008975931e+01,6.600000000010217693e-01,1.570000000000522311e+00,2.869999999999954525e+03,-2.174999999998228795e+00,-4.944999999999089013e+00,1.340032233475031198e+01,-2.176572733102698720e+00
2.000000000000120792e+01,2.999999999211559132e+00,1.000000000001523937e+01,6.599999999999565103e-01,1.569999999999876605e+00,2.869999999999986812e+03,-2.175000000000767209e+00,-4.944999999999931006e+00,1.339206953000180000e+01,-2.175210298523782448e+00
1.999999999999993605e+01,2.999999999030134035e+00,9.999999999960248687e+00,6.599999999994865529e-01,1.570000000000270957e+00,2.869999999999989086e+03,-2.175000000000506528e+00,-4.944999999999179607e+00,1.342618177261966572e+01,-2.160031084377517896e+00
2.000000000000070344e+01,2.999999999393770267e+00,1.000000000000039257e+01,6.599999999987620214e-01,1.569999999996669393e+00,2.869999999999969532e+03,-2.175000000004529532e+00,-4.945000000008246133e+00,1.341700709873795105e+01,-2.171401706950270682e+00
2.000000000000090949e+01,2.999999998567572490e+00,9.999999999983705479e+00,6.599999999999954792e-01,1.569999999997928830e+00,2.870000000000000000e+03,-2.175000000002349942e+00,-4.945000000005028262e+00,1.341170188175870059e+01,-2.203687762328264910e+00
2.000000000000060396e+01,2.999999999909641168e+00,9.999999999955322849e+00,6.599999999996872813e-01,1.569999999996788631e+00,2.869999999999988177e+03,-2.175000000003516565e+00,-4.945000000009428298e+00,1.340386003480199939e+01,-2.169529677855725591e+00
2.000000000000039435e+01,2.999999998285535430e+00,9.999999999959706898e+00,6.599999999996966071e-01,1.569999999999169837e+00,2.870000000000000000e+03,-2.175000000001496847e+00,-4.945000000002351292e+00,1.338829176913663055e+01,-2.191105518765361637e+00
2.000000000000065725e+01,2.999999998252913969e+00,9.999999999973876896e+00,6.599999999996932765e-01,1.569999999999454054e+00,2.869999999999992269e+03,-2.175000000001372946e+00,-4.945000000001110507e+00,1.338917698989232008e+01,-2.188304669158489091e+00
2.000000000000083489e+01,2.999999998408046320e+00,9.999999999994184208e+00,6.600000000001011724e-01,1.569999999997826468e+00,2.869999999999981355e+03,-2.175000000002016876e+00,-4.945000000007492957e+00,1.338122470409957998e+01,-2.151818078765022513e+00
2.000000000000186162e+01,2.999999997894753356e+00,1.000000000008810730e+01,6.600000000003816147e-01,1.569999999998362705e+00,2.869999999999955435e+03,-2.175000000001269473e+00,-4.945000000003936691e+00,1.339527109616796352e+01,-2.149774251494450894e+00
2.000000000000200373e+01,2.999999999215450686e+00,1.000000000008743584e+01,6.600000000002307354e-01,1.569999999999051044e+00,2.869999999999949523e+03,-2.175000000001083844e+00,-4.945000000003229701e+00,1.339265377907276111e+01,-2.149126791897447930e+00
2.000000000000056843e+01,2.999999999404205475e+00,9.999999999998003375e+00,6.599999999999706102e-01,1.569999999999643681e+00,2.869999999999958618e+03,-2.175000000000340883e+00,-4.945000000000245421e+00,1.341103175747149301e+01,-2.151003408245539372e+00
2.000000000000134293e+01,2.999999998663065881e+00,1.000000000004301626e+01,6.599999999997629985e-01,1.569999999999001528e+00,2.869999999999964530e+03,-2.175000000001752642e+00,-4.945000000003128449e+00,1.338717258776820529e+01,-2.151179716180351420e+00
2.000000000000238387e+01,2.999999999116981009e+00,1.000000000007834089e+01,6.599999999986502219e-01,1.569999999995837614e+00,2.869999999999956344e+03,-2.175000000006215295e+00,-4.945000000009919461e+00,1.338458918274566400e+01,-2.171038527432151088e+00
2.000000000000033040e+01,2.999999998366386311e+00,1.000000000003310241e+01,6.600000000002969047e-01,1.569999999997334861e+00,2.869999999999966803e+03,-2.175000000002166978e+00,-4.945000000008164420e+00,1.337329172855751658e+01,-2.146014150822766808e+00
1.999999999999959144e+01,2.999999999265356543e+00,1.000000000000064126e+01,6.600000000015062707e-01,1.570000000002125251e+00,2.869999999999998636e+03,-2.174999999996408473e+00,-4.944999999994207585e+00,1.339274813982402179e+01,-2.193027695947037614e+00
2.000000000000087752e+01,2.999999997991336986e+00,9.999999999957385199e+00,6.600000000003507505e-01,1.569999999997832907e+00,2.869999999999995907e+03,-2.175000000002078604e+00,-4.945000000006870344e+00,1.337302798672405402e+01,-2.158361291960891215e+00
1.999999999999950617e+01,2.999999999745553758e+00,1.000000000003177902e+01,6.600000000017692825e-01,1.570000000001479101e+00,2.869999999999971806e+03,-2.174999999996037658e+00,-4.944999999997220286e+00,1.339932407132710779e+01,-2.161337588592964210e+00
1.999999999999990763e+01,2.999999998519487843e+00,9.999999999983600674e+00,6.600000000002035350e-01,1.569999999999647011e+00,2.869999999999994543e+03,-2.175000000000289813e+00,-4.945000000001882334e+00,1.340049168285066727e+01,-2.165641573766886374e+00
1.999999999999981171e+01,2.999999999945289986e+00,1.000000000001290523e+01,6.599999999998926725e-01,1.569999999999529328e+00,2.869999999999976353e+03,-2.175000000000492317e+00,-4.945000000001764207e+00,1.340177968849876322e+01,-2.152261667071344586e+00
1.999999999999988987e+01,2.999999999679502594e+00,9.999999999952171592e+00,6.600000000000156852e-01,1.569999999999729612e+00,2.870000000000000000e+03,-2.175000000000607336e+00,-4.945000000001811280e+00,1.341538606120071186e+01,-2.150514464974247364e+00
2.000000000000025935e+01,2.999999998493856346e+00,1.000000000006451195e+01,6.600000000008534595e-01,1.570000000000527418e+00,2.869999999999996817e+03,-2.174999999998653788e+00,-4.944999999998742624e+00,1.339049918530755789e+01,-2.189190359869732649e+00
1.999999999999991473e+01,2.999999999273214701e+00,1.000000000004018474e+01,6.600000000014012436e-01,1.569999999999510676e+00,2.869999999999996362e+03,-2.174999999998571631e+00,-4.945000000003799911e+00,1.340076655633488123e+01,-2.176640739755235199e+00
1.999999999999994671e+01,2.999999999106957471e+00,9.999999999989581667e+00,6.600000000000202371e-01,1.569999999999909024e+00,2.869999999999962711e+03,-2.174999999999778666e+00,-4.945000000000155715e+00,1.340408563743095094e+01,-2.151161893745733966e+00
2.000000000000054357e+01,2.999999997626948023e+00,9.999999999998321343e+00,6.599999999997681055e-01,1.570000000000708607e+00,2.869999999999983629e+03,-2.175000000000102851e+00,-4.944999999997534701e+00,1.339552507359603162e+01,-2.159546453126745202e+00
2.000000000000071765e+01,2.999999997324767964e+00,1.000000000002250289e+01,6.600000000010448620e-01,1.569999999999310836e+00,2.869999999999979991e+03,-2.174999999999378097e+00,-4.945000000003720864e+00,1.338538161204234811e+01,-2.146638446117490329e+00
1.999999999999991829e+01,2.999999998460955553e+00,9.999999999996900257e+00,6.599999999997030464e-01,1.570000000000989271e+00,2.870000000000005002e+03,-2.174999999999423839e+00,-4.944999999996039008e+00,1.339461906329039742e+01,-2.190961391471724529e+00
2.000000000000012790e+01,2.999999998235793885e+00,9.999999999988517629e+00,6.600000000012672396e-01,1.570000000001937401e+00,2.869999999999994088e+03,-2.174999999997153655e+00,-4.944999999994895035e+00,1.338506876520512456e+01,-2.169989278648080333e+00
1.999999999999966604e+01,2.999999997747988534e+00,9.999999999994619415e+00,6.600000000009559331e-01,1.570000000003130447e+00,2.869999999999998636e+03,-2.174999999996291677e+00,-4.944999999990599804e+00,1.339105853787177658e+01,-2.184820070291081606e+00
2.000000000000129674e+01,2.999999998320686867e+00,1.000000000004711964e+01,6.600000000010532997e-01,1.570000000000334461e+00,2.869999999999946795e+03,-2.174999999998506350e+00,-4.944999999999197371e+00,1.339576018089090326e+01,-2.183226204407785254e+00
2.000000000000136779e+01,2.999999999521119509e+00,9.999999999994669153e+00,6.600000000001972067e-01,1.569999999999088569e+00,2.869999999999979991e+03,-2.175000000001202416e+00,-4.945000000003191509e+00,1.339956897797039659e+01,-2.164731560618878614e+00
2.000000000000065725e+01,2.999999999590388100e+00,9.999999999977205789e+00,6.599999999995762590e-01,1.570000000000546292e+00,2.869999999999982720e+03,-2.175000000000365308e+00,-4.944999999997936158e+00,1.341094398141745359e+01,-2.167798514585174807e+00
2.000000000000121858e+01,2.999999998129383449e+00,9.999999999960092367e+00,6.599999999991642552e-01,1.569999999996897877e+00,2.869999999999993179e+03,-2.175000000004492229e+00,-4.945000000008159091e+00,1.338178307176629467e+01,-2.174325998984471209e+00
2.000000000000302691e+01,2.999999998312445015e+00,1.000000000003102407e+01,6.599999999995569411e-01,1.569999999995761231e+00,2.869999999999991815e+03,-2.175000000005499867e+00,-4.945000000011486208e+00,1.338432652502987885e+01,-2.181644320251601155e+00
2.000000000000156675e+01,2.999999998068713758e+00,1.000000000003019807e+01,6.599999999997993028e-01,1.569999999997872875e+00,2.869999999999983629e+03,-2.175000000002705214e+00,-4.945000000004697860e+00,1.338766372537548222e+01,-2.199314160745521107e+00
2.000000000000153833e+01,2.999999997958093356e+00,1.000000000003328360e+01,6.600000000000590950e-01,1.569999999997835571e+00,2.869999999999982720e+03,-2.175000000002348166e+00,-4.945000000005583374e+00,1.338698195869393182e+01,-2.195962030832293799e+00
2.000000000000073186e+01,2.999999998115048250e+00,1.000000000002723866e+01,6.599999999998367173e-01,1.569999999999095230e+00,2.869999999999954525e+03,-2.175000000001180656e+00,-4.945000000004265317e+00,1.340695749542597603e+01,-2.136104722472208728e+00
2.000000000000151701e+01,2.999999998784485644e+00,1.000000000004837553e+01,6.600000000000617595e-01,1.570000000000347118e+00,2.869999999999996817e+03,-2.175000000000733458e+00,-4.944999999998851870e+00,1.339796824406854192e+01,-2.181187231747471422e+00
2.000000000000132871e+01,2.999999998304062832e+00,1.000000000003473488e+01,6.599999999997657740e-01,1.569999999997085505e+00,2.869999999999952706e+03,-2.175000000002937917e+00,-4.945000000007917507e+00,1.339132677520762371e+01,-2.175987119766352063e+00
2.000000000000154898e+01,2.999999996338306829e+00,1.000000000000267164e+01,6.599999999999630607e-01,1.569999999996648521e+00,2.869999999999969987e+03,-2.175000000003427747e+00,-4.945000000009556196e+00,1.337443615695501364e+01,-2.169080285519614293e+00
2.000000000000143885e+01,2.999999997194397139e+00,9.999999999986417976e+00,6.599999999996566391e-01,1.569999999996670947e+00,2.869999999999982265e+03,-2.175000000003841638e+00,-4.945000000009069474e+00,1.338722962741466382e+01,-2.171069145045499305e+00
2.000000000000022737e+01,2.999999999419436403e+00,9.999999999944853002e+00,6.599999999988275245e-01,1.569999999998253681e+00,2.870000000000000455e+03,-2.175000000003512124e+00,-4.945000000003816787e+00,1.341875479800591542e+01,-2.183244249542527271e+00
2.000000000000195399e+01,2.999999997928284312e+00,1.000000000006529532e+01,6.600000000005081802e-01,1.569999999998705320e+00,2.869999999999961801e+03,-2.175000000001105160e+00,-4.945000000003156870e+00,1.340491459141581565e+01,-2.155870535760028961e+00
2.000000000000039435e+01,2.999999996776492761e+00,1.000000000006298606e+01,6.600000000007554268e-01,1.570000000000160378e+00,2.869999999999979082e+03,-2.174999999999179590e+00,-4.945000000000845830e+00,1.338424113711014130e+01,-2.170821646760566548e+00
1.999999999999880629e+01,2.999999998339260454e+00,9.999999999970341946e+00,6.599999999997160360e-01,1.570000000000337570e+00,2.869999999999975444e+03,-2.174999999999783551e+00,-4.944999999998865192e+00,1.341733231976318486e+01,-2.155086381346672741e+00
2.000000000000085620e+01,2.999999997336062929e+00,1.000000000001556799e+01,6.600000000004134781e-01,1.569999999998578977e+00,2.869999999999969077e+03,-2.175000000000983480e+00,-4.945000000005230767e+00,1.337509252690976602e+01,-2.167602344796582425e+00
2.000000000000144595e+01,2.999999996188051021e+00,1.000000000005151968e+01,6.600000000002625988e-01,1.569999999996947393e+00,2.869999999999963165e+03,-2.175000000002647926e+00,-4.945000000008761276e+00,1.338688939616354823e+01,-2.177116513088044325e+00
2.000000000000181188e+01,2.999999997744948743e+00,1.000000000000695621e+01,6.599999999995708189e-01,1.569999999998410889e+00,2.869999999999981355e+03,-2.175000000002956124e+00,-4.945000000004789342e+00,1.338571377693881814e+01,-2.206456340900829094e+00
2.000000000000165912e+01,2.999999997026594034e+00,9.999999999998760103e+00,6.599999999995840305e-01,1.569999999997938822e+00,2.869999999999984539e+03,-2.175000000003331380e+00,-4.945000000005912000e+00,1.338216311423118121e+01,-2.208917547780466339e+00
2.000000000000039080e+01,2.999999998184888828e+00,9.999999999974326315e+00,6.599999999990997512e-01,1.570000000000147500e+00,2.869999999999979082e+03,-2.175000000001330314e+00,-4.944999999998955786e+00,1.339683613309725096e+01,-2.159032777442410289e+00
2.000000000000207834e+01,2.999999997518913553e+00,1.000000000004491341e+01,6.599999999995139754e-01,1.569999999996794404e+00,2.869999999999949068e+03,-2.175000000003942002e+00,-4.945000000008715979e+00,1.337386049480125472e+01,-2.169611755724999647e+00
2.000000000000187228e+01,2.999999996538437852e+00,1.000000000002020961e+01,6.600000000000657563e-01,1.569999999995321138e+00,2.869999999999965894e+03,-2.175000000004474021e+00,-4.945000000014111663e+00,1.338746017919386766e+01,-2.166136326680059287e+00
2.000000000000018119e+01,2.999999998956607961e+00,1.000000000005088907e+01,6.600000000003172218e-01,1.570000000000730589e+00,2.869999999999979536e+03,-2.174999999998878497e+00,-4.944999999997739870e+00,1.340223063327778341e+01,-2.194307482821918676e+00
2.000000000000044409e+01,2.999999998980963589e+00,1.000000000007041479e+01,6.600000000004286882e-01,1.569999999999529994e+00,2.869999999999963620e+03,-2.174999999999724931e+00,-4.945000000001651408e+00,1.338954481171264632e+01,-2.159830444928181326e+00
2.000000000000035172e+01,2.999999999281528495e+00,1.000000000002734346e+01,6.599999999997774314e-01,1.570000000000678186e+00,2.869999999999959982e+03,-2.174999999999668532e+00,-4.944999999997785167e+00,1.339317033537701285e+01,-2.156664890373943155e+00
1.999999999999997868e+01,2.999999998819489644e+00,9.999999999983982590e+00,6.599999999999450750e-01,1.569999999999126317e+00,2.869999999999998181e+03,-2.175000000001168221e+00,-4.945000000002403695e+00,1.339735474906644797e+01,-2.172945723531904960e+00
1.999999999999945288e+01,2.999999999378742288e+00,9.999999999992027711e+00,6.599999999998733546e-01,1.570000000002379714e+00,2.869999999999969532e+03,-2.174999999998184830e+00,-4.944999999992305106e+00,1.340920358629069753e+01,-2.165903177246944367e+00
1.999999999999989342e+01,2.999999999027727515e+00,1.000000000000142997e+01,6.599999999997158140e-01,1.570000000000626450e+00,2.869999999999976808e+03,-2.175000000000024247e+00,-4.944999999997310880e+00,1.340208945765783177e+01,-2.185400176111279347e+00
2.000000000000129319e+01,2.999999998214768482e+00,1.000000000001374012e+01,6.599999999987575805e-01,1.570000000000428164e+00,2.869999999999993179e+03,-2.175000000002255351e+00,-4.944999999996450235e+00,1.340499447326677540e+01,-2.149461923689846454e+00
2.000000000000191847e+01,2.999999998309134330e+00,1.000000000006326673e+01,6.599999999991258415e-01,1.569999999998790141e+00,2.869999999999970896e+03,-2.175000000002904610e+00,-4.945000000001655849e+00,1.339871509469110578e+01,-2.161285002408807721e+00
2.000000000000138201e+01,2.999999997700535381e+00,1.000000000005629630e+01,6.600000000005336043e-01,1.569999999998044071e+00,2.869999999999975898e+03,-2.175000000001479972e+00,-4.945000000007193641e+00,1.339132566350493647e+01,-2.142253093896427263e+00
2.000000000000215294e+01,2.999999997461590517e+00,1.000000000003955236e+01,6.599999999997041567e-01,1.569999999998211715e+00,2.869999999999976808e+03,-2.175000000003065370e+00,-4.945000000006774421e+00,1.337913070131736681e+01,-2.134845386266380984e+00
1.999999999999947775e+01,3.000000000442891057e+00,9.999999999997326583e+00,6.600000000006644996e-01,1.570000000001854135e+00,2.869999999999987267e+03,-2.174999999997258904e+00,-4.944999999994345252e+00,1.341585221249783366e+01,-2.183101011974978967e+00
1.999999999999971578e+01,3.000000000280849122e+00,9.999999999980943244e+00,6.600000000002654854e-01,1.570000000001799734e+00,2.869999999999984539e+03,-2.174999999998081801e+00,-4.944999999995140172e+00,1.342450348170426011e+01,-2.161394744118186662e+00
2.000000000000033396e+01,2.999999998813089430e+00,9.999999999986929566e+00,6.599999999989062394e-01,1.569999999999296181e+00,2.869999999999973625e+03,-2.175000000002144773e+00,-4.944999999999972751e+00,1.339807542701373855e+01,-2.167957424321274029e+00
2.000000000000042633e+01,2.999999998561454717e+00,1.000000000001172218e+01,6.600000000001210454e-01,1.569999999999047491e+00,2.869999999999978627e+03,-2.175000000000598011e+00,-4.945000000003548557e+00,1.339472382798473937e+01,-2.162381523329124811e+00
2.000000000000131806e+01,2.999999998571071469e+00,1.000000000006951772e+01,6.600000000007105738e-01,1.569999999999183160e+00,2.869999999999961346e+03,-2.175000000000196110e+00,-4.945000000002703011e+00,1.337765092220868723e+01,-2.168275032086231846e+00
2.000000000000004263e+01,2.999999999668796935e+00,9.999999999987478461e+00,6.599999999994744515e-01,1.569999999998280771e+00,2.869999999999990905e+03,-2.175000000002235812e+00,-4.945000000004715623e+00,1.340644743384439330e+01,-2.145380792104008894e+00
2.000000000000019895e+01,2.999999999342876755e+00,9.999999999998497202e+00,6.599999999993749755e-01,1.569999999998926477e+00,2.869999999999987722e+03,-2.175000000002040856e+00,-4.945000000002607088e+00,1.340089670248393361e+01,-2.159734622053389508e+00
1.999999999999925748e+01,2.999999999138441620e+00,9.999999999960797581e+00,6.600000000001159384e-01,1.570000000001621654e+00,2.870000000000004093e+03,-2.174999999998472155e+00,-4.944999999995920881e+00,1.340635092989361254e+01,-2.144298971894637695e+00
2.000000000000024514e+01,2.999999997690136144e+00,9.999999999964625630e+00,6.599999999998731326e-01,1.569999999999946549e+00,2.869999999999974989e+03,-2.175000000000458122e+00,-4.945000000000812967e+00,1.339075010771285434e+01,-2.117303306281751230e+00
1.999999999999970512e+01,2.999999999479140644e+00,9.999999999970563991e+00,6.600000000007341106e-01,1.570000000002524487e+00,2.870000000000002274e+03,-2.174999999997262901e+00,-4.944999999993616946e+00,1.339576131973921314e+01,-2.154065688601006556e+00
2.000000000000110489e+01,2.999999998174797344e+00,1.000000000005709389e+01,6.600000000006450707e-01,1.569999999998034523e+00,2.869999999999959073e+03,-2.175000000001117151e+00,-4.945000000006074536e+00,1.338029671010781563e+01,-2.174972800986195498e+00
2.000000000000157385e+01,2.999999996671733449e+00,1.000000000001131006e+01,6.600000000001475797e-01,1.569999999999627693e+00,2.869999999999977263e+03,-2.175000000001174882e+00,-4.945000000002829132e+00,1.337965366061616201e+01,-2.133448195611168163e+00
2.000000000000057199e+01,2.999999999724732191e+00,9.999999999979113596e+00,6.599999999993648725e-01,1.569999999998716866e+00,2.869999999999976353e+03,-2.175000000002246026e+00,-4.945000000003614282e+00,1.339519826536695213e+01,-2.155246209600910401e+00
2.000000000000073541e+01,2.999999998264232026e+00,1.000000000002428102e+01,6.600000000003158895e-01,1.569999999999016183e+00,2.869999999999961801e+03,-2.175000000000422595e+00,-4.945000000003491714e+00,1.338836083436434166e+01,-2.158538622239409843e+00
2.000000000000037303e+01,2.999999999734648259e+00,9.999999999966743047e+00,6.599999999993063637e-01,1.569999999999635243e+00,2.869999999999974534e+03,-2.175000000001138467e+00,-4.945000000000500329e+00,1.339511571936130530e+01,-2.153843977552111433e+00
1.999999999999965894e+01,2.999999998946994317e+00,9.999999999960451191e+00,6.600000000003256595e-01,1.570000000001258389e+00,2.869999999999991360e+03,-2.174999999998726175e+00,-4.944999999997268247e+00,1.340211434456176498e+01,-2.163243901246086676e+00
2.000000000000126832e+01,2.999999998437356652e+00,1.000000000009367085e+01,6.600000000007845147e-01,1.569999999997927720e+00,2.869999999999946795e+03,-2.175000000000552713e+00,-4.945000000009470931e+00,1.339321989859282525e+01,-2.146320816126352060e+00
2.000000000000044409e+01,3.000000000260240718e+00,9.999999999975106135e+00,6.599999999997452349e-01,1.569999999998691775e+00,2.870000000000001819e+03,-2.175000000002227374e+00,-4.945000000003811458e+00,1.341321795165846353e+01,-2.170639669734971022e+00
2.000000000000060751e+01,2.999999998670553225e+00,1.000000000005593748e+01,6.600000000014775159e-01,1.569999999996430473e+00,2.869999999999967713e+03,-2.175000000001213518e+00,-4.945000000012579555e+00,1.339904323745520109e+01,-2.147611342446960059e+00
2.000000000000071054e+01,2.999999999331717238e+00,1.000000000002013145e+01,6.600000000001350342e-01,1.569999999998037188e+00,2.869999999999992269e+03,-2.175000000001905853e+00,-4.945000000005836505e+00,1.341138256250058269e+01,-2.158095626790457189e+00
2.000000000000113687e+01,2.999999997969001075e+00,1.000000000002819256e+01,6.600000000003591882e-01,1.569999999999438067e+00,2.869999999999990450e+03,-2.175000000000678835e+00,-4.945000000001474660e+00,1.337578547047903754e+01,-2.184616544071480870e+00
2.000000000000114753e+01,2.999999997644016592e+00,1.000000000005655565e+01,6.600000000004022649e-01,1.569999999999320384e+00,2.869999999999979082e+03,-2.175000000000505640e+00,-4.945000000001802398e+00,1.336969325285500965e+01,-2.190096562775871281e+00
2.000000000000109068e+01,2.999999997825764542e+00,9.999999999995317523e+00,6.600000000006754908e-01,1.569999999997201856e+00,2.869999999999982265e+03,-2.175000000002076384e+00,-4.945000000008803909e+00,1.338001751771746584e+01,-2.167117257497254812e+00
2.000000000000032330e+01,2.999999998559279124e+00,9.999999999981570298e+00,6.600000000000908473e-01,1.569999999999168283e+00,2.869999999999985903e+03,-2.175000000000864908e+00,-4.945000000003934026e+00,1.338714676120800640e+01,-2.165600852020083344e+00
2.000000000000122924e+01,2.999999998609760965e+00,1.000000000006329159e+01,6.600000000004507816e-01,1.569999999997601758e+00,2.869999999999979536e+03,-2.175000000002005329e+00,-4.945000000006852581e+00,1.337339445977747410e+01,-2.198258982489702529e+00
2.000000000000149925e+01,2.999999998982314064e+00,1.000000000008440715e+01,6.600000000005902256e-01,1.569999999998394014e+00,2.869999999999974079e+03,-2.175000000001254818e+00,-4.945000000004546870e+00,1.337438312380757388e+01,-2.196424959565863144e+00
2.000000000000214229e+01,2.999999997471338276e+00,1.000000000004640199e+01,6.599999999997804290e-01,1.569999999995823181e+00,2.869999999999963165e+03,-2.175000000004531753e+00,-4.945000000012201191e+00,1.338673427967154339e+01,-2.177136826281047544e+00
2.000000000000004263e+01,2.999999999329770795e+00,9.999999999975450748e+00,6.599999999993523270e-01,1.569999999999609042e+00,2.869999999999982720e+03,-2.175000000001408473e+00,-4.944999999999721396e+00,1.340021418365875405e+01,-2.179768051372236393e+00
1.999999999999974776e+01,2.999999999443170307e+00,9.999999999977491782e+00,6.600000000009053069e-01,1.570000000000895790e+00,2.869999999999997726e+03,-2.174999999997976552e+00,-4.944999999998753282e+00,1.339645812525838942e+01,-2.168902642443769402e+00
