1.999999999999922906e+01,2.999999998777174604e+00,9.999999999947259965e+00,6.600000000003309886e-01,1.569999999999205365e+00,2.869999999999987722e+03,-2.175000000000112621e+00,-4.945000000004054819e+00,1.340525583594402548e+01,-2.159058238363475102e+00
2.000000000000155964e+01,2.999999996017753467e+00,1.000000000005789857e+01,6.599999999996094546e-01,1.569999999999161622e+00,2.869999999999966803e+03,-2.175000000001931166e+00,-4.945000000000545626e+00,1.337319619598366671e+01,-2.189390617051885979e+00
2.000000000000044764e+01,2.999999998017022218e+00,1.000000000000283862e+01,6.600000000008763301e-01,1.570000000000080442e+00,2.869999999999979991e+03,-2.174999999999539746e+00,-4.945000000002076845e+00,1.340093679743555199e+01,-2.148314435491014862e+00
2.000000000000117240e+01,2.999999998978205351e+00,1.000000000005176126e+01,6.600000000003054534e-01,1.569999999999753815e+00,2.869999999999965439e+03,-2.175000000000252509e+00,-4.945000000000028706e+00,1.339732319296122576e+01,-2.157554896301193459e+00
2.000000000000279954e+01,2.999999998748866581e+00,1.000000000008791901e+01,6.600000000011400081e-01,1.569999999995419060e+00,2.869999999999948614e+03,-2.175000000003517009e+00,-4.945000000016451125e+00,1.340440611416362771e+01,-2.154299117639197458e+00
2.000000000000102318e+01,2.999999997702201604e+00,1.000000000003341327e+01,6.599999999998007461e-01,1.569999999998417550e+00,2.869999999999994543e+03,-2.175000000002109690e+00,-4.945000000004042384e+00,1.338720847948358994e+01,-2.185224772296260998e+00
1.999999999999976907e+01,2.999999999609735291e+00,9.999999999997825739e+00,6.600000000000293410e-01,1.570000000000950857e+00,2.870000000000002728e+03,-2.174999999999132960e+00,-4.944999999996760209e+00,1.340576878805757488e+01,-2.175278929649394399e+00
2.000000000000056488e+01,2.999999998882190155e+00,1.000000000004613199e+01,6.600000000003912737e-01,1.570000000000300489e+00,2.869999999999956799e+03,-2.174999999999325251e+00,-4.944999999998664464e+00,1.339412660859731474e+01,-2.170491971320501090e+00
2.000000000000020250e+01,2.999999998463195539e+00,1.000000000003769429e+01,6.599999999998957811e-01,1.569999999999967644e+00,2.869999999999964075e+03,-2.175000000000028244e+00,-4.944999999998759499e+00,1.338983360746404649e+01,-2.174237316851210355e+00
2.000000000000148859e+01,2.999999999559365804e+00,9.999999999988931521e+00,6.599999999996635225e-01,1.569999999998620277e+00,2.869999999999998181e+03,-2.175000000002553335e+00,-4.945000000004050378e+00,1.339917542185945720e+01,-2.177495104828214068e+00
2.000000000000066436e+01,2.999999997851797051e+00,9.999999999973642417e+00,6.599999999992590682e-01,1.569999999999550866e+00,2.870000000000006366e+03,-2.175000000001905409e+00,-4.944999999999631690e+00,1.339261038224642064e+01,-2.197006714793273474e+00
1.999999999999960210e+01,2.999999998633762210e+00,9.999999999993566036e+00,6.599999999995358468e-01,1.570000000000149942e+00,2.870000000000005457e+03,-2.175000000000509637e+00,-4.944999999998747953e+00,1.339406870092026480e+01,-2.171033656879850948e+00
2.000000000000027001e+01,2.999999998125174816e+00,9.999999999956051155e+00,6.599999999998890088e-01,1.569999999998874962e+00,2.869999999999981355e+03,-2.175000000001572786e+00,-4.945000000004871055e+00,1.340209291751818910e+01,-2.135635120417296751e+00
2.000000000000020961e+01,2.999999998984736127e+00,9.999999999952938978e+00,6.599999999994147215e-01,1.569999999999842855e+00,2.869999999999994998e+03,-2.175000000001322320e+00,-4.945000000000447926e+00,1.341102234087321854e+01,-2.175048129124207641e+00
1.999999999999994671e+01,2.999999999309311161e+00,9.999999999939392481e+00,6.599999999994032862e-01,1.569999999999661666e+00,2.869999999999999091e+03,-2.175000000001463540e+00,-4.945000000000941753e+00,1.341881541756749741e+01,-2.186077375820297153e+00
2.000000000000083134e+01,2.999999998213557895e+00,1.000000000001267253e+01,6.600000000001963185e-01,1.570000000000120188e+00,2.869999999999986358e+03,-2.175000000000263167e+00,-4.944999999999778240e+00,1.338225077421678044e+01,-2.157674002707802963e+00
1.999999999999992895e+01,2.999999999415535967e+00,9.999999999917086768e+00,6.599999999991414956e-01,1.569999999999089013e+00,2.869999999999978627e+03,-2.175000000002024425e+00,-4.945000000003603624e+00,1.340923565950338237e+01,-2.160338635626686710e+00
2.000000000000047606e+01,2.999999999382107596e+00,9.999999999932390082e+00,6.599999999985558530e-01,1.569999999997248041e+00,2.869999999999973625e+03,-2.175000000004368772e+00,-4.945000000006479546e+00,1.340747686504154856e+01,-2.174907632486950071e+00
2.000000000000080647e+01,2.999999997729383860e+00,1.000000000002139622e+01,6.599999999997644418e-01,1.569999999999115214e+00,2.869999999999978172e+03,-2.175000000001386269e+00,-4.945000000000867146e+00,1.339288152781628938e+01,-2.157114536384178827e+00
2.000000000000164846e+01,3.000000000213938200e+00,1.000000000005058354e+01,6.600000000009130785e-01,1.569999999998492379e+00,2.869999999999962256e+03,-2.175000000000777867e+00,-4.945000000004938556e+00,1.339969829343411867e+01,-2.141897465929280209e+00
2.000000000000094147e+01,2.999999998781123445e+00,1.000000000004405898e+01,6.600000000009986767e-01,1.570000000000508766e+00,2.869999999999960437e+03,-2.174999999998476596e+00,-4.944999999999661000e+00,1.339314811664911353e+01,-2.159609879270332655e+00
2.000000000000083489e+01,3.000000000350451668e+00,9.999999999976278531e+00,6.600000000005533662e-01,1.569999999997046203e+00,2.870000000000003183e+03,-2.175000000002444089e+00,-4.945000000009901697e+00,1.341039264846362222e+01,-2.169841486579238587e+00
2.000000000000121148e+01,2.999999999463114353e+00,1.000000000002514078e+01,6.600000000008950929e-01,1.569999999997799600e+00,2.869999999999970896e+03,-2.175000000001135803e+00,-4.945000000007272689e+00,1.339895921173839710e+01,-2.171601185465934059e+00
1.999999999999957367e+01,2.999999998430135761e+00,9.999999999944570561e+00,6.600000000006354117e-01,1.570000000000652651e+00,2.870000000000012733e+03,-2.174999999998951328e+00,-4.944999999999826201e+00,1.339716434370711085e+01,-2.157707019506633017e+00
1.999999999999971578e+01,2.999999999557088959e+00,9.999999999982438936e+00,6.600000000000554312e-01,1.569999999999065032e+00,2.869999999999989541e+03,-2.175000000000686828e+00,-4.945000000003055618e+00,1.340771431282638382e+01,-2.193261605613678888e+00
1.999999999999967315e+01,2.999999998372729237e+00,9.999999999982525978e+00,6.599999999999761613e-01,1.569999999999238005e+00,2.869999999999991360e+03,-2.175000000000705480e+00,-4.945000000003058283e+00,1.339709721672084619e+01,-2.177256930315087935e+00
2.000000000000088107e+01,2.999999998703382964e+00,1.000000000007312195e+01,6.600000000013118706e-01,1.570000000002011564e+00,2.869999999999945430e+03,-2.174999999996765521e+00,-4.944999999995192574e+00,1.339192934380207411e+01,-2.176072005674788201e+00
2.000000000000076383e+01,2.999999998302671056e+00,1.000000000001801226e+01,6.600000000001676748e-01,1.569999999996435136e+00,2.869999999999964075e+03,-2.175000000003019185e+00,-4.945000000010894681e+00,1.339762119842383470e+01,-2.169684893215805932e+00
2.000000000000069633e+01,2.999999999315097199e+00,9.999999999978374632e+00,6.599999999995039834e-01,1.569999999997199414e+00,2.869999999999984539e+03,-2.175000000003353140e+00,-4.945000000008049845e+00,1.340465061827186943e+01,-2.185332169777304046e+00
2.000000000000046541e+01,2.999999999758240499e+00,9.999999999975280218e+00,6.599999999997357980e-01,1.569999999998471729e+00,2.869999999999989996e+03,-2.175000000001930722e+00,-4.945000000003573426e+00,1.341324815260516345e+01,-2.198549344945226913e+00
2.000000000000106581e+01,2.999999997285619724e+00,9.999999999989329424e+00,6.599999999998978906e-01,1.569999999998610285e+00,2.869999999999991360e+03,-2.175000000002255796e+00,-4.945000000004958096e+00,1.338296002448695354e+01,-2.156365948804313426e+00
2.000000000000083134e+01,2.999999997978350486e+00,1.000000000003540990e+01,6.600000000011395640e-01,1.570000000001850582e+00,2.869999999999963620e+03,-2.174999999997311750e+00,-4.944999999995945750e+00,1.340122223682022629e+01,-2.165373675517834773e+00
2.000000000000150635e+01,2.999999997721888967e+00,1.000000000002474110e+01,6.599999999997420153e-01,1.569999999997991891e+00,2.869999999999983629e+03,-2.175000000002852651e+00,-4.945000000005195240e+00,1.338959715581901655e+01,-2.180652793170859916e+00
2.000000000000052580e+01,2.999999998326182915e+00,1.000000000002131806e+01,6.599999999996593036e-01,1.569999999998932028e+00,2.869999999999955890e+03,-2.175000000001480860e+00,-4.945000000001171792e+00,1.340260372313492887e+01,-2.173169842537279184e+00
2.000000000000062528e+01,2.999999999484130875e+00,1.000000000001158185e+01,6.599999999996474243e-01,1.569999999997963025e+00,2.869999999999967713e+03,-2.175000000002391687e+00,-4.945000000004276863e+00,1.340438345486147753e+01,-2.192432359513604823e+00
2.000000000000006750e+01,3.000000000026803892e+00,1.000000000001183054e+01,6.600000000003160006e-01,1.569999999998844320e+00,2.869999999999986812e+03,-2.175000000000673506e+00,-4.945000000003402008e+00,1.340975442988938227e+01,-2.171477459927240616e+00
2.000000000000077094e+01,2.999999998960721115e+00,9.999999999990585309e+00,6.599999999997643307e-01,1.569999999998114903e+00,2.869999999999989541e+03,-2.175000000002573319e+00,-4.945000000005497220e+00,1.339788632562019544e+01,-2.170608063379988018e+00
2.000000000000134293e+01,2.999999997475356395e+00,1.000000000006063239e+01,6.600000000008384715e-01,1.569999999998852092e+00,2.869999999999943157e+03,-2.175000000000106404e+00,-4.945000000003126672e+00,1.338821509005613564e+01,-2.172735032807342037e+00
2.000000000000039435e+01,2.999999999670295736e+00,9.999999999998912870e+00,6.600000000001881029e-01,1.569999999998908047e+00,2.870000000000005002e+03,-2.175000000001328093e+00,-4.945000000004205809e+00,1.340711818090048268e+01,-2.172005915550773825e+00
2.000000000000002132e+01,2.999999999676890017e+00,9.999999999961964647e+00,6.599999999994696775e-01,1.569999999999046825e+00,2.870000000000000000e+03,-2.175000000002039080e+00,-4.945000000003320295e+00,1.341564800024257131e+01,-2.172161934683178419e+00
2.000000000000091305e+01,2.999999998360942222e+00,9.999999999988753885e+00,6.600000000002318457e-01,1.569999999999675211e+00,2.869999999999976353e+03,-2.175000000000780087e+00,-4.945000000002090168e+00,1.340258785102122019e+01,-2.166411124395806187e+00
2.000000000000050804e+01,2.999999999565550635e+00,1.000000000001037748e+01,6.599999999996912781e-01,1.569999999999012852e+00,2.869999999999977717e+03,-2.175000000001384937e+00,-4.945000000003166640e+00,1.339922234277678825e+01,-2.180172350039938589e+00
2.000000000000110134e+01,2.999999999934029216e+00,9.999999999993782751e+00,6.600000000008721113e-01,1.569999999999024176e+00,2.869999999999969987e+03,-2.175000000000398614e+00,-4.945000000004254659e+00,1.339919800055136001e+01,-2.165344498456204025e+00
2.000000000000194689e+01,2.999999999539586071e+00,1.000000000006198952e+01,6.600000000012451462e-01,1.569999999998396900e+00,2.869999999999947249e+03,-2.175000000000505196e+00,-4.945000000005946639e+00,1.338975016970811183e+01,-2.166638312675397859e+00
2.000000000000134648e+01,2.999999999459854738e+00,1.000000000001485390e+01,6.599999999996160049e-01,1.569999999998026974e+00,2.869999999999971806e+03,-2.175000000002926814e+00,-4.945000000005360441e+00,1.340524741702161293e+01,-2.170829610989388758e+00
1.999999999999996447e+01,2.999999998759952380e+00,9.999999999966490805e+00,6.599999999998632516e-01,1.570000000000230322e+00,2.869999999999977717e+03,-2.175000000000240519e+00,-4.945000000000674412e+00,1.341495835187603447e+01,-2.131052311481481443e+00
2.000000000000040501e+01,2.999999998538473545e+00,1.000000000000350653e+01,6.600000000002528289e-01,1.570000000000671969e+00,2.869999999999981810e+03,-2.174999999999403411e+00,-4.944999999999573070e+00,1.341082355481291621e+01,-2.132936328448253871e+00
2.000000000000080647e+01,2.999999998233114695e+00,9.999999999978635756e+00,6.599999999998358291e-01,1.569999999999788676e+00,2.869999999999994543e+03,-2.175000000001197975e+00,-4.945000000002009344e+00,1.340190885901402673e+01,-2.145394944838451057e+00
2.000000000000180478e+01,2.999999998712197247e+00,1.000000000005053380e+01,6.599999999998908962e-01,1.569999999999947216e+00,2.870000000000005457e+03,-2.175000000001540812e+00,-4.944999999999883045e+00,1.340142853168514492e+01,-2.162595676640206577e+00
2.000000000000039435e+01,2.999999998894027797e+00,9.999999999958427921e+00,6.600000000000177947e-01,1.570000000000382867e+00,2.870000000000006821e+03,-2.175000000000375966e+00,-4.944999999999371454e+00,1.340318203734256919e+01,-2.132708375983001670e+00
1.999999999999993960e+01,2.999999998985053651e+00,9.999999999963991471e+00,6.599999999997708811e-01,1.570000000001245066e+00,2.869999999999979991e+03,-2.174999999999521094e+00,-4.944999999997892637e+00,1.340503272906683030e+01,-2.124018199988912059e+00
2.000000000000050804e+01,2.999999998956851766e+00,1.000000000002192380e+01,6.600000000000401101e-01,1.569999999998192619e+00,2.869999999999950433e+03,-2.175000000001534151e+00,-4.945000000005531859e+00,1.339050120584542647e+01,-2.148067925871752770e+00
2.000000000000023803e+01,2.999999998940484414e+00,1.000000000001750422e+01,6.600000000007373302e-01,1.569999999999869056e+00,2.870000000000005457e+03,-2.174999999999545075e+00,-4.945000000000106866e+00,1.339360723837546097e+01,-2.197823452996605642e+00
2.000000000000033040e+01,2.999999999873326662e+00,9.999999999977998044e+00,6.599999999996859490e-01,1.569999999999642792e+00,2.870000000000023192e+03,-2.175000000001410250e+00,-4.945000000000467466e+00,1.340665879378742353e+01,-2.202600177840310813e+00
2.000000000000164491e+01,2.999999997719371425e+00,1.000000000004616929e+01,6.600000000009691448e-01,1.569999999996698925e+00,2.869999999999998636e+03,-2.175000000002664358e+00,-4.945000000012004016e+00,1.338884240659137603e+01,-2.176167951798854805e+00
2.000000000000013856e+01,2.999999998547650648e+00,9.999999999950579976e+00,6.599999999998931166e-01,1.570000000000516094e+00,2.869999999999976353e+03,-2.175000000000166800e+00,-4.944999999998374918e+00,1.340155858667505129e+01,-2.131008164647880232e+00
2.000000000000056133e+01,2.999999999610386769e+00,9.999999999960762054e+00,6.600000000001891021e-01,1.570000000000445928e+00,2.869999999999967713e+03,-2.174999999999933209e+00,-4.944999999998273665e+00,1.340314514393448775e+01,-2.151743165253220624e+00
1.999999999999956657e+01,2.999999997390497164e+00,9.999999999945693219e+00,6.599999999990452393e-01,1.569999999997793605e+00,2.869999999999997726e+03,-2.175000000003114664e+00,-4.945000000004841745e+00,1.340336382263333803e+01,-2.151369114887694778e+00
1.999999999999949907e+01,2.999999998541011070e+00,9.999999999901179493e+00,6.599999999989181187e-01,1.569999999998327844e+00,2.869999999999997272e+03,-2.175000000003034728e+00,-4.945000000004441176e+00,1.341812884542623863e+01,-2.145302109755545583e+00
2.000000000000122213e+01,2.999999998813979385e+00,9.999999999995068833e+00,6.599999999995612709e-01,1.569999999998876739e+00,2.869999999999971806e+03,-2.175000000002184741e+00,-4.945000000002966800e+00,1.339680044731334974e+01,-2.155684780137271161e+00
2.000000000000138201e+01,2.999999999772907877e+00,1.000000000002457945e+01,6.599999999994009547e-01,1.569999999999532880e+00,2.869999999999984539e+03,-2.175000000002000444e+00,-4.945000000001470220e+00,1.340749335207300064e+01,-2.159455502000044991e+00
2.000000000000131806e+01,2.999999999690725172e+00,1.000000000004651035e+01,6.599999999994029531e-01,1.569999999999414086e+00,2.869999999999970896e+03,-2.175000000001862333e+00,-4.945000000001784635e+00,1.340757553012305081e+01,-2.150339883830021392e+00
2.000000000000178701e+01,2.999999998851421878e+00,1.000000000007599255e+01,6.600000000003912737e-01,1.569999999997685691e+00,2.869999999999957708e+03,-2.175000000002014655e+00,-4.945000000007204299e+00,1.339853437343525755e+01,-2.147431772955945561e+00
2.000000000000259703e+01,2.999999998525447076e+00,1.000000000003444889e+01,6.600000000003301004e-01,1.569999999999933005e+00,2.869999999999944066e+03,-2.175000000000846700e+00,-4.944999999999465601e+00,1.339787625012525574e+01,-2.145587932989754698e+00
2.000000000000236966e+01,2.999999997261970641e+00,1.000000000002814815e+01,6.600000000000677547e-01,1.569999999995868034e+00,2.869999999999955890e+03,-2.175000000004531753e+00,-4.945000000012068853e+00,1.337186438372126140e+01,-2.158263664254822078e+00
2.000000000000069633e+01,2.999999998438110271e+00,9.999999999969885423e+00,6.600000000009367263e-01,1.570000000000081997e+00,2.869999999999979991e+03,-2.174999999999512212e+00,-4.945000000002713669e+00,1.338861940596835787e+01,-2.159755622736728053e+00
2.000000000000145661e+01,2.999999998606843299e+00,1.000000000002668976e+01,6.600000000001376987e-01,1.569999999999784013e+00,2.869999999999976353e+03,-2.175000000000715694e+00,-4.945000000000339568e+00,1.339730891139273794e+01,-2.186084049802301532e+00
2.000000000000100542e+01,2.999999998055116190e+00,1.000000000001782219e+01,6.600000000003972689e-01,1.570000000000023821e+00,2.869999999999949523e+03,-2.174999999999902567e+00,-4.945000000001858353e+00,1.338679938431004146e+01,-2.162087238553506374e+00
1.999999999999929656e+01,2.999999998436181148e+00,9.999999999979200638e+00,6.599999999998512612e-01,1.570000000002393703e+00,2.870000000000006366e+03,-2.174999999998258104e+00,-4.944999999992096384e+00,1.339121563426053818e+01,-2.165228221002225339e+00
2.000000000000186162e+01,2.999999999172981990e+00,1.000000000001770140e+01,6.599999999988657162e-01,1.569999999997299778e+00,2.869999999999974079e+03,-2.175000000004494005e+00,-4.945000000005351559e+00,1.339180569394071441e+01,-2.196285510638475102e+00
2.000000000000170175e+01,2.999999997704080101e+00,1.000000000000826539e+01,6.599999999998658051e-01,1.569999999999015072e+00,2.869999999999978172e+03,-2.175000000002102141e+00,-4.945000000001295248e+00,1.339056895480174525e+01,-2.173912427885936083e+00
2.000000000000116529e+01,3.000000001343059886e+00,1.000000000000991029e+01,6.600000000008523493e-01,1.569999999999705187e+00,2.869999999999974534e+03,-2.174999999999900790e+00,-4.945000000003335394e+00,1.341989382484453053e+01,-2.169580306975281037e+00
2.000000000000099831e+01,3.000000000066594730e+00,1.000000000001666045e+01,6.600000000005026290e-01,1.569999999999931672e+00,2.869999999999972715e+03,-2.175000000000093081e+00,-4.945000000001647855e+00,1.340514488507090007e+01,-2.146916451374949908e+00
2.000000000000035527e+01,2.999999998944132606e+00,1.000000000003118927e+01,6.600000000002188560e-01,1.569999999999191154e+00,2.869999999999996817e+03,-2.175000000000817391e+00,-4.945000000002663931e+00,1.338425682333365607e+01,-2.173853456880287194e+00
2.000000000000000355e+01,2.999999997581849875e+00,9.999999999950054175e+00,6.599999999998548139e-01,1.569999999998489493e+00,2.869999999999992724e+03,-2.175000000001694911e+00,-4.945000000005776108e+00,1.340380385757010195e+01,-2.161950818628235016e+00
2.000000000000103739e+01,2.999999998250058475e+00,1.000000000005581668e+01,6.600000000000717515e-01,1.570000000000465912e+00,2.869999999999987722e+03,-2.175000000000018918e+00,-4.944999999996903206e+00,1.339785003229387605e+01,-2.191289053433752354e+00
1.999999999999945643e+01,2.999999999224550074e+00,9.999999999964137132e+00,6.599999999999089928e-01,1.569999999998556328e+00,2.870000000000001819e+03,-2.175000000001324540e+00,-4.945000000005192575e+00,1.340988316340068920e+01,-2.126858588031082409e+00
2.000000000000044764e+01,2.999999998334754281e+00,1.000000000004135181e+01,6.600000000013073187e-01,1.569999999999084128e+00,2.869999999999972715e+03,-2.174999999999448264e+00,-4.945000000005431495e+00,1.339183570328807527e+01,-2.121396875948913685e+00
2.000000000000038725e+01,2.999999998574532256e+00,9.999999999979024778e+00,6.599999999997516742e-01,1.569999999997573781e+00,2.869999999999983174e+03,-2.175000000002689671e+00,-4.945000000007466312e+00,1.340539524460771759e+01,-2.146681040654120132e+00
2.000000000000051870e+01,2.999999997138380170e+00,9.999999999963780084e+00,6.599999999995159738e-01,1.569999999998927143e+00,2.869999999999994088e+03,-2.175000000001963141e+00,-4.945000000002909069e+00,1.339128800222007953e+01,-2.142298328232604909e+00
2.000000000000019185e+01,2.999999998580207272e+00,1.000000000000356337e+01,6.600000000003410916e-01,1.569999999999027729e+00,2.869999999999990450e+03,-2.175000000000588685e+00,-4.945000000003960672e+00,1.341109373359008750e+01,-2.149752535412861931e+00
1.999999999999994316e+01,2.999999998424678793e+00,1.000000000000504841e+01,6.600000000003650724e-01,1.569999999998985762e+00,2.869999999999997726e+03,-2.175000000000538503e+00,-4.945000000005125074e+00,1.340932995524084603e+01,-2.121335283516078807e+00
2.000000000000245493e+01,2.999999999686761676e+00,1.000000000006952661e+01,6.600000000002825828e-01,1.569999999997337303e+00,2.869999999999943611e+03,-2.175000000002804690e+00,-4.945000000007233609e+00,1.339710629792862129e+01,-2.194154936088758223e+00
2.000000000000077449e+01,2.999999999492788838e+00,1.000000000007143264e+01,6.599999999998742428e-01,1.570000000000827400e+00,2.869999999999981355e+03,-2.174999999999732925e+00,-4.944999999997012452e+00,1.339832435600061622e+01,-2.192252915047744999e+00
2.000000000000012790e+01,2.999999999612027679e+00,9.999999999992756017e+00,6.600000000000539879e-01,1.569999999999135643e+00,2.869999999999977263e+03,-2.175000000000550937e+00,-4.945000000001976481e+00,1.341424735462509510e+01,-2.172474093615007540e+00
1.999999999999988631e+01,2.999999999095608771e+00,9.999999999974239273e+00,6.599999999992494093e-01,1.569999999998808793e+00,2.869999999999995453e+03,-2.175000000001787281e+00,-4.945000000001356533e+00,1.341616164822432999e+01,-2.169746270180080927e+00
2.000000000000099121e+01,2.999999998071193552e+00,1.000000000001124967e+01,6.600000000003396483e-01,1.569999999997688800e+00,2.869999999999987267e+03,-2.175000000001933831e+00,-4.945000000006467999e+00,1.341210001267761776e+01,-2.173448829909164104e+00
2.000000000000011013e+01,2.999999998414067282e+00,9.999999999981289633e+00,6.599999999997665512e-01,1.569999999998119566e+00,2.869999999999998636e+03,-2.175000000001983125e+00,-4.945000000004903029e+00,1.341845064813265509e+01,-2.171252398962458585e+00
2.000000000000136069e+01,2.999999999131820694e+00,9.999999999996569855e+00,6.600000000000789679e-01,1.569999999997841789e+00,2.869999999999955435e+03,-2.175000000002363265e+00,-4.945000000006731788e+00,1.341376703359920342e+01,-2.165557333308927301e+00
2.000000000000164135e+01,2.999999998957190162e+00,9.999999999995656808e+00,6.599999999997513411e-01,1.569999999997468532e+00,2.869999999999974079e+03,-2.175000000003419309e+00,-4.945000000007138574e+00,1.340757262083360324e+01,-2.168612893839485078e+00
2.000000000000044409e+01,2.999999998265125534e+00,9.999999999948773421e+00,6.599999999997585576e-01,1.570000000000104867e+00,2.870000000000007276e+03,-2.175000000001072742e+00,-4.945000000000803198e+00,1.339964481609401581e+01,-2.157839724925144420e+00
2.000000000000016698e+01,2.999999998558488201e+00,9.999999999959214847e+00,6.600000000000739719e-01,1.570000000000559615e+00,2.870000000000010914e+03,-2.174999999999921219e+00,-4.944999999998853646e+00,1.339594278779835257e+01,-2.173969246866666705e+00
2.000000000000205702e+01,2.999999996180450879e+00,1.000000000007442580e+01,6.600000000008531265e-01,1.569999999995996376e+00,2.869999999999958163e+03,-2.175000000002814460e+00,-4.945000000011818386e+00,1.338199038676210506e+01,-2.161456745324169759e+00
2.000000000000273559e+01,2.999999998046239291e+00,1.000000000012127543e+01,6.600000000007302248e-01,1.569999999997800488e+00,2.869999999999954980e+03,-2.175000000001881872e+00,-4.945000000006200658e+00,1.337852923752944179e+01,-2.190119536217331575e+00
2.000000000000148859e+01,2.999999998670539014e+00,1.000000000002226841e+01,6.599999999997165911e-01,1.569999999998599849e+00,2.869999999999966349e+03,-2.175000000002113687e+00,-4.945000000004290186e+00,1.340260623852647015e+01,-2.154396695330949019e+00
2.000000000000063594e+01,2.999999998870200635e+00,9.999999999990835775e+00,6.600000000003896083e-01,1.570000000000064677e+00,2.869999999999966803e+03,-2.174999999999786660e+00,-4.945000000000783658e+00,1.340243345094303606e+01,-2.144692273137277283e+00
2.000000000000000355e+01,2.999999999402543693e+00,9.999999999988073540e+00,6.600000000007759660e-01,1.570000000001947615e+00,2.869999999999978627e+03,-2.174999999997351274e+00,-4.944999999995224549e+00,1.341187673207514486e+01,-2.148525327578459709e+00
2.000000000000148148e+01,2.999999997673151508e+00,1.000000000003981349e+01,6.599999999999991429e-01,1.569999999997472973e+00,2.869999999999964530e+03,-2.175000000002687450e+00,-4.945000000006491092e+00,1.339027178983347888e+01,-2.141905078768728821e+00
2.000000000000193623e+01,2.999999998675205948e+00,1.000000000004238210e+01,6.600000000005219469e-01,1.569999999998987095e+00,2.869999999999929059e+03,-2.175000000000627765e+00,-4.945000000004025509e+00,1.339811678707340370e+01,-2.112891569459549146e+00
2.000000000000171596e+01,2.999999999208764478e+00,1.000000000001988631e+01,6.600000000006263079e-01,1.569999999998232809e+00,2.869999999999957708e+03,-2.175000000001376499e+00,-4.945000000006830376e+00,1.339710704877314562e+01,-2.138390685903871713e+00
2.000000000000068923e+01,2.999999999968366193e+00,1.000000000005431566e+01,6.600000000003284351e-01,1.570000000000091767e+00,2.869999999999991360e+03,-2.174999999999836398e+00,-4.945000000000229434e+00,1.339857678102049299e+01,-2.160528128024006733e+00
2.000000000000083134e+01,3.000000000087662766e+00,9.999999999964577668e+00,6.599999999978436449e-01,1.569999999997506945e+00,2.870000000000014552e+03,-2.175000000005731238e+00,-4.945000000003986429e+00,1.339632071324617080e+01,-2.188424945372740904e+00
2.000000000000011724e+01,3.000000000467830219e+00,1.000000000000426326e+01,6.600000000004704326e-01,1.569999999999634577e+00,2.869999999999996362e+03,-2.175000000000135270e+00,-4.945000000002389484e+00,1.339811592402606344e+01,-2.151580775402558654e+00
2.000000000000089528e+01,2.999999998628704034e+00,1.000000000005867662e+01,6.600000000007200107e-01,1.569999999998985762e+00,2.869999999999976353e+03,-2.175000000000550049e+00,-4.945000000003490825e+00,1.338021559150216078e+01,-2.176434076990012567e+00
2.000000000000053291e+01,2.999999999088126312e+00,9.999999999995957012e+00,6.600000000006263079e-01,1.569999999997811813e+00,2.869999999999975444e+03,-2.175000000001212630e+00,-4.945000000008119123e+00,1.340051600113421060e+01,-2.152856893907280966e+00
2.000000000000058620e+01,3.000000000372352371e+00,1.000000000002141398e+01,6.600000000014842882e-01,1.570000000001027685e+00,2.869999999999976808e+03,-2.174999999997494271e+00,-4.944999999999772022e+00,1.341092483483718745e+01,-2.154411672814424250e+00
2.000000000000102673e+01,2.999999997484427805e+00,9.999999999977220000e+00,6.600000000000344480e-01,1.569999999996608553e+00,2.870000000000000455e+03,-2.175000000003626255e+00,-4.945000000010274732e+00,1.339462904758438810e+01,-2.172863730799404980e+00
1.999999999999968736e+01,2.999999999306228737e+00,9.999999999983227639e+00,6.600000000000766365e-01,1.570000000001176677e+00,2.869999999999979082e+03,-2.174999999998960210e+00,-4.944999999995638440e+00,1.340040605405423690e+01,-2.158230826753936515e+00
1.999999999999849720e+01,2.999999999606627110e+00,9.999999999968816056e+00,6.600000000004342393e-01,1.570000000001687601e+00,2.869999999999981810e+03,-2.174999999997395683e+00,-4.944999999995029150e+00,1.341157395622228421e+01,-2.139428595223585194e+00
2.000000000000095568e+01,2.999999998383519717e+00,1.000000000000667733e+01,6.599999999997475664e-01,1.569999999999521778e+00,2.869999999999972260e+03,-2.175000000001451106e+00,-4.945000000000833396e+00,1.338414177598311383e+01,-2.167139269512707855e+00
2.000000000000125056e+01,2.999999997449598776e+00,1.000000000001747757e+01,6.599999999999583977e-01,1.569999999999103446e+00,2.869999999999978172e+03,-2.175000000001580336e+00,-4.945000000003171969e+00,1.339651116948089360e+01,-2.168347284627929916e+00
2.000000000000077094e+01,2.999999997787326844e+00,1.000000000002454570e+01,6.600000000003695133e-01,1.569999999998489271e+00,2.869999999999985448e+03,-2.175000000001123368e+00,-4.945000000005293828e+00,1.339269112142786611e+01,-2.175641576945818834e+00
2.000000000000012434e+01,2.999999998133509482e+00,9.999999999981158183e+00,6.600000000002163025e-01,1.569999999998378026e+00,2.870000000000000909e+03,-2.175000000001254818e+00,-4.945000000005476792e+00,1.339920024062604398e+01,-2.180932328908826712e+00
2.000000000000098765e+01,2.999999999066401912e+00,1.000000000002783374e+01,6.600000000009509371e-01,1.570000000000415064e+00,2.869999999999967258e+03,-2.174999999998741718e+00,-4.945000000000185025e+00,1.340011621135179531e+01,-2.131458723120610799e+00
2.000000000000113332e+01,2.999999999377625404e+00,1.000000000001944755e+01,6.599999999996196687e-01,1.569999999998194173e+00,2.869999999999956799e+03,-2.175000000002218936e+00,-4.945000000004859508e+00,1.340151168448303309e+01,-2.137082631273611533e+00
2.000000000000134648e+01,2.999999998453271921e+00,1.000000000000426326e+01,6.599999999998134026e-01,1.569999999997661044e+00,2.869999999999948614e+03,-2.175000000002598632e+00,-4.945000000006763763e+00,1.339696011794307751e+01,-2.137948815732344077e+00
2.000000000000065725e+01,2.999999998451879257e+00,1.000000000007088907e+01,6.600000000010490808e-01,1.569999999999831752e+00,2.869999999999979991e+03,-2.174999999999129852e+00,-4.945000000002297114e+00,1.338423576221997813e+01,-2.175113997621099138e+00
2.000000000000040856e+01,2.999999997566089149e+00,1.000000000003462652e+01,6.599999999998910072e-01,1.569999999998376694e+00,2.869999999999969987e+03,-2.175000000001575007e+00,-4.945000000003662244e+00,1.338933624343114381e+01,-2.145727856497072761e+00
2.000000000000068567e+01,2.999999999220706037e+00,9.999999999991725730e+00,6.600000000004194733e-01,1.570000000000636886e+00,2.870000000000000455e+03,-2.174999999999454037e+00,-4.944999999999581952e+00,1.339626422574345099e+01,-2.150144008711758925e+00
1.999999999999989342e+01,2.999999997933234575e+00,1.000000000000797229e+01,6.599999999998719113e-01,1.570000000001248397e+00,2.869999999999989996e+03,-2.174999999999394529e+00,-4.944999999995761897e+00,1.339047362623615101e+01,-2.155464026617516904e+00
1.999999999999991829e+01,2.999999998468793727e+00,1.000000000004081002e+01,6.600000000010967094e-01,1.569999999999777796e+00,2.869999999999969987e+03,-2.174999999998516120e+00,-4.945000000001259721e+00,1.339967487419467318e+01,-2.167022170412344906e+00
2.000000000000011724e+01,2.999999997478298042e+00,9.999999999999273470e+00,6.600000000005277201e-01,1.570000000000312923e+00,2.869999999999958618e+03,-2.174999999999032152e+00,-4.944999999999844853e+00,1.339649896620809777e+01,-2.164812755404585065e+00
2.000000000000118305e+01,2.999999998577201676e+00,9.999999999991150190e+00,6.600000000004083711e-01,1.569999999998290541e+00,2.869999999999992724e+03,-2.175000000001642952e+00,-4.945000000005101093e+00,1.339697292611290536e+01,-2.191179607232164095e+00
2.000000000000217071e+01,2.999999999259888916e+00,1.000000000001280753e+01,6.600000000004682121e-01,1.569999999996889661e+00,2.869999999999976353e+03,-2.175000000003135536e+00,-4.945000000010116636e+00,1.340207027388140304e+01,-2.188229772145999785e+00
2.000000000000100187e+01,3.000000000398163724e+00,1.000000000004273382e+01,6.600000000000363354e-01,1.569999999998956230e+00,2.869999999999996362e+03,-2.175000000001225064e+00,-4.945000000002415241e+00,1.341394875634154893e+01,-2.185530114216544639e+00
1.999999999999982592e+01,3.000000001337138400e+00,9.999999999968217423e+00,6.600000000004953016e-01,1.569999999999909690e+00,2.870000000000003638e+03,-2.174999999999524647e+00,-4.945000000002454321e+00,1.343634841646439604e+01,-2.161018439378379341e+00
2.000000000000105871e+01,3.000000000988374271e+00,1.000000000001999823e+01,6.600000000009497159e-01,1.569999999998768159e+00,2.869999999999992724e+03,-2.175000000000362643e+00,-4.945000000005477681e+00,1.342485571179900106e+01,-2.160002537211537010e+00
1.999999999999981171e+01,3.000000001380974002e+00,9.999999999981863397e+00,6.600000000004041523e-01,1.570000000000275175e+00,2.869999999999999091e+03,-2.174999999999212452e+00,-4.945000000000751683e+00,1.343993962626220906e+01,-2.165454983542630440e+00
2.000000000000060041e+01,3.000000000421884749e+00,1.000000000001704237e+01,6.600000000004601075e-01,1.569999999999378115e+00,2.869999999999984084e+03,-2.175000000000200551e+00,-4.945000000003219043e+00,1.342848615867865902e+01,-2.158001621842394524e+00
2.000000000000087752e+01,3.000000000179808168e+00,9.999999999998063771e+00,6.600000000008692247e-01,1.569999999999013296e+00,2.869999999999988631e+03,-2.175000000000146372e+00,-4.945000000004859508e+00,1.343029521193318132e+01,-2.147457250038147247e+00
2.000000000000090239e+01,3.000000000807770295e+00,1.000000000001292300e+01,6.600000000005279421e-01,1.569999999999605711e+00,2.869999999999984084e+03,-2.175000000000170797e+00,-4.945000000003349605e+00,1.342619682912860668e+01,-2.146927716798750385e+00
2.000000000000138911e+01,2.999999999129212558e+00,9.999999999977315923e+00,6.599999999998007461e-01,1.569999999999197593e+00,2.870000000000008640e+03,-2.175000000002292211e+00,-4.945000000002410800e+00,1.337804638353297548e+01,-2.194168672144015009e+00
2.000000000000044409e+01,2.999999997953310071e+00,1.000000000000242295e+01,6.599999999997896438e-01,1.569999999998295648e+00,2.869999999999994998e+03,-2.175000000002099920e+00,-4.945000000005896013e+00,1.340216302086297517e+01,-2.141902172958533690e+00
2.000000000000024514e+01,2.999999998117219402e+00,1.000000000000695444e+01,6.599999999995554978e-01,1.570000000000472129e+00,2.869999999999975444e+03,-2.175000000000434142e+00,-4.944999999997460094e+00,1.340638966269696297e+01,-2.161980849177491226e+00
2.000000000000056133e+01,2.999999998962494363e+00,1.000000000003809220e+01,6.599999999998837907e-01,1.570000000000332019e+00,2.869999999999964530e+03,-2.175000000000087308e+00,-4.944999999998115570e+00,1.340318129594318286e+01,-2.153778800145126571e+00
2.000000000000000355e+01,2.999999998653171129e+00,9.999999999909475079e+00,6.599999999998092948e-01,1.569999999998324514e+00,2.870000000000014097e+03,-2.175000000002233147e+00,-4.945000000005557617e+00,1.341243699713618120e+01,-2.160512416412990966e+00
2.000000000000112976e+01,2.999999999033429621e+00,9.999999999976903808e+00,6.599999999998826805e-01,1.569999999997848894e+00,2.870000000000000455e+03,-2.175000000002788703e+00,-4.945000000006351648e+00,1.340246676157055816e+01,-2.176021496639593433e+00
2.000000000000056133e+01,2.999999998291830838e+00,9.999999999981209697e+00,6.599999999997153699e-01,1.569999999998383577e+00,2.869999999999962256e+03,-2.175000000001761080e+00,-4.945000000004589502e+00,1.341511864619586092e+01,-2.160456154482306879e+00
2.000000000000106226e+01,2.999999998818944302e+00,1.000000000002260236e+01,6.599999999997940847e-01,1.569999999999422968e+00,2.869999999999955890e+03,-2.175000000000937739e+00,-4.945000000001448015e+00,1.340843694266134456e+01,-2.164785599365290469e+00
2.000000000000047962e+01,2.999999998484308428e+00,9.999999999976491694e+00,6.599999999992511857e-01,1.570000000001323670e+00,2.869999999999960437e+03,-2.175000000000081535e+00,-4.944999999995814299e+00,1.339811446430470454e+01,-2.176223356555004873e+00
2.000000000000063949e+01,2.999999997367784665e+00,1.000000000001437961e+01,6.600000000002376188e-01,1.569999999997981233e+00,2.869999999999987722e+03,-2.175000000001663381e+00,-4.945000000006224639e+00,1.338471609405520368e+01,-2.168449590640551428e+00
2.000000000000095923e+01,2.999999997292917442e+00,1.000000000004264145e+01,6.600000000003432010e-01,1.569999999998487938e+00,2.869999999999963165e+03,-2.175000000001165112e+00,-4.945000000005332907e+00,1.339371580310575638e+01,-2.147450384654935096e+00
2.000000000000031619e+01,2.999999998309464289e+00,9.999999999987510435e+00,6.600000000001372547e-01,1.569999999998294760e+00,2.869999999999972715e+03,-2.175000000001573675e+00,-4.945000000005824958e+00,1.340518495889839556e+01,-2.131753196763544800e+00
2.000000000000071054e+01,2.999999997882014213e+00,1.000000000005100276e+01,6.600000000007681944e-01,1.569999999997832463e+00,2.869999999999956344e+03,-2.175000000001145128e+00,-4.945000000006825935e+00,1.339377929660537347e+01,-2.148567265871413667e+00
2.000000000000011369e+01,2.999999998232599552e+00,9.999999999972613907e+00,6.600000000003882761e-01,1.570000000000246976e+00,2.870000000000000909e+03,-2.174999999999644551e+00,-4.945000000001073204e+00,1.339104746218190733e+01,-2.178595346281690492e+00
2.000000000000049738e+01,2.999999998530206824e+00,1.000000000001572431e+01,6.599999999997191447e-01,1.569999999997938822e+00,2.869999999999966803e+03,-2.175000000002149658e+00,-4.945000000005735252e+00,1.340186231872760736e+01,-2.135183231185495689e+00
2.000000000000050093e+01,2.999999999316075083e+00,9.999999999980333953e+00,6.599999999997185895e-01,1.569999999999114104e+00,2.869999999999974534e+03,-2.175000000001373390e+00,-4.945000000002291785e+00,1.342058927758041520e+01,-2.189742874479096546e+00
2.000000000000128608e+01,2.999999999746845170e+00,1.000000000002075851e+01,6.599999999998916733e-01,1.569999999998838547e+00,2.869999999999970896e+03,-2.175000000001749534e+00,-4.945000000004092122e+00,1.341317184343255242e+01,-2.181646844955124287e+00
2.000000000000081002e+01,2.999999999349812096e+00,1.000000000004674838e+01,6.599999999999324185e-01,1.569999999998771933e+00,2.869999999999961801e+03,-2.175000000001209965e+00,-4.945000000002373497e+00,1.339489738123270968e+01,-2.182623385609822275e+00
2.000000000000022382e+01,2.999999997285338615e+00,9.999999999943348428e+00,6.599999999995480593e-01,1.570000000000453255e+00,2.869999999999983629e+03,-2.175000000000692157e+00,-4.944999999998819895e+00,1.338378285738181006e+01,-2.161712949831668507e+00
2.000000000000042633e+01,2.999999999493115244e+00,9.999999999976923348e+00,6.599999999991634780e-01,1.569999999998400897e+00,2.869999999999956344e+03,-2.175000000002457856e+00,-4.945000000003705765e+00,1.340495197710398401e+01,-2.169765274560334856e+00
2.000000000000249756e+01,2.999999997748611147e+00,1.000000000007689493e+01,6.600000000003910516e-01,1.569999999997397921e+00,2.869999999999963165e+03,-2.175000000002688783e+00,-4.945000000007514274e+00,1.337526956946103418e+01,-2.172952467664084786e+00
1.999999999999994671e+01,2.999999998242723009e+00,9.999999999995946354e+00,6.600000000000706413e-01,1.569999999999217133e+00,2.869999999999969987e+03,-2.175000000000467892e+00,-4.945000000002692353e+00,1.340937572284443213e+01,-2.156718957340843179e+00
2.000000000000028777e+01,2.999999998836212267e+00,1.000000000002672174e+01,6.599999999996299938e-01,1.569999999999808660e+00,2.869999999999959982e+03,-2.175000000000562483e+00,-4.944999999999658336e+00,1.341465990438632616e+01,-2.164699707964536035e+00
2.000000000000152411e+01,2.999999997535905738e+00,1.000000000001494271e+01,6.599999999994187183e-01,1.569999999999559748e+00,2.869999999999958163e+03,-2.175000000002090150e+00,-4.945000000000271179e+00,1.338469771874981262e+01,-2.175956326313595035e+00
2.000000000000060041e+01,2.999999998909652632e+00,1.000000000000649791e+01,6.600000000003596323e-01,1.569999999997652607e+00,2.869999999999984539e+03,-2.175000000001782841e+00,-4.945000000007854446e+00,1.339403417653814188e+01,-2.167781078547103668e+00
2.000000000000052580e+01,2.999999997751089609e+00,1.000000000000980194e+01,6.599999999998363842e-01,1.569999999998314744e+00,2.869999999999984993e+03,-2.175000000001899192e+00,-4.945000000005302709e+00,1.339396192995117119e+01,-2.160057215052998636e+00
2.000000000000010658e+01,2.999999997769889237e+00,9.999999999993461230e+00,6.600000000003765077e-01,1.569999999998026086e+00,2.869999999999976808e+03,-2.175000000001476863e+00,-4.945000000006213980e+00,1.339128114436262784e+01,-2.162409551529969498e+00
1.999999999999987566e+01,2.999999999651822957e+00,9.999999999981636023e+00,6.600000000002284040e-01,1.570000000002657936e+00,2.869999999999982265e+03,-2.174999999997868638e+00,-4.944999999993114237e+00,1.341019248529693897e+01,-2.180154852260793863e+00
2.000000000000014566e+01,2.999999999880250456e+00,9.999999999971802112e+00,6.600000000006445156e-01,1.570000000002218066e+00,2.869999999999957254e+03,-2.174999999997666134e+00,-4.944999999995166817e+00,1.341628703792970789e+01,-2.179836182618208884e+00
2.000000000000041211e+01,2.999999999940405893e+00,1.000000000001306155e+01,6.600000000005364909e-01,1.570000000000718154e+00,2.869999999999975898e+03,-2.174999999998836753e+00,-4.944999999997344631e+00,1.341160362796053462e+01,-2.169042411832049488e+00
2.000000000000057909e+01,2.999999999366915748e+00,9.999999999999852562e+00,6.599999999996553068e-01,1.569999999998993090e+00,2.869999999999981355e+03,-2.175000000001692246e+00,-4.945000000002377050e+00,1.339880400021826645e+01,-2.167988695075103056e+00
1.999999999999997513e+01,2.999999999478892398e+00,9.999999999997376321e+00,6.599999999997342437e-01,1.569999999999654783e+00,2.870000000000008640e+03,-2.175000000000805844e+00,-4.945000000000851159e+00,1.339912449327100674e+01,-2.184064181066869281e+00
2.000000000000244782e+01,2.999999997892910830e+00,1.000000000007602097e+01,6.599999999991984501e-01,1.569999999995396189e+00,2.869999999999930878e+03,-2.175000000005444800e+00,-4.945000000011788188e+00,1.340070190618991930e+01,-2.168659975220383007e+00
2.000000000000173017e+01,2.999999996576052652e+00,1.000000000003919887e+01,6.599999999999118794e-01,1.569999999997518270e+00,2.869999999999957254e+03,-2.175000000002963674e+00,-4.945000000006571916e+00,1.337691462734716907e+01,-2.148608007577714751e+00
2.000000000000226663e+01,2.999999998340840524e+00,1.000000000002619593e+01,6.599999999996108979e-01,1.569999999996864348e+00,2.869999999999967258e+03,-2.175000000004335909e+00,-4.945000000009942553e+00,1.339682212602022382e+01,-2.137029368825126507e+00
1.999999999999899103e+01,3.000000001436158747e+00,9.999999999976944665e+00,6.600000000001957634e-01,1.569999999999984297e+00,2.869999999999999545e+03,-2.174999999999308375e+00,-4.944999999999986073e+00,1.342892312005295352e+01,-2.159883756136339539e+00
1.999999999999931077e+01,3.000000001096745805e+00,1.000000000000400391e+01,6.600000000002868017e-01,1.569999999999873941e+00,2.869999999999999545e+03,-2.174999999999231548e+00,-4.945000000000446150e+00,1.342652573516384074e+01,-2.169587674156092216e+00
1.999999999999937117e+01,3.000000001262076221e+00,1.000000000000120259e+01,6.600000000007516521e-01,1.570000000000192575e+00,2.869999999999992269e+03,-2.174999999998372235e+00,-4.944999999999907025e+00,1.342765056440053506e+01,-2.170530245879167097e+00
1.999999999999948130e+01,3.000000000133681510e+00,9.999999999942746243e+00,6.600000000003688472e-01,1.570000000000420837e+00,2.869999999999995907e+03,-2.174999999999295053e+00,-4.945000000000748130e+00,1.341523851826993763e+01,-2.156983480184553770e+00
1.999999999999895195e+01,3.000000001013283679e+00,9.999999999907085879e+00,6.599999999997322453e-01,1.570000000000064011e+00,2.870000000000000909e+03,-2.175000000000138822e+00,-4.945000000000284501e+00,1.342339874402914290e+01,-2.174943472613094730e+00
1.999999999999954170e+01,2.999999997821890751e+00,9.999999999986757260e+00,6.600000000007832934e-01,1.570000000000650653e+00,2.869999999999990905e+03,-2.174999999998410871e+00,-4.945000000000155715e+00,1.339725672231417875e+01,-2.140318257110287448e+00
2.000000000000158451e+01,2.999999997952815356e+00,1.000000000005873879e+01,6.600000000000071365e-01,1.569999999997143236e+00,2.869999999999955890e+03,-2.175000000002791811e+00,-4.945000000008847429e+00,1.338230586337603256e+01,-2.186181660826754136e+00
2.000000000000092371e+01,2.999999999655505345e+00,1.000000000001842970e+01,6.599999999996657429e-01,1.569999999996998463e+00,2.869999999999966349e+03,-2.175000000003104006e+00,-4.945000000009162733e+00,1.341049441080313187e+01,-2.153969449855073659e+00
2.000000000000133227e+01,2.999999998264091250e+00,1.000000000006214407e+01,6.600000000003717338e-01,1.569999999998113127e+00,2.869999999999972715e+03,-2.175000000001657607e+00,-4.945000000006062102e+00,1.339232857849878577e+01,-2.160826030252732455e+00
1.999999999999980105e+01,2.999999998558977587e+00,9.999999999954612306e+00,6.600000000000564304e-01,1.569999999999474039e+00,2.869999999999970441e+03,-2.175000000000599343e+00,-4.945000000002284679e+00,1.340616877836932019e+01,-2.155712649932619129e+00
1.999999999999983302e+01,2.999999998693434033e+00,9.999999999964650499e+00,6.600000000001078337e-01,1.570000000001024576e+00,2.869999999999951342e+03,-2.174999999999194245e+00,-4.944999999997228279e+00,1.340636768425274106e+01,-2.137611851451524547e+00
1.999999999999964473e+01,3.000000000113575371e+00,9.999999999934392036e+00,6.599999999992317568e-01,1.569999999999359908e+00,2.869999999999994998e+03,-2.175000000001545253e+00,-4.945000000001252616e+00,1.341574137038018222e+01,-2.180510757917279996e+00
2.000000000000159872e+01,2.999999999211517832e+00,1.000000000004619416e+01,6.599999999998631406e-01,1.569999999997000684e+00,2.869999999999966803e+03,-2.175000000003364686e+00,-4.945000000007413021e+00,1.339822734515824010e+01,-2.154118735656286976e+00
2.000000000000017408e+01,2.999999998634452769e+00,9.999999999966819431e+00,6.599999999997780975e-01,1.569999999997634843e+00,2.869999999999979536e+03,-2.175000000002522249e+00,-4.945000000006816165e+00,1.338870945925523337e+01,-2.179821323424788293e+00
2.000000000000063238e+01,2.999999998276366764e+00,1.000000000002747136e+01,6.600000000007750778e-01,1.570000000001240403e+00,2.869999999999959073e+03,-2.174999999998243894e+00,-4.944999999997617302e+00,1.339904171986540682e+01,-2.137938176728749085e+00
2.000000000000072475e+01,2.999999998212150576e+00,1.000000000000163602e+01,6.599999999998772404e-01,1.569999999999052820e+00,2.869999999999980901e+03,-2.175000000001480416e+00,-4.945000000001969376e+00,1.339009363639066663e+01,-2.169587249434222098e+00
2.000000000000114753e+01,2.999999996948227832e+00,1.000000000002085976e+01,6.600000000000966205e-01,1.570000000000233653e+00,2.869999999999959527e+03,-2.175000000000145040e+00,-4.945000000000503881e+00,1.337686112496527180e+01,-2.177825226902023736e+00
2.000000000000061107e+01,2.999999997361015858e+00,9.999999999986217247e+00,6.599999999997633315e-01,1.569999999999651008e+00,2.869999999999973625e+03,-2.175000000000966605e+00,-4.945000000002119478e+00,1.338459574256607709e+01,-2.163522208693480220e+00
2.000000000000022382e+01,2.999999998729239170e+00,1.000000000001979217e+01,6.600000000001068345e-01,1.570000000000264517e+00,2.869999999999945430e+03,-2.174999999999551292e+00,-4.944999999999576623e+00,1.339683790551554310e+01,-2.135993356047276137e+00
2.000000000000026645e+01,2.999999999930100358e+00,9.999999999988713029e+00,6.600000000011534418e-01,1.570000000000772333e+00,2.869999999999994998e+03,-2.174999999998398437e+00,-4.945000000000407070e+00,1.339965957691089748e+01,-2.154565057884576973e+00
2.000000000000111555e+01,2.999999997849457145e+00,1.000000000001095835e+01,6.600000000004355716e-01,1.569999999998157536e+00,2.869999999999969532e+03,-2.175000000001373834e+00,-4.945000000007428120e+00,1.339313711994563150e+01,-2.169330616681284685e+00
1.999999999999995026e+01,2.999999998098912712e+00,9.999999999990269117e+00,6.599999999996162270e-01,1.569999999999605045e+00,2.870000000000016826e+03,-2.175000000001249489e+00,-4.945000000000939977e+00,1.338378803825621155e+01,-2.156136789591780900e+00
1.999999999999986500e+01,2.999999997443663968e+00,9.999999999982561505e+00,6.600000000004019318e-01,1.569999999997168105e+00,2.869999999999991360e+03,-2.175000000002000000e+00,-4.945000000009651231e+00,1.339748531615158988e+01,-2.146977318969515380e+00
2.000000000000110845e+01,2.999999999385674521e+00,1.000000000002070344e+01,6.600000000009729195e-01,1.569999999998079154e+00,2.869999999999997272e+03,-2.175000000001118039e+00,-4.945000000008189289e+00,1.339041509525147688e+01,-2.173658912273313870e+00
2.000000000000258993e+01,2.999999998914878674e+00,1.000000000006925482e+01,6.600000000002990141e-01,1.569999999998610951e+00,2.869999999999955890e+03,-2.175000000001809042e+00,-4.945000000003570761e+00,1.338046250327553999e+01,-2.174371567786854254e+00
2.000000000000205702e+01,2.999999997791222839e+00,1.000000000006469669e+01,6.600000000010213252e-01,1.569999999999805551e+00,2.869999999999966803e+03,-2.174999999999754241e+00,-4.945000000002330864e+00,1.337930770975504480e+01,-2.158323663769535106e+00
2.000000000000088818e+01,2.999999999202056067e+00,1.000000000001930900e+01,6.599999999995646016e-01,1.569999999996054552e+00,2.869999999999962711e+03,-2.175000000003819434e+00,-4.945000000010301378e+00,1.340526526263776042e+01,-2.167805104392349858e+00
2.000000000000076383e+01,2.999999998980180660e+00,1.000000000001420553e+01,6.600000000010178836e-01,1.570000000000438822e+00,2.869999999999976808e+03,-2.174999999998712852e+00,-4.945000000001954277e+00,1.338741855287946514e+01,-2.151377102003853459e+00
2.000000000000114042e+01,3.000000001031559282e+00,1.000000000000967937e+01,6.600000000005649126e-01,1.569999999997349960e+00,2.869999999999992724e+03,-2.175000000002329958e+00,-4.945000000009847518e+00,1.340135696393958931e+01,-2.192866818473448998e+00
2.000000000000230926e+01,2.999999998038723970e+00,1.000000000004716583e+01,6.599999999995184163e-01,1.569999999996433138e+00,2.869999999999969077e+03,-2.175000000004600587e+00,-4.945000000009187602e+00,1.338574349623323556e+01,-2.208967918993352875e+00
1.999999999999992184e+01,2.999999998852089345e+00,1.000000000001540634e+01,6.600000000013918067e-01,1.570000000001202434e+00,2.869999999999999091e+03,-2.174999999997533795e+00,-4.945000000000189466e+00,1.338989200534630086e+01,-2.162004180135008280e+00
2.000000000000015277e+01,3.000000000099073194e+00,1.000000000006623324e+01,6.600000000008491297e-01,1.570000000000534524e+00,2.869999999999994543e+03,-2.174999999998552092e+00,-4.944999999999295071e+00,1.340472817739477485e+01,-2.183310587245204992e+00
2.000000000000114042e+01,2.999999999929734873e+00,1.000000000006092726e+01,6.600000000006344125e-01,1.569999999998396456e+00,2.869999999999986812e+03,-2.175000000000978151e+00,-4.945000000004410978e+00,1.340108648575678885e+01,-2.209152187406555612e+00
2.000000000000182965e+01,2.999999996971214777e+00,1.000000000009958434e+01,6.600000000008193757e-01,1.569999999999194484e+00,2.869999999999934516e+03,-2.174999999999809752e+00,-4.945000000003100915e+00,1.338648226592426660e+01,-2.158579897550209736e+00
2.000000000000094857e+01,2.999999998391556844e+00,1.000000000002653877e+01,6.600000000004054845e-01,1.569999999998624274e+00,2.869999999999984084e+03,-2.175000000001055867e+00,-4.945000000003472174e+00,1.338668276991407069e+01,-2.193334680549015481e+00
1.999999999999988276e+01,2.999999999405853490e+00,9.999999999987888799e+00,6.600000000004686562e-01,1.570000000002073293e+00,2.870000000000002728e+03,-2.174999999997956568e+00,-4.944999999995575379e+00,1.340823110345182201e+01,-2.155441183099128022e+00
