1.999999999999937117e+01,2.999999998559308878e+00,9.999999999951462826e+00,6.600000000001793321e-01,1.569999999998967999e+00,2.869999999999986812e+03,-2.175000000000562927e+00,-4.945000000004377227e+00,1.340299795321842069e+01,-2.157485351285532982e+00
2.000000000000136069e+01,2.999999995861613034e+00,1.000000000005504752e+01,6.599999999995654898e-01,1.569999999999371898e+00,2.869999999999969987e+03,-2.175000000001676259e+00,-4.944999999999699192e+00,1.337547610991632752e+01,-2.188300663297837012e+00
2.000000000000051870e+01,2.999999998015997260e+00,1.000000000001057998e+01,6.600000000008379164e-01,1.569999999999820206e+00,2.869999999999980901e+03,-2.174999999999756906e+00,-4.945000000002716334e+00,1.340048012084687024e+01,-2.148928268899777283e+00
2.000000000000115463e+01,2.999999999111377047e+00,1.000000000005938716e+01,6.600000000005854517e-01,1.570000000000121521e+00,2.869999999999966803e+03,-2.174999999999543299e+00,-4.944999999999317275e+00,1.339957821585993258e+01,-2.162437658569158039e+00
2.000000000000256861e+01,2.999999998823641434e+00,1.000000000007654677e+01,6.600000000011109202e-01,1.569999999996040119e+00,2.869999999999952706e+03,-2.175000000002987655e+00,-4.945000000014816877e+00,1.340583710856174093e+01,-2.151497951436185829e+00
2.000000000000090594e+01,2.999999998078127561e+00,1.000000000003330314e+01,6.599999999997920863e-01,1.569999999998649143e+00,2.869999999999995907e+03,-2.175000000001861000e+00,-4.945000000003356710e+00,1.338933078901947660e+01,-2.186043865408834108e+00
1.999999999999986500e+01,2.999999999403867079e+00,9.999999999997557509e+00,6.599999999999139888e-01,1.570000000000860263e+00,2.870000000000000455e+03,-2.174999999999427835e+00,-4.944999999997060414e+00,1.340571614700738401e+01,-2.171206201146714587e+00
2.000000000000036238e+01,2.999999999117194172e+00,1.000000000003833911e+01,6.600000000004380141e-01,1.570000000000639995e+00,2.869999999999958618e+03,-2.174999999998881606e+00,-4.944999999998025864e+00,1.339539513310231733e+01,-2.166471361663599549e+00
1.999999999999999289e+01,2.999999998674147239e+00,1.000000000003144329e+01,6.599999999998428235e-01,1.570000000000260520e+00,2.869999999999965894e+03,-2.174999999999756461e+00,-4.944999999997939710e+00,1.339267018582120095e+01,-2.166608117214981810e+00
2.000000000000143174e+01,2.999999999274397755e+00,9.999999999986984633e+00,6.599999999995794786e-01,1.569999999998448192e+00,2.869999999999998181e+03,-2.175000000002800249e+00,-4.945000000004710294e+00,1.339725888969576673e+01,-2.172402185292363619e+00
2.000000000000050804e+01,2.999999997823634690e+00,9.999999999967364772e+00,6.599999999993776401e-01,1.570000000000100648e+00,2.870000000000013642e+03,-2.175000000001321432e+00,-4.944999999998645812e+00,1.339363543068523832e+01,-2.193221707906606088e+00
1.999999999999958078e+01,2.999999998833822179e+00,9.999999999993876898e+00,6.599999999995976863e-01,1.570000000000095319e+00,2.870000000000003638e+03,-2.175000000000444356e+00,-4.944999999999060591e+00,1.339599368012488334e+01,-2.173067405169001987e+00
2.000000000000014921e+01,2.999999998374133892e+00,9.999999999942996709e+00,6.599999999998463762e-01,1.569999999998534346e+00,2.869999999999987722e+03,-2.175000000001954259e+00,-4.945000000006071872e+00,1.340531718327051003e+01,-2.135347913716071577e+00
2.000000000000020250e+01,2.999999998824249836e+00,9.999999999941991291e+00,6.599999999992447464e-01,1.569999999999447171e+00,2.869999999999991815e+03,-2.175000000001901856e+00,-4.945000000001345875e+00,1.341024550857174802e+01,-2.171141488620049298e+00
1.999999999999990408e+01,2.999999999283547325e+00,9.999999999934509276e+00,6.599999999992740563e-01,1.569999999999768248e+00,2.870000000000000455e+03,-2.175000000001519940e+00,-4.945000000000294271e+00,1.341791846948161471e+01,-2.190459952423511769e+00
2.000000000000078515e+01,2.999999998139092128e+00,1.000000000000419931e+01,6.600000000000537659e-01,1.569999999999958540e+00,2.869999999999986358e+03,-2.175000000000605116e+00,-4.945000000000258744e+00,1.338190412749674429e+01,-2.151691301962327607e+00
1.999999999999993960e+01,2.999999999433064168e+00,9.999999999913470106e+00,6.599999999988885868e-01,1.569999999998741069e+00,2.869999999999978627e+03,-2.175000000002570655e+00,-4.945000000003848761e+00,1.341161830881893913e+01,-2.164526206407189957e+00
2.000000000000047251e+01,2.999999999495029268e+00,9.999999999931386441e+00,6.599999999984000887e-01,1.569999999997280460e+00,2.869999999999977717e+03,-2.175000000004569500e+00,-4.945000000006203322e+00,1.340846832127657784e+01,-2.174649212966741185e+00
2.000000000000087041e+01,2.999999997961570131e+00,1.000000000002863310e+01,6.599999999998173994e-01,1.569999999999379670e+00,2.869999999999972715e+03,-2.175000000001085620e+00,-4.945000000000068674e+00,1.339292742700663297e+01,-2.159282498600643141e+00
2.000000000000181188e+01,3.000000000129481759e+00,1.000000000005455369e+01,6.600000000010401990e-01,1.569999999998491935e+00,2.869999999999954071e+03,-2.175000000000655298e+00,-4.945000000005272511e+00,1.339749290012813887e+01,-2.140211398216485872e+00
2.000000000000083134e+01,2.999999998819606883e+00,1.000000000004204814e+01,6.600000000011900791e-01,1.570000000001061657e+00,2.869999999999961346e+03,-2.174999999997729638e+00,-4.944999999998493934e+00,1.339430229600351474e+01,-2.157456119262798122e+00
2.000000000000097344e+01,3.000000000237670328e+00,9.999999999975141662e+00,6.600000000003179990e-01,1.569999999996760653e+00,2.870000000000000000e+03,-2.175000000003019629e+00,-4.945000000010360885e+00,1.341066666413408015e+01,-2.169975951567360006e+00
2.000000000000129319e+01,2.999999999702346987e+00,1.000000000002449241e+01,6.600000000008955370e-01,1.569999999997481854e+00,2.869999999999969532e+03,-2.175000000001429790e+00,-4.945000000008442420e+00,1.340175601647424486e+01,-2.169808573690011677e+00
1.999999999999964118e+01,2.999999998158513481e+00,9.999999999949208629e+00,6.600000000005459277e-01,1.570000000000473461e+00,2.870000000000014097e+03,-2.174999999999218669e+00,-4.945000000000004725e+00,1.339425371520163033e+01,-2.161103083561686233e+00
1.999999999999965539e+01,2.999999999307371379e+00,9.999999999981801224e+00,6.600000000004225820e-01,1.569999999999234230e+00,2.869999999999987267e+03,-2.175000000000085087e+00,-4.945000000003204832e+00,1.340593576134586939e+01,-2.191934530636128642e+00
1.999999999999969802e+01,2.999999998604879536e+00,9.999999999983128163e+00,6.600000000000743050e-01,1.569999999999089235e+00,2.869999999999987267e+03,-2.175000000000644640e+00,-4.945000000003755503e+00,1.339923452568824835e+01,-2.173178752121204926e+00
2.000000000000088107e+01,2.999999998707830073e+00,1.000000000007785417e+01,6.600000000013539481e-01,1.570000000001708917e+00,2.869999999999945430e+03,-2.174999999996906297e+00,-4.944999999996185558e+00,1.339387154370793986e+01,-2.172780882839514316e+00
2.000000000000065015e+01,2.999999998097178544e+00,1.000000000001558220e+01,6.599999999999291989e-01,1.569999999996548379e+00,2.869999999999963165e+03,-2.175000000003191492e+00,-4.945000000009942553e+00,1.339618647133694118e+01,-2.172811232098499357e+00
2.000000000000061462e+01,2.999999999624560321e+00,9.999999999975726084e+00,6.599999999994369260e-01,1.569999999997621520e+00,2.869999999999985903e+03,-2.175000000003031619e+00,-4.945000000006455565e+00,1.340481513991433182e+01,-2.190530974523776653e+00
2.000000000000024514e+01,2.999999999697417596e+00,9.999999999968620656e+00,6.599999999997089306e-01,1.569999999999076801e+00,2.869999999999996817e+03,-2.175000000001432898e+00,-4.945000000001755325e+00,1.341486395046093527e+01,-2.194710914837378457e+00
2.000000000000124700e+01,2.999999997526266338e+00,9.999999999997012168e+00,6.599999999998342748e-01,1.569999999998243245e+00,2.869999999999985903e+03,-2.175000000002633715e+00,-4.945000000005745022e+00,1.338572256766186364e+01,-2.158355413480144591e+00
2.000000000000083844e+01,2.999999997983244793e+00,1.000000000003920064e+01,6.600000000009207390e-01,1.570000000001846363e+00,2.869999999999964530e+03,-2.174999999997564881e+00,-4.944999999995555839e+00,1.340313789242919995e+01,-2.161281725876714077e+00
2.000000000000148148e+01,2.999999997879752023e+00,1.000000000002388667e+01,6.599999999998510392e-01,1.569999999998011209e+00,2.869999999999982265e+03,-2.175000000002691891e+00,-4.945000000005333796e+00,1.339000927045861467e+01,-2.186435175706884504e+00
2.000000000000031619e+01,2.999999998481263752e+00,1.000000000001058886e+01,6.599999999996687405e-01,1.569999999999128537e+00,2.869999999999957254e+03,-2.175000000001257483e+00,-4.945000000000629115e+00,1.340329869041974042e+01,-2.171899582949535112e+00
2.000000000000070344e+01,2.999999999595057698e+00,1.000000000001816503e+01,6.599999999994754507e-01,1.569999999997746531e+00,2.869999999999964530e+03,-2.175000000002834444e+00,-4.945000000004567298e+00,1.340535484977887926e+01,-2.191484271178436583e+00
2.000000000000015987e+01,2.999999999706785658e+00,1.000000000001028511e+01,6.600000000000921796e-01,1.569999999998581863e+00,2.869999999999987267e+03,-2.175000000001263256e+00,-4.945000000003841656e+00,1.340670455720687038e+01,-2.170106897454505912e+00
2.000000000000070344e+01,2.999999998943688073e+00,9.999999999988533617e+00,6.599999999996859490e-01,1.569999999998481943e+00,2.869999999999984084e+03,-2.175000000002262013e+00,-4.945000000004178276e+00,1.340050375831348006e+01,-2.169919792627393651e+00
2.000000000000128608e+01,2.999999997533964180e+00,1.000000000005492851e+01,6.600000000006180922e-01,1.569999999998706208e+00,2.869999999999944066e+03,-2.175000000000484324e+00,-4.945000000003039631e+00,1.338922796717903374e+01,-2.169168984815438961e+00
2.000000000000031974e+01,2.999999999637291914e+00,9.999999999989499955e+00,6.600000000001964295e-01,1.569999999998767715e+00,2.870000000000003183e+03,-2.175000000001392042e+00,-4.945000000004636576e+00,1.340908209860517353e+01,-2.175619584616053537e+00
2.000000000000017408e+01,2.999999999689163310e+00,9.999999999972695619e+00,6.599999999995864730e-01,1.569999999998782370e+00,2.869999999999994088e+03,-2.175000000002107914e+00,-4.945000000003832774e+00,1.341516155171523295e+01,-2.168424602823835201e+00
2.000000000000083489e+01,2.999999998332122608e+00,9.999999999983520738e+00,6.600000000002280709e-01,1.570000000000212115e+00,2.869999999999972260e+03,-2.175000000000249401e+00,-4.945000000000266738e+00,1.340441124767976611e+01,-2.167812949086781682e+00
2.000000000000060751e+01,2.999999999536015149e+00,1.000000000001938716e+01,6.599999999998517053e-01,1.569999999998896056e+00,2.869999999999974989e+03,-2.175000000001320544e+00,-4.945000000003697771e+00,1.339897062367064251e+01,-2.175983537411510405e+00
2.000000000000118661e+01,2.999999999937501549e+00,9.999999999989599431e+00,6.600000000009796919e-01,1.569999999998613172e+00,2.869999999999969532e+03,-2.175000000000607336e+00,-4.945000000005793872e+00,1.339766015826423917e+01,-2.166014043788242915e+00
2.000000000000186162e+01,2.999999999847026810e+00,1.000000000005535483e+01,6.600000000013491741e-01,1.569999999998483942e+00,2.869999999999948159e+03,-2.175000000000310685e+00,-4.945000000005917329e+00,1.339213975949521007e+01,-2.168914261662244769e+00
2.000000000000133937e+01,2.999999999518751181e+00,1.000000000001360512e+01,6.599999999996494227e-01,1.569999999998170193e+00,2.869999999999968168e+03,-2.175000000002722533e+00,-4.945000000004725393e+00,1.340482395582913888e+01,-2.170644333242257140e+00
2.000000000000008882e+01,2.999999998569999438e+00,9.999999999969876541e+00,6.599999999997695488e-01,1.569999999999868612e+00,2.869999999999979082e+03,-2.175000000000680611e+00,-4.945000000001644302e+00,1.341194335374524726e+01,-2.128913989075084334e+00
2.000000000000030198e+01,2.999999998115129962e+00,9.999999999991839417e+00,6.600000000001571276e-01,1.570000000000652651e+00,2.869999999999984539e+03,-2.174999999999569056e+00,-4.944999999999506457e+00,1.340863890972589267e+01,-2.134124310888080966e+00
2.000000000000092015e+01,2.999999998182344196e+00,9.999999999982591703e+00,6.599999999997787636e-01,1.569999999999646789e+00,2.869999999999991815e+03,-2.175000000001431566e+00,-4.945000000002322871e+00,1.340138878592491700e+01,-2.143151306844256254e+00
2.000000000000169820e+01,2.999999998726546657e+00,1.000000000003592326e+01,6.599999999997917532e-01,1.570000000000213003e+00,2.870000000000009550e+03,-2.175000000001458655e+00,-4.944999999999136975e+00,1.340031022467039001e+01,-2.158872604669556328e+00
2.000000000000069278e+01,2.999999998916318411e+00,9.999999999966709296e+00,6.600000000001852163e-01,1.569999999999815321e+00,2.870000000000000000e+03,-2.175000000000734346e+00,-4.945000000001569695e+00,1.340190275359845806e+01,-2.138584381255129063e+00
2.000000000000015632e+01,2.999999998931242917e+00,9.999999999963844033e+00,6.599999999997324673e-01,1.570000000000504325e+00,2.869999999999980901e+03,-2.175000000000351985e+00,-4.944999999999722284e+00,1.340265862122961238e+01,-2.131523914844380752e+00
2.000000000000062528e+01,2.999999999021459196e+00,1.000000000002287059e+01,6.599999999999417444e-01,1.569999999998020090e+00,2.869999999999949523e+03,-2.175000000001793943e+00,-4.945000000005976837e+00,1.339191693557655682e+01,-2.149313964255386011e+00
2.000000000000022027e+01,2.999999999235690051e+00,1.000000000002157208e+01,6.600000000006636114e-01,1.569999999999862839e+00,2.870000000000005912e+03,-2.174999999999573497e+00,-4.944999999999841300e+00,1.339584486955553722e+01,-2.201858863028040236e+00
2.000000000000040501e+01,2.999999999920946347e+00,9.999999999984428456e+00,6.599999999995802558e-01,1.569999999999668105e+00,2.870000000000024556e+03,-2.175000000001512834e+00,-4.944999999999944329e+00,1.340543558993654116e+01,-2.205880543665833748e+00
2.000000000000152767e+01,2.999999997695986131e+00,1.000000000003753975e+01,6.600000000008708900e-01,1.569999999996903206e+00,2.870000000000003638e+03,-2.175000000002578204e+00,-4.945000000011179786e+00,1.338641940267956443e+01,-2.175645329262242189e+00
2.000000000000021316e+01,2.999999998431987613e+00,9.999999999955832664e+00,6.599999999999680567e-01,1.570000000000487228e+00,2.869999999999978627e+03,-2.175000000000140599e+00,-4.944999999998408668e+00,1.339805611597717139e+01,-2.133344552111010373e+00
2.000000000000058620e+01,2.999999999650694082e+00,9.999999999954264140e+00,6.600000000000845191e-01,1.570000000000172813e+00,2.869999999999970896e+03,-2.175000000000362643e+00,-4.944999999999076579e+00,1.340491325965133740e+01,-2.148223772636447482e+00
1.999999999999953459e+01,2.999999997492631909e+00,9.999999999938575357e+00,6.599999999989303312e-01,1.569999999998118012e+00,2.869999999999998181e+03,-2.175000000003048939e+00,-4.945000000003923368e+00,1.340085933938183160e+01,-2.148849575216880137e+00
1.999999999999935696e+01,2.999999998318871430e+00,9.999999999898882663e+00,6.599999999988985788e-01,1.569999999998324292e+00,2.869999999999998636e+03,-2.175000000003017409e+00,-4.945000000004398544e+00,1.341614567664867330e+01,-2.139051956092083540e+00
2.000000000000112266e+01,2.999999999000599438e+00,9.999999999992358113e+00,6.599999999996042366e-01,1.569999999999058149e+00,2.869999999999973170e+03,-2.175000000001911626e+00,-4.945000000002359286e+00,1.340194383360993591e+01,-2.157744801206794349e+00
2.000000000000145661e+01,2.999999999676389084e+00,1.000000000003897860e+01,6.599999999993483302e-01,1.569999999999515783e+00,2.869999999999981810e+03,-2.175000000002022205e+00,-4.945000000001350315e+00,1.340787210615014580e+01,-2.162000687651970399e+00
2.000000000000136069e+01,2.999999999416316232e+00,1.000000000004398260e+01,6.599999999992746114e-01,1.569999999999122986e+00,2.869999999999966803e+03,-2.175000000002215828e+00,-4.945000000002366392e+00,1.340733485997147056e+01,-2.145477505928825579e+00
2.000000000000171241e+01,2.999999998611961871e+00,1.000000000007036505e+01,6.600000000004789813e-01,1.569999999997817586e+00,2.869999999999960437e+03,-2.175000000001832134e+00,-4.945000000006926300e+00,1.339417635277905916e+01,-2.151440617194779303e+00
2.000000000000257216e+01,2.999999998794710354e+00,1.000000000003271161e+01,6.600000000003612977e-01,1.570000000000016938e+00,2.869999999999945885e+03,-2.175000000000735234e+00,-4.944999999999405205e+00,1.340063006950773961e+01,-2.140496946336357009e+00
2.000000000000247979e+01,2.999999997379538819e+00,1.000000000003862866e+01,6.600000000000657563e-01,1.569999999996048334e+00,2.869999999999955435e+03,-2.175000000004357670e+00,-4.945000000011380514e+00,1.337141121173788250e+01,-2.162765167919698417e+00
2.000000000000102318e+01,2.999999998470646023e+00,9.999999999980916598e+00,6.600000000007130163e-01,1.569999999999058371e+00,2.869999999999978627e+03,-2.175000000000747225e+00,-4.945000000005241425e+00,1.338637257290461946e+01,-2.159720988372456851e+00
2.000000000000147793e+01,2.999999998480643359e+00,1.000000000003358025e+01,6.600000000004748735e-01,1.570000000000158380e+00,2.869999999999974989e+03,-2.175000000000015365e+00,-4.944999999999946105e+00,1.339492795503637446e+01,-2.185990289141993337e+00
2.000000000000099476e+01,2.999999997869633450e+00,1.000000000001723244e+01,6.600000000002035350e-01,1.570000000000279172e+00,2.869999999999950433e+03,-2.174999999999976730e+00,-4.945000000000501217e+00,1.338340609421372207e+01,-2.160171467935574352e+00
1.999999999999930722e+01,2.999999998071680274e+00,9.999999999971050713e+00,6.599999999997252509e-01,1.570000000002291340e+00,2.870000000000010914e+03,-2.174999999998612044e+00,-4.944999999992574224e+00,1.338962355095315715e+01,-2.161720974552793439e+00
2.000000000000183320e+01,2.999999998902287857e+00,1.000000000001641531e+01,6.599999999988637178e-01,1.569999999997125251e+00,2.869999999999974989e+03,-2.175000000004610357e+00,-4.945000000005692620e+00,1.339174798147912782e+01,-2.189743592182288090e+00
2.000000000000173017e+01,2.999999997796082951e+00,1.000000000000999556e+01,6.599999999999215383e-01,1.569999999998950013e+00,2.869999999999980446e+03,-2.175000000002097256e+00,-4.945000000001607887e+00,1.339007707749549603e+01,-2.177015727173078563e+00
2.000000000000121148e+01,3.000000001100352698e+00,1.000000000001575629e+01,6.600000000007765211e-01,1.569999999999979856e+00,2.869999999999964984e+03,-2.174999999999707168e+00,-4.945000000002391261e+00,1.341840850611009728e+01,-2.159441438981006378e+00
2.000000000000080647e+01,3.000000000133848932e+00,1.000000000000714628e+01,6.600000000004874190e-01,1.569999999999963647e+00,2.869999999999974079e+03,-2.175000000000039346e+00,-4.945000000001665619e+00,1.340829951484575311e+01,-2.145408833524250269e+00
2.000000000000023448e+01,2.999999999094649539e+00,1.000000000002757439e+01,6.600000000005891154e-01,1.569999999999564855e+00,2.869999999999999545e+03,-2.175000000000057554e+00,-4.945000000002385931e+00,1.338478609267367681e+01,-2.171185930705154199e+00
1.999999999999967670e+01,2.999999997596035861e+00,9.999999999944547469e+00,6.599999999997644418e-01,1.569999999999377227e+00,2.869999999999994088e+03,-2.175000000000926192e+00,-4.945000000002977458e+00,1.340441428076312214e+01,-2.163362417017031358e+00
2.000000000000073896e+01,2.999999998671529333e+00,1.000000000004143885e+01,6.600000000001104983e-01,1.570000000000573825e+00,2.869999999999998636e+03,-2.174999999999843059e+00,-4.944999999996824158e+00,1.340305468120850385e+01,-2.194725813882509424e+00
1.999999999999969802e+01,2.999999999084014046e+00,9.999999999978163245e+00,6.599999999999961453e-01,1.569999999998318740e+00,2.869999999999994088e+03,-2.175000000001431566e+00,-4.945000000005920882e+00,1.340687192164680042e+01,-2.128048355791054558e+00
2.000000000000020961e+01,2.999999998517977495e+00,1.000000000002826539e+01,6.600000000012057333e-01,1.569999999999046825e+00,2.869999999999974989e+03,-2.174999999999490896e+00,-4.945000000005499885e+00,1.339749329311666415e+01,-2.118941148220237825e+00
2.000000000000042277e+01,2.999999998551769131e+00,9.999999999987373656e+00,6.599999999998874545e-01,1.569999999997752971e+00,2.869999999999981810e+03,-2.175000000002375700e+00,-4.945000000007235386e+00,1.340307116912035212e+01,-2.140932548730740681e+00
2.000000000000079226e+01,2.999999996911325351e+00,9.999999999976333598e+00,6.599999999994680122e-01,1.569999999998868301e+00,2.869999999999990450e+03,-2.175000000002186074e+00,-4.945000000002686136e+00,1.338369853715727764e+01,-2.143536960721294182e+00
2.000000000000005684e+01,2.999999998318636063e+00,1.000000000000117772e+01,6.600000000003655165e-01,1.569999999999656337e+00,2.869999999999993179e+03,-2.175000000000002487e+00,-4.945000000002263363e+00,1.340777073938171959e+01,-2.144862729578205229e+00
1.999999999999989342e+01,2.999999997873718183e+00,1.000000000000615685e+01,6.600000000003167777e-01,1.569999999998959117e+00,2.870000000000000000e+03,-2.175000000000631317e+00,-4.945000000005139285e+00,1.340528109690977310e+01,-2.116664028422950317e+00
2.000000000000238387e+01,2.999999999413437202e+00,1.000000000005992717e+01,6.600000000001662315e-01,1.569999999996825268e+00,2.869999999999945885e+03,-2.175000000003387335e+00,-4.945000000008760388e+00,1.339884459945358941e+01,-2.190485179307720465e+00
2.000000000000091660e+01,2.999999999428550002e+00,1.000000000007355894e+01,6.599999999998381606e-01,1.570000000000162377e+00,2.869999999999980901e+03,-2.175000000000383071e+00,-4.944999999999097895e+00,1.339758354203785196e+01,-2.191902661980250855e+00
2.000000000000018474e+01,2.999999999390247751e+00,9.999999999997886135e+00,6.599999999998582556e-01,1.569999999998916707e+00,2.869999999999984084e+03,-2.175000000001004796e+00,-4.945000000002227836e+00,1.341286434646092118e+01,-2.169244145579212635e+00
2.000000000000012434e+01,2.999999998966120351e+00,9.999999999987133847e+00,6.599999999993404476e-01,1.569999999998751949e+00,2.869999999999992269e+03,-2.175000000001785061e+00,-4.945000000001406271e+00,1.341089218405361372e+01,-2.177056147420325605e+00
2.000000000000085620e+01,2.999999997924979400e+00,1.000000000000567901e+01,6.600000000003124478e-01,1.569999999998113127e+00,2.869999999999986358e+03,-2.175000000001642064e+00,-4.945000000005270735e+00,1.341118081615923430e+01,-2.171331062164115977e+00
2.000000000000006395e+01,2.999999998376856158e+00,9.999999999988167687e+00,6.599999999999891509e-01,1.569999999998171747e+00,2.870000000000002728e+03,-2.175000000001609202e+00,-4.945000000004873719e+00,1.341726401546287661e+01,-2.176724084249570978e+00
2.000000000000166978e+01,2.999999998914370636e+00,1.000000000000468603e+01,6.599999999999489608e-01,1.569999999997058415e+00,2.869999999999950433e+03,-2.175000000003311396e+00,-4.945000000008776375e+00,1.340948795160714369e+01,-2.169451798471068837e+00
2.000000000000179057e+01,2.999999999056556010e+00,1.000000000000042277e+01,6.599999999998018563e-01,1.569999999997486295e+00,2.869999999999973170e+03,-2.175000000003402434e+00,-4.945000000007335750e+00,1.340627593006692564e+01,-2.169391492795277543e+00
2.000000000000052225e+01,2.999999998097291787e+00,9.999999999948540719e+00,6.599999999997713251e-01,1.570000000000004281e+00,2.870000000000008640e+03,-2.175000000001158895e+00,-4.945000000001139817e+00,1.339821060450188384e+01,-2.159217879309402122e+00
2.000000000000022737e+01,2.999999998974281823e+00,9.999999999961413977e+00,6.600000000002205214e-01,1.570000000000635776e+00,2.870000000000012278e+03,-2.174999999999729816e+00,-4.944999999999094342e+00,1.339872984161217140e+01,-2.172795644985617169e+00
2.000000000000224532e+01,2.999999996040591643e+00,1.000000000008177281e+01,6.600000000006189804e-01,1.569999999995710160e+00,2.869999999999951797e+03,-2.175000000003350031e+00,-4.945000000011868124e+00,1.338108152144278584e+01,-2.164097064621988586e+00
2.000000000000292033e+01,2.999999997794446926e+00,1.000000000013084822e+01,6.600000000006315259e-01,1.569999999997626627e+00,2.869999999999950887e+03,-2.175000000002189626e+00,-4.945000000006498198e+00,1.337629158299300158e+01,-2.187569748857900453e+00
2.000000000000148859e+01,2.999999998873182694e+00,1.000000000003060130e+01,6.599999999996601918e-01,1.569999999998503037e+00,2.869999999999967713e+03,-2.175000000002190514e+00,-4.945000000004322160e+00,1.340624969001297728e+01,-2.155060725072106553e+00
2.000000000000086331e+01,2.999999998748834162e+00,9.999999999998774314e+00,6.600000000003156675e-01,1.569999999999681428e+00,2.869999999999961801e+03,-2.175000000000236522e+00,-4.945000000001616769e+00,1.340120533624000387e+01,-2.145639429665929576e+00
2.000000000000004974e+01,2.999999999347791491e+00,9.999999999996687094e+00,6.600000000007522072e-01,1.570000000002131690e+00,2.869999999999976808e+03,-2.174999999997230482e+00,-4.944999999994465156e+00,1.341056077898822707e+01,-2.152379485499734013e+00
2.000000000000151346e+01,2.999999997675068641e+00,1.000000000003351452e+01,6.600000000000764144e-01,1.569999999997239826e+00,2.869999999999964984e+03,-2.175000000002831779e+00,-4.945000000007331309e+00,1.338870223258672176e+01,-2.143019566227185368e+00
2.000000000000173017e+01,2.999999998635464404e+00,1.000000000002399503e+01,6.600000000003107825e-01,1.569999999998935358e+00,2.869999999999937700e+03,-2.175000000000971045e+00,-4.945000000004036167e+00,1.339659977458682327e+01,-2.110882831694941508e+00
2.000000000000155964e+01,2.999999999271480977e+00,1.000000000001967670e+01,6.600000000006653877e-01,1.569999999998830775e+00,2.869999999999961346e+03,-2.175000000000769873e+00,-4.945000000005101093e+00,1.339757835014783538e+01,-2.143248303572172997e+00
2.000000000000053646e+01,2.999999999764997760e+00,1.000000000004353318e+01,6.600000000004045964e-01,1.570000000000189022e+00,2.869999999999993179e+03,-2.174999999999668532e+00,-4.945000000000364437e+00,1.339913587627206226e+01,-2.155806086716721914e+00
2.000000000000087397e+01,3.000000000040228265e+00,9.999999999965908160e+00,6.599999999978367615e-01,1.569999999997587325e+00,2.870000000000007731e+03,-2.175000000005674838e+00,-4.945000000003653362e+00,1.339618842475249849e+01,-2.183567882499541035e+00
2.000000000000032685e+01,3.000000000145604862e+00,1.000000000001703171e+01,6.600000000003338751e-01,1.569999999999394991e+00,2.869999999999995453e+03,-2.175000000000541167e+00,-4.945000000002725216e+00,1.339398789960032765e+01,-2.153357106984916669e+00
2.000000000000093436e+01,2.999999998773997145e+00,1.000000000005686829e+01,6.600000000008090506e-01,1.569999999998903606e+00,2.869999999999973625e+03,-2.175000000000500311e+00,-4.945000000004101004e+00,1.338092988470035394e+01,-2.166926375466764476e+00
2.000000000000051514e+01,2.999999999001424111e+00,1.000000000000517097e+01,6.600000000007261169e-01,1.569999999998352269e+00,2.869999999999972260e+03,-2.175000000000592681e+00,-4.945000000006511520e+00,1.339913076915772727e+01,-2.149444405734945551e+00
2.000000000000048672e+01,3.000000000442329728e+00,1.000000000002165557e+01,6.600000000016742474e-01,1.570000000001412710e+00,2.869999999999982265e+03,-2.174999999996940048e+00,-4.944999999999229345e+00,1.340892645812437500e+01,-2.157551270072192384e+00
2.000000000000111910e+01,2.999999997608630231e+00,9.999999999976630249e+00,6.600000000000343370e-01,1.569999999996460671e+00,2.869999999999998181e+03,-2.175000000003782130e+00,-4.945000000010534080e+00,1.339500039953790811e+01,-2.171779552160460369e+00
1.999999999999949196e+01,2.999999999328543332e+00,9.999999999978241405e+00,6.600000000000710854e-01,1.570000000001488205e+00,2.869999999999980901e+03,-2.174999999998641353e+00,-4.944999999994836415e+00,1.340395959537553061e+01,-2.154753148180810651e+00
1.999999999999842615e+01,2.999999999747970048e+00,9.999999999967499775e+00,6.600000000004544454e-01,1.570000000002083951e+00,2.869999999999983629e+03,-2.174999999997050182e+00,-4.944999999993680007e+00,1.340940420796269450e+01,-2.144361198142513025e+00
2.000000000000088107e+01,2.999999998257965483e+00,1.000000000000350830e+01,6.599999999995921351e-01,1.569999999999776241e+00,2.869999999999971806e+03,-2.175000000001348077e+00,-4.944999999999568630e+00,1.338611700220135603e+01,-2.166305918609549686e+00
2.000000000000112976e+01,2.999999997589975376e+00,1.000000000001093881e+01,6.600000000000468825e-01,1.569999999999394769e+00,2.869999999999978172e+03,-2.175000000001173106e+00,-4.945000000002501395e+00,1.339706294537045750e+01,-2.167878770056789861e+00
2.000000000000079936e+01,2.999999997828566300e+00,1.000000000002932232e+01,6.600000000005546985e-01,1.569999999998751061e+00,2.869999999999986358e+03,-2.175000000000729017e+00,-4.945000000004990071e+00,1.339292575583235489e+01,-2.173439787447424720e+00
2.000000000000014211e+01,2.999999998465118889e+00,9.999999999988125055e+00,6.600000000004273559e-01,1.569999999998505036e+00,2.870000000000002728e+03,-2.175000000000899547e+00,-4.945000000005465246e+00,1.339875664331574079e+01,-2.185465529658221051e+00
2.000000000000103029e+01,2.999999998951210056e+00,1.000000000003091927e+01,6.600000000009254020e-01,1.570000000000337570e+00,2.869999999999959982e+03,-2.174999999998830980e+00,-4.945000000000248974e+00,1.339960943168778051e+01,-2.129313081286037690e+00
2.000000000000096634e+01,2.999999999252926930e+00,1.000000000001937295e+01,6.599999999998114042e-01,1.569999999998461071e+00,2.869999999999960892e+03,-2.175000000001682032e+00,-4.945000000004585949e+00,1.340292481186699547e+01,-2.133938457327622107e+00
2.000000000000130740e+01,2.999999998429926595e+00,1.000000000000079758e+01,6.599999999998181766e-01,1.569999999997705009e+00,2.869999999999951342e+03,-2.175000000002630163e+00,-4.945000000006558594e+00,1.339784657024515724e+01,-2.141364618708064160e+00
2.000000000000063949e+01,2.999999998483984687e+00,1.000000000006483880e+01,6.600000000011250201e-01,1.569999999999721618e+00,2.869999999999979991e+03,-2.174999999999173372e+00,-4.945000000002853113e+00,1.338462387434037382e+01,-2.176204903542973135e+00
2.000000000000035527e+01,2.999999997571724641e+00,1.000000000003830714e+01,6.600000000000011413e-01,1.569999999998532791e+00,2.869999999999969532e+03,-2.175000000001253486e+00,-4.945000000003413554e+00,1.338892225954125692e+01,-2.143853647920703320e+00
2.000000000000055778e+01,2.999999999461022249e+00,9.999999999996104449e+00,6.600000000005709078e-01,1.570000000001170015e+00,2.870000000000002274e+03,-2.174999999998726175e+00,-4.944999999998261231e+00,1.339734650756417622e+01,-2.152348899418681683e+00
1.999999999999981171e+01,2.999999997779485561e+00,1.000000000000526690e+01,6.600000000000834088e-01,1.570000000001261053e+00,2.869999999999988631e+03,-2.174999999999127187e+00,-4.944999999996269935e+00,1.339145403355102637e+01,-2.151512518660168460e+00
1.999999999999980815e+01,2.999999998212770080e+00,1.000000000003903189e+01,6.600000000008420242e-01,1.569999999999899920e+00,2.869999999999969987e+03,-2.174999999998660005e+00,-4.945000000000254303e+00,1.339516603058704014e+01,-2.168668336525100493e+00
1.999999999999992895e+01,2.999999997685395492e+00,9.999999999993216093e+00,6.600000000004008216e-01,1.570000000000904006e+00,2.869999999999954525e+03,-2.174999999998574740e+00,-4.944999999997956586e+00,1.339946228477464807e+01,-2.161156729966507761e+00
2.000000000000137490e+01,2.999999998332772311e+00,9.999999999994386712e+00,6.600000000003747314e-01,1.569999999998134665e+00,2.869999999999989996e+03,-2.175000000001921396e+00,-4.945000000005664198e+00,1.339569293230412583e+01,-2.193910616689759063e+00
2.000000000000219202e+01,2.999999999146740759e+00,1.000000000000676081e+01,6.600000000004273559e-01,1.569999999997031326e+00,2.869999999999976808e+03,-2.175000000003110667e+00,-4.945000000009686758e+00,1.340135181980404333e+01,-2.183794853654277723e+00
2.000000000000103029e+01,3.000000000129377398e+00,1.000000000004151168e+01,6.599999999998583666e-01,1.569999999998825446e+00,2.869999999999995907e+03,-2.175000000001557687e+00,-4.945000000002226948e+00,1.341326704344944254e+01,-2.186869611260100932e+00
2.000000000000022737e+01,3.000000000992787630e+00,9.999999999985357491e+00,6.600000000005271650e-01,1.569999999999388995e+00,2.869999999999999545e+03,-2.175000000000017586e+00,-4.945000000003749285e+00,1.343146123609257714e+01,-2.169230671876774874e+00
2.000000000000107647e+01,3.000000000922407040e+00,1.000000000001438671e+01,6.600000000008473533e-01,1.569999999998870743e+00,2.869999999999988631e+03,-2.175000000000425260e+00,-4.945000000005133955e+00,1.342201767770858822e+01,-2.160783551811165104e+00
2.000000000000002132e+01,3.000000001016777329e+00,9.999999999984726884e+00,6.600000000004587752e-01,1.569999999999772244e+00,2.869999999999997272e+03,-2.174999999999711608e+00,-4.945000000002274909e+00,1.343443941634996364e+01,-2.167890217662076235e+00
2.000000000000082068e+01,3.000000000192667660e+00,1.000000000002719247e+01,6.600000000005999956e-01,1.569999999999016183e+00,2.869999999999982265e+03,-2.175000000000403055e+00,-4.945000000004584173e+00,1.342859839092002971e+01,-2.156137878086581861e+00
2.000000000000079581e+01,3.000000000501673814e+00,9.999999999995239364e+00,6.600000000009370593e-01,1.569999999999150742e+00,2.869999999999990905e+03,-2.174999999999918110e+00,-4.945000000004687202e+00,1.343276247652119437e+01,-2.148610994183810519e+00
2.000000000000073186e+01,3.000000000793908050e+00,1.000000000000034106e+01,6.600000000004954126e-01,1.569999999999559082e+00,2.869999999999989996e+03,-2.175000000000216982e+00,-4.945000000003477503e+00,1.342541369168820786e+01,-2.149026527509470874e+00
2.000000000000122569e+01,2.999999999320815292e+00,9.999999999969444886e+00,6.599999999996934985e-01,1.569999999999406981e+00,2.870000000000007731e+03,-2.175000000002153655e+00,-4.945000000001795293e+00,1.338342079707872934e+01,-2.192607797043141016e+00
2.000000000000051514e+01,2.999999997764655202e+00,1.000000000000951772e+01,6.599999999997295808e-01,1.569999999998068496e+00,2.869999999999991815e+03,-2.175000000002373923e+00,-4.945000000006296581e+00,1.339992470164998473e+01,-2.144016367254442113e+00
2.000000000000038725e+01,2.999999998055883133e+00,1.000000000001610090e+01,6.599999999994511368e-01,1.570000000000267404e+00,2.869999999999970896e+03,-2.175000000000733458e+00,-4.944999999997587103e+00,1.340527224955817331e+01,-2.164884124992129788e+00
2.000000000000055778e+01,2.999999998779285804e+00,1.000000000004218492e+01,6.600000000000628697e-01,1.570000000000526530e+00,2.869999999999963620e+03,-2.174999999999716493e+00,-4.944999999997865991e+00,1.339978812166586231e+01,-2.153507599485883439e+00
2.000000000000015632e+01,2.999999998600808127e+00,9.999999999916054705e+00,6.599999999996423172e-01,1.569999999998133999e+00,2.870000000000014552e+03,-2.175000000002672795e+00,-4.945000000005903118e+00,1.341142943594284986e+01,-2.159795156808575811e+00
2.000000000000099831e+01,2.999999998795670031e+00,9.999999999971420195e+00,6.599999999997876454e-01,1.569999999998130669e+00,2.870000000000002274e+03,-2.175000000002649259e+00,-4.945000000005178364e+00,1.340236303304213195e+01,-2.172843896630817895e+00
2.000000000000060396e+01,2.999999998507593801e+00,9.999999999982797760e+00,6.599999999997069322e-01,1.569999999998312967e+00,2.869999999999963620e+03,-2.175000000001849898e+00,-4.945000000004752039e+00,1.341971295130941577e+01,-2.163859806163892952e+00
2.000000000000105160e+01,2.999999998833995818e+00,1.000000000001470468e+01,6.600000000000901812e-01,1.569999999999512008e+00,2.869999999999954525e+03,-2.175000000000500755e+00,-4.945000000001789964e+00,1.341140873589059268e+01,-2.166167610370680396e+00
2.000000000000042633e+01,2.999999998441812643e+00,9.999999999974519937e+00,6.599999999993529931e-01,1.570000000001392282e+00,2.869999999999960437e+03,-2.174999999999846167e+00,-4.944999999996007922e+00,1.339977293855756102e+01,-2.171352765425620834e+00
2.000000000000066080e+01,2.999999997253605333e+00,1.000000000002628298e+01,6.600000000004293543e-01,1.569999999998316298e+00,2.869999999999979991e+03,-2.175000000001084288e+00,-4.945000000005503438e+00,1.338025092059916510e+01,-2.163508736920462194e+00
2.000000000000087041e+01,2.999999997353830494e+00,1.000000000003537615e+01,6.600000000003086731e-01,1.569999999998489937e+00,2.869999999999961801e+03,-2.175000000001155787e+00,-4.945000000005262741e+00,1.339762161129418949e+01,-2.144451170925957051e+00
2.000000000000011724e+01,2.999999998435363580e+00,9.999999999984833465e+00,6.600000000001211564e-01,1.569999999998558993e+00,2.869999999999975444e+03,-2.175000000001265477e+00,-4.945000000004951879e+00,1.340730406710803457e+01,-2.129725201883021501e+00
2.000000000000065370e+01,2.999999998008704871e+00,1.000000000005137757e+01,6.600000000009451639e-01,1.569999999997919282e+00,2.869999999999963165e+03,-2.175000000000926192e+00,-4.945000000006888996e+00,1.339233352216328043e+01,-2.148506049658699624e+00
2.000000000000008882e+01,2.999999998107364618e+00,9.999999999970809128e+00,6.600000000004898615e-01,1.570000000000551399e+00,2.869999999999999545e+03,-2.174999999999314149e+00,-4.945000000000546514e+00,1.339073012691692099e+01,-2.173220502544663368e+00
2.000000000000034106e+01,2.999999998404531354e+00,1.000000000000894396e+01,6.599999999996994937e-01,1.569999999998299645e+00,2.869999999999964530e+03,-2.175000000001799716e+00,-4.945000000004639240e+00,1.340212662149525258e+01,-2.134323467900089977e+00
2.000000000000058975e+01,2.999999999177218157e+00,9.999999999988714805e+00,6.599999999997345768e-01,1.569999999999301288e+00,2.869999999999970441e+03,-2.175000000001202416e+00,-4.945000000001376961e+00,1.342007219420646891e+01,-2.188427070109428829e+00
2.000000000000101608e+01,3.000000000003409717e+00,1.000000000001260680e+01,6.599999999999861533e-01,1.569999999999249107e+00,2.869999999999978627e+03,-2.175000000001217959e+00,-4.945000000002960583e+00,1.341888644300456868e+01,-2.186358231654474515e+00
2.000000000000081357e+01,2.999999999523573990e+00,1.000000000004634693e+01,6.599999999999150990e-01,1.569999999998981544e+00,2.869999999999963165e+03,-2.175000000001111378e+00,-4.945000000001571472e+00,1.339560399646383004e+01,-2.189077911215898009e+00
1.999999999999990408e+01,2.999999997263157248e+00,9.999999999931779016e+00,6.599999999992958166e-01,1.570000000000857820e+00,2.869999999999992724e+03,-2.175000000000621547e+00,-4.944999999997420126e+00,1.338508382796949014e+01,-2.163033117639998171e+00
2.000000000000045475e+01,2.999999999532914075e+00,9.999999999975409892e+00,6.599999999992046673e-01,1.569999999998294982e+00,2.869999999999965439e+03,-2.175000000002558220e+00,-4.945000000004198704e+00,1.340364420638079146e+01,-2.175426530398512526e+00
2.000000000000261480e+01,2.999999997951882325e+00,1.000000000008409273e+01,6.600000000004007106e-01,1.569999999997366835e+00,2.869999999999957254e+03,-2.175000000002647482e+00,-4.945000000007431673e+00,1.337770318922141044e+01,-2.170818576497679064e+00
1.999999999999999289e+01,2.999999998366960963e+00,1.000000000000295053e+01,6.599999999999295319e-01,1.569999999999367013e+00,2.869999999999971806e+03,-2.175000000000573142e+00,-4.945000000001699370e+00,1.340881395425354583e+01,-2.160728526933958005e+00
2.000000000000024158e+01,2.999999998776699872e+00,1.000000000002346390e+01,6.599999999996335465e-01,1.570000000000169482e+00,2.869999999999955890e+03,-2.175000000000169464e+00,-4.944999999998544560e+00,1.341478968003905337e+01,-2.163603939178013746e+00
2.000000000000152056e+01,2.999999997856730438e+00,1.000000000001419842e+01,6.599999999993849675e-01,1.569999999999464491e+00,2.869999999999958618e+03,-2.175000000002135447e+00,-4.945000000000450591e+00,1.338843192629241052e+01,-2.176878978817940791e+00
2.000000000000073896e+01,2.999999998853084104e+00,1.000000000001363709e+01,6.600000000001817746e-01,1.569999999997328199e+00,2.869999999999981810e+03,-2.175000000002276224e+00,-4.945000000008406005e+00,1.339315995331072529e+01,-2.169566139960236395e+00
2.000000000000036948e+01,2.999999997711860100e+00,1.000000000000998313e+01,6.599999999999685008e-01,1.569999999998728857e+00,2.869999999999985903e+03,-2.175000000001298783e+00,-4.945000000004184493e+00,1.339394799430579219e+01,-2.159983334153317447e+00
2.000000000000019185e+01,2.999999997890707704e+00,9.999999999999554134e+00,6.600000000003671818e-01,1.569999999997787166e+00,2.869999999999974534e+03,-2.175000000001664713e+00,-4.945000000006724683e+00,1.339221249332565478e+01,-2.163851021335500668e+00
1.999999999999970512e+01,2.999999999689354269e+00,9.999999999970869524e+00,6.600000000001720046e-01,1.570000000002808704e+00,2.869999999999981810e+03,-2.174999999997727418e+00,-4.944999999992507611e+00,1.341150576998107624e+01,-2.184989162705184285e+00
1.999999999999991829e+01,2.999999999973965714e+00,9.999999999964982678e+00,6.600000000007391066e-01,1.570000000002799601e+00,2.869999999999960892e+03,-2.174999999996993783e+00,-4.944999999993697770e+00,1.341727424390195367e+01,-2.174904264859243153e+00
2.000000000000065015e+01,2.999999999834948472e+00,1.000000000002374634e+01,6.600000000004944134e-01,1.570000000000320028e+00,2.869999999999973170e+03,-2.174999999999249756e+00,-4.944999999998402451e+00,1.341037596982220492e+01,-2.171907924188662076e+00
2.000000000000057909e+01,2.999999999493236480e+00,1.000000000000252243e+01,6.599999999996190025e-01,1.569999999998899609e+00,2.869999999999981810e+03,-2.175000000001780176e+00,-4.945000000002226948e+00,1.339993853463430362e+01,-2.173119527987100508e+00
1.999999999999972999e+01,2.999999999441703480e+00,9.999999999987362997e+00,6.599999999998223954e-01,1.570000000000123963e+00,2.870000000000012278e+03,-2.175000000000313349e+00,-4.944999999999843077e+00,1.340127473388001533e+01,-2.176814968904413394e+00
2.000000000000230571e+01,2.999999998349459407e+00,1.000000000007024958e+01,6.599999999994230482e-01,1.569999999995572715e+00,2.869999999999934516e+03,-2.175000000004944312e+00,-4.945000000011675390e+00,1.340454399325178159e+01,-2.168114226309921122e+00
2.000000000000185096e+01,2.999999996325113383e+00,1.000000000005231371e+01,6.599999999999454081e-01,1.569999999997543805e+00,2.869999999999955890e+03,-2.175000000002887734e+00,-4.945000000006400498e+00,1.337595487974449249e+01,-2.148049279960145608e+00
2.000000000000230216e+01,2.999999998017041758e+00,1.000000000002469669e+01,6.599999999996405409e-01,1.569999999997103268e+00,2.869999999999961346e+03,-2.175000000004114309e+00,-4.945000000009505570e+00,1.339657306082500376e+01,-2.129849456656110362e+00
1.999999999999918998e+01,3.000000001375370040e+00,9.999999999992658317e+00,6.600000000002703704e-01,1.569999999999876605e+00,2.869999999999997272e+03,-2.174999999999348343e+00,-4.945000000000157492e+00,1.342777844559370060e+01,-2.165688930981404692e+00
1.999999999999936406e+01,3.000000001083015899e+00,9.999999999998792077e+00,6.600000000002869127e-01,1.569999999999714069e+00,2.869999999999996817e+03,-2.174999999999422950e+00,-4.945000000000884022e+00,1.342532494453678460e+01,-2.171413411924221659e+00
1.999999999999935341e+01,3.000000001340059175e+00,9.999999999998497202e+00,6.600000000009507151e-01,1.570000000000194573e+00,2.869999999999993634e+03,-2.174999999998200373e+00,-4.945000000000335127e+00,1.342541299930981680e+01,-2.168297718274272423e+00
1.999999999999952038e+01,3.000000000323065574e+00,9.999999999938619766e+00,6.600000000002033129e-01,1.570000000000235207e+00,2.869999999999998181e+03,-2.174999999999696954e+00,-4.945000000001086526e+00,1.341371827677963502e+01,-2.164828014479936780e+00
1.999999999999906564e+01,3.000000000754979190e+00,9.999999999914750859e+00,6.599999999999601741e-01,1.569999999999766693e+00,2.870000000000002274e+03,-2.175000000000157474e+00,-4.945000000001637197e+00,1.341922724368516917e+01,-2.176008688569746941e+00
1.999999999999960210e+01,2.999999997821076736e+00,9.999999999981852739e+00,6.600000000005841194e-01,1.570000000000233653e+00,2.869999999999989996e+03,-2.174999999998980638e+00,-4.945000000000917773e+00,1.340036479202803932e+01,-2.138129175575801622e+00
2.000000000000160583e+01,2.999999997875471891e+00,1.000000000005738165e+01,6.599999999999857092e-01,1.569999999996446682e+00,2.869999999999958618e+03,-2.175000000003388667e+00,-4.945000000010852936e+00,1.338093203855093094e+01,-2.185962589453645410e+00
2.000000000000104805e+01,2.999999999488851987e+00,1.000000000001551648e+01,6.599999999995004307e-01,1.569999999996871232e+00,2.869999999999966803e+03,-2.175000000003550316e+00,-4.945000000009222241e+00,1.340701760802454601e+01,-2.155980687984418331e+00
2.000000000000108358e+01,2.999999998066833484e+00,1.000000000004041922e+01,6.600000000000034728e-01,1.569999999998098250e+00,2.869999999999975444e+03,-2.175000000002073719e+00,-4.945000000005657093e+00,1.339332423618295564e+01,-2.158291772007720155e+00
1.999999999999992184e+01,2.999999998629810705e+00,9.999999999958987473e+00,6.600000000000931788e-01,1.569999999999439622e+00,2.869999999999970441e+03,-2.175000000000669065e+00,-4.945000000002407248e+00,1.340524274972216645e+01,-2.161017280105765881e+00
1.999999999999969091e+01,2.999999998448888761e+00,9.999999999955965890e+00,6.599999999999707212e-01,1.570000000001020579e+00,2.869999999999955890e+03,-2.174999999999350564e+00,-4.944999999997148343e+00,1.340727427855414788e+01,-2.140301189756120159e+00
1.999999999999957367e+01,3.000000000318973736e+00,9.999999999926968641e+00,6.599999999993338973e-01,1.569999999999223350e+00,2.869999999999996817e+03,-2.175000000001511058e+00,-4.945000000001478213e+00,1.341559937936074931e+01,-2.181983329447749309e+00
2.000000000000156675e+01,2.999999999265212658e+00,1.000000000005058887e+01,6.600000000001637890e-01,1.569999999997486295e+00,2.869999999999967713e+03,-2.175000000002550671e+00,-4.945000000006598562e+00,1.339922632561006566e+01,-2.156696289774487685e+00
2.000000000000068212e+01,2.999999998767837628e+00,9.999999999989412913e+00,6.599999999999004441e-01,1.569999999997022888e+00,2.869999999999974989e+03,-2.175000000003004974e+00,-4.945000000008374919e+00,1.338700627301043689e+01,-2.181110103057125382e+00
2.000000000000078160e+01,2.999999998616414754e+00,1.000000000003713296e+01,6.600000000007684164e-01,1.570000000001124274e+00,2.869999999999958618e+03,-2.174999999998394440e+00,-4.944999999997784279e+00,1.339679245346481018e+01,-2.138646270264052074e+00
2.000000000000074962e+01,2.999999998325078909e+00,1.000000000000167688e+01,6.599999999996982725e-01,1.569999999998683338e+00,2.869999999999982265e+03,-2.175000000002018208e+00,-4.945000000002643503e+00,1.339263745300458730e+01,-2.169353546852051728e+00
2.000000000000139622e+01,2.999999997038719446e+00,1.000000000003558398e+01,6.600000000003209966e-01,1.569999999999781126e+00,2.869999999999955890e+03,-2.175000000000320011e+00,-4.945000000002048424e+00,1.337759352792184586e+01,-2.174636200756064675e+00
2.000000000000054001e+01,2.999999997630675264e+00,9.999999999985050181e+00,6.599999999998172884e-01,1.569999999999807327e+00,2.869999999999975898e+03,-2.175000000000692602e+00,-4.945000000001524398e+00,1.338696073357029448e+01,-2.167862950282825718e+00
2.000000000000018119e+01,2.999999998452576033e+00,1.000000000002022382e+01,6.600000000001053913e-01,1.570000000000422835e+00,2.869999999999945430e+03,-2.174999999999383427e+00,-4.944999999999041052e+00,1.339426413980490160e+01,-2.134873715430942731e+00
2.000000000000025935e+01,2.999999999784759730e+00,9.999999999982620125e+00,6.600000000010946000e-01,1.570000000000687956e+00,2.869999999999991815e+03,-2.174999999998544542e+00,-4.945000000000706386e+00,1.340008390017260176e+01,-2.145373545294076312e+00
2.000000000000125411e+01,2.999999997866413359e+00,1.000000000001581846e+01,6.600000000004933032e-01,1.569999999998032303e+00,2.869999999999967713e+03,-2.175000000001493738e+00,-4.945000000007927277e+00,1.339134244840932730e+01,-2.166140807584274519e+00
2.000000000000007461e+01,2.999999998103302090e+00,9.999999999998852473e+00,6.599999999995943556e-01,1.569999999999774909e+00,2.870000000000015461e+03,-2.175000000001209077e+00,-4.945000000000191243e+00,1.338110651253547267e+01,-2.164945756125599363e+00
1.999999999999981881e+01,2.999999997625256931e+00,9.999999999986139088e+00,6.600000000003833911e-01,1.569999999997595985e+00,2.869999999999987722e+03,-2.175000000001533706e+00,-4.945000000008221264e+00,1.339983876252195394e+01,-2.145651821437151607e+00
2.000000000000104450e+01,2.999999999625120761e+00,1.000000000001670664e+01,6.600000000010914913e-01,1.569999999998032303e+00,2.869999999999998636e+03,-2.175000000001039879e+00,-4.945000000008632490e+00,1.339575373006658943e+01,-2.174355230307668307e+00
2.000000000000244071e+01,2.999999998709172555e+00,1.000000000005872458e+01,6.600000000003701794e-01,1.569999999998803242e+00,2.869999999999954525e+03,-2.175000000001530154e+00,-4.945000000003412666e+00,1.338060344017720560e+01,-2.170759314755422054e+00
2.000000000000218137e+01,2.999999997972856214e+00,1.000000000006919620e+01,6.600000000008551249e-01,1.569999999999507123e+00,2.869999999999967258e+03,-2.175000000000220979e+00,-4.945000000002695018e+00,1.338043002598453235e+01,-2.160470737782602679e+00
2.000000000000083489e+01,2.999999999386253169e+00,1.000000000002962608e+01,6.599999999998654721e-01,1.569999999996523066e+00,2.869999999999962711e+03,-2.175000000002995648e+00,-4.945000000009040164e+00,1.340398167313223432e+01,-2.169929119454509170e+00
2.000000000000057199e+01,2.999999999094382197e+00,1.000000000001236522e+01,6.600000000008507950e-01,1.570000000000401075e+00,2.869999999999980446e+03,-2.174999999998856737e+00,-4.945000000001946283e+00,1.339208236704066479e+01,-2.146038065123966998e+00
2.000000000000130740e+01,3.000000000677902623e+00,1.000000000002375167e+01,6.600000000004635492e-01,1.569999999997230944e+00,2.869999999999989996e+03,-2.175000000002570655e+00,-4.945000000009716068e+00,1.339702455445454454e+01,-2.189903816260078795e+00
2.000000000000243361e+01,2.999999998339472729e+00,1.000000000004848566e+01,6.599999999996462030e-01,1.569999999996177120e+00,2.869999999999966803e+03,-2.175000000004695178e+00,-4.945000000010325358e+00,1.338744004781862351e+01,-2.207118282846297852e+00
2.000000000000004263e+01,2.999999998931967227e+00,1.000000000002154188e+01,6.600000000013105383e-01,1.570000000001194440e+00,2.869999999999994998e+03,-2.174999999997686562e+00,-4.945000000000043805e+00,1.338801866398364560e+01,-2.162455050942349910e+00
2.000000000000005684e+01,3.000000000129935174e+00,1.000000000005378098e+01,6.600000000009393908e-01,1.570000000000714824e+00,2.869999999999994543e+03,-2.174999999998268319e+00,-4.944999999999086349e+00,1.340335274140240607e+01,-2.180979398597100882e+00
2.000000000000119016e+01,2.999999999737128054e+00,1.000000000006124345e+01,6.600000000008150458e-01,1.569999999998430651e+00,2.869999999999985903e+03,-2.175000000000788081e+00,-4.945000000004651675e+00,1.339612739001191244e+01,-2.205721998503262782e+00
2.000000000000192912e+01,2.999999996790770229e+00,1.000000000010932411e+01,6.600000000008394707e-01,1.569999999999068141e+00,2.869999999999933607e+03,-2.174999999999927436e+00,-4.945000000003279439e+00,1.338385539285531145e+01,-2.160942559714810418e+00
2.000000000000107292e+01,2.999999998213127572e+00,1.000000000003948131e+01,6.600000000003644063e-01,1.569999999998459517e+00,2.869999999999978172e+03,-2.175000000001206857e+00,-4.945000000003496154e+00,1.338404966602967683e+01,-2.196551720014019882e+00
1.999999999999974420e+01,2.999999999570355236e+00,9.999999999976083132e+00,6.600000000005913359e-01,1.570000000002440332e+00,2.870000000000002728e+03,-2.174999999997477840e+00,-4.944999999995296491e+00,1.341010753449277004e+01,-2.154866250603038491e+00
