2.000000000000004619e+01,2.999999998408461543e+00,9.999999999956566299e+00,6.600000000000907363e-01,1.570000000000962848e+00,2.870000000000000455e+03,-2.174999999999633893e+00,-4.944999999997321538e+00,1.340103664009790663e+01,-2.166683494100134055e+00
1.999999999999955946e+01,2.999999998438016569e+00,9.999999999968903097e+00,6.600000000000193490e-01,1.570000000002141238e+00,2.870000000000006821e+03,-2.174999999998396660e+00,-4.944999999992987227e+00,1.339893296172437509e+01,-2.161356330832793660e+00
2.000000000000122924e+01,2.999999999220615887e+00,1.000000000000403944e+01,6.599999999989205612e-01,1.569999999998238138e+00,2.869999999999985903e+03,-2.175000000003596501e+00,-4.945000000003179075e+00,1.340140775846905541e+01,-2.165637579726043427e+00
2.000000000000079936e+01,2.999999998788716482e+00,1.000000000005703882e+01,6.599999999998530376e-01,1.570000000000815410e+00,2.869999999999954525e+03,-2.174999999999769784e+00,-4.944999999997381934e+00,1.339795528428524563e+01,-2.154974601902501785e+00
2.000000000000051870e+01,2.999999999074021151e+00,1.000000000003979572e+01,6.600000000001132738e-01,1.569999999998684448e+00,2.869999999999959073e+03,-2.175000000001006573e+00,-4.945000000003277663e+00,1.341543892336713562e+01,-2.149252714855070856e+00
2.000000000000093081e+01,2.999999999142468621e+00,1.000000000000785860e+01,6.599999999998065192e-01,1.569999999999072804e+00,2.870000000000005002e+03,-2.175000000001644729e+00,-4.945000000001684271e+00,1.340097567364286668e+01,-2.182777728620043600e+00
2.000000000000058620e+01,2.999999999107253679e+00,9.999999999973892884e+00,6.599999999991171817e-01,1.570000000000490337e+00,2.869999999999988177e+03,-2.175000000001261924e+00,-4.944999999998148432e+00,1.339284460908226926e+01,-2.177013493430367319e+00
1.999999999999995026e+01,2.999999998537814072e+00,1.000000000003591971e+01,6.600000000004715428e-01,1.570000000002292673e+00,2.869999999999980901e+03,-2.174999999997356159e+00,-4.944999999992714557e+00,1.338910827665700864e+01,-2.207738373513404628e+00
2.000000000000042633e+01,2.999999998532576040e+00,1.000000000003669953e+01,6.600000000005260548e-01,1.570000000000910001e+00,2.869999999999973625e+03,-2.174999999998611155e+00,-4.944999999997285123e+00,1.337785029270564507e+01,-2.196364876209243366e+00
1.999999999999961275e+01,2.999999997481432423e+00,9.999999999998472333e+00,6.599999999996506439e-01,1.569999999999274864e+00,2.869999999999987722e+03,-2.175000000001066969e+00,-4.945000000001347651e+00,1.338732876560490759e+01,-2.165898152886806649e+00
2.000000000000028422e+01,2.999999998722497896e+00,9.999999999980182963e+00,6.599999999995116440e-01,1.569999999997522044e+00,2.869999999999964075e+03,-2.175000000002853984e+00,-4.945000000007988561e+00,1.339319534708334736e+01,-2.132822635052402216e+00
1.999999999999983302e+01,2.999999999027060049e+00,9.999999999967748465e+00,6.599999999995654898e-01,1.569999999998163087e+00,2.869999999999985448e+03,-2.175000000002224709e+00,-4.945000000005376428e+00,1.341496677949061400e+01,-2.142804960744659759e+00
1.999999999999994316e+01,2.999999998099525111e+00,9.999999999980667909e+00,6.599999999997021582e-01,1.569999999997653495e+00,2.869999999999980446e+03,-2.175000000002483169e+00,-4.945000000007250485e+00,1.341356267177737394e+01,-2.131765709632185146e+00
1.999999999999958078e+01,2.999999999007185281e+00,9.999999999969272579e+00,6.600000000000461053e-01,1.570000000000097762e+00,2.870000000000003183e+03,-2.175000000000148148e+00,-4.945000000000478124e+00,1.340682363826534385e+01,-2.157775473388320986e+00
2.000000000000103739e+01,2.999999999883377733e+00,1.000000000000606803e+01,6.599999999997204769e-01,1.570000000000811413e+00,2.869999999999979082e+03,-2.175000000000444356e+00,-4.944999999997075513e+00,1.340396263446209346e+01,-2.160401199540530559e+00
2.000000000000247979e+01,3.000000000021515678e+00,9.999999999977047693e+00,6.599999999991661426e-01,1.569999999995893125e+00,2.869999999999992269e+03,-2.175000000005808065e+00,-4.945000000010803198e+00,1.340173579902174694e+01,-2.184761051262377851e+00
2.000000000000141753e+01,2.999999997460498502e+00,1.000000000004132161e+01,6.600000000005464829e-01,1.569999999996101181e+00,2.869999999999934971e+03,-2.175000000002702993e+00,-4.945000000011048336e+00,1.338674236061708100e+01,-2.146617937330248527e+00
2.000000000000090594e+01,2.999999998019076575e+00,9.999999999992203570e+00,6.600000000002813616e-01,1.569999999998972440e+00,2.869999999999969987e+03,-2.175000000000942624e+00,-4.945000000004030838e+00,1.338744866352590890e+01,-2.138928131660451815e+00
2.000000000000120437e+01,2.999999997361048276e+00,9.999999999965828223e+00,6.599999999996754019e-01,1.569999999996789075e+00,2.869999999999973625e+03,-2.175000000003959766e+00,-4.945000000009863506e+00,1.339105183879488159e+01,-2.129673714980257593e+00
2.000000000000189360e+01,2.999999998028499704e+00,1.000000000003639578e+01,6.600000000002036460e-01,1.569999999998102247e+00,2.869999999999965439e+03,-2.175000000001948042e+00,-4.945000000005660645e+00,1.338015565164325515e+01,-2.175928332570402191e+00
2.000000000000020250e+01,2.999999997516178851e+00,1.000000000002768274e+01,6.600000000007179013e-01,1.570000000002877316e+00,2.869999999999968168e+03,-2.174999999996762412e+00,-4.944999999992323758e+00,1.340143890363532897e+01,-2.154385698436463326e+00
1.999999999999989697e+01,2.999999999289169939e+00,1.000000000003561595e+01,6.600000000012528067e-01,1.570000000001810836e+00,2.869999999999944066e+03,-2.174999999996637179e+00,-4.944999999995878248e+00,1.340523920536815794e+01,-2.129877180569690331e+00
2.000000000000012434e+01,2.999999999035145581e+00,1.000000000001772982e+01,6.600000000008452439e-01,1.569999999999975637e+00,2.869999999999962256e+03,-2.174999999998855849e+00,-4.945000000000839613e+00,1.339343641587217348e+01,-2.152412881517326237e+00
2.000000000000089884e+01,2.999999999198745382e+00,1.000000000001925393e+01,6.600000000007878453e-01,1.569999999999366125e+00,2.869999999999958163e+03,-2.174999999999830180e+00,-4.945000000003696883e+00,1.341063758524353311e+01,-2.154658380111354354e+00
2.000000000000064304e+01,2.999999997859312817e+00,9.999999999983044674e+00,6.600000000004450085e-01,1.569999999998683782e+00,2.869999999999987267e+03,-2.175000000000871125e+00,-4.945000000004435847e+00,1.340158344553285907e+01,-2.175192114845968305e+00
2.000000000000153122e+01,2.999999997120955886e+00,1.000000000005373124e+01,6.600000000003053424e-01,1.569999999998723972e+00,2.869999999999963165e+03,-2.175000000001331646e+00,-4.945000000003402896e+00,1.337883242452671162e+01,-2.146267509133685358e+00
2.000000000000039435e+01,2.999999998184792460e+00,1.000000000010037660e+01,6.600000000016044144e-01,1.570000000003066054e+00,2.869999999999950887e+03,-2.174999999995240962e+00,-4.944999999992562678e+00,1.339633076136410850e+01,-2.151952928724709224e+00
2.000000000000234124e+01,2.999999997021582487e+00,1.000000000006328271e+01,6.599999999994464739e-01,1.569999999999822426e+00,2.869999999999965894e+03,-2.175000000002140776e+00,-4.944999999999057927e+00,1.338184992984653299e+01,-2.149335217627415417e+00
2.000000000000019540e+01,2.999999999574902265e+00,9.999999999950386353e+00,6.599999999992877120e-01,1.569999999999512896e+00,2.869999999999972715e+03,-2.175000000001549250e+00,-4.944999999999224904e+00,1.341346925490651998e+01,-2.211627784626805315e+00
2.000000000000136069e+01,2.999999999435276177e+00,9.999999999994836131e+00,6.599999999994959898e-01,1.569999999999718510e+00,2.869999999999967258e+03,-2.175000000001702016e+00,-4.944999999999045492e+00,1.340702996316320750e+01,-2.205314934862163234e+00
2.000000000000147793e+01,2.999999998492738573e+00,9.999999999986053822e+00,6.599999999991589261e-01,1.569999999998162643e+00,2.869999999999967713e+03,-2.175000000003568079e+00,-4.945000000003272334e+00,1.340443062414167485e+01,-2.202665726276917368e+00
2.000000000000004263e+01,2.999999998676154966e+00,9.999999999972352782e+00,6.599999999994931033e-01,1.569999999999244666e+00,2.870000000000001819e+03,-2.175000000001645173e+00,-4.945000000001646967e+00,1.340620931704462038e+01,-2.205931754295960001e+00
2.000000000000158806e+01,2.999999997671980889e+00,1.000000000002673062e+01,6.600000000001325917e-01,1.569999999999672324e+00,2.869999999999962711e+03,-2.175000000000961276e+00,-4.945000000000884910e+00,1.339363580535556864e+01,-2.174770974359824915e+00
2.000000000000018474e+01,2.999999998252593336e+00,1.000000000005355361e+01,6.600000000016135182e-01,1.570000000000411955e+00,2.869999999999974989e+03,-2.174999999997508926e+00,-4.945000000000383977e+00,1.339143579735043588e+01,-2.180388143737086004e+00
2.000000000000191491e+01,2.999999997977004451e+00,1.000000000008169643e+01,6.600000000005749046e-01,1.569999999997409912e+00,2.869999999999963620e+03,-2.175000000002018652e+00,-4.945000000007795826e+00,1.337415896543955540e+01,-2.195367930201918671e+00
2.000000000000115463e+01,2.999999997669617890e+00,1.000000000000938627e+01,6.600000000002099743e-01,1.569999999997437001e+00,2.869999999999968622e+03,-2.175000000002433431e+00,-4.945000000007877539e+00,1.337843108501680156e+01,-2.170392055267062581e+00
2.000000000000111200e+01,2.999999997948438413e+00,9.999999999998925304e+00,6.600000000003073408e-01,1.569999999998478168e+00,2.869999999999973170e+03,-2.175000000001532374e+00,-4.945000000004180940e+00,1.337806991021205327e+01,-2.193820341272155527e+00
2.000000000000123990e+01,2.999999999717605448e+00,1.000000000000139977e+01,6.600000000002340661e-01,1.569999999997137241e+00,2.869999999999973170e+03,-2.175000000002686562e+00,-4.945000000008030305e+00,1.339222658201515870e+01,-2.184534957529815191e+00
2.000000000000123279e+01,2.999999999116900629e+00,1.000000000000742517e+01,6.599999999998542588e-01,1.569999999998554330e+00,2.869999999999965439e+03,-2.175000000002238920e+00,-4.945000000003768825e+00,1.340171022468694417e+01,-2.154131077093787372e+00
1.999999999999945288e+01,2.999999999284606478e+00,9.999999999961723063e+00,6.599999999994204947e-01,1.570000000001673834e+00,2.869999999999991815e+03,-2.174999999999490896e+00,-4.944999999993812345e+00,1.342280760613864032e+01,-2.145686117239888002e+00
1.999999999999938893e+01,2.999999999102202164e+00,9.999999999979753085e+00,6.600000000003851675e-01,1.569999999998919593e+00,2.869999999999976353e+03,-2.175000000000192557e+00,-4.945000000003686225e+00,1.340783610267978965e+01,-2.146256711279434182e+00
2.000000000000040501e+01,2.999999999258714301e+00,9.999999999994555466e+00,6.600000000009853540e-01,1.569999999998521245e+00,2.869999999999999091e+03,-2.175000000000062439e+00,-4.945000000005776997e+00,1.340402576369542942e+01,-2.160028521158068759e+00
2.000000000000102673e+01,2.999999998274638369e+00,9.999999999990572874e+00,6.599999999997301359e-01,1.569999999998631823e+00,2.869999999999984084e+03,-2.175000000002089262e+00,-4.945000000004021068e+00,1.339869307831104628e+01,-2.174526473627886425e+00
1.999999999999996803e+01,2.999999998148888292e+00,9.999999999967693398e+00,6.599999999999238698e-01,1.569999999999955653e+00,2.869999999999979991e+03,-2.175000000000496758e+00,-4.944999999999540208e+00,1.339865188775510241e+01,-2.140055747604440395e+00
1.999999999999953815e+01,2.999999998429003778e+00,9.999999999919198856e+00,6.599999999997216982e-01,1.569999999999182050e+00,2.870000000000001364e+03,-2.175000000001376055e+00,-4.945000000002542251e+00,1.339331155705724008e+01,-2.139132548861676142e+00
2.000000000000173372e+01,2.999999998229398113e+00,1.000000000001594458e+01,6.599999999997049338e-01,1.569999999996412710e+00,2.869999999999976353e+03,-2.175000000004124967e+00,-4.945000000009938113e+00,1.339342431427962055e+01,-2.151432692364649402e+00
2.000000000000142109e+01,2.999999998697779446e+00,1.000000000003987388e+01,6.599999999999144329e-01,1.569999999999109219e+00,2.869999999999968622e+03,-2.175000000001363176e+00,-4.945000000002328200e+00,1.339669290746589958e+01,-2.160968646956176631e+00
2.000000000000027711e+01,2.999999998464430551e+00,9.999999999999641176e+00,6.600000000000137979e-01,1.570000000000794094e+00,2.869999999999960437e+03,-2.174999999999373657e+00,-4.944999999998159979e+00,1.340520741253244097e+01,-2.134756386881122570e+00
1.999999999999964473e+01,3.000000000089345864e+00,9.999999999945108797e+00,6.600000000000163514e-01,1.570000000000644658e+00,2.870000000000002728e+03,-2.174999999999609912e+00,-4.944999999998093365e+00,1.342013466602263705e+01,-2.172477050887654748e+00
2.000000000000114753e+01,2.999999998245508781e+00,9.999999999997571720e+00,6.600000000003444223e-01,1.569999999998640483e+00,2.869999999999967258e+03,-2.175000000001230838e+00,-4.945000000004783125e+00,1.339398781629390278e+01,-2.142905594030236394e+00
2.000000000000144951e+01,2.999999997931519502e+00,1.000000000003312906e+01,6.600000000002508305e-01,1.569999999997112594e+00,2.869999999999970441e+03,-2.175000000002832667e+00,-4.945000000008103136e+00,1.337562146859666079e+01,-2.146838175553916983e+00
2.000000000000170886e+01,2.999999998110495003e+00,1.000000000000244249e+01,6.599999999991916777e-01,1.569999999998760609e+00,2.869999999999965439e+03,-2.175000000002889511e+00,-4.945000000002353069e+00,1.339525094492748458e+01,-2.162469934564749785e+00
2.000000000000139622e+01,3.000000000507670350e+00,1.000000000004068923e+01,6.600000000000150191e-01,1.570000000000119744e+00,2.869999999999958618e+03,-2.175000000000411937e+00,-4.944999999999570406e+00,1.340713831846354864e+01,-2.156761342804119241e+00
1.999999999999891642e+01,2.999999999354725944e+00,9.999999999957786656e+00,6.600000000006556178e-01,1.570000000003611618e+00,2.870000000000000909e+03,-2.174999999996091393e+00,-4.944999999989485140e+00,1.340465491581536916e+01,-2.167761921950794424e+00
2.000000000000169464e+01,2.999999998241694055e+00,1.000000000007623058e+01,6.599999999994884403e-01,1.569999999998088924e+00,2.869999999999959073e+03,-2.175000000002504930e+00,-4.945000000003847873e+00,1.337991034286855907e+01,-2.175055893130073414e+00
2.000000000000128253e+01,2.999999999383570870e+00,1.000000000006429879e+01,6.600000000005917800e-01,1.570000000000550733e+00,2.869999999999957708e+03,-2.174999999999132516e+00,-4.944999999997600426e+00,1.339709024404527149e+01,-2.194597412523925151e+00
2.000000000000171951e+01,2.999999998541851731e+00,9.999999999998264499e+00,6.599999999997269162e-01,1.569999999998998419e+00,2.869999999999973625e+03,-2.175000000002334843e+00,-4.945000000001214424e+00,1.339325229853762522e+01,-2.163182642265868427e+00
2.000000000000022382e+01,2.999999999371646631e+00,1.000000000003566925e+01,6.600000000007403278e-01,1.570000000000956408e+00,2.869999999999964984e+03,-2.174999999998450395e+00,-4.944999999998295870e+00,1.341715864971594385e+01,-2.162190870311664792e+00
2.000000000000112621e+01,2.999999997945592245e+00,1.000000000006332534e+01,6.600000000004042633e-01,1.569999999997786277e+00,2.869999999999956799e+03,-2.175000000001439115e+00,-4.945000000005893348e+00,1.338812704862179714e+01,-2.178318734711527593e+00
2.000000000000130385e+01,2.999999998843721816e+00,1.000000000005787371e+01,6.600000000003000133e-01,1.569999999998214157e+00,2.869999999999966803e+03,-2.175000000001614975e+00,-4.945000000004817764e+00,1.339437812583938125e+01,-2.166696028264798013e+00
2.000000000000054001e+01,2.999999999354062918e+00,9.999999999984861887e+00,6.600000000000496581e-01,1.569999999997894191e+00,2.869999999999967713e+03,-2.175000000001851230e+00,-4.945000000005592256e+00,1.340439024850684646e+01,-2.166125497184426152e+00
2.000000000000046185e+01,2.999999999178398102e+00,9.999999999987322141e+00,6.599999999993398925e-01,1.570000000000357554e+00,2.870000000000014097e+03,-2.175000000001438671e+00,-4.944999999997411244e+00,1.340513879529642693e+01,-2.174258515848285001e+00
2.000000000000022737e+01,2.999999998749259600e+00,9.999999999976751042e+00,6.600000000005181722e-01,1.570000000000013385e+00,2.870000000000005002e+03,-2.174999999999834621e+00,-4.945000000001330775e+00,1.340644023308005472e+01,-2.140714995729113390e+00
2.000000000000101252e+01,2.999999998182135030e+00,1.000000000001878497e+01,6.600000000002412825e-01,1.569999999997549356e+00,2.869999999999974534e+03,-2.175000000002216716e+00,-4.945000000008383800e+00,1.339788676899890874e+01,-2.137595152409839994e+00
2.000000000000103384e+01,2.999999998453237282e+00,9.999999999997298161e+00,6.600000000001912115e-01,1.570000000000308260e+00,2.870000000000008185e+03,-2.175000000000470557e+00,-4.944999999999524221e+00,1.339296631206761745e+01,-2.178614135440332777e+00
2.000000000000072120e+01,2.999999997469864788e+00,1.000000000007807266e+01,6.600000000009668133e-01,1.570000000000378648e+00,2.869999999999956344e+03,-2.174999999998474820e+00,-4.944999999999596163e+00,1.339749700807385402e+01,-2.169921075009133560e+00
2.000000000000083844e+01,2.999999999204979950e+00,1.000000000000117950e+01,6.599999999996810640e-01,1.569999999998824114e+00,2.869999999999981810e+03,-2.175000000001668710e+00,-4.945000000003254570e+00,1.339611711942770178e+01,-2.170083768495911336e+00
2.000000000000009948e+01,2.999999998687751024e+00,9.999999999949043428e+00,6.599999999993839683e-01,1.569999999998975326e+00,2.869999999999995453e+03,-2.175000000001865885e+00,-4.945000000002652385e+00,1.341811163092913439e+01,-2.173496005906526030e+00
2.000000000000009237e+01,2.999999999520881033e+00,9.999999999990000887e+00,6.599999999988852561e-01,1.569999999997675699e+00,2.869999999999965894e+03,-2.175000000003206591e+00,-4.945000000005228102e+00,1.341876444738499252e+01,-2.175702200442017453e+00
2.000000000000042277e+01,2.999999998360866726e+00,9.999999999976509457e+00,6.600000000000505462e-01,1.569999999997532925e+00,2.869999999999999091e+03,-2.175000000002329070e+00,-4.945000000006123386e+00,1.341022736693046902e+01,-2.206656739403876522e+00
2.000000000000072475e+01,3.000000000421768398e+00,9.999999999946352247e+00,6.599999999994546895e-01,1.569999999995302487e+00,2.869999999999982265e+03,-2.175000000005123724e+00,-4.945000000013149766e+00,1.341309649565478779e+01,-2.152624489227860760e+00
2.000000000000047606e+01,2.999999997958517906e+00,9.999999999968409270e+00,6.599999999994456967e-01,1.569999999999237117e+00,2.869999999999988177e+03,-2.175000000001711786e+00,-4.945000000001489759e+00,1.339469742700674360e+01,-2.188933729064264533e+00
2.000000000000084910e+01,2.999999997989755141e+00,9.999999999994978239e+00,6.599999999997610001e-01,1.569999999998955342e+00,2.869999999999979082e+03,-2.175000000001696243e+00,-4.945000000002863771e+00,1.338336925340149719e+01,-2.174084135921846794e+00
2.000000000000128964e+01,2.999999997527108331e+00,1.000000000001111644e+01,6.600000000000763034e-01,1.569999999996208651e+00,2.869999999999985903e+03,-2.175000000003563194e+00,-4.945000000012173658e+00,1.337595344353939097e+01,-2.163517134015083609e+00
2.000000000000134648e+01,2.999999997374388716e+00,1.000000000011089440e+01,6.600000000008898748e-01,1.569999999997534035e+00,2.869999999999950433e+03,-2.175000000000789413e+00,-4.945000000006531948e+00,1.338980029383833070e+01,-2.153872448227668990e+00
2.000000000000167333e+01,2.999999998869691709e+00,1.000000000010028245e+01,6.600000000005035172e-01,1.569999999999095230e+00,2.869999999999948614e+03,-2.175000000000431921e+00,-4.945000000003000551e+00,1.338703752096831501e+01,-2.160853953436660202e+00
2.000000000000163780e+01,2.999999999318563315e+00,1.000000000001968559e+01,6.600000000000282308e-01,1.569999999997973239e+00,2.869999999999961346e+03,-2.175000000002116796e+00,-4.945000000005395968e+00,1.339885113748433021e+01,-2.165469213941952020e+00
2.000000000000100897e+01,2.999999998332989914e+00,1.000000000006062528e+01,6.600000000000255662e-01,1.569999999999620588e+00,2.869999999999982720e+03,-2.175000000000973266e+00,-4.945000000001365414e+00,1.338319114258631970e+01,-2.167606123980152955e+00
2.000000000000228084e+01,2.999999998438540594e+00,1.000000000005613821e+01,6.599999999984339505e-01,1.569999999995586704e+00,2.869999999999957254e+03,-2.175000000006763301e+00,-4.945000000009502017e+00,1.338915958313832810e+01,-2.185375215603004406e+00
2.000000000000013856e+01,2.999999997840143262e+00,1.000000000005755041e+01,6.600000000008582335e-01,1.569999999997558016e+00,2.869999999999958618e+03,-2.175000000000971934e+00,-4.945000000007913954e+00,1.337159595047194571e+01,-2.133419333004463070e+00
1.999999999999969091e+01,2.999999998880658936e+00,9.999999999984780175e+00,6.600000000012357093e-01,1.570000000002222507e+00,2.869999999999994998e+03,-2.174999999996661604e+00,-4.944999999994308837e+00,1.339300703650044255e+01,-2.188053330364800875e+00
2.000000000000084910e+01,2.999999998427442804e+00,9.999999999974244602e+00,6.600000000004548895e-01,1.569999999996872342e+00,2.869999999999990905e+03,-2.175000000002535128e+00,-4.945000000009865282e+00,1.338165782497126877e+01,-2.160989730599133907e+00
1.999999999999981526e+01,3.000000000495793628e+00,1.000000000001222134e+01,6.600000000008338086e-01,1.570000000001482654e+00,2.869999999999967713e+03,-2.174999999997480504e+00,-4.944999999996045226e+00,1.340463767481016433e+01,-2.159531190169225567e+00
2.000000000000025580e+01,2.999999998491458708e+00,9.999999999981637799e+00,6.600000000003810596e-01,1.569999999999238671e+00,2.869999999999994088e+03,-2.175000000000587352e+00,-4.945000000003283880e+00,1.339652274195315762e+01,-2.173788755031074604e+00
1.999999999999976197e+01,2.999999999842491327e+00,1.000000000004096101e+01,6.600000000007006928e-01,1.569999999999238005e+00,2.869999999999964075e+03,-2.174999999999369660e+00,-4.945000000003515694e+00,1.340115189696411058e+01,-2.155776550359017385e+00
2.000000000000025580e+01,2.999999999867073885e+00,9.999999999955591079e+00,6.600000000002573808e-01,1.569999999999473816e+00,2.870000000000000455e+03,-2.175000000000772982e+00,-4.945000000003338947e+00,1.341418528865100335e+01,-2.138408410170646867e+00
2.000000000000007461e+01,2.999999997534140483e+00,1.000000000004759748e+01,6.600000000005178391e-01,1.570000000000149054e+00,2.869999999999998181e+03,-2.174999999999334133e+00,-4.944999999999057927e+00,1.338283819044796452e+01,-2.203090667854747053e+00
2.000000000000023093e+01,2.999999999205052781e+00,1.000000000000532019e+01,6.600000000006482903e-01,1.569999999998524798e+00,2.870000000000013188e+03,-2.175000000000850253e+00,-4.945000000006572805e+00,1.340001844701100708e+01,-2.168214747638528728e+00
2.000000000000026645e+01,2.999999998823876357e+00,1.000000000000713207e+01,6.600000000003714007e-01,1.569999999999962315e+00,2.869999999999941792e+03,-2.174999999999306599e+00,-4.945000000000258744e+00,1.339919188277660922e+01,-2.138370016232579385e+00
2.000000000000020250e+01,2.999999997739308810e+00,9.999999999981826093e+00,6.599999999996829514e-01,1.570000000000842055e+00,2.869999999999999545e+03,-2.175000000000157474e+00,-4.944999999997312656e+00,1.339116293262867252e+01,-2.168426210514964314e+00
2.000000000000057199e+01,2.999999997472516888e+00,1.000000000002605383e+01,6.600000000009871304e-01,1.569999999997658824e+00,2.869999999999979536e+03,-2.175000000000756550e+00,-4.945000000007889973e+00,1.338684874399877600e+01,-2.159699691493059959e+00
1.999999999999997513e+01,2.999999998567201676e+00,1.000000000000977529e+01,6.600000000000622036e-01,1.570000000001401164e+00,2.870000000000004093e+03,-2.174999999998670219e+00,-4.944999999995605577e+00,1.339649676671449718e+01,-2.188033587123653145e+00
1.999999999999975842e+01,2.999999998024524217e+00,9.999999999982168930e+00,6.600000000013787060e-01,1.570000000001871232e+00,2.869999999999998181e+03,-2.174999999996943600e+00,-4.944999999995093987e+00,1.338564371648996065e+01,-2.154810919776320777e+00
2.000000000000024869e+01,2.999999997754001946e+00,1.000000000003509548e+01,6.600000000009634826e-01,1.570000000003495266e+00,2.869999999999973170e+03,-2.174999999995904432e+00,-4.944999999989778239e+00,1.338421329015961447e+01,-2.173231345975527695e+00
2.000000000000121148e+01,2.999999997963594289e+00,1.000000000003682032e+01,6.600000000010055601e-01,1.570000000000724594e+00,2.869999999999949523e+03,-2.174999999998302069e+00,-4.944999999998207940e+00,1.339544693194225999e+01,-2.178619289148747473e+00
2.000000000000091660e+01,2.999999999308716525e+00,9.999999999991430855e+00,6.600000000006639445e-01,1.569999999999428519e+00,2.869999999999984084e+03,-2.175000000000197442e+00,-4.945000000002252705e+00,1.339167702046664843e+01,-2.169910486197459409e+00
2.000000000000093081e+01,2.999999999447556576e+00,9.999999999973287146e+00,6.599999999995381783e-01,1.570000000000337570e+00,2.869999999999982265e+03,-2.175000000000782308e+00,-4.944999999998390017e+00,1.340833010223329680e+01,-2.178923993380977198e+00
2.000000000000153122e+01,2.999999998071332108e+00,9.999999999953409713e+00,6.599999999991779109e-01,1.569999999997076179e+00,2.869999999999995907e+03,-2.175000000004509548e+00,-4.945000000008194618e+00,1.337896644270378843e+01,-2.169734518217742547e+00
2.000000000000158806e+01,2.999999998610953345e+00,1.000000000001715961e+01,6.600000000001152722e-01,1.569999999997039097e+00,2.869999999999991360e+03,-2.175000000002946354e+00,-4.945000000008748842e+00,1.339466650128812830e+01,-2.150154757995176080e+00
2.000000000000184031e+01,2.999999997945534069e+00,1.000000000006209966e+01,6.599999999999355271e-01,1.569999999996376960e+00,2.869999999999977263e+03,-2.175000000003835865e+00,-4.945000000009257768e+00,1.338590125835796307e+01,-2.191148461646753365e+00
2.000000000000121148e+01,2.999999998301983162e+00,1.000000000000057732e+01,6.599999999998339417e-01,1.569999999999260210e+00,2.869999999999994998e+03,-2.175000000001704237e+00,-4.945000000001700258e+00,1.339487594718294616e+01,-2.183249626477500538e+00
2.000000000000046541e+01,2.999999998423081404e+00,1.000000000001133671e+01,6.599999999997280264e-01,1.569999999999449392e+00,2.869999999999960892e+03,-2.175000000000973710e+00,-4.945000000002528040e+00,1.341123946142474210e+01,-2.140426264773354514e+00
2.000000000000131095e+01,2.999999999081484070e+00,1.000000000005323031e+01,6.600000000003293232e-01,1.569999999999652340e+00,2.869999999999995453e+03,-2.175000000000710809e+00,-4.945000000000962181e+00,1.339997083896805563e+01,-2.188390776033728446e+00
2.000000000000100542e+01,2.999999997744796865e+00,1.000000000002414957e+01,6.599999999998192868e-01,1.569999999996439799e+00,2.869999999999956344e+03,-2.175000000003219913e+00,-4.945000000009795116e+00,1.338735497969172883e+01,-2.171353905568607967e+00
2.000000000000146727e+01,2.999999996294182125e+00,1.000000000002743583e+01,6.600000000005136203e-01,1.569999999997987006e+00,2.869999999999968622e+03,-2.175000000001578115e+00,-4.945000000006173124e+00,1.336803119626782355e+01,-2.176363544850318021e+00
2.000000000000169820e+01,2.999999997166569621e+00,9.999999999979669596e+00,6.599999999994681232e-01,1.569999999997037099e+00,2.869999999999976353e+03,-2.175000000003915357e+00,-4.945000000007167884e+00,1.338584159889144232e+01,-2.174431731917186195e+00
1.999999999999952749e+01,2.999999999731451261e+00,9.999999999929519490e+00,6.599999999989204502e-01,1.569999999998805240e+00,2.870000000000000455e+03,-2.175000000002524914e+00,-4.945000000002442775e+00,1.342175084858656398e+01,-2.183008769859878573e+00
2.000000000000187228e+01,2.999999998362540943e+00,1.000000000005817924e+01,6.600000000003848344e-01,1.569999999998982654e+00,2.869999999999970896e+03,-2.175000000001216627e+00,-4.945000000001855689e+00,1.340171006278483645e+01,-2.166780222642252340e+00
2.000000000000025935e+01,2.999999997255587747e+00,1.000000000005337419e+01,6.600000000008765522e-01,1.569999999999953655e+00,2.869999999999976808e+03,-2.174999999999079670e+00,-4.945000000001654961e+00,1.338748796179242895e+01,-2.160670141673608935e+00
1.999999999999896971e+01,2.999999998571267312e+00,1.000000000000942357e+01,6.600000000000134648e-01,1.570000000001232410e+00,2.869999999999972260e+03,-2.174999999998511679e+00,-4.944999999995849826e+00,1.341662467289851079e+01,-2.174301060992905654e+00
2.000000000000055067e+01,2.999999997437682531e+00,1.000000000000614797e+01,6.600000000004101475e-01,1.569999999998378470e+00,2.869999999999979991e+03,-2.175000000001049649e+00,-4.945000000005590479e+00,1.337853170137128167e+01,-2.167758499952141094e+00
2.000000000000079581e+01,2.999999996722161555e+00,1.000000000005508483e+01,6.600000000005306067e-01,1.569999999997878204e+00,2.869999999999961346e+03,-2.175000000001107825e+00,-4.945000000006117169e+00,1.339092239344895852e+01,-2.172968841020984421e+00
2.000000000000156319e+01,2.999999997821046538e+00,9.999999999992176924e+00,6.599999999998512612e-01,1.569999999997777396e+00,2.869999999999989086e+03,-2.175000000003099121e+00,-4.945000000007254037e+00,1.338629833947711845e+01,-2.190379596887757518e+00
2.000000000000255440e+01,2.999999997999237777e+00,1.000000000003870859e+01,6.599999999993708677e-01,1.569999999997975459e+00,2.869999999999965439e+03,-2.175000000003771916e+00,-4.945000000005390639e+00,1.338307140481255608e+01,-2.192475797470526899e+00
2.000000000000174083e+01,2.999999997250076156e+00,1.000000000000154543e+01,6.599999999993989563e-01,1.569999999998072493e+00,2.869999999999980901e+03,-2.175000000003487255e+00,-4.945000000005516760e+00,1.337362379664096146e+01,-2.193987835582161594e+00
2.000000000000181544e+01,2.999999996799895374e+00,1.000000000001553779e+01,6.599999999993582112e-01,1.569999999998216156e+00,2.869999999999986358e+03,-2.175000000003382006e+00,-4.945000000004344365e+00,1.337609922890514547e+01,-2.211753948968826489e+00
2.000000000000015632e+01,2.999999997931305895e+00,9.999999999959326757e+00,6.599999999987319343e-01,1.569999999999377227e+00,2.869999999999982265e+03,-2.175000000002430323e+00,-4.945000000000970175e+00,1.339174508023780064e+01,-2.154062219544106149e+00
2.000000000000205347e+01,2.999999997879424285e+00,1.000000000004621015e+01,6.599999999993431121e-01,1.569999999996723128e+00,2.869999999999955435e+03,-2.175000000004167156e+00,-4.945000000008310082e+00,1.338381853276043998e+01,-2.177204030312736460e+00
2.000000000000203215e+01,2.999999996711020245e+00,1.000000000002943068e+01,6.600000000002379519e-01,1.569999999996291917e+00,2.869999999999969532e+03,-2.175000000003623146e+00,-4.945000000011654073e+00,1.338529481687036160e+01,-2.156582519203148696e+00
2.000000000000040501e+01,2.999999999260822392e+00,1.000000000000854961e+01,6.599999999995008748e-01,1.569999999998864526e+00,2.869999999999988177e+03,-2.175000000001829914e+00,-4.945000000002583995e+00,1.340388455066978324e+01,-2.184947775897399858e+00
2.000000000000042633e+01,2.999999998637159493e+00,1.000000000004285106e+01,6.599999999999420774e-01,1.569999999999940554e+00,2.869999999999960437e+03,-2.175000000000123723e+00,-4.945000000000153939e+00,1.339881594203696480e+01,-2.149730482810903620e+00
1.999999999999993250e+01,2.999999999272070728e+00,1.000000000003177725e+01,6.600000000002903544e-01,1.570000000002287788e+00,2.869999999999950887e+03,-2.174999999997407230e+00,-4.944999999993673789e+00,1.339574633200272835e+01,-2.140773389220427703e+00
1.999999999999964828e+01,2.999999998881753616e+00,9.999999999974328091e+00,6.599999999999600631e-01,1.569999999999788454e+00,2.870000000000001364e+03,-2.175000000000562483e+00,-4.945000000000393747e+00,1.340154736651957634e+01,-2.176040652164464628e+00
1.999999999999954525e+01,2.999999999860574196e+00,9.999999999970146547e+00,6.599999999997701039e-01,1.570000000002186535e+00,2.869999999999980901e+03,-2.174999999998719957e+00,-4.944999999993573425e+00,1.341289671198366484e+01,-2.162045922188582381e+00
1.999999999999996447e+01,2.999999998815059854e+00,1.000000000002973444e+01,6.600000000001229328e-01,1.570000000001591456e+00,2.869999999999969532e+03,-2.174999999998739053e+00,-4.944999999994617923e+00,1.339738104925239703e+01,-2.182347582658670682e+00
2.000000000000122213e+01,2.999999998679770297e+00,1.000000000000502531e+01,6.599999999989408783e-01,1.569999999999683649e+00,2.869999999999985448e+03,-2.175000000002537348e+00,-4.944999999999223128e+00,1.340577137798624463e+01,-2.144818883520535735e+00
2.000000000000188294e+01,2.999999998114287081e+00,1.000000000006602718e+01,6.599999999991357225e-01,1.569999999999480700e+00,2.869999999999975444e+03,-2.175000000002374367e+00,-4.944999999999813767e+00,1.339291803049549756e+01,-2.166535079886827031e+00
2.000000000000090239e+01,2.999999997636486615e+00,1.000000000005138467e+01,6.600000000003990452e-01,1.569999999998141549e+00,2.869999999999985903e+03,-2.175000000001336531e+00,-4.945000000007094165e+00,1.339465267243520152e+01,-2.139836326236895570e+00
2.000000000000207123e+01,2.999999997532778018e+00,1.000000000000678746e+01,6.599999999992357536e-01,1.569999999998340723e+00,2.869999999999975898e+03,-2.175000000003696865e+00,-4.945000000005711271e+00,1.337335731378278858e+01,-2.131305306368228347e+00
2.000000000000012434e+01,3.000000000388652666e+00,1.000000000000248690e+01,6.600000000003483080e-01,1.570000000001431362e+00,2.869999999999984084e+03,-2.174999999998343370e+00,-4.944999999995737916e+00,1.342019493431222799e+01,-2.174648854418500310e+00
1.999999999999937472e+01,2.999999999768319547e+00,9.999999999977893239e+00,6.600000000004330181e-01,1.570000000002162555e+00,2.869999999999995453e+03,-2.174999999997454303e+00,-4.944999999994410977e+00,1.341724527439555281e+01,-2.168978636686019090e+00
2.000000000000015987e+01,2.999999998988436722e+00,9.999999999959886310e+00,6.599999999984339505e-01,1.569999999999141638e+00,2.869999999999972715e+03,-2.175000000002921485e+00,-4.945000000000426610e+00,1.339874054184218899e+01,-2.167567355851530486e+00
2.000000000000056133e+01,2.999999999822378971e+00,1.000000000000856382e+01,6.600000000000326716e-01,1.569999999999794671e+00,2.869999999999965439e+03,-2.175000000000148148e+00,-4.945000000001749108e+00,1.340284643745068394e+01,-2.145785717378288826e+00
2.000000000000084199e+01,2.999999997899708060e+00,1.000000000003656808e+01,6.600000000005410428e-01,1.569999999998566986e+00,2.869999999999967713e+03,-2.175000000000744116e+00,-4.945000000005049579e+00,1.337828671080396248e+01,-2.156124830621156452e+00
2.000000000000028066e+01,2.999999999260762884e+00,9.999999999994834354e+00,6.599999999995512789e-01,1.569999999998009654e+00,2.869999999999984084e+03,-2.175000000002310419e+00,-4.945000000006083418e+00,1.340691186301132909e+01,-2.148509182894068115e+00
2.000000000000053291e+01,2.999999999404842743e+00,9.999999999996525446e+00,6.599999999992589572e-01,1.569999999998153761e+00,2.869999999999988177e+03,-2.175000000003135980e+00,-4.945000000005310703e+00,1.340475280334693053e+01,-2.168194455220337602e+00
1.999999999999899103e+01,2.999999999514894267e+00,9.999999999940317963e+00,6.600000000002165246e-01,1.570000000000973506e+00,2.870000000000008640e+03,-2.174999999998826539e+00,-4.944999999998414886e+00,1.341000369050726349e+01,-2.147748578289813359e+00
2.000000000000038369e+01,2.999999997568306487e+00,9.999999999953635310e+00,6.599999999992497424e-01,1.569999999999291962e+00,2.869999999999978627e+03,-2.175000000002009770e+00,-4.945000000001252616e+00,1.339078505566060251e+01,-2.136352066333414790e+00
2.000000000000078160e+01,2.999999999825301078e+00,9.999999999966682651e+00,6.599999999997532285e-01,1.570000000000641105e+00,2.870000000000004547e+03,-2.175000000000870237e+00,-4.944999999998657358e+00,1.339941988407365336e+01,-2.151430959363410000e+00
2.000000000000165556e+01,2.999999998532528966e+00,1.000000000003750955e+01,6.599999999998354960e-01,1.569999999997655937e+00,2.869999999999961346e+03,-2.175000000002957457e+00,-4.945000000006115393e+00,1.339331765560873500e+01,-2.174581959027200639e+00
2.000000000000168399e+01,2.999999996950784453e+00,1.000000000002745715e+01,6.600000000003704015e-01,1.569999999999496687e+00,2.869999999999973170e+03,-2.175000000000931077e+00,-4.945000000003401119e+00,1.338151745478254284e+01,-2.140311526218249050e+00
2.000000000000099121e+01,2.999999999123066363e+00,9.999999999983440802e+00,6.599999999995640465e-01,1.569999999998919815e+00,2.869999999999976353e+03,-2.175000000002214495e+00,-4.945000000003534346e+00,1.339383506653809341e+01,-2.153527822882304044e+00
2.000000000000038725e+01,2.999999997433168808e+00,1.000000000001129052e+01,6.600000000001645661e-01,1.569999999998520801e+00,2.869999999999959982e+03,-2.175000000000776534e+00,-4.945000000005182805e+00,1.338536361879864067e+01,-2.159156438798979227e+00
2.000000000000018119e+01,2.999999999906200809e+00,9.999999999976539655e+00,6.599999999997016031e-01,1.570000000000645768e+00,2.869999999999961801e+03,-2.174999999999688072e+00,-4.944999999998280771e+00,1.340121055885394874e+01,-2.141560647328403899e+00
1.999999999999943867e+01,2.999999999630997394e+00,9.999999999964307662e+00,6.600000000005482592e-01,1.570000000001365192e+00,2.869999999999991360e+03,-2.174999999998139977e+00,-4.944999999998071161e+00,1.340656214004117786e+01,-2.151710409411160985e+00
2.000000000000089528e+01,2.999999998764716569e+00,1.000000000008346923e+01,6.600000000010879386e-01,1.569999999998765494e+00,2.869999999999957254e+03,-2.174999999999537081e+00,-4.945000000006916530e+00,1.339412275344076519e+01,-2.143599463995731202e+00
2.000000000000026290e+01,2.999999999716534305e+00,9.999999999976619591e+00,6.599999999999232037e-01,1.569999999998360485e+00,2.869999999999997272e+03,-2.175000000002059508e+00,-4.945000000004472263e+00,1.340358675243257025e+01,-2.177402216843368876e+00
2.000000000000011369e+01,2.999999998624927500e+00,1.000000000003113954e+01,6.600000000014324408e-01,1.569999999997730988e+00,2.869999999999972715e+03,-2.175000000000120171e+00,-4.945000000008645813e+00,1.340338744184733422e+01,-2.150299040031045994e+00
2.000000000000013500e+01,2.999999998954406166e+00,1.000000000002370193e+01,6.600000000004566658e-01,1.569999999997336193e+00,2.869999999999990450e+03,-2.175000000001695355e+00,-4.945000000008105800e+00,1.340758613255238885e+01,-2.148586986194763071e+00
2.000000000000151346e+01,2.999999997296004750e+00,1.000000000001914202e+01,6.599999999999982547e-01,1.569999999999182050e+00,2.869999999999990450e+03,-2.175000000001607425e+00,-4.945000000002181650e+00,1.337280181730744921e+01,-2.180809124374374797e+00
2.000000000000150990e+01,2.999999997685519393e+00,1.000000000008234480e+01,6.600000000003468648e-01,1.569999999999058593e+00,2.869999999999970441e+03,-2.175000000000896883e+00,-4.945000000002778506e+00,1.336893660260174777e+01,-2.197645929828220268e+00
2.000000000000064304e+01,2.999999997440291111e+00,1.000000000004467005e+01,6.600000000005770140e-01,1.569999999999273754e+00,2.869999999999980446e+03,-2.175000000000045119e+00,-4.945000000002196749e+00,1.337021883712889547e+01,-2.176062829844315427e+00
2.000000000000092371e+01,2.999999998014432734e+00,1.000000000002004619e+01,6.600000000006029932e-01,1.569999999996769757e+00,2.869999999999974079e+03,-2.175000000002204725e+00,-4.945000000009925678e+00,1.338113609370739887e+01,-2.163330727173130352e+00
2.000000000000027356e+01,2.999999999194034483e+00,9.999999999962604136e+00,6.599999999996177813e-01,1.569999999999607709e+00,2.869999999999988631e+03,-2.175000000001244160e+00,-4.945000000002194973e+00,1.340249846786591625e+01,-2.157646293448761909e+00
2.000000000000097344e+01,2.999999999238176063e+00,1.000000000002379963e+01,6.600000000001825518e-01,1.569999999997745199e+00,2.869999999999985903e+03,-2.175000000002260236e+00,-4.945000000006671392e+00,1.338608548417093580e+01,-2.192068815282208316e+00
2.000000000000078160e+01,2.999999998558376735e+00,1.000000000002857981e+01,6.600000000003580780e-01,1.569999999997020446e+00,2.869999999999977717e+03,-2.175000000002459632e+00,-4.945000000008743513e+00,1.337492615068743440e+01,-2.184974091614008795e+00
2.000000000000128964e+01,2.999999998791379241e+00,1.000000000008893863e+01,6.600000000006769341e-01,1.569999999998169748e+00,2.869999999999970441e+03,-2.175000000001138467e+00,-4.945000000005685514e+00,1.337422848629664962e+01,-2.177696588152767010e+00
2.000000000000139266e+01,2.999999998923660982e+00,1.000000000006883560e+01,6.600000000006107648e-01,1.569999999998434870e+00,2.869999999999979536e+03,-2.175000000001213962e+00,-4.945000000005090435e+00,1.337716935341792635e+01,-2.183887419501762572e+00
2.000000000000250822e+01,2.999999998325563855e+00,1.000000000006200551e+01,6.599999999996447597e-01,1.569999999996981588e+00,2.869999999999958163e+03,-2.175000000003921130e+00,-4.945000000008477947e+00,1.339118689696915077e+01,-2.182389867034411512e+00
2.000000000000050093e+01,2.999999999087501035e+00,1.000000000000590639e+01,6.600000000000528777e-01,1.569999999998972218e+00,2.869999999999970441e+03,-2.175000000001151346e+00,-4.945000000002448992e+00,1.339547592652370156e+01,-2.171151883346883249e+00
1.999999999999995737e+01,2.999999999281494301e+00,9.999999999965256237e+00,6.600000000006582823e-01,1.570000000000656426e+00,2.869999999999986812e+03,-2.174999999998653344e+00,-4.944999999999126317e+00,1.339865062991854749e+01,-2.148733519899289401e+00
