1.999999999999995026e+01,2.999999998531811762e+00,1.000000000002102318e+01,6.599999999999560663e-01,1.570000000000006946e+00,2.870000000000001819e+03,-2.174999999999970512e+00,-4.945000000000043805e+00,1.340508314046210536e+01,-2.241238802805681107e+00
1.999999999999995026e+01,2.999999998816314406e+00,1.000000000005441514e+01,6.599999999999544009e-01,1.570000000000001172e+00,2.870000000000004093e+03,-2.174999999999968736e+00,-4.945000000000105977e+00,1.361989986026071797e+01,-2.029913629144375786e+00
1.999999999999900169e+01,2.999999997560318210e+00,9.999999999970718534e+00,6.599999999999532907e-01,1.570000000000057572e+00,2.870000000000010004e+03,-2.174999999999877254e+00,-4.944999999999938112e+00,1.344278212902150571e+01,-2.177731235267410970e+00
1.999999999999968026e+01,3.000000000718986204e+00,1.000000000000661871e+01,6.600000000000141309e-01,1.570000000000050022e+00,2.870000000000000000e+03,-2.174999999999910116e+00,-4.944999999999944329e+00,1.378985572929478920e+01,-1.723663393117242704e+00
1.999999999999981171e+01,3.000000000748960005e+00,1.000000000002358469e+01,6.599999999999064393e-01,1.569999999999936779e+00,2.869999999999994088e+03,-2.175000000000055334e+00,-4.945000000000213447e+00,1.365029346689348699e+01,-1.951223420300519429e+00
1.999999999999977618e+01,3.000000000582634385e+00,1.000000000001901590e+01,6.599999999999555111e-01,1.570000000000027596e+00,2.870000000000001364e+03,-2.174999999999915001e+00,-4.945000000000066898e+00,1.356403110026067260e+01,-2.046009704078675551e+00
1.999999999999949907e+01,2.999999999852525523e+00,1.000000000000239631e+01,6.599999999999009992e-01,1.570000000000044249e+00,2.869999999999997272e+03,-2.174999999999854161e+00,-4.945000000000042029e+00,1.358910967310913875e+01,-2.037881691837404752e+00
2.000000000000006750e+01,2.999999999262611183e+00,1.000000000002214584e+01,6.600000000000280087e-01,1.570000000000114859e+00,2.869999999999991815e+03,-2.174999999999830624e+00,-4.944999999999797780e+00,1.370263026078319868e+01,-2.012949810091781533e+00
1.999999999999979394e+01,2.999999999447855892e+00,1.000000000002038192e+01,6.599999999999821565e-01,1.569999999999971418e+00,2.869999999999994998e+03,-2.175000000000013589e+00,-4.945000000000026930e+00,1.338763444695775995e+01,-2.146650239481831424e+00
1.999999999999996803e+01,3.000000000055582206e+00,1.000000000001056932e+01,6.600000000000617595e-01,1.570000000000062235e+00,2.869999999999990905e+03,-2.174999999999895461e+00,-4.944999999999845741e+00,1.352653767620688363e+01,-2.185659069765459872e+00
1.999999999999984013e+01,2.999999998652740363e+00,9.999999999990139443e+00,6.600000000000477707e-01,1.570000000000009388e+00,2.870000000000002728e+03,-2.175000000000007816e+00,-4.944999999999952323e+00,1.378762686352258449e+01,-2.169434734371601170e+00
1.999999999999977263e+01,2.999999998761389453e+00,9.999999999970386355e+00,6.599999999999828226e-01,1.569999999999962093e+00,2.870000000000004547e+03,-2.175000000000046452e+00,-4.945000000000082885e+00,1.385623994824012328e+01,-2.050815653588709431e+00
1.999999999999985434e+01,2.999999999298344822e+00,1.000000000002107825e+01,6.599999999999859313e-01,1.569999999999974749e+00,2.870000000000000000e+03,-2.175000000000038902e+00,-4.945000000000059792e+00,1.368125501692661317e+01,-2.164997957322844613e+00
2.000000000000013856e+01,2.999999999123249328e+00,1.000000000000776623e+01,6.600000000000105782e-01,1.570000000000052687e+00,2.869999999999996817e+03,-2.174999999999963407e+00,-4.944999999999878604e+00,1.376416891200196879e+01,-2.192797240535147463e+00
2.000000000000013500e+01,2.999999999625534652e+00,1.000000000004000711e+01,6.599999999999517364e-01,1.569999999999896811e+00,2.870000000000003183e+03,-2.175000000000135714e+00,-4.945000000000257856e+00,1.354180872176828387e+01,-2.096152393312410211e+00
1.999999999999996803e+01,2.999999999917987381e+00,1.000000000003301892e+01,6.599999999999652811e-01,1.569999999999978302e+00,2.869999999999992724e+03,-2.174999999999965183e+00,-4.945000000000203677e+00,1.344841970788132102e+01,-2.183925325520701399e+00
2.000000000000017764e+01,3.000000002418384604e+00,1.000000000001215383e+01,6.599999999999565103e-01,1.569999999999887041e+00,2.869999999999998181e+03,-2.175000000000165468e+00,-4.945000000000225882e+00,1.330299623232063944e+01,-2.563225817975206766e+00
1.999999999999991473e+01,3.000000002206258731e+00,9.999999999946787455e+00,6.600000000000194600e-01,1.569999999999837970e+00,2.870000000000011369e+03,-2.175000000000292033e+00,-4.945000000000184137e+00,1.328469018808399227e+01,-2.509884107210683446e+00
1.999999999999996803e+01,3.000000001552109552e+00,9.999999999966291853e+00,6.599999999999273115e-01,1.570000000000028928e+00,2.870000000000005912e+03,-2.174999999999992273e+00,-4.944999999999974527e+00,1.355638383256120072e+01,-2.417641722733689047e+00
2.000000000000007105e+01,3.000000001642627812e+00,9.999999999982520649e+00,6.599999999999039968e-01,1.569999999999902363e+00,2.870000000000002728e+03,-2.175000000000159250e+00,-4.945000000000191243e+00,1.354557147547750873e+01,-2.325212185890490169e+00
2.000000000000028777e+01,3.000000001613465805e+00,1.000000000001608846e+01,6.600000000000560973e-01,1.569999999999996954e+00,2.869999999999999545e+03,-2.174999999999974065e+00,-4.945000000000037588e+00,1.363477349198870670e+01,-2.343076358502074186e+00
1.999999999999988987e+01,3.000000001384437454e+00,9.999999999992764899e+00,6.600000000000068034e-01,1.570000000000045359e+00,2.870000000000003183e+03,-2.174999999999849720e+00,-4.945000000000083773e+00,1.350816761731794990e+01,-2.447607769453918447e+00
2.000000000000013145e+01,3.000000001812336947e+00,1.000000000000478551e+01,6.600000000000649791e-01,1.569999999999952323e+00,2.869999999999995453e+03,-2.175000000000017142e+00,-4.945000000000117524e+00,1.357325867341431014e+01,-2.366286692831811145e+00
2.000000000000011724e+01,3.000000001537068250e+00,9.999999999980291321e+00,6.599999999999314193e-01,1.569999999999923679e+00,2.870000000000003183e+03,-2.175000000000046896e+00,-4.945000000000218776e+00,1.358473631427385619e+01,-2.418718947637125805e+00
1.999999999999966249e+01,3.000000000258035371e+00,9.999999999996493472e+00,6.599999999999517364e-01,1.570000000000088436e+00,2.869999999999999545e+03,-2.174999999999752465e+00,-4.945000000000050022e+00,1.316995674177072750e+01,-2.461233552159573623e+00
1.999999999999957723e+01,3.000000000132658329e+00,9.999999999970242470e+00,6.600000000000425526e-01,1.569999999999998952e+00,2.870000000000006821e+03,-2.174999999999897682e+00,-4.945000000000092655e+00,1.313903303468727124e+01,-2.439772093069640047e+00
1.999999999999962341e+01,2.999999999995115907e+00,1.000000000000710010e+01,6.600000000000997291e-01,1.570000000000056906e+00,2.870000000000000455e+03,-2.174999999999884359e+00,-4.944999999999891038e+00,1.312321850360613418e+01,-2.457496417687617729e+00
1.999999999999976907e+01,2.999999999962033925e+00,9.999999999986522781e+00,6.600000000001018385e-01,1.569999999999963425e+00,2.869999999999999545e+03,-2.175000000000043343e+00,-4.944999999999956763e+00,1.348768846747889860e+01,-2.067059426159224333e+00
1.999999999999950973e+01,2.999999998989333339e+00,9.999999999975859311e+00,6.600000000000166844e-01,1.570000000000046025e+00,2.870000000000001819e+03,-2.174999999999933653e+00,-4.944999999999974527e+00,1.354396173858642705e+01,-2.407648063534550076e+00
1.999999999999950973e+01,2.999999999353291535e+00,9.999999999979120702e+00,6.599999999999593969e-01,1.569999999999978080e+00,2.870000000000001819e+03,-2.175000000000025580e+00,-4.945000000000093543e+00,1.334848416920675085e+01,-2.525473032626734504e+00
1.999999999999952394e+01,2.999999999586408173e+00,9.999999999953846697e+00,6.599999999999869305e-01,1.569999999999991180e+00,2.870000000000000455e+03,-2.175000000000033573e+00,-4.944999999999993179e+00,1.351160797578932105e+01,-2.368126008543384398e+00
1.999999999999967315e+01,2.999999999369369341e+00,1.000000000001914735e+01,6.599999999999630607e-01,1.570000000000027374e+00,2.869999999999993634e+03,-2.174999999999982947e+00,-4.944999999999991402e+00,1.337154956536395289e+01,-2.481058734360773510e+00
1.999999999999954525e+01,3.000000001073640732e+00,9.999999999994669153e+00,6.599999999999888178e-01,1.570000000000084217e+00,2.869999999999995907e+03,-2.174999999999857270e+00,-4.944999999999948770e+00,1.371845345895921930e+01,-1.869529901069545197e+00
1.999999999999976552e+01,3.000000000455735893e+00,9.999999999962403407e+00,6.600000000000357803e-01,1.570000000000124851e+00,2.870000000000004547e+03,-2.174999999999838174e+00,-4.944999999999671658e+00,1.351536248850484867e+01,-2.240968985112832268e+00
1.999999999999978328e+01,3.000000000825049806e+00,9.999999999973402609e+00,6.599999999999957012e-01,1.570000000000121743e+00,2.870000000000000909e+03,-2.174999999999756906e+00,-4.944999999999858176e+00,1.365449851519416136e+01,-2.188766610855193306e+00
2.000000000000011724e+01,2.999999998870045648e+00,9.999999999941744377e+00,6.600000000000253442e-01,1.570000000000030038e+00,2.870000000000001364e+03,-2.174999999999902567e+00,-4.945000000000026930e+00,1.368612122155902355e+01,-1.957082477002781484e+00
1.999999999999996803e+01,2.999999998270118429e+00,9.999999999952811081e+00,6.600000000000749711e-01,1.570000000000126628e+00,2.869999999999999091e+03,-2.174999999999724487e+00,-4.944999999999867946e+00,1.355882946991616933e+01,-1.973662769461571376e+00
2.000000000000004619e+01,2.999999999273067264e+00,9.999999999943065987e+00,6.600000000000249001e-01,1.570000000000066898e+00,2.869999999999997272e+03,-2.174999999999872813e+00,-4.944999999999931006e+00,1.342242748671102426e+01,-2.093246013647528159e+00
2.000000000000035527e+01,2.999999999490485347e+00,9.999999999988659738e+00,6.600000000000466605e-01,1.570000000000013607e+00,2.869999999999994088e+03,-2.175000000000006928e+00,-4.944999999999933671e+00,1.335003610047282763e+01,-2.202188968253482759e+00
2.000000000000044409e+01,2.999999998056690487e+00,1.000000000000561151e+01,6.599999999999470734e-01,1.569999999999972307e+00,2.870000000000000000e+03,-2.175000000000151701e+00,-4.945000000000007390e+00,1.360406190382795799e+01,-2.046452836236819284e+00
1.999999999999955946e+01,2.999999998539605972e+00,9.999999999951286966e+00,6.600000000000307843e-01,1.570000000000027152e+00,2.870000000000007276e+03,-2.174999999999976286e+00,-4.944999999999925677e+00,1.364221105247073318e+01,-2.244890951732719131e+00
1.999999999999959499e+01,2.999999998277237623e+00,9.999999999995262456e+00,6.600000000000180167e-01,1.570000000000011608e+00,2.870000000000002728e+03,-2.174999999999992273e+00,-4.944999999999974527e+00,1.351447543163125253e+01,-2.391979636377062679e+00
1.999999999999969802e+01,2.999999998704019344e+00,9.999999999985305976e+00,6.600000000000005862e-01,1.569999999999951434e+00,2.870000000000000455e+03,-2.175000000000073541e+00,-4.945000000000071338e+00,1.368402124004600573e+01,-2.281702718359206017e+00
1.999999999999963052e+01,3.000000001653334802e+00,1.000000000000532907e+01,6.599999999999140998e-01,1.569999999999943219e+00,2.869999999999995907e+03,-2.175000000000051781e+00,-4.945000000000240092e+00,1.358207951789941603e+01,-2.036966885432635710e+00
1.999999999999964828e+01,3.000000000863928040e+00,9.999999999964956032e+00,6.599999999999865974e-01,1.570000000000013385e+00,2.869999999999998636e+03,-2.174999999999984279e+00,-4.945000000000051799e+00,1.349646325313355177e+01,-2.047876323355579231e+00
2.000000000000031619e+01,2.999999999274260087e+00,9.999999999983939958e+00,6.599999999999922595e-01,1.570000000000019380e+00,2.870000000000000455e+03,-2.175000000000064215e+00,-4.944999999999908802e+00,1.324118559688904462e+01,-2.328166463046511758e+00
2.000000000000028777e+01,2.999999999506604009e+00,9.999999999960655472e+00,6.599999999999511813e-01,1.570000000000015605e+00,2.869999999999998636e+03,-2.175000000000024691e+00,-4.944999999999986073e+00,1.345030108988667372e+01,-2.207623255300947385e+00
1.999999999999934275e+01,3.000000000657428778e+00,9.999999999992931876e+00,6.600000000000427747e-01,1.570000000000037144e+00,2.869999999999998181e+03,-2.174999999999877254e+00,-4.944999999999940776e+00,1.359405801486099463e+01,-1.976416725245859984e+00
1.999999999999920774e+01,3.000000000237220910e+00,9.999999999987313259e+00,6.600000000000161293e-01,1.570000000000147056e+00,2.870000000000000455e+03,-2.174999999999720490e+00,-4.944999999999770246e+00,1.366898795760241114e+01,-1.945491265889595534e+00
2.000000000000014566e+01,3.000000001165822994e+00,9.999999999978811616e+00,6.599999999999732747e-01,1.569999999999984297e+00,2.870000000000004093e+03,-2.175000000000028688e+00,-4.945000000000029594e+00,1.382965044125148424e+01,-1.898147077907567093e+00
2.000000000000047251e+01,3.000000000489249086e+00,9.999999999976497023e+00,6.599999999999796030e-01,1.570000000000048024e+00,2.869999999999993179e+03,-2.174999999999995381e+00,-4.944999999999892815e+00,1.389014802487137779e+01,-1.762296327846768040e+00
2.000000000000014921e+01,2.999999998256793976e+00,9.999999999994647837e+00,6.600000000000194600e-01,1.570000000000050688e+00,2.869999999999994088e+03,-2.174999999999949196e+00,-4.944999999999937224e+00,1.382398249453702554e+01,-1.956002671925608505e+00
1.999999999999992895e+01,3.000000001825045004e+00,9.999999999982126297e+00,6.600000000000412204e-01,1.569999999999982743e+00,2.869999999999992724e+03,-2.175000000000057998e+00,-4.944999999999988738e+00,1.342613154718841351e+01,-2.409428706087545891e+00
1.999999999999996803e+01,3.000000002430817769e+00,9.999999999967020159e+00,6.599999999999937028e-01,1.569999999999958096e+00,2.869999999999994088e+03,-2.175000000000119726e+00,-4.945000000000008278e+00,1.356252452031977285e+01,-2.371358666550777095e+00
1.999999999999975131e+01,3.000000001994533427e+00,9.999999999981968202e+00,6.600000000000387779e-01,1.570000000000118412e+00,2.869999999999990905e+03,-2.174999999999843059e+00,-4.944999999999803997e+00,1.358233523562126521e+01,-2.313619708569203848e+00
2.000000000000025224e+01,3.000000001441629482e+00,9.999999999994335198e+00,6.599999999999947020e-01,1.570000000000099760e+00,2.869999999999984539e+03,-2.174999999999799982e+00,-4.944999999999940776e+00,1.363204966247937122e+01,-2.286612883551807140e+00
2.000000000000040146e+01,3.000000001253269044e+00,9.999999999987208454e+00,6.599999999999915934e-01,1.569999999999983187e+00,2.869999999999979991e+03,-2.175000000000002487e+00,-4.945000000000071338e+00,1.396418247166863047e+01,-2.050566722947630538e+00
2.000000000000054001e+01,3.000000000973542136e+00,1.000000000005808154e+01,6.600000000000409983e-01,1.570000000000084217e+00,2.869999999999972715e+03,-2.174999999999817746e+00,-4.944999999999929230e+00,1.346881949502991738e+01,-2.446356980877493204e+00
2.000000000000054001e+01,3.000000002073677674e+00,1.000000000002930278e+01,6.600000000000660894e-01,1.569999999999963869e+00,2.869999999999981355e+03,-2.175000000000031353e+00,-4.945000000000082885e+00,1.376207210229986799e+01,-2.175055148723623155e+00
2.000000000000027356e+01,3.000000001133389382e+00,1.000000000003420730e+01,6.600000000000122435e-01,1.570000000000072005e+00,2.869999999999982720e+03,-2.174999999999843947e+00,-4.944999999999996732e+00,1.354962737394322936e+01,-2.414855827392620835e+00
2.000000000000027711e+01,3.000000000101071596e+00,1.000000000000024158e+01,6.599999999999444089e-01,1.569999999999994067e+00,2.870000000000000909e+03,-2.175000000000081535e+00,-4.944999999999952323e+00,1.374525977214909211e+01,-1.980929812881581098e+00
1.999999999999976197e+01,3.000000002405547761e+00,9.999999999952601470e+00,6.600000000000100231e-01,1.569999999999931672e+00,2.870000000000000455e+03,-2.175000000000118838e+00,-4.945000000000103313e+00,1.407778401775323651e+01,-1.788048523783876353e+00
1.999999999999967315e+01,3.000000001679129280e+00,9.999999999949663376e+00,6.599999999999968114e-01,1.570000000000058904e+00,2.869999999999996817e+03,-2.174999999999895461e+00,-4.944999999999976303e+00,1.382077647677233578e+01,-2.074791677177884708e+00
1.999999999999996803e+01,3.000000001519138593e+00,9.999999999972789766e+00,6.599999999999092148e-01,1.569999999999927009e+00,2.869999999999996817e+03,-2.175000000000126832e+00,-4.945000000000175255e+00,1.406521628573915628e+01,-1.798640760060620014e+00
2.000000000000015277e+01,3.000000001431078811e+00,9.999999999991603161e+00,6.599999999999931477e-01,1.570000000000014495e+00,2.870000000000000000e+03,-2.174999999999974065e+00,-4.944999999999929230e+00,1.385869000321611111e+01,-1.751587567976361282e+00
2.000000000000029132e+01,3.000000001681579764e+00,9.999999999983607779e+00,6.600000000000720846e-01,1.569999999999986739e+00,2.869999999999997726e+03,-2.175000000000056222e+00,-4.944999999999883045e+00,1.374290205199867465e+01,-1.823073759173666097e+00
2.000000000000017408e+01,3.000000000766437580e+00,1.000000000004022915e+01,6.600000000000395550e-01,1.570000000000032481e+00,2.869999999999996817e+03,-2.174999999999978506e+00,-4.944999999999865281e+00,1.366055256903886672e+01,-1.912366681509259037e+00
2.000000000000033040e+01,3.000000000765131514e+00,1.000000000003968204e+01,6.600000000000276756e-01,1.569999999999935003e+00,2.869999999999997726e+03,-2.175000000000146816e+00,-4.944999999999975415e+00,1.392793971065496450e+01,-1.629509347144477704e+00
1.999999999999975486e+01,2.999999999087040958e+00,1.000000000004141398e+01,6.599999999999824896e-01,1.569999999999983187e+00,2.869999999999991360e+03,-2.174999999999978062e+00,-4.945000000000173479e+00,1.399458267705000125e+01,-1.911740343575529355e+00
1.999999999999981881e+01,2.999999999126812256e+00,1.000000000004392398e+01,6.599999999999803801e-01,1.569999999999998064e+00,2.869999999999994543e+03,-2.174999999999998490e+00,-4.945000000000050910e+00,1.363094318803962146e+01,-2.252779690157170389e+00
1.999999999999985434e+01,2.999999998361762898e+00,1.000000000004719780e+01,6.599999999999622835e-01,1.569999999999974749e+00,2.869999999999991815e+03,-2.175000000000010481e+00,-4.945000000000162821e+00,1.357818584461142208e+01,-2.268759969489842820e+00
2.000000000000040856e+01,2.999999999412850560e+00,1.000000000002465406e+01,6.600000000000934008e-01,1.570000000000052687e+00,2.869999999999993634e+03,-2.174999999999954525e+00,-4.944999999999859952e+00,1.335311898147026888e+01,-2.445690979485098282e+00
1.999999999999990408e+01,2.999999999551113294e+00,1.000000000001185718e+01,6.599999999999697220e-01,1.570000000000138396e+00,2.869999999999998181e+03,-2.174999999999740918e+00,-4.944999999999914131e+00,1.332320197895949576e+01,-2.549578783309885743e+00
2.000000000000007105e+01,2.999999999524237904e+00,1.000000000001885958e+01,6.599999999999883737e-01,1.570000000000104645e+00,2.869999999999994088e+03,-2.174999999999798206e+00,-4.944999999999900808e+00,1.341942979562159088e+01,-2.387504877240098633e+00
1.999999999999969447e+01,3.000000000312918580e+00,1.000000000001749356e+01,6.599999999999763833e-01,1.569999999999996509e+00,2.870000000000000909e+03,-2.174999999999937650e+00,-4.945000000000148610e+00,1.371060900832891782e+01,-1.966637405857268428e+00
1.999999999999961986e+01,2.999999997936363183e+00,1.000000000001329781e+01,6.599999999999718314e-01,1.569999999999972307e+00,2.870000000000008640e+03,-2.175000000000090417e+00,-4.945000000000051799e+00,1.364037674523405386e+01,-1.931584263143957703e+00
1.999999999999952749e+01,2.999999997581351163e+00,1.000000000000152767e+01,6.600000000000257883e-01,1.569999999999964757e+00,2.870000000000001819e+03,-2.175000000000011813e+00,-4.945000000000140616e+00,1.385184737566643953e+01,-1.978285215696165000e+00
2.000000000000013145e+01,2.999999999614209489e+00,1.000000000006306067e+01,6.600000000000622036e-01,1.569999999999992291e+00,2.869999999999997272e+03,-2.175000000000007816e+00,-4.944999999999982521e+00,1.399028474518580545e+01,-1.784175734761041188e+00
1.999999999999986500e+01,3.000000000370089737e+00,1.000000000002226486e+01,6.600000000000001421e-01,1.570000000000052687e+00,2.869999999999996817e+03,-2.174999999999876810e+00,-4.944999999999997620e+00,1.390529581728586450e+01,-1.920404476467130639e+00
2.000000000000022027e+01,2.999999999626067559e+00,1.000000000002360778e+01,6.600000000000253442e-01,1.569999999999886819e+00,2.870000000000003183e+03,-2.175000000000195666e+00,-4.945000000000111307e+00,1.391828666923170843e+01,-1.947856753391413953e+00
2.000000000000017053e+01,2.999999999720113220e+00,1.000000000002443912e+01,6.600000000000347811e-01,1.570000000000009388e+00,2.869999999999997272e+03,-2.174999999999991829e+00,-4.944999999999968310e+00,1.401858380832310402e+01,-1.998998325637864726e+00
2.000000000000042633e+01,2.999999999804442652e+00,1.000000000001944755e+01,6.600000000000282308e-01,1.569999999999935669e+00,2.869999999999988631e+03,-2.175000000000101963e+00,-4.945000000000051799e+00,1.392777301481939745e+01,-1.928047082048680139e+00
2.000000000000009592e+01,2.999999998486751362e+00,1.000000000004082246e+01,6.600000000000100231e-01,1.569999999999930562e+00,2.870000000000001364e+03,-2.175000000000090861e+00,-4.945000000000097984e+00,1.396347076879375848e+01,-1.834818776835922760e+00
1.999999999999991118e+01,3.000000000608263218e+00,9.999999999999042544e+00,6.599999999999781597e-01,1.569999999999950102e+00,2.869999999999999545e+03,-2.174999999999993605e+00,-4.945000000000132623e+00,1.327548899257765314e+01,-2.347703396783588747e+00
2.000000000000011013e+01,3.000000000767018449e+00,1.000000000001486988e+01,6.600000000000882938e-01,1.570000000000093543e+00,2.869999999999997272e+03,-2.174999999999822187e+00,-4.944999999999803109e+00,1.353279765991793582e+01,-2.052769029575483906e+00
2.000000000000012790e+01,2.999999999759840108e+00,9.999999999975992537e+00,6.600000000000568745e-01,1.570000000000036700e+00,2.869999999999996817e+03,-2.174999999999978506e+00,-4.944999999999844853e+00,1.327335408473233791e+01,-2.455637324804814448e+00
1.999999999999939604e+01,3.000000000120037313e+00,1.000000000001060840e+01,6.600000000000342260e-01,1.570000000000082219e+00,2.870000000000006366e+03,-2.174999999999791545e+00,-4.945000000000014495e+00,1.347985136274651374e+01,-2.356631157730242343e+00
1.999999999999964118e+01,3.000000001453237086e+00,9.999999999933596229e+00,6.599999999999734968e-01,1.570000000000049134e+00,2.869999999999986358e+03,-2.174999999999770228e+00,-4.945000000000113971e+00,1.336750555306984189e+01,-2.227299543463291620e+00
1.999999999999979039e+01,2.999999999118216021e+00,9.999999999981092458e+00,6.600000000000069145e-01,1.570000000000020046e+00,2.869999999999992269e+03,-2.174999999999913225e+00,-4.945000000000050022e+00,1.340747143306102096e+01,-2.293843024383538598e+00
2.000000000000051159e+01,2.999999998667177259e+00,9.999999999978205878e+00,6.599999999999413003e-01,1.569999999999985407e+00,2.869999999999987267e+03,-2.175000000000019806e+00,-4.945000000000056239e+00,1.361663364519480268e+01,-2.059444106474453751e+00
2.000000000000049383e+01,2.999999998902919796e+00,9.999999999985300647e+00,6.599999999999610623e-01,1.569999999999923457e+00,2.869999999999994088e+03,-2.175000000000138822e+00,-4.945000000000123741e+00,1.358642551942488019e+01,-1.958966425920876553e+00
2.000000000000050449e+01,3.000000000852542037e+00,9.999999999962922104e+00,6.600000000000108002e-01,1.569999999999901252e+00,2.869999999999997726e+03,-2.175000000000202327e+00,-4.945000000000034035e+00,1.382734231308835682e+01,-1.992150726852444764e+00
2.000000000000040501e+01,3.000000000053798299e+00,9.999999999991352695e+00,6.599999999999777156e-01,1.569999999999891260e+00,2.869999999999995907e+03,-2.175000000000164579e+00,-4.945000000000139728e+00,1.385939856844728446e+01,-1.955332476794247931e+00
2.000000000000008171e+01,2.999999999051756294e+00,9.999999999969032771e+00,6.599999999999709432e-01,1.569999999999894369e+00,2.870000000000003183e+03,-2.175000000000159694e+00,-4.945000000000114859e+00,1.354944839071319684e+01,-2.337351167077252878e+00
2.000000000000012434e+01,2.999999999086742974e+00,9.999999999963415931e+00,6.599999999999643929e-01,1.569999999999957874e+00,2.870000000000000909e+03,-2.175000000000073097e+00,-4.945000000000038476e+00,1.341272531166579185e+01,-2.447993653580408768e+00
2.000000000000028066e+01,2.999999999221529379e+00,9.999999999984122923e+00,6.600000000000385558e-01,1.569999999999970974e+00,2.869999999999998181e+03,-2.175000000000081535e+00,-4.944999999999946994e+00,1.357062314765522615e+01,-2.319944771457459254e+00
2.000000000000002842e+01,3.000000000287462054e+00,9.999999999949563900e+00,6.600000000000477707e-01,1.569999999999946327e+00,2.870000000000003638e+03,-2.175000000000079758e+00,-4.944999999999999396e+00,1.327686092332137946e+01,-2.592140158328481103e+00
2.000000000000025224e+01,2.999999998874292473e+00,9.999999999965700326e+00,6.599999999999615063e-01,1.569999999999892815e+00,2.870000000000000455e+03,-2.175000000000200107e+00,-4.945000000000085549e+00,1.344143133646990940e+01,-2.489581816705035422e+00
2.000000000000031974e+01,2.999999998864918638e+00,9.999999999998481215e+00,6.599999999999720535e-01,1.569999999999986073e+00,2.869999999999990905e+03,-2.175000000000057554e+00,-4.944999999999966533e+00,1.331198256134316438e+01,-2.261593980301973339e+00
2.000000000000005329e+01,2.999999998041792182e+00,9.999999999990416555e+00,6.600000000000727507e-01,1.570000000000033591e+00,2.869999999999998181e+03,-2.174999999999954525e+00,-4.944999999999882156e+00,1.376355606763780060e+01,-2.049363921395110033e+00
1.999999999999994671e+01,2.999999998953267522e+00,1.000000000003112177e+01,6.599999999999492939e-01,1.569999999999948326e+00,2.869999999999996362e+03,-2.174999999999994049e+00,-4.945000000000201013e+00,1.361455561155896632e+01,-2.243789886345985529e+00
1.999999999999982947e+01,2.999999998231396070e+00,1.000000000000937739e+01,6.599999999999095479e-01,1.569999999999942553e+00,2.869999999999993634e+03,-2.174999999999984279e+00,-4.945000000000291607e+00,1.385822839535975604e+01,-1.947509867104010972e+00
2.000000000000016698e+01,3.000000000375045772e+00,9.999999999992954969e+00,6.599999999999620615e-01,1.570000000000066231e+00,2.869999999999993179e+03,-2.174999999999933653e+00,-4.944999999999852847e+00,1.359316267552207869e+01,-1.939613130912631878e+00
2.000000000000008882e+01,3.000000000395539157e+00,9.999999999996216360e+00,6.599999999999699440e-01,1.569999999999947660e+00,2.869999999999991360e+03,-2.175000000000069988e+00,-4.945000000000074003e+00,1.345301219444062291e+01,-2.139753032859315951e+00
2.000000000000066791e+01,2.999999999333169853e+00,1.000000000001181810e+01,6.599999999999577316e-01,1.569999999999939666e+00,2.869999999999986812e+03,-2.175000000000125500e+00,-4.945000000000030482e+00,1.354103546849577633e+01,-2.035555646533474317e+00
2.000000000000055067e+01,2.999999998873293272e+00,9.999999999992425614e+00,6.600000000000788569e-01,1.569999999999898588e+00,2.869999999999994543e+03,-2.175000000000218758e+00,-4.944999999999994955e+00,1.358493846605428779e+01,-2.060279743778048012e+00
1.999999999999959144e+01,3.000000001303514185e+00,9.999999999985504928e+00,6.599999999999953681e-01,1.570000000000061124e+00,2.870000000000000000e+03,-2.174999999999892353e+00,-4.944999999999915019e+00,1.343278274154922869e+01,-2.219725151597731205e+00
1.999999999999902300e+01,2.999999999088527769e+00,9.999999999992176924e+00,6.600000000000236788e-01,1.570000000000032925e+00,2.870000000000004093e+03,-2.174999999999859934e+00,-4.945000000000054463e+00,1.346632823287788128e+01,-2.249253144822019657e+00
1.999999999999899458e+01,2.999999999161073738e+00,9.999999999963515407e+00,6.600000000000498801e-01,1.569999999999970086e+00,2.870000000000008185e+03,-2.174999999999959410e+00,-4.945000000000077556e+00,1.325156063293734832e+01,-2.267453521718541865e+00
1.999999999999955236e+01,3.000000000179397386e+00,1.000000000003836043e+01,6.599999999999709432e-01,1.569999999999951878e+00,2.870000000000001819e+03,-2.174999999999964295e+00,-4.945000000000312923e+00,1.352189273090348465e+01,-2.285288718445991130e+00
1.999999999999983302e+01,3.000000001106521097e+00,9.999999999994503952e+00,6.600000000000398881e-01,1.569999999999989404e+00,2.870000000000000000e+03,-2.174999999999986056e+00,-4.945000000000012719e+00,1.334767533219019064e+01,-2.353568603676732707e+00
1.999999999999978684e+01,3.000000001330545452e+00,9.999999999960692776e+00,6.599999999999631717e-01,1.570000000000017826e+00,2.870000000000003638e+03,-2.174999999999919442e+00,-4.944999999999995843e+00,1.357568599213958116e+01,-2.101106347563149956e+00
1.999999999999966604e+01,3.000000000659339694e+00,1.000000000001861622e+01,6.599999999999669464e-01,1.570000000000006057e+00,2.870000000000000455e+03,-2.174999999999948308e+00,-4.945000000000111307e+00,1.365031583966319317e+01,-2.066866126163489525e+00
2.000000000000038369e+01,3.000000001000571181e+00,1.000000000003103295e+01,6.600000000000294520e-01,1.569999999999974749e+00,2.869999999999997726e+03,-2.175000000000113953e+00,-4.945000000000010054e+00,1.309229428874644796e+01,-2.502601400350294547e+00
1.999999999999999645e+01,3.000000000533971534e+00,1.000000000002666134e+01,6.599999999999304201e-01,1.570000000000069784e+00,2.870000000000001819e+03,-2.174999999999902123e+00,-4.945000000000036700e+00,1.306390603523388094e+01,-2.525461905453260325e+00
2.000000000000058975e+01,2.999999999768795611e+00,1.000000000001924150e+01,6.600000000000815215e-01,1.570000000000084883e+00,2.869999999999993179e+03,-2.174999999999960298e+00,-4.944999999999734719e+00,1.355342011185161155e+01,-2.432989243920768985e+00
2.000000000000062172e+01,2.999999999794366268e+00,1.000000000003674216e+01,6.599999999999910383e-01,1.570000000000042917e+00,2.869999999999999091e+03,-2.175000000000040234e+00,-4.944999999999835971e+00,1.360554559212426895e+01,-2.273210544687689350e+00
2.000000000000053291e+01,2.999999999939495066e+00,1.000000000002782485e+01,6.600000000000243450e-01,1.569999999999959650e+00,2.869999999999998636e+03,-2.175000000000112621e+00,-4.945000000000006501e+00,1.356158896423271187e+01,-2.210759924041171054e+00
2.000000000000007461e+01,3.000000000630082653e+00,1.000000000003044498e+01,6.600000000000723066e-01,1.569999999999992735e+00,2.870000000000000000e+03,-2.174999999999997602e+00,-4.945000000000073115e+00,1.333672238283763534e+01,-2.338943632365138914e+00
2.000000000000018119e+01,3.000000000911693832e+00,1.000000000010045476e+01,6.600000000000373346e-01,1.570000000000060902e+00,2.869999999999995907e+03,-2.174999999999903899e+00,-4.944999999999916795e+00,1.358821361235948899e+01,-2.237191752222015051e+00
2.000000000000021672e+01,3.000000001227526525e+00,1.000000000007794831e+01,6.600000000000715294e-01,1.569999999999904139e+00,2.870000000000000455e+03,-2.175000000000129941e+00,-4.945000000000105977e+00,1.366751878115887742e+01,-2.142375307116942018e+00
2.000000000000042988e+01,3.000000000990688420e+00,1.000000000002734524e+01,6.600000000000737499e-01,1.569999999999969864e+00,2.869999999999993634e+03,-2.175000000000095746e+00,-4.944999999999956763e+00,1.384202514046540600e+01,-2.101350304649110878e+00
2.000000000000037303e+01,3.000000001359003132e+00,1.000000000005452705e+01,6.600000000000209033e-01,1.569999999999879714e+00,2.869999999999996362e+03,-2.175000000000180123e+00,-4.945000000000156604e+00,1.368906953558053807e+01,-2.192602925459614660e+00
1.999999999999982592e+01,2.999999998594875983e+00,9.999999999971779019e+00,6.600000000000129097e-01,1.570000000000012053e+00,2.869999999999996362e+03,-2.174999999999897238e+00,-4.945000000000105089e+00,1.359836698976912395e+01,-1.912805620039131238e+00
2.000000000000024514e+01,2.999999999811417517e+00,9.999999999942589923e+00,6.599999999999532907e-01,1.570000000000046914e+00,2.870000000000006821e+03,-2.174999999999974509e+00,-4.944999999999994955e+00,1.368489527911339465e+01,-2.215222625557437208e+00
2.000000000000019540e+01,2.999999999662591232e+00,1.000000000000135358e+01,6.599999999999881517e-01,1.570000000000051799e+00,2.869999999999996817e+03,-2.174999999999930989e+00,-4.945000000000038476e+00,1.358050669878629257e+01,-2.250340795727591381e+00
1.999999999999937117e+01,2.999999999076120361e+00,9.999999999990786037e+00,6.599999999999982547e-01,1.569999999999983631e+00,2.870000000000003183e+03,-2.174999999999968736e+00,-4.945000000000084661e+00,1.343219778272481868e+01,-2.213653457340305941e+00
1.999999999999945643e+01,2.999999999424513231e+00,9.999999999985769605e+00,6.600000000000175726e-01,1.570000000000012053e+00,2.870000000000000000e+03,-2.174999999999985612e+00,-4.944999999999990514e+00,1.314116590833261888e+01,-2.335552010866166484e+00
2.000000000000005329e+01,3.000000000068358208e+00,1.000000000004203216e+01,6.599999999999746070e-01,1.570000000000097096e+00,2.869999999999993634e+03,-2.174999999999882139e+00,-4.944999999999902585e+00,1.390544565883849870e+01,-1.804987944881709661e+00
2.000000000000003197e+01,2.999999998872099560e+00,1.000000000002161826e+01,6.600000000001570166e-01,1.570000000000063345e+00,2.869999999999991815e+03,-2.174999999999957634e+00,-4.944999999999679652e+00,1.404013514951726549e+01,-1.706434989409753022e+00
1.999999999999982236e+01,2.999999998717605365e+00,1.000000000003611689e+01,6.600000000000227907e-01,1.570000000000032481e+00,2.869999999999988631e+03,-2.174999999999959854e+00,-4.944999999999898144e+00,1.399221153965440401e+01,-1.657302740210969683e+00
1.999999999999951683e+01,3.000000000203436823e+00,1.000000000000914469e+01,6.600000000000081357e-01,1.570000000000064011e+00,2.870000000000000909e+03,-2.174999999999854161e+00,-4.944999999999996732e+00,1.333973433202890035e+01,-2.060450200912532281e+00
1.999999999999953459e+01,2.999999999716071564e+00,1.000000000008101075e+01,6.599999999999790479e-01,1.570000000000066454e+00,2.869999999999999545e+03,-2.174999999999856826e+00,-4.945000000000024265e+00,1.359278419294481743e+01,-2.015869016702453997e+00
1.999999999999939604e+01,2.999999998300147741e+00,1.000000000004376410e+01,6.600000000000152411e-01,1.570000000000074669e+00,2.869999999999992269e+03,-2.174999999999793321e+00,-4.945000000000034035e+00,1.368373046660506809e+01,-1.826692016751068737e+00
1.999999999999956302e+01,2.999999998062341966e+00,1.000000000007089795e+01,6.600000000001062794e-01,1.570000000000050910e+00,2.869999999999999091e+03,-2.174999999999883471e+00,-4.944999999999938112e+00,1.354405661690992346e+01,-2.073937250126216991e+00
1.999999999999923617e+01,2.999999999121677252e+00,1.000000000005465495e+01,6.599999999998902300e-01,1.570000000000027152e+00,2.870000000000000455e+03,-2.174999999999785771e+00,-4.945000000000284501e+00,1.398805262822383355e+01,-1.551898400560281832e+00
1.999999999999938893e+01,2.999999998854613104e+00,1.000000000004338396e+01,6.599999999999904832e-01,1.570000000000090434e+00,2.870000000000000455e+03,-2.174999999999757350e+00,-4.945000000000076668e+00,1.400211168825018504e+01,-1.590186471599234208e+00
2.000000000000011369e+01,2.999999998885889418e+00,1.000000000003916689e+01,6.600000000000308953e-01,1.569999999999943663e+00,2.869999999999987722e+03,-2.175000000000089972e+00,-4.945000000000086438e+00,1.349929633092559200e+01,-2.165184255184757323e+00
1.999999999999995381e+01,2.999999998704763637e+00,1.000000000009439205e+01,6.600000000000270095e-01,1.569999999999979856e+00,2.869999999999988631e+03,-2.175000000000006484e+00,-4.945000000000084661e+00,1.365034099797400557e+01,-1.999461453065486838e+00
1.999999999999937472e+01,2.999999998805674917e+00,1.000000000003353584e+01,6.599999999999679456e-01,1.569999999999992513e+00,2.869999999999996362e+03,-2.174999999999947864e+00,-4.945000000000141505e+00,1.342776814187295820e+01,-2.252550579200301772e+00
1.999999999999945643e+01,2.999999998614119257e+00,1.000000000002050982e+01,6.600000000000580958e-01,1.569999999999992069e+00,2.870000000000000000e+03,-2.174999999999969624e+00,-4.945000000000050022e+00,1.340773696410950677e+01,-2.148389932197543928e+00
1.999999999999948841e+01,2.999999999774587423e+00,1.000000000004567369e+01,6.600000000000643130e-01,1.570000000000100870e+00,2.869999999999999091e+03,-2.174999999999823075e+00,-4.944999999999898144e+00,1.356368881408873683e+01,-2.113734771652856725e+00
1.999999999999962341e+01,2.999999999297894515e+00,9.999999999982549070e+00,6.599999999999861533e-01,1.570000000000054463e+00,2.870000000000003638e+03,-2.174999999999919886e+00,-4.944999999999895479e+00,1.327488576468284620e+01,-2.334229049842879711e+00
1.999999999999975842e+01,2.999999999308300858e+00,9.999999999982195575e+00,6.599999999999681677e-01,1.570000000000027596e+00,2.870000000000001364e+03,-2.174999999999979838e+00,-4.944999999999928342e+00,1.335755991870138537e+01,-2.147767878123313157e+00
1.999999999999920774e+01,2.999999999889173541e+00,9.999999999978417264e+00,6.600000000000021405e-01,1.570000000000056017e+00,2.870000000000020464e+03,-2.174999999999978506e+00,-4.944999999999854623e+00,1.354172413391606788e+01,-1.992376812794682595e+00
1.999999999999982236e+01,2.999999999936585393e+00,1.000000000001032063e+01,6.600000000000862954e-01,1.569999999999993623e+00,2.870000000000001364e+03,-2.175000000000101075e+00,-4.944999999999796891e+00,1.377238201186582778e+01,-1.911603388236750911e+00
1.999999999999946709e+01,2.999999999443565990e+00,9.999999999942032147e+00,6.599999999999557332e-01,1.569999999999928564e+00,2.870000000000025466e+03,-2.175000000000163247e+00,-4.945000000000073115e+00,1.362498273427106454e+01,-2.283717102623027628e+00
1.999999999999984368e+01,3.000000000559690516e+00,9.999999999964192199e+00,6.599999999999537348e-01,1.569999999999841300e+00,2.870000000000007276e+03,-2.175000000000225420e+00,-4.945000000000207230e+00,1.320157869329936062e+01,-2.338070511220614822e+00
2.000000000000005329e+01,3.000000001224988999e+00,1.000000000001130651e+01,6.600000000000018074e-01,1.569999999999855289e+00,2.870000000000000000e+03,-2.175000000000249845e+00,-4.945000000000106866e+00,1.324106041752770402e+01,-2.358719531901206867e+00
1.999999999999970157e+01,3.000000001189984999e+00,1.000000000000325961e+01,6.599999999999184297e-01,1.569999999999915463e+00,2.870000000000015461e+03,-2.175000000000153477e+00,-4.945000000000171703e+00,1.378651119784892565e+01,-1.769329587664507208e+00
1.999999999999982236e+01,3.000000001414758977e+00,1.000000000002146727e+01,6.599999999999449640e-01,1.569999999999982521e+00,2.870000000000010459e+03,-2.175000000000063327e+00,-4.945000000000079332e+00,1.371364396593681434e+01,-1.943802631101228640e+00
1.999999999999992184e+01,2.999999999831099995e+00,1.000000000000630429e+01,6.599999999999270894e-01,1.570000000000056906e+00,2.870000000000004093e+03,-2.174999999999943423e+00,-4.945000000000022489e+00,1.395863427319433647e+01,-1.851193868671905385e+00
1.999999999999985079e+01,2.999999999375703386e+00,9.999999999967478459e+00,6.600000000000106892e-01,1.570000000000085771e+00,2.870000000000010004e+03,-2.174999999999916778e+00,-4.944999999999908802e+00,1.386370683496161860e+01,-1.878162338635774642e+00
2.000000000000029488e+01,3.000000000688125112e+00,1.000000000001375433e+01,6.599999999999870415e-01,1.569999999999971196e+00,2.870000000000005457e+03,-2.175000000000175682e+00,-4.944999999999963869e+00,1.367743188074746818e+01,-2.053839212374464207e+00
1.999999999999982236e+01,2.999999999830484931e+00,9.999999999973756104e+00,6.599999999999024425e-01,1.570000000000011608e+00,2.870000000000020918e+03,-2.175000000000153033e+00,-4.944999999999978968e+00,1.393173046585259023e+01,-1.770858891741695196e+00
2.000000000000015277e+01,3.000000001835446461e+00,9.999999999987711163e+00,6.599999999999729416e-01,1.569999999999916795e+00,2.870000000000012733e+03,-2.175000000000114397e+00,-4.945000000000146834e+00,1.376175925367401476e+01,-2.022864035614384992e+00
2.000000000000002487e+01,3.000000000292846192e+00,9.999999999998307132e+00,6.600000000000115774e-01,1.570000000000074225e+00,2.870000000000008640e+03,-2.174999999999846167e+00,-4.944999999999961204e+00,1.368825330308718868e+01,-2.294793257487968141e+00
2.000000000000026290e+01,3.000000001446232467e+00,1.000000000001817391e+01,6.599999999999457412e-01,1.570000000000028262e+00,2.870000000000001819e+03,-2.174999999999912781e+00,-4.945000000000058904e+00,1.368118981079194540e+01,-2.268022906684495243e+00
2.000000000000019895e+01,3.000000001184871312e+00,9.999999999995186073e+00,6.600000000000209033e-01,1.569999999999985407e+00,2.870000000000007731e+03,-2.175000000000030909e+00,-4.945000000000010942e+00,1.372400211430267092e+01,-2.088450821140932057e+00
2.000000000000014921e+01,3.000000001155686213e+00,1.000000000000045652e+01,6.600000000000469935e-01,1.569999999999976747e+00,2.870000000000005457e+03,-2.175000000000005151e+00,-4.945000000000046469e+00,1.361643961530395863e+01,-2.339350165441322016e+00
2.000000000000029843e+01,3.000000001590823029e+00,1.000000000002531841e+01,6.599999999999804912e-01,1.570000000000019824e+00,2.870000000000006366e+03,-2.175000000000038014e+00,-4.944999999999890150e+00,1.387096968995733626e+01,-2.036746907286713704e+00
2.000000000000045475e+01,3.000000001388533732e+00,1.000000000001903899e+01,6.599999999999794920e-01,1.569999999999924567e+00,2.870000000000003183e+03,-2.175000000000192557e+00,-4.944999999999967422e+00,1.373592196518362840e+01,-2.056268819722688157e+00
2.000000000000046896e+01,3.000000001319171439e+00,1.000000000002997780e+01,6.599999999999424105e-01,1.570000000000055573e+00,2.870000000000000909e+03,-2.175000000000006928e+00,-4.944999999999806661e+00,1.375035430427257133e+01,-2.073933910735752395e+00
2.000000000000044054e+01,3.000000001962940477e+00,1.000000000001326761e+01,6.600000000000597611e-01,1.570000000000095097e+00,2.870000000000010459e+03,-2.174999999999994493e+00,-4.944999999999658336e+00,1.344772837802383592e+01,-2.386722396262178414e+00
1.999999999999973710e+01,2.999999998928782219e+00,9.999999999997971400e+00,6.599999999999894840e-01,1.570000000000024265e+00,2.869999999999997272e+03,-2.174999999999969624e+00,-4.945000000000001172e+00,1.363334656017628888e+01,-2.304570180992622230e+00
1.999999999999980105e+01,2.999999999883713464e+00,1.000000000001996980e+01,6.599999999999647260e-01,1.570000000000004059e+00,2.870000000000003638e+03,-2.175000000000020695e+00,-4.945000000000010942e+00,1.341644253142027488e+01,-2.484625552713271013e+00
1.999999999999996803e+01,3.000000000179884108e+00,1.000000000000243183e+01,6.599999999999676126e-01,1.570000000000004725e+00,2.869999999999998636e+03,-2.175000000000033129e+00,-4.944999999999962981e+00,1.351451234097746834e+01,-2.364129104232055578e+00
1.999999999999981171e+01,2.999999999186680810e+00,1.000000000001422507e+01,6.599999999999667244e-01,1.570000000000004503e+00,2.869999999999996817e+03,-2.175000000000011813e+00,-4.944999999999996732e+00,1.331612511741886173e+01,-2.543662531470749499e+00
2.000000000000049738e+01,2.999999999928225414e+00,9.999999999950251350e+00,6.600000000000136868e-01,1.569999999999954321e+00,2.870000000000007731e+03,-2.175000000000121947e+00,-4.944999999999998508e+00,1.337903175898773789e+01,-2.402120180410526107e+00
1.999999999999991473e+01,2.999999999702195996e+00,1.000000000003794653e+01,6.599999999999801581e-01,1.570000000000036255e+00,2.869999999999987722e+03,-2.174999999999930544e+00,-4.944999999999998508e+00,1.362802470782754405e+01,-2.209024008008729112e+00
2.000000000000011013e+01,2.999999999625118097e+00,1.000000000005567991e+01,6.600000000000113554e-01,1.570000000000046025e+00,2.869999999999988177e+03,-2.174999999999959410e+00,-4.944999999999932783e+00,1.369510794776266316e+01,-2.139854019306497435e+00
2.000000000000046185e+01,2.999999999128734718e+00,9.999999999996722622e+00,6.599999999999659472e-01,1.570000000000058460e+00,2.869999999999997726e+03,-2.174999999999947864e+00,-4.944999999999797780e+00,1.295372693462622316e+01,-2.598288964560347747e+00
2.000000000000054712e+01,2.999999999007926466e+00,1.000000000003521805e+01,6.600000000000216804e-01,1.570000000000022267e+00,2.869999999999989541e+03,-2.175000000000028688e+00,-4.944999999999867057e+00,1.401342757270137795e+01,-1.901042068496834547e+00
2.000000000000051514e+01,2.999999999161576447e+00,1.000000000005193712e+01,6.599999999999817124e-01,1.569999999999968976e+00,2.869999999999991815e+03,-2.175000000000109068e+00,-4.944999999999999396e+00,1.393767785419152005e+01,-1.990530703113043476e+00
2.000000000000054712e+01,2.999999999426367747e+00,1.000000000003501732e+01,6.599999999999187628e-01,1.569999999999974527e+00,2.869999999999989541e+03,-2.175000000000069544e+00,-4.945000000000059792e+00,1.379028833046558589e+01,-2.073271857269138874e+00
2.000000000000052580e+01,2.999999999638591763e+00,1.000000000005910472e+01,6.600000000000032507e-01,1.569999999999979856e+00,2.869999999999992724e+03,-2.175000000000081091e+00,-4.944999999999959428e+00,1.369515926065027500e+01,-2.055777645240016493e+00
2.000000000000030553e+01,2.999999999948263163e+00,9.999999999975610621e+00,6.600000000000747491e-01,1.569999999999972307e+00,2.870000000000001819e+03,-2.175000000000109512e+00,-4.944999999999861728e+00,1.346276424611861877e+01,-2.004677982022173843e+00
2.000000000000035172e+01,3.000000000223378205e+00,1.000000000000748557e+01,6.600000000000308953e-01,1.569999999999985629e+00,2.869999999999999545e+03,-2.175000000000088640e+00,-4.944999999999921236e+00,1.367991753276064770e+01,-1.973435901656606761e+00
2.000000000000047962e+01,3.000000000852526050e+00,1.000000000005237766e+01,6.599999999999517364e-01,1.569999999999993845e+00,2.869999999999996362e+03,-2.175000000000115286e+00,-4.944999999999953211e+00,1.370143131128978098e+01,-2.149219785623869061e+00
2.000000000000049738e+01,3.000000001045540543e+00,1.000000000006278711e+01,6.599999999999329736e-01,1.570000000000011831e+00,2.869999999999999545e+03,-2.175000000000091749e+00,-4.944999999999907025e+00,1.401346631728823056e+01,-1.933400837438336239e+00
2.000000000000033751e+01,3.000000000268134848e+00,1.000000000002242295e+01,6.599999999998968914e-01,1.570000000000022045e+00,2.869999999999998181e+03,-2.175000000000028688e+00,-4.944999999999987850e+00,1.380375592429015619e+01,-2.038266922996051278e+00
2.000000000000044054e+01,3.000000000338941764e+00,1.000000000002721201e+01,6.599999999999314193e-01,1.570000000000030482e+00,2.870000000000000909e+03,-2.175000000000036682e+00,-4.944999999999907025e+00,1.378941984413498290e+01,-2.110267484277031702e+00
2.000000000000025935e+01,3.000000001983226916e+00,1.000000000003344169e+01,6.599999999999820455e-01,1.569999999999986295e+00,2.870000000000001819e+03,-2.175000000000063327e+00,-4.945000000000011831e+00,1.382692124924702526e+01,-2.023814042574143102e+00
2.000000000000060041e+01,3.000000000388686416e+00,1.000000000002948752e+01,6.599999999999970335e-01,1.570000000000081330e+00,2.869999999999992724e+03,-2.174999999999976286e+00,-4.944999999999821760e+00,1.367137635679233654e+01,-2.167441227989298724e+00
2.000000000000031974e+01,2.999999999164372877e+00,1.000000000005137046e+01,6.599999999999697220e-01,1.569999999999924123e+00,2.870000000000001364e+03,-2.175000000000157474e+00,-4.945000000000131735e+00,1.365195465103085581e+01,-1.969343084723679027e+00
1.999999999999992184e+01,3.000000001481754275e+00,1.000000000007098500e+01,6.600000000001449152e-01,1.570000000000127072e+00,2.869999999999989996e+03,-2.174999999999809308e+00,-4.944999999999744489e+00,1.355688350001359055e+01,-2.074238424607001363e+00
2.000000000000003197e+01,3.000000000680170587e+00,1.000000000006941292e+01,6.600000000000362244e-01,1.570000000000067564e+00,2.869999999999987267e+03,-2.174999999999862155e+00,-4.944999999999889262e+00,1.363530269225472402e+01,-1.969177511728694041e+00
2.000000000000087752e+01,3.000000001114059955e+00,1.000000000001543476e+01,6.600000000000105782e-01,1.569999999999961204e+00,2.869999999999981810e+03,-2.175000000000072653e+00,-4.945000000000014495e+00,1.344605980050180172e+01,-2.074154699233240695e+00
2.000000000000053291e+01,3.000000001791189863e+00,9.999999999980175858e+00,6.599999999999639488e-01,1.569999999999948548e+00,2.869999999999994088e+03,-2.175000000000113065e+00,-4.944999999999970086e+00,1.364974750847322760e+01,-2.193479040854632522e+00
2.000000000000072120e+01,2.999999998935162449e+00,9.999999999923536720e+00,6.599999999999761613e-01,1.569999999999876161e+00,2.870000000000004547e+03,-2.175000000000231193e+00,-4.945000000000106866e+00,1.379520070951638111e+01,-2.138219384974135551e+00
2.000000000000072475e+01,2.999999999341457446e+00,9.999999999936198591e+00,6.599999999999967004e-01,1.570000000000026708e+00,2.869999999999998181e+03,-2.175000000000003375e+00,-4.944999999999892815e+00,1.390743634475838419e+01,-2.019577304316383159e+00
2.000000000000061107e+01,2.999999999649791693e+00,9.999999999909780612e+00,6.599999999999229816e-01,1.569999999999907914e+00,2.870000000000008185e+03,-2.175000000000198330e+00,-4.945000000000069562e+00,1.394466453016945096e+01,-2.004486499187597914e+00
2.000000000000058265e+01,2.999999999029806297e+00,9.999999999911123538e+00,6.600000000000061373e-01,1.569999999999945883e+00,2.870000000000001819e+03,-2.175000000000112177e+00,-4.945000000000018048e+00,1.359184066692648685e+01,-2.281598460738194944e+00
2.000000000000092015e+01,3.000000000049291238e+00,9.999999999946137308e+00,6.599999999999448530e-01,1.569999999999908358e+00,2.869999999999998636e+03,-2.175000000000184119e+00,-4.945000000000085549e+00,1.392031604065521755e+01,-1.978848360817767160e+00
1.999999999999990763e+01,2.999999998953824409e+00,1.000000000000918732e+01,6.599999999999937028e-01,1.569999999999984297e+00,2.870000000000000000e+03,-2.174999999999975397e+00,-4.945000000000073115e+00,1.363995912760102946e+01,-2.044131685797597964e+00
2.000000000000040856e+01,3.000000003107241575e+00,1.000000000003682921e+01,6.599999999999350830e-01,1.569999999999959650e+00,2.869999999999995907e+03,-2.175000000000133937e+00,-4.945000000000086438e+00,1.392628944740762087e+01,-1.882709453997930993e+00
1.999999999999985789e+01,2.999999999896038272e+00,1.000000000004978240e+01,6.600000000000364464e-01,1.570000000000033369e+00,2.869999999999990450e+03,-2.174999999999907008e+00,-4.944999999999909690e+00,1.360247667676181038e+01,-1.958051435287556430e+00
2.000000000000055778e+01,3.000000000228710828e+00,1.000000000002137135e+01,6.599999999999620615e-01,1.569999999999844409e+00,2.869999999999989996e+03,-2.175000000000212985e+00,-4.945000000000306706e+00,1.312582481133372525e+01,-2.600180943841931658e+00
2.000000000000057909e+01,3.000000000107208020e+00,1.000000000000902212e+01,6.599999999999771605e-01,1.569999999999957430e+00,2.869999999999992269e+03,-2.175000000000111289e+00,-4.945000000000048246e+00,1.347809074412477415e+01,-2.234991325022796183e+00
2.000000000000046896e+01,3.000000000921964283e+00,1.000000000004936673e+01,6.599999999999786038e-01,1.570000000000031815e+00,2.869999999999986358e+03,-2.174999999999976286e+00,-4.945000000000007390e+00,1.406737690034695909e+01,-2.070594987747405025e+00
2.000000000000052580e+01,3.000000000893021213e+00,1.000000000002498624e+01,6.600000000000308953e-01,1.569999999999913243e+00,2.869999999999996362e+03,-2.175000000000173017e+00,-4.945000000000131735e+00,1.397538466856889627e+01,-2.250375053143246706e+00
2.000000000000039435e+01,3.000000000581473980e+00,1.000000000000920686e+01,6.599999999999742739e-01,1.569999999999947660e+00,2.870000000000002728e+03,-2.175000000000151701e+00,-4.945000000000069562e+00,1.418499503956450702e+01,-2.026735496722959162e+00
2.000000000000035527e+01,3.000000001020877605e+00,1.000000000004042811e+01,6.599999999999546230e-01,1.569999999999916129e+00,2.869999999999996362e+03,-2.175000000000148148e+00,-4.945000000000209006e+00,1.392972606581476036e+01,-2.264476602436588770e+00
2.000000000000010658e+01,3.000000000679210910e+00,9.999999999999550582e+00,6.600000000000133538e-01,1.570000000000029816e+00,2.869999999999994998e+03,-2.174999999999971845e+00,-4.945000000000032259e+00,1.394875414903273914e+01,-2.205216125579879449e+00
1.999999999999977973e+01,3.000000001548063011e+00,1.000000000002413358e+01,6.599999999999912603e-01,1.570000000000068230e+00,2.869999999999989996e+03,-2.174999999999847500e+00,-4.944999999999998508e+00,1.337950193440936175e+01,-2.162153359063357705e+00
1.999999999999969091e+01,3.000000000837105052e+00,1.000000000001265299e+01,6.599999999999500711e-01,1.570000000000092877e+00,2.869999999999989996e+03,-2.174999999999795097e+00,-4.944999999999993179e+00,1.338183966193315477e+01,-2.128702948454685551e+00
2.000000000000050093e+01,2.999999999905121228e+00,9.999999999987100097e+00,6.599999999999656142e-01,1.570000000000098872e+00,2.870000000000001819e+03,-2.174999999999923439e+00,-4.944999999999841300e+00,1.291254417308667257e+01,-2.635967093042384413e+00
2.000000000000058620e+01,2.999999999926028504e+00,9.999999999986247445e+00,6.599999999999441869e-01,1.570000000000047802e+00,2.869999999999994543e+03,-2.174999999999982059e+00,-4.944999999999955875e+00,1.302005734667187831e+01,-2.543201928658389122e+00
1.999999999999996803e+01,3.000000000066990413e+00,1.000000000006376766e+01,6.599999999999713873e-01,1.569999999999966978e+00,2.870000000000003183e+03,-2.175000000000023359e+00,-4.945000000000072227e+00,1.391918387541555369e+01,-2.024737210143566113e+00
1.999999999999981171e+01,3.000000000687642832e+00,1.000000000006197709e+01,6.600000000000553202e-01,1.569999999999939222e+00,2.869999999999997272e+03,-2.175000000000032241e+00,-4.945000000000122853e+00,1.353924152546687054e+01,-2.348316550934873792e+00
1.999999999999952038e+01,3.000000001262244531e+00,1.000000000006732392e+01,6.600000000000321165e-01,1.570000000000032259e+00,2.869999999999998181e+03,-2.174999999999851941e+00,-4.945000000000097984e+00,1.353614198141104730e+01,-2.384949094210124354e+00
1.999999999999995381e+01,2.999999999392447769e+00,1.000000000004333423e+01,6.600000000000770806e-01,1.569999999999979856e+00,2.869999999999997272e+03,-2.175000000000018474e+00,-4.944999999999978080e+00,1.350958243101202072e+01,-2.366947132915742547e+00
2.000000000000010658e+01,2.999999999201836243e+00,1.000000000001079492e+01,6.600000000000234568e-01,1.570000000000047580e+00,2.869999999999993634e+03,-2.174999999999951861e+00,-4.944999999999908802e+00,1.319697284279275706e+01,-2.653395637447719224e+00
1.999999999999995737e+01,3.000000000005275780e+00,1.000000000002193268e+01,6.600000000000649791e-01,1.570000000000062901e+00,2.870000000000001819e+03,-2.174999999999919886e+00,-4.944999999999858176e+00,1.320617356003267950e+01,-2.588569491207881157e+00
2.000000000000014566e+01,2.999999998461214901e+00,9.999999999999991118e+00,6.600000000000220135e-01,1.569999999999947216e+00,2.869999999999991815e+03,-2.175000000000046008e+00,-4.945000000000152163e+00,1.357781207113797706e+01,-2.266624799311828475e+00
2.000000000000016698e+01,2.999999998540673563e+00,1.000000000002200018e+01,6.599999999999717204e-01,1.569999999999924123e+00,2.869999999999985448e+03,-2.175000000000062883e+00,-4.945000000000237428e+00,1.367180469771100704e+01,-2.231155325069979600e+00
2.000000000000033751e+01,2.999999998514867094e+00,1.000000000004609113e+01,6.600000000000340039e-01,1.569999999999984075e+00,2.869999999999986812e+03,-2.175000000000024247e+00,-4.945000000000080220e+00,1.350005059770898797e+01,-2.242212294698592068e+00
1.999999999999942446e+01,3.000000001546207162e+00,9.999999999980461851e+00,6.600000000000234568e-01,1.570000000000071561e+00,2.869999999999989086e+03,-2.174999999999795985e+00,-4.945000000000074891e+00,1.338147026138532603e+01,-2.174675099818190294e+00
1.999999999999954881e+01,3.000000001779858039e+00,1.000000000000054357e+01,6.599999999999847100e-01,1.569999999999992513e+00,2.869999999999987267e+03,-2.174999999999921663e+00,-4.945000000000189466e+00,1.403967992710435375e+01,-1.703659193580717490e+00
2.000000000000028066e+01,3.000000000057495342e+00,9.999999999994319211e+00,6.599999999999879297e-01,1.570000000000017826e+00,2.870000000000002728e+03,-2.174999999999982059e+00,-4.944999999999969198e+00,1.369201905508641026e+01,-1.902517339491356374e+00
2.000000000000071410e+01,3.000000000946057011e+00,9.999999999973809395e+00,6.599999999999793809e-01,1.569999999999927454e+00,2.869999999999998181e+03,-2.175000000000125500e+00,-4.945000000000102425e+00,1.380704019838723440e+01,-1.855750381649091230e+00
2.000000000000067502e+01,3.000000003761490674e+00,9.999999999993729460e+00,6.599999999999631717e-01,1.569999999999969198e+00,2.870000000000002728e+03,-2.175000000000134381e+00,-4.944999999999914131e+00,1.362837023543032799e+01,-1.939244509456421683e+00
1.999999999999978684e+01,2.999999998155461700e+00,9.999999999974322762e+00,6.600000000000544320e-01,1.570000000000137286e+00,2.869999999999992724e+03,-2.174999999999849276e+00,-4.944999999999672546e+00,1.370310473086149017e+01,-2.226024139874107632e+00
2.000000000000004263e+01,2.999999998554423009e+00,9.999999999953629981e+00,6.600000000000790790e-01,1.569999999999912133e+00,2.869999999999992724e+03,-2.175000000000189893e+00,-4.944999999999973639e+00,1.380820194806145196e+01,-2.086191510837556162e+00
1.999999999999964473e+01,2.999999998096419151e+00,9.999999999947553064e+00,6.599999999999925926e-01,1.569999999999910356e+00,2.869999999999997272e+03,-2.175000000000159250e+00,-4.945000000000076668e+00,1.362004838391225903e+01,-2.296554904086031801e+00
1.999999999999990763e+01,2.999999998113423327e+00,9.999999999940001771e+00,6.600000000001764455e-01,1.569999999999982965e+00,2.870000000000003638e+03,-2.175000000000135270e+00,-4.944999999999742712e+00,1.377253541693005445e+01,-2.114057949588067586e+00
1.999999999999978684e+01,3.000000000129055877e+00,9.999999999979845455e+00,6.600000000000065814e-01,1.570000000000000728e+00,2.869999999999992724e+03,-2.175000000000006484e+00,-4.944999999999994955e+00,1.321255778817749871e+01,-2.173265465386023276e+00
2.000000000000006750e+01,2.999999999797237749e+00,9.999999999993034905e+00,6.600000000000888489e-01,1.570000000000114415e+00,2.869999999999985448e+03,-2.174999999999863043e+00,-4.944999999999743601e+00,1.326058250972233488e+01,-2.321902367163098280e+00
2.000000000000014211e+01,3.000000000175460091e+00,9.999999999954724217e+00,6.600000000000189049e-01,1.570000000000088436e+00,2.869999999999983629e+03,-2.174999999999907896e+00,-4.944999999999836859e+00,1.327877150369298676e+01,-2.219995650411138222e+00
1.999999999999973710e+01,3.000000001708036823e+00,9.999999999961705299e+00,6.600000000000973976e-01,1.570000000000067342e+00,2.869999999999989086e+03,-2.174999999999962075e+00,-4.944999999999851958e+00,1.360184740901808098e+01,-2.247799070325798620e+00
1.999999999999947775e+01,3.000000000736943395e+00,9.999999999969425346e+00,6.600000000000275646e-01,1.570000000000026041e+00,2.869999999999988631e+03,-2.174999999999959410e+00,-4.945000000000047358e+00,1.360778598370187176e+01,-2.297890853500382580e+00
1.999999999999956657e+01,3.000000001747594514e+00,9.999999999952555285e+00,6.600000000000155742e-01,1.570000000000010054e+00,2.869999999999996362e+03,-2.175000000000022915e+00,-4.945000000000029594e+00,1.381614380182047697e+01,-2.113057117874198365e+00
1.999999999999986855e+01,3.000000002287647849e+00,9.999999999984677146e+00,6.599999999999477396e-01,1.569999999999948326e+00,2.869999999999985903e+03,-2.175000000000105516e+00,-4.945000000000160156e+00,1.373719110653832587e+01,-2.171054726830251802e+00
1.999999999999966249e+01,3.000000001870897659e+00,9.999999999991288746e+00,6.600000000000332268e-01,1.570000000000079554e+00,2.869999999999988177e+03,-2.174999999999923439e+00,-4.944999999999937224e+00,1.366917277384042961e+01,-2.351478649505783558e+00
1.999999999999934630e+01,3.000000000869630146e+00,9.999999999968363085e+00,6.599999999999828226e-01,1.570000000000115969e+00,2.870000000000001364e+03,-2.174999999999841283e+00,-4.944999999999861728e+00,1.355751943088128364e+01,-2.011285133972657402e+00
1.999999999999949907e+01,3.000000000942673939e+00,9.999999999917983828e+00,6.599999999999019984e-01,1.570000000000029150e+00,2.869999999999996362e+03,-2.174999999999862155e+00,-4.945000000000158380e+00,1.344410098778085150e+01,-2.470472136818179454e+00
1.999999999999977618e+01,3.000000001232222324e+00,9.999999999955443641e+00,6.599999999999864864e-01,1.570000000000015827e+00,2.869999999999998181e+03,-2.174999999999963407e+00,-4.945000000000025153e+00,1.323343096731649382e+01,-2.703126135926313012e+00
1.999999999999973355e+01,3.000000000456419791e+00,9.999999999953535834e+00,6.599999999999945910e-01,1.570000000000043139e+00,2.870000000000000000e+03,-2.174999999999912337e+00,-4.944999999999994067e+00,1.340299803037515503e+01,-2.451448867787102692e+00
1.999999999999996092e+01,3.000000000878485729e+00,9.999999999978912868e+00,6.599999999999783817e-01,1.570000000000021156e+00,2.869999999999997726e+03,-2.174999999999918554e+00,-4.944999999999994955e+00,1.334421153496949231e+01,-2.451837251419332731e+00
2.000000000000008171e+01,3.000000000766316344e+00,9.999999999986494359e+00,6.600000000000554312e-01,1.569999999999883045e+00,2.869999999999991815e+03,-2.175000000000129496e+00,-4.945000000000161045e+00,1.337719535411563143e+01,-2.501585134318289771e+00
1.999999999999998224e+01,3.000000001409225625e+00,9.999999999978847143e+00,6.600000000000446621e-01,1.570000000000060236e+00,2.869999999999992724e+03,-2.174999999999870148e+00,-4.944999999999941664e+00,1.338020624474878240e+01,-2.475072732096786243e+00
2.000000000000016342e+01,3.000000000670531630e+00,9.999999999992065014e+00,6.600000000000874056e-01,1.570000000000023377e+00,2.869999999999988177e+03,-2.174999999999926992e+00,-4.944999999999968310e+00,1.348753654591079965e+01,-2.455879958261697471e+00
2.000000000000000711e+01,3.000000001313004372e+00,9.999999999968608222e+00,6.599999999999044409e-01,1.569999999999981855e+00,2.870000000000002728e+03,-2.175000000000024247e+00,-4.945000000000073115e+00,1.368269387044373175e+01,-2.252513053794144682e+00
2.000000000000004619e+01,3.000000001799075999e+00,1.000000000000703437e+01,6.599999999999639488e-01,1.569999999999983409e+00,2.869999999999997272e+03,-2.175000000000036238e+00,-4.945000000000042029e+00,1.371332157147219810e+01,-2.204646247556226957e+00
1.999999999999982947e+01,3.000000001732580746e+00,9.999999999985986321e+00,6.600000000000271205e-01,1.570000000000044471e+00,2.869999999999995453e+03,-2.174999999999895461e+00,-4.945000000000023377e+00,1.356152513279227811e+01,-2.325816153797333197e+00
2.000000000000027001e+01,3.000000001696589536e+00,9.999999999986094679e+00,6.600000000000481037e-01,1.570000000000075557e+00,2.869999999999996362e+03,-2.174999999999960743e+00,-4.944999999999802220e+00,1.373415071737942661e+01,-2.139219898373726725e+00
2.000000000000006040e+01,3.000000001403056338e+00,9.999999999959623409e+00,6.600000000001008393e-01,1.569999999999962537e+00,2.869999999999993179e+03,-2.175000000000118838e+00,-4.944999999999972751e+00,1.363527452694752817e+01,-2.404550770190040154e+00
1.999999999999961986e+01,3.000000000960187929e+00,9.999999999964918729e+00,6.599999999999615063e-01,1.569999999999903917e+00,2.869999999999997726e+03,-2.175000000000119282e+00,-4.945000000000251639e+00,1.369540477492189900e+01,-2.170648781812368089e+00
1.999999999999954881e+01,2.999999999287897179e+00,1.000000000000627409e+01,6.599999999999803801e-01,1.569999999999965201e+00,2.870000000000003183e+03,-2.175000000000020695e+00,-4.945000000000074003e+00,1.370750152254690057e+01,-1.779536634455547439e+00
2.000000000000037659e+01,2.999999999451691046e+00,1.000000000001516831e+01,6.600000000000312284e-01,1.569999999999867279e+00,2.869999999999998636e+03,-2.175000000000266720e+00,-4.945000000000169926e+00,1.387484346501613963e+01,-2.055974651511712548e+00
2.000000000000028066e+01,2.999999998724777406e+00,1.000000000000739142e+01,6.599999999999754952e-01,1.570000000000057350e+00,2.869999999999993179e+03,-2.174999999999988276e+00,-4.944999999999870610e+00,1.388744016033609263e+01,-1.942675854112249301e+00
2.000000000000030553e+01,2.999999999136921058e+00,9.999999999990858868e+00,6.599999999998854561e-01,1.569999999999948548e+00,2.869999999999989086e+03,-2.175000000000131273e+00,-4.945000000000147722e+00,1.384910621641603790e+01,-2.079781215237006986e+00
2.000000000000031264e+01,2.999999998273069846e+00,9.999999999990745181e+00,6.599999999999663913e-01,1.570000000000019824e+00,2.869999999999997272e+03,-2.175000000000064215e+00,-4.944999999999948770e+00,1.366660950873946589e+01,-2.164793044149063483e+00
1.999999999999884182e+01,3.000000003095105061e+00,9.999999999968864017e+00,6.599999999999395239e-01,1.570000000000072893e+00,2.869999999999994998e+03,-2.174999999999728484e+00,-4.945000000000147722e+00,1.332219938281226668e+01,-2.370861691179573683e+00
1.999999999999898392e+01,3.000000000220035545e+00,9.999999999977466913e+00,6.599999999999281997e-01,1.569999999999942553e+00,2.870000000000011823e+03,-2.175000000000055334e+00,-4.945000000000137064e+00,1.340851647952502468e+01,-2.082532758605761369e+00
1.999999999999917222e+01,3.000000000327236460e+00,1.000000000001018208e+01,6.599999999999981437e-01,1.569999999999980522e+00,2.870000000000008185e+03,-2.175000000000009592e+00,-4.945000000000021600e+00,1.355174874539375018e+01,-2.047772948147641880e+00
2.000000000000009237e+01,3.000000002885234718e+00,1.000000000001477041e+01,6.599999999998990008e-01,1.569999999999974083e+00,2.870000000000002728e+03,-2.175000000000010481e+00,-4.945000000000145945e+00,1.349359454075348275e+01,-2.022167585195572492e+00
2.000000000000029843e+01,3.000000001090700863e+00,1.000000000001339728e+01,6.600000000000243450e-01,1.569999999999893037e+00,2.870000000000000000e+03,-2.175000000000129941e+00,-4.945000000000226770e+00,1.352037343582273721e+01,-2.024638876220778094e+00
1.999999999999984368e+01,3.000000001727184173e+00,1.000000000000768807e+01,6.600000000000300071e-01,1.570000000000056906e+00,2.870000000000004547e+03,-2.174999999999867928e+00,-4.945000000000023377e+00,1.369173751943301376e+01,-1.783469818957899244e+00
2.000000000000005329e+01,2.999999999581397958e+00,1.000000000000572697e+01,6.599999999999989209e-01,1.569999999999965867e+00,2.870000000000007276e+03,-2.175000000000097522e+00,-4.944999999999946105e+00,1.358517915986315749e+01,-2.132747246510870553e+00
2.000000000000052935e+01,3.000000002320147185e+00,9.999999999995450750e+00,6.600000000000241229e-01,1.569999999999870832e+00,2.869999999999996817e+03,-2.175000000000289813e+00,-4.945000000000063345e+00,1.351765088091717715e+01,-2.277283926611166187e+00
2.000000000000014211e+01,3.000000000310694137e+00,1.000000000001183054e+01,6.599999999999724976e-01,1.569999999999931006e+00,2.870000000000009550e+03,-2.175000000000158806e+00,-4.945000000000055351e+00,1.385955944954439012e+01,-1.670099239506343203e+00
2.000000000000015632e+01,2.999999999937114747e+00,1.000000000002580514e+01,6.600000000000042499e-01,1.569999999999929452e+00,2.870000000000001364e+03,-2.175000000000120171e+00,-4.945000000000093543e+00,1.390792357556067138e+01,-1.651980448632267118e+00
2.000000000000075318e+01,3.000000000713369808e+00,1.000000000001916867e+01,6.600000000000212363e-01,1.569999999999939000e+00,2.870000000000001364e+03,-2.175000000000215206e+00,-4.944999999999903473e+00,1.422594129281880804e+01,-1.271377295382048356e+00
2.000000000000073186e+01,2.999999998889723685e+00,1.000000000001382716e+01,6.599999999999578426e-01,1.569999999999926121e+00,2.870000000000000000e+03,-2.175000000000227196e+00,-4.944999999999923901e+00,1.429977149145226001e+01,-1.191852538214443369e+00
2.000000000000031619e+01,2.999999998861023531e+00,1.000000000002341061e+01,6.599999999999944800e-01,1.569999999999888374e+00,2.870000000000008185e+03,-2.175000000000261835e+00,-4.945000000000103313e+00,1.394271292705290399e+01,-1.691965316350910076e+00
2.000000000000023093e+01,2.999999999738431899e+00,1.000000000004942002e+01,6.599999999999904832e-01,1.569999999999960094e+00,2.870000000000009550e+03,-2.175000000000151701e+00,-4.945000000000003837e+00,1.385652157473304413e+01,-1.827562376293499380e+00
2.000000000000068923e+01,2.999999999792335448e+00,1.000000000002167866e+01,6.600000000000576517e-01,1.569999999999890594e+00,2.870000000000004093e+03,-2.175000000000251177e+00,-4.945000000000024265e+00,1.452120293103733495e+01,-1.435361821953892836e+00
2.000000000000040146e+01,3.000000000269926748e+00,9.999999999983709031e+00,6.600000000000234568e-01,1.569999999999841300e+00,2.870000000000005912e+03,-2.175000000000293365e+00,-4.945000000000133511e+00,1.445973268779672516e+01,-1.420140396681922601e+00
2.000000000000062528e+01,3.000000000153575819e+00,1.000000000001509903e+01,6.599999999999607292e-01,1.569999999999933227e+00,2.869999999999994998e+03,-2.175000000000145040e+00,-4.945000000000081997e+00,1.448072872403239053e+01,-1.415467796911887399e+00
1.999999999999941380e+01,2.999999999754535018e+00,1.000000000006728307e+01,6.599999999999958122e-01,1.570000000000020268e+00,2.869999999999998636e+03,-2.174999999999987388e+00,-4.944999999999902585e+00,1.442846198091686993e+01,-1.400356863894128390e+00
1.999999999999962697e+01,3.000000000132618805e+00,1.000000000001648459e+01,6.600000000000817435e-01,1.570000000000134843e+00,2.870000000000001364e+03,-2.174999999999815525e+00,-4.944999999999646789e+00,1.399924422849437988e+01,-1.632428901450475367e+00
2.000000000000005684e+01,3.000000000763287211e+00,9.999999999975090148e+00,6.600000000000096900e-01,1.569999999999939000e+00,2.870000000000005457e+03,-2.175000000000121503e+00,-4.945000000000075779e+00,1.453303808031872713e+01,-1.271174301326882583e+00
2.000000000000015277e+01,3.000000001514047998e+00,9.999999999992644106e+00,6.599999999999498490e-01,1.569999999999860618e+00,2.870000000000000455e+03,-2.175000000000229416e+00,-4.945000000000241869e+00,1.447299635697990183e+01,-1.493613657597559374e+00
2.000000000000006750e+01,3.000000001433896113e+00,9.999999999975429432e+00,6.599999999999948130e-01,1.569999999999839080e+00,2.870000000000007276e+03,-2.175000000000255618e+00,-4.945000000000257856e+00,1.463825049778100862e+01,-1.306280643459805324e+00
2.000000000000050449e+01,2.999999999633518488e+00,1.000000000007971046e+01,6.600000000000654232e-01,1.569999999999985629e+00,2.869999999999990450e+03,-2.175000000000072653e+00,-4.944999999999951434e+00,1.402276473420882219e+01,-1.514951341382777983e+00
2.000000000000055067e+01,3.000000000800894906e+00,1.000000000006054535e+01,6.600000000000224576e-01,1.570000000000097984e+00,2.869999999999989996e+03,-2.174999999999907008e+00,-4.944999999999778240e+00,1.396608364219045129e+01,-1.544630316091993194e+00
2.000000000000033040e+01,3.000000000163863589e+00,1.000000000000263256e+01,6.599999999999893729e-01,1.569999999999916795e+00,2.869999999999997726e+03,-2.175000000000174349e+00,-4.945000000000079332e+00,1.406635406695384916e+01,-1.688595978872768244e+00
2.000000000000000711e+01,2.999999999846620913e+00,9.999999999982218668e+00,6.599999999999511813e-01,1.569999999999958984e+00,2.870000000000009095e+03,-2.175000000000125056e+00,-4.945000000000021600e+00,1.400571182597415643e+01,-1.776086454943947679e+00
2.000000000000023093e+01,2.999999999931091121e+00,9.999999999995665689e+00,6.600000000000112443e-01,1.569999999999979412e+00,2.870000000000001364e+03,-2.175000000000110845e+00,-4.944999999999933671e+00,1.401902832007815469e+01,-1.801855380528362804e+00
1.999999999999967315e+01,3.000000004311717650e+00,1.000000000002603429e+01,6.600000000000088018e-01,1.569999999999906137e+00,2.870000000000001819e+03,-2.175000000000200995e+00,-4.944999999999983409e+00,1.370084864970287164e+01,-1.901085567828351808e+00
1.999999999999938538e+01,3.000000004599278292e+00,1.000000000005021761e+01,6.600000000000455502e-01,1.570000000000037144e+00,2.869999999999993634e+03,-2.174999999999953193e+00,-4.944999999999861728e+00,1.348251398132774881e+01,-1.981447649977285730e+00
1.999999999999956657e+01,2.999999999968463005e+00,9.999999999944863660e+00,6.600000000000266764e-01,1.569999999999961204e+00,2.870000000000015461e+03,-2.175000000000066880e+00,-4.944999999999997620e+00,1.344651609458307284e+01,-2.216446692807763963e+00
1.999999999999963407e+01,3.000000001324750531e+00,9.999999999935445416e+00,6.600000000000405542e-01,1.569999999999969420e+00,2.870000000000010459e+03,-2.175000000000060218e+00,-4.944999999999990514e+00,1.345104564798224978e+01,-2.230003197715005214e+00
1.999999999999941735e+01,3.000000001976654396e+00,9.999999999994667377e+00,6.600000000000085798e-01,1.570000000000039142e+00,2.870000000000003183e+03,-2.174999999999926548e+00,-4.944999999999907025e+00,1.382049056314341762e+01,-1.864940285629760774e+00
1.999999999999941735e+01,3.000000001074412115e+00,1.000000000000937739e+01,6.600000000000540989e-01,1.570000000000060458e+00,2.869999999999999545e+03,-2.174999999999914113e+00,-4.944999999999796003e+00,1.375390531424754670e+01,-1.762897439510616282e+00
1.999999999999927880e+01,3.000000000714956983e+00,9.999999999938374629e+00,6.600000000000328937e-01,1.570000000000090212e+00,2.870000000000006821e+03,-2.174999999999768452e+00,-4.944999999999875051e+00,1.376289740934819683e+01,-2.007762724281949573e+00
1.999999999999966249e+01,3.000000000089645624e+00,9.999999999977539744e+00,6.599999999999683897e-01,1.569999999999984075e+00,2.869999999999997726e+03,-2.174999999999997602e+00,-4.945000000000074003e+00,1.337811301875145986e+01,-2.293068482120615759e+00
1.999999999999955591e+01,2.999999999862937639e+00,9.999999999942820850e+00,6.600000000000081357e-01,1.569999999999938778e+00,2.870000000000006366e+03,-2.175000000000079314e+00,-4.945000000000077556e+00,1.331533898572301311e+01,-2.216902347014769070e+00
1.999999999999954170e+01,2.999999999012342933e+00,9.999999999959857888e+00,6.600000000000407763e-01,1.570000000000003615e+00,2.870000000000003638e+03,-2.174999999999991385e+00,-4.944999999999968310e+00,1.340867084164266920e+01,-2.151475026956896297e+00
1.999999999999943157e+01,3.000000000733679784e+00,9.999999999943659290e+00,6.599999999999812683e-01,1.570000000000076001e+00,2.870000000000000000e+03,-2.174999999999850608e+00,-4.944999999999899920e+00,1.331217345817167264e+01,-2.292260632616264893e+00
1.999999999999960210e+01,3.000000000896673402e+00,9.999999999974239273e+00,6.600000000000079137e-01,1.569999999999964535e+00,2.870000000000002728e+03,-2.175000000000047340e+00,-4.945000000000019824e+00,1.320646246984840566e+01,-2.278566628804445937e+00
1.999999999999995026e+01,3.000000001225773705e+00,9.999999999965941910e+00,6.600000000000231237e-01,1.569999999999949658e+00,2.870000000000000455e+03,-2.175000000000126832e+00,-4.944999999999937224e+00,1.363291757370529567e+01,-1.925656085197680722e+00
1.999999999999960565e+01,3.000000001274595096e+00,9.999999999953915975e+00,6.600000000000055822e-01,1.570000000000013385e+00,2.870000000000002728e+03,-2.174999999999990941e+00,-4.944999999999934559e+00,1.307310006333341335e+01,-2.387289338858624710e+00
2.000000000000001421e+01,2.999999999384030502e+00,9.999999999958294694e+00,6.600000000000075806e-01,1.569999999999976970e+00,2.870000000000001819e+03,-2.175000000000018918e+00,-4.945000000000062457e+00,1.338817568965059657e+01,-2.178468533276219254e+00
2.000000000000024514e+01,2.999999999026481401e+00,9.999999999970157205e+00,6.600000000000262323e-01,1.569999999999999618e+00,2.869999999999996817e+03,-2.175000000000014033e+00,-4.944999999999950546e+00,1.321830520271615050e+01,-2.280010871486405577e+00
2.000000000000024869e+01,3.000000004147739929e+00,9.999999999986743049e+00,6.600000000000034728e-01,1.569999999999951656e+00,2.869999999999995907e+03,-2.175000000000088196e+00,-4.945000000000004725e+00,1.452240543546398044e+01,-1.429002814679899425e+00
2.000000000000003908e+01,3.000000004086130545e+00,9.999999999965165642e+00,6.599999999999870415e-01,1.569999999999901030e+00,2.870000000000006366e+03,-2.175000000000174794e+00,-4.945000000000067786e+00,1.438138764226636468e+01,-1.451002210584135588e+00
2.000000000000018119e+01,3.000000003880806787e+00,9.999999999982943422e+00,6.600000000000199041e-01,1.569999999999998286e+00,2.869999999999989541e+03,-2.174999999999985167e+00,-4.944999999999980744e+00,1.446617168142895693e+01,-1.451251241846945206e+00
2.000000000000033040e+01,3.000000004570627876e+00,9.999999999948697038e+00,6.600000000000426637e-01,1.569999999999932339e+00,2.870000000000000909e+03,-2.175000000000145484e+00,-4.944999999999946105e+00,1.451237068912642947e+01,-1.372520162466115634e+00
1.999999999999999289e+01,3.000000004359876904e+00,9.999999999953953278e+00,6.599999999999507372e-01,1.569999999999950990e+00,2.869999999999997272e+03,-2.175000000000051337e+00,-4.945000000000078444e+00,1.428628989884625256e+01,-1.593637253171678925e+00
1.999999999999980105e+01,3.000000002168832669e+00,9.999999999907826620e+00,6.599999999999962563e-01,1.570000000000074003e+00,2.870000000000000000e+03,-2.174999999999862599e+00,-4.944999999999899920e+00,1.407775095389219189e+01,-1.668506071268148538e+00
2.000000000000010658e+01,3.000000003380733027e+00,1.000000000001076650e+01,6.600000000000042499e-01,1.569999999999899254e+00,2.869999999999999091e+03,-2.175000000000139266e+00,-4.945000000000194795e+00,1.427329426598403117e+01,-1.663585840200590749e+00
2.000000000000029132e+01,3.000000002783980158e+00,1.000000000001193179e+01,6.599999999999792699e-01,1.570000000000014051e+00,2.869999999999994998e+03,-2.175000000000007372e+00,-4.944999999999978080e+00,1.431237233950353449e+01,-1.608102333744887202e+00
1.999999999999996803e+01,3.000000002391890686e+00,9.999999999993296029e+00,6.599999999999852651e-01,1.570000000000068008e+00,2.870000000000001819e+03,-2.174999999999929656e+00,-4.944999999999880380e+00,1.403131269507592371e+01,-1.805532149876078796e+00
1.999999999999986855e+01,3.000000003655276082e+00,9.999999999992020605e+00,6.599999999999802691e-01,1.570000000000091323e+00,2.869999999999997726e+03,-2.174999999999863931e+00,-4.944999999999901696e+00,1.423934138167918917e+01,-1.691331181213887813e+00
1.999999999999981526e+01,3.000000002594996218e+00,9.999999999953965713e+00,6.600000000000906253e-01,1.570000000000013607e+00,2.870000000000001819e+03,-2.174999999999979838e+00,-4.944999999999949658e+00,1.431814049465665306e+01,-1.527676235020629436e+00
2.000000000000003197e+01,3.000000002936502597e+00,9.999999999998767208e+00,6.600000000000553202e-01,1.569999999999925011e+00,2.869999999999993179e+03,-2.175000000000128164e+00,-4.945000000000093543e+00,1.426470136612892858e+01,-1.629391938750622604e+00
1.999999999999987210e+01,3.000000002533290466e+00,9.999999999970976106e+00,6.600000000000342260e-01,1.570000000000063123e+00,2.870000000000000909e+03,-2.174999999999923883e+00,-4.944999999999907025e+00,1.456317824875797129e+01,-1.265679536949434691e+00
1.999999999999992895e+01,3.000000002074151073e+00,9.999999999982064125e+00,6.600000000000562084e-01,1.570000000000093987e+00,2.869999999999999091e+03,-2.174999999999880362e+00,-4.944999999999867057e+00,1.415912199938848559e+01,-1.717421441888393296e+00
1.999999999999992539e+01,3.000000001599595123e+00,9.999999999931405981e+00,6.600000000000242339e-01,1.570000000000073115e+00,2.870000000000003183e+03,-2.174999999999895461e+00,-4.944999999999867057e+00,1.400203517146127297e+01,-1.742831030462554054e+00
2.000000000000026290e+01,3.000000003525535419e+00,9.999999999991036503e+00,6.599999999999737188e-01,1.569999999999933671e+00,2.869999999999999545e+03,-2.175000000000148592e+00,-4.945000000000086438e+00,1.389920177264706425e+01,-1.700456530671475619e+00
2.000000000000058265e+01,2.999999998510632260e+00,1.000000000002243539e+01,6.600000000000020295e-01,1.570000000000056462e+00,2.869999999999991360e+03,-2.174999999999925215e+00,-4.944999999999950546e+00,1.349916552506586065e+01,-2.009576613142615820e+00
2.000000000000060751e+01,2.999999999667961159e+00,9.999999999971993958e+00,6.600000000000136868e-01,1.569999999999978524e+00,2.869999999999997726e+03,-2.175000000000069988e+00,-4.944999999999978080e+00,1.354891003659214022e+01,-1.949966414625733391e+00
2.000000000000040856e+01,3.000000000966298597e+00,9.999999999984682475e+00,6.599999999999930367e-01,1.570000000000028706e+00,2.869999999999994543e+03,-2.174999999999968292e+00,-4.944999999999926565e+00,1.331732817579918127e+01,-2.274123348361849484e+00
1.999999999999982947e+01,2.999999999222040525e+00,9.999999999946989959e+00,6.599999999999143219e-01,1.569999999999962315e+00,2.869999999999998636e+03,-2.175000000000040679e+00,-4.945000000000109530e+00,1.358281893655400019e+01,-1.906550092735712632e+00
2.000000000000007816e+01,2.999999999709568765e+00,9.999999999962225772e+00,6.600000000000054712e-01,1.570000000000053575e+00,2.870000000000005002e+03,-2.174999999999986500e+00,-4.944999999999820872e+00,1.373123517070528798e+01,-1.870283273983941008e+00
2.000000000000058975e+01,3.000000000518215248e+00,9.999999999982261301e+00,6.600000000000199041e-01,1.570000000000006279e+00,2.870000000000003183e+03,-2.175000000000026024e+00,-4.944999999999899920e+00,1.371614807650641588e+01,-2.083494483033708100e+00
2.000000000000100897e+01,3.000000000231183517e+00,9.999999999973567810e+00,6.600000000001198242e-01,1.570000000000002727e+00,2.870000000000001364e+03,-2.175000000000035350e+00,-4.944999999999780904e+00,1.354239061291486657e+01,-2.071375811230752095e+00
2.000000000000074962e+01,2.999999999623652602e+00,9.999999999993798738e+00,6.599999999999824896e-01,1.570000000000072893e+00,2.870000000000004547e+03,-2.174999999999875477e+00,-4.944999999999827089e+00,1.344309601701279711e+01,-2.200137030015241635e+00
2.000000000000039790e+01,2.999999998216640318e+00,9.999999999957127628e+00,6.600000000000437739e-01,1.569999999999937224e+00,2.869999999999993634e+03,-2.175000000000116174e+00,-4.944999999999999396e+00,1.407159611072018102e+01,-1.535527682271661698e+00
2.000000000000015277e+01,2.999999998337431251e+00,9.999999999939079842e+00,6.599999999999812683e-01,1.570000000000000284e+00,2.869999999999994543e+03,-2.175000000000005596e+00,-4.944999999999962093e+00,1.381049964232602711e+01,-1.713988490015087018e+00
1.999999999999998579e+01,2.999999996962973814e+00,1.000000000003275424e+01,6.600000000000344480e-01,1.569999999999989626e+00,2.869999999999989541e+03,-2.175000000000007816e+00,-4.945000000000004725e+00,1.370885977514199361e+01,-1.832600849536291765e+00
2.000000000000019540e+01,2.999999997116721939e+00,1.000000000003281642e+01,6.599999999999777156e-01,1.569999999999970086e+00,2.869999999999983174e+03,-2.175000000000016698e+00,-4.945000000000076668e+00,1.387930241821933208e+01,-1.786157020230579429e+00
2.000000000000088463e+01,2.999999999701797648e+00,1.000000000004932232e+01,6.599999999999592859e-01,1.570000000000036033e+00,2.869999999999977263e+03,-2.174999999999952749e+00,-4.944999999999905249e+00,1.428212961298173411e+01,-1.334974873775837345e+00
2.000000000000111555e+01,2.999999999012171958e+00,1.000000000004812328e+01,6.600000000000142419e-01,1.569999999999946327e+00,2.869999999999975444e+03,-2.175000000000129941e+00,-4.944999999999933671e+00,1.419945819072447435e+01,-1.329417841473742978e+00
2.000000000000042277e+01,2.999999999463638822e+00,9.999999999973521625e+00,6.599999999999807132e-01,1.569999999999972973e+00,2.869999999999985903e+03,-2.175000000000047340e+00,-4.945000000000024265e+00,1.435443343811348704e+01,-1.565388382932541456e+00
2.000000000000039080e+01,2.999999999684606511e+00,9.999999999975351272e+00,6.599999999999638378e-01,1.569999999999989626e+00,2.869999999999981355e+03,-2.175000000000014477e+00,-4.945000000000011831e+00,1.457749496231789443e+01,-1.417467144605411900e+00
2.000000000000052580e+01,3.000000000150953916e+00,9.999999999984670040e+00,6.600000000000108002e-01,1.569999999999945217e+00,2.869999999999986358e+03,-2.175000000000129496e+00,-4.944999999999996732e+00,1.457442103093418417e+01,-1.363141344543211453e+00
2.000000000000047606e+01,3.000000000249335219e+00,9.999999999994169997e+00,6.599999999999618394e-01,1.569999999999973417e+00,2.869999999999985903e+03,-2.175000000000045119e+00,-4.945000000000006501e+00,1.456603130345821029e+01,-1.316864651617986492e+00
2.000000000000030553e+01,2.999999999425925878e+00,9.999999999990492938e+00,6.600000000000125766e-01,1.569999999999859286e+00,2.869999999999993634e+03,-2.175000000000213873e+00,-4.945000000000190354e+00,1.453543136399191660e+01,-1.280685313090266897e+00
2.000000000000035882e+01,3.000000000613920470e+00,9.999999999986510346e+00,6.599999999999383027e-01,1.569999999999917240e+00,2.869999999999989541e+03,-2.175000000000124611e+00,-4.945000000000097984e+00,1.456031375506617032e+01,-1.365852573638165257e+00
2.000000000000045119e+01,3.000000001184353948e+00,9.999999999940921924e+00,6.599999999999690559e-01,1.569999999999948104e+00,2.869999999999992724e+03,-2.175000000000111289e+00,-4.944999999999977192e+00,1.468521517655096531e+01,-1.227978270882361000e+00
2.000000000000041922e+01,3.000000000910665321e+00,9.999999999951397101e+00,6.600000000000737499e-01,1.569999999999904139e+00,2.869999999999998181e+03,-2.175000000000172573e+00,-4.945000000000006501e+00,1.472231796669315429e+01,-1.190968203189484820e+00
2.000000000000028422e+01,2.999999999848403931e+00,9.999999999972096987e+00,6.599999999999357492e-01,1.569999999999861506e+00,2.869999999999988631e+03,-2.175000000000199218e+00,-4.945000000000189466e+00,1.448579427640258288e+01,-1.465895190794064940e+00
2.000000000000038014e+01,3.000000000205575557e+00,9.999999999992859046e+00,6.599999999999511813e-01,1.569999999999960982e+00,2.869999999999982720e+03,-2.175000000000050004e+00,-4.945000000000037588e+00,1.448293784472246237e+01,-1.421216952149656931e+00
2.000000000000010303e+01,2.999999998708346993e+00,1.000000000000597922e+01,6.600000000000166844e-01,1.570000000000050244e+00,2.869999999999993179e+03,-2.174999999999901679e+00,-4.944999999999935447e+00,1.402403135622246921e+01,-1.828516251031200524e+00
2.000000000000026645e+01,2.999999998184920802e+00,1.000000000001302070e+01,6.600000000000249001e-01,1.569999999999910578e+00,2.869999999999992269e+03,-2.175000000000085976e+00,-4.945000000000154827e+00,1.429143269215571443e+01,-1.584331269609405179e+00
2.000000000000022027e+01,2.999999998786144317e+00,1.000000000002156320e+01,6.600000000000606493e-01,1.569999999999969198e+00,2.869999999999989541e+03,-2.175000000000020695e+00,-4.944999999999988738e+00,1.406959907310660540e+01,-1.772946601770617248e+00
2.000000000000089173e+01,2.999999999338721857e+00,9.999999999996369127e+00,6.600000000000362244e-01,1.569999999999941664e+00,2.869999999999990905e+03,-2.175000000000169909e+00,-4.944999999999891926e+00,1.390142878496438961e+01,-1.741924735194533946e+00
2.000000000000045830e+01,2.999999998844180560e+00,9.999999999934740202e+00,6.599999999999875966e-01,1.569999999999920792e+00,2.869999999999996817e+03,-2.175000000000219647e+00,-4.944999999999931894e+00,1.427267082385299268e+01,-1.365771847901306790e+00
2.000000000000045119e+01,3.000000001692554985e+00,1.000000000008235190e+01,6.600000000000035838e-01,1.569999999999915241e+00,2.869999999999996362e+03,-2.175000000000187228e+00,-4.945000000000076668e+00,1.408400898736810980e+01,-1.566741253215511609e+00
2.000000000000050804e+01,2.999999999420035035e+00,1.000000000004232525e+01,6.600000000000212363e-01,1.570000000000104645e+00,2.869999999999974534e+03,-2.174999999999834621e+00,-4.944999999999815543e+00,1.385923168889280710e+01,-1.708266338519145000e+00
2.000000000000050449e+01,2.999999998922664002e+00,1.000000000004517631e+01,6.600000000000697531e-01,1.570000000000023821e+00,2.869999999999976353e+03,-2.174999999999976730e+00,-4.944999999999843965e+00,1.366103908549950141e+01,-1.810801352901754369e+00
1.999999999999973355e+01,3.000000001562566965e+00,1.000000000002822631e+01,6.599999999999577316e-01,1.570000000000066009e+00,2.869999999999994088e+03,-2.174999999999832845e+00,-4.945000000000084661e+00,1.350038185364162580e+01,-2.387543392442208035e+00
1.999999999999959144e+01,3.000000002388075959e+00,9.999999999996525446e+00,6.600000000000056932e-01,1.570000000000037366e+00,2.869999999999999545e+03,-2.174999999999904343e+00,-4.945000000000085549e+00,1.377323808673771133e+01,-2.119217266560753821e+00
1.999999999999964118e+01,3.000000000734455163e+00,9.999999999998617994e+00,6.599999999999588418e-01,1.570000000000038698e+00,2.870000000000003183e+03,-2.174999999999883915e+00,-4.945000000000006501e+00,1.335728627440414584e+01,-2.503228210815176880e+00
1.999999999999967315e+01,3.000000000911691611e+00,9.999999999973418596e+00,6.600000000000115774e-01,1.569999999999880380e+00,2.870000000000010914e+03,-2.175000000000118838e+00,-4.945000000000214335e+00,1.345255343346206622e+01,-2.477168967687783496e+00
1.999999999999970512e+01,3.000000001155279872e+00,1.000000000001494449e+01,6.599999999999861533e-01,1.570000000000015161e+00,2.870000000000001364e+03,-2.174999999999890576e+00,-4.945000000000066009e+00,1.375131166214763745e+01,-2.115650936440306218e+00
1.999999999999950617e+01,3.000000001914861159e+00,1.000000000001534062e+01,6.600000000000344480e-01,1.569999999999919682e+00,2.870000000000005457e+03,-2.175000000000116174e+00,-4.945000000000224105e+00,1.361037537856492285e+01,-2.061296620761228660e+00
1.999999999999951328e+01,3.000000000478475037e+00,1.000000000000996536e+01,6.600000000000043610e-01,1.570000000000076668e+00,2.870000000000003638e+03,-2.174999999999881695e+00,-4.944999999999888374e+00,1.441488848928246469e+01,-1.493448856698120775e+00
1.999999999999964828e+01,3.000000000156485047e+00,1.000000000002213874e+01,6.600000000000513234e-01,1.570000000000065121e+00,2.870000000000003183e+03,-2.174999999999906120e+00,-4.944999999999877716e+00,1.443611235406056537e+01,-1.449438736654543591e+00
1.999999999999978328e+01,3.000000000841505088e+00,9.999999999991633359e+00,6.600000000000912914e-01,1.570000000000052909e+00,2.870000000000000909e+03,-2.174999999999940314e+00,-4.944999999999840412e+00,1.432651072704333295e+01,-1.615013478552734139e+00
1.999999999999939604e+01,3.000000000376555231e+00,1.000000000001589662e+01,6.599999999999544009e-01,1.570000000000047136e+00,2.870000000000001364e+03,-2.174999999999880806e+00,-4.945000000000034035e+00,1.443595275632373465e+01,-1.466266712428154539e+00
1.999999999999966604e+01,3.000000000388069132e+00,1.000000000003714895e+01,6.600000000000246780e-01,1.570000000000083329e+00,2.869999999999999091e+03,-2.174999999999873701e+00,-4.944999999999874163e+00,1.457151279880894634e+01,-1.369114228480236894e+00
2.000000000000044409e+01,2.999999999709145992e+00,1.000000000001894485e+01,6.599999999999695000e-01,1.569999999999942553e+00,2.869999999999995453e+03,-2.175000000000154809e+00,-4.945000000000049134e+00,1.395719432183260622e+01,-1.950732446515225815e+00
2.000000000000014566e+01,2.999999999365305481e+00,1.000000000004231282e+01,6.599999999999859313e-01,1.570000000000016493e+00,2.870000000000002274e+03,-2.175000000000041567e+00,-4.944999999999991402e+00,1.409636921960960620e+01,-1.823718222608642137e+00
2.000000000000011013e+01,2.999999999944005236e+00,1.000000000000699174e+01,6.599999999999219824e-01,1.569999999999961204e+00,2.870000000000002274e+03,-2.175000000000094857e+00,-4.945000000000089102e+00,1.400564464970676504e+01,-1.801099932880893872e+00
2.000000000000028777e+01,2.999999999537589890e+00,1.000000000002359890e+01,6.599999999999683897e-01,1.569999999999974083e+00,2.870000000000001364e+03,-2.175000000000119726e+00,-4.944999999999963869e+00,1.425006011172153997e+01,-1.626121935329671420e+00
2.000000000000014566e+01,2.999999999906183934e+00,1.000000000002090239e+01,6.600000000000036948e-01,1.570000000000050910e+00,2.870000000000002274e+03,-2.174999999999994493e+00,-4.944999999999876827e+00,1.422716962793525930e+01,-1.743207813267672712e+00
1.999999999999978684e+01,3.000000000199071870e+00,1.000000000004911271e+01,6.599999999999855982e-01,1.570000000000066454e+00,2.869999999999994543e+03,-2.174999999999866596e+00,-4.945000000000013607e+00,1.360929430947914298e+01,-2.050821401678685429e+00
2.000000000000016698e+01,2.999999999447167109e+00,1.000000000003063683e+01,6.599999999999793809e-01,1.570000000000112639e+00,2.869999999999982720e+03,-2.174999999999810196e+00,-4.944999999999950546e+00,1.480375964009370726e+01,-1.526325472598323074e+00
2.000000000000001066e+01,2.999999999009525631e+00,1.000000000004870948e+01,6.600000000000096900e-01,1.570000000000074447e+00,2.869999999999984993e+03,-2.174999999999838174e+00,-4.945000000000018936e+00,1.469020783473913205e+01,-1.484872029072055843e+00
2.000000000000042277e+01,3.000000000406831902e+00,9.999999999989665156e+00,6.599999999999874856e-01,1.569999999999951434e+00,2.869999999999982265e+03,-2.175000000000098410e+00,-4.945000000000104201e+00,1.401521043545084488e+01,-1.686354507630952515e+00
2.000000000000044409e+01,3.000000001077867573e+00,9.999999999952590812e+00,6.599999999999709432e-01,1.569999999999980744e+00,2.869999999999995453e+03,-2.175000000000113509e+00,-4.944999999999955875e+00,1.387486432048692819e+01,-1.700633987449552409e+00
2.000000000000000355e+01,3.000000001823435625e+00,9.999999999919038984e+00,6.599999999999904832e-01,1.570000000000034479e+00,2.869999999999996362e+03,-2.174999999999999378e+00,-4.944999999999906137e+00,1.394718946383597924e+01,-1.716521418719467729e+00
1.999999999999955946e+01,3.000000000795956190e+00,9.999999999934733097e+00,6.599999999999908162e-01,1.570000000000018492e+00,2.869999999999999545e+03,-2.174999999999968736e+00,-4.944999999999958540e+00,1.432742046540366054e+01,-1.175333800201757262e+00
1.999999999999992184e+01,2.999999999381731453e+00,9.999999999998978595e+00,6.600000000000105782e-01,1.570000000000042473e+00,2.870000000000003183e+03,-2.174999999999880806e+00,-4.945000000000062457e+00,1.362834452404228536e+01,-2.268740235195357169e+00
1.999999999999962341e+01,3.000000001011024153e+00,9.999999999921444171e+00,6.599999999999874856e-01,1.570000000000078000e+00,2.869999999999994543e+03,-2.174999999999799538e+00,-4.944999999999923901e+00,1.426836113102757153e+01,-1.635289868326020857e+00
1.999999999999979750e+01,2.999999999916990401e+00,9.999999999917065452e+00,6.600000000000063594e-01,1.570000000000030038e+00,2.870000000000001819e+03,-2.174999999999956746e+00,-4.944999999999896367e+00,1.436723230686031627e+01,-1.624597935704576779e+00
1.999999999999981171e+01,3.000000000802399924e+00,9.999999999910908599e+00,6.599999999999810463e-01,1.569999999999975193e+00,2.870000000000000909e+03,-2.175000000000004707e+00,-4.944999999999991402e+00,1.431115507911303730e+01,-1.724280739417586528e+00
1.999999999999951683e+01,2.999999999889062963e+00,9.999999999895530678e+00,6.599999999999529576e-01,1.570000000000069562e+00,2.870000000000005912e+03,-2.174999999999841283e+00,-4.944999999999917684e+00,1.412044855871733873e+01,-1.825751797883748750e+00
1.999999999999992895e+01,3.000000000641076969e+00,9.999999999921650229e+00,6.600000000000029177e-01,1.570000000000025819e+00,2.870000000000004093e+03,-2.174999999999972289e+00,-4.944999999999870610e+00,1.413673692720943542e+01,-1.813937803151962180e+00
2.000000000000035527e+01,3.000000001961266705e+00,9.999999999948165907e+00,6.599999999999113243e-01,1.569999999999899476e+00,2.870000000000010004e+03,-2.175000000000220535e+00,-4.945000000000166374e+00,1.474838481556842851e+01,-7.669911695206803603e-01
2.000000000000006750e+01,2.999999998697647108e+00,1.000000000004853007e+01,6.599999999999749400e-01,1.570000000000050466e+00,2.869999999999998636e+03,-2.174999999999983835e+00,-4.944999999999912355e+00,1.448027972860336909e+01,-1.124023042924085836e+00
2.000000000000078160e+01,2.999999999582565913e+00,9.999999999964970243e+00,6.600000000000155742e-01,1.569999999999811324e+00,2.869999999999996817e+03,-2.175000000000353761e+00,-4.945000000000219664e+00,1.431708120236552517e+01,-1.328084147771282364e+00
1.999999999999977973e+01,2.999999999612732893e+00,9.999999999983568699e+00,6.600000000000088018e-01,1.569999999999989626e+00,2.870000000000003183e+03,-2.175000000000021583e+00,-4.945000000000004725e+00,1.479662791710522463e+01,-9.978239431861789521e-01
1.999999999999966249e+01,2.999999999117573868e+00,9.999999999976283860e+00,6.599999999999284217e-01,1.570000000000011608e+00,2.869999999999998181e+03,-2.174999999999941203e+00,-4.945000000000081108e+00,1.488572388148199721e+01,-9.818958270994818660e-01
1.999999999999971223e+01,2.999999999632860348e+00,9.999999999962620123e+00,6.599999999999552891e-01,1.569999999999891704e+00,2.870000000000005457e+03,-2.175000000000150369e+00,-4.945000000000193019e+00,1.513181566123062538e+01,-7.667675607007803373e-01
1.999999999999972289e+01,2.999999998336485341e+00,9.999999999981103116e+00,6.600000000000285638e-01,1.570000000000023599e+00,2.869999999999993634e+03,-2.174999999999977618e+00,-4.944999999999938112e+00,1.480909109163897952e+01,-1.046963455215616179e+00
1.999999999999948486e+01,2.999999998273041868e+00,9.999999999978399501e+00,6.599999999999719424e-01,1.570000000000052465e+00,2.869999999999989996e+03,-2.174999999999881695e+00,-4.944999999999987850e+00,1.462973338261256728e+01,-1.161003044688702301e+00
1.999999999999989697e+01,2.999999999042118226e+00,1.000000000000428457e+01,6.600000000000588729e-01,1.569999999999979634e+00,2.869999999999994998e+03,-2.175000000000108180e+00,-4.945000000000005613e+00,1.433133755028440781e+01,-1.559351073235929919e+00
1.999999999999977973e+01,2.999999999686162155e+00,9.999999999989039878e+00,6.599999999999862643e-01,1.569999999999985407e+00,2.869999999999992724e+03,-2.175000000000072209e+00,-4.945000000000077556e+00,1.438365278667754765e+01,-1.568100168181232323e+00
1.999999999999948486e+01,2.999999999944761520e+00,9.999999999988228083e+00,6.599999999999248690e-01,1.570000000000076223e+00,2.869999999999992269e+03,-2.174999999999876810e+00,-4.945000000000041140e+00,1.424468546496161991e+01,-1.669067015816535493e+00
2.000000000000082423e+01,2.999999999341190104e+00,1.000000000004005152e+01,6.599999999999917044e-01,1.569999999999894369e+00,2.869999999999994543e+03,-2.175000000000210765e+00,-4.945000000000119300e+00,1.458729241071435112e+01,-1.261720267347916202e+00
2.000000000000046541e+01,2.999999998743635654e+00,9.999999999996727951e+00,6.599999999999780487e-01,1.569999999999980522e+00,2.870000000000001364e+03,-2.175000000000090861e+00,-4.945000000000006501e+00,1.466785810648576671e+01,-1.222022678526589301e+00
2.000000000000068212e+01,2.999999999341137702e+00,1.000000000004843059e+01,6.600000000000372236e-01,1.570000000000067786e+00,2.869999999999989086e+03,-2.174999999999943423e+00,-4.944999999999883933e+00,1.454402000103418935e+01,-1.479218976237350658e+00
2.000000000000067857e+01,2.999999999037465503e+00,1.000000000005211120e+01,6.600000000000000311e-01,1.569999999999915907e+00,2.869999999999998181e+03,-2.175000000000172573e+00,-4.945000000000090878e+00,1.454697262946386793e+01,-1.365710091525096370e+00
2.000000000000053291e+01,2.999999999969375608e+00,1.000000000003136336e+01,6.599999999999658362e-01,1.569999999999971640e+00,2.870000000000000000e+03,-2.175000000000100187e+00,-4.945000000000018048e+00,1.428772044039109446e+01,-1.583587817019312505e+00
1.999999999999961275e+01,2.999999999954488850e+00,9.999999999979129583e+00,6.599999999999871525e-01,1.569999999999971640e+00,2.870000000000001819e+03,-2.174999999999994049e+00,-4.945000000000097096e+00,1.439552426432283205e+01,-1.472068466901162553e+00
1.999999999999968026e+01,2.999999997706776611e+00,1.000000000004717293e+01,6.600000000000265654e-01,1.570000000000050022e+00,2.869999999999991815e+03,-2.174999999999894129e+00,-4.944999999999916795e+00,1.385783191272366643e+01,-1.791892737388994572e+00
