1.999999999999917577e+01,2.999999998930339196e+00,9.999999999981531218e+00,6.599999999993089173e-01,1.569999999999647899e+00,2.869999999999981355e+03,-2.175000000000711697e+00,-4.945000000000399965e+00,1.343651901048114539e+01,-2.146681973399771959e+00
1.999999999999917222e+01,2.999999998263894962e+00,9.999999999955672791e+00,6.600000000003712897e-01,1.569999999999900808e+00,2.869999999999984539e+03,-2.174999999999312816e+00,-4.945000000001748219e+00,1.341112142415841646e+01,-2.155342006371438135e+00
1.999999999999897682e+01,2.999999998571258875e+00,9.999999999954345853e+00,6.599999999994498046e-01,1.569999999998928253e+00,2.869999999999988177e+03,-2.175000000001389822e+00,-4.945000000002448104e+00,1.342967361860492126e+01,-2.173234635561854589e+00
1.999999999999945999e+01,2.999999997936226404e+00,9.999999999953505636e+00,6.599999999997822053e-01,1.570000000000132179e+00,2.869999999999995453e+03,-2.174999999999966072e+00,-4.944999999999487805e+00,1.341961237552889941e+01,-2.184538555321184905e+00
2.000000000000057199e+01,2.999999998892648012e+00,1.000000000000468070e+01,6.599999999992991473e-01,1.569999999999705631e+00,2.869999999999968168e+03,-2.175000000001056755e+00,-4.944999999999478035e+00,1.340614889426641199e+01,-2.144081228458155408e+00
2.000000000000081357e+01,2.999999998651764255e+00,1.000000000001662670e+01,6.599999999993587663e-01,1.569999999999635021e+00,2.869999999999973170e+03,-2.175000000001130918e+00,-4.944999999999690310e+00,1.341317958482818895e+01,-2.143270930416980580e+00
1.999999999999953815e+01,3.000000000086724405e+00,9.999999999979456433e+00,6.599999999997918643e-01,1.570000000000177698e+00,2.869999999999984539e+03,-2.174999999999856826e+00,-4.944999999999653895e+00,1.342349792184128887e+01,-2.176729498481837943e+00
2.000000000000092015e+01,2.999999998624478970e+00,1.000000000000709477e+01,6.599999999988453991e-01,1.569999999997510276e+00,2.869999999999981810e+03,-2.175000000004148948e+00,-4.945000000005699725e+00,1.340841712897099036e+01,-2.151593559655492705e+00
1.999999999999888445e+01,3.000000000186797688e+00,1.000000000000602718e+01,6.600000000001379208e-01,1.570000000000366436e+00,2.869999999999983629e+03,-2.174999999999213340e+00,-4.944999999998954010e+00,1.342436035546412576e+01,-2.207807218080499290e+00
1.999999999999840838e+01,3.000000000490286478e+00,9.999999999882117407e+00,6.599999999995637134e-01,1.569999999999828644e+00,2.870000000000013188e+03,-2.175000000000512745e+00,-4.945000000000603357e+00,1.343191043259008310e+01,-2.195407449172518621e+00
1.999999999999860378e+01,3.000000002159931345e+00,9.999999999931684869e+00,6.600000000003820588e-01,1.570000000001312568e+00,2.870000000000008185e+03,-2.174999999998115108e+00,-4.944999999996674944e+00,1.343230759600817947e+01,-2.168734370655744037e+00
1.999999999999991473e+01,3.000000000310990345e+00,1.000000000000074785e+01,6.600000000009195178e-01,1.570000000001235962e+00,2.869999999999973170e+03,-2.174999999997531575e+00,-4.944999999997237161e+00,1.341193657536120831e+01,-2.155219337020966908e+00
1.999999999999988276e+01,3.000000000986501547e+00,9.999999999955399232e+00,6.599999999997134825e-01,1.569999999998942020e+00,2.869999999999992269e+03,-2.175000000001415135e+00,-4.945000000002656826e+00,1.340084806477642054e+01,-2.171525197180434574e+00
2.000000000000038014e+01,2.999999999950316187e+00,9.999999999933688599e+00,6.599999999993503286e-01,1.569999999998441309e+00,2.869999999999998181e+03,-2.175000000002652367e+00,-4.945000000003790142e+00,1.342000001716661473e+01,-2.168482199865472637e+00
2.000000000000059330e+01,2.999999999680669216e+00,9.999999999927561944e+00,6.599999999989126787e-01,1.569999999998795470e+00,2.870000000000005912e+03,-2.175000000003008527e+00,-4.945000000001667395e+00,1.342987836058217077e+01,-2.187952125179149387e+00
2.000000000000084199e+01,3.000000000091543662e+00,9.999999999994933830e+00,6.600000000000976197e-01,1.570000000000167262e+00,2.869999999999971806e+03,-2.174999999999993605e+00,-4.944999999999364348e+00,1.340379129286106519e+01,-2.203831506626604320e+00
2.000000000000111555e+01,2.999999999751295388e+00,1.000000000003150369e+01,6.600000000003679590e-01,1.569999999999883489e+00,2.869999999999958163e+03,-2.174999999999658762e+00,-4.945000000000191243e+00,1.340970783655383158e+01,-2.198283897617264948e+00
2.000000000000153122e+01,2.999999998937689760e+00,9.999999999992754240e+00,6.599999999998399369e-01,1.569999999999522222e+00,2.869999999999969532e+03,-2.175000000001080736e+00,-4.945000000000390195e+00,1.341310595799425798e+01,-2.189809421291717406e+00
2.000000000000093792e+01,2.999999999701060904e+00,1.000000000004813749e+01,6.599999999998655831e-01,1.569999999999657669e+00,2.869999999999962256e+03,-2.175000000000642864e+00,-4.945000000000015383e+00,1.341694851250948695e+01,-2.202324421397574561e+00
1.999999999999916866e+01,2.999999999532382944e+00,9.999999999965366371e+00,6.599999999998387157e-01,1.569999999999744933e+00,2.869999999999994998e+03,-2.175000000000178790e+00,-4.945000000001088303e+00,1.343895095604831624e+01,-2.199274036317250047e+00
2.000000000000070699e+01,2.999999998712444160e+00,1.000000000003193712e+01,6.600000000017304247e-01,1.570000000001799734e+00,2.869999999999972260e+03,-2.174999999996431121e+00,-4.944999999996956497e+00,1.337934872427670996e+01,-2.147655433162766414e+00
2.000000000000246914e+01,2.999999998728100969e+00,1.000000000008465229e+01,6.600000000017296475e-01,1.570000000000544960e+00,2.869999999999949523e+03,-2.174999999997957012e+00,-4.944999999999967422e+00,1.339140568998121061e+01,-2.156913416330967337e+00
2.000000000000134648e+01,2.999999998052135908e+00,1.000000000002262013e+01,6.600000000019033974e-01,1.570000000000983276e+00,2.869999999999964530e+03,-2.174999999997258460e+00,-4.944999999999149409e+00,1.339480583106551315e+01,-2.119625607678636836e+00
2.000000000000182254e+01,2.999999998521942324e+00,1.000000000006504131e+01,6.600000000020468383e-01,1.570000000001223750e+00,2.869999999999958163e+03,-2.174999999996917399e+00,-4.944999999999311058e+00,1.338986844431075518e+01,-2.134035006535061285e+00
2.000000000000136069e+01,2.999999999925202054e+00,1.000000000006400924e+01,6.600000000004736522e-01,1.570000000000195461e+00,2.869999999999964984e+03,-2.174999999999706723e+00,-4.944999999998880291e+00,1.342897515525182328e+01,-2.162097150766776554e+00
1.999999999999994671e+01,3.000000000928034094e+00,9.999999999959889863e+00,6.600000000000123546e-01,1.570000000000884688e+00,2.869999999999977263e+03,-2.174999999999102318e+00,-4.944999999997079954e+00,1.342123507125914728e+01,-2.188474308181572958e+00
1.999999999999977263e+01,2.999999998780936039e+00,1.000000000000287415e+01,6.600000000005392664e-01,1.570000000000744578e+00,2.869999999999973625e+03,-2.174999999998661337e+00,-4.944999999998212381e+00,1.339161481318345359e+01,-2.182083707515489746e+00
2.000000000000023448e+01,2.999999999295380970e+00,9.999999999994662048e+00,6.599999999995791455e-01,1.569999999999161400e+00,2.869999999999969077e+03,-2.175000000001315659e+00,-4.945000000001877005e+00,1.339919172748353482e+01,-2.210703465015307234e+00
2.000000000000015277e+01,2.999999999273772477e+00,9.999999999997148947e+00,6.600000000003414247e-01,1.570000000000709717e+00,2.869999999999964075e+03,-2.174999999998784794e+00,-4.944999999998226592e+00,1.339958932310848638e+01,-2.175576134400231787e+00
1.999999999999967670e+01,2.999999998932025846e+00,1.000000000002180300e+01,6.600000000007388845e-01,1.570000000001223972e+00,2.869999999999971351e+03,-2.174999999997739852e+00,-4.944999999997646611e+00,1.340268332322041367e+01,-2.180964092838986623e+00
2.000000000000120082e+01,3.000000000097563291e+00,1.000000000000274625e+01,6.599999999997177014e-01,1.569999999999031948e+00,2.869999999999981355e+03,-2.175000000001988898e+00,-4.945000000001440021e+00,1.339270745345679714e+01,-2.181025313521729014e+00
2.000000000000185452e+01,3.000000000066331829e+00,1.000000000001122658e+01,6.599999999988021004e-01,1.569999999998854756e+00,2.869999999999976353e+03,-2.175000000003445955e+00,-4.944999999999931894e+00,1.339468608403891636e+01,-2.196044296129182616e+00
2.000000000000079226e+01,3.000000000133968836e+00,9.999999999966469488e+00,6.599999999991930100e-01,1.569999999999703411e+00,2.869999999999982265e+03,-2.175000000001624301e+00,-4.944999999999114770e+00,1.341672217524951982e+01,-2.179234024645112289e+00
2.000000000000187939e+01,2.999999999043228005e+00,1.000000000005631939e+01,6.599999999995849187e-01,1.569999999998889839e+00,2.869999999999960437e+03,-2.175000000002113243e+00,-4.945000000001509299e+00,1.339676302210825476e+01,-2.198170771148036273e+00
2.000000000000081357e+01,2.999999999628025549e+00,9.999999999988698818e+00,6.599999999993666489e-01,1.569999999999265539e+00,2.869999999999979536e+03,-2.175000000001823697e+00,-4.945000000000971951e+00,1.342869211737741431e+01,-2.207756449248705177e+00
2.000000000000165912e+01,2.999999999516219429e+00,1.000000000002785328e+01,6.599999999995627142e-01,1.569999999999384999e+00,2.869999999999968168e+03,-2.175000000001647393e+00,-4.944999999999544649e+00,1.339594769798478602e+01,-2.170928087884137270e+00
2.000000000000007816e+01,2.999999998832889148e+00,9.999999999992104094e+00,6.599999999998545919e-01,1.570000000000099538e+00,2.869999999999997726e+03,-2.175000000000314238e+00,-4.944999999999051710e+00,1.339794995854923165e+01,-2.182612454531363877e+00
2.000000000000125766e+01,2.999999998850229943e+00,1.000000000003367795e+01,6.599999999993623190e-01,1.569999999998061391e+00,2.869999999999973170e+03,-2.175000000002855316e+00,-4.945000000004427854e+00,1.341339592223896737e+01,-2.200718908839102372e+00
2.000000000000099831e+01,2.999999998629320430e+00,1.000000000006228262e+01,6.600000000001214895e-01,1.569999999999136753e+00,2.869999999999980446e+03,-2.175000000001163780e+00,-4.945000000001817497e+00,1.340989848807453200e+01,-2.184558434193370147e+00
2.000000000000119016e+01,2.999999998479142782e+00,1.000000000002922462e+01,6.599999999999559552e-01,1.569999999998506368e+00,2.869999999999982720e+03,-2.175000000001847233e+00,-4.945000000003832774e+00,1.339820922985356511e+01,-2.183969314323822353e+00
2.000000000000095568e+01,2.999999999378945237e+00,1.000000000002177103e+01,6.599999999989120125e-01,1.569999999997552687e+00,2.869999999999973170e+03,-2.175000000003743938e+00,-4.945000000005400409e+00,1.340828812256449432e+01,-2.189341535249671455e+00
2.000000000000066436e+01,3.000000000796949173e+00,9.999999999996212807e+00,6.600000000000144640e-01,1.569999999999246665e+00,2.869999999999974534e+03,-2.175000000000967493e+00,-4.945000000002105267e+00,1.342083037308302806e+01,-2.179306942811222836e+00
1.999999999999950617e+01,2.999999999634531456e+00,9.999999999994457767e+00,6.600000000014250023e-01,1.570000000001263274e+00,2.869999999999983629e+03,-2.174999999997026201e+00,-4.944999999998708873e+00,1.339722417649537256e+01,-2.133713576582504601e+00
2.000000000000030198e+01,2.999999999417086283e+00,9.999999999951580065e+00,6.600000000000560973e-01,1.569999999999529550e+00,2.869999999999989086e+03,-2.175000000000768541e+00,-4.945000000001384066e+00,1.340385775353079545e+01,-2.189136010739775262e+00
1.999999999999960210e+01,2.999999999948393281e+00,9.999999999972679632e+00,6.600000000000880718e-01,1.570000000000181473e+00,2.869999999999978172e+03,-2.174999999999750244e+00,-4.944999999999443396e+00,1.340301972151314480e+01,-2.182636941786423534e+00
1.999999999999922196e+01,3.000000001301621033e+00,9.999999999920571980e+00,6.600000000003356515e-01,1.570000000000823626e+00,2.869999999999987722e+03,-2.174999999998425082e+00,-4.944999999998597850e+00,1.343924382849134602e+01,-2.184082549485036218e+00
2.000000000000006750e+01,3.000000000144605217e+00,9.999999999948267160e+00,6.600000000002884670e-01,1.570000000000290274e+00,2.869999999999997726e+03,-2.174999999999525535e+00,-4.944999999999611262e+00,1.341375930441791553e+01,-2.163509607866461071e+00
2.000000000000023093e+01,3.000000000518650456e+00,9.999999999968894215e+00,6.600000000005363798e-01,1.570000000001589013e+00,2.869999999999990905e+03,-2.174999999998170619e+00,-4.944999999995741469e+00,1.341227486387655787e+01,-2.158885753401994734e+00
2.000000000000100187e+01,2.999999999961882047e+00,9.999999999975788256e+00,6.600000000006328582e-01,1.570000000001054774e+00,2.869999999999995907e+03,-2.174999999998729727e+00,-4.944999999997210516e+00,1.340547495595616923e+01,-2.157699442856011895e+00
1.999999999999932143e+01,2.999999998843684068e+00,9.999999999974653164e+00,6.600000000003047873e-01,1.570000000000773444e+00,2.869999999999992724e+03,-2.174999999998901590e+00,-4.944999999998346496e+00,1.340967376878849926e+01,-2.151614721267319563e+00
2.000000000000011724e+01,2.999999998200535867e+00,9.999999999983289811e+00,6.600000000011386758e-01,1.570000000001055218e+00,2.869999999999978172e+03,-2.174999999997648370e+00,-4.944999999998867857e+00,1.338671604351210220e+01,-2.151376804885801963e+00
1.999999999999970512e+01,2.999999999030305897e+00,9.999999999950114571e+00,6.599999999994762279e-01,1.569999999999754925e+00,2.869999999999984539e+03,-2.175000000000683276e+00,-4.945000000000135287e+00,1.340217152039801540e+01,-2.169731728091622180e+00
2.000000000000051514e+01,2.999999999221356628e+00,1.000000000001340617e+01,6.600000000008376944e-01,1.570000000000697948e+00,2.869999999999986812e+03,-2.174999999998471711e+00,-4.944999999999444285e+00,1.339189591138623214e+01,-2.138188639223531862e+00
1.999999999999922906e+01,2.999999999406313567e+00,9.999999999973393727e+00,6.600000000006770451e-01,1.569999999999686979e+00,2.869999999999981810e+03,-2.174999999999026823e+00,-4.945000000003148877e+00,1.342534954313608608e+01,-2.157385951098250487e+00
2.000000000000089173e+01,3.000000000634126085e+00,1.000000000002571454e+01,6.599999999988352961e-01,1.569999999997473417e+00,2.869999999999987722e+03,-2.175000000003990852e+00,-4.945000000005624230e+00,1.342656339873436622e+01,-2.198843341772038773e+00
2.000000000000106226e+01,3.000000000035652814e+00,1.000000000004394174e+01,6.600000000005117329e-01,1.569999999999377227e+00,2.869999999999984084e+03,-2.175000000000150369e+00,-4.945000000002197638e+00,1.339990907639477591e+01,-2.184545050706288905e+00
2.000000000000155964e+01,2.999999999384899585e+00,1.000000000001514877e+01,6.599999999993578781e-01,1.569999999998705320e+00,2.869999999999983174e+03,-2.175000000002551559e+00,-4.945000000002362839e+00,1.340720346115410067e+01,-2.202131852265096335e+00
2.000000000000193623e+01,3.000000000388760135e+00,1.000000000002730971e+01,6.599999999988505062e-01,1.569999999997715445e+00,2.869999999999984993e+03,-2.175000000004329692e+00,-4.945000000004102780e+00,1.340744535138741256e+01,-2.201626446590006392e+00
2.000000000000001421e+01,2.999999998937087575e+00,9.999999999945465845e+00,6.599999999995073141e-01,1.570000000000282503e+00,2.869999999999992269e+03,-2.175000000000462119e+00,-4.944999999997700790e+00,1.342369595808052729e+01,-2.146341975563729854e+00
2.000000000000047962e+01,2.999999998566248216e+00,9.999999999967803532e+00,6.599999999996868372e-01,1.569999999999628804e+00,2.869999999999976353e+03,-2.175000000000809397e+00,-4.945000000000216112e+00,1.341480005538643638e+01,-2.143109921401352924e+00
2.000000000000108358e+01,2.999999998288949588e+00,9.999999999972002840e+00,6.599999999986043697e-01,1.569999999999051266e+00,2.869999999999977263e+03,-2.175000000002818457e+00,-4.944999999999674323e+00,1.340979477044136203e+01,-2.141835367623776687e+00
1.999999999999912248e+01,2.999999998609584217e+00,9.999999999937219997e+00,6.599999999996093436e-01,1.569999999999564189e+00,2.869999999999993179e+03,-2.175000000000673062e+00,-4.945000000000535856e+00,1.343808673527829356e+01,-2.164272978084140320e+00
2.000000000000107292e+01,3.000000000097482022e+00,9.999999999999621636e+00,6.600000000012335999e-01,1.570000000001569918e+00,2.869999999999975898e+03,-2.174999999997118127e+00,-4.944999999996691820e+00,1.343581644755480298e+01,-2.150276966337420159e+00
2.000000000000122924e+01,2.999999998998434059e+00,1.000000000003214140e+01,6.600000000008088286e-01,1.570000000001073648e+00,2.869999999999977263e+03,-2.174999999998178613e+00,-4.944999999997237161e+00,1.342061900506213767e+01,-2.146955376376872504e+00
2.000000000000319744e+01,2.999999998246284605e+00,1.000000000007209167e+01,6.599999999993271249e-01,1.569999999997975459e+00,2.869999999999956799e+03,-2.175000000003628475e+00,-4.945000000004373675e+00,1.340993763604155475e+01,-2.204768556173847927e+00
2.000000000000063949e+01,2.999999999479625590e+00,1.000000000000157740e+01,6.599999999995979083e-01,1.569999999999028839e+00,2.869999999999989541e+03,-2.175000000001997780e+00,-4.945000000001832596e+00,1.340792266484771034e+01,-2.178777559260923535e+00
2.000000000000036238e+01,2.999999998770159326e+00,1.000000000002199840e+01,6.600000000000101341e-01,1.569999999999725615e+00,2.869999999999980901e+03,-2.175000000000637534e+00,-4.945000000000407958e+00,1.340828016407616197e+01,-2.168268489979163771e+00
1.999999999999948841e+01,2.999999999585729604e+00,9.999999999991331379e+00,6.600000000005563638e-01,1.570000000000798090e+00,2.870000000000000455e+03,-2.174999999998910027e+00,-4.944999999998549889e+00,1.340307954659498968e+01,-2.163315933964495841e+00
2.000000000000041211e+01,2.999999999191073297e+00,9.999999999994452438e+00,6.600000000001349232e-01,1.570000000000323137e+00,2.869999999999996362e+03,-2.175000000000253397e+00,-4.944999999998279883e+00,1.340969087975943630e+01,-2.157886533888057290e+00
1.999999999999962697e+01,2.999999999788164562e+00,9.999999999985298871e+00,6.599999999999270894e-01,1.569999999999886375e+00,2.869999999999989086e+03,-2.175000000000426148e+00,-4.945000000000055351e+00,1.341359364600118731e+01,-2.172076532124609383e+00
1.999999999999887379e+01,2.999999999324999944e+00,9.999999999973487874e+00,6.600000000001958744e-01,1.570000000000442819e+00,2.870000000000001364e+03,-2.174999999999394973e+00,-4.944999999998723972e+00,1.342237524189285303e+01,-2.156638705716507953e+00
2.000000000000014921e+01,2.999999997643575167e+00,1.000000000003082157e+01,6.600000000005646905e-01,1.570000000000796092e+00,2.869999999999982720e+03,-2.174999999999037481e+00,-4.944999999997824247e+00,1.338559933307323568e+01,-2.132089450216072546e+00
2.000000000000081002e+01,2.999999998167508952e+00,1.000000000003020162e+01,6.600000000007865131e-01,1.569999999999708518e+00,2.869999999999973170e+03,-2.175000000000015810e+00,-4.945000000001845919e+00,1.336852918420676417e+01,-2.131658038160605617e+00
2.000000000000144240e+01,2.999999999441469001e+00,9.999999999953979923e+00,6.599999999990051602e-01,1.569999999999339257e+00,2.869999999999987722e+03,-2.175000000002510259e+00,-4.945000000000033147e+00,1.344611784568430757e+01,-2.187176310347653807e+00
2.000000000000080291e+01,2.999999997996105616e+00,9.999999999961817210e+00,6.599999999996409850e-01,1.569999999999049267e+00,2.869999999999992724e+03,-2.175000000001857448e+00,-4.945000000002078622e+00,1.338325356306470404e+01,-2.166892764702493590e+00
2.000000000000067146e+01,2.999999998017685243e+00,9.999999999971738163e+00,6.599999999998256150e-01,1.569999999999691420e+00,2.869999999999994088e+03,-2.175000000001154010e+00,-4.944999999999571294e+00,1.339612763514034022e+01,-2.191745451052335536e+00
2.000000000000193268e+01,2.999999998097709675e+00,9.999999999993017141e+00,6.599999999995186384e-01,1.569999999998885176e+00,2.869999999999975898e+03,-2.175000000002455192e+00,-4.945000000001796181e+00,1.338711502358955840e+01,-2.182679621220689814e+00
2.000000000000109068e+01,2.999999998683956282e+00,9.999999999945234919e+00,6.600000000000197931e-01,1.569999999999939222e+00,2.869999999999985903e+03,-2.175000000000472777e+00,-4.944999999999746265e+00,1.338751651543756793e+01,-2.173759307272552288e+00
2.000000000000146372e+01,2.999999997195482937e+00,9.999999999976797227e+00,6.599999999994458078e-01,1.569999999998515694e+00,2.869999999999985903e+03,-2.175000000002635048e+00,-4.945000000003576091e+00,1.338067488076493561e+01,-2.172087943082534611e+00
2.000000000000123990e+01,2.999999998032836679e+00,9.999999999955536012e+00,6.600000000000930678e-01,1.569999999999992291e+00,2.870000000000001819e+03,-2.175000000000882672e+00,-4.944999999999219575e+00,1.339410524324529028e+01,-2.181882800993636629e+00
2.000000000000153477e+01,2.999999998406059021e+00,9.999999999967972286e+00,6.599999999994284883e-01,1.569999999998311413e+00,2.869999999999973170e+03,-2.175000000002724754e+00,-4.945000000004375451e+00,1.339020907931537252e+01,-2.186543247141262025e+00
2.000000000000190781e+01,2.999999998050355110e+00,9.999999999978980370e+00,6.599999999997087086e-01,1.569999999999230011e+00,2.869999999999995907e+03,-2.175000000001883205e+00,-4.945000000001238405e+00,1.337849769829387547e+01,-2.155955715790044191e+00
2.000000000000046185e+01,2.999999999808953710e+00,9.999999999970542675e+00,6.600000000004910827e-01,1.570000000000208118e+00,2.869999999999989086e+03,-2.174999999999460254e+00,-4.944999999999855511e+00,1.341028871760216212e+01,-2.175231919099910094e+00
1.999999999999954525e+01,2.999999999413112128e+00,9.999999999955893060e+00,6.600000000000637579e-01,1.570000000000081108e+00,2.869999999999995453e+03,-2.175000000000013145e+00,-4.944999999999756035e+00,1.341870367862163782e+01,-2.162081851947905253e+00
2.000000000000056488e+01,2.999999998081998243e+00,1.000000000000095923e+01,6.600000000003375389e-01,1.569999999999282414e+00,2.869999999999979082e+03,-2.175000000000609113e+00,-4.945000000002500506e+00,1.338311333927859614e+01,-2.141945761190055642e+00
1.999999999999910827e+01,2.999999997974006849e+00,9.999999999942341233e+00,6.599999999998772404e-01,1.569999999999218687e+00,2.869999999999999545e+03,-2.175000000001041212e+00,-4.945000000001987139e+00,1.339306862051729929e+01,-2.157751053747810843e+00
2.000000000000017764e+01,2.999999998391103873e+00,9.999999999993447020e+00,6.600000000006914780e-01,1.569999999999800222e+00,2.869999999999986358e+03,-2.174999999999463363e+00,-4.945000000001985363e+00,1.340491812150767181e+01,-2.187995131713717178e+00
1.999999999999979394e+01,3.000000000420000479e+00,9.999999999966563635e+00,6.600000000001994271e-01,1.569999999999827534e+00,2.869999999999994543e+03,-2.175000000000057110e+00,-4.945000000000400853e+00,1.341102443023499013e+01,-2.169327646505263552e+00
2.000000000000009237e+01,2.999999997634020588e+00,9.999999999957127628e+00,6.600000000003654055e-01,1.569999999999530216e+00,2.869999999999995453e+03,-2.175000000000271161e+00,-4.945000000002176321e+00,1.338210468814636300e+01,-2.170639644661592538e+00
1.999999999999981881e+01,2.999999999163120101e+00,9.999999999913855575e+00,6.599999999998105160e-01,1.569999999999439178e+00,2.870000000000004547e+03,-2.175000000000975486e+00,-4.945000000001382290e+00,1.341031043433651959e+01,-2.171377148341957497e+00
1.999999999999990052e+01,2.999999999449197485e+00,9.999999999944291673e+00,6.599999999991131849e-01,1.569999999997932383e+00,2.869999999999997726e+03,-2.175000000003191936e+00,-4.945000000004884377e+00,1.342906011401297306e+01,-2.197071251118889013e+00
1.999999999999981171e+01,2.999999998989232086e+00,9.999999999928064653e+00,6.599999999996121192e-01,1.569999999998482165e+00,2.869999999999999091e+03,-2.175000000002190070e+00,-4.945000000004203144e+00,1.342077302356475599e+01,-2.162707302607363768e+00
1.999999999999925038e+01,2.999999999325109634e+00,9.999999999973052667e+00,6.600000000002149703e-01,1.569999999999124762e+00,2.869999999999983629e+03,-2.175000000000582911e+00,-4.945000000003718199e+00,1.342636017310148944e+01,-2.139362659385167564e+00
2.000000000000115818e+01,2.999999997226211246e+00,1.000000000009736212e+01,6.600000000009499379e-01,1.570000000000294271e+00,2.869999999999954980e+03,-2.174999999998680877e+00,-4.944999999999758700e+00,1.338427925976233546e+01,-2.178928907473527410e+00
2.000000000000011369e+01,2.999999998800692680e+00,1.000000000005237766e+01,6.600000000008257039e-01,1.570000000000715268e+00,2.869999999999969532e+03,-2.174999999998361133e+00,-4.944999999998314522e+00,1.340188778090612942e+01,-2.154016835656314299e+00
2.000000000000094147e+01,2.999999998342016916e+00,1.000000000008746426e+01,6.600000000006018830e-01,1.570000000000115969e+00,2.869999999999956799e+03,-2.174999999999486899e+00,-4.944999999999430074e+00,1.337113688028985514e+01,-2.139774167779100456e+00
2.000000000000120437e+01,2.999999997388321127e+00,1.000000000005169376e+01,6.599999999997021582e-01,1.569999999999157181e+00,2.869999999999961346e+03,-2.175000000001424905e+00,-4.945000000001054552e+00,1.340117559452247242e+01,-2.198018466854930963e+00
2.000000000000042277e+01,2.999999998007759849e+00,1.000000000006425971e+01,6.600000000005121770e-01,1.569999999999839746e+00,2.869999999999965439e+03,-2.174999999999728040e+00,-4.945000000001221530e+00,1.338864724903676162e+01,-2.166624252808059037e+00
2.000000000000040856e+01,2.999999998526615475e+00,1.000000000004218492e+01,6.600000000002891332e-01,1.569999999999219131e+00,2.869999999999963165e+03,-2.175000000000454126e+00,-4.945000000002641727e+00,1.341690080466336710e+01,-2.197764726095127408e+00
1.999999999999747402e+01,2.999999998725480399e+00,9.999999999902115633e+00,6.600000000009828005e-01,1.570000000002581109e+00,2.870000000000003638e+03,-2.174999999995748112e+00,-4.944999999994264428e+00,1.343181493529214521e+01,-2.155897186045769853e+00
1.999999999999925393e+01,2.999999999404111772e+00,9.999999999957642771e+00,6.599999999996699618e-01,1.570000000000333351e+00,2.870000000000000455e+03,-2.175000000000363087e+00,-4.944999999998711537e+00,1.340909060110870499e+01,-2.127165955413802045e+00
1.999999999999903011e+01,2.999999999317540578e+00,9.999999999964019892e+00,6.599999999995593836e-01,1.569999999999866835e+00,2.870000000000001364e+03,-2.175000000000902212e+00,-4.945000000000248086e+00,1.341878455460407693e+01,-2.145754918703754566e+00
1.999999999999996803e+01,2.999999999478433210e+00,9.999999999964243713e+00,6.599999999989948352e-01,1.569999999998899387e+00,2.869999999999994543e+03,-2.175000000002494716e+00,-4.945000000002437446e+00,1.340958798084353987e+01,-2.137292219282291406e+00
1.999999999999973710e+01,2.999999999403520246e+00,9.999999999938406603e+00,6.599999999995164179e-01,1.570000000000064899e+00,2.869999999999994998e+03,-2.175000000000665068e+00,-4.944999999999175166e+00,1.340464369152725332e+01,-2.111544542453330564e+00
2.000000000000003908e+01,2.999999998768307474e+00,1.000000000004592771e+01,6.600000000015393553e-01,1.570000000001739782e+00,2.869999999999995907e+03,-2.174999999996283240e+00,-4.944999999997752305e+00,1.341026561526156868e+01,-2.161473941889150208e+00
1.999999999999992184e+01,2.999999999548205398e+00,1.000000000003052136e+01,6.600000000010823875e-01,1.570000000001420926e+00,2.869999999999995907e+03,-2.174999999997586642e+00,-4.944999999997079954e+00,1.339619368703032620e+01,-2.156663235405136270e+00
1.999999999999939959e+01,2.999999999668268469e+00,9.999999999989791277e+00,6.600000000010955992e-01,1.570000000000738805e+00,2.870000000000006366e+03,-2.174999999997976552e+00,-4.944999999999986073e+00,1.340858021046877546e+01,-2.167751658613068511e+00
1.999999999999998579e+01,2.999999999546875351e+00,1.000000000002060929e+01,6.600000000009121903e-01,1.570000000000747242e+00,2.869999999999996362e+03,-2.174999999998277200e+00,-4.944999999999106777e+00,1.342712676219682955e+01,-2.173135573614092930e+00
1.999999999999969802e+01,3.000000000132176492e+00,1.000000000001326228e+01,6.600000000013426238e-01,1.570000000002049312e+00,2.869999999999996362e+03,-2.174999999996359623e+00,-4.944999999995921769e+00,1.341489131047346106e+01,-2.182706674487460141e+00
1.999999999999998579e+01,2.999999998685311198e+00,1.000000000001372413e+01,6.600000000018675372e-01,1.570000000001928075e+00,2.870000000000001819e+03,-2.174999999996347189e+00,-4.944999999996696260e+00,1.339791581058927505e+01,-2.157811532392219789e+00
2.000000000000054357e+01,2.999999998797943324e+00,1.000000000001875478e+01,6.600000000012568036e-01,1.570000000002082174e+00,2.869999999999989996e+03,-2.174999999996901856e+00,-4.944999999994910134e+00,1.341209859848891917e+01,-2.145152446910408628e+00
2.000000000000018474e+01,2.999999998394019318e+00,1.000000000003027978e+01,6.600000000001293721e-01,1.569999999999547313e+00,2.869999999999989541e+03,-2.175000000000347988e+00,-4.945000000001706475e+00,1.343260195574832316e+01,-2.177067832368819733e+00
1.999999999999884537e+01,2.999999998973839954e+00,9.999999999994839683e+00,6.600000000006120970e-01,1.570000000001100293e+00,2.869999999999986812e+03,-2.174999999997912603e+00,-4.944999999998116458e+00,1.341746989330945894e+01,-2.153298731655153286e+00
1.999999999999901945e+01,2.999999999063061029e+00,9.999999999979168663e+00,6.600000000001594591e-01,1.570000000000335127e+00,2.869999999999997726e+03,-2.174999999999334133e+00,-4.944999999999792450e+00,1.339024005739055134e+01,-2.154821771504634942e+00
1.999999999999947065e+01,2.999999998395422640e+00,1.000000000002957457e+01,6.600000000000121325e-01,1.569999999999510676e+00,2.869999999999989996e+03,-2.175000000000504752e+00,-4.945000000001837925e+00,1.338870282774645482e+01,-2.137001010264931278e+00
1.999999999999808864e+01,3.000000000098932418e+00,9.999999999944812146e+00,6.600000000007165690e-01,1.570000000002008012e+00,2.869999999999990450e+03,-2.174999999996675815e+00,-4.944999999996037232e+00,1.341208721622863109e+01,-2.200710057956250409e+00
