1.999999999999793587e+01,2.999999998672522317e+00,9.999999999946634688e+00,6.599999999993549915e-01,1.569999999999523776e+00,2.869999999999999545e+03,-2.175000000000562927e+00,-4.945000000001789964e+00,1.342648356866477322e+01,-2.223006713121036260e+00
1.999999999999787903e+01,2.999999998925489297e+00,9.999999999929215733e+00,6.599999999993225730e-01,1.569999999999396989e+00,2.870000000000002274e+03,-2.175000000000631761e+00,-4.945000000002012897e+00,1.344895293961035421e+01,-2.225486234713982547e+00
1.999999999999814548e+01,2.999999998657540079e+00,9.999999999960918373e+00,6.599999999991259525e-01,1.569999999999073914e+00,2.870000000000001819e+03,-2.175000000001362288e+00,-4.945000000002433005e+00,1.345323938968606292e+01,-2.197750421117081743e+00
1.999999999999768008e+01,2.999999998734251161e+00,9.999999999906121317e+00,6.599999999991368327e-01,1.569999999999285745e+00,2.870000000000000455e+03,-2.175000000000872458e+00,-4.945000000002124807e+00,1.344505977095099247e+01,-2.194456090966330652e+00
1.999999999999964473e+01,3.000000000683954227e+00,1.000000000004924594e+01,6.599999999995739275e-01,1.569999999999740048e+00,2.869999999999990450e+03,-2.175000000000850697e+00,-4.945000000000145945e+00,1.326948219828174480e+01,-2.314678914589817893e+00
2.000000000000086686e+01,3.000000000255250487e+00,1.000000000007050005e+01,6.599999999998474864e-01,1.569999999999344364e+00,2.869999999999979991e+03,-2.175000000001070966e+00,-4.945000000001107843e+00,1.329881853345761122e+01,-2.299412144138766489e+00
2.000000000000045830e+01,3.000000001125376237e+00,1.000000000005490897e+01,6.599999999999591749e-01,1.569999999999496021e+00,2.869999999999995453e+03,-2.175000000000826716e+00,-4.945000000000788987e+00,1.328899925599474230e+01,-2.345012124469220360e+00
1.999999999999839062e+01,3.000000002253365938e+00,9.999999999992411404e+00,6.599999999998503730e-01,1.569999999998914264e+00,2.870000000000011369e+03,-2.175000000000824496e+00,-4.945000000003351381e+00,1.352567125885338406e+01,-2.333800407490615569e+00
1.999999999999859313e+01,3.000000001670179106e+00,9.999999999997985611e+00,6.599999999997256950e-01,1.569999999998402451e+00,2.870000000000016371e+03,-2.175000000001571898e+00,-4.945000000003904717e+00,1.354743873387659292e+01,-2.326031167028452806e+00
1.999999999999821299e+01,3.000000001691384810e+00,9.999999999974283682e+00,6.599999999999486278e-01,1.569999999998950457e+00,2.870000000000013188e+03,-2.175000000000569589e+00,-4.945000000003036078e+00,1.352647218393598649e+01,-2.334183693854696262e+00
1.999999999999896971e+01,3.000000001744239864e+00,1.000000000001152323e+01,6.599999999998686917e-01,1.569999999998741291e+00,2.870000000000008185e+03,-2.175000000001074518e+00,-4.945000000003218155e+00,1.352897687214641742e+01,-2.342187436031488712e+00
1.999999999999960210e+01,3.000000001151400308e+00,9.999999999945098139e+00,6.600000000003802825e-01,1.570000000000421947e+00,2.869999999999994088e+03,-2.174999999999050804e+00,-4.944999999999270202e+00,1.338515671495900428e+01,-2.189757966146040680e+00
1.999999999999882405e+01,3.000000002297170010e+00,9.999999999924789051e+00,6.600000000004264678e-01,1.570000000000931761e+00,2.870000000000002274e+03,-2.174999999998256328e+00,-4.944999999998551665e+00,1.341449226878277301e+01,-2.243606478540712601e+00
1.999999999999959144e+01,2.999999999693822250e+00,9.999999999963423036e+00,6.599999999993099165e-01,1.569999999999623030e+00,2.869999999999981810e+03,-2.175000000000979483e+00,-4.945000000000522533e+00,1.342708723020436778e+01,-2.144279476958901753e+00
2.000000000000013145e+01,2.999999999955821117e+00,9.999999999986670218e+00,6.599999999993001465e-01,1.569999999999494467e+00,2.869999999999976353e+03,-2.175000000001369838e+00,-4.945000000000586482e+00,1.339367632073665249e+01,-2.162110485542810601e+00
1.999999999999995737e+01,2.999999998837532988e+00,1.000000000001418599e+01,6.599999999995841415e-01,1.570000000000135065e+00,2.869999999999975898e+03,-2.175000000000344880e+00,-4.944999999999526885e+00,1.340669140787169589e+01,-2.118061871788130546e+00
2.000000000000036593e+01,2.999999999755577740e+00,1.000000000001221423e+01,6.599999999994374811e-01,1.569999999999012630e+00,2.869999999999979082e+03,-2.175000000001492850e+00,-4.945000000002108820e+00,1.345389658005076505e+01,-2.210371552452909949e+00
2.000000000000013500e+01,3.000000000173537629e+00,9.999999999998792077e+00,6.599999999997128164e-01,1.569999999999593276e+00,2.869999999999984539e+03,-2.175000000000660627e+00,-4.945000000000837836e+00,1.342388558027472634e+01,-2.218878813396206962e+00
1.999999999999988631e+01,3.000000000006639134e+00,9.999999999972310150e+00,6.599999999995043165e-01,1.569999999999244222e+00,2.869999999999983629e+03,-2.175000000001041212e+00,-4.945000000001839702e+00,1.347703076913026443e+01,-2.212043000807548232e+00
2.000000000000012079e+01,3.000000000463851624e+00,9.999999999991866062e+00,6.599999999992580690e-01,1.569999999998995754e+00,2.869999999999987267e+03,-2.175000000001828138e+00,-4.945000000001853913e+00,1.346116439800265319e+01,-2.223699924152483298e+00
2.000000000000127187e+01,2.999999997329843016e+00,1.000000000006236966e+01,6.599999999996085664e-01,1.569999999999252882e+00,2.869999999999980446e+03,-2.175000000001504841e+00,-4.945000000001346763e+00,1.340563262413019530e+01,-2.172953814353040247e+00
2.000000000000152056e+01,2.999999997366892490e+00,1.000000000008763124e+01,6.599999999995881383e-01,1.569999999999285079e+00,2.869999999999978627e+03,-2.175000000001631406e+00,-4.945000000001195772e+00,1.340607321449483358e+01,-2.171649044602274703e+00
2.000000000000072475e+01,2.999999997650132144e+00,1.000000000005301182e+01,6.599999999995147526e-01,1.569999999999279083e+00,2.869999999999988631e+03,-2.175000000001583889e+00,-4.945000000001440910e+00,1.340112526488660549e+01,-2.124506581071770039e+00
2.000000000000063594e+01,2.999999997373674177e+00,1.000000000005611511e+01,6.599999999997944178e-01,1.569999999999847740e+00,2.869999999999994998e+03,-2.175000000000737010e+00,-4.945000000000194795e+00,1.341009051531590224e+01,-2.152633134388802549e+00
1.999999999999998224e+01,2.999999997923715522e+00,1.000000000002070166e+01,6.599999999998368283e-01,1.569999999999952101e+00,2.870000000000001364e+03,-2.175000000000378630e+00,-4.945000000000152163e+00,1.341843405538878287e+01,-2.173778170996818471e+00
2.000000000000017408e+01,2.999999997268715912e+00,1.000000000003278799e+01,6.599999999995090905e-01,1.569999999999389884e+00,2.869999999999999091e+03,-2.175000000001420020e+00,-4.945000000001186891e+00,1.340759225718186975e+01,-2.149120425951841717e+00
1.999999999999964828e+01,3.000000000457622829e+00,9.999999999969466202e+00,6.600000000002069767e-01,1.570000000000523643e+00,2.869999999999996362e+03,-2.174999999999220002e+00,-4.944999999999036611e+00,1.337005457329813574e+01,-2.122818497005765082e+00
2.000000000000017764e+01,3.000000000332560202e+00,9.999999999973773868e+00,6.600000000007577583e-01,1.570000000000879803e+00,2.870000000000001819e+03,-2.174999999998337596e+00,-4.944999999998332285e+00,1.340675562797272669e+01,-2.140979804175141332e+00
2.000000000000023803e+01,3.000000000473633577e+00,9.999999999946167506e+00,6.600000000003054534e-01,1.570000000000260520e+00,2.869999999999997272e+03,-2.174999999999527311e+00,-4.944999999999571294e+00,1.340512814209708381e+01,-2.176972123724711050e+00
2.000000000000052225e+01,3.000000000516474419e+00,9.999999999980270005e+00,6.600000000004084821e-01,1.570000000000322027e+00,2.869999999999998181e+03,-2.174999999999448264e+00,-4.944999999999289741e+00,1.340521414529020916e+01,-2.189931123661683632e+00
2.000000000000005329e+01,3.000000000219724239e+00,9.999999999944913398e+00,6.600000000003644063e-01,1.570000000000442819e+00,2.870000000000000909e+03,-2.174999999999226219e+00,-4.944999999999198259e+00,1.342912690719801994e+01,-2.186297643470802576e+00
2.000000000000009592e+01,3.000000000206765272e+00,9.999999999929302774e+00,6.600000000003503065e-01,1.570000000000367990e+00,2.870000000000000909e+03,-2.174999999999356337e+00,-4.944999999999242668e+00,1.339319517343670896e+01,-2.175312030939345220e+00
2.000000000000007461e+01,3.000000000118426158e+00,9.999999999974654941e+00,6.600000000002539391e-01,1.570000000000477680e+00,2.869999999999995907e+03,-2.174999999999466471e+00,-4.944999999998528573e+00,1.338208625838973198e+01,-2.190269677023666262e+00
1.999999999999931433e+01,2.999999999540052364e+00,9.999999999966057374e+00,6.600000000006097656e-01,1.570000000000988827e+00,2.870000000000001364e+03,-2.174999999998275424e+00,-4.944999999998194617e+00,1.335405722315642585e+01,-2.153624512963157045e+00
2.000000000000138556e+01,3.000000000889071039e+00,1.000000000002368417e+01,6.599999999998915623e-01,1.570000000000357110e+00,2.869999999999980446e+03,-2.175000000000346656e+00,-4.944999999998376694e+00,1.325882217272314811e+01,-2.329440831958856428e+00
2.000000000000190070e+01,2.999999998691157632e+00,1.000000000008399859e+01,6.600000000008838796e-01,1.570000000000504992e+00,2.869999999999964984e+03,-2.174999999998651123e+00,-4.944999999999540208e+00,1.339114267138359970e+01,-2.186008082948363018e+00
2.000000000000246914e+01,2.999999997847993871e+00,1.000000000010635404e+01,6.600000000008512391e-01,1.570000000000356888e+00,2.869999999999954980e+03,-2.174999999999036149e+00,-4.944999999999415863e+00,1.342980542250507092e+01,-2.169496433622725817e+00
2.000000000000212097e+01,2.999999998150982616e+00,1.000000000008229861e+01,6.600000000007961720e-01,1.570000000000281171e+00,2.869999999999962711e+03,-2.174999999999078337e+00,-4.944999999999470930e+00,1.342908266063031597e+01,-2.166991617069022436e+00
2.000000000000144595e+01,2.999999999088595271e+00,1.000000000006343370e+01,6.600000000007881784e-01,1.570000000000648654e+00,2.869999999999973625e+03,-2.174999999998715072e+00,-4.944999999998806572e+00,1.339768099280264124e+01,-2.204832319241796235e+00
2.000000000000163070e+01,2.999999999128842632e+00,1.000000000008244605e+01,6.600000000010414203e-01,1.570000000000696394e+00,2.869999999999973170e+03,-2.174999999998375788e+00,-4.944999999998978879e+00,1.340225916478786239e+01,-2.187190720577946390e+00
2.000000000000138201e+01,2.999999999809933815e+00,1.000000000005908873e+01,6.600000000007911760e-01,1.570000000000423723e+00,2.869999999999978172e+03,-2.174999999998825206e+00,-4.944999999999484253e+00,1.342730119311017667e+01,-2.193760328791074077e+00
2.000000000000178346e+01,2.999999999214348900e+00,1.000000000009221246e+01,6.600000000008353629e-01,1.570000000000187468e+00,2.869999999999965894e+03,-2.174999999999032152e+00,-4.944999999999876827e+00,1.340702451323077682e+01,-2.162036494525673369e+00
2.000000000000175859e+01,2.999999999597783518e+00,1.000000000008360423e+01,6.600000000004124789e-01,1.569999999999796225e+00,2.869999999999968622e+03,-2.174999999999983391e+00,-4.945000000000754348e+00,1.341521824440125243e+01,-2.188698273286671991e+00
2.000000000000052935e+01,2.999999999305640763e+00,1.000000000008292211e+01,6.599999999999718314e-01,1.569999999999782458e+00,2.869999999999969077e+03,-2.175000000000178346e+00,-4.945000000000552731e+00,1.342021911235796594e+01,-2.211995224237965907e+00
2.000000000000039790e+01,2.999999999075569246e+00,1.000000000007316814e+01,6.599999999999541789e-01,1.569999999999928564e+00,2.869999999999973625e+03,-2.175000000000125056e+00,-4.945000000000296936e+00,1.340484456345090791e+01,-2.179690955319356416e+00
2.000000000000034461e+01,2.999999999041174981e+00,1.000000000007691980e+01,6.600000000001454703e-01,1.570000000000063567e+00,2.869999999999971351e+03,-2.174999999999677414e+00,-4.945000000000052687e+00,1.340959884540391656e+01,-2.191241027961111865e+00
2.000000000000057909e+01,2.999999998952465496e+00,1.000000000007624834e+01,6.599999999995258548e-01,1.569999999999487139e+00,2.869999999999971351e+03,-2.175000000001287681e+00,-4.945000000000789875e+00,1.337475074858530633e+01,-2.198881563158693098e+00
2.000000000000040146e+01,2.999999999085821933e+00,1.000000000008716938e+01,6.599999999997261391e-01,1.569999999999658336e+00,2.869999999999973170e+03,-2.175000000000719247e+00,-4.945000000000727702e+00,1.339741198744837014e+01,-2.157408639927808736e+00
2.000000000000046541e+01,2.999999999182291432e+00,1.000000000005949197e+01,6.599999999997206990e-01,1.569999999999592832e+00,2.869999999999970896e+03,-2.175000000000815614e+00,-4.945000000000748130e+00,1.336888741285563675e+01,-2.158655481801615483e+00
1.999999999999994316e+01,2.999999999553749852e+00,9.999999999992498445e+00,6.599999999993982902e-01,1.569999999999200702e+00,2.869999999999975898e+03,-2.175000000001642508e+00,-4.945000000001448015e+00,1.341270088013184925e+01,-2.186601819682307823e+00
1.999999999999991473e+01,2.999999999650011517e+00,9.999999999976658671e+00,6.599999999991585931e-01,1.569999999998864082e+00,2.869999999999978172e+03,-2.175000000002264677e+00,-4.945000000002052865e+00,1.340400418100603197e+01,-2.199563541795663379e+00
2.000000000000085976e+01,2.999999999081536917e+00,1.000000000003232437e+01,6.599999999991347233e-01,1.569999999998568319e+00,2.869999999999965894e+03,-2.175000000002819345e+00,-4.945000000002517382e+00,1.341305252054472419e+01,-2.159899608718705011e+00
2.000000000000104450e+01,2.999999999025656727e+00,1.000000000002442313e+01,6.599999999989436539e-01,1.569999999998469065e+00,2.869999999999964075e+03,-2.175000000003223022e+00,-4.945000000002549356e+00,1.342446810472254626e+01,-2.170098097284375971e+00
2.000000000000081712e+01,2.999999998131196222e+00,1.000000000003466383e+01,6.599999999993685362e-01,1.569999999999016627e+00,2.869999999999970441e+03,-2.175000000002210054e+00,-4.945000000001487095e+00,1.337179175127455011e+01,-2.117331460282741773e+00
2.000000000000018119e+01,2.999999999554407548e+00,1.000000000000989253e+01,6.599999999996442046e-01,1.569999999999433182e+00,2.869999999999966349e+03,-2.175000000000918199e+00,-4.945000000001221530e+00,1.342994295284795037e+01,-2.198962970457420951e+00
1.999999999999993605e+01,2.999999999331278477e+00,1.000000000001114131e+01,6.599999999997805400e-01,1.569999999999567741e+00,2.869999999999974989e+03,-2.175000000000665068e+00,-4.945000000001072316e+00,1.343854707907402535e+01,-2.196862260322154370e+00
2.000000000000017053e+01,2.999999999075858348e+00,1.000000000003060485e+01,6.600000000001400302e-01,1.569999999999892371e+00,2.869999999999972260e+03,-2.174999999999963407e+00,-4.945000000000215223e+00,1.342000909044865331e+01,-2.177632666589985888e+00
2.000000000000175504e+01,2.999999998538432244e+00,1.000000000002297362e+01,6.600000000004834222e-01,1.569999999999873275e+00,2.869999999999972260e+03,-2.174999999999990496e+00,-4.945000000000200124e+00,1.338856350905286163e+01,-2.170886343691604825e+00
2.000000000000140332e+01,2.999999999332253253e+00,1.000000000001368861e+01,6.600000000002049783e-01,1.569999999999513784e+00,2.869999999999976808e+03,-2.175000000000662403e+00,-4.945000000000965734e+00,1.339506019187423291e+01,-2.190291040952100587e+00
2.000000000000114042e+01,2.999999998558002812e+00,9.999999999998113509e+00,6.600000000003056755e-01,1.570000000000012497e+00,2.869999999999965439e+03,-2.174999999999976286e+00,-4.945000000000091767e+00,1.336499551395169583e+01,-2.122833467793414641e+00
2.000000000000094857e+01,2.999999998869570028e+00,9.999999999996513012e+00,6.600000000002093081e-01,1.569999999999813989e+00,2.869999999999975898e+03,-2.175000000000346212e+00,-4.945000000000328910e+00,1.335895564750683029e+01,-2.175540738316585454e+00
2.000000000000104805e+01,2.999999999513304871e+00,1.000000000001774580e+01,6.599999999994087263e-01,1.569999999999148077e+00,2.869999999999975444e+03,-2.175000000001865441e+00,-4.945000000001261498e+00,1.338975837400617230e+01,-2.223113180772592123e+00
2.000000000000057909e+01,2.999999999430063458e+00,1.000000000000974154e+01,6.599999999996671862e-01,1.569999999999425189e+00,2.869999999999980446e+03,-2.175000000001069633e+00,-4.945000000001034124e+00,1.340143877706691633e+01,-2.222576125841219774e+00
2.000000000000079936e+01,2.999999999338421208e+00,1.000000000002893685e+01,6.599999999996586375e-01,1.569999999999397655e+00,2.869999999999978627e+03,-2.175000000001216627e+00,-4.945000000001037677e+00,1.339514911433649580e+01,-2.215161622295935828e+00
2.000000000000116174e+01,2.999999999894522151e+00,1.000000000001545608e+01,6.599999999994466959e-01,1.569999999998807905e+00,2.869999999999984539e+03,-2.175000000002226042e+00,-4.945000000001835261e+00,1.341257336539432643e+01,-2.208665370955276597e+00
2.000000000000137490e+01,2.999999999740836643e+00,1.000000000003518963e+01,6.599999999996677413e-01,1.569999999999160734e+00,2.869999999999978627e+03,-2.175000000001709566e+00,-4.945000000001298801e+00,1.339133545134742853e+01,-2.175151396814205995e+00
2.000000000000119371e+01,2.999999998822051595e+00,1.000000000002258638e+01,6.599999999996056799e-01,1.569999999999311946e+00,2.869999999999976353e+03,-2.175000000001519940e+00,-4.945000000001233964e+00,1.340219289448399564e+01,-2.157527169619619656e+00
2.000000000000321521e+01,2.999999998743574814e+00,1.000000000006695089e+01,6.600000000003446443e-01,1.569999999999457385e+00,2.869999999999956799e+03,-2.175000000000782752e+00,-4.945000000000882245e+00,1.336839807407339720e+01,-2.157859459487573517e+00
2.000000000000140332e+01,2.999999999848432353e+00,9.999999999976761700e+00,6.600000000002208544e-01,1.569999999999890594e+00,2.869999999999979082e+03,-2.175000000000121503e+00,-4.945000000000198348e+00,1.341802002977387431e+01,-2.175971056589220076e+00
2.000000000000123990e+01,3.000000000062960304e+00,9.999999999982483345e+00,6.600000000002822498e-01,1.570000000000060458e+00,2.869999999999982265e+03,-2.174999999999907008e+00,-4.944999999999859952e+00,1.341199450836283091e+01,-2.174777009525630689e+00
2.000000000000110845e+01,3.000000000154637636e+00,9.999999999971496578e+00,6.600000000004839773e-01,1.570000000000458362e+00,2.869999999999985448e+03,-2.174999999999292832e+00,-4.944999999999026841e+00,1.341346769315607546e+01,-2.152039833671927749e+00
2.000000000000130385e+01,3.000000000511868770e+00,9.999999999985474730e+00,6.600000000005988854e-01,1.570000000000332907e+00,2.869999999999978627e+03,-2.174999999999050360e+00,-4.944999999999438955e+00,1.344852915125751203e+01,-2.184278545632393875e+00
2.000000000000148503e+01,2.999999999833270703e+00,1.000000000000099831e+01,6.600000000005661338e-01,1.570000000000215445e+00,2.869999999999979991e+03,-2.174999999999351008e+00,-4.944999999999589058e+00,1.342796160033656250e+01,-2.170842125223849450e+00
2.000000000000094147e+01,2.999999999522125371e+00,9.999999999973253395e+00,6.600000000006578382e-01,1.570000000000761453e+00,2.869999999999984539e+03,-2.174999999998704414e+00,-4.944999999998480611e+00,1.341487764531625082e+01,-2.124499419346386198e+00
2.000000000000128608e+01,2.999999999341410817e+00,9.999999999980387244e+00,6.600000000010129986e-01,1.570000000001300799e+00,2.869999999999967713e+03,-2.174999999997849986e+00,-4.944999999997615525e+00,1.336658670719667619e+01,-2.103547884528258471e+00
2.000000000000109779e+01,2.999999999263156081e+00,1.000000000000847677e+01,6.600000000004910827e-01,1.570000000000862039e+00,2.869999999999975444e+03,-2.174999999999084110e+00,-4.944999999997909512e+00,1.336416300462864903e+01,-2.138655804776400160e+00
2.000000000000183320e+01,2.999999999190172240e+00,1.000000000005417888e+01,6.599999999996716271e-01,1.569999999998970885e+00,2.869999999999984539e+03,-2.175000000002072387e+00,-4.945000000001653184e+00,1.343995787826177590e+01,-2.196302081560236985e+00
2.000000000000172307e+01,3.000000000033095748e+00,1.000000000006530776e+01,6.600000000000137979e-01,1.569999999999425855e+00,2.869999999999983174e+03,-2.175000000001118039e+00,-4.945000000000696616e+00,1.344980660485246915e+01,-2.205505298728798635e+00
2.000000000000199307e+01,2.999999999470259748e+00,1.000000000004447642e+01,6.599999999999307532e-01,1.569999999999206475e+00,2.869999999999977263e+03,-2.175000000001418687e+00,-4.945000000001146923e+00,1.341668770621625129e+01,-2.200329807343958333e+00
2.000000000000129319e+01,2.999999999266587114e+00,1.000000000002906120e+01,6.600000000000991740e-01,1.569999999999660778e+00,2.869999999999986358e+03,-2.175000000000584688e+00,-4.945000000000281837e+00,1.343860824135613363e+01,-2.211161970824599976e+00
2.000000000000198241e+01,2.999999999187094257e+00,1.000000000007343459e+01,6.600000000000115774e-01,1.569999999999574403e+00,2.869999999999984084e+03,-2.175000000001212630e+00,-4.945000000000155715e+00,1.339869892265539697e+01,-2.189241809406665684e+00
2.000000000000181899e+01,2.999999999144108642e+00,1.000000000006875922e+01,6.599999999999800471e-01,1.569999999999270646e+00,2.869999999999981810e+03,-2.175000000001352518e+00,-4.945000000000822737e+00,1.340940304166006847e+01,-2.172736279543870719e+00
1.999999999999805311e+01,3.000000000008677503e+00,9.999999999959239716e+00,6.600000000001345901e-01,1.570000000000792095e+00,2.869999999999995453e+03,-2.174999999998594724e+00,-4.944999999998707096e+00,1.339190470335385363e+01,-2.219304454201436183e+00
1.999999999999795364e+01,3.000000000258486121e+00,9.999999999860056832e+00,6.599999999995338484e-01,1.569999999999290630e+00,2.870000000000010914e+03,-2.175000000000676170e+00,-4.945000000002069740e+00,1.340848176435494388e+01,-2.197775488305237168e+00
1.999999999999866773e+01,3.000000000780524090e+00,9.999999999890501812e+00,6.599999999998136246e-01,1.569999999999635021e+00,2.870000000000001364e+03,-2.175000000000206768e+00,-4.945000000001413376e+00,1.337634686477704626e+01,-2.194888172414534822e+00
1.999999999999885958e+01,3.000000000497685892e+00,9.999999999889947588e+00,6.600000000001682299e-01,1.570000000000175255e+00,2.870000000000000455e+03,-2.174999999999075673e+00,-4.945000000000350227e+00,1.339706644250305345e+01,-2.239030338593533731e+00
1.999999999999984368e+01,3.000000000293207236e+00,9.999999999926687977e+00,6.599999999999065503e-01,1.569999999999929230e+00,2.870000000000005912e+03,-2.175000000000390621e+00,-4.944999999999852847e+00,1.340154001434443565e+01,-2.232238145734097845e+00
2.000000000000008882e+01,2.999999999667703587e+00,9.999999999933566031e+00,6.600000000003274359e-01,1.570000000000522089e+00,2.870000000000004093e+03,-2.174999999999391420e+00,-4.944999999998415774e+00,1.337542718621690341e+01,-2.194101239866149911e+00
2.000000000000019540e+01,2.999999998900789944e+00,9.999999999950158980e+00,6.600000000003629630e-01,1.570000000000409957e+00,2.869999999999997272e+03,-2.174999999999297273e+00,-4.944999999999239115e+00,1.339220393283308219e+01,-2.185086689824701445e+00
1.999999999999932854e+01,3.000000000863425331e+00,9.999999999946787455e+00,6.600000000002375078e-01,1.570000000000345119e+00,2.869999999999998181e+03,-2.174999999999170264e+00,-4.944999999999292406e+00,1.342686488464201666e+01,-2.240671248620261569e+00
2.000000000000042277e+01,2.999999999652297689e+00,9.999999999938182782e+00,6.600000000013482859e-01,1.570000000001324780e+00,2.869999999999998636e+03,-2.174999999997053735e+00,-4.944999999997941487e+00,1.342718650822865811e+01,-2.232606220622503024e+00
2.000000000000055422e+01,2.999999999281230512e+00,9.999999999943673501e+00,6.600000000011976287e-01,1.570000000000859375e+00,2.870000000000003183e+03,-2.174999999997836664e+00,-4.944999999998631601e+00,1.338834359950969777e+01,-2.206925094110169461e+00
1.999999999999910827e+01,2.999999999898054881e+00,9.999999999960840213e+00,6.599999999997613331e-01,1.570000000000396856e+00,2.870000000000000455e+03,-2.175000000000147704e+00,-4.944999999998744400e+00,1.344020696700395412e+01,-2.209970058263793113e+00
1.999999999999934630e+01,2.999999999831802544e+00,9.999999999969016784e+00,6.599999999997974154e-01,1.570000000000160822e+00,2.870000000000003183e+03,-2.175000000000403499e+00,-4.944999999999136975e+00,1.341287730719431082e+01,-2.218073643334748546e+00
1.999999999999899103e+01,2.999999999999647393e+00,9.999999999973526954e+00,6.599999999995473932e-01,1.569999999999942997e+00,2.870000000000000909e+03,-2.175000000000737455e+00,-4.944999999999812879e+00,1.346723457218686981e+01,-2.193356873249666883e+00
1.999999999999953815e+01,2.999999999504038506e+00,9.999999999973677944e+00,6.599999999999498490e-01,1.570000000000413287e+00,2.869999999999996362e+03,-2.175000000000005596e+00,-4.944999999998701767e+00,1.343192059229662583e+01,-2.181629617401331434e+00
1.999999999999965894e+01,2.999999999787456684e+00,9.999999999977909226e+00,6.599999999999670575e-01,1.570000000000346008e+00,2.869999999999992724e+03,-2.175000000000028688e+00,-4.944999999998906937e+00,1.343043028871533018e+01,-2.178018812803792947e+00
1.999999999999917222e+01,2.999999999545881924e+00,9.999999999953438135e+00,6.599999999996505329e-01,1.570000000000273399e+00,2.869999999999999091e+03,-2.175000000000349321e+00,-4.944999999999103224e+00,1.346172499511472154e+01,-2.220999390144273278e+00
2.000000000000053646e+01,2.999999998645994204e+00,9.999999999961570296e+00,6.600000000005855627e-01,1.570000000000185247e+00,2.869999999999985448e+03,-2.174999999999219558e+00,-4.944999999999896367e+00,1.337535421858794216e+01,-2.194387731969548838e+00
1.999999999999989342e+01,2.999999998548787072e+00,9.999999999955919705e+00,6.600000000003950484e-01,1.569999999999930784e+00,2.869999999999992724e+03,-2.174999999999587708e+00,-4.945000000000677076e+00,1.340803013001188582e+01,-2.193724740234023418e+00
2.000000000000016342e+01,2.999999998641309951e+00,9.999999999965782038e+00,6.600000000005866729e-01,1.570000000000573825e+00,2.870000000000000909e+03,-2.174999999998990852e+00,-4.944999999998985096e+00,1.342710221263637571e+01,-2.216320938640107041e+00
1.999999999999926459e+01,2.999999999057876732e+00,9.999999999927778660e+00,6.600000000006662759e-01,1.570000000000636886e+00,2.870000000000004547e+03,-2.174999999998506350e+00,-4.944999999998992202e+00,1.339564926048385551e+01,-2.197008968051436639e+00
1.999999999999960210e+01,2.999999999489724622e+00,9.999999999911528548e+00,6.600000000005885603e-01,1.570000000000616014e+00,2.870000000000002728e+03,-2.174999999998656897e+00,-4.944999999999144968e+00,1.340640225714355793e+01,-2.207317567825342053e+00
2.000000000000039790e+01,2.999999999235166470e+00,9.999999999970173192e+00,6.600000000005978862e-01,1.570000000000471241e+00,2.870000000000001819e+03,-2.174999999999244871e+00,-4.944999999998884732e+00,1.337525483469094212e+01,-2.217037577460703179e+00
1.999999999999820233e+01,2.999999999476851364e+00,9.999999999993889332e+00,6.600000000000627587e-01,1.569999999999736939e+00,2.869999999999983174e+03,-2.174999999999434053e+00,-4.945000000001657625e+00,1.346245411459788954e+01,-2.213627596996809554e+00
1.999999999999802469e+01,3.000000000517778709e+00,9.999999999983479881e+00,6.600000000001911005e-01,1.569999999999949658e+00,2.869999999999989996e+03,-2.174999999999136513e+00,-4.945000000001132712e+00,1.346688542807693523e+01,-2.219035399141057852e+00
1.999999999999868550e+01,3.000000000601696470e+00,9.999999999999118927e+00,6.600000000002100853e-01,1.570000000000029816e+00,2.869999999999980901e+03,-2.174999999999163602e+00,-4.945000000000835172e+00,1.345144422336290191e+01,-2.235965713483393458e+00
1.999999999999793943e+01,2.999999999583546906e+00,9.999999999984591881e+00,6.600000000002422818e-01,1.570000000000007390e+00,2.869999999999986358e+03,-2.174999999998882938e+00,-4.945000000001063434e+00,1.345612047340952167e+01,-2.215914924624165394e+00
1.999999999999807798e+01,2.999999999389262761e+00,9.999999999970823339e+00,6.600000000001472467e-01,1.570000000000055129e+00,2.869999999999986812e+03,-2.174999999999065015e+00,-4.945000000000906226e+00,1.344076093619045942e+01,-2.209763251305476572e+00
1.999999999999833022e+01,2.999999999679499041e+00,9.999999999982989607e+00,6.600000000001402523e-01,1.569999999999768026e+00,2.869999999999989996e+03,-2.174999999999498890e+00,-4.945000000001479101e+00,1.343117322555183613e+01,-2.212468715426985977e+00
2.000000000000070344e+01,2.999999999599034517e+00,1.000000000008845547e+01,6.599999999995660449e-01,1.569999999998646478e+00,2.869999999999978172e+03,-2.175000000002062173e+00,-4.945000000002904628e+00,1.338941402050898155e+01,-2.175571166801849365e+00
2.000000000000039435e+01,3.000000000369592357e+00,1.000000000005670131e+01,6.599999999997546718e-01,1.569999999998838325e+00,2.869999999999975898e+03,-2.175000000001296563e+00,-4.945000000002984564e+00,1.339111766802137460e+01,-2.228015954253478537e+00
2.000000000000026290e+01,3.000000000275329537e+00,1.000000000000715517e+01,6.600000000001254863e-01,1.569999999999764695e+00,2.869999999999988177e+03,-2.175000000000002487e+00,-4.945000000000803198e+00,1.341538848843684839e+01,-2.241056602041456181e+00
1.999999999999993605e+01,3.000000001749663525e+00,1.000000000002659384e+01,6.600000000000774136e-01,1.570000000000548068e+00,2.870000000000004547e+03,-2.174999999999352340e+00,-4.944999999998972662e+00,1.339378410944006426e+01,-2.243113985855266890e+00
2.000000000000046541e+01,3.000000001604175903e+00,1.000000000003833733e+01,6.599999999998161782e-01,1.570000000000128182e+00,2.870000000000001364e+03,-2.175000000000280043e+00,-4.944999999999385665e+00,1.337244252542235934e+01,-2.246292043918018955e+00
1.999999999999871747e+01,3.000000000153217439e+00,9.999999999950990315e+00,6.599999999996729594e-01,1.569999999999238227e+00,2.870000000000002274e+03,-2.175000000000881784e+00,-4.945000000001822826e+00,1.339919541721316598e+01,-2.141079365555087044e+00
1.999999999999899458e+01,3.000000000193668193e+00,9.999999999933299577e+00,6.599999999995037614e-01,1.569999999999212026e+00,2.870000000000000909e+03,-2.175000000001299227e+00,-4.945000000001603446e+00,1.340275542106713758e+01,-2.153088929614303204e+00
1.999999999999851141e+01,3.000000000511298115e+00,9.999999999915413440e+00,6.599999999993710897e-01,1.569999999998799911e+00,2.870000000000006821e+03,-2.175000000001704681e+00,-4.945000000002702123e+00,1.339059026568846633e+01,-2.150227221398365529e+00
2.000000000000000355e+01,3.000000001828261542e+00,9.999999999985531574e+00,6.599999999991541522e-01,1.569999999998433315e+00,2.869999999999994543e+03,-2.175000000002440093e+00,-4.945000000002913509e+00,1.339480415055637508e+01,-2.440011754306274483e+00
1.999999999999883116e+01,3.000000002369082708e+00,9.999999999920888172e+00,6.599999999990894262e-01,1.569999999998940465e+00,2.869999999999999545e+03,-2.175000000001456435e+00,-4.945000000002429452e+00,1.356562748028818000e+01,-2.325963180303613598e+00
1.999999999999911182e+01,3.000000001574564479e+00,9.999999999936273198e+00,6.599999999987246069e-01,1.569999999998313855e+00,2.869999999999999545e+03,-2.175000000002638156e+00,-4.945000000003777707e+00,1.358042579577374021e+01,-2.301256822891738718e+00
1.999999999999861444e+01,3.000000001628138069e+00,9.999999999914304993e+00,6.599999999992375299e-01,1.569999999999169171e+00,2.870000000000000909e+03,-2.175000000000967937e+00,-4.945000000002210072e+00,1.357012331409279682e+01,-2.291502245426824569e+00
1.999999999999883826e+01,3.000000001264721217e+00,9.999999999911928228e+00,6.599999999987897770e-01,1.569999999998723306e+00,2.869999999999996362e+03,-2.175000000002132783e+00,-4.945000000002990781e+00,1.354861343478342839e+01,-2.282649014979536428e+00
1.999999999999872458e+01,3.000000001941487859e+00,9.999999999925345051e+00,6.599999999989767385e-01,1.569999999998914486e+00,2.870000000000004547e+03,-2.175000000001763745e+00,-4.945000000002508500e+00,1.353558040379357763e+01,-2.298684657893730776e+00
1.999999999999882760e+01,3.000000001307236985e+00,9.999999999909009674e+00,6.599999999986320143e-01,1.569999999998365814e+00,2.870000000000004547e+03,-2.175000000002719425e+00,-4.945000000003386020e+00,1.354294757243687286e+01,-2.303949641707631280e+00
1.999999999999872458e+01,3.000000001225616941e+00,9.999999999925623939e+00,6.599999999989751842e-01,1.569999999998863860e+00,2.869999999999999091e+03,-2.175000000001556799e+00,-4.945000000002885976e+00,1.356755544099326372e+01,-2.295423294217306509e+00
1.999999999999858247e+01,3.000000001876585110e+00,9.999999999917504212e+00,6.599999999990139310e-01,1.569999999998832774e+00,2.870000000000003638e+03,-2.175000000001624301e+00,-4.945000000002678142e+00,1.353615735003018017e+01,-2.290710692830778328e+00
1.999999999999877787e+01,3.000000001985190234e+00,9.999999999928293803e+00,6.599999999989655253e-01,1.569999999998934470e+00,2.870000000000000909e+03,-2.175000000001723777e+00,-4.945000000002645280e+00,1.352104990795112549e+01,-2.299783960392074444e+00
1.999999999999974065e+01,3.000000000519400079e+00,9.999999999917095650e+00,6.599999999995562749e-01,1.569999999999611262e+00,2.870000000000000455e+03,-2.175000000000953282e+00,-4.945000000000928431e+00,1.339392098652587748e+01,-2.186206084627460022e+00
1.999999999999968736e+01,3.000000000173845383e+00,9.999999999944979123e+00,6.599999999989949462e-01,1.569999999999245999e+00,2.869999999999993634e+03,-2.175000000002074163e+00,-4.945000000000987050e+00,1.339861389478400966e+01,-2.180388125740150951e+00
2.000000000000080291e+01,3.000000000387120114e+00,9.999999999954562568e+00,6.599999999998080735e-01,1.569999999999618590e+00,2.870000000000001819e+03,-2.175000000000800515e+00,-4.945000000000554508e+00,1.340343249597601272e+01,-2.215464779761241232e+00
2.000000000000106937e+01,3.000000001034000441e+00,9.999999999946991736e+00,6.600000000001199352e-01,1.569999999999917684e+00,2.869999999999995907e+03,-2.175000000000042899e+00,-4.944999999999788010e+00,1.339942255930985127e+01,-2.217859515039019236e+00
2.000000000000173372e+01,3.000000002019772793e+00,1.000000000001388578e+01,6.600000000008152679e-01,1.570000000000197016e+00,2.869999999999999545e+03,-2.174999999999210232e+00,-4.944999999999607709e+00,1.342992120340195861e+01,-2.426115419068385570e+00
2.000000000000185807e+01,3.000000002396931098e+00,1.000000000002999201e+01,6.600000000012270496e-01,1.570000000000908891e+00,2.869999999999998636e+03,-2.174999999997996980e+00,-4.944999999997910400e+00,1.340131101632197286e+01,-2.484769669529481195e+00
2.000000000000082423e+01,3.000000001849512543e+00,1.000000000006673417e+01,6.599999999994774491e-01,1.569999999998767493e+00,2.869999999999998181e+03,-2.175000000001964917e+00,-4.945000000002309548e+00,1.357143323717108885e+01,-2.309824825238650181e+00
1.999999999999786482e+01,3.000000000463724614e+00,9.999999999971038278e+00,6.600000000003584111e-01,1.570000000000910223e+00,2.870000000000005002e+03,-2.174999999998201705e+00,-4.944999999998902496e+00,1.341000420172796126e+01,-2.168687074448188756e+00
1.999999999999753086e+01,3.000000000404120737e+00,9.999999999967666753e+00,6.600000000006336354e-01,1.570000000001191998e+00,2.870000000000008185e+03,-2.174999999997448086e+00,-4.944999999998277218e+00,1.341430378452802152e+01,-2.158175973830582794e+00
1.999999999999742428e+01,3.000000001014506701e+00,9.999999999958157915e+00,6.600000000006235323e-01,1.570000000001512630e+00,2.870000000000005912e+03,-2.174999999997186073e+00,-4.944999999997706119e+00,1.341973217262847839e+01,-2.164593755144030407e+00
1.999999999999828404e+01,3.000000000461040095e+00,9.999999999989134025e+00,6.600000000007335554e-01,1.570000000001235740e+00,2.869999999999999091e+03,-2.174999999997588418e+00,-4.944999999998007212e+00,1.337673465794178007e+01,-2.146904582210476420e+00
1.999999999999838707e+01,3.000000000069837025e+00,9.999999999996456168e+00,6.600000000009133005e-01,1.570000000001462004e+00,2.869999999999993179e+03,-2.174999999996953814e+00,-4.944999999997774509e+00,1.341740524961651815e+01,-2.165713112456391976e+00
1.999999999999768363e+01,3.000000000282105450e+00,9.999999999983588239e+00,6.600000000011382317e-01,1.570000000001857021e+00,2.870000000000002728e+03,-2.174999999996120703e+00,-4.944999999997105711e+00,1.343100044577448315e+01,-2.185929124583787964e+00
1.999999999999791100e+01,2.999999999800417427e+00,9.999999999983161914e+00,6.600000000008797718e-01,1.570000000001659846e+00,2.870000000000000000e+03,-2.174999999996794386e+00,-4.944999999997460094e+00,1.342631477356106195e+01,-2.158153378668570710e+00
1.999999999999761613e+01,3.000000000437426539e+00,9.999999999967085884e+00,6.600000000009980106e-01,1.570000000001716245e+00,2.870000000000002274e+03,-2.174999999996411137e+00,-4.944999999997486739e+00,1.343215612720596752e+01,-2.187435630637480699e+00
1.999999999999764100e+01,3.000000000647846221e+00,9.999999999946275864e+00,6.600000000004129230e-01,1.570000000000641549e+00,2.870000000000004093e+03,-2.174999999998414868e+00,-4.944999999999383888e+00,1.343495096624633867e+01,-2.159130306511138020e+00
1.999999999999833378e+01,2.999999999813569573e+00,9.999999999989359623e+00,6.600000000003910516e-01,1.570000000000491447e+00,2.869999999999998636e+03,-2.174999999998810996e+00,-4.944999999999597051e+00,1.342201252492765207e+01,-2.143664838872054279e+00
1.999999999999814548e+01,3.000000000491219954e+00,9.999999999972764897e+00,6.600000000004588863e-01,1.570000000000609353e+00,2.869999999999998181e+03,-2.174999999998401101e+00,-4.944999999999574847e+00,1.345570237501265787e+01,-2.173730933347424177e+00
1.999999999999788614e+01,3.000000000301482395e+00,9.999999999972526865e+00,6.600000000004871969e-01,1.570000000000504770e+00,2.870000000000004093e+03,-2.174999999998517897e+00,-4.944999999999588169e+00,1.344727447884358895e+01,-2.170596744524713184e+00
1.999999999999828404e+01,2.999999999596099087e+00,9.999999999985929477e+00,6.600000000007749668e-01,1.570000000001270823e+00,2.869999999999994088e+03,-2.174999999997508482e+00,-4.944999999998191065e+00,1.341998787340797605e+01,-2.105382260997839872e+00
1.999999999999808153e+01,3.000000000466862105e+00,9.999999999972343900e+00,6.600000000003565237e-01,1.570000000000529194e+00,2.869999999999998636e+03,-2.174999999998710631e+00,-4.944999999999467377e+00,1.340898356942706648e+01,-2.147473909048182694e+00
