1.999999999999951328e+01,2.999999998973814197e+00,9.999999999961195485e+00,6.600000000002094191e-01,1.569999999999437401e+00,2.869999999999995907e+03,-2.175000000000294698e+00,-4.945000000002902851e+00,1.340113537518202769e+01,-2.155461467259829789e+00
2.000000000000148148e+01,2.999999996329588914e+00,1.000000000005501732e+01,6.599999999997967493e-01,1.569999999999753149e+00,2.869999999999970896e+03,-2.175000000001201084e+00,-4.944999999999446061e+00,1.337713468507300263e+01,-2.183892253093984603e+00
2.000000000000038725e+01,2.999999998013670233e+00,1.000000000001388045e+01,6.600000000005847856e-01,1.570000000000856044e+00,2.869999999999977263e+03,-2.174999999999153388e+00,-4.944999999998823448e+00,1.339747612343303551e+01,-2.147394811589083741e+00
2.000000000000094857e+01,2.999999998772527654e+00,1.000000000005985967e+01,6.600000000006812639e-01,1.570000000000870699e+00,2.869999999999967258e+03,-2.174999999998767919e+00,-4.944999999997054196e+00,1.339429480781997306e+01,-2.156706646000341454e+00
2.000000000000233769e+01,2.999999998779878663e+00,1.000000000006516387e+01,6.600000000012968826e-01,1.569999999996705364e+00,2.869999999999955435e+03,-2.175000000002121681e+00,-4.945000000013489050e+00,1.340571156526976893e+01,-2.147626214148956159e+00
2.000000000000033040e+01,2.999999998573357640e+00,1.000000000002158096e+01,6.600000000001369216e-01,1.569999999999514451e+00,2.869999999999997726e+03,-2.175000000000409273e+00,-4.945000000000834284e+00,1.339267887750013841e+01,-2.182895898064455498e+00
2.000000000000003197e+01,2.999999999273828433e+00,1.000000000001042011e+01,6.600000000001067235e-01,1.570000000000102425e+00,2.870000000000007731e+03,-2.174999999999897238e+00,-4.944999999999493134e+00,1.340198386278087916e+01,-2.176899763463387316e+00
2.000000000000018474e+01,2.999999999671242090e+00,1.000000000004395773e+01,6.600000000002832490e-01,1.570000000001007479e+00,2.869999999999965894e+03,-2.174999999998664002e+00,-4.944999999996221973e+00,1.339957849164494874e+01,-2.174189688418864286e+00
2.000000000000024869e+01,2.999999999308951448e+00,1.000000000004406431e+01,6.600000000001527978e-01,1.570000000000225437e+00,2.869999999999972260e+03,-2.174999999999574829e+00,-4.944999999998519691e+00,1.339575006731476847e+01,-2.169819771205194758e+00
2.000000000000118305e+01,2.999999999198999401e+00,1.000000000000311040e+01,6.599999999997115951e-01,1.569999999999321494e+00,2.869999999999996362e+03,-2.175000000001775291e+00,-4.945000000001947171e+00,1.339964539029188906e+01,-2.170893412816265577e+00
2.000000000000063238e+01,2.999999998013610281e+00,9.999999999978369303e+00,6.599999999995939115e-01,1.570000000000266294e+00,2.870000000000008640e+03,-2.175000000000909761e+00,-4.944999999999028617e+00,1.339353684929750088e+01,-2.189130677405100922e+00
1.999999999999988631e+01,2.999999998508800836e+00,9.999999999982419396e+00,6.599999999992554045e-01,1.569999999999619478e+00,2.870000000000002274e+03,-2.175000000001464429e+00,-4.945000000000131735e+00,1.339610610288207937e+01,-2.171743325476478859e+00
2.000000000000018474e+01,2.999999998156369863e+00,9.999999999949380936e+00,6.599999999999067724e-01,1.569999999998580975e+00,2.869999999999984539e+03,-2.175000000001798828e+00,-4.945000000005618013e+00,1.339871753772231422e+01,-2.138839622356841996e+00
2.000000000000000000e+01,2.999999999169131293e+00,9.999999999922827953e+00,6.599999999991444932e-01,1.569999999999333928e+00,2.870000000000002274e+03,-2.175000000002096368e+00,-4.945000000001460450e+00,1.341339689838782334e+01,-2.182300632476368740e+00
2.000000000000004974e+01,2.999999998846506255e+00,9.999999999934267692e+00,6.599999999991856825e-01,1.569999999999270424e+00,2.870000000000002274e+03,-2.175000000002062173e+00,-4.945000000001344986e+00,1.341339266492705562e+01,-2.190698916281050401e+00
2.000000000000096279e+01,2.999999998175209903e+00,1.000000000001296740e+01,6.600000000002160805e-01,1.569999999999894591e+00,2.869999999999982265e+03,-2.175000000000459455e+00,-4.945000000000510099e+00,1.338103650709941483e+01,-2.153659927080707970e+00
2.000000000000017408e+01,2.999999999242750182e+00,9.999999999924986227e+00,6.599999999987661292e-01,1.569999999998449081e+00,2.869999999999978627e+03,-2.175000000003004974e+00,-4.945000000004164065e+00,1.340735780091163143e+01,-2.173375183105133335e+00
2.000000000000039790e+01,2.999999999636610237e+00,9.999999999932747130e+00,6.599999999987611332e-01,1.569999999998055618e+00,2.869999999999978172e+03,-2.175000000003419309e+00,-4.945000000004794671e+00,1.340788249448323732e+01,-2.179482822470300896e+00
2.000000000000100542e+01,2.999999997718943323e+00,1.000000000004614975e+01,6.600000000001317035e-01,1.569999999999099893e+00,2.869999999999963620e+03,-2.175000000000839151e+00,-4.945000000000962181e+00,1.338416134458836204e+01,-2.162857540562726388e+00
2.000000000000165556e+01,3.000000000306409564e+00,1.000000000004136247e+01,6.600000000008907630e-01,1.569999999998297646e+00,2.869999999999959527e+03,-2.175000000001010569e+00,-4.945000000005601137e+00,1.339960271205428732e+01,-2.135279908426440443e+00
2.000000000000082423e+01,2.999999998964263614e+00,1.000000000003757705e+01,6.600000000008973133e-01,1.570000000000190798e+00,2.869999999999951797e+03,-2.174999999998673772e+00,-4.945000000000058904e+00,1.339306252001124342e+01,-2.158275259503325660e+00
2.000000000000120437e+01,3.000000000060077276e+00,9.999999999993161026e+00,6.600000000006660539e-01,1.569999999997192086e+00,2.869999999999984539e+03,-2.175000000002236256e+00,-4.945000000009958541e+00,1.340708496753080503e+01,-2.164269940628216204e+00
2.000000000000130740e+01,3.000000000147597934e+00,1.000000000000507860e+01,6.600000000005723511e-01,1.569999999996797957e+00,2.869999999999979991e+03,-2.175000000002554223e+00,-4.945000000010259633e+00,1.340495799469212024e+01,-2.178610752385675475e+00
1.999999999999984368e+01,2.999999997894951420e+00,9.999999999954681584e+00,6.600000000002987921e-01,1.570000000000119078e+00,2.870000000000004547e+03,-2.174999999999851941e+00,-4.945000000000072227e+00,1.339328586341758687e+01,-2.162474280341742272e+00
1.999999999999973355e+01,2.999999999121474747e+00,9.999999999984048316e+00,6.600000000001015055e-01,1.569999999999567519e+00,2.869999999999989541e+03,-2.175000000000331113e+00,-4.945000000001918750e+00,1.340315695138162866e+01,-2.193623380484667873e+00
1.999999999999981171e+01,2.999999998839605997e+00,9.999999999990665245e+00,6.600000000004337952e-01,1.569999999999769136e+00,2.869999999999982720e+03,-2.174999999999727152e+00,-4.945000000001967599e+00,1.340435172312746914e+01,-2.182509496790935977e+00
2.000000000000130740e+01,2.999999998941850432e+00,1.000000000009335288e+01,6.600000000014621948e-01,1.570000000001548823e+00,2.869999999999951342e+03,-2.174999999997148326e+00,-4.944999999996769979e+00,1.339327593009119077e+01,-2.179629256010449545e+00
2.000000000000052935e+01,2.999999997837272669e+00,1.000000000000557421e+01,6.599999999994539124e-01,1.569999999996977591e+00,2.869999999999968168e+03,-2.175000000003480150e+00,-4.945000000008303864e+00,1.339675530674180415e+01,-2.167788322579965676e+00
2.000000000000033396e+01,3.000000000011964651e+00,9.999999999949737983e+00,6.599999999994047295e-01,1.569999999998217488e+00,2.869999999999999091e+03,-2.175000000002591971e+00,-4.945000000004670326e+00,1.341113482107861721e+01,-2.194730647187113526e+00
2.000000000000025935e+01,2.999999999579215704e+00,9.999999999967538855e+00,6.599999999997261391e-01,1.569999999998849205e+00,2.869999999999998181e+03,-2.175000000001641620e+00,-4.945000000002774954e+00,1.341059203534573996e+01,-2.190081799631200532e+00
2.000000000000120437e+01,2.999999997343925084e+00,1.000000000000325606e+01,6.600000000002044231e-01,1.569999999998245244e+00,2.869999999999989996e+03,-2.175000000002127898e+00,-4.945000000006325891e+00,1.338035930918600513e+01,-2.154502409438224575e+00
2.000000000000091305e+01,2.999999997755083747e+00,1.000000000006436807e+01,6.600000000010023404e-01,1.570000000001567253e+00,2.869999999999963620e+03,-2.174999999997615507e+00,-4.944999999996027462e+00,1.339490147042675083e+01,-2.169840143502899554e+00
2.000000000000106937e+01,2.999999998159474046e+00,1.000000000002206590e+01,6.599999999996151168e-01,1.569999999997997886e+00,2.869999999999990905e+03,-2.175000000002760725e+00,-4.945000000004235119e+00,1.339246819911454445e+01,-2.195007128597973090e+00
2.000000000000082423e+01,2.999999998992799455e+00,1.000000000002867218e+01,6.599999999999736078e-01,1.569999999998857865e+00,2.869999999999948614e+03,-2.175000000001267697e+00,-4.945000000001992468e+00,1.340585523255375833e+01,-2.175993663284081947e+00
2.000000000000058265e+01,2.999999999641450810e+00,1.000000000001940847e+01,6.599999999996798428e-01,1.569999999998934470e+00,2.869999999999960437e+03,-2.175000000001496403e+00,-4.945000000001171792e+00,1.341208349256699783e+01,-2.189364923583287936e+00
2.000000000000076028e+01,2.999999999233931014e+00,1.000000000001508305e+01,6.600000000000814104e-01,1.569999999998283657e+00,2.869999999999984084e+03,-2.175000000001867217e+00,-4.945000000004980301e+00,1.340640519860319202e+01,-2.176608689718190881e+00
2.000000000000039080e+01,2.999999999596589806e+00,9.999999999988716581e+00,6.599999999997006039e-01,1.569999999998527240e+00,2.869999999999991360e+03,-2.175000000002101697e+00,-4.945000000003740404e+00,1.341107463651856868e+01,-2.174705993231324630e+00
2.000000000000163070e+01,2.999999996541976799e+00,1.000000000006953549e+01,6.600000000007352208e-01,1.569999999998738849e+00,2.869999999999935881e+03,-2.175000000000526956e+00,-4.945000000003177298e+00,1.337972577146361708e+01,-2.161719460173480378e+00
2.000000000000009237e+01,2.999999999808064199e+00,9.999999999979143794e+00,6.599999999997924194e-01,1.569999999998580087e+00,2.870000000000004093e+03,-2.175000000001925393e+00,-4.945000000004169394e+00,1.341535272341418583e+01,-2.170890517583623947e+00
2.000000000000008882e+01,2.999999999754401792e+00,9.999999999967252862e+00,6.599999999994610178e-01,1.569999999998689999e+00,2.870000000000001819e+03,-2.175000000002356160e+00,-4.945000000003688001e+00,1.341547046797662190e+01,-2.169531788840283859e+00
2.000000000000051514e+01,2.999999997636872529e+00,9.999999999983030463e+00,6.600000000001599032e-01,1.570000000000367768e+00,2.869999999999963620e+03,-2.174999999999942535e+00,-4.944999999999582840e+00,1.340036085863338577e+01,-2.142511289766094951e+00
2.000000000000024158e+01,2.999999998720363159e+00,1.000000000001493738e+01,6.599999999999649480e-01,1.569999999998665796e+00,2.869999999999971806e+03,-2.175000000001105160e+00,-4.945000000003933138e+00,1.339517689430480729e+01,-2.174592303033781704e+00
2.000000000000117595e+01,3.000000000614015505e+00,1.000000000000605915e+01,6.600000000011448931e-01,1.569999999999375673e+00,2.869999999999964530e+03,-2.174999999999644995e+00,-4.945000000003295426e+00,1.340501069338217910e+01,-2.169074918895784965e+00
2.000000000000143885e+01,2.999999999983680166e+00,1.000000000003597478e+01,6.600000000010509682e-01,1.569999999999123430e+00,2.869999999999958618e+03,-2.174999999999966072e+00,-4.945000000003526353e+00,1.339924133399712147e+01,-2.170246896025204375e+00
2.000000000000194333e+01,2.999999998657420175e+00,1.000000000003357670e+01,6.599999999997011590e-01,1.569999999997421236e+00,2.869999999999962256e+03,-2.175000000003494360e+00,-4.945000000006613661e+00,1.339542710881238108e+01,-2.165575358039905307e+00
1.999999999999988631e+01,2.999999998908540633e+00,9.999999999964916952e+00,6.599999999995272981e-01,1.569999999999890594e+00,2.869999999999979991e+03,-2.175000000000816058e+00,-4.945000000000974616e+00,1.341868329830583484e+01,-2.132847993621094673e+00
2.000000000000045119e+01,2.999999998486331698e+00,1.000000000000391509e+01,6.600000000001724487e-01,1.570000000000822515e+00,2.869999999999979991e+03,-2.174999999999417621e+00,-4.944999999998670681e+00,1.341110787915694402e+01,-2.134442404163843676e+00
2.000000000000111910e+01,2.999999998667442380e+00,1.000000000001407940e+01,6.600000000000251221e-01,1.569999999999061480e+00,2.869999999999994543e+03,-2.175000000001563016e+00,-4.945000000003701324e+00,1.339879522926966615e+01,-2.157371399646476284e+00
2.000000000000153833e+01,2.999999998739139695e+00,1.000000000003016964e+01,6.599999999998362732e-01,1.570000000000565832e+00,2.870000000000005912e+03,-2.175000000000989697e+00,-4.944999999998316298e+00,1.340125542896023703e+01,-2.152535439532849537e+00
2.000000000000025580e+01,2.999999998842520998e+00,9.999999999954749086e+00,6.600000000000223466e-01,1.570000000000496110e+00,2.869999999999995453e+03,-2.175000000000147260e+00,-4.944999999999519780e+00,1.340154191185876797e+01,-2.132003505015581002e+00
2.000000000000055778e+01,2.999999998913869703e+00,9.999999999970055953e+00,6.599999999996238875e-01,1.569999999999889484e+00,2.869999999999971351e+03,-2.175000000001080291e+00,-4.945000000001065210e+00,1.340258114888938579e+01,-2.134347359236188346e+00
2.000000000000032330e+01,2.999999998486439612e+00,1.000000000000249045e+01,6.599999999995384004e-01,1.569999999997633289e+00,2.869999999999951797e+03,-2.175000000002475176e+00,-4.945000000006046115e+00,1.339245393929505212e+01,-2.151054068090524130e+00
2.000000000000051514e+01,2.999999998699194759e+00,1.000000000002393641e+01,6.600000000003450884e-01,1.569999999998689111e+00,2.870000000000004093e+03,-2.175000000001038991e+00,-4.945000000002549356e+00,1.339387093938987938e+01,-2.203105612517934464e+00
2.000000000000077449e+01,2.999999999380432048e+00,1.000000000000015632e+01,6.599999999998125144e-01,1.569999999998803242e+00,2.870000000000020009e+03,-2.175000000002002665e+00,-4.945000000002776730e+00,1.339842434178923547e+01,-2.204810013701699045e+00
2.000000000000160227e+01,2.999999997578020494e+00,1.000000000004421530e+01,6.600000000004269118e-01,1.569999999997105933e+00,2.870000000000000455e+03,-2.175000000002960565e+00,-4.945000000009009078e+00,1.338234584689806361e+01,-2.173423670089038140e+00
2.000000000000017764e+01,2.999999998504956800e+00,9.999999999950036411e+00,6.599999999999451861e-01,1.569999999999903695e+00,2.869999999999976353e+03,-2.175000000000582467e+00,-4.944999999999690310e+00,1.339870354030776056e+01,-2.134682028693942968e+00
2.000000000000114042e+01,2.999999999555891694e+00,9.999999999989887201e+00,6.600000000002649303e-01,1.569999999999998064e+00,2.869999999999956799e+03,-2.175000000000359979e+00,-4.944999999999574847e+00,1.340141178017310786e+01,-2.143328063146515472e+00
1.999999999999963762e+01,2.999999997820174347e+00,9.999999999935861084e+00,6.599999999988690469e-01,1.569999999997519380e+00,2.869999999999988631e+03,-2.175000000003601830e+00,-4.945000000006173124e+00,1.340821389619451232e+01,-2.142901246149358396e+00
1.999999999999934985e+01,2.999999998047877092e+00,9.999999999911068471e+00,6.599999999989960564e-01,1.569999999997780282e+00,2.869999999999999091e+03,-2.175000000003287415e+00,-4.945000000006084306e+00,1.341217507678416965e+01,-2.147207763621291399e+00
2.000000000000096279e+01,2.999999998744146801e+00,9.999999999981147525e+00,6.599999999997765432e-01,1.569999999998523910e+00,2.869999999999981810e+03,-2.175000000002191403e+00,-4.945000000004728946e+00,1.340323738661002473e+01,-2.155112488512683111e+00
2.000000000000134293e+01,3.000000000039310333e+00,1.000000000002786749e+01,6.599999999992332000e-01,1.569999999999582618e+00,2.869999999999976353e+03,-2.175000000002027090e+00,-4.945000000001052776e+00,1.341285811085992918e+01,-2.155852519771945364e+00
2.000000000000157740e+01,2.999999999564954223e+00,1.000000000004068390e+01,6.599999999994452526e-01,1.569999999998894946e+00,2.869999999999966349e+03,-2.175000000002410339e+00,-4.945000000003735963e+00,1.340872974396677719e+01,-2.140914088793160364e+00
2.000000000000128608e+01,2.999999998757993058e+00,1.000000000005152678e+01,6.600000000005579182e-01,1.569999999998768381e+00,2.869999999999969077e+03,-2.175000000000828937e+00,-4.945000000004256435e+00,1.339765024836919238e+01,-2.148601290787631068e+00
2.000000000000298783e+01,2.999999998520845423e+00,1.000000000005281642e+01,6.600000000004555556e-01,1.569999999999730278e+00,2.869999999999939519e+03,-2.175000000000951506e+00,-4.945000000000091767e+00,1.339313291045648135e+01,-2.143841381313984940e+00
2.000000000000204281e+01,2.999999998063930029e+00,1.000000000001571365e+01,6.600000000002169687e-01,1.569999999995592033e+00,2.869999999999964984e+03,-2.175000000004397194e+00,-4.945000000013915376e+00,1.338314922373308669e+01,-2.154231297403573997e+00
2.000000000000114042e+01,2.999999998440205040e+00,9.999999999988276045e+00,6.600000000005742384e-01,1.569999999998125562e+00,2.869999999999979991e+03,-2.175000000001722888e+00,-4.945000000007398810e+00,1.338429393338427964e+01,-2.163385599016760530e+00
2.000000000000159517e+01,2.999999998306848159e+00,1.000000000001968381e+01,6.599999999999727196e-01,1.569999999999809770e+00,2.869999999999975898e+03,-2.175000000001084288e+00,-4.944999999999874163e+00,1.339231603539269067e+01,-2.183119990225041551e+00
2.000000000000085976e+01,2.999999998257397049e+00,1.000000000001470468e+01,6.600000000001161604e-01,1.570000000000283835e+00,2.869999999999947704e+03,-2.174999999999974953e+00,-4.945000000000132623e+00,1.338539542832877949e+01,-2.164350825421095248e+00
1.999999999999958078e+01,2.999999997860805401e+00,9.999999999978660625e+00,6.599999999999298650e-01,1.570000000001810392e+00,2.870000000000007731e+03,-2.174999999998858957e+00,-4.944999999994025508e+00,1.338305380935522848e+01,-2.158814261597044482e+00
2.000000000000217071e+01,2.999999998937746160e+00,1.000000000002498446e+01,6.599999999990385779e-01,1.569999999996823048e+00,2.869999999999973170e+03,-2.175000000004739142e+00,-4.945000000007028440e+00,1.339104702470759456e+01,-2.200075700163477865e+00
2.000000000000179767e+01,2.999999997481216596e+00,1.000000000001647038e+01,6.600000000001127187e-01,1.569999999999140972e+00,2.869999999999979991e+03,-2.175000000001741984e+00,-4.945000000001462226e+00,1.338440547816056991e+01,-2.180060303683673872e+00
2.000000000000096634e+01,3.000000000777852005e+00,1.000000000000689049e+01,6.600000000005977752e-01,1.570000000000103979e+00,2.869999999999972260e+03,-2.174999999999747136e+00,-4.945000000001610552e+00,1.341576701773320224e+01,-2.150423748848243388e+00
2.000000000000093081e+01,3.000000000983718440e+00,1.000000000000838440e+01,6.600000000008748868e-01,1.570000000000413731e+00,2.869999999999976808e+03,-2.174999999999246203e+00,-4.945000000001375184e+00,1.341628167711279573e+01,-2.150498036177688643e+00
2.000000000000033751e+01,2.999999998564026882e+00,1.000000000004351719e+01,6.600000000004947465e-01,1.569999999999344142e+00,2.869999999999988631e+03,-2.175000000000272937e+00,-4.945000000002550244e+00,1.337542565680604767e+01,-2.172647756880111913e+00
2.000000000000030909e+01,2.999999996927974699e+00,9.999999999944968465e+00,6.599999999996708500e-01,1.569999999998821893e+00,2.869999999999996817e+03,-2.175000000001990230e+00,-4.945000000004472263e+00,1.339202092308763525e+01,-2.170915179657743277e+00
2.000000000000079581e+01,2.999999998165902682e+00,1.000000000003736389e+01,6.600000000003286571e-01,1.570000000000416618e+00,2.869999999999996817e+03,-2.174999999999716049e+00,-4.944999999997583551e+00,1.339776401366830427e+01,-2.192076578828912048e+00
1.999999999999993605e+01,2.999999998625096698e+00,9.999999999991784350e+00,6.599999999997484545e-01,1.569999999998173967e+00,2.869999999999993179e+03,-2.175000000001976463e+00,-4.945000000005779661e+00,1.339856715766433126e+01,-2.131424816445604886e+00
1.999999999999987566e+01,2.999999998658876788e+00,1.000000000001688605e+01,6.600000000008963141e-01,1.569999999999079021e+00,2.869999999999979082e+03,-2.174999999999671196e+00,-4.945000000004927010e+00,1.340215591818110852e+01,-2.119915638494461962e+00
2.000000000000016698e+01,2.999999998583608996e+00,9.999999999980534682e+00,6.600000000000876277e-01,1.569999999997681916e+00,2.869999999999985903e+03,-2.175000000002120348e+00,-4.945000000007715890e+00,1.339941728210682648e+01,-2.139049475472189155e+00
2.000000000000110489e+01,2.999999996666482982e+00,9.999999999992056132e+00,6.599999999996747357e-01,1.569999999998746620e+00,2.869999999999989541e+03,-2.175000000002139888e+00,-4.945000000003255458e+00,1.338240993924849143e+01,-2.148040132878542341e+00
1.999999999999997158e+01,2.999999998411273960e+00,9.999999999990421884e+00,6.600000000000063594e-01,1.569999999999064144e+00,2.870000000000001364e+03,-2.175000000000887557e+00,-4.945000000002456098e+00,1.340624395216881126e+01,-2.222751339408548965e+00
1.999999999999988631e+01,2.999999998394649037e+00,9.999999999982168930e+00,6.600000000003682921e-01,1.569999999999823759e+00,2.870000000000000455e+03,-2.174999999999985167e+00,-4.945000000002168328e+00,1.340777802143829156e+01,-2.137682728778049324e+00
1.999999999999976552e+01,2.999999997870921309e+00,9.999999999999545253e+00,6.600000000004284662e-01,1.569999999999655005e+00,2.870000000000004093e+03,-2.174999999999932765e+00,-4.945000000003195950e+00,1.340629216536211210e+01,-2.126459727387192800e+00
2.000000000000166622e+01,2.999999999320038579e+00,1.000000000003694289e+01,6.599999999997044897e-01,1.569999999997298223e+00,2.869999999999958163e+03,-2.175000000003387779e+00,-4.945000000006908536e+00,1.339942705217717034e+01,-2.187232895343236727e+00
2.000000000000100542e+01,2.999999999312318533e+00,1.000000000007096901e+01,6.599999999995688205e-01,1.569999999999592832e+00,2.869999999999972715e+03,-2.175000000001259703e+00,-4.944999999999961204e+00,1.339514342599314389e+01,-2.193852053363379628e+00
2.000000000000002842e+01,2.999999999141349072e+00,9.999999999995285549e+00,6.599999999998422684e-01,1.569999999999068585e+00,2.869999999999986358e+03,-2.175000000000804068e+00,-4.945000000001487983e+00,1.341198947603937697e+01,-2.165314123372549471e+00
1.999999999999987566e+01,2.999999999120794403e+00,9.999999999982447818e+00,6.599999999992691713e-01,1.569999999998923590e+00,2.869999999999993634e+03,-2.175000000001583889e+00,-4.945000000000771223e+00,1.341136869000416176e+01,-2.182300894141213199e+00
2.000000000000022382e+01,2.999999997720796063e+00,9.999999999979527487e+00,6.600000000000313394e-01,1.569999999998584084e+00,2.869999999999994543e+03,-2.175000000001332534e+00,-4.945000000003090257e+00,1.340913360908350782e+01,-2.169846666378008937e+00
2.000000000000027711e+01,2.999999998314348826e+00,1.000000000000006217e+01,6.600000000002421707e-01,1.569999999998546780e+00,2.869999999999994543e+03,-2.175000000001000355e+00,-4.945000000003743068e+00,1.341583822622516031e+01,-2.172624350816314553e+00
2.000000000000148859e+01,2.999999999083883040e+00,9.999999999981842080e+00,6.599999999995664890e-01,1.569999999997092610e+00,2.869999999999963620e+03,-2.175000000003799894e+00,-4.945000000008579200e+00,1.341385529800355414e+01,-2.163772047451876457e+00
2.000000000000165912e+01,2.999999999084729474e+00,9.999999999986707522e+00,6.599999999995974642e-01,1.569999999996862128e+00,2.869999999999965439e+03,-2.175000000004043699e+00,-4.945000000008856311e+00,1.341101792410113269e+01,-2.165306210591641189e+00
2.000000000000029843e+01,2.999999998671949442e+00,9.999999999952326135e+00,6.599999999998629185e-01,1.570000000001011253e+00,2.870000000000010459e+03,-2.175000000000030909e+00,-4.944999999998271889e+00,1.340290188243796976e+01,-2.161647631624785237e+00
2.000000000000023803e+01,2.999999999049346666e+00,9.999999999952084551e+00,6.600000000000268985e-01,1.570000000000609797e+00,2.870000000000021828e+03,-2.175000000000134381e+00,-4.944999999999188489e+00,1.340001437374437288e+01,-2.183030729540797577e+00
2.000000000000254374e+01,2.999999996356781828e+00,1.000000000008987300e+01,6.600000000007899548e-01,1.569999999995094875e+00,2.869999999999946340e+03,-2.175000000003719514e+00,-4.945000000013944685e+00,1.338716283582502165e+01,-2.166213147594016952e+00
2.000000000000326494e+01,2.999999997380004668e+00,1.000000000015064039e+01,6.600000000007157919e-01,1.569999999997368612e+00,2.869999999999936790e+03,-2.175000000002377920e+00,-4.945000000007286012e+00,1.337558033297271720e+01,-2.177917703385197079e+00
2.000000000000165556e+01,2.999999998499159215e+00,1.000000000004962963e+01,6.600000000000395550e-01,1.569999999998459739e+00,2.869999999999951797e+03,-2.175000000001618083e+00,-4.945000000004552199e+00,1.340220850515344608e+01,-2.150922977740691078e+00
2.000000000000128253e+01,2.999999998069460716e+00,1.000000000003234213e+01,6.600000000002718137e-01,1.569999999999605267e+00,2.869999999999959982e+03,-2.175000000000435474e+00,-4.945000000001137153e+00,1.339346725315521880e+01,-2.147225623095476710e+00
2.000000000000020250e+01,2.999999999358881730e+00,1.000000000000497202e+01,6.600000000002936851e-01,1.570000000000892904e+00,2.869999999999975898e+03,-2.174999999998753708e+00,-4.944999999997354401e+00,1.340802884715519916e+01,-2.153109868582848030e+00
2.000000000000146727e+01,2.999999997996812162e+00,1.000000000003372591e+01,6.600000000003805045e-01,1.569999999997563345e+00,2.869999999999969077e+03,-2.175000000002220268e+00,-4.945000000007655494e+00,1.339304090387245516e+01,-2.133865779017065201e+00
2.000000000000206057e+01,2.999999999126134131e+00,1.000000000004145839e+01,6.600000000006442935e-01,1.569999999998922702e+00,2.869999999999941792e+03,-2.175000000000706812e+00,-4.945000000004338148e+00,1.339832679022341466e+01,-2.116940449621499187e+00
2.000000000000182609e+01,2.999999998674226287e+00,1.000000000001551115e+01,6.600000000005222800e-01,1.569999999998803686e+00,2.869999999999960892e+03,-2.175000000001174438e+00,-4.945000000004744933e+00,1.339234685308698225e+01,-2.145504057557547917e+00
2.000000000000040501e+01,3.000000000678213485e+00,1.000000000003717027e+01,6.600000000005239453e-01,1.570000000000535634e+00,2.869999999999994998e+03,-2.174999999999144062e+00,-4.944999999999292406e+00,1.340474469996386730e+01,-2.157399458810738579e+00
2.000000000000161648e+01,3.000000000516862109e+00,1.000000000000125766e+01,6.599999999982969490e-01,1.569999999997961915e+00,2.869999999999993179e+03,-2.175000000004974066e+00,-4.945000000003474838e+00,1.339592085395813825e+01,-2.181788547274925882e+00
2.000000000000007461e+01,2.999999999664927586e+00,9.999999999993359978e+00,6.599999999998634737e-01,1.569999999999160067e+00,2.869999999999999545e+03,-2.175000000001307665e+00,-4.945000000002809593e+00,1.339471721062844445e+01,-2.154333068148671426e+00
2.000000000000099121e+01,2.999999998670533241e+00,1.000000000004881606e+01,6.600000000006592815e-01,1.569999999999170281e+00,2.869999999999981355e+03,-2.175000000000613554e+00,-4.945000000002748308e+00,1.338183597600940722e+01,-2.172973277403617676e+00
2.000000000000015987e+01,2.999999998527173695e+00,1.000000000002550848e+01,6.600000000008382495e-01,1.569999999999333484e+00,2.869999999999967258e+03,-2.174999999999248868e+00,-4.945000000003269669e+00,1.340138940694340697e+01,-2.141746813366550484e+00
2.000000000000065370e+01,2.999999999473733414e+00,9.999999999942842166e+00,6.599999999994605737e-01,1.569999999998364038e+00,2.870000000000010914e+03,-2.175000000002638600e+00,-4.945000000004561969e+00,1.340508142311073492e+01,-2.221218695745243110e+00
2.000000000000041922e+01,3.000000000787238275e+00,1.000000000002568257e+01,6.600000000017044455e-01,1.570000000001823937e+00,2.869999999999987267e+03,-2.174999999996607425e+00,-4.944999999998024975e+00,1.340885204073168602e+01,-2.161001592621599077e+00
2.000000000000097344e+01,2.999999997777429872e+00,9.999999999971713294e+00,6.599999999998946709e-01,1.569999999996429141e+00,2.870000000000000909e+03,-2.175000000003921130e+00,-4.945000000010263186e+00,1.339509432275758272e+01,-2.184372687128022683e+00
1.999999999999897327e+01,2.999999999565788222e+00,9.999999999957768893e+00,6.599999999999307532e-01,1.570000000001579910e+00,2.869999999999984993e+03,-2.174999999998510791e+00,-4.944999999994544204e+00,1.340564732752944899e+01,-2.153716528888588222e+00
1.999999999999879563e+01,2.999999999693232944e+00,9.999999999979435117e+00,6.600000000004728751e-01,1.570000000001910978e+00,2.869999999999976808e+03,-2.174999999997313527e+00,-4.944999999994294626e+00,1.340834193871637758e+01,-2.150083902845698169e+00
2.000000000000136779e+01,2.999999998764091735e+00,9.999999999999520384e+00,6.600000000000917355e-01,1.569999999999812212e+00,2.869999999999966803e+03,-2.175000000000968381e+00,-4.945000000001276597e+00,1.338809274608017041e+01,-2.156825862593511722e+00
2.000000000000116529e+01,2.999999997717279321e+00,1.000000000000761347e+01,6.600000000000904032e-01,1.569999999999699858e+00,2.869999999999980446e+03,-2.175000000000919531e+00,-4.945000000001714469e+00,1.339511136887264087e+01,-2.162424164494626488e+00
2.000000000000073186e+01,2.999999998405854296e+00,1.000000000002526690e+01,6.600000000006910339e-01,1.569999999998356044e+00,2.869999999999983174e+03,-2.175000000000778755e+00,-4.945000000006129603e+00,1.339571145806853103e+01,-2.177627586472721255e+00
2.000000000000023448e+01,2.999999998549972346e+00,9.999999999986178167e+00,6.600000000003074518e-01,1.569999999998015205e+00,2.870000000000003638e+03,-2.175000000001524825e+00,-4.945000000007210517e+00,1.340329104704976615e+01,-2.177816273301900196e+00
2.000000000000051159e+01,2.999999998599821360e+00,1.000000000004325251e+01,6.600000000009660361e-01,1.570000000000912888e+00,2.869999999999954525e+03,-2.174999999997888622e+00,-4.944999999998374918e+00,1.339508543838301868e+01,-2.132215165102982368e+00
2.000000000000084910e+01,2.999999999234187698e+00,1.000000000002644285e+01,6.600000000004345724e-01,1.569999999998906937e+00,2.869999999999957708e+03,-2.175000000000460343e+00,-4.945000000004505125e+00,1.340083321103811009e+01,-2.118861069160936861e+00
2.000000000000087752e+01,2.999999998920600763e+00,1.000000000001861622e+01,6.599999999998952260e-01,1.569999999998004769e+00,2.869999999999957254e+03,-2.175000000001884093e+00,-4.945000000005945751e+00,1.340311167395206660e+01,-2.120938804065358951e+00
2.000000000000108002e+01,2.999999998934382184e+00,9.999999999987117860e+00,6.599999999998127365e-01,1.569999999997586881e+00,2.869999999999960437e+03,-2.175000000002690559e+00,-4.945000000007429009e+00,1.340688014166515529e+01,-2.129290609089700581e+00
2.000000000000063594e+01,2.999999998113499267e+00,1.000000000007936585e+01,6.600000000011448931e-01,1.570000000000238094e+00,2.869999999999972260e+03,-2.174999999998605382e+00,-4.945000000001269491e+00,1.338516731975615492e+01,-2.165445938497384759e+00
2.000000000000015987e+01,2.999999997683998387e+00,1.000000000001707612e+01,6.599999999999541789e-01,1.569999999998285656e+00,2.869999999999974079e+03,-2.175000000001490630e+00,-4.945000000004684537e+00,1.339739709096637910e+01,-2.146815907127571865e+00
2.000000000000074607e+01,2.999999999521116401e+00,1.000000000000475531e+01,6.600000000005069589e-01,1.570000000001222862e+00,2.870000000000007731e+03,-2.174999999998884714e+00,-4.944999999997340190e+00,1.339687481252598111e+01,-2.167449083501330698e+00
2.000000000000003197e+01,2.999999998043664906e+00,1.000000000000519229e+01,6.599999999999816014e-01,1.570000000000921103e+00,2.869999999999981810e+03,-2.174999999999575273e+00,-4.944999999996650963e+00,1.339555073285561626e+01,-2.157513398351075917e+00
1.999999999999972999e+01,2.999999997738930002e+00,1.000000000002482103e+01,6.600000000004225820e-01,1.570000000000671525e+00,2.869999999999969987e+03,-2.174999999998533440e+00,-4.944999999997870432e+00,1.339226851501324944e+01,-2.163286937368850360e+00
1.999999999999982236e+01,2.999999997828510789e+00,9.999999999989576338e+00,6.600000000005828982e-01,1.570000000001176899e+00,2.869999999999957708e+03,-2.174999999998161737e+00,-4.944999999997642171e+00,1.339654411990881577e+01,-2.162070196663895771e+00
2.000000000000171596e+01,2.999999999038702736e+00,9.999999999998435030e+00,6.600000000004293543e-01,1.569999999998198170e+00,2.869999999999987722e+03,-2.175000000002059508e+00,-4.945000000006254837e+00,1.340314596576013173e+01,-2.187638933639973970e+00
2.000000000000215294e+01,2.999999999358484271e+00,1.000000000000944134e+01,6.600000000003745093e-01,1.569999999997431006e+00,2.869999999999979536e+03,-2.175000000002832667e+00,-4.945000000008306529e+00,1.340466827314136822e+01,-2.191950792084361943e+00
2.000000000000099831e+01,3.000000000155647495e+00,1.000000000002140155e+01,6.599999999993885202e-01,1.569999999999091678e+00,2.870000000000002274e+03,-2.175000000002109690e+00,-4.945000000000796980e+00,1.341404902862962167e+01,-2.195713718679383142e+00
2.000000000000077094e+01,2.999999999705127429e+00,1.000000000002288481e+01,6.599999999993767519e-01,1.569999999999635909e+00,2.870000000000000455e+03,-2.175000000001432010e+00,-4.944999999998408668e+00,1.341511858798046575e+01,-2.208434078233979747e+00
2.000000000000036948e+01,3.000000001745161793e+00,9.999999999988252952e+00,6.600000000006305267e-01,1.569999999999241114e+00,2.870000000000006366e+03,-2.175000000000161027e+00,-4.945000000004585061e+00,1.343769339225882753e+01,-2.165196791566011747e+00
2.000000000000056488e+01,3.000000001042610442e+00,9.999999999993853805e+00,6.600000000007960610e-01,1.569999999999264206e+00,2.869999999999994998e+03,-2.175000000000025135e+00,-4.945000000004779572e+00,1.342991433068656804e+01,-2.147864965016932359e+00
2.000000000000044054e+01,3.000000001248127379e+00,9.999999999981074694e+00,6.600000000005172840e-01,1.569999999998662021e+00,2.869999999999996817e+03,-2.175000000000796074e+00,-4.945000000006091412e+00,1.343484474951160124e+01,-2.159990479971991562e+00
2.000000000000083844e+01,3.000000000764071473e+00,1.000000000002176215e+01,6.600000000009111911e-01,1.569999999999399876e+00,2.869999999999987267e+03,-2.174999999999755129e+00,-4.945000000004065477e+00,1.342716394475413644e+01,-2.162090374691095107e+00
2.000000000000050804e+01,3.000000000782841347e+00,9.999999999990238919e+00,6.600000000004896394e-01,1.569999999999037943e+00,2.869999999999998636e+03,-2.175000000000530953e+00,-4.945000000004209362e+00,1.343143498875971531e+01,-2.153271301768497459e+00
2.000000000000102673e+01,3.000000000617267570e+00,1.000000000002051337e+01,6.600000000007305578e-01,1.569999999999105667e+00,2.869999999999984539e+03,-2.175000000000270717e+00,-4.945000000004846186e+00,1.342430780944655666e+01,-2.154001986403168534e+00
2.000000000000134648e+01,2.999999998763157816e+00,9.999999999975473841e+00,6.599999999997042677e-01,1.569999999999198481e+00,2.869999999999997272e+03,-2.175000000002287326e+00,-4.945000000002620411e+00,1.338148003506375971e+01,-2.170157746950328370e+00
2.000000000000096279e+01,2.999999997604312352e+00,1.000000000002924594e+01,6.599999999998111821e-01,1.569999999997158557e+00,2.869999999999981810e+03,-2.175000000003009859e+00,-4.945000000008672458e+00,1.339970120797286590e+01,-2.141420737345989700e+00
2.000000000000063594e+01,2.999999997926313888e+00,1.000000000003195311e+01,6.599999999996635225e-01,1.570000000000025597e+00,2.869999999999965439e+03,-2.175000000000670841e+00,-4.944999999998338502e+00,1.340410402738847750e+01,-2.164418062066367110e+00
2.000000000000025580e+01,2.999999998864969708e+00,1.000000000001871037e+01,6.599999999997578914e-01,1.570000000000544738e+00,2.869999999999972260e+03,-2.175000000000049560e+00,-4.944999999997132356e+00,1.340621158397615176e+01,-2.169744979257567152e+00
2.000000000000047606e+01,2.999999998562981496e+00,9.999999999939127804e+00,6.599999999992434141e-01,1.569999999997691464e+00,2.870000000000006366e+03,-2.175000000003508127e+00,-4.945000000005768115e+00,1.340611875462888847e+01,-2.170774727037981577e+00
2.000000000000046896e+01,2.999999998711144755e+00,9.999999999944966689e+00,6.599999999995992406e-01,1.569999999998757056e+00,2.869999999999999091e+03,-2.175000000002078160e+00,-4.945000000003104468e+00,1.340650333738983058e+01,-2.168118197910706257e+00
2.000000000000085976e+01,2.999999998447445027e+00,9.999999999994987121e+00,6.599999999996816191e-01,1.569999999998268558e+00,2.869999999999952252e+03,-2.175000000001946265e+00,-4.945000000005031815e+00,1.341728457427124077e+01,-2.162359994096749727e+00
2.000000000000088818e+01,2.999999998334109019e+00,9.999999999999356959e+00,6.599999999998626965e-01,1.569999999998969553e+00,2.869999999999947704e+03,-2.175000000001144240e+00,-4.945000000003408225e+00,1.341259007924245772e+01,-2.157963515257933285e+00
2.000000000000070699e+01,2.999999997714987376e+00,9.999999999993091748e+00,6.599999999995079802e-01,1.570000000000694618e+00,2.869999999999961801e+03,-2.175000000000378186e+00,-4.944999999997928164e+00,1.339056235037654119e+01,-2.171192620855364463e+00
2.000000000000023093e+01,2.999999996992724238e+00,1.000000000003228706e+01,6.600000000004397904e-01,1.569999999998762386e+00,2.869999999999987722e+03,-2.175000000000497202e+00,-4.945000000003593854e+00,1.337658880400480932e+01,-2.167750454286460293e+00
2.000000000000082068e+01,2.999999997604981150e+00,1.000000000002907896e+01,6.600000000002747003e-01,1.569999999998696216e+00,2.869999999999956344e+03,-2.175000000000979483e+00,-4.945000000004460716e+00,1.340043310546291266e+01,-2.145885681078371299e+00
2.000000000000033751e+01,2.999999998584137906e+00,9.999999999988546051e+00,6.599999999999720535e-01,1.569999999998404672e+00,2.869999999999969987e+03,-2.175000000001628297e+00,-4.945000000004797336e+00,1.340310012037945242e+01,-2.135624588720612671e+00
2.000000000000078515e+01,2.999999997497487580e+00,1.000000000005832845e+01,6.600000000009563772e-01,1.569999999998142881e+00,2.869999999999962256e+03,-2.175000000000751665e+00,-4.945000000006367635e+00,1.339164103196645428e+01,-2.141209374326479509e+00
1.999999999999994316e+01,2.999999997816849007e+00,9.999999999961909580e+00,6.599999999998792388e-01,1.570000000000757012e+00,2.870000000000002728e+03,-2.174999999999881251e+00,-4.944999999999208029e+00,1.338922379225179604e+01,-2.169169804281475766e+00
2.000000000000012434e+01,2.999999997991900980e+00,9.999999999999641176e+00,6.599999999993771960e-01,1.569999999997813589e+00,2.869999999999968168e+03,-2.175000000002603517e+00,-4.945000000005173035e+00,1.340214954632108402e+01,-2.133009723889085940e+00
2.000000000000099831e+01,2.999999998990134031e+00,1.000000000000877698e+01,6.599999999998567013e-01,1.569999999999177387e+00,2.869999999999972260e+03,-2.175000000001366729e+00,-4.945000000002337970e+00,1.341638617926319199e+01,-2.189105125018590225e+00
2.000000000000087397e+01,2.999999999964118924e+00,9.999999999997598366e+00,6.599999999998130695e-01,1.569999999999117435e+00,2.869999999999984993e+03,-2.175000000001565681e+00,-4.945000000002998775e+00,1.341959515846040674e+01,-2.190440499328065727e+00
2.000000000000076383e+01,2.999999998909642862e+00,1.000000000003802114e+01,6.599999999996460920e-01,1.569999999998734408e+00,2.869999999999969532e+03,-2.175000000001740652e+00,-4.945000000001972040e+00,1.339169261870862293e+01,-2.185650547344531791e+00
1.999999999999983658e+01,2.999999997608980173e+00,9.999999999920492044e+00,6.599999999991601474e-01,1.570000000000607798e+00,2.870000000000000000e+03,-2.175000000001069633e+00,-4.944999999997981455e+00,1.338775144918339599e+01,-2.163234552925568988e+00
2.000000000000034106e+01,3.000000001011811968e+00,9.999999999970839326e+00,6.599999999988768185e-01,1.569999999996965379e+00,2.869999999999984993e+03,-2.175000000004059686e+00,-4.945000000006952945e+00,1.342083085787584906e+01,-2.210174789131134965e+00
2.000000000000083489e+01,3.000000000188704163e+00,9.999999999992184030e+00,6.599999999993484412e-01,1.569999999997258033e+00,2.869999999999964984e+03,-2.175000000003328715e+00,-4.945000000007313545e+00,1.340741205912350509e+01,-2.192169725175642903e+00
2.000000000000277467e+01,2.999999997838024512e+00,1.000000000009575807e+01,6.600000000006250866e-01,1.569999999997426565e+00,2.869999999999935881e+03,-2.175000000002210054e+00,-4.945000000007670593e+00,1.338154720620389604e+01,-2.157302700754276881e+00
2.000000000000012434e+01,2.999999998244146759e+00,1.000000000001605116e+01,6.599999999999804912e-01,1.569999999999612816e+00,2.869999999999960892e+03,-2.175000000000264500e+00,-4.945000000000672635e+00,1.341014686104651865e+01,-2.166627917580419282e+00
2.000000000000007105e+01,2.999999998130271184e+00,1.000000000003121770e+01,6.599999999998605871e-01,1.570000000000142615e+00,2.869999999999954980e+03,-2.174999999999867484e+00,-4.944999999998842100e+00,1.340656639705001751e+01,-2.163570568533851990e+00
2.000000000000143885e+01,2.999999998006152691e+00,1.000000000001071143e+01,6.599999999994999866e-01,1.569999999999830198e+00,2.869999999999959527e+03,-2.175000000001724221e+00,-4.944999999999780016e+00,1.338822891964307971e+01,-2.176239539035619064e+00
2.000000000000055778e+01,2.999999998599128137e+00,1.000000000002400746e+01,6.600000000003598544e-01,1.569999999997597984e+00,2.869999999999976808e+03,-2.175000000001653166e+00,-4.945000000007672369e+00,1.339079261092227746e+01,-2.171294758856578522e+00
2.000000000000004974e+01,2.999999998130554513e+00,9.999999999993832489e+00,6.600000000001428058e-01,1.569999999998787921e+00,2.869999999999988177e+03,-2.175000000000868905e+00,-4.945000000004299068e+00,1.339758884387731541e+01,-2.163317088596332649e+00
1.999999999999992895e+01,2.999999997909881255e+00,9.999999999996965983e+00,6.600000000003847234e-01,1.569999999998587858e+00,2.869999999999984539e+03,-2.175000000000878231e+00,-4.945000000004061036e+00,1.339379688922322487e+01,-2.163621452323358785e+00
2.000000000000003553e+01,2.999999999330965839e+00,9.999999999989286792e+00,6.600000000003022338e-01,1.570000000002330420e+00,2.869999999999973170e+03,-2.174999999998007194e+00,-4.944999999994069917e+00,1.340935878569274564e+01,-2.175685974881329088e+00
2.000000000000018829e+01,2.999999999552423802e+00,9.999999999986258103e+00,6.600000000007174572e-01,1.570000000002156115e+00,2.869999999999962711e+03,-2.174999999997633271e+00,-4.944999999995331130e+00,1.341207916120760402e+01,-2.177232107708392927e+00
2.000000000000024158e+01,2.999999999440620790e+00,1.000000000001081268e+01,6.600000000001938760e-01,1.570000000000324247e+00,2.869999999999984084e+03,-2.174999999999584155e+00,-4.944999999998099582e+00,1.340373524740137334e+01,-2.172376155107524021e+00
2.000000000000049738e+01,2.999999999459940891e+00,1.000000000001743494e+01,6.599999999997724354e-01,1.569999999999770690e+00,2.869999999999981810e+03,-2.175000000000717471e+00,-4.944999999999258655e+00,1.339833106894410797e+01,-2.174926580833465461e+00
1.999999999999985079e+01,2.999999999371948167e+00,9.999999999980271781e+00,6.600000000000185718e-01,1.570000000000559837e+00,2.870000000000006366e+03,-2.174999999999843947e+00,-4.944999999999203588e+00,1.340102734252375782e+01,-2.168142278254949318e+00
2.000000000000266098e+01,2.999999998703243964e+00,1.000000000008788170e+01,6.599999999994708988e-01,1.569999999995325801e+00,2.869999999999935881e+03,-2.175000000005265388e+00,-4.945000000012596431e+00,1.340076021004749940e+01,-2.169409612495771800e+00
2.000000000000186873e+01,2.999999997094680015e+00,1.000000000006363621e+01,6.600000000003176659e-01,1.569999999998111351e+00,2.869999999999966803e+03,-2.175000000002046185e+00,-4.945000000005469687e+00,1.337717760921774968e+01,-2.156780550884217718e+00
2.000000000000223110e+01,2.999999997754307923e+00,1.000000000002124700e+01,6.599999999998071853e-01,1.569999999997676365e+00,2.869999999999963620e+03,-2.175000000003390443e+00,-4.945000000007881980e+00,1.339244950038104953e+01,-2.141839269528947209e+00
1.999999999999918998e+01,3.000000001091224444e+00,9.999999999991127098e+00,6.600000000005724621e-01,1.570000000000581153e+00,2.869999999999997726e+03,-2.174999999998454836e+00,-4.944999999998719531e+00,1.342601626276358395e+01,-2.164347839658435024e+00
1.999999999999927169e+01,3.000000001491737400e+00,9.999999999988405719e+00,6.600000000003336531e-01,1.569999999999978746e+00,2.869999999999995453e+03,-2.174999999999158717e+00,-4.945000000000197460e+00,1.343116146268385869e+01,-2.169329754281947853e+00
1.999999999999916156e+01,3.000000001480952250e+00,9.999999999990594191e+00,6.600000000006848166e-01,1.570000000001025464e+00,2.869999999999998181e+03,-2.174999999997845990e+00,-4.944999999997183870e+00,1.342908699333723455e+01,-2.173011823140109655e+00
1.999999999999941025e+01,3.000000000702526037e+00,9.999999999936223460e+00,6.600000000000628697e-01,1.570000000000872031e+00,2.870000000000001819e+03,-2.174999999999275513e+00,-4.944999999998457518e+00,1.341610634146081793e+01,-2.176282950554446316e+00
1.999999999999881339e+01,3.000000001243089631e+00,9.999999999902708936e+00,6.600000000001028377e-01,1.570000000000929541e+00,2.870000000000011823e+03,-2.174999999998986411e+00,-4.944999999998532125e+00,1.342434607767214949e+01,-2.180160512450635135e+00
1.999999999999973355e+01,3.000000001294270913e+00,9.999999999953367080e+00,6.599999999997211431e-01,1.569999999998991536e+00,2.870000000000017280e+03,-2.175000000001287237e+00,-4.945000000002725216e+00,1.342005767635500746e+01,-2.194333947670935370e+00
1.999999999999957367e+01,3.000000000931644983e+00,9.999999999953413266e+00,6.599999999995178612e-01,1.569999999999436957e+00,2.870000000000017280e+03,-2.175000000001215295e+00,-4.945000000000659313e+00,1.341919935313698353e+01,-2.194690394889692531e+00
1.999999999999939604e+01,2.999999997888645797e+00,9.999999999988245847e+00,6.600000000003309886e-01,1.570000000000259632e+00,2.869999999999983174e+03,-2.174999999999055689e+00,-4.944999999999947882e+00,1.340198755107698858e+01,-2.145536649186197575e+00
2.000000000000169464e+01,2.999999997574695154e+00,1.000000000004929568e+01,6.599999999998130695e-01,1.569999999996690709e+00,2.869999999999948159e+03,-2.175000000003462386e+00,-4.945000000009923014e+00,1.338362337856275630e+01,-2.163694415528626624e+00
2.000000000000108002e+01,2.999999999527990902e+00,1.000000000000945022e+01,6.599999999995556088e-01,1.569999999997315099e+00,2.869999999999969077e+03,-2.175000000003192380e+00,-4.945000000008327845e+00,1.340443220745162556e+01,-2.161159663844744561e+00
2.000000000000097344e+01,2.999999998330352913e+00,1.000000000004834888e+01,6.600000000002026468e-01,1.569999999998347828e+00,2.869999999999982720e+03,-2.175000000001613198e+00,-4.945000000004977636e+00,1.339451658153042857e+01,-2.171458252833291525e+00
2.000000000000012434e+01,2.999999998603124052e+00,9.999999999966972197e+00,6.600000000001012834e-01,1.569999999999035500e+00,2.869999999999968168e+03,-2.175000000001062528e+00,-4.945000000003385132e+00,1.340604328865274120e+01,-2.157864321951340258e+00
2.000000000000004263e+01,2.999999998842732829e+00,9.999999999957250196e+00,6.599999999997612221e-01,1.569999999999690532e+00,2.869999999999962256e+03,-2.175000000000966160e+00,-4.945000000001081197e+00,1.340990102742626000e+01,-2.152093994062213689e+00
1.999999999999925393e+01,3.000000000208761897e+00,9.999999999918685489e+00,6.599999999992873789e-01,1.569999999999166729e+00,2.870000000000002728e+03,-2.175000000001470202e+00,-4.945000000001138041e+00,1.341333851932981780e+01,-2.186742481257915927e+00
1.999999999999939604e+01,3.000000000885540086e+00,9.999999999931816319e+00,6.599999999994162758e-01,1.569999999999083462e+00,2.870000000000002728e+03,-2.175000000001315659e+00,-4.945000000001336105e+00,1.341725272694521465e+01,-2.201756315411237175e+00
2.000000000000144240e+01,2.999999999149164154e+00,1.000000000005123013e+01,6.600000000003864997e-01,1.569999999998053619e+00,2.869999999999973625e+03,-2.175000000001817480e+00,-4.945000000005490115e+00,1.339779511148538838e+01,-2.158464321268613872e+00
2.000000000000095923e+01,2.999999999240094528e+00,1.000000000000329337e+01,6.599999999999650591e-01,1.569999999996549711e+00,2.869999999999973625e+03,-2.175000000003400658e+00,-4.945000000010098873e+00,1.339030887119616864e+01,-2.183056863046177742e+00
2.000000000000080291e+01,2.999999998214178287e+00,1.000000000002916067e+01,6.600000000008641177e-01,1.570000000001038565e+00,2.869999999999968168e+03,-2.174999999998473932e+00,-4.944999999998242579e+00,1.339255255787257148e+01,-2.145364282174486270e+00
2.000000000000047251e+01,2.999999998565214376e+00,1.000000000000061284e+01,6.599999999998436007e-01,1.569999999998988649e+00,2.869999999999984084e+03,-2.175000000001449774e+00,-4.945000000002347740e+00,1.339192907108664166e+01,-2.171166459822293948e+00
2.000000000000159162e+01,2.999999996987651407e+00,1.000000000004857803e+01,6.600000000002835820e-01,1.569999999998746620e+00,2.869999999999951797e+03,-2.175000000001162004e+00,-4.945000000005156160e+00,1.337747936479989264e+01,-2.181134141093252765e+00
2.000000000000094857e+01,2.999999997488933534e+00,1.000000000000531841e+01,6.600000000000626477e-01,1.570000000000003393e+00,2.869999999999968168e+03,-2.175000000000373745e+00,-4.945000000001424922e+00,1.338575036604287405e+01,-2.168331201684786436e+00
2.000000000000063949e+01,2.999999998326193129e+00,1.000000000003346301e+01,6.600000000001557954e-01,1.570000000000318918e+00,2.869999999999944976e+03,-2.174999999999632561e+00,-4.944999999999240892e+00,1.338923444967517362e+01,-2.133597904537151813e+00
2.000000000000061107e+01,2.999999999271371731e+00,9.999999999984069632e+00,6.600000000012787860e-01,1.570000000000479456e+00,2.869999999999982720e+03,-2.174999999998608491e+00,-4.945000000001560814e+00,1.339472700992606491e+01,-2.148914972971558868e+00
2.000000000000089528e+01,2.999999997689427822e+00,1.000000000000796696e+01,6.600000000003426459e-01,1.569999999998541673e+00,2.869999999999980901e+03,-2.175000000001201528e+00,-4.945000000006297469e+00,1.339266927508931460e+01,-2.165815867622826296e+00
2.000000000000023448e+01,2.999999997146316488e+00,1.000000000000813039e+01,6.599999999995043165e-01,1.569999999999158513e+00,2.870000000000000000e+03,-2.175000000001779288e+00,-4.945000000001795293e+00,1.337303696488229043e+01,-2.154522873580519526e+00
1.999999999999988276e+01,2.999999997346080693e+00,9.999999999981675103e+00,6.600000000004386802e-01,1.569999999998502371e+00,2.869999999999972715e+03,-2.175000000000693046e+00,-4.945000000005345342e+00,1.339655257425508950e+01,-2.137649831865073846e+00
2.000000000000112266e+01,2.999999998837814097e+00,1.000000000003339018e+01,6.600000000007705259e-01,1.569999999997379714e+00,2.869999999999992724e+03,-2.175000000001919176e+00,-4.945000000009458496e+00,1.339067524598255332e+01,-2.164566046012966982e+00
2.000000000000223466e+01,2.999999998377926413e+00,1.000000000005726619e+01,6.600000000003928280e-01,1.569999999998468843e+00,2.869999999999970896e+03,-2.175000000001797940e+00,-4.945000000004697860e+00,1.337562106344376467e+01,-2.177049635349675327e+00
2.000000000000210676e+01,2.999999998361738029e+00,1.000000000005483436e+01,6.600000000008328094e-01,1.569999999999679208e+00,2.869999999999969532e+03,-2.175000000000170797e+00,-4.945000000002374385e+00,1.338261639824726679e+01,-2.156969123040074710e+00
2.000000000000128608e+01,2.999999998830274350e+00,1.000000000002202682e+01,6.599999999999622835e-01,1.569999999995554951e+00,2.869999999999955890e+03,-2.175000000003912692e+00,-4.945000000012793606e+00,1.339617955863234933e+01,-2.157220983330280006e+00
2.000000000000062528e+01,2.999999998414841329e+00,9.999999999993491429e+00,6.600000000003455325e-01,1.570000000000163043e+00,2.869999999999984084e+03,-2.174999999999840394e+00,-4.945000000002027107e+00,1.338943105820502133e+01,-2.155948227528807326e+00
2.000000000000090239e+01,3.000000000468711292e+00,1.000000000001115730e+01,6.600000000005135092e-01,1.569999999997802487e+00,2.869999999999993634e+03,-2.175000000001921840e+00,-4.945000000008501928e+00,1.339633667783284743e+01,-2.184687322408354948e+00
2.000000000000256151e+01,2.999999998518089406e+00,1.000000000005734790e+01,6.599999999996073452e-01,1.569999999995402185e+00,2.869999999999970441e+03,-2.175000000005411938e+00,-4.945000000012526264e+00,1.338567343394779385e+01,-2.208545194976379911e+00
2.000000000000040856e+01,2.999999998655070499e+00,1.000000000004189715e+01,6.600000000010299850e-01,1.570000000000047580e+00,2.869999999999993179e+03,-2.174999999999072564e+00,-4.945000000002850449e+00,1.338134452323511603e+01,-2.165177851015111621e+00
2.000000000000012434e+01,2.999999999617789737e+00,1.000000000005370993e+01,6.600000000013649393e-01,1.570000000001298357e+00,2.869999999999995453e+03,-2.174999999997327293e+00,-4.944999999998607620e+00,1.339505280802437959e+01,-2.174461213436655882e+00
2.000000000000147793e+01,2.999999999713312882e+00,1.000000000007349499e+01,6.600000000009906831e-01,1.569999999997786722e+00,2.869999999999987722e+03,-2.175000000001200195e+00,-4.945000000007221175e+00,1.339344383051652088e+01,-2.204913458339432086e+00
2.000000000000157740e+01,2.999999996446967909e+00,1.000000000010839862e+01,6.600000000009268453e-01,1.569999999999836193e+00,2.869999999999944521e+03,-2.174999999999070788e+00,-4.945000000001024354e+00,1.338199056158755695e+01,-2.163992397130026557e+00
2.000000000000108358e+01,2.999999998235880483e+00,1.000000000002720313e+01,6.600000000002841372e-01,1.569999999997927942e+00,2.869999999999988631e+03,-2.175000000001872991e+00,-4.945000000005204122e+00,1.338642120275432390e+01,-2.196459787614422510e+00
1.999999999999985434e+01,2.999999999421412600e+00,9.999999999978840037e+00,6.600000000003615197e-01,1.570000000001768869e+00,2.870000000000009095e+03,-2.174999999998384226e+00,-4.944999999996609219e+00,1.340697292476207281e+01,-2.153961036516797378e+00
