1.999999999999968736e+01,2.999999999212395352e+00,9.999999999968201436e+00,6.600000000004030420e-01,1.570000000000405738e+00,2.870000000000002274e+03,-2.174999999999424283e+00,-4.944999999999565077e+00,1.341307465731160775e+01,-2.171440045120502038e+00
1.999999999999985079e+01,2.999999997945941299e+00,9.999999999972638776e+00,6.599999999993101385e-01,1.570000000002796714e+00,2.869999999999999091e+03,-2.174999999998936673e+00,-4.944999999990018047e+00,1.339236464034455132e+01,-2.173764053861323209e+00
2.000000000000037659e+01,2.999999999132813677e+00,1.000000000000259348e+01,6.599999999996506439e-01,1.570000000000362883e+00,2.869999999999974989e+03,-2.175000000000379963e+00,-4.944999999997929940e+00,1.340622605773856435e+01,-2.150949993791193560e+00
1.999999999999957723e+01,2.999999999467461986e+00,1.000000000003506351e+01,6.600000000008436896e-01,1.570000000003378915e+00,2.869999999999961346e+03,-2.174999999995881339e+00,-4.944999999989888373e+00,1.341433335364379609e+01,-2.143946869765577468e+00
2.000000000000077804e+01,2.999999998012254032e+00,1.000000000001912959e+01,6.599999999999753841e-01,1.569999999996964490e+00,2.869999999999969077e+03,-2.175000000002868195e+00,-4.945000000009520669e+00,1.340415759964506393e+01,-2.152559575664892311e+00
2.000000000000146017e+01,2.999999999048223120e+00,1.000000000001540101e+01,6.599999999998621414e-01,1.569999999997992557e+00,2.869999999999998636e+03,-2.175000000002649259e+00,-4.945000000005225438e+00,1.338600925282236354e+01,-2.199995300489042016e+00
2.000000000000076028e+01,2.999999998210526986e+00,1.000000000001031708e+01,6.599999999995335154e-01,1.569999999999859952e+00,2.869999999999978627e+03,-2.175000000001101164e+00,-4.944999999998696438e+00,1.338619712914402093e+01,-2.174478925350853409e+00
2.000000000000067146e+01,2.999999998393705347e+00,1.000000000001597300e+01,6.599999999997340216e-01,1.570000000000927987e+00,2.869999999999985448e+03,-2.174999999999809752e+00,-4.944999999995922657e+00,1.338537958215695589e+01,-2.198034190360966811e+00
1.999999999999943157e+01,2.999999997370737415e+00,9.999999999978259169e+00,6.599999999991196242e-01,1.569999999999686091e+00,2.869999999999994543e+03,-2.175000000001404477e+00,-4.944999999999056151e+00,1.339663784788040424e+01,-2.157405973351220752e+00
2.000000000000065725e+01,2.999999998691669667e+00,9.999999999969750419e+00,6.599999999999288658e-01,1.569999999997760742e+00,2.869999999999966803e+03,-2.175000000002454748e+00,-4.945000000008483276e+00,1.339934128256484591e+01,-2.128084412861693586e+00
1.999999999999985789e+01,2.999999999233182724e+00,9.999999999922433602e+00,6.599999999993709787e-01,1.569999999997908402e+00,2.870000000000000455e+03,-2.175000000002879297e+00,-4.945000000006497309e+00,1.341256881451531946e+01,-2.170971474552122249e+00
1.999999999999916511e+01,2.999999997887273118e+00,9.999999999971466380e+00,6.600000000006240874e-01,1.569999999999892371e+00,2.869999999999994088e+03,-2.174999999999215561e+00,-4.945000000001821050e+00,1.340623123282348317e+01,-2.124439608883050390e+00
2.000000000000019895e+01,2.999999999535949868e+00,9.999999999936672879e+00,6.599999999989307753e-01,1.569999999999302620e+00,2.869999999999994998e+03,-2.175000000002496936e+00,-4.945000000001946283e+00,1.340619362468028442e+01,-2.160394008375573272e+00
2.000000000000198241e+01,2.999999998088185293e+00,1.000000000002830092e+01,6.599999999994956568e-01,1.569999999998563656e+00,2.869999999999969077e+03,-2.175000000002914824e+00,-4.945000000001987139e+00,1.338715111000001734e+01,-2.185851323450891392e+00
2.000000000000220268e+01,2.999999999932213779e+00,9.999999999971427300e+00,6.599999999992580690e-01,1.569999999995883577e+00,2.869999999999981355e+03,-2.175000000005424372e+00,-4.945000000011045671e+00,1.340748447425961132e+01,-2.161023687864767062e+00
2.000000000000131095e+01,2.999999998155915559e+00,1.000000000004085443e+01,6.600000000005438183e-01,1.569999999997645057e+00,2.869999999999933607e+03,-2.175000000001364064e+00,-4.945000000006157137e+00,1.338852341710257576e+01,-2.150398853017840395e+00
2.000000000000124345e+01,2.999999997945246299e+00,1.000000000004798828e+01,6.600000000008797718e-01,1.569999999999414975e+00,2.869999999999954980e+03,-2.174999999999716493e+00,-4.945000000003797247e+00,1.338682325146285912e+01,-2.127980857126403169e+00
2.000000000000073896e+01,2.999999996378353462e+00,9.999999999987121413e+00,6.600000000000996181e-01,1.569999999996612550e+00,2.869999999999974989e+03,-2.175000000003271872e+00,-4.945000000011341434e+00,1.338453642519480269e+01,-2.123589436489758953e+00
2.000000000000122213e+01,2.999999998792941103e+00,1.000000000001023537e+01,6.599999999999932587e-01,1.569999999998275442e+00,2.869999999999979991e+03,-2.175000000001987566e+00,-4.945000000004750262e+00,1.339444612041290839e+01,-2.186522118910316337e+00
1.999999999999964473e+01,2.999999997912220273e+00,9.999999999966650677e+00,6.600000000007353318e-01,1.570000000004103224e+00,2.869999999999995907e+03,-2.174999999995882227e+00,-4.944999999989371453e+00,1.339848299725715464e+01,-2.150983961416041090e+00
2.000000000000016342e+01,2.999999999909890303e+00,1.000000000001781864e+01,6.600000000005600276e-01,1.570000000001840812e+00,2.869999999999959982e+03,-2.174999999997870415e+00,-4.944999999994686313e+00,1.341122069396381988e+01,-2.150620300648268923e+00
2.000000000000152056e+01,2.999999998112069743e+00,1.000000000009373657e+01,6.600000000008425793e-01,1.569999999999096341e+00,2.869999999999947249e+03,-2.175000000000026468e+00,-4.945000000001875229e+00,1.338258808259359789e+01,-2.175878444187847816e+00
2.000000000000102673e+01,2.999999998873911888e+00,1.000000000001889866e+01,6.600000000001954303e-01,1.569999999997875983e+00,2.869999999999958618e+03,-2.175000000001845013e+00,-4.945000000006702479e+00,1.341018124845138360e+01,-2.155612731506257873e+00
2.000000000000045475e+01,2.999999999239542081e+00,9.999999999943845808e+00,6.599999999999144329e-01,1.569999999999423856e+00,2.870000000000000909e+03,-2.175000000001185541e+00,-4.945000000001817497e+00,1.340584773603556812e+01,-2.168597339022880988e+00
2.000000000000175504e+01,2.999999996705188465e+00,1.000000000006924239e+01,6.600000000008543477e-01,1.569999999997965467e+00,2.869999999999957254e+03,-2.175000000001252598e+00,-4.945000000007079066e+00,1.338887862990928213e+01,-2.150084616733188625e+00
1.999999999999953104e+01,2.999999998254790246e+00,1.000000000005586642e+01,6.600000000016669199e-01,1.570000000003994867e+00,2.869999999999969077e+03,-2.174999999994179145e+00,-4.944999999990336015e+00,1.339671149261203453e+01,-2.152202202598509029e+00
2.000000000000113687e+01,2.999999998379188959e+00,1.000000000005737100e+01,6.600000000002650413e-01,1.570000000001980034e+00,2.869999999999972715e+03,-2.174999999998731059e+00,-4.944999999994539763e+00,1.339123219716858237e+01,-2.132023195732426935e+00
2.000000000000119726e+01,2.999999998667227441e+00,1.000000000004296474e+01,6.600000000001857714e-01,1.570000000000778773e+00,2.869999999999959982e+03,-2.174999999999663203e+00,-4.944999999996693596e+00,1.340037438932368907e+01,-2.191136683396345930e+00
2.000000000000044409e+01,3.000000000239983589e+00,9.999999999979005239e+00,6.599999999996822853e-01,1.570000000000543627e+00,2.869999999999982720e+03,-2.175000000000439915e+00,-4.944999999997355289e+00,1.342067034993835506e+01,-2.179674401326804123e+00
2.000000000000098765e+01,2.999999998408130697e+00,9.999999999991761257e+00,6.599999999997195888e-01,1.569999999999449836e+00,2.869999999999993179e+03,-2.175000000001727773e+00,-4.945000000000518980e+00,1.339942775223494920e+01,-2.209960307789804013e+00
2.000000000000114753e+01,2.999999997395081497e+00,9.999999999994390265e+00,6.599999999993944044e-01,1.569999999997997664e+00,2.869999999999956344e+03,-2.175000000003010747e+00,-4.945000000003782148e+00,1.339804664062916295e+01,-2.199396830061009833e+00
1.999999999999981881e+01,2.999999998678332336e+00,9.999999999951135976e+00,6.599999999995234123e-01,1.569999999999286633e+00,2.870000000000000909e+03,-2.175000000001531042e+00,-4.945000000002234053e+00,1.339858327702194529e+01,-2.180285411604634405e+00
1.999999999999998224e+01,2.999999998944577584e+00,9.999999999961934449e+00,6.599999999999058842e-01,1.569999999998352047e+00,2.870000000000008640e+03,-2.175000000001811262e+00,-4.945000000005377316e+00,1.340813458125551527e+01,-2.185840183001528825e+00
2.000000000000110845e+01,2.999999997385054851e+00,9.999999999996379785e+00,6.599999999994777822e-01,1.569999999999722506e+00,2.869999999999959527e+03,-2.175000000001678480e+00,-4.944999999999772911e+00,1.339574609360819579e+01,-2.153674660005527208e+00
2.000000000000126832e+01,2.999999998056902761e+00,1.000000000003148948e+01,6.600000000001944311e-01,1.569999999998577200e+00,2.869999999999979991e+03,-2.175000000001521272e+00,-4.945000000004689866e+00,1.337784369997811851e+01,-2.178377805082392982e+00
2.000000000000164846e+01,2.999999997186032274e+00,1.000000000001815614e+01,6.600000000003312106e-01,1.569999999997369944e+00,2.869999999999974989e+03,-2.175000000002654588e+00,-4.945000000007913066e+00,1.337313745419675826e+01,-2.177032758927699430e+00
2.000000000000151701e+01,3.000000000015828672e+00,1.000000000002196465e+01,6.600000000004490053e-01,1.569999999996892104e+00,2.869999999999961346e+03,-2.175000000002607514e+00,-4.945000000009435404e+00,1.340125653448708931e+01,-2.174879820098909455e+00
2.000000000000162004e+01,2.999999999400502659e+00,1.000000000004711254e+01,6.599999999994441424e-01,1.569999999998408668e+00,2.869999999999955890e+03,-2.175000000002869971e+00,-4.945000000003144436e+00,1.340675769444970378e+01,-2.159190848045223099e+00
1.999999999999975486e+01,2.999999998730226825e+00,9.999999999973443465e+00,6.599999999997034905e-01,1.570000000001815277e+00,2.869999999999987267e+03,-2.174999999999184475e+00,-4.944999999994832862e+00,1.340440536689177442e+01,-2.131025203656479849e+00
1.999999999999975486e+01,2.999999998248701338e+00,1.000000000000502531e+01,6.600000000008353629e-01,1.569999999998311413e+00,2.869999999999964530e+03,-2.175000000000193001e+00,-4.945000000006130492e+00,1.339231378917962623e+01,-2.151142499993497381e+00
2.000000000000100897e+01,2.999999998567346005e+00,1.000000000000703615e+01,6.600000000001848832e-01,1.569999999997106155e+00,2.869999999999998181e+03,-2.175000000002625278e+00,-4.945000000007960139e+00,1.339651571186427326e+01,-2.160531240482009174e+00
2.000000000000067857e+01,2.999999997203467217e+00,9.999999999970011544e+00,6.599999999994874411e-01,1.569999999998032081e+00,2.870000000000010004e+03,-2.175000000003059153e+00,-4.945000000005983054e+00,1.339499233420525570e+01,-2.175282370416395494e+00
1.999999999999992539e+01,2.999999998573057880e+00,9.999999999953766761e+00,6.600000000004191403e-01,1.569999999999757145e+00,2.869999999999990450e+03,-2.175000000000005596e+00,-4.945000000001543050e+00,1.340601692916674637e+01,-2.127055030888698628e+00
1.999999999999935696e+01,2.999999998407858026e+00,9.999999999898717462e+00,6.599999999989639710e-01,1.569999999998265894e+00,2.870000000000006821e+03,-2.175000000003080469e+00,-4.945000000004600160e+00,1.340472053035387923e+01,-2.132101433278160485e+00
2.000000000000148503e+01,2.999999998091457343e+00,1.000000000000447820e+01,6.599999999995056488e-01,1.569999999995902007e+00,2.869999999999981810e+03,-2.175000000004843503e+00,-4.945000000011876118e+00,1.339442553583584150e+01,-2.154097634904740932e+00
2.000000000000088107e+01,2.999999998578355420e+00,1.000000000003504574e+01,6.600000000003027889e-01,1.569999999999101670e+00,2.869999999999994543e+03,-2.175000000000792522e+00,-4.945000000003378027e+00,1.339082223634714275e+01,-2.179640561383261232e+00
2.000000000000069278e+01,2.999999998560155756e+00,1.000000000002986056e+01,6.599999999998177325e-01,1.569999999999316165e+00,2.869999999999961346e+03,-2.175000000000934630e+00,-4.945000000002593765e+00,1.340701979728726201e+01,-2.136718465592184923e+00
2.000000000000033396e+01,2.999999998865727768e+00,9.999999999962399855e+00,6.599999999994892175e-01,1.569999999998215268e+00,2.869999999999991360e+03,-2.175000000002409450e+00,-4.945000000004773355e+00,1.340999637743128403e+01,-2.158430292789067728e+00
2.000000000000096989e+01,2.999999998774040222e+00,1.000000000005073453e+01,6.600000000004971890e-01,1.569999999999518447e+00,2.869999999999951342e+03,-2.175000000000018030e+00,-4.945000000000360885e+00,1.339013974107034421e+01,-2.158884119804020507e+00
2.000000000000193268e+01,2.999999997484533498e+00,1.000000000002725642e+01,6.600000000002084199e-01,1.569999999996277928e+00,2.869999999999958163e+03,-2.175000000003718181e+00,-4.945000000011618546e+00,1.336509481788298359e+01,-2.135733868643799216e+00
2.000000000000120437e+01,2.999999998209759600e+00,9.999999999972759568e+00,6.599999999988822585e-01,1.569999999998300977e+00,2.869999999999974079e+03,-2.175000000003536993e+00,-4.945000000002399254e+00,1.340625758187433547e+01,-2.164825740732811976e+00
2.000000000000135358e+01,2.999999999716354449e+00,1.000000000003876366e+01,6.599999999998522604e-01,1.569999999999294626e+00,2.869999999999968622e+03,-2.175000000001350298e+00,-4.945000000001778417e+00,1.340039223825258041e+01,-2.162989659934108744e+00
1.999999999999940314e+01,2.999999998337342877e+00,9.999999999974621190e+00,6.600000000005357137e-01,1.570000000004568186e+00,2.869999999999998636e+03,-2.174999999995723687e+00,-4.944999999987039097e+00,1.339711783590578342e+01,-2.166304132530363802e+00
2.000000000000198952e+01,2.999999998315105998e+00,1.000000000008475709e+01,6.599999999999001110e-01,1.569999999998579421e+00,2.869999999999955890e+03,-2.175000000001706457e+00,-4.945000000002587548e+00,1.338502240023899148e+01,-2.182581130754077225e+00
2.000000000000109779e+01,3.000000000431492175e+00,1.000000000000826361e+01,6.600000000001166045e-01,1.569999999999792006e+00,2.869999999999979536e+03,-2.175000000000681943e+00,-4.945000000000026930e+00,1.340698917005147095e+01,-2.191379398669044853e+00
2.000000000000152056e+01,2.999999997426748166e+00,9.999999999992580157e+00,6.599999999996052358e-01,1.569999999998580087e+00,2.869999999999972260e+03,-2.175000000002660805e+00,-4.945000000002433893e+00,1.338184515040746270e+01,-2.165452757411623352e+00
2.000000000000164491e+01,2.999999999885544444e+00,1.000000000005332801e+01,6.600000000005757927e-01,1.569999999997832685e+00,2.869999999999954071e+03,-2.175000000001636291e+00,-4.945000000008222152e+00,1.341101259953042124e+01,-2.158077758327043405e+00
2.000000000000132871e+01,2.999999997616228153e+00,1.000000000007518786e+01,6.600000000006116530e-01,1.569999999998514362e+00,2.869999999999954071e+03,-2.175000000000725020e+00,-4.945000000004367458e+00,1.337702680158121105e+01,-2.180270083132829662e+00
2.000000000000160938e+01,2.999999998804403489e+00,1.000000000006346035e+01,6.600000000006084333e-01,1.569999999997567786e+00,2.869999999999952252e+03,-2.175000000001846789e+00,-4.945000000007130581e+00,1.339140357750533283e+01,-2.172408375971234928e+00
2.000000000000079581e+01,2.999999998438191540e+00,9.999999999960083485e+00,6.599999999997787636e-01,1.569999999997361728e+00,2.869999999999994543e+03,-2.175000000003167067e+00,-4.945000000007615526e+00,1.339927950322983463e+01,-2.178025335323759748e+00
2.000000000000121148e+01,2.999999997939289731e+00,1.000000000001924683e+01,6.599999999998062972e-01,1.569999999998952234e+00,2.869999999999995453e+03,-2.175000000001979128e+00,-4.945000000001716245e+00,1.339337420800933920e+01,-2.175472847816175115e+00
1.999999999999959144e+01,2.999999998640816123e+00,9.999999999951254992e+00,6.599999999998860112e-01,1.570000000000590923e+00,2.869999999999999545e+03,-2.174999999999990941e+00,-4.944999999999412310e+00,1.340772387116832576e+01,-2.120303495566401519e+00
2.000000000000015632e+01,2.999999998828597025e+00,1.000000000000526512e+01,6.600000000002581579e-01,1.569999999997200746e+00,2.869999999999982720e+03,-2.175000000002005773e+00,-4.945000000009420305e+00,1.340290942689318854e+01,-2.136918688845706349e+00
2.000000000000067146e+01,2.999999998258152445e+00,9.999999999986435739e+00,6.600000000003239942e-01,1.570000000000512763e+00,2.870000000000007731e+03,-2.175000000000003819e+00,-4.944999999999781792e+00,1.339715544310903006e+01,-2.173792745161180484e+00
2.000000000000000355e+01,2.999999997121332918e+00,1.000000000004512657e+01,6.600000000013445112e-01,1.570000000001148255e+00,2.869999999999969987e+03,-2.174999999997181632e+00,-4.944999999998269224e+00,1.339691007922369437e+01,-2.169806364727752346e+00
2.000000000000046185e+01,2.999999997949005071e+00,9.999999999978472331e+00,6.599999999996848388e-01,1.569999999999093010e+00,2.869999999999981355e+03,-2.175000000001475087e+00,-4.945000000002564455e+00,1.339114098175657297e+01,-2.163352936149358197e+00
2.000000000000041211e+01,2.999999997978936683e+00,9.999999999972581932e+00,6.600000000001914335e-01,1.569999999999676321e+00,2.870000000000003183e+03,-2.175000000000495426e+00,-4.945000000001800622e+00,1.339570862172510779e+01,-2.188998231643380699e+00
1.999999999999974420e+01,2.999999998943641000e+00,9.999999999926171057e+00,6.599999999992876010e-01,1.569999999998781259e+00,2.870000000000014552e+03,-2.175000000002353939e+00,-4.945000000003463292e+00,1.341831049603723613e+01,-2.166340738870228932e+00
2.000000000000097700e+01,2.999999999079699720e+00,1.000000000000386358e+01,6.599999999986014831e-01,1.569999999995953965e+00,2.869999999999969532e+03,-2.175000000005507861e+00,-4.945000000009603269e+00,1.341595261829572294e+01,-2.190618057148875586e+00
2.000000000000046896e+01,2.999999999668948814e+00,1.000000000002678746e+01,6.599999999989932808e-01,1.569999999996927187e+00,2.869999999999954071e+03,-2.175000000003556977e+00,-4.945000000007166996e+00,1.341657237543901182e+01,-2.177906010286938532e+00
2.000000000000078870e+01,2.999999999121259808e+00,9.999999999985753618e+00,6.599999999993975131e-01,1.569999999998127338e+00,2.869999999999993179e+03,-2.175000000002814904e+00,-4.945000000004643681e+00,1.340887839544773996e+01,-2.182517738485914904e+00
2.000000000000083134e+01,2.999999998443819926e+00,9.999999999977921661e+00,6.599999999995022071e-01,1.569999999996775530e+00,2.869999999999993634e+03,-2.175000000003799006e+00,-4.945000000007886420e+00,1.341183776740936295e+01,-2.190569052778608139e+00
2.000000000000038725e+01,3.000000000050450755e+00,9.999999999981191934e+00,6.599999999994730082e-01,1.569999999997404139e+00,2.869999999999959982e+03,-2.175000000002830891e+00,-4.945000000005843610e+00,1.341160378645120055e+01,-2.158023720032544723e+00
1.999999999999993960e+01,2.999999998604116591e+00,9.999999999955855756e+00,6.599999999994042854e-01,1.569999999999799778e+00,2.869999999999994998e+03,-2.175000000001238831e+00,-4.945000000000309370e+00,1.340118977763663466e+01,-2.188247524969810787e+00
2.000000000000065370e+01,2.999999998044198701e+00,9.999999999995669242e+00,6.599999999998735767e-01,1.570000000000181029e+00,2.869999999999962711e+03,-2.175000000000405276e+00,-4.944999999998737295e+00,1.338735807733565153e+01,-2.169993620150092895e+00
2.000000000000087397e+01,2.999999997364262594e+00,1.000000000001080203e+01,6.600000000002110845e-01,1.569999999996315232e+00,2.869999999999981810e+03,-2.175000000003033840e+00,-4.945000000011623875e+00,1.338403513817618240e+01,-2.156547394076994806e+00
2.000000000000122213e+01,2.999999997092464898e+00,1.000000000008673950e+01,6.600000000007628653e-01,1.569999999997727880e+00,2.869999999999951797e+03,-2.175000000000911538e+00,-4.945000000005919105e+00,1.339341618482953145e+01,-2.148014215324033138e+00
2.000000000000155609e+01,2.999999997919233774e+00,1.000000000007349144e+01,6.600000000004415668e-01,1.569999999999441842e+00,2.869999999999967713e+03,-2.175000000000523848e+00,-4.945000000001475549e+00,1.337860680685573733e+01,-2.190795467797132190e+00
2.000000000000125411e+01,2.999999999125931627e+00,1.000000000003729106e+01,6.600000000005142864e-01,1.570000000000287832e+00,2.869999999999939973e+03,-2.174999999999332800e+00,-4.944999999998881179e+00,1.340400256444650395e+01,-2.143421737070958955e+00
2.000000000000020606e+01,2.999999998560147318e+00,1.000000000001543299e+01,6.599999999997400169e-01,1.570000000000052909e+00,2.869999999999998181e+03,-2.175000000000820055e+00,-4.945000000000089990e+00,1.338691458042275606e+01,-2.167789566607269069e+00
2.000000000000159517e+01,2.999999999408561102e+00,1.000000000003322320e+01,6.599999999984467181e-01,1.569999999997691909e+00,2.869999999999957708e+03,-2.175000000004859491e+00,-4.945000000003225260e+00,1.339359735300551968e+01,-2.181373504575132571e+00
2.000000000000028777e+01,2.999999996859103568e+00,1.000000000006152945e+01,6.600000000008613421e-01,1.569999999998958451e+00,2.869999999999969077e+03,-2.175000000000074873e+00,-4.945000000003798135e+00,1.336668303966791882e+01,-2.154266430600765059e+00
1.999999999999928946e+01,2.999999998112289568e+00,1.000000000000107114e+01,6.600000000013428458e-01,1.570000000001429141e+00,2.870000000000000000e+03,-2.174999999996847677e+00,-4.944999999997352624e+00,1.339862534901037883e+01,-2.179587901180881193e+00
2.000000000000138911e+01,2.999999998821257563e+00,9.999999999984620302e+00,6.599999999994184963e-01,1.569999999997963691e+00,2.869999999999980446e+03,-2.175000000003143086e+00,-4.945000000005064678e+00,1.338748558553520596e+01,-2.172845314217870971e+00
2.000000000000102673e+01,2.999999998938021051e+00,1.000000000006371259e+01,6.600000000013290791e-01,1.569999999998130003e+00,2.869999999999951797e+03,-2.174999999999934097e+00,-4.945000000006884555e+00,1.338465477650005120e+01,-2.144165662336086964e+00
1.999999999999999645e+01,2.999999998556463154e+00,9.999999999949451990e+00,6.600000000000302292e-01,1.569999999998055396e+00,2.870000000000010914e+03,-2.175000000002011102e+00,-4.945000000006117169e+00,1.339883112813067001e+01,-2.200931390058047832e+00
2.000000000000022737e+01,2.999999999748992341e+00,1.000000000002101075e+01,6.600000000003543033e-01,1.569999999999751816e+00,2.869999999999969987e+03,-2.174999999999841727e+00,-4.945000000000627338e+00,1.340020797995403967e+01,-2.161254041770560796e+00
1.999999999999897327e+01,3.000000000782633069e+00,9.999999999923678828e+00,6.600000000000474376e-01,1.570000000001543938e+00,2.870000000000012733e+03,-2.174999999998821210e+00,-4.944999999996925411e+00,1.342495996590290197e+01,-2.139631846562864759e+00
2.000000000000037659e+01,2.999999997256005191e+00,1.000000000003875833e+01,6.600000000005847856e-01,1.569999999999569296e+00,2.869999999999975444e+03,-2.174999999999776890e+00,-4.945000000000590035e+00,1.339275151342831904e+01,-2.177260108856910126e+00
2.000000000000016342e+01,2.999999999365730030e+00,1.000000000001332445e+01,6.600000000006904788e-01,1.569999999997708784e+00,2.869999999999991360e+03,-2.175000000001125144e+00,-4.945000000008310970e+00,1.340532504013895299e+01,-2.161403166118921693e+00
2.000000000000050449e+01,2.999999998690074055e+00,1.000000000000637179e+01,6.600000000002925749e-01,1.569999999999976303e+00,2.869999999999939973e+03,-2.174999999999644107e+00,-4.945000000001018137e+00,1.339811381945935231e+01,-2.118995228491261429e+00
1.999999999999911182e+01,2.999999997562816656e+00,1.000000000000140332e+01,6.600000000002187450e-01,1.570000000002502505e+00,2.870000000000005457e+03,-2.174999999997404121e+00,-4.944999999993440198e+00,1.339785164755263480e+01,-2.162041119434950698e+00
2.000000000000049027e+01,2.999999998455055827e+00,1.000000000002459188e+01,6.600000000005690204e-01,1.569999999996803508e+00,2.869999999999978172e+03,-2.175000000001966249e+00,-4.945000000008939800e+00,1.340352974411660725e+01,-2.175600430954211184e+00
2.000000000000017764e+01,2.999999998824048220e+00,1.000000000000740386e+01,6.600000000001540190e-01,1.570000000001473550e+00,2.870000000000002728e+03,-2.174999999998647571e+00,-4.944999999995354223e+00,1.340479784141080621e+01,-2.186637576501920588e+00
1.999999999999948130e+01,2.999999997962663922e+00,9.999999999981868726e+00,6.600000000005545875e-01,1.570000000002138352e+00,2.870000000000000909e+03,-2.174999999997665689e+00,-4.944999999993431317e+00,1.338991925887455636e+01,-2.172885401654643722e+00
2.000000000000062528e+01,2.999999997394919848e+00,1.000000000003988987e+01,6.600000000008156009e-01,1.570000000003548113e+00,2.869999999999953616e+03,-2.174999999996181099e+00,-4.944999999989741823e+00,1.337827269211872405e+01,-2.174359707951994292e+00
2.000000000000065015e+01,2.999999998192848683e+00,1.000000000000778044e+01,6.600000000004951906e-01,1.570000000001124718e+00,2.869999999999960437e+03,-2.174999999998621369e+00,-4.944999999996842810e+00,1.339439634932980105e+01,-2.189800909929757289e+00
2.000000000000058975e+01,2.999999999899454650e+00,9.999999999982325249e+00,6.600000000002633760e-01,1.569999999999138973e+00,2.869999999999992269e+03,-2.175000000000837819e+00,-4.945000000002959695e+00,1.340585994205385667e+01,-2.175337651517717408e+00
2.000000000000062172e+01,3.000000000431555680e+00,9.999999999984176213e+00,6.599999999996909450e-01,1.569999999999334150e+00,2.869999999999989541e+03,-2.175000000001288125e+00,-4.945000000001223306e+00,1.342157506143019496e+01,-2.166035297008217508e+00
2.000000000000056843e+01,2.999999999074312029e+00,9.999999999931327821e+00,6.599999999992647304e-01,1.569999999997840234e+00,2.870000000000010459e+03,-2.175000000003398437e+00,-4.945000000005751239e+00,1.338620955467344587e+01,-2.189120180140019745e+00
2.000000000000157740e+01,2.999999997553319364e+00,1.000000000005323031e+01,6.600000000001179368e-01,1.569999999997195639e+00,2.869999999999985903e+03,-2.175000000002815348e+00,-4.945000000008120011e+00,1.339284122872950533e+01,-2.140212793676662173e+00
2.000000000000119726e+01,2.999999997652828210e+00,1.000000000003569767e+01,6.599999999997718803e-01,1.569999999997512274e+00,2.869999999999969987e+03,-2.175000000002847766e+00,-4.945000000005530083e+00,1.339425402557773737e+01,-2.164048582572940305e+00
2.000000000000125056e+01,2.999999998173342508e+00,9.999999999953161023e+00,6.599999999987528065e-01,1.569999999998313855e+00,2.870000000000002274e+03,-2.175000000004015721e+00,-4.945000000002199414e+00,1.340162069025911329e+01,-2.181535973554664665e+00
2.000000000000061817e+01,2.999999998053581862e+00,9.999999999983275600e+00,6.599999999994466959e-01,1.570000000000235651e+00,2.869999999999960892e+03,-2.175000000000928857e+00,-4.944999999999769358e+00,1.340968985316884421e+01,-2.155526460661580490e+00
2.000000000000124700e+01,2.999999998995866335e+00,1.000000000004036771e+01,6.599999999993976241e-01,1.569999999999688756e+00,2.869999999999994543e+03,-2.175000000001936051e+00,-4.944999999999883045e+00,1.339800066993547922e+01,-2.175103186947090261e+00
2.000000000000065015e+01,2.999999997822398345e+00,1.000000000000847855e+01,6.599999999994549116e-01,1.569999999998446194e+00,2.869999999999959527e+03,-2.175000000001984901e+00,-4.945000000004142748e+00,1.339498691608132219e+01,-2.156983888358267709e+00
2.000000000000095213e+01,2.999999996904359367e+00,1.000000000004096279e+01,6.600000000004692113e-01,1.569999999997825579e+00,2.869999999999977263e+03,-2.175000000001556355e+00,-4.945000000006001706e+00,1.338084765640168250e+01,-2.186812882383870171e+00
2.000000000000275335e+01,2.999999996345560138e+00,1.000000000001602984e+01,6.599999999991925659e-01,1.569999999995020712e+00,2.869999999999964530e+03,-2.175000000006416911e+00,-4.945000000012925057e+00,1.337515739281943006e+01,-2.178019300759709953e+00
1.999999999999973710e+01,2.999999999396193218e+00,9.999999999959650054e+00,6.599999999992515187e-01,1.569999999999194040e+00,2.869999999999984084e+03,-2.175000000001652278e+00,-4.945000000002649720e+00,1.341902500183993396e+01,-2.169909297192791353e+00
1.999999999999979039e+01,2.999999999354674873e+00,9.999999999946680873e+00,6.599999999987643529e-01,1.569999999998755724e+00,2.869999999999986358e+03,-2.175000000002796252e+00,-4.945000000002838014e+00,1.341898273817916021e+01,-2.157565984192843622e+00
2.000000000000190781e+01,2.999999998493309228e+00,1.000000000007654855e+01,6.600000000009980106e-01,1.569999999999072582e+00,2.869999999999963620e+03,-2.175000000000212541e+00,-4.945000000002814033e+00,1.339533622800545132e+01,-2.194088309504145684e+00
2.000000000000016698e+01,2.999999998093985987e+00,1.000000000002857625e+01,6.600000000008519052e-01,1.569999999999522222e+00,2.869999999999977717e+03,-2.174999999999485123e+00,-4.945000000003343388e+00,1.339460863709789251e+01,-2.146670055065986293e+00
1.999999999999975842e+01,2.999999998888454034e+00,1.000000000001277378e+01,6.600000000000887379e-01,1.569999999999657891e+00,2.869999999999982265e+03,-2.175000000000148148e+00,-4.945000000000105977e+00,1.341200709047566342e+01,-2.189499544821162047e+00
2.000000000000127898e+01,2.999999996732962693e+00,9.999999999998108180e+00,6.600000000001822187e-01,1.569999999997129470e+00,2.870000000000002728e+03,-2.175000000002992984e+00,-4.945000000010389307e+00,1.337049906067609761e+01,-2.178947548956408298e+00
2.000000000000037659e+01,2.999999998035967952e+00,1.000000000002767742e+01,6.600000000001012834e-01,1.569999999996642082e+00,2.869999999999961346e+03,-2.175000000002612399e+00,-4.945000000009488694e+00,1.340104858451533865e+01,-2.167742624264120455e+00
2.000000000000102673e+01,2.999999997690786291e+00,9.999999999974075848e+00,6.600000000002167466e-01,1.569999999999102558e+00,2.870000000000000000e+03,-2.175000000001428013e+00,-4.945000000004573515e+00,1.338200838629379064e+01,-2.173469106275773388e+00
2.000000000000150635e+01,2.999999997772729188e+00,9.999999999999470646e+00,6.599999999989910604e-01,1.569999999996984696e+00,2.869999999999971806e+03,-2.175000000004668532e+00,-4.945000000007888197e+00,1.338667740187874422e+01,-2.181012937395880424e+00
2.000000000000233058e+01,2.999999997695221410e+00,1.000000000004878231e+01,6.599999999997577804e-01,1.569999999996844586e+00,2.869999999999952706e+03,-2.175000000003902478e+00,-4.945000000008641372e+00,1.338250244841063896e+01,-2.178465482476497073e+00
2.000000000000069988e+01,2.999999997502900584e+00,9.999999999966574293e+00,6.599999999992574029e-01,1.569999999999146745e+00,2.869999999999982720e+03,-2.175000000002205169e+00,-4.945000000003310525e+00,1.338525568979973990e+01,-2.169147737897578310e+00
2.000000000000222045e+01,2.999999998087496511e+00,1.000000000004184919e+01,6.600000000000914024e-01,1.569999999996249063e+00,2.869999999999964530e+03,-2.175000000003824319e+00,-4.945000000010790764e+00,1.338232248294717053e+01,-2.181941507537639158e+00
2.000000000000187228e+01,2.999999997607798452e+00,1.000000000003744560e+01,6.600000000003263256e-01,1.569999999997416351e+00,2.869999999999959982e+03,-2.175000000002456524e+00,-4.945000000008386465e+00,1.339548845474636707e+01,-2.151891447913333977e+00
2.000000000000034817e+01,2.999999997744292823e+00,1.000000000003818101e+01,6.599999999998306111e-01,1.570000000000033813e+00,2.869999999999986812e+03,-2.175000000000421263e+00,-4.944999999999359908e+00,1.338902895968084650e+01,-2.182686774356860315e+00
2.000000000000044054e+01,2.999999998548059654e+00,1.000000000003734613e+01,6.599999999999051070e-01,1.569999999999147411e+00,2.869999999999962711e+03,-2.175000000000891553e+00,-4.945000000001872564e+00,1.339629213776212247e+01,-2.164711627504569691e+00
2.000000000000028066e+01,2.999999999029715703e+00,1.000000000003312373e+01,6.600000000004322409e-01,1.570000000000799201e+00,2.869999999999956799e+03,-2.174999999998652456e+00,-4.944999999998218598e+00,1.339281360629689921e+01,-2.136242125084657939e+00
1.999999999999986500e+01,2.999999998981108362e+00,9.999999999987169375e+00,6.600000000001271516e-01,1.570000000000032037e+00,2.870000000000002274e+03,-2.175000000000272937e+00,-4.945000000000193907e+00,1.340212068149881830e+01,-2.184299036881181877e+00
2.000000000000054001e+01,2.999999998555350267e+00,1.000000000003437606e+01,6.600000000003056755e-01,1.569999999999931450e+00,2.869999999999957254e+03,-2.174999999999979838e+00,-4.945000000000743690e+00,1.340146924226238312e+01,-2.174123069011357767e+00
1.999999999999977263e+01,2.999999999064328460e+00,9.999999999975328180e+00,6.599999999995191935e-01,1.570000000001345208e+00,2.870000000000001819e+03,-2.174999999999951417e+00,-4.944999999994614370e+00,1.339882396978489254e+01,-2.184736507713140430e+00
2.000000000000142109e+01,2.999999998807833634e+00,1.000000000002617817e+01,6.599999999995784794e-01,1.569999999999316165e+00,2.869999999999978627e+03,-2.175000000001993783e+00,-4.945000000001469331e+00,1.340636144003169150e+01,-2.148416192045878415e+00
2.000000000000173017e+01,2.999999998480532781e+00,1.000000000005026912e+01,6.599999999998722444e-01,1.569999999998924922e+00,2.869999999999966349e+03,-2.175000000001620304e+00,-4.945000000002790053e+00,1.339963331123535895e+01,-2.167991295719854161e+00
2.000000000000137845e+01,2.999999997264790164e+00,1.000000000003110934e+01,6.599999999998377165e-01,1.569999999996913420e+00,2.869999999999991815e+03,-2.175000000003539657e+00,-4.945000000009813768e+00,1.338502741706864896e+01,-2.152433699233023745e+00
2.000000000000227374e+01,2.999999997880227198e+00,9.999999999981190157e+00,6.599999999989712984e-01,1.569999999996540163e+00,2.869999999999987267e+03,-2.175000000005629985e+00,-4.945000000010533192e+00,1.338423699473153938e+01,-2.131001750847406395e+00
1.999999999999977263e+01,3.000000000198172145e+00,9.999999999976594722e+00,6.600000000001848832e-01,1.570000000001253060e+00,2.869999999999996817e+03,-2.174999999998802114e+00,-4.944999999995609130e+00,1.341461617801712869e+01,-2.187814055607575803e+00
2.000000000000091305e+01,3.000000000151404667e+00,1.000000000000239275e+01,6.600000000002579359e-01,1.569999999999689644e+00,2.869999999999994998e+03,-2.175000000000493650e+00,-4.945000000000574936e+00,1.341643161890894831e+01,-2.191845578545430495e+00
1.999999999999969447e+01,2.999999998250566957e+00,1.000000000000836842e+01,6.600000000010326495e-01,1.570000000002496066e+00,2.869999999999980446e+03,-2.174999999996387157e+00,-4.944999999993903828e+00,1.340676204873285826e+01,-2.150512815433887059e+00
2.000000000000065015e+01,2.999999997851163780e+00,1.000000000002038547e+01,6.599999999990568966e-01,1.569999999998156648e+00,2.869999999999956799e+03,-2.175000000002873080e+00,-4.945000000003926921e+00,1.339162776017521317e+01,-2.152906846725038292e+00
2.000000000000129674e+01,2.999999999204546963e+00,9.999999999984746424e+00,6.599999999997874234e-01,1.569999999997759188e+00,2.869999999999963620e+03,-2.175000000002536904e+00,-4.945000000008399788e+00,1.339423512469001665e+01,-2.152193735916343442e+00
2.000000000000146017e+01,2.999999997049444200e+00,1.000000000006133227e+01,6.600000000003555245e-01,1.569999999998658913e+00,2.869999999999965439e+03,-2.175000000001219291e+00,-4.945000000003370921e+00,1.336588979061672511e+01,-2.153356761571170619e+00
2.000000000000047606e+01,2.999999998837837190e+00,1.000000000003070255e+01,6.600000000000195710e-01,1.569999999998004769e+00,2.869999999999984993e+03,-2.175000000001758416e+00,-4.945000000006323226e+00,1.340597868747134669e+01,-2.146213462088192081e+00
2.000000000000056843e+01,2.999999999613522927e+00,1.000000000002196110e+01,6.600000000000177947e-01,1.569999999997220508e+00,2.869999999999974079e+03,-2.175000000002703437e+00,-4.945000000008159979e+00,1.339751350048207357e+01,-2.177504139279180517e+00
1.999999999999944222e+01,3.000000000556581004e+00,9.999999999909864101e+00,6.599999999991347233e-01,1.569999999999354134e+00,2.869999999999993634e+03,-2.175000000001753531e+00,-4.945000000001174456e+00,1.341755498168787497e+01,-2.161651519308439795e+00
1.999999999999921840e+01,2.999999998460037176e+00,9.999999999959632291e+00,6.599999999998639177e-01,1.570000000001411600e+00,2.869999999999979991e+03,-2.174999999998819877e+00,-4.944999999996142037e+00,1.340354193475462985e+01,-2.120100882271718223e+00
2.000000000000062172e+01,2.999999999786731042e+00,9.999999999986101784e+00,6.599999999997054889e-01,1.570000000000073115e+00,2.869999999999994998e+03,-2.175000000001132250e+00,-4.944999999999740936e+00,1.340885257581534518e+01,-2.152731921037769780e+00
2.000000000000145306e+01,2.999999998523197320e+00,1.000000000003536371e+01,6.599999999999348610e-01,1.569999999997305551e+00,2.869999999999953161e+03,-2.175000000002900613e+00,-4.945000000007821583e+00,1.338644776500317413e+01,-2.164443338153148044e+00
2.000000000000187583e+01,2.999999996773876632e+00,1.000000000002940226e+01,6.600000000001069456e-01,1.569999999999628582e+00,2.869999999999962711e+03,-2.175000000001110934e+00,-4.945000000000512763e+00,1.338571930707266056e+01,-2.156491598029133261e+00
2.000000000000076383e+01,2.999999999932556616e+00,9.999999999965817565e+00,6.599999999993798605e-01,1.569999999998662465e+00,2.869999999999988177e+03,-2.175000000002700773e+00,-4.945000000003938467e+00,1.340254132710034973e+01,-2.178593932011053447e+00
1.999999999999997158e+01,2.999999996690832837e+00,1.000000000001963585e+01,6.600000000005494805e-01,1.570000000000018714e+00,2.869999999999968622e+03,-2.174999999998970868e+00,-4.945000000001638973e+00,1.338239491376569212e+01,-2.178771886739369279e+00
2.000000000000045830e+01,2.999999999301835807e+00,1.000000000000205524e+01,6.599999999998641398e-01,1.569999999999521334e+00,2.869999999999956344e+03,-2.175000000000486544e+00,-4.945000000001408047e+00,1.340110947852616086e+01,-2.146341067085171250e+00
1.999999999999865707e+01,2.999999999092533454e+00,9.999999999972853715e+00,6.600000000013239720e-01,1.570000000002465868e+00,2.869999999999989086e+03,-2.174999999995738786e+00,-4.944999999996406714e+00,1.340569460453489370e+01,-2.123359969941533087e+00
2.000000000000129674e+01,2.999999997776722438e+00,1.000000000008549250e+01,6.600000000005126211e-01,1.569999999996930296e+00,2.869999999999951797e+03,-2.175000000001949818e+00,-4.945000000011001262e+00,1.339333492645648427e+01,-2.138761016326006015e+00
1.999999999999964118e+01,2.999999999355737579e+00,9.999999999948082419e+00,6.599999999994701216e-01,1.570000000000876028e+00,2.870000000000005002e+03,-2.175000000000356870e+00,-4.944999999997009787e+00,1.340148028657379697e+01,-2.165074404418435794e+00
2.000000000000025935e+01,2.999999998813437152e+00,1.000000000000909317e+01,6.600000000008531265e-01,1.569999999998416440e+00,2.869999999999971351e+03,-2.175000000000368860e+00,-4.945000000005468799e+00,1.340802291350693132e+01,-2.151625910553694343e+00
1.999999999999996803e+01,2.999999999092078262e+00,9.999999999995861089e+00,6.600000000004128120e-01,1.569999999997495621e+00,2.869999999999984084e+03,-2.175000000001696243e+00,-4.945000000008912266e+00,1.340493261671781688e+01,-2.147530460962006060e+00
2.000000000000109779e+01,2.999999997053615974e+00,1.000000000006235545e+01,6.600000000005363798e-01,1.569999999999018625e+00,2.869999999999974989e+03,-2.175000000000544276e+00,-4.945000000002633733e+00,1.335901695749002904e+01,-2.173907174483279192e+00
2.000000000000113332e+01,2.999999997436767263e+00,1.000000000001952216e+01,6.600000000002751444e-01,1.569999999995942641e+00,2.869999999999956799e+03,-2.175000000003425527e+00,-4.945000000012315766e+00,1.337903865437562523e+01,-2.155215352549125107e+00
2.000000000000076739e+01,2.999999998705815241e+00,9.999999999977450926e+00,6.599999999993033661e-01,1.569999999998066498e+00,2.869999999999996817e+03,-2.175000000003034728e+00,-4.945000000007272689e+00,1.339574589078693023e+01,-2.147159775277985627e+00
2.000000000000053291e+01,2.999999999905616388e+00,1.000000000001251976e+01,6.600000000004924150e-01,1.569999999998812568e+00,2.869999999999985448e+03,-2.175000000000795630e+00,-4.945000000004635687e+00,1.339559079893013838e+01,-2.183092083933868999e+00
2.000000000000138201e+01,2.999999998231392961e+00,9.999999999984797938e+00,6.599999999996016831e-01,1.569999999995477902e+00,2.869999999999979991e+03,-2.175000000005078427e+00,-4.945000000013582309e+00,1.338056277670832905e+01,-2.179281454190908018e+00
2.000000000000103739e+01,2.999999999242433102e+00,1.000000000006795098e+01,6.600000000005423750e-01,1.569999999998743068e+00,2.869999999999981355e+03,-2.175000000000942624e+00,-4.945000000004030838e+00,1.337891864350899063e+01,-2.183241026402990226e+00
2.000000000000052225e+01,2.999999999250254401e+00,1.000000000004835776e+01,6.600000000005971090e-01,1.569999999999192264e+00,2.869999999999990905e+03,-2.175000000000200551e+00,-4.945000000002105267e+00,1.340487112516716905e+01,-2.187545536831236870e+00
2.000000000000171596e+01,2.999999997848652900e+00,1.000000000006970069e+01,6.600000000001956524e-01,1.569999999998315854e+00,2.869999999999956344e+03,-2.175000000001637623e+00,-4.945000000004268870e+00,1.339537776028559968e+01,-2.170653848643490313e+00
2.000000000000039435e+01,2.999999999820349483e+00,9.999999999984286347e+00,6.599999999997743227e-01,1.569999999998635154e+00,2.869999999999986358e+03,-2.175000000001878320e+00,-4.945000000003568985e+00,1.340012440531003968e+01,-2.175282563285088511e+00
1.999999999999957723e+01,2.999999999593716993e+00,9.999999999938260942e+00,6.600000000008492407e-01,1.570000000001454010e+00,2.870000000000001364e+03,-2.174999999997805578e+00,-4.944999999997905960e+00,1.340452609643750037e+01,-2.150955510408126159e+00
