4.957489551606422684e-03
4.959490971199046958e-03
4.959706879484251409e-03
4.959945215451796487e-03
4.959395569863723173e-03
4.957954842329578143e-03
4.952986273837638696e-03
4.959081247569448181e-03
4.959783200552510089e-03
4.956908440314770209e-03
4.948841838986279586e-03
4.959215478921955370e-03
4.955469721229789973e-03
4.949189300691773236e-03
4.925227832673846444e-03
4.936933743888772749e-03
4.952919325532149052e-03
4.948304578834722064e-03
4.959488628008354265e-03
4.954074518543378526e-03
4.958663490143191098e-03
4.950271185308491653e-03
4.957063760383506427e-03
4.959945215451796487e-03
4.937922235619333043e-03
4.956608846647702835e-03
4.958466996866577048e-03
4.957605706916447599e-03
4.946903016059289206e-03
4.927378881729240455e-03
4.952110590001829529e-03
4.957788810531963894e-03
4.957233809079451131e-03
4.955324108665349822e-03
4.943983400456870674e-03
4.949455085464567888e-03
4.957725209641748038e-03
4.959730311391173131e-03
4.949487220651202848e-03
4.943038759866406201e-03
4.956835466661786184e-03
4.953993511093735327e-03
4.959126102934125965e-03
4.959902368536282628e-03
4.953266787237640967e-03
4.959969316841773140e-03
4.959579677703821431e-03
4.959730980874228062e-03
4.959086603433887630e-03
4.954918067192551866e-03
4.949499606087719508e-03
4.947428894998912897e-03
4.945019760225855508e-03
4.926488469266222803e-03
4.959787552192367575e-03
4.947807487666459544e-03
4.959358748295704562e-03
4.959965969426498485e-03
4.957123679116919729e-03
4.959368790541527662e-03
4.955788395163922451e-03
4.958747510266581053e-03
4.958582147952020000e-03
4.958118865678028467e-03
4.912358694651030623e-03
4.955548050747213447e-03
4.953852919652205859e-03
4.953267456720695898e-03
4.959271380757039951e-03
4.952590274610664707e-03
4.959603779093797217e-03
4.942277222891457156e-03
4.959972998998574828e-03
4.959819352637475504e-03
4.957588635098549024e-03
4.945006035823229854e-03
4.949422950277932928e-03
4.888673388393251218e-03
4.959920444578765769e-03
4.935401966659162289e-03
4.959281088261335152e-03
4.930988734361261769e-03
4.949533414981991362e-03
4.950659150738805601e-03
4.945238011701753519e-03
4.940792644217217172e-03
4.948586431200835065e-03
4.937563392701907299e-03
4.948147250316821052e-03
4.952957820807805424e-03
4.959909732849886871e-03
4.958094094804997749e-03
4.953773920651727454e-03
4.959226190650834268e-03
4.959534152856087848e-03
4.959937516396664345e-03
4.954314862960086663e-03
4.933540803766540452e-03
4.827310245288753306e-03
4.951805305728793939e-03
4.959392222448448517e-03
4.953379929873919993e-03
4.959740353636997098e-03
4.956219542251277289e-03
4.959937181655137313e-03
4.954601401707585048e-03
4.958638719270158646e-03
4.959909063366831072e-03
4.959240249794986954e-03
4.958271842556073727e-03
4.958978481920521021e-03
4.959176983646298997e-03
4.953643371456022820e-03
4.936152122422177504e-03
4.955286617614274546e-03
4.954725256072741238e-03
4.959967643134135379e-03
4.937132915097605657e-03
4.959851822565637496e-03
4.956408001731232166e-03
4.959268702824820227e-03
4.959387536067064867e-03
4.950467343843576937e-03
4.950315371190114506e-03
4.934839600893046151e-03
4.913537654310709719e-03
4.933324225998280202e-03
4.907253551615891295e-03
4.935164634916200041e-03
4.935575362770381648e-03
4.943451830911279633e-03
4.957872495913825950e-03
4.958775963296413458e-03
4.955892834520487372e-03
4.959990070816475138e-03
4.951544876820438736e-03
4.952980248490144316e-03
4.945564719432544304e-03
4.951344701387022998e-03
4.955545707556520754e-03
4.957685040658453904e-03
4.952610693843839673e-03
4.956344735582544209e-03
4.953915516317839753e-03
4.959025010992836567e-03
4.951347379319242722e-03
4.920694093426063523e-03
4.935825414691386720e-03
4.955508216505446345e-03
4.954831369136942186e-03
4.952149754760540833e-03
4.955102175032650123e-03
4.955979532576096185e-03
4.944804186682177222e-03
4.959747048467546410e-03
4.959534152856087848e-03
4.959725959751316512e-03
4.960004129960627825e-03
4.943279773766170136e-03
4.939029225850610945e-03
4.946337972360954210e-03
4.957311134372292642e-03
4.953462945772727118e-03
4.955398086542915810e-03
4.902756299194599952e-03
4.938421335236760357e-03
4.932706293138607381e-03
4.927720318087238857e-03
4.928878523772215955e-03
4.948881338486519656e-03
4.933889269696616064e-03
4.953941291415452433e-03
4.959171627781859548e-03
4.957620770285183984e-03
4.959597419004775805e-03
4.956991790955104366e-03
4.959660015670408831e-03
4.936561511310248382e-03
4.959981367536761034e-03
4.958385319933879785e-03
4.954959240400428830e-03
4.960002790994517963e-03
4.957283685567041333e-03
4.956878313577299175e-03
4.942640417448740386e-03
4.959846466701198046e-03
4.959876593438669080e-03
4.950979833122102873e-03
4.959509047241529231e-03
4.959814331514563086e-03
4.958868686699516651e-03
4.949437009422086482e-03
4.954644918106152970e-03
4.946884270533752001e-03
4.948414039314198536e-03
4.941124707812447406e-03
4.958098446444855235e-03
4.948613210523031443e-03
4.932021746714971948e-03
4.955544703331938791e-03
4.955561775149839102e-03
4.957047692790189815e-03
