8.144018605577204098e-03
8.344662497143568586e-03
8.576368699461316136e-03
8.686587733801333019e-03
8.397861377849509881e-03
7.933881069937266314e-03
8.537756272859121226e-03
8.292658544886498395e-03
7.869040172058038712e-03
7.974337100432006206e-03
8.093193760416719437e-03
8.514454751754758563e-03
7.972072981649791154e-03
7.892106038283634370e-03
8.066524789383971647e-03
7.786030532836706389e-03
7.740568293397983614e-03
7.748612201980629478e-03
9.403544803123983775e-03
8.744284874772642949e-03
8.358051524690187153e-03
8.039431972650543101e-03
7.807211992734918241e-03
8.181584324820356802e-03
9.234609399644422983e-03
7.918918234189695898e-03
8.163577960514858609e-03
7.957746330804614521e-03
7.971125365918213176e-03
7.890898619293484906e-03
8.086915181667948122e-03
8.001899561517466022e-03
7.894797333577535658e-03
7.784710698975060364e-03
7.800678606944087129e-03
8.519679961522471506e-03
7.819134630735569830e-03
7.864390359891839169e-03
8.235317800692969203e-03
8.405453961540665028e-03
8.049670052984250757e-03
7.912923607079297081e-03
7.893624888102964560e-03
9.061148256708685331e-03
8.097819424203116234e-03
7.743505236003676157e-03
8.000596381710856075e-03
7.909543666609631860e-03
8.321717372816988395e-03
8.107203151513449682e-03
8.687370474388051225e-03
8.543090566687321780e-03
8.018083972201965268e-03
7.926746472759618051e-03
7.986576165478353681e-03
7.755228025343890476e-03
8.542097985007145525e-03
7.924702187503884429e-03
8.107507088017865474e-03
7.977503036294452191e-03
7.971680778653681548e-03
7.883782341576373726e-03
7.958495763281258836e-03
7.978324081207754243e-03
8.078324187377354526e-03
8.254957927797550860e-03
8.086736983279057753e-03
8.468153147942195785e-03
8.544124783505090831e-03
8.422103020360685588e-03
8.540352640039316004e-03
8.845509053987428774e-03
8.045766342483688313e-03
7.930362068108048543e-03
7.826186790340789942e-03
7.740147778508311809e-03
8.001858759082625464e-03
7.651344193539771042e-03
8.023000249248750729e-03
7.992440890959467623e-03
8.030350516439124439e-03
7.826576495228642835e-03
8.030161492914458451e-03
7.796664979680282236e-03
7.965876840473449724e-03
8.922988714233880125e-03
7.991084418176743961e-03
7.818406848530473283e-03
7.778727729703186801e-03
7.969166016343164419e-03
7.777346275837907288e-03
9.240962088938107014e-03
7.961378580208082825e-03
8.464491753942414778e-03
7.793060209467625628e-03
8.173579553267047021e-03
7.665750783849121716e-03
7.722495312872341110e-03
8.381442144988994133e-03
7.829305262146379202e-03
7.630987109365867591e-03
8.908811117181282893e-03
8.316383911691540079e-03
9.509199793681238216e-03
9.793494505587840501e-03
8.187442388679454577e-03
8.475970561376344053e-03
8.307817898483499733e-03
8.578741902304022268e-03
8.883257135133227830e-03
9.057283683237457236e-03
9.689098561591348233e-03
8.779235074672306349e-03
8.561465818311877335e-03
7.910862667768525647e-03
8.823068547528454750e-03
7.746698651056931235e-03
8.340136757687391725e-03
7.909401274439070359e-03
8.113127831592695238e-03
7.956812038317067140e-03
7.915878036442777071e-03
