5.127085923498970847e-03
5.253088880856060343e-03
5.220121283062602313e-03
5.160044869174436333e-03
5.267547867839550250e-03
5.419877057218908459e-03
5.287322716117750718e-03
5.472864358229760119e-03
5.194648149874413721e-03
5.081059251413240670e-03
5.379126446685121750e-03
5.103373496322295352e-03
5.328170230373054962e-03
5.262917254289860639e-03
5.016384669417858419e-03
5.027463273901602164e-03
5.000660310177936808e-03
5.196270854603943397e-03
5.192480361711345090e-03
5.317549322931124089e-03
5.305059558002771583e-03
5.400122974023890444e-03
5.316318126540763543e-03
5.250841060601559376e-03
5.199659456615782216e-03
4.939818183847417658e-03
5.393733384886286418e-03
5.397733259034308805e-03
5.378964652078658398e-03
5.327722483266932561e-03
5.405212149827192704e-03
5.389065134623328285e-03
5.098223323087144529e-03
5.227263606465570693e-03
5.109601290853436027e-03
5.337664632052336461e-03
5.367930606002577036e-03
4.968178961415667741e-03
5.058102154137327118e-03
4.932211241708242544e-03
5.017926044238256097e-03
4.954568747207260815e-03
4.928115761656400549e-03
4.943444719104055779e-03
5.432327455010393762e-03
5.384461775245315968e-03
5.089310343736971713e-03
5.155351095163400454e-03
5.176625355489734674e-03
5.362499671538563210e-03
5.243650285337831361e-03
5.212144895485137583e-03
5.012818698987168975e-03
5.011289437131960338e-03
4.967792211741393904e-03
4.942627093953746477e-03
4.942695013079988903e-03
5.001050088093507255e-03
4.953524003959643325e-03
5.254806326277610719e-03
5.134526312366787318e-03
5.114940512866727497e-03
5.363520188855801750e-03
5.279805756005698410e-03
4.956414676581002293e-03
5.262248878174924892e-03
5.173926327281913942e-03
5.334759683436289882e-03
5.290110428534996329e-03
5.360919362187197348e-03
5.060192505844361872e-03
5.014695343379784245e-03
5.073094544195066828e-03
5.224106881215936221e-03
4.991824767283798737e-03
5.428855792665825131e-03
5.259942223518073064e-03
5.418642832587250435e-03
5.376100368417176950e-03
5.437267381778322466e-03
5.346367364935287157e-03
5.383058401706900843e-03
5.420334754260721331e-03
5.077446559545390273e-03
5.068280505743931637e-03
5.100490610607130021e-03
5.183654768752897490e-03
5.253650403313786348e-03
4.990472008635640951e-03
5.037851006763629895e-03
5.026990868259200926e-03
4.961420792051574741e-03
4.987999233313329499e-03
5.089864511894403969e-03
5.363254136227526246e-03
4.966499152707385886e-03
5.043435948927913436e-03
5.002512296034273241e-03
4.937617085030076777e-03
4.938984984884721950e-03
4.922304134000708709e-03
4.942127434139667944e-03
4.939693593348323808e-03
5.349032217277036733e-03
5.378233115502376385e-03
5.074392361893970138e-03
5.392459360511862171e-03
5.321915614276136880e-03
5.148942471366212657e-03
5.400617009961273043e-03
5.396524558150729393e-03
4.953147636826961582e-03
4.989631022766750738e-03
5.004008679841109516e-03
5.185922488878782870e-03
5.311798260101380925e-03
5.325311137982368694e-03
5.227060281692742436e-03
5.034843530549368978e-03
5.332122085266217601e-03
5.438113126312107103e-03
5.386359617327013578e-03
5.270327793350603092e-03
5.221091618095482535e-03
5.124392951773744202e-03
5.157434092570141460e-03
5.228788542261782191e-03
5.191116355309797169e-03
5.326239510242984990e-03
4.965718299058546198e-03
5.319478312637594512e-03
5.089860185835407697e-03
5.201473373152950240e-03
5.024018433122810941e-03
5.426390804249707316e-03
5.064137871649030537e-03
5.271939250326741766e-03
5.181805811137859402e-03
5.178588953668176141e-03
5.237698060764758509e-03
5.296024151183001752e-03
5.232097977393987583e-03
5.095729782681650624e-03
5.312515520682975327e-03
5.027860406117466360e-03
5.329133211105641435e-03
5.427616809369271815e-03
5.044598793586130801e-03
4.933594715375274123e-03
4.925357899046229823e-03
4.931042773173329244e-03
4.919625005664271522e-03
5.311286487322113350e-03
5.376166124513921674e-03
5.424647402474179307e-03
5.087180192287170735e-03
5.285404974164669561e-03
4.928713190403796393e-03
5.101501610594576241e-03
5.360048959117133006e-03
5.345667408589677844e-03
5.436493882429774792e-03
5.254904960422726937e-03
5.050159509820034524e-03
5.044963912965422410e-03
4.953902534121824505e-03
4.952406582920887250e-03
5.287172169264677500e-03
5.279744758573849846e-03
5.396540564569015687e-03
4.945461960414052061e-03
5.259405359596625897e-03
5.272489957636976657e-03
4.991187971399536558e-03
5.343038895143497995e-03
5.133604861800564884e-03
5.021470816979862334e-03
5.001060038029199462e-03
5.084084897075284715e-03
5.194025629984839153e-03
5.126269596166360340e-03
4.996820932818678979e-03
5.076222284849424456e-03
5.224463348477234419e-03
4.991199219152926692e-03
5.009904665647230831e-03
5.416839298591673638e-03
5.453272069641205456e-03
5.258390033550183404e-03
5.409473317938594435e-03
5.143927703777647666e-03
5.438836443376296459e-03
5.086796470854195243e-03
