4.204925240277697361e-08
5.053285844394795430e-04
2.425356535093317541e-05
1.579591222234923540e-06
1.340232095207050170e-06
3.182219229655357523e-07
7.880904032991513158e-05
6.846129842151964880e-08
1.729718056653024017e-07
1.004501971878731827e-04
9.489987538887965061e-06
6.470021494942309896e-07
2.108214126803781527e-06
2.302108811340229297e-04
3.264922865896977510e-06
5.555439130451303963e-03
4.129732736645836140e-06
1.896779969632393172e-06
8.526302178626784731e-04
1.439668575378704764e-04
1.086240658275312333e-03
1.981173698947659271e-04
1.522316859525317847e-06
1.280642575213067683e-04
2.078920879090674100e-05
1.699750919455737669e-07
3.501376879470998743e-06
2.872373163647866639e-04
5.501225194065219185e-04
1.334390688786949916e-04
1.144172206168670904e-06
1.493682404451300745e-02
8.843520210587207974e-08
4.090643157689801031e-03
5.645557982547883382e-04
1.914818151371569022e-04
6.375746740847092490e-08
8.270997856299217715e-06
3.375977178146567542e-04
4.540001347646207175e-04
2.042355836794538011e-05
1.148901955125914608e-04
3.847568546717039914e-06
7.475249871582423223e-07
1.166688057010751949e-03
3.748082734660924563e-04
1.025054094054868191e-05
8.171964744504933926e-04
1.209773496590392213e-04
8.066263596134346913e-04
3.772538758489729117e-04
3.939945315781177826e-04
7.338316584431542665e-06
2.350391300158665223e-02
4.468230032525190233e-04
6.291546267833480295e-04
2.812799042182262399e-03
2.431803807511239882e-05
1.944977407289241906e-07
2.355248423417751164e-08
1.750309162801432080e-03
5.014704098026313665e-03
5.347269071501325891e-04
1.851104075655049400e-04
1.103969324945895062e-03
1.285418475720043529e-05
4.702335026404680721e-03
1.132502126899440412e-04
2.044769825019276954e-03
3.845539202852825064e-03
1.725158645200629108e-03
1.574501250625988391e-02
5.680612512632695439e-04
1.966821694368848619e-08
6.214159818953586935e-04
3.227710248328526429e-07
2.395986918573205188e-06
3.961568134339809596e-05
5.194840553409246211e-04
8.630335722559872863e-07
2.938061356308307136e-03
1.299682231310698597e-03
2.819350223474997037e-06
6.285344452018957109e-07
4.128078554851832493e-06
3.598883903568494758e-06
3.070273096503661064e-03
5.986049380920778441e-04
1.097820478829479392e-05
3.741308041074417785e-03
4.077690636167326764e-07
1.326710914341194759e-04
1.171764693231529958e-03
7.388013473462491784e-04
6.659790386279823288e-08
3.318759816820940330e-06
4.755119058201809732e-06
7.340966863371900898e-08
8.184670422308784831e-08
1.248395742482964180e-04
4.660745823308852039e-08
6.716687135207330819e-06
1.843175427784738226e-06
1.457158100449000568e-05
7.075877809052989596e-08
2.505057988866549202e-08
6.704683818018844690e-06
1.288025065831406425e-06
4.011290759617944864e-04
1.689455600829286100e-02
6.540896096746296774e-03
2.594033399622344802e-04
2.256259727750161625e-06
2.355799385319640616e-04
2.112981670369655941e-03
5.543829838795320103e-06
3.016714563498411003e-04
5.439390500460293604e-06
1.227573910593110280e-07
3.776323846098823865e-04
5.686472939900883827e-04
5.259305253359310888e-04
4.080949941053473159e-04
5.574036005669574686e-05
1.368336774362452260e-06
5.194597347504270601e-04
9.812832975398758827e-08
5.626158266892649691e-05
8.091577233918842004e-05
4.800776432845388757e-06
1.470947412073927724e-03
1.954611204060123595e-03
2.312639519383591566e-06
1.062444056465686789e-03
4.908618973980965631e-05
6.190223392504419748e-07
5.834269585875662655e-04
1.468825884168933373e-03
1.619209222776262168e-06
1.128139555741298258e-04
2.716385916884687252e-02
1.479903273404027276e-07
3.535293467441894624e-07
7.440570054243607065e-06
3.787087468810169466e-05
5.423742438125984553e-06
3.265213328314136611e-04
2.727304233686728553e-04
2.035377434461069813e-08
5.541955294054394000e-03
2.393713411441714199e-04
2.847666627298915719e-04
8.945249923101035016e-04
4.477543520456825424e-06
2.060612752170689742e-05
2.231810301077242868e-04
1.180687302041820430e-02
1.305336846886552787e-04
1.682005567240549108e-03
2.689926721878636547e-04
2.038250432395358778e-06
1.019255385667173095e-06
5.999601586359644672e-04
2.526985843828166248e-05
6.138811039075661761e-07
9.459370701098520872e-06
2.819609746943540812e-05
1.083202290682114111e-08
1.197667296592779162e-07
1.302700577728410168e-05
2.662848145104544043e-04
1.027663615782474304e-04
4.640219598944984218e-05
1.631145080172335699e-04
6.570069741040444064e-04
1.793516947411663755e-06
2.578849992346563349e-04
2.478737189530795519e-06
8.584209528861814789e-08
5.801599230416186703e-06
4.837264250090555402e-06
8.322634260232242168e-07
2.091102734613488185e-08
1.106951464475929202e-05
1.670775292383560981e-06
8.767650507170837975e-05
2.313275178594055952e-05
9.159675201393919326e-05
6.423406146395597678e-07
5.626260272459446612e-03
9.334171654431339896e-04
8.947431404393014050e-06
1.573042994576134570e-06
1.216623209660638475e-08
2.750694951392666881e-06
5.532392942279980449e-08
3.982173324070506851e-03
1.435601139283360723e-04
3.473872512959700351e-04
2.865303206154231039e-06
1.899937190870447256e-08
9.122046051716470755e-08
8.902065152697651569e-06
2.776735572922557686e-05
8.248852882230170089e-03
8.868511805842293702e-05
4.769866841166841090e-06
1.188070509132490740e-06
2.701767008258992159e-02
2.499862611892605425e-04
1.825510046513369134e-04
6.413817253708536644e-04
4.977897546003722494e-03
1.206686556060881368e-03
2.102528826706090946e-03
2.605339988802718782e-08
1.483254737296010525e-02
1.317017802085084129e-02
8.231106575302959971e-04
5.719742959705462036e-05
1.723148371928198703e-06
8.713321256740322145e-05
1.408560669443078381e-06
4.621499007074835559e-05
2.002851349738890915e-05
5.124778129994267190e-07
5.494165438106827365e-04
3.213312405340633393e-02
2.051015398977781470e-06
1.797039951739526888e-08
9.211914079987060026e-08
4.596036757956774315e-05
5.732634895035889233e-07
6.692855011505199539e-06
3.349179514630743999e-06
5.376056091472712802e-04
4.085142812812389241e-06
5.479162869556527789e-05
7.961588505294195069e-04
1.141664256993056526e-03
1.662259627625439773e-02
8.170047380838110565e-08
1.038290647194585672e-05
5.917387368975236259e-07
7.319420535940839544e-03
2.323303882380215596e-02
1.655909417066299850e-04
6.836369043198791784e-08
4.184031039973032171e-08
5.793287303282873552e-05
1.506908810529199577e-05
1.185520657288471243e-08
2.909429331173115994e-06
5.870183556569959020e-05
2.073862548550404691e-04
3.203388769375878700e-03
1.191659761514655014e-05
2.089061987975099301e-07
6.981159220898334366e-04
1.553362837167641952e-02
2.306372951953997510e-03
8.250018600490587398e-03
1.045921711959828335e-03
2.681645756119375363e-07
4.669190132384904834e-04
3.651633067888149406e-07
1.148755283847499569e-08
5.667158946498638194e-04
1.512597101772475720e-03
6.426443998050839997e-05
4.400798373842862363e-06
3.275438204361161617e-07
1.602955265902665202e-06
5.090985160411058696e-03
1.512001215991219671e-02
7.755000778668414386e-06
3.444847767044716710e-04
1.991502773769239086e-04
9.236612554391343002e-05
6.291365478036225848e-06
8.009505842105204824e-06
8.605968160964746442e-05
9.619258033765068971e-04
5.327132023780771264e-06
1.263009886151766003e-04
4.796765974689248065e-08
5.107431226117463342e-08
1.894916236398603128e-04
1.894522462030997383e-04
1.119873409118665401e-05
1.935818049642231812e-08
2.936914252791696243e-08
7.393628313652009045e-06
3.267214297068810037e-04
1.962170711620164765e-02
3.549686421684480116e-03
2.680532397992909256e-03
2.235622788493229519e-03
3.467704473930933555e-06
1.794892479367160912e-02
1.197817696737213036e-08
5.853958956632316833e-06
2.554456753218121209e-03
7.832302585793658135e-07
5.141882728551265720e-04
8.647949068662260695e-06
1.129906869380826627e-03
3.171338865581665306e-02
1.456475486450417751e-04
8.351714993085972497e-03
7.723435646609998033e-04
2.580858756998673898e-05
2.606490460874829419e-05
1.353518645328921632e-02
2.820692430741550687e-04
1.740025258518641468e-04
9.756704272211476540e-06
1.205669135993380449e-05
3.082038834533229791e-04
6.971724293108300386e-06
5.565555704276504968e-07
7.868588472170329684e-07
2.598262103152533878e-04
1.422823532909068688e-05
5.545064363189851396e-04
2.947998718271560895e-04
2.670363886039711469e-03
1.017135876051525442e-05
1.165925237008994457e-08
1.206081193208322721e-05
1.554400015105416689e-06
2.644892315768296656e-02
6.620513379800993170e-08
4.481081438974590150e-06
9.233372738739118396e-09
1.781840984268351164e-08
4.512345352560703115e-05
4.231524666496465944e-04
1.075293052384457184e-03
1.404031734159821398e-04
1.755770106104158693e-02
1.190424556691585534e-02
5.642131131104479931e-06
1.179252378721569457e-05
3.404314643533357724e-07
1.170076440266938949e-06
1.084845447060891906e-05
2.206003597243979967e-04
2.824053143454659816e-07
1.993245644344802826e-08
2.064410189060309108e-07
1.248142894277083980e-08
8.212360932180797759e-04
4.639548760339600375e-04
3.436648440070198536e-04
5.011678324303805478e-04
3.095351291661799188e-06
2.882651932097805692e-06
1.541314364771210982e-06
4.896974932682985951e-07
4.305696681751350040e-07
1.183061424852285603e-04
2.268471868978798409e-03
1.659757878960887370e-06
2.478113150774146707e-06
6.650526533995388626e-04
9.990924671468086847e-04
1.794259484217087777e-07
1.415976190691718679e-05
2.820764453091093173e-05
1.191356024869622172e-03
3.536215163103686667e-05
9.599134571782098500e-04
2.356234365408740859e-06
2.213154653273190467e-05
6.869483766443110380e-03
3.382329815219558190e-06
2.371122511223805609e-07
4.525069953356187694e-05
4.148947441628801289e-03
3.332464301579427055e-03
8.399349948791916959e-03
2.213375815381146347e-03
7.593061268761373868e-08
2.444093966428117084e-06
9.134484993215706084e-04
5.991276220273427993e-04
1.059404318627309388e-05
8.380977360564338327e-03
1.587010071418442367e-03
1.463293106401054693e-03
2.462425864311519890e-04
1.933094057423402189e-03
8.909992999775987951e-03
1.645355689923267209e-03
8.570371897555114889e-05
4.960158754452117201e-03
1.902701043437440463e-04
9.043022872110055782e-04
6.560322308667170297e-06
6.493405211834493373e-06
2.265339940168142593e-08
1.032016417604707508e-05
1.088718540240215648e-03
4.700927146041454681e-03
4.035028543175445126e-03
1.762835336804917320e-04
1.117727472552365511e-03
2.999189182192727897e-06
3.367890076214440765e-06
1.434571167494798133e-04
3.280779484797131809e-06
2.757408010092137450e-03
1.873099727300305895e-04
3.304737802550345475e-07
1.539546781618700884e-07
2.984140042125417257e-05
4.815216885387144056e-07
1.328911530647121946e-06
9.353734659888116964e-06
2.901400209189500002e-06
3.300670898549465300e-07
1.645829433552785436e-08
7.343604400586581705e-07
1.486067159649561863e-06
1.122131821892253265e-04
1.593205807085341284e-05
1.079664404528331848e-04
1.744415542624324841e-02
6.796738688280238444e-03
5.492582821998916949e-06
9.483971878666212600e-04
3.121823354139066729e-03
1.122287425884869965e-06
1.307753334528200341e-06
2.100526396628383044e-03
4.959599902771756900e-06
7.830016824587816837e-03
3.943195246019108764e-03
1.800114689416424908e-07
3.453971054650182697e-05
1.743048908756115650e-06
1.089562767433111066e-03
5.443855201136740869e-06
4.691130723465837233e-06
2.034148845417192082e-07
8.274404402528586432e-05
3.366143256978090678e-05
1.613908226987920700e-03
7.522887718131086952e-05
6.149647316126142335e-06
1.258156320239780996e-05
5.116165008852762645e-05
5.513970018527694769e-04
6.820852084047633081e-04
7.385099177811449596e-04
2.816313524079490718e-03
1.535589349631996062e-03
1.554681874309399867e-04
4.102924094859171330e-07
4.525583292000173940e-06
9.053771196595886565e-06
4.439343786110276971e-05
8.418641291687132709e-04
3.483831625150615852e-06
8.257744015186105677e-06
7.770804997221731549e-09
3.202925043545920748e-07
6.410105361579667141e-09
5.284594492268144964e-04
8.453146227312053381e-06
2.576201414171749649e-08
2.816608815712613951e-04
6.314367554760998848e-07
1.242522120903005889e-06
2.783377547063495814e-04
4.334087998767531722e-06
1.861802656443845645e-04
5.601136463554334030e-08
1.064577288002481790e-04
2.604873024178994806e-04
2.726941762681091382e-08
1.283419757663792971e-05
2.679009939037659293e-08
3.799702144189912793e-05
2.893983556475620011e-08
1.257097294870268599e-03
3.240482523564795834e-04
2.237884446839181191e-05
1.497462988054044095e-04
1.515713607998374650e-04
5.877113750584337168e-05
2.079880068044767834e-04
8.045468577932003533e-05
1.528925024261681110e-06
6.079561007581881990e-03
7.229104705327767421e-06
1.669655613137954828e-03
3.494165853745396025e-04
1.750069610204041523e-03
3.491593194543703496e-03
8.118366559249384698e-07
9.421646707111836992e-08
6.246370510033647698e-04
1.663729843854095617e-03
4.231673473542938258e-06
7.233177470522457607e-07
5.897783153719611952e-06
1.821883290645522991e-06
3.274866410757131733e-04
7.048364651770314555e-06
3.572055333722874576e-06
1.545063056915088723e-07
1.252056499390939066e-06
1.511517360191824638e-05
1.573560680493053072e-03
1.604091685125528990e-04
8.387257813824639582e-04
4.509119938626175500e-04
4.467174748534070636e-03
3.322141776616446878e-05
2.837140926244074643e-03
2.409097698444588424e-03
1.093936820415093280e-03
2.074088401244349622e-04
1.379721027163993371e-05
1.666703565639513042e-08
1.384350139729313874e-02
5.483787157798706133e-06
3.641144588981687706e-07
4.460320376961500662e-06
1.874272985400440480e-06
7.794370978128830416e-08
1.672740270350224595e-05
3.760520338788634805e-06
2.670004354906955629e-06
1.074014964947247825e-07
4.730558375367320375e-08
4.481898502133486507e-08
1.414438198145797908e-07
6.749301263979749393e-07
2.091464231468327314e-02
5.541972808728572937e-07
1.378248817599386288e-06
7.681156831250176133e-05
1.754873605298726345e-04
1.345464561305757460e-06
2.329292322850951084e-05
2.866276355452643144e-08
4.023905059881284797e-06
1.042209455646954733e-04
5.896453987864121340e-08
4.268456996680213521e-04
2.135842216490719874e-04
3.625059428373802171e-04
2.905827284059698222e-03
9.279896257668892763e-06
4.950599963225526391e-06
1.369544282221200843e-06
3.006334733796446937e-04
9.169942039256440177e-09
1.974667411953101184e-07
1.601570464494640050e-02
1.159204183355752073e-02
9.938250826037240990e-06
9.457995817931309128e-05
1.095242695211521924e-05
6.231110122348028834e-05
3.481132157033125173e-04
3.790884775734186565e-08
4.592949386858870465e-05
1.351282800210566954e-03
9.718076089694077928e-05
7.425237415876722170e-05
1.977920756769646226e-07
6.721046232461385303e-06
6.418187522907663298e-05
3.029297859575500522e-05
1.224420206071342628e-07
3.895226321324659227e-07
1.007361341518073656e-06
2.754244694231858705e-06
1.599089654664657273e-04
9.838539789199420919e-07
5.610882352649793244e-04
6.010599607895180741e-04
3.207270369542866299e-05
1.002043475277203716e-05
1.658928545520166330e-06
1.910687826195646346e-04
2.952865445876499235e-05
1.370246989411503667e-04
1.467284579793675053e-04
8.330136262121382571e-05
2.057643689524682581e-04
8.263837312271402231e-08
6.841695084530854210e-07
4.666158513370259608e-03
1.574230299154653147e-05
4.417576678211428167e-07
1.364312121923909694e-06
4.845588062705578371e-07
3.836999648561882810e-03
2.199118286722795545e-06
1.188991374563824928e-02
4.529864462898677488e-04
1.381060257963430166e-04
4.592550540265107363e-06
4.139101986446376037e-04
1.021121406295556088e-05
3.622044405813617076e-05
2.898535856516081322e-08
5.157206777466037934e-08
2.149447370425462329e-06
2.316012875965921716e-05
4.848398856401560202e-03
5.732304205461767523e-04
4.695732830911961063e-06
1.389349351924334031e-04
9.147838158628799604e-06
1.743789731799436369e-08
3.438479008121064296e-04
9.801334969567081549e-07
5.831450800161602477e-08
2.332231808383984242e-06
1.003191152069535821e-04
5.711033767863628553e-09
1.220809822174233063e-08
3.588052335859823482e-05
1.436321754204595809e-04
1.444153114820093857e-03
3.107239545970751874e-05
1.933591936378726192e-06
1.943840845359050294e-07
3.647703264855530290e-07
5.624887568229258207e-04
4.513327922683343929e-03
2.773717975514448740e-07
3.080756523570727062e-04
2.638581362608668004e-03
6.162667932692504090e-06
6.760121760402982130e-09
1.321180361176685106e-06
8.267022743690098519e-07
4.001524167766609957e-07
4.816512464053757230e-07
6.441713910431234695e-04
7.219945354357422060e-03
6.824189380526965287e-06
2.179229981951526370e-06
1.877202835334716886e-03
1.971966548361815840e-05
7.263241113550004468e-06
5.999234608350802355e-06
4.385515438399489510e-07
5.687204909228701931e-08
8.894125120859954185e-07
3.480911718553254013e-08
6.862234664771574852e-04
5.649793291388661633e-08
4.376084481950513191e-05
8.432779343324439555e-07
3.150513300508896164e-04
9.763989481283293862e-08
1.796582896101026029e-04
3.265918990769325122e-03
1.217616267268331217e-05
3.520823778246075187e-04
3.126696866458092330e-04
3.028706545647736996e-04
2.029460639582338283e-04
6.854963930300122740e-05
1.844384566584373404e-05
1.433394286412384954e-08
5.697397112433083772e-05
1.705458830306274108e-07
3.167837480792130969e-05
2.376143101537129406e-08
7.962961210135986783e-08
5.658588904621970500e-08
3.415293373076883207e-06
8.899075638052929553e-05
1.498876849689103115e-07
1.616298168620230850e-04
1.749261570327533306e-06
7.053578606689961579e-05
6.244460331680766609e-07
5.145942646009122595e-06
3.092473292600181851e-06
4.793312758067078984e-05
1.169905599209091455e-06
1.665691012554451356e-07
1.186611020906797594e-05
6.020821823469885012e-05
6.716201828359829259e-08
1.172339982349614294e-06
2.828652727019762177e-03
6.109224690898512351e-05
1.977485554464850082e-04
8.874564684135073179e-04
4.149562449865762214e-05
6.304942245444841600e-08
1.780624622286364981e-03
6.476018781799507129e-03
2.675755541754574142e-05
1.288933678493143532e-02
6.429280464183447350e-08
1.790006551021355773e-06
1.476357862751565127e-06
1.179232644336844371e-06
3.740391674104236598e-05
2.892781257434327060e-05
5.981039913369465353e-05
2.230064541952468823e-04
5.118080467376764220e-06
4.107736644646540266e-07
1.361588450643666313e-06
1.672254963502723225e-06
6.295774318987315478e-05
2.793745674764600035e-06
9.502831886421342020e-08
5.336359479580650751e-06
1.056236656309568489e-04
5.867361767885990878e-04
5.470438849531440344e-08
4.664302994574111995e-08
1.499641862898617603e-07
3.237598498176604304e-04
3.388409147373515134e-07
6.635883555291715631e-05
6.752609423700146772e-06
5.067034219403474655e-05
2.313425938692239747e-08
3.728666709596827424e-04
1.780158929949433541e-05
1.468185727638975025e-08
2.653576498961348908e-06
7.537538786301556566e-05
9.295817143794675441e-04
3.115752339783630222e-04
1.106510729459010771e-08
1.485521108408747375e-04
1.014757230315794290e-05
2.918131624007582646e-06
1.259045794625686751e-06
1.102468660355643488e-05
1.847606082570182280e-06
7.442125971849207016e-07
1.533375262569818388e-04
1.875368248645507266e-03
2.804338380987081140e-07
3.841348545911633807e-06
2.857522789914060993e-08
9.318624090674450277e-05
1.573797177318825531e-07
9.240082283270648631e-04
1.284458454986097450e-04
6.999160515851351297e-08
2.023047585068715231e-08
4.661856150025879146e-06
4.224372617631990590e-07
1.020621591719201320e-07
2.417499079831372561e-07
1.483531862041694378e-06
8.571753058570567672e-09
6.319915505987414326e-06
2.587301687036486545e-07
4.747936655488763113e-04
1.344771953716893738e-04
1.597292096857332153e-04
2.231270981544937086e-05
7.256783403110409305e-05
7.907929212760985205e-06
6.376875946826150200e-03
4.090987612405002499e-03
5.271583393872796182e-03
6.190380309404450621e-05
2.526766645373038179e-05
2.840372015852886682e-04
1.114783976535693074e-06
1.083094325402483328e-03
2.242278436034823354e-07
7.014725170849394240e-08
6.892691930285357606e-08
8.785407907401186862e-09
2.605617408024972890e-07
6.848891101522950297e-07
6.030214738222685999e-06
1.294911509856507289e-07
6.739349792746886583e-05
1.803433271868424556e-07
1.522403238232012445e-05
6.261816381364391365e-03
1.055232820348710037e-06
3.401354618338537207e-05
2.007719219002449414e-06
2.231735881244597901e-06
3.371073499944907820e-02
3.296009529337227583e-08
4.547337393145454271e-07
5.678466455376769470e-06
8.376751325253440231e-06
5.811696793178945340e-06
5.642200070975747408e-04
1.764324736486467049e-06
3.154635536218022493e-04
5.104325111941091291e-08
8.893470705829296280e-07
9.260995283736712702e-06
4.150926443954213460e-08
2.245890735650388066e-05
1.939753515250641639e-03
3.431539990716490875e-06
3.256641865480222272e-07
2.410679198581197043e-07
5.717174814948143037e-04
5.513418890983371682e-04
1.096427436766437766e-03
6.513926231967926599e-04
1.983663493304796952e-05
6.230425371816884837e-06
4.585349120781326324e-06
2.863819750742543476e-08
3.494328686883491433e-05
6.206127614491695876e-08
3.124167672646491572e-07
3.659900256274273052e-06
1.102857899688247323e-07
1.071697193060762535e-04
4.163243825822829998e-04
1.723265918730702275e-03
1.936023592586087229e-03
2.993235473260544267e-05
2.001978763745863659e-04
3.974991562724963901e-07
3.429287661352409709e-07
4.186036842428758179e-07
5.344160106746085638e-04
6.041174762912920252e-07
4.885789520116959675e-03
2.200439348840757710e-03
5.580012321073385406e-03
4.593314587142146676e-04
5.336561748869379134e-04
4.745386112660960391e-07
9.447789520339654017e-04
