8.876881839503354622e-05
9.566900524664074970e-05
8.343994126660557779e-05
1.594609276049291369e-03
2.330621655964353316e-03
1.263460753884185705e-04
7.940193572588823915e-04
1.907245373240473696e-04
1.560653876316996135e-03
9.340588152769272476e-05
2.125369516325713141e-04
1.140623262079333528e-04
1.559306508487137699e-04
8.721775458425394837e-04
1.287096126190883207e-03
2.273621940291821377e-03
3.932657972722015016e-04
1.866762593817783845e-04
1.876156767961112805e-03
2.159779505221619874e-03
2.445798048110473183e-04
2.235064252966959160e-03
1.089393061188694001e-03
2.069678273363841255e-03
1.772908749848001305e-03
2.330686310742878693e-03
2.078849813260677786e-03
3.949500463872486749e-04
1.854458875985354367e-03
2.069651845133203046e-03
1.376528078838838796e-03
1.818998325593854885e-03
1.629277136832541547e-03
1.791234053510352021e-03
1.623155697910967556e-03
5.218317850426429242e-04
1.061065065507024643e-03
1.949071469737433115e-03
2.043332159013692539e-03
1.407896186253833381e-03
2.273216707422035660e-03
1.834511696978480396e-03
1.807689717165946982e-03
2.156736640547603483e-03
1.714322239160900397e-03
1.955349747622972967e-03
1.515896094622232008e-03
2.244824292928185479e-03
1.184256172543697279e-03
1.005704214755854435e-03
4.079569439277303672e-04
2.121320923761650830e-03
1.184523522412563989e-03
4.491727921288369316e-04
1.478850636946923459e-03
7.857069708241323769e-05
2.135074300834489090e-03
8.646636695192152404e-04
1.761033192948545118e-03
8.865060515535520217e-04
7.094283328337208823e-04
5.938030147162688460e-04
1.989117790077350647e-03
2.288032876912681965e-03
2.329979355573307161e-03
2.233308034116691931e-03
1.473270819442536010e-03
2.231503363510254582e-03
1.851164943120274997e-03
1.397633223355997665e-03
1.747110392040008382e-03
1.771968030685998514e-03
9.697673269692807119e-04
2.306816584527888059e-03
2.329755816789159072e-03
2.088835908980399021e-03
1.421020791672737834e-03
2.138279510353854971e-03
3.327364183559510446e-04
9.602585911654619270e-04
2.330440591122302178e-03
1.809731455293644986e-03
2.330834025674839369e-03
1.687739843843974030e-03
1.840639900268610562e-03
8.616808976077213085e-04
1.757340083683201241e-04
1.290177158421201061e-04
1.494089028884194393e-03
2.086785676064281669e-03
1.739428271712710602e-03
5.740618736562899498e-04
6.331487804737224783e-05
1.610445764015648118e-03
2.221592305088237757e-03
2.293521454097008447e-03
2.323016775287313745e-03
5.994747804397516835e-04
2.295025503579936014e-03
2.256042447590516503e-03
1.641982194090064497e-03
2.049731723600553990e-03
2.298342875768617441e-03
2.311954673034465578e-03
1.462549609902741646e-03
1.961697242303041440e-03
2.008279830399015142e-03
1.400739189363435218e-04
2.319884715334893238e-03
2.252987312666560743e-03
9.598111203199241387e-04
1.604018512710975045e-03
1.349855701689025309e-03
1.121747035993031288e-04
1.800988430279299064e-03
7.956107929449025363e-04
1.878321051277305606e-03
1.929916036473428497e-03
2.326946401485779827e-03
2.319908941212978516e-03
1.649892257906616661e-03
1.797386482678567463e-03
1.556733846083225865e-03
1.617701099880318244e-03
1.707737362337778024e-03
2.309081389507043960e-03
5.037625835200478658e-04
2.812816364964728570e-04
1.750921091200602527e-03
1.737814733845710179e-03
1.380711290202714684e-03
9.387548208361771096e-04
1.354748385196819340e-03
1.929033365032291857e-03
2.178110157454457053e-03
2.165388110620095410e-03
3.282034852049470772e-04
1.467451260131645216e-03
1.459417549950321139e-03
1.689169485272783459e-03
1.855682440139544594e-03
1.868722884228738151e-03
1.826598644254891646e-03
1.806732794981588718e-03
1.692607829540993024e-03
9.497174436107522861e-05
2.837226690076078079e-04
1.453237434064294509e-03
1.939647603162360408e-03
1.814871431530981974e-03
2.330497223045098400e-03
2.140640589601764190e-03
2.238299036934896132e-03
1.275941505466939518e-04
8.155965327853193371e-05
1.144282765804379483e-03
2.121167860259204774e-03
3.587839566242470991e-04
5.045479188438786343e-04
7.995862752697438730e-04
1.543710706192664680e-03
1.987185540333725499e-03
2.301717666434578095e-03
2.227098501092990724e-03
4.075204406012686330e-05
9.134841231032925040e-05
1.012056979350960898e-03
3.845794828361002765e-04
1.687130893363018771e-03
1.224678603573657186e-04
2.269343870457262314e-03
6.222263408013118963e-04
1.876779876422767120e-03
2.048157985390407394e-03
1.587634740135152045e-03
6.788139707481224917e-05
9.057303673264298425e-05
1.773036958228776027e-03
1.438703165700455904e-03
1.499531042043111091e-03
1.631560504497503016e-03
2.181509331309399499e-03
1.733188849618644625e-03
1.796419807218616440e-03
9.065960688545897459e-05
2.711700656728064881e-04
2.307706334959374554e-03
1.730592747891130951e-03
1.668850580617111399e-03
1.892450086771358710e-03
1.933420294007336853e-03
3.922301016563427170e-04
8.868971264426389004e-04
2.301630673508727343e-03
1.713592159289520052e-03
1.809608752794253025e-03
1.489883164751200102e-03
1.850688605725200539e-03
2.539290863572430399e-04
1.395090135400657138e-03
2.248949771192988462e-03
1.416558668089091264e-03
7.002984016690498234e-04
2.216828459204805372e-03
2.006292836463353241e-03
1.952088378113501273e-03
3.961191809711958806e-04
2.600481656153670975e-04
1.971667606933096960e-03
2.322116485025751704e-03
1.778507287349090620e-03
1.003980165983953436e-04
1.540742544530697552e-04
2.259130303180976670e-03
7.051571060231662507e-04
2.207623097465187534e-03
1.755294019505845198e-03
9.508269377010048363e-04
1.872039391207487666e-04
2.125234189626864709e-03
1.324708768304084811e-03
6.474293161931860387e-04
2.268246469642189959e-03
1.037521405453077514e-04
1.783012632101593558e-04
1.301992366927927358e-03
2.328403100388814172e-03
2.330428320872363242e-03
1.878529488215374904e-03
2.328198281601368165e-03
1.628811811200233045e-03
5.143933786219893715e-04
6.811185065606152654e-04
1.027511909737478758e-04
1.014573717731111473e-03
1.137974598848474862e-03
1.783035048904366864e-04
1.835281261884921539e-03
1.929222295419175635e-03
1.911909916620392483e-03
2.081002927503208116e-03
9.604752082701573275e-04
1.921636921293321150e-03
2.267017714228409999e-03
2.206106935043217546e-03
8.978616172841118615e-04
2.316614693726105467e-03
5.025042929854209436e-04
1.951454572510874248e-03
1.768757315285250089e-03
1.043677806721433161e-03
6.492207923481663754e-05
1.847468766292446277e-03
2.267184306467969271e-03
2.328907124501700034e-03
8.188608813698964488e-05
1.546168688952914141e-03
2.049180506218671420e-03
2.306526188612661663e-03
2.334208187097212991e-04
2.236185565038322897e-03
1.936752374764855568e-04
1.809699363870726852e-03
2.030632607637551917e-03
1.728697151586426530e-03
2.326343271508000791e-03
2.131108650440688770e-03
8.887218541883997857e-04
2.255264702517449042e-03
1.703206808514086054e-03
2.244236579418279129e-03
1.619639484748913076e-03
2.308490372468307780e-03
2.318727379068195264e-03
2.036160079941077324e-04
2.021607838807295675e-03
1.447504238435667542e-03
2.260381200103460549e-04
1.159490442789078217e-04
1.937891895572507121e-04
2.192444955601336332e-03
9.180479875093513781e-04
1.981521561499627153e-03
1.634057343049226353e-03
2.871785927685187529e-04
1.705729446052861326e-03
2.309960757419350988e-03
2.045523499804110037e-03
2.196843997515423533e-03
2.022880955893932488e-03
1.497441540394415973e-04
2.242125309874258825e-03
2.285351512679180495e-03
1.424390686037039990e-04
9.490070079375918571e-04
4.782754653210887055e-05
1.449131462350676828e-03
1.049575706858858846e-03
2.142512746582867205e-03
1.129521104539424727e-03
7.655294886645539528e-04
1.542354587944179465e-04
2.324767645567094726e-03
1.627177350983977609e-03
1.226605445755210274e-03
1.356023075392423028e-03
2.191396006542434098e-03
2.264146003809955256e-03
2.307735280164359155e-03
1.353938706011731342e-03
2.284213211030978064e-03
2.330872881466313027e-03
1.577915129074366042e-03
1.524032214197278872e-03
5.249511421401583224e-04
2.787718984512234984e-04
1.754448630747216208e-03
1.794644711060750398e-03
7.094658514825731956e-04
2.238635524942842771e-03
2.077047345006793801e-03
2.041786422143150592e-03
1.923131060189759659e-03
1.768354756700707495e-03
2.193051349780220744e-04
1.568083827276954252e-03
1.916001730353310891e-03
2.328453439875744196e-03
1.610330769750192717e-03
2.221407150162873784e-03
1.726874232915977074e-03
2.326487525600234255e-03
7.720443621386644840e-04
6.674366272903069219e-04
7.082824311028235978e-05
4.227103463706108192e-04
1.356014265982210219e-03
2.237481806826768088e-03
1.591845795527735852e-03
1.570196355308147535e-03
8.765189136491405417e-05
2.428353056225809284e-04
1.965806674856385682e-03
9.153868967176567739e-05
1.782959657657144648e-03
9.440448126773379439e-05
2.237562979249442183e-03
5.202397987684844382e-04
8.272411769523466455e-05
2.316778768991317912e-03
1.998793236103900872e-04
2.310449522375261112e-03
1.425446261817463678e-03
1.935358796859104288e-04
7.568400280105195470e-05
9.346323118145486201e-05
1.437318043255400059e-03
5.477340860256013806e-04
1.176164493296955526e-03
1.053369967030752747e-03
1.923456536434940993e-03
2.327760328065078040e-03
1.646360470965793415e-03
2.320735924596698668e-03
4.736931562123968247e-04
1.536414941427553804e-03
2.290977264965391672e-03
2.106274608429197209e-03
1.895710040482760476e-03
8.354054158501707066e-04
3.618471930593805414e-04
1.178407668027821423e-04
1.881979080212695305e-04
8.700757542800430678e-05
2.385176917613748197e-04
2.363830615492016111e-04
1.443052497371200222e-03
1.992908668064966460e-03
7.412561223526061612e-05
2.572808506407056367e-04
1.824390903803497490e-04
4.407902450341784806e-04
1.795819194215183797e-03
1.013786376693348416e-03
6.144406312485660654e-04
1.782296277605946531e-03
4.271948474293067841e-04
2.307403354172415325e-03
3.758455818537606249e-04
1.880140705746649469e-04
2.750587123826938045e-04
5.436959939638908671e-04
1.882770118056530020e-03
1.678991312948245563e-03
9.270579691153221823e-04
1.397111737733583133e-03
1.115475207854254311e-03
1.631706489009599435e-03
1.418769987363384041e-03
2.444908454989883529e-04
6.019989910874935053e-04
1.314506212790565124e-03
5.317709529555053995e-05
5.759898661737745685e-05
1.491624183436077947e-04
6.922466793900587364e-04
1.264008785720410831e-04
2.330930929187179177e-03
2.188840491026257905e-03
5.844169027563936563e-04
1.033673089324320328e-04
6.331721509738069036e-04
1.885223381489879941e-03
2.330786675094945713e-03
5.774846638095927317e-05
5.107355364932894179e-05
6.925045119496778907e-04
1.211176786288433891e-03
1.974757350254317031e-03
1.619944254947322157e-04
5.034134516487820399e-05
2.692379535762157356e-04
1.784291569691406703e-04
1.285294995079620676e-03
2.260379351700424720e-03
1.489725696543647750e-03
2.308686696467334657e-03
1.839949462743187530e-03
1.965616328671431542e-03
1.984975794168398946e-03
1.885887076162871519e-03
1.907510717395408117e-03
1.284501971185715791e-04
2.274601357934401529e-03
2.294009275187538621e-03
2.138399184618485784e-04
1.734496575102545748e-03
3.163684161975178328e-04
1.088661250897450267e-03
1.768347520399461399e-04
7.660318020214385449e-05
8.282635797974379063e-04
4.513187880532936055e-04
1.069198746763173370e-03
2.139665537336566422e-04
1.693054435176599226e-03
2.223996802143624312e-03
2.775390332902685320e-04
6.159489281257035220e-04
1.125164811861503104e-04
9.503848154259531868e-04
2.109810800075126534e-03
1.984346235959981702e-03
1.850077452891692349e-03
2.089275278314759073e-03
2.261891581349978822e-03
1.263833384070639455e-03
1.041109234400834378e-03
5.308175506024597813e-05
8.803042070999248761e-05
9.219772204305758502e-04
1.940465108564557351e-04
2.319760439726534836e-03
4.610243984442771747e-04
4.235011875758245116e-04
1.804459495214013253e-03
1.640185074406666542e-03
6.874375279683890040e-04
8.900881583174432275e-05
1.940708035916718140e-03
9.895747352444757717e-04
1.713532066526997268e-03
6.203131256761818587e-04
1.404831612676078539e-03
8.843917144470475264e-04
1.084580527582746073e-03
5.794730243836690475e-05
4.885684352724615088e-04
2.066706513215113387e-03
2.316584961966637428e-03
1.994563342731442489e-04
1.252200538220861622e-04
6.742291446650842317e-05
4.241488365373571857e-04
1.442410255971740150e-04
6.139658276347341372e-04
5.365419269889429342e-04
2.226907211042656633e-03
4.504023340971001119e-04
6.272064891676465458e-04
1.569805909662647363e-03
2.325667778517760253e-03
7.641585242001971631e-04
7.860369304298681819e-04
2.141185829169574024e-03
3.271418332911401141e-04
5.791120941951540175e-05
5.516923133114658720e-05
9.857464959189044841e-04
1.393217978419554557e-03
1.752899393709223788e-04
1.810370294844964581e-03
1.819465224335129827e-03
1.830376937370774846e-03
1.454036416108410229e-03
1.275267034997526862e-04
1.863358739963666150e-03
2.266712845710690868e-03
1.461978414036983580e-03
2.084910372865245772e-03
1.972554053835753624e-03
1.578712852631308566e-03
1.178125983203496890e-04
2.003881575039410511e-03
5.680096515292446880e-04
1.157978783391524710e-04
1.144219448168475560e-03
5.397554641539001682e-05
3.663164742888250594e-04
3.235904414798210270e-04
1.275679976101248868e-04
1.941512995774906814e-03
2.034313525308405549e-03
2.063831656578725329e-03
3.204975519406679657e-04
8.425584209765661940e-04
3.736465721571309660e-04
3.935051064737393788e-04
1.134609876079900213e-03
1.780599836896408408e-03
6.732134766927558864e-04
2.389381641242741569e-04
1.948070657812907541e-03
7.107745208318543787e-04
7.484923252794703670e-04
1.762686530472399584e-03
3.210603120095926609e-04
6.229650727720082099e-04
4.330530560611199685e-05
1.549279826556079201e-03
1.264355105659398975e-03
1.674543032723504424e-04
6.141424484439546349e-04
1.679689930640294480e-03
4.934647664266718061e-05
9.183437319950645645e-04
5.564441544070975821e-04
1.549692944634559785e-04
1.243345842133752139e-03
1.983069186100928569e-03
2.232118291805282578e-03
9.883745317584391281e-04
1.587061656538634510e-03
1.487057861047259063e-03
4.693416615168234879e-04
2.207523991600294794e-03
2.328325074184072526e-03
1.060577401727390984e-03
2.112059244721030448e-04
2.295520875593505799e-03
6.822286495583164238e-04
1.646375415500975692e-03
4.421146061454009238e-04
1.659558697884333002e-03
1.648866748171316484e-03
1.922052064749596358e-03
1.325407071374340700e-03
7.220729827069280200e-04
4.525716120342617864e-04
1.797107727769693079e-03
1.886262891894982660e-03
1.697105505387284073e-03
5.614892918376133784e-05
6.220103922679273310e-04
2.114505114542237704e-03
1.314060000432200424e-03
1.939055956880037087e-03
1.499058322798659708e-03
2.315239324556642598e-03
2.330904972889230944e-03
2.395446566224691885e-04
1.618403335722990452e-03
4.014008943264201564e-04
1.716552514398240624e-04
6.940010105095661703e-04
2.198004794621847852e-03
1.636797364583318344e-04
1.110246331296444280e-04
5.778020582074581491e-04
9.824560042296893124e-05
1.644639647067273934e-03
8.188204426375247751e-04
1.502769463825533202e-04
6.111917286276543834e-04
1.616194533423044068e-03
2.313954251841859877e-03
4.685138915786197351e-04
3.815296964826309263e-04
1.705021232396115947e-03
7.887672085202982288e-05
1.644401478369736597e-03
5.382899656725840610e-04
1.584954634388824205e-03
3.566679284256034517e-04
5.099198893260592546e-04
4.791303517251035120e-05
7.955004393508983106e-04
1.776059372486227163e-03
7.065920173670136705e-04
2.336527146352542850e-04
1.000685190934183603e-04
1.420452112781326703e-04
4.635906111014260794e-04
5.494694218543375074e-04
1.081277136400005313e-04
1.644928469873534107e-03
4.002686491477387741e-04
4.641988438514153289e-05
1.975962823655391665e-03
3.581882595863350731e-04
1.378152195863639382e-04
1.701816612792613186e-04
1.794573763846358389e-03
2.001378129430027297e-03
1.821681420247219310e-03
9.916277211012846119e-05
3.095660177320443997e-04
4.593882078081584037e-04
1.702567339719179319e-03
1.433848394118756014e-03
5.108782666362115740e-04
3.588777925741023903e-04
1.412956543513600651e-04
1.579256991022841500e-03
7.769722046318611663e-04
1.879285839006496943e-03
1.686157138912718111e-03
1.614678528311970594e-03
9.529943279074066078e-05
9.271673788439464565e-04
2.484501444653363354e-04
1.495822417990584424e-04
2.192990785085008364e-04
7.207259294988628291e-04
4.597989072316029709e-05
1.453452478060023251e-03
2.047071439027204915e-03
1.612845069811445157e-03
1.508422922493417415e-04
1.655288336283709848e-03
1.455994622149983826e-03
1.621841837302096748e-03
1.779508728517202468e-03
1.706852134594570700e-04
2.054358079760309520e-03
1.962674929525758203e-03
6.316866248489604518e-05
6.240476863627945859e-04
1.339013834691495618e-03
8.998155759314756231e-05
8.242821196585235072e-04
1.963743385135845686e-04
1.140618739391054820e-04
1.350335204965894930e-04
8.800678474776992390e-05
1.167825953925636555e-04
1.897015878235901697e-03
7.361059012431239940e-04
1.031941391310069422e-04
1.669988253021727339e-03
1.920572555766546880e-03
2.005703392533583502e-03
1.587268028771185056e-04
3.115545257850863329e-04
5.704127327865614241e-04
1.903194892945651645e-03
1.974016730552860706e-03
2.280433344806128207e-03
1.948702693667947212e-04
2.078839116119705292e-03
1.874843693906725435e-03
4.014530428886616095e-04
1.446173702871751286e-03
3.203009723114343078e-04
2.527276833756192842e-04
1.449014737665358472e-03
6.973765090745616792e-04
3.506228639443560290e-04
1.676134547064972880e-03
2.286455835173705538e-03
2.007942555836584632e-03
7.464731612654427247e-04
2.054888374792936644e-03
1.752268773652254207e-03
7.283877567204920852e-04
1.527672073724104830e-03
1.752888106652388932e-03
1.920048710480682687e-03
1.728716658137611833e-03
8.179635701834396630e-05
3.127515830531899313e-04
6.843572134690373624e-05
6.522490762684490849e-05
6.800212630564397495e-04
1.850773081676705114e-03
1.078644538544467642e-04
1.527220591450702139e-03
9.475584892011837228e-04
1.879529356274520257e-04
2.449732393635839132e-04
1.210017424643941537e-04
3.665895660054198433e-04
7.754211191908332978e-04
3.382013595780553701e-04
1.571463494580711395e-04
8.330474238286080684e-05
2.321499629672239080e-04
1.771094955209557903e-03
1.207916734257721668e-04
2.234299092765624530e-03
2.322584484943302895e-03
3.984297634212788332e-04
1.157281109564855501e-04
1.197493884497297231e-03
4.744186445719810732e-05
6.797922183909087908e-04
4.990346045210525532e-04
2.110560858430382374e-03
5.094461082330556433e-04
1.836887720761572109e-03
8.743332557148645722e-04
7.576452238350532900e-04
1.623537176835358189e-03
7.059439751282393320e-04
5.733796556252171482e-04
2.660561833804520201e-04
1.722640996686964840e-03
1.789753600661922808e-03
8.817646224728927255e-04
4.688669758861640537e-04
4.305207930618556523e-04
1.649204022733746777e-03
2.310118540248697235e-03
1.417153303278450736e-03
1.322027895667135706e-04
1.759203824531332949e-03
3.442371033886758801e-04
1.589949884601238133e-04
6.884582397213412754e-04
1.138171158813846510e-03
3.017925587653757656e-04
6.878895804937921543e-05
5.818044701914209561e-05
6.458639941160107490e-04
1.056732408791325882e-04
1.427297496449311137e-04
6.187571242696334817e-04
1.710012510508389155e-04
6.842465550851709781e-04
1.399080640916129333e-04
2.069234656635271421e-03
5.610673545169889804e-05
1.357841746668662485e-03
1.463966194527128485e-03
1.730757609710826617e-03
1.963327455125087311e-03
1.786929555445154966e-03
2.863780376154364832e-04
5.324485008193337397e-04
2.302318751370700713e-03
1.602597366070584962e-03
1.052008657522678179e-04
1.710732011221969336e-04
2.308945472892333546e-03
2.318714794196462866e-03
8.667293582309289993e-05
1.734242675315342914e-03
1.897277643567936954e-03
3.341667283560713093e-04
4.681637175226635415e-05
8.474121700374378488e-05
2.170440268049374244e-04
2.395714781303490343e-04
8.950758772706795532e-04
6.267356576539552559e-05
3.619868458078869043e-04
2.031940805054143449e-03
2.032369477247530573e-03
1.699594793015968015e-03
3.832821398713784572e-04
2.320973778672442544e-03
9.985261185414425183e-04
1.039147567519534436e-03
1.375503670279815301e-03
3.969262251987651542e-04
2.025246125225154976e-03
1.185991547700157751e-03
1.808979981140319219e-03
2.255240004706674222e-03
1.988342247356836984e-03
1.910530929300306323e-03
5.563051309021778716e-04
1.194459671922597135e-03
1.745097559789570796e-04
2.150551490712884067e-03
1.906872546415399087e-04
1.268231501783209257e-04
1.009313320002384147e-03
1.219219856468108792e-03
2.301810007930915093e-03
1.856441779837703001e-03
2.135125741497695580e-03
1.145553051294876442e-03
1.259047436006226683e-03
1.427562270352245369e-04
8.077172232490633925e-05
1.364693560419548001e-04
2.312087600742139624e-03
1.331009069715156413e-04
4.205192808742622742e-04
2.876550284829034235e-04
3.100454030257413646e-04
6.327921665029344550e-04
9.255187606469917477e-04
2.657790605721304864e-04
8.954620755219699435e-04
8.360349543947258864e-05
1.995905912578952585e-03
1.882901944587927600e-03
1.620402029656591047e-04
5.165704827762596660e-04
2.922496471692586262e-04
4.340303205108021062e-04
1.043383006101099818e-03
2.137021495113296948e-03
7.740096766663805974e-05
1.196183878005394703e-03
8.936607870998107626e-05
7.358317083502527445e-04
1.066188996032903106e-03
5.725521806449447386e-05
8.783710331547817324e-04
1.260578916576758656e-04
1.542632811928777627e-03
6.087174150299457198e-05
3.350916771006843121e-04
6.046909344787945425e-04
5.315693688733718085e-04
1.766145482468070918e-03
1.682356035716819779e-03
2.275784335877254275e-03
1.965879509801537160e-03
1.845264997941192895e-03
