3.784666050898612371e-04
7.784920969922644665e-04
8.893174922167270497e-04
2.922017970410638625e-04
3.700425957658694774e-04
8.900220994726166374e-04
8.566892332411222676e-04
8.104743305166436148e-04
1.828140793788993158e-04
4.144244840576762003e-04
8.682151581531734807e-04
4.562714599941279756e-04
8.808977275147587827e-04
2.445504209023790392e-04
2.364707226733729303e-04
3.531476454460096806e-04
2.677455794012514293e-04
8.457772432336514582e-04
3.492506910803699644e-04
3.560364870292333532e-04
8.443385270936242058e-04
8.702466763987709531e-04
6.181028825779428431e-04
2.305537797801143264e-04
8.921165344560081853e-04
8.487325236878376063e-04
7.404181384791087795e-04
8.838938285892553298e-04
7.753413230953820753e-04
3.925011919288673998e-04
8.567543776528860041e-04
3.861503944781498874e-04
8.913327544630857526e-04
8.646748423486087885e-04
8.659630399771669519e-04
3.678361449062425158e-04
5.459602029344220444e-04
8.870128731839199828e-04
3.308710863707825934e-04
2.803385601448101319e-04
6.628495073267417831e-04
5.390312337774491504e-04
8.557203154790926376e-04
8.750199194344821007e-04
8.429908445493337378e-04
8.835526332274570285e-04
2.880821053821520580e-04
3.037159514055182532e-04
8.026698854895613364e-04
8.219822534147230896e-04
8.748405615762154270e-04
8.491612004085018293e-04
2.574491498982850630e-04
4.017938435825479525e-04
8.596265116813366775e-04
3.678514375870077383e-04
8.407274675886690536e-04
8.767111454293499478e-04
2.693088947650727478e-04
7.371625434908392208e-04
8.622181996192177390e-04
8.257095734179371481e-04
3.755562995669020805e-04
3.913442765460128274e-04
5.427754118539476541e-04
8.026193714771121673e-04
8.754278848079682322e-04
8.783331931163466120e-04
7.287084003608512457e-04
8.831257627289303743e-04
7.233029193695648474e-04
8.275222979552629161e-04
7.234146643124797233e-04
7.775518981622233294e-04
8.123699606500865656e-04
1.727755181897820029e-04
6.377599981017737603e-04
7.550703328743751377e-04
2.367911916361419900e-04
7.019402484885742992e-04
8.910617007276322356e-04
8.921083462489842004e-04
2.382551346786913914e-04
2.873088616850324713e-04
3.275066363950185832e-04
6.317764658190412348e-04
2.348215063950561169e-04
5.580724877597526782e-04
8.155106799104029115e-04
8.662662444666702991e-04
8.893331461419199269e-04
8.799941347867069061e-04
8.912630342885732773e-04
8.918691422305574049e-04
7.134889920069641730e-04
8.170743866223539138e-04
8.508766899874186307e-04
7.933449626670218075e-04
8.363708597927048231e-04
8.404534034829860747e-04
8.823873791190669710e-04
4.506106695036876208e-04
1.673297433929753751e-04
3.984237943181571646e-04
8.896645276967704748e-04
7.376720787558647659e-04
8.889152465466767334e-04
8.917435495845875458e-04
8.857944559372790032e-04
8.237753503381534592e-04
6.352174394060361743e-04
8.730635400298100268e-04
8.841791514795963557e-04
7.665569423512307370e-04
7.598282230219164084e-04
8.106837318697995495e-04
8.378116831918925363e-04
8.858305201726271883e-04
2.148782551809222082e-04
3.399279959318001506e-04
9.059401394974880676e-05
8.698719455126172366e-04
7.537289119001616688e-04
7.618876172958379727e-04
8.615026346156933216e-04
2.796411476737687362e-04
2.684442261240868014e-04
4.378765023963708362e-04
3.680092411944321362e-04
7.467002392811915301e-04
8.507967947615308014e-04
8.775775299813665629e-04
8.853421177066118268e-04
8.299759303144246120e-04
8.215464120129129747e-04
7.781752856293241028e-04
7.805458317701548156e-04
8.875685273208596500e-04
8.576204611678799440e-04
3.736439317749837221e-04
8.830990908486979589e-04
8.432662934253224102e-04
8.835537771681441048e-04
4.910102594338516292e-04
4.324917026485603378e-04
8.848071749168503596e-04
5.276803317905341640e-04
7.279356985303729512e-04
8.194730496211271187e-04
3.929591294481611912e-04
4.263535878545489225e-04
8.237586728870825974e-04
8.734792119510833425e-04
8.843679016929786906e-04
8.845138444416992575e-04
8.285829115944794978e-04
8.010789650307364096e-04
8.777550816174956678e-04
8.921003386641741242e-04
8.336102298775506254e-04
7.958205105214531628e-04
4.012709422737039539e-04
3.945424035666033713e-04
8.907773411557644858e-04
4.253469200498429014e-04
8.368674504657439527e-04
8.736869274969108002e-04
8.803561619104924990e-04
8.656406895330043564e-04
8.921059379528008476e-04
8.886827857575637377e-04
8.674977869275113862e-04
8.880304987362608879e-04
8.808262613255131218e-04
8.911050500589351876e-04
8.524613488761662332e-04
8.894150282121591252e-04
8.731205564419545952e-04
8.912992791461351542e-04
8.826538570917720743e-04
8.606269781233701370e-04
2.830484051141946228e-04
8.833398602596441397e-04
8.908482052709642543e-04
8.423124877218443650e-04
8.910692868606102197e-04
3.990468205408305002e-04
2.227195170359099288e-04
3.926741678022477116e-04
5.142298169834331068e-04
4.046132660282819875e-04
8.697808517094761773e-04
8.722554362454342566e-04
4.136355563316615447e-04
2.251818794687367935e-04
6.980276100940393516e-04
8.392035579711504658e-04
8.909865618867067287e-04
8.111564804106220338e-04
7.105381066933130719e-04
7.021261689539409724e-04
8.910560412316008037e-04
8.859355218862280477e-04
8.802827690843001776e-04
8.344100852474979190e-04
8.169937689076109920e-04
8.897207614126553506e-04
4.472769253042633100e-04
4.318372782643946188e-04
8.017717114279222746e-04
8.033338527473542169e-04
6.975844233888695445e-04
8.921043725602814623e-04
2.576183327051764370e-04
8.919897376619465414e-04
4.026382223281878454e-04
8.907613259861442249e-04
8.090804086856297163e-04
8.898090856751854566e-04
8.530306700939474084e-04
7.331781980774405372e-04
8.671251633005182388e-04
8.911366589463437255e-04
8.908844501285260228e-04
8.590107705546184882e-04
8.909127476086823151e-04
8.308306948373557965e-04
8.717646856906400340e-04
4.063084356081503811e-04
8.867432644261763258e-04
8.719932932058594918e-04
8.804383450177546977e-04
8.533794515887238022e-04
8.327295761706466097e-04
8.159438721864111649e-04
8.691240491328290803e-04
8.356220603018477740e-04
7.374862184979025844e-04
7.957909486858008108e-04
8.439076226989903218e-04
6.674302672899860411e-04
8.865604747458482064e-04
8.374739196521556808e-04
7.380796226775188052e-04
3.988394361357282345e-04
3.988785408450079648e-04
4.047496357996730929e-04
4.286393920734223669e-04
4.566288511477604463e-04
8.572268853640901964e-04
8.717579424613262342e-04
8.915751494739558103e-04
8.727061488761776644e-04
8.214317169071734537e-04
8.904914161913776759e-04
6.912996132535801155e-04
8.217839904314158932e-04
7.872536591300771441e-04
8.002370246849824405e-04
8.833363682301779854e-04
8.339155416262147586e-04
7.694510520823557784e-04
7.698402327456105873e-04
5.105233889496111569e-04
6.631666799341096388e-04
8.377249845292863073e-04
8.919466893676664815e-04
8.367082018806095865e-04
8.475761802753267347e-04
8.199937232560014022e-04
8.510873556960708419e-04
4.335857916047276264e-04
3.349481210835440759e-04
7.348375141478769544e-04
8.227504998972619537e-04
8.038017244884049619e-04
7.966517339491907025e-04
8.783546871597843961e-04
8.189690534373235886e-04
8.578996429029529542e-04
8.320632608240747597e-04
8.837716677653470248e-04
8.237934727669342892e-04
8.047094715273733767e-04
8.613082851136842633e-04
8.052221977848420757e-04
8.599516918735147179e-04
8.914258351105783977e-04
8.731060464574490112e-04
7.569404350682730747e-04
8.623517998499978911e-04
3.243279262624075543e-04
3.040134361915860020e-04
4.138566379213075102e-04
8.216263072388009124e-04
2.394309100310330364e-04
2.258000439434896210e-04
7.482484124827591806e-04
8.188140795779148525e-04
7.521842307280602810e-04
8.687631659497305637e-04
8.569198878080975862e-04
8.825706504586318911e-04
2.272175971808042001e-04
8.271917593040766610e-04
7.963737563622093688e-04
8.907715612449240705e-04
8.164448579999852330e-04
8.075187490254344663e-04
8.899765224673438077e-04
8.916254226567865791e-04
8.743522795250092657e-04
8.792986188489098709e-04
3.578565267662165133e-04
8.920678868731014019e-04
8.849986946708437562e-04
7.921116741914476433e-04
5.085179405102002075e-04
8.690480673882393890e-04
7.869136077089660276e-04
7.447215831368221963e-04
7.590719578128905754e-04
8.648588361770288011e-04
7.062583837530069918e-04
3.782743026396082021e-04
3.956254444640288216e-04
4.208728777112302798e-04
8.736060689525495864e-04
8.921157517597487095e-04
8.917838283382567609e-04
8.404806172298595656e-04
7.314633105725696282e-04
8.231777918476207000e-04
7.589085549168397794e-04
8.866628273336472042e-04
7.668247448868367169e-04
7.755268823163212564e-04
8.306860164441317229e-04
7.337187401558286194e-04
8.890101936237116559e-04
8.897690477511347503e-04
8.269750126475610341e-04
8.918642654307858825e-04
6.698461496064711833e-04
8.921161732115808016e-04
8.430598422349912290e-04
8.181846111629508802e-04
6.255074902311583748e-04
8.562181705076282604e-04
6.993643950980995899e-04
8.695775915115880415e-04
8.512046999276122244e-04
8.751381667770922676e-04
8.187675392541686383e-04
8.904056808472448313e-04
6.995257509423946337e-04
8.912963891907148923e-04
8.738231166460881053e-04
8.370158617180525808e-04
6.934587109894989245e-04
7.200219770639640750e-04
8.518504243418151831e-04
8.680293581026158993e-04
6.940049125639183303e-04
7.612722976209518756e-04
7.713730530590082526e-04
8.503382551681910092e-04
8.586371836091519563e-04
8.897153427462424274e-04
8.468715128120325470e-04
8.131403143917859989e-04
8.547945062187479928e-04
8.762209969486016176e-04
8.239301435753482866e-04
8.823045337303542799e-04
8.869182873513126609e-04
7.681391929437948784e-04
8.776986672793969917e-04
3.654071072718549661e-04
8.714128938256341782e-04
6.514816268517331513e-04
7.227725523425521190e-04
8.081657377951337014e-04
8.905583668252790895e-04
3.960537900439678525e-04
8.706354958175981616e-04
8.849409557698442036e-04
8.245028364077863076e-04
8.665790821409079248e-04
5.202214772657851255e-04
2.478481460220087235e-04
8.760031063513988060e-04
8.323203464416642017e-04
8.741002513294051464e-04
7.871374588392229463e-04
8.431603283932480580e-04
8.920348330079826788e-04
8.711297986092630301e-04
8.169218210591288557e-04
8.777164886711549298e-04
8.727507625629770012e-04
8.386918552395597514e-04
6.926945586104719986e-04
8.456521322469181829e-04
8.853590359873009805e-04
7.780725115896929044e-04
8.209873260539117534e-04
8.402090818351692480e-04
8.277283276937620051e-04
8.758859427420712237e-04
7.291965619972482068e-04
8.597266968025706144e-04
8.246314394239856287e-04
5.451572769868407971e-04
3.400812538801780555e-04
8.570457814910904457e-04
8.852193548086576295e-04
8.361477311513027802e-04
8.721130457335843356e-04
8.860056033051681235e-04
8.103980477350310315e-04
8.909334589558604066e-04
5.339989182797971919e-04
8.573650011502143790e-04
8.714787607262532241e-04
8.511286579756180415e-04
3.018465114930708629e-04
8.864437325883526078e-04
8.220388483750355659e-04
8.661451071686398703e-04
8.403011991641884003e-04
8.544944325142829825e-04
8.910212413517492203e-04
8.084455818116572040e-04
7.158295548603102248e-04
8.482491184364031843e-04
8.619637029200256668e-04
8.392567211094013879e-04
8.839445232239180822e-04
8.515280738976525876e-04
8.134450240664042398e-04
6.948964638110526840e-04
8.134991505231285464e-04
8.827914310112549645e-04
5.287396810742543609e-04
8.637962356934609587e-04
8.040748252756147732e-04
8.172819215459676797e-04
8.731965983939487782e-04
5.445670035922631300e-04
8.821577480779696371e-04
3.776926088001843662e-04
8.486180694117164856e-04
3.329204260081379497e-04
6.848059436317761525e-04
4.002216476265498565e-04
8.054102857167739181e-04
8.197093636841337608e-04
8.266477854036268077e-04
8.115244680674619506e-04
8.151414278980667182e-04
8.816552570792808921e-04
6.941672317266866501e-04
8.898935566638220248e-04
8.535414095070646299e-04
8.449590246053049342e-04
5.651197644667404476e-04
8.635048318552565171e-04
8.830228080670853756e-04
6.760218639246477063e-04
4.758838715200525474e-04
8.879279053188435982e-04
8.899030092263422861e-04
8.370866656258476408e-04
8.409810611767924498e-04
8.781516075841100605e-04
3.705304262615410839e-04
4.953657232891288918e-04
7.465701310798776406e-04
7.425834375776998791e-04
8.163124017098923740e-04
5.403219601169997584e-04
2.961920126764099699e-04
8.117345317020682694e-04
8.650118231920861682e-04
8.831191399144255579e-04
8.691306117399290798e-04
4.256294131921683197e-04
3.264642354956898401e-04
7.186520779873806219e-04
8.728158467673363544e-04
8.813761957590170821e-04
8.770792535009990648e-04
8.734279754497792977e-04
8.704896734836867949e-04
8.843399654572501071e-04
8.852691463322515976e-04
8.221089297939756417e-04
8.915624457115877951e-04
7.897294478141270082e-04
8.920633713177573716e-04
8.144882979730994673e-04
8.370927465737110565e-04
8.369058627898708904e-04
8.338775507539198046e-04
8.161735032275086073e-04
7.890179769141144207e-04
8.814094302463492802e-04
8.750890977423532837e-04
7.967250063605739322e-04
7.641025875032140570e-04
8.844624875255859041e-04
8.137134888834607121e-04
8.710914464925405840e-04
3.853665241741206088e-04
4.114361798420736833e-04
4.740414045248604645e-04
7.491505602331009804e-04
6.777891920789144448e-04
8.710036038892472786e-04
8.658253456428748615e-04
8.107525489332432405e-04
8.470072203019731599e-04
4.234769382707542730e-04
8.860624390950988917e-04
8.729140450442188139e-04
7.027086153859221467e-04
8.921130424265421395e-04
7.217746748189159210e-04
7.445153125687047069e-04
8.399137043082621767e-04
8.610583039698362215e-04
3.324917191837714267e-04
7.777229473986569264e-04
8.444170375492066668e-04
6.983974039730168372e-04
3.788606023454830227e-04
8.630491822173369867e-04
4.221785655908209182e-04
4.883342811295476914e-04
8.863133233500157179e-04
7.696632229761227748e-04
8.870255769462879981e-04
7.961393087287450040e-04
8.878602924034915836e-04
8.879594539988474276e-04
8.537132414397578112e-04
8.446334831686994017e-04
4.752143049736329977e-04
8.894340537520088481e-04
8.130914861866653069e-04
8.845423225440692417e-04
8.848691283361711591e-04
8.638689662382027876e-04
7.817006699975510104e-04
5.031257352516254168e-04
4.487105238149005312e-04
8.617901249725995168e-04
8.608711793563776551e-04
5.835879643721784624e-04
8.854956465883104862e-04
7.251618229862094459e-04
7.231519191988589577e-04
3.672309701790294183e-04
3.229045028031456870e-04
3.559770021135007234e-04
3.869321575230186511e-04
8.155828083810989565e-04
6.037503404353092946e-04
8.920660806509638331e-04
8.635384275870165325e-04
8.770041146600735579e-04
8.577829007454573556e-04
8.734451947674913433e-04
8.769599826325108049e-04
4.090337839842161948e-04
5.008870433268417790e-04
4.407255769888642860e-04
8.642760285006200263e-04
8.642644686789393042e-04
2.585477544097964362e-04
4.227930122583404768e-04
4.385639806456551699e-04
3.422118735137268260e-04
8.027483959451435806e-04
8.888296918247576891e-04
8.098220434953407650e-04
8.629512247700729275e-04
8.538673723955023630e-04
7.933002887728176538e-04
8.306319501948120163e-04
8.479217105702553745e-04
8.240089550679536396e-04
8.611016533011393902e-04
8.744982824811344327e-04
8.761007025542353732e-04
4.658011481996702629e-04
8.383063472279848969e-04
3.047798463482848347e-04
8.252872786821591243e-04
8.346202692969134380e-04
8.494902940819781161e-04
8.330090589427427286e-04
8.685195667907688296e-04
7.101188825351688935e-04
8.793223405663175328e-04
8.834517858247725990e-04
8.913847736606495984e-04
8.574582624199206075e-04
6.898817288755403716e-04
6.552479010457153315e-04
3.787059897305018329e-04
8.872032489972263031e-04
8.533784280628458176e-04
8.795005544838970218e-04
4.343937448705920048e-04
3.759733261547786270e-04
5.950013616450554321e-04
8.667862558200940901e-04
8.691578856942072792e-04
6.899769769895980776e-04
8.376540602066820471e-04
4.151617538305546647e-04
8.525358856430458477e-04
7.337468570137710032e-04
8.461708792448456974e-04
8.155831094181218485e-04
2.248617566985441029e-04
8.612121338885577728e-04
8.059107296637068023e-04
8.296710400175925709e-04
7.987268423557096356e-04
8.181675122600479263e-04
8.526238486611483532e-04
8.405979614614011650e-04
8.671473196254065154e-04
7.809078588939404085e-04
8.247970699940061941e-04
7.098311513486445148e-04
7.679119099914764055e-04
8.249425912908946688e-04
8.889635930925606248e-04
8.495415305832822693e-04
8.159708451036664723e-04
8.903162728514321406e-04
8.599294753412218412e-04
7.336731631505557898e-04
6.495251872396564773e-04
8.758497580919139469e-04
8.353134973533359953e-04
8.060690751377723841e-04
8.524204680484513425e-04
8.870958389874417658e-04
8.541235549020228038e-04
8.244307079370901542e-04
8.590841633808109180e-04
6.864433442069425850e-04
7.659550489275677478e-04
3.624204888635809262e-04
3.304861503295512771e-04
3.152839913970786586e-04
4.426510699949828061e-04
3.713428348753448926e-04
5.646520131404986860e-04
6.094036351038784570e-04
3.104692353559043738e-04
4.381240451403330626e-04
4.375954542317555488e-04
6.454060374473859652e-04
8.328625141199761609e-04
7.187199317323508200e-04
8.739048783015182119e-04
7.651802398379288842e-04
3.385881403501059045e-04
8.698483442100188832e-04
8.861352900546499208e-04
8.915441426605931648e-04
8.775386359980029329e-04
7.860355429204592733e-04
8.913810408015651523e-04
8.660672589945081186e-04
8.790331041946782605e-04
8.012733747401499596e-04
7.999936061482343982e-04
8.440687377136669653e-04
7.101273717792157703e-04
8.839246547804041751e-04
7.522675577760095560e-04
8.397091195474731644e-04
8.512210763416600857e-04
7.150632952221228382e-04
8.403341326144978148e-04
8.522553793450718526e-04
4.206458355885301531e-04
3.258882914634041194e-04
8.492642754851560281e-04
7.456320395089970727e-04
8.664232051704305127e-04
8.896334606760031207e-04
8.499721339408933696e-04
8.562079954562530149e-04
8.838674577460459147e-04
8.840227326424774344e-04
4.451314043380791090e-04
5.384450544863835300e-04
8.564558091335358874e-04
8.709949942303912016e-04
8.919321793831607890e-04
8.014026400377998816e-04
5.060518452182888966e-04
7.369603068188291780e-04
8.736315968920947087e-04
7.249376708189295268e-04
7.346455127346467572e-04
5.909722219226433947e-04
8.836191022021217499e-04
6.987593106819935552e-04
3.674808309080683142e-04
3.993213663057503340e-04
3.191226950987798299e-04
4.815767826608404866e-04
8.724229332449970993e-04
8.178603942892461159e-04
3.707279065485886960e-04
3.093678914074842390e-04
8.475803947936478731e-04
3.504977369478922116e-04
8.638471109503374030e-04
8.845458145735352875e-04
2.843121284327876776e-04
8.762156384895934029e-04
3.401598245431649539e-04
3.846583044739557752e-04
3.486405492422783360e-04
8.896358087647820902e-04
8.898742902943539016e-04
8.818448501963275198e-04
8.531262192450281149e-04
8.716762410133007278e-04
8.564585184667421322e-04
8.665227280102139572e-04
8.444194458453901280e-04
8.856511021069558062e-04
8.920525941923361252e-04
8.657383459432455236e-04
8.211112930999578440e-04
7.417595594533222484e-04
7.494647826776439743e-04
8.233634112759645896e-04
8.885353980311332025e-04
7.102701837428978919e-04
8.258092768799343928e-04
8.519326676564819819e-04
8.919055677103329737e-04
8.199415234362237561e-04
8.711921132730113216e-04
8.628380348494479749e-04
8.257999447322233316e-04
8.284063232768237774e-04
8.484555696267342571e-04
8.610395192596048989e-04
5.451000197450779367e-04
4.281846756502739209e-04
8.914566613017272430e-04
8.883355094479021292e-04
7.583737325418872955e-04
2.932862528124971437e-04
3.694725219555310180e-04
8.055906671009186847e-04
8.088551727850671041e-04
7.411553781482848897e-04
8.321223242879752973e-04
8.489744370394708634e-04
6.486618732652738159e-04
4.136101488069255684e-04
8.645291404295067303e-04
7.151701031578614831e-04
8.768716583699805904e-04
7.936269741501102625e-04
7.963441945265569083e-04
4.052011311266760850e-04
5.781198074727163889e-04
3.232074062556262507e-04
7.847893098528989104e-04
8.915470326160133182e-04
8.891372914547961918e-04
8.912299202160500625e-04
8.539121064971110084e-04
8.613555479262855700e-04
6.869408981984550990e-04
3.476416481927642075e-04
8.360569985925892129e-04
8.033516139317074464e-04
8.286979077372419109e-04
4.695317495064342127e-04
3.057305814741288720e-04
5.435343863961798402e-04
4.066018864981107376e-04
4.669553843530205653e-04
4.142523811916623186e-04
8.691115259926748653e-04
8.411835988858253847e-04
4.897663443513679358e-04
7.650327919040936404e-04
4.252034759084128042e-04
8.476335579318987953e-04
7.610660872602392031e-04
8.329029132884544677e-04
7.499027915460194753e-04
8.864262122336176702e-04
8.888873705183527501e-04
8.671110145604401468e-04
8.898437049328233482e-04
8.543061037527327397e-04
8.859925382983725077e-04
8.163611697076083576e-04
8.144443465677505146e-04
8.591764613320437621e-04
7.982843781393948127e-04
8.907578941640826708e-04
8.364712255361524519e-04
8.135251601219103609e-04
8.259174695859784060e-04
8.289962354269738440e-04
8.027255773388049199e-04
3.366005434061551931e-04
8.919094209842265116e-04
3.984796065822100025e-04
5.322737353087419456e-04
8.141486077964158428e-04
8.823765417862412331e-04
7.538344554804039289e-04
8.887584062577259369e-04
8.410148977381707571e-04
6.436530988628157189e-04
8.159526022600764421e-04
8.713847769676917945e-04
3.070776017369690101e-04
3.505281416872089648e-04
3.776911638224742353e-04
8.420345703422676313e-04
3.790461615664222580e-04
8.622690748760944001e-04
7.939841244741244414e-04
8.843576062267941365e-04
8.635509507271706391e-04
8.323716431503729550e-04
6.373641946240144601e-04
8.920633713177573716e-04
3.853600217744251552e-04
8.869475481499423377e-04
8.905663744100893826e-04
2.897767933027837052e-04
4.494505029209853487e-04
2.701641710509430330e-04
8.697084222017571319e-04
8.920757740431024948e-04
8.557437361594774075e-04
8.409444550748030808e-04
3.239221283554865921e-04
3.817137108340838648e-04
3.252746876995487452e-04
8.110343195867135120e-04
8.778552065313248963e-04
3.520580118377818766e-04
8.285203561011128060e-04
7.606457191614079483e-04
4.598181577835789213e-04
5.755437132526233877e-04
8.526928463468058444e-04
7.928834127034525532e-04
8.723255176643742240e-04
8.484793515515465191e-04
8.910199167888482354e-04
8.288622739517663082e-04
8.773959444491302283e-04
8.920255008602716177e-04
8.668777710750674584e-04
7.871585314308286382e-04
8.895674131531705999e-04
8.320031738342962375e-04
7.086920272538455804e-04
3.994568329660726550e-04
8.642288258954233197e-04
3.918744930545141640e-04
6.813901367398987347e-04
8.699396788427784513e-04
8.429914466233796302e-04
8.744484909575403562e-04
8.235009851954473714e-04
8.785198962779728693e-04
8.806472647116739402e-04
5.819307555609027228e-04
8.122326877676267843e-04
8.095076404285837541e-04
3.904539294469702043e-04
4.430095448818978615e-04
8.586705987186980631e-04
8.338881472571273590e-04
3.654135193604435197e-04
3.870392965994823796e-04
8.608475178463748101e-04
8.172397161553518041e-04
8.112684059757504932e-04
4.686623846878904356e-04
8.626515123100353009e-04
3.650831312277686563e-04
2.868615808763506176e-04
4.814829494207905573e-04
8.897663986253327804e-04
8.218729167679920001e-04
3.232772468449479804e-04
8.777270851743624843e-04
2.886220152827920020e-04
5.905382469503754487e-04
8.860579235397548614e-04
8.493018449056187816e-04
8.626353165182012398e-04
7.604759944878753362e-04
4.319119956534878710e-04
8.462517979966115112e-04
3.270038443593068379e-04
7.859461951320510743e-04
8.657609237199660008e-04
8.737778406778381676e-04
6.999579798999295025e-04
8.024454322852583085e-04
8.856995690676488977e-04
7.623261680308546576e-04
8.739205924341155807e-04
8.429362364333727389e-04
7.909880233996278943e-04
8.732009935344837168e-04
8.763905409999205379e-04
8.467060628642254566e-04
8.615998695741023967e-04
4.476038214074720733e-04
7.884182509570166007e-04
8.441076316970305953e-04
8.210576483024702296e-04
8.898272081039663951e-04
8.743074852159960202e-04
8.368140464978746302e-04
8.000282856132768898e-04
3.546317579690959625e-04
8.696285269758691943e-04
8.293188869081593315e-04
3.445165527539384930e-04
8.176427445216617046e-04
7.512318097948878209e-04
8.534291829049132786e-04
8.574014266299899477e-04
7.762653863409938598e-04
8.162245591065989602e-04
3.291651998728976078e-04
2.943085745423958794e-04
8.910117887892289590e-04
7.343945682723253309e-04
3.029465308785900669e-04
4.527205777900581915e-04
6.656292229891503038e-04
8.163224563464585278e-04
3.053391430332021020e-04
4.230803219930329259e-04
8.847493758084462069e-04
8.852858237833223509e-04
8.919914836766796185e-04
5.740502685818260446e-04
8.197131567506226986e-04
8.921152701005119088e-04
3.627883260019092886e-04
8.390453931192985758e-04
7.847648054392316642e-04
3.614665025378891892e-04
8.899496699648977004e-04
5.850056681280045145e-04
8.824897919142705690e-04
3.240652714598937973e-04
4.900966120692335989e-04
3.598473448063126785e-04
5.181585307549929154e-04
5.249268665565259666e-04
7.559361153523459689e-04
8.852955773828657211e-04
4.785809525196645315e-04
8.466423032227673052e-04
8.163465995156980650e-04
8.563072774664180591e-04
8.188842814116641285e-04
8.916868944168705778e-04
7.936023493216340331e-04
8.388610982538556712e-04
4.476906103811852024e-04
8.707123806732566373e-04
8.310456954791384547e-04
8.712172197607242433e-04
8.066522440586086510e-04
8.348528505008356339e-04
8.398266444012283472e-04
8.551334136991720330e-04
6.505848375603996746e-04
3.133654222424877385e-04
8.864901524972897302e-04
8.638005706265911889e-04
2.838182771966572555e-04
8.886522606034377844e-04
8.797383737320182322e-04
7.946657927088661682e-04
8.819425668139731786e-04
8.871519522885175498e-04
8.852683034285873049e-04
8.806871220135109547e-04
8.215537573162727753e-04
8.357795628722491715e-04
8.354413176732756238e-04
8.050652370810820789e-04
8.912934992352947389e-04
8.879641501764052583e-04
8.467885470085106557e-04
8.720646991877004442e-04
8.088277182085752129e-04
8.917753390942098840e-04
3.918930068314249488e-04
4.148535521264702696e-04
8.511786903288303015e-04
8.056291396324502226e-04
8.915549197860144111e-04
8.045307759505571955e-04
8.843609778414510906e-04
8.514966456324579583e-04
2.907254211694671191e-04
4.109490718352570610e-04
3.526770041643478197e-04
3.714886271055540135e-04
4.016241791164198321e-04
4.569188702156593029e-04
3.022859051317517863e-04
3.148201234484328975e-04
8.551296206326829867e-04
8.448288561965863362e-04
8.768875531247917595e-04
8.622039304643305552e-04
6.850499040351653787e-04
8.708861392428966959e-04
8.466173773572679669e-04
6.601307817651805689e-04
8.518523509787619520e-04
8.359681926708224147e-04
8.723317190270468398e-04
8.712302245601152590e-04
4.990026719780566583e-04
8.497462959662849735e-04
8.121004120997475087e-04
8.873046382665518081e-04
8.120909595372272473e-04
6.220577263630936663e-04
8.918819664077346204e-04
7.173598464627152288e-04
4.820500730683042090e-04
8.755821361785216589e-04
3.855732764014747362e-04
8.285838749129528823e-04
7.938249360963945669e-04
7.816310100304430268e-04
8.889738283513405788e-04
3.266551832793396443e-04
3.856358619985436197e-04
8.824406626721272018e-04
2.871697825804349043e-04
8.328836469189865614e-04
8.576156445755128048e-04
2.947564574251236255e-04
3.563107919645348409e-04
3.018698719660509243e-04
7.243375234099995062e-04
8.357670397320948481e-04
7.485611899495920978e-04
8.597071293960795993e-04
8.546819785795735326e-04
8.623675139825952600e-04
8.527176517974959825e-04
4.999929633687147639e-04
8.281614597623657668e-04
8.748474854277429186e-04
8.467515796620939030e-04
8.508374949670320002e-04
8.506814975817453880e-04
8.768480570673823455e-04
8.345274294790393016e-04
8.332227350216241850e-04
8.896300288539416750e-04
7.865930634869411093e-04
8.112007930603984786e-04
8.908969732686802378e-04
8.207890630706045571e-04
8.921004590789833244e-04
7.824589822583328125e-04
7.715710752126970487e-04
6.872999149520115552e-04
8.893728830289477413e-04
3.229567026229231705e-04
7.022897524722057855e-04
4.113522206163761617e-04
8.879312167260958438e-04
3.635732198318165518e-04
4.832368212201318880e-04
3.974483741564322436e-04
5.428895048856412827e-04
6.008360010162427456e-04
4.491323067877394542e-04
2.899974534405975243e-04
3.881627667690884368e-04
8.683460490507471713e-04
8.757893700651125327e-04
8.398551827110028230e-04
4.633474255294017211e-04
8.752420847574106507e-04
8.888304745210173817e-04
5.341797813231786507e-04
8.557294670045900069e-04
7.243932754666477982e-04
8.551642398903209867e-04
3.429377339834357974e-04
8.033324679770486318e-04
8.710847032632267842e-04
8.813969071061951736e-04
8.421790681132780131e-04
7.965147018963492130e-04
8.430980739369043665e-04
8.613646994517829393e-04
4.061518361488178222e-04
3.354273419203597137e-04
8.885913909173996780e-04
6.690474381772111827e-04
8.876698563827807717e-04
8.852135146904126142e-04
4.130002176947500945e-04
8.195394583883873485e-04
3.121366493222578215e-04
8.739950689935905952e-04
8.622781059867825693e-04
8.335923482783879788e-04
8.117746298335236843e-04
8.656964415896525400e-04
7.917005178255184664e-04
3.379856147486947227e-04
4.594468888231890047e-04
4.183528967922130084e-04
4.171358944195800223e-04
8.081689287875768552e-04
8.751436456509097909e-04
8.917427668883279616e-04
4.806471803340067414e-04
8.515245818681866502e-04
8.822014586537001895e-04
8.664244695259267891e-04
8.911506270642081257e-04
8.169642070719586400e-04
7.134060864108470986e-04
8.696648320408355629e-04
8.869327371284137533e-04
7.176833408475649006e-04
4.986044602041137886e-04
8.077914885682166771e-04
8.630980104224576788e-04
8.883370748404212976e-04
8.327696743021020245e-04
8.556338576461048088e-04
8.851504173304047384e-04
8.534290624901040784e-04
8.623343999100720452e-04
7.779635361873891986e-04
8.917171185339736392e-04
8.903933383293043081e-04
8.368029683354304919e-04
8.262430110225839385e-04
8.694442321104263981e-04
7.866217222115248937e-04
8.918235050178799752e-04
7.303102183599064021e-04
8.344675231114745797e-04
4.495739582040923928e-04
4.055603586061484246e-04
7.630763522920170749e-04
3.644003491560420449e-04
4.393086860330001724e-04
8.623479465761042448e-04
8.440515786033595197e-04
8.717955118817888793e-04
3.815583757302476908e-04
8.559556662236260036e-04
6.938765503773374095e-04
8.727719555693918933e-04
6.483226647478268836e-04
3.156632980459810056e-04
5.846972858017064276e-04
4.187529448919958012e-04
5.267395308864471345e-04
3.466211326850030948e-04
6.319874927721210464e-04
5.844825861969467698e-04
4.563629451453989354e-04
8.307046205321491367e-04
4.147835008112325480e-04
8.166002533112260613e-04
4.616437968091887506e-04
3.270068848332385457e-04
8.786279685692077908e-04
8.920637325621848636e-04
7.525692570803984432e-04
7.316416449049583173e-04
8.829007676579860540e-04
8.815335177072045709e-04
7.147057836536812757e-04
8.515274718236068036e-04
7.714234466566481131e-04
2.947447169812290489e-04
8.492872145063039974e-04
8.916799705653428694e-04
8.750137782792140849e-04
8.571309147611773979e-04
8.398395287858101627e-04
8.236984052750903834e-04
7.644578713976859586e-04
8.820868237553652685e-04
8.171312224122846820e-04
8.642926457442863964e-04
7.846442702152472363e-04
7.163559481986203235e-04
8.918974999181181890e-04
7.683258961054213526e-04
8.156396441710297247e-04
4.270643362657064717e-04
8.353042254130295342e-04
8.867158098496843261e-04
8.283868762851419624e-04
7.746960803404159173e-04
8.774631359126500423e-04
3.234165366754615935e-04
7.278666406373109684e-04
8.731788372095954402e-04
3.974129420988323593e-04
7.403014565290177811e-04
7.052708016955554562e-04
6.419416431800063641e-04
7.762860976881719513e-04
7.736494348190637357e-04
3.055279233502867912e-04
8.219723191929662444e-04
4.042366988162883479e-04
3.980921117262836706e-04
8.350397944920805084e-04
8.853413350103522426e-04
8.913593661359136763e-04
7.224194961220499868e-04
4.435945200248717513e-04
8.887327579033715060e-04
8.544594520122175988e-04
8.310764614628826999e-04
8.919583696041564038e-04
8.920359769486699720e-04
8.696270819981591176e-04
3.892179617418920954e-04
8.614933024679822604e-04
8.825282644458021068e-04
8.566092176004251298e-04
3.230430400411019075e-04
8.814497090000184953e-04
4.005841263058700042e-04
3.378996987823481321e-04
4.132800918149759513e-04
6.847084678437486771e-04
8.713785756050192871e-04
7.028628667564757902e-04
6.978113450967605253e-04
4.170136733882669547e-04
3.537954470156707458e-04
3.662295705222248744e-04
8.283959073958301316e-04
8.401013707883618186e-04
8.225826416532715105e-04
7.327108079956263760e-04
3.671490881087902201e-04
3.569001020406390150e-04
3.311123976483700123e-04
8.916408357523610559e-04
7.570929404240936411e-04
8.319176793197817932e-04
8.856025749388582230e-04
8.821434789230823449e-04
8.694513967915722900e-04
8.286147613115064361e-04
8.430928961001098437e-04
8.407501055727941309e-04
6.102783282777282572e-04
2.765455839668932905e-04
8.543889491414454309e-04
8.919023165104853282e-04
8.403508100655685681e-04
8.564169151501722574e-04
8.833149946015494015e-04
8.570559565424656912e-04
8.797227800142301719e-04
8.248327729849267787e-04
8.398640331994773004e-04
8.261396951163114477e-04
7.988539401867941715e-04
7.188841173246615255e-04
4.534824121840083395e-04
5.861267902088317105e-04
8.892572246047348358e-04
8.255816928905930279e-04
7.979544415622543416e-04
3.346757427851894113e-04
8.890017645870692707e-04
6.987244505947371549e-04
8.822415567851556043e-04
4.140191076025873302e-04
4.710844683670481394e-04
2.961893936543103542e-04
8.472160797884878023e-04
8.817730227626543668e-04
8.550379247554959266e-04
8.820523851199412856e-04
8.495807256036688997e-04
8.611156816264082820e-04
8.797032126077391568e-04
8.418746594756827727e-04
5.114929689930910626e-04
8.409309084087708813e-04
8.890104344533299478e-04
3.852357235876538726e-04
8.345921524389710543e-04
8.771203751583323558e-04
7.208075632790240765e-04
8.758171858860320244e-04
8.683505043986866016e-04
8.663779894095850666e-04
8.896327381871481366e-04
3.969240579735804682e-04
8.788192474935828955e-04
3.377343993530526503e-04
7.135557018112475116e-04
8.395495699253157978e-04
8.368543252515438452e-04
6.796184134450972743e-04
8.485767671321692860e-04
7.546566477974532994e-04
8.309997572294380245e-04
8.697309397710729006e-04
4.359191897769276779e-04
8.913562955582796142e-04
8.886176413458000013e-04
5.331667917409909762e-04
8.572239954086700430e-04
8.666367608345029857e-04
5.370722052469752150e-04
5.641774583775386329e-04
8.406998925973679622e-04
8.864758231349978380e-04
8.434068175076299455e-04
8.833056624538383403e-04
8.742791275284352362e-04
5.313782103729048538e-04
8.395591429026452593e-04
3.390269319147409355e-04
8.523946992792877115e-04
8.664713710941004954e-04
8.915092825733369813e-04
7.563494993922450236e-04
4.373152489708044457e-04
3.961762218011969120e-04
8.804809718602028823e-04
7.715351915995628806e-04
8.602264784680527894e-04
8.746802894652029679e-04
8.918813643336888364e-04
8.848467311816644821e-04
