8.109555163576835299e-03
8.173099451625046030e-03
9.305790350605599656e-03
8.889788079926755349e-03
8.237378061163678350e-03
8.646136420200322900e-03
8.544133024057506617e-03
8.356159135416464656e-03
9.680372708034491736e-03
9.473207157380349186e-03
8.912718640418239302e-03
8.243544009763884364e-03
8.390993021135297741e-03
8.590024197343460940e-03
8.705095118798982304e-03
9.445543359168110872e-03
8.960784685805283506e-03
9.067536999131283956e-03
9.479446930116158451e-03
9.655857215215810779e-03
8.643517296663743785e-03
8.186283266284097998e-03
9.015936541588368339e-03
8.972452165785266276e-03
8.427397466340771220e-03
8.554177026365152731e-03
8.376746922896680103e-03
9.190778227134186601e-03
8.698646286564120506e-03
8.969239835920123430e-03
8.462024905804291230e-03
8.653767091915771578e-03
8.347707905167230449e-03
8.462723295193316092e-03
9.591822290655759725e-03
8.383703377727681760e-03
8.315018185935562495e-03
9.222243641674522305e-03
8.712364509567629631e-03
8.526712487987949188e-03
9.346070889585708641e-03
8.558490838465932296e-03
8.149421503424446669e-03
8.227665287499845437e-03
8.422350639371436326e-03
9.543210730638372608e-03
8.303067169009989076e-03
8.570155705202175608e-03
8.531841632135035366e-03
8.139600280145480038e-03
8.483930421439477704e-03
8.170575058173975419e-03
8.325628608823455040e-03
8.796087612451031906e-03
9.538128624878572381e-03
8.494612708530170642e-03
9.206434823680480911e-03
9.127397920130547043e-03
8.117839799537760609e-03
8.099897268031503242e-03
8.695477728531592759e-03
8.813810631483282379e-03
8.652150147352780096e-03
8.118911882781344042e-03
9.166631854993521900e-03
8.262146385314028674e-03
8.292286885279115047e-03
8.194586194951190838e-03
8.119786666122695562e-03
8.189472076955597868e-03
8.250837573037109532e-03
8.761202115168367083e-03
9.380823764748660171e-03
9.455256132831943786e-03
8.302700661575710545e-03
8.534235363399199012e-03
8.303738119339763510e-03
8.287569327020788759e-03
8.316416271335481947e-03
8.423147678711577144e-03
8.816169083956977223e-03
8.462071290880644053e-03
8.275432116478869185e-03
8.567790066308198990e-03
8.354800248672616253e-03
8.240691000912740011e-03
8.502054573385537176e-03
8.213126505962552518e-03
8.450024890558627266e-03
8.194779574987815299e-03
8.931507862895661162e-03
8.825493137614758357e-03
8.153126429734232697e-03
8.484634690626914610e-03
8.355637793290699583e-03
8.919772438578487186e-03
8.484995971573715962e-03
8.300555188466675685e-03
9.404310946156372794e-03
8.824338083882488776e-03
8.427645071184963407e-03
8.359730786295604260e-03
8.127265769701330286e-03
8.280883996227622265e-03
8.219471461758822914e-03
8.389013489003636914e-03
8.727124110200797438e-03
8.946589545819559272e-03
8.518394533169363139e-03
8.252387879884776067e-03
8.349667837970855752e-03
9.036402813234759718e-03
8.107640309227693090e-03
8.272580414249594560e-03
8.292865718767118699e-03
9.677002930234124625e-03
