8.547575970668087539e-03
8.554563362653547220e-03
8.801366058112087762e-03
8.720924397889240343e-03
8.555128207862734355e-03
8.561080906124094586e-03
8.692587140735636569e-03
8.546342297381659403e-03
8.877306929009006614e-03
8.848630122860336178e-03
8.706984274874336044e-03
8.545347399570022914e-03
8.569093363790317164e-03
8.581675932694505377e-03
8.780190139593592111e-03
8.699733716370958506e-03
8.705129271857802581e-03
8.634150052627943828e-03
8.767913742467565302e-03
8.883145374489418919e-03
8.719127163132736613e-03
8.550264120368170420e-03
8.733124412538116610e-03
8.710193622653806741e-03
8.553743053361114942e-03
8.713884372600195355e-03
8.519190573297790586e-03
8.656053851222823489e-03
8.548935450387470936e-03
8.606525912550937879e-03
8.502277310499985891e-03
8.616569887361567176e-03
8.596881822473631529e-03
8.569482336741190281e-03
8.890530083729976732e-03
8.535218697978016328e-03
8.546703028072069955e-03
8.796365252402118737e-03
8.552821328678851878e-03
8.537550610074579049e-03
8.663185021988805204e-03
8.655559611664784964e-03
8.552325805381701812e-03
8.562873005924150419e-03
8.606781376634183023e-03
8.806339263431153461e-03
8.595906180748673353e-03
8.570174913991999988e-03
8.567744795853385331e-03
8.534841278679152279e-03
8.581349221090555854e-03
8.537165488341044023e-03
8.718928183570409662e-03
8.574064643500715552e-03
8.771487672154782908e-03
8.593942701777193896e-03
8.704035526134560122e-03
8.697164954408271448e-03
8.523848620664912362e-03
8.530122895573775954e-03
8.578891502561037871e-03
8.751040917451782808e-03
8.615693093548214970e-03
8.544648403623655505e-03
8.687322526638195652e-03
8.562412143583018886e-03
8.573610199855143457e-03
8.541268960411874459e-03
8.543623979812448380e-03
8.592640348448284462e-03
8.540603983551966344e-03
8.648948997108635295e-03
8.784819944700254790e-03
8.889894632869642724e-03
8.505343521368492060e-03
8.560241340744985730e-03
8.489309619862260917e-03
8.530077322835307591e-03
8.521251616441766208e-03
8.529613893015951243e-03
8.513902851896336735e-03
8.593942701777193896e-03
8.568975901661588651e-03
8.643348043363903097e-03
8.594104452905279232e-03
8.547095852240277694e-03
8.587043245920890355e-03
8.561444846162285724e-03
8.521076386053007962e-03
8.536531963089377326e-03
8.810845829583083960e-03
8.572828402736064335e-03
8.506543175568457432e-03
8.490566400452701987e-03
8.554040880835049598e-03
8.747472122721013099e-03
8.620104663005874121e-03
8.514716100623653805e-03
8.784090780884759239e-03
8.614459420261786834e-03
8.606111264817830481e-03
8.591990776457721773e-03
8.538297746237639638e-03
8.620501338391416482e-03
8.550219189499257827e-03
8.571458011234231109e-03
8.565652942970725797e-03
8.704355177173396171e-03
8.631787972662254699e-03
8.555278405338812356e-03
8.538057687023734715e-03
8.743807047556858766e-03
8.531527948031627714e-03
8.541972449445132259e-03
8.637548110056847417e-03
8.814890249654773122e-03
