6.351352110649357945e-03
6.341314896288104304e-03
7.131700768382684234e-03
6.440234276497746983e-03
6.611363066758043847e-03
7.984488741425514388e-03
8.433389990335292408e-03
6.478909229826401543e-03
6.356441076766961712e-03
6.419014946012052344e-03
6.370341095865284312e-03
6.722458176624631319e-03
7.480020448487222605e-03
6.694179169138714074e-03
7.437291763353087726e-03
6.867609654576697746e-03
6.675245678295613910e-03
6.742309306561245288e-03
6.660846209841858080e-03
6.552116217293331088e-03
6.585867366328269391e-03
7.314210529603380057e-03
6.406631773104307440e-03
6.398257407985946318e-03
6.660992212894173772e-03
8.763292145134554331e-03
8.872382190459153495e-03
6.557932556083332851e-03
6.831764253614873612e-03
6.949804748499552667e-03
7.001479919309993270e-03
7.291720774368347022e-03
6.412543245104867541e-03
6.549757045800931425e-03
7.300502758868062519e-03
7.291171115818451988e-03
6.842213711888550480e-03
7.567083852330967579e-03
7.881215034890915253e-03
6.490745386773432747e-03
6.637584157918328780e-03
6.690419425379750921e-03
6.380499869328920895e-03
6.558733921252832451e-03
6.532313975256586087e-03
6.785154926266692525e-03
7.116471526925721020e-03
6.607682600674547567e-03
8.090963284107039605e-03
7.105786878214829204e-03
7.788106708292908201e-03
8.368794540365827317e-03
8.348495491562829551e-03
6.903175601732505079e-03
6.917039285229571559e-03
6.507223912266277624e-03
6.774460367846366592e-03
8.459374569763773027e-03
6.351449225801804668e-03
7.000516034905790094e-03
7.576184929474432013e-03
7.909646651902102824e-03
8.772143497600300849e-03
8.027461205411706366e-03
7.480165790892243614e-03
6.434320822555301099e-03
6.397306736527652408e-03
6.561741187742164971e-03
6.590098812256251805e-03
6.528054121494895022e-03
6.351190252061949919e-03
7.066921658465057099e-03
6.762425356063374825e-03
6.351626939924306763e-03
6.389580466406223277e-03
6.366620330296760347e-03
6.694428233169134705e-03
8.874360168462023385e-03
8.626382902841737282e-03
6.774939337135639505e-03
6.350301681449437713e-03
6.340991179113285650e-03
8.555529801688844735e-03
6.421297482418170804e-03
6.367095996349554643e-03
7.549930145302073160e-03
7.033225343155649449e-03
7.346109223621602978e-03
7.263620802299524705e-03
7.138306580690864829e-03
8.553933677822802770e-03
6.525995544521968027e-03
6.534807258149983276e-03
6.926442938834397045e-03
6.484674698774645953e-03
6.886979172634858336e-03
9.197855365789063542e-03
7.194379680547767324e-03
6.739236635989653314e-03
7.040615343803645343e-03
6.539421218862087430e-03
6.361444819383440391e-03
7.937983135702732923e-03
6.427029919001635977e-03
6.748263720636017010e-03
6.791397382562322331e-03
8.058404603440566527e-03
7.025539372519248003e-03
6.410284492001390617e-03
6.920144988165941903e-03
7.835877453586662794e-03
8.008218531634289650e-03
6.835191031136879543e-03
6.617909420809625805e-03
6.549485519762460357e-03
6.597268156707534852e-03
7.933789346670596862e-03
7.613035835620079843e-03
6.449143105278207222e-03
6.845520912250062720e-03
6.380758182421480094e-03
6.718470509548704270e-03
6.357459134249401726e-03
6.656478009923695940e-03
6.582001258354724417e-03
6.398232964036010099e-03
6.514298784154297882e-03
6.608242829581172269e-03
6.787992406401069552e-03
6.352491066586882749e-03
6.448294834150723569e-03
6.598525368510961379e-03
6.585254285638000686e-03
7.182754930735310399e-03
6.411351437383700468e-03
6.400787687127892575e-03
7.410079040602184780e-03
7.219541754093289875e-03
6.641692723449339752e-03
6.844261057857453125e-03
7.002851423095550823e-03
7.213213413649239431e-03
6.548244824141421713e-03
