1.999999999999987921e+01,2.999999999870973433e+00,9.999999999960786923e+00,6.600000000000072475e-01,1.569999999999983409e+00,2.869999999999983629e+03,-2.174999999999963851e+00,-4.945000000000011831e+00,1.340593218855337732e+01,-2.146788226028341739e+00
1.999999999999960565e+01,2.999999997956061648e+00,9.999999999959523933e+00,6.600000000002346212e-01,1.569999999999576845e+00,2.869999999999990450e+03,-2.175000000000074873e+00,-4.945000000001156693e+00,1.341087026309292973e+01,-2.192767867733837139e+00
1.999999999999973710e+01,3.000000000452109017e+00,9.999999999968343545e+00,6.599999999999444089e-01,1.570000000000124407e+00,2.869999999999993634e+03,-2.174999999999956746e+00,-4.944999999999640572e+00,1.338355463254033317e+01,-2.182036969327012521e+00
1.999999999999979750e+01,2.999999999901285186e+00,9.999999999964574116e+00,6.600000000000517675e-01,1.569999999999932117e+00,2.869999999999997272e+03,-2.175000000000013589e+00,-4.945000000000138840e+00,1.337786154707309372e+01,-2.188471756538461044e+00
2.000000000000011013e+01,2.999999997138769636e+00,9.999999999996846967e+00,6.600000000002157474e-01,1.569999999999710738e+00,2.869999999999978627e+03,-2.175000000000107292e+00,-4.945000000000842277e+00,1.339387220282554125e+01,-2.121607733783158700e+00
1.999999999999996092e+01,2.999999998306718929e+00,9.999999999982373211e+00,6.599999999995694866e-01,1.570000000000652651e+00,2.869999999999981355e+03,-2.174999999999828848e+00,-4.944999999998061391e+00,1.343255022871872839e+01,-2.217964324530681264e+00
2.000000000000083489e+01,2.999999998995952488e+00,9.999999999989565680e+00,6.599999999999958122e-01,1.570000000000005391e+00,2.869999999999989086e+03,-2.175000000000034461e+00,-4.944999999999876827e+00,1.344392661346405227e+01,-2.175893400709498327e+00
2.000000000000030909e+01,2.999999998903921661e+00,9.999999999998452793e+00,6.599999999997951949e-01,1.570000000000290719e+00,2.869999999999976808e+03,-2.174999999999917666e+00,-4.944999999999051710e+00,1.333848548491546460e+01,-2.094208594424834313e+00
1.999999999999941380e+01,3.000000003064161369e+00,1.000000000000129852e+01,6.599999999996553068e-01,1.570000000000547624e+00,2.869999999999992269e+03,-2.174999999999810196e+00,-4.944999999998390905e+00,1.340607041749589712e+01,-2.126522230628807186e+00
2.000000000000119016e+01,2.999999995608333414e+00,9.999999999971254994e+00,6.599999999999834888e-01,1.569999999999987850e+00,2.869999999999974989e+03,-2.175000000000085087e+00,-4.944999999999917684e+00,1.345391784159140869e+01,-2.123027140023428405e+00
2.000000000000014211e+01,2.999999994478253829e+00,9.999999999972221332e+00,6.599999999995959099e-01,1.570000000000605578e+00,2.869999999999983174e+03,-2.174999999999850608e+00,-4.944999999998140439e+00,1.341852620006335961e+01,-2.133951779605496313e+00
2.000000000000079936e+01,2.999999996304347771e+00,9.999999999995152322e+00,6.600000000001353673e-01,1.569999999999734941e+00,2.869999999999974534e+03,-2.175000000000092637e+00,-4.945000000000652207e+00,1.343603741194212375e+01,-2.118635316389543721e+00
1.999999999999932498e+01,2.999999997416920916e+00,9.999999999976370901e+00,6.600000000000861844e-01,1.569999999999893481e+00,2.869999999999994088e+03,-2.174999999999966960e+00,-4.945000000000317364e+00,1.338314344631662856e+01,-2.133359167236777321e+00
1.999999999999993605e+01,2.999999998101415599e+00,9.999999999954997776e+00,6.600000000002964606e-01,1.569999999999537987e+00,2.869999999999997272e+03,-2.175000000000089084e+00,-4.945000000001317453e+00,1.342309937000274900e+01,-2.207118767809748139e+00
1.999999999999873168e+01,3.000000003496047452e+00,9.999999999997648104e+00,6.600000000000761924e-01,1.569999999999922347e+00,2.869999999999998636e+03,-2.174999999999946976e+00,-4.945000000000312923e+00,1.341584237937340163e+01,-2.177267529858311512e+00
1.999999999999911893e+01,2.999999998796089251e+00,1.000000000002543032e+01,6.599999999997832045e-01,1.570000000000401741e+00,2.870000000000001364e+03,-2.174999999999877698e+00,-4.944999999998892726e+00,1.340125419551927699e+01,-2.098309421294569432e+00
1.999999999999868194e+01,2.999999998302893101e+00,9.999999999995408118e+00,6.599999999996166711e-01,1.570000000000656426e+00,2.869999999999997272e+03,-2.174999999999749800e+00,-4.944999999998223039e+00,1.337677947783887689e+01,-2.163698670952753922e+00
2.000000000000009592e+01,2.999999998236502208e+00,9.999999999971800335e+00,6.599999999994976552e-01,1.570000000000786988e+00,2.869999999999997726e+03,-2.174999999999793321e+00,-4.944999999997659046e+00,1.346987957456939533e+01,-2.187892243152333549e+00
1.999999999999926104e+01,3.000000000052319038e+00,1.000000000002071410e+01,6.599999999998046318e-01,1.570000000000357332e+00,2.870000000000001819e+03,-2.174999999999857714e+00,-4.944999999999042828e+00,1.340909052766453513e+01,-2.186927220288091611e+00
1.999999999999961986e+01,3.000000000176004544e+00,1.000000000002314415e+01,6.600000000001660094e-01,1.569999999999752927e+00,2.869999999999995453e+03,-2.175000000000001155e+00,-4.945000000000831619e+00,1.340376622651915284e+01,-2.161542999905089246e+00
2.000000000000043343e+01,3.000000001787897386e+00,1.000000000002114930e+01,6.599999999999827116e-01,1.570000000000021600e+00,2.869999999999985903e+03,-2.175000000000034905e+00,-4.944999999999862617e+00,1.341337944469280075e+01,-2.127641120163022759e+00
2.000000000000080647e+01,3.000000001704972608e+00,9.999999999975525355e+00,6.600000000002151923e-01,1.569999999999673879e+00,2.869999999999984539e+03,-2.175000000000141487e+00,-4.945000000000907114e+00,1.346980736835573467e+01,-2.108461017066912468e+00
2.000000000000073541e+01,3.000000001193265486e+00,9.999999999988059329e+00,6.600000000001567946e-01,1.569999999999750928e+00,2.869999999999984084e+03,-2.175000000000125944e+00,-4.945000000000664642e+00,1.346591772924875485e+01,-2.104822798545564755e+00
1.999999999999984368e+01,3.000000000134724676e+00,1.000000000003756639e+01,6.600000000002111955e-01,1.569999999999686979e+00,2.869999999999995907e+03,-2.175000000000078426e+00,-4.945000000000996820e+00,1.341428657537670510e+01,-2.175482429390663164e+00
1.999999999999932854e+01,2.999999998756215813e+00,1.000000000006414602e+01,6.600000000003923839e-01,1.569999999999446727e+00,2.869999999999993179e+03,-2.175000000000106848e+00,-4.945000000001751772e+00,1.340379155285802959e+01,-2.138911124698267496e+00
2.000000000000048317e+01,2.999999998519084610e+00,1.000000000004507861e+01,6.599999999999666134e-01,1.570000000000081330e+00,2.869999999999987267e+03,-2.175000000000048228e+00,-4.944999999999822649e+00,1.339890357147363886e+01,-2.142590116350612917e+00
1.999999999999975131e+01,3.000000000467081485e+00,1.000000000003579359e+01,6.599999999996745137e-01,1.570000000000548290e+00,2.869999999999984993e+03,-2.174999999999868816e+00,-4.944999999998431761e+00,1.341467281822160018e+01,-2.130988803390739150e+00
2.000000000000065725e+01,2.999999998674193868e+00,9.999999999977227105e+00,6.600000000004485612e-01,1.569999999999253104e+00,2.869999999999986812e+03,-2.175000000000221867e+00,-4.945000000002058194e+00,1.339834760987578477e+01,-2.179011886175471702e+00
1.999999999999951328e+01,3.000000002019479695e+00,1.000000000004006040e+01,6.599999999998334976e-01,1.570000000000307594e+00,2.870000000000000000e+03,-2.174999999999887912e+00,-4.944999999999257767e+00,1.342180197990650292e+01,-2.154034934037690974e+00
1.999999999999967315e+01,2.999999997028776733e+00,9.999999999992297717e+00,6.600000000001736700e-01,1.569999999999790674e+00,2.870000000000000455e+03,-2.175000000000030020e+00,-4.945000000000737472e+00,1.340152395034153088e+01,-2.191733300869851409e+00
1.999999999999984368e+01,2.999999997735481649e+00,1.000000000000465405e+01,6.600000000001228218e-01,1.569999999999831308e+00,2.869999999999997726e+03,-2.175000000000050004e+00,-4.945000000000541185e+00,1.339180850057534578e+01,-2.201866709707374525e+00
2.000000000000013145e+01,3.000000001916964809e+00,1.000000000000195755e+01,6.599999999998896749e-01,1.570000000000178808e+00,2.869999999999985448e+03,-2.174999999999973621e+00,-4.944999999999565965e+00,1.336294878807751552e+01,-2.118859310454999534e+00
2.000000000000012434e+01,3.000000004969430201e+00,9.999999999994235722e+00,6.600000000000620926e-01,1.569999999999924123e+00,2.870000000000000909e+03,-2.175000000000030465e+00,-4.945000000000366214e+00,1.340717799376409047e+01,-2.200435221603135982e+00
1.999999999999985434e+01,3.000000000793085153e+00,1.000000000000124878e+01,6.600000000001737810e-01,1.569999999999727613e+00,2.869999999999998181e+03,-2.175000000000054889e+00,-4.945000000000804974e+00,1.338536525785989717e+01,-2.199325860643636332e+00
1.999999999999953815e+01,3.000000001233198432e+00,9.999999999996989075e+00,6.600000000001255973e-01,1.569999999999825979e+00,2.869999999999999545e+03,-2.175000000000004707e+00,-4.945000000000565166e+00,1.337316318965194384e+01,-2.175325747819193190e+00
1.999999999999979039e+01,3.000000004056940117e+00,9.999999999995806022e+00,6.600000000004897505e-01,1.569999999999256213e+00,2.869999999999999091e+03,-2.175000000000182343e+00,-4.945000000002217178e+00,1.339413234847448209e+01,-2.135077995108301874e+00
1.999999999999954525e+01,3.000000004479690840e+00,9.999999999994303224e+00,6.600000000007738565e-01,1.569999999998804130e+00,2.869999999999994088e+03,-2.175000000000274714e+00,-4.945000000003639151e+00,1.338652405984775662e+01,-2.173433350342873105e+00
2.000000000000020250e+01,3.000000002301252522e+00,1.000000000002102851e+01,6.600000000003364287e-01,1.569999999999485363e+00,2.869999999999996817e+03,-2.175000000000149480e+00,-4.945000000001566143e+00,1.342451576919572176e+01,-2.190097786332811047e+00
2.000000000000080647e+01,3.000000002340895033e+00,9.999999999998717470e+00,6.599999999999046629e-01,1.570000000000104867e+00,2.869999999999981810e+03,-2.175000000000036682e+00,-4.944999999999595275e+00,1.343336296156723186e+01,-2.160779648658844199e+00
1.999999999999937472e+01,3.000000005551551219e+00,9.999999999979101162e+00,6.600000000000399991e-01,1.569999999999953877e+00,2.870000000000000000e+03,-2.174999999999976730e+00,-4.945000000000192131e+00,1.340305283200832598e+01,-2.083372473861788698e+00
1.999999999999955591e+01,3.000000000412428758e+00,1.000000000004671286e+01,6.600000000000092459e-01,1.570000000000089768e+00,2.869999999999984539e+03,-2.174999999999986944e+00,-4.944999999999886597e+00,1.343779637937081084e+01,-2.198074396057186686e+00
1.999999999999909051e+01,2.999999995386722240e+00,1.000000000003800338e+01,6.599999999999548450e-01,1.570000000000167262e+00,2.869999999999986812e+03,-2.174999999999892797e+00,-4.944999999999666329e+00,1.336123098530247866e+01,-2.129241050121507328e+00
2.000000000000003908e+01,3.000000004093337669e+00,1.000000000002255618e+01,6.600000000000728617e-01,1.569999999999916573e+00,2.869999999999994543e+03,-2.175000000000026024e+00,-4.945000000000239204e+00,1.340973728111646857e+01,-2.208415743943512144e+00
1.999999999999945999e+01,3.000000000110611964e+00,1.000000000002614264e+01,6.600000000000271205e-01,1.569999999999985629e+00,2.869999999999986358e+03,-2.174999999999961187e+00,-4.945000000000074003e+00,1.343650156565908560e+01,-2.156915216623774167e+00
1.999999999999996092e+01,3.000000003971496021e+00,1.000000000002471801e+01,6.600000000001623457e-01,1.569999999999728058e+00,2.869999999999989996e+03,-2.175000000000090861e+00,-4.945000000000729479e+00,1.339410890007805399e+01,-2.182976766641991251e+00
1.999999999999956657e+01,3.000000000414536405e+00,1.000000000000662581e+01,6.600000000002026468e-01,1.569999999999685647e+00,2.869999999999997272e+03,-2.175000000000030909e+00,-4.945000000000932872e+00,1.341072026979645671e+01,-2.090077872201715259e+00
1.999999999999989342e+01,2.999999999645662108e+00,1.000000000001111999e+01,6.600000000001272626e-01,1.569999999999782458e+00,2.869999999999999091e+03,-2.175000000000050004e+00,-4.945000000000653095e+00,1.337539986689694516e+01,-2.164271310876941357e+00
1.999999999999973355e+01,2.999999999874692680e+00,9.999999999977326581e+00,6.600000000002678169e-01,1.569999999999554197e+00,2.869999999999995907e+03,-2.175000000000061551e+00,-4.945000000001288143e+00,1.339109530107248780e+01,-2.170342909067719983e+00
1.999999999999789679e+01,3.000000002120544185e+00,9.999999999980099474e+00,6.599999999998198419e-01,1.570000000000370877e+00,2.870000000000002274e+03,-2.174999999999772449e+00,-4.944999999999190265e+00,1.337909597655652050e+01,-2.183644165933661174e+00
2.000000000000016698e+01,3.000000003096449763e+00,9.999999999988032684e+00,6.600000000003106715e-01,1.569999999999488915e+00,2.869999999999998181e+03,-2.175000000000128608e+00,-4.945000000001497753e+00,1.342120908699847348e+01,-2.147762010854208370e+00
1.999999999999971223e+01,2.999999999410706497e+00,9.999999999991311839e+00,6.600000000002378409e-01,1.569999999999602380e+00,2.869999999999997272e+03,-2.175000000000086864e+00,-4.945000000001187779e+00,1.344111598585267764e+01,-2.176372023849054038e+00
1.999999999999955591e+01,3.000000000543544765e+00,9.999999999961447728e+00,6.600000000001694511e-01,1.569999999999769136e+00,2.869999999999999091e+03,-2.175000000000014921e+00,-4.945000000000705498e+00,1.337655945043907479e+01,-2.135391543871646647e+00
1.999999999999958078e+01,3.000000002436639335e+00,9.999999999977186249e+00,6.600000000000030287e-01,1.570000000000021600e+00,2.869999999999999091e+03,-2.174999999999983391e+00,-4.945000000000030482e+00,1.345595921290858499e+01,-2.171382466879644646e+00
2.000000000000037659e+01,3.000000001928575077e+00,1.000000000003149481e+01,6.599999999998490408e-01,1.570000000000252749e+00,2.869999999999993634e+03,-2.174999999999979394e+00,-4.944999999999175166e+00,1.347693027469323646e+01,-2.249556227457891300e+00
1.999999999999916511e+01,3.000000002803023591e+00,1.000000000002760281e+01,6.599999999998766853e-01,1.570000000000198570e+00,2.870000000000000455e+03,-2.174999999999873257e+00,-4.944999999999347473e+00,1.347135224453328384e+01,-2.201463210278711280e+00
1.999999999999915445e+01,3.000000003662018688e+00,1.000000000003406875e+01,6.599999999997897548e-01,1.570000000000333351e+00,2.869999999999996817e+03,-2.174999999999840838e+00,-4.944999999998997531e+00,1.343806453110696886e+01,-2.190677532591028598e+00
1.999999999999911893e+01,2.999999999832283937e+00,1.000000000003027800e+01,6.599999999999467404e-01,1.570000000000192575e+00,2.869999999999999545e+03,-2.174999999999897682e+00,-4.944999999999526885e+00,1.336829690283122218e+01,-2.150886211124674485e+00
2.000000000000062172e+01,3.000000001943273986e+00,1.000000000002811085e+01,6.600000000004938583e-01,1.569999999999211582e+00,2.869999999999979536e+03,-2.175000000000268940e+00,-4.945000000002277574e+00,1.349643603508279099e+01,-2.215896646139964510e+00
2.000000000000039790e+01,3.000000000392083699e+00,9.999999999978397724e+00,6.600000000001130518e-01,1.569999999999885265e+00,2.869999999999996817e+03,-2.175000000000101963e+00,-4.945000000000354667e+00,1.341445457301630917e+01,-2.202942996438954637e+00
2.000000000000030198e+01,2.999999999564933795e+00,9.999999999989746868e+00,6.599999999997373523e-01,1.570000000000465246e+00,2.869999999999996817e+03,-2.174999999999920330e+00,-4.944999999998727525e+00,1.339517980305410738e+01,-2.206861944054581581e+00
2.000000000000025580e+01,3.000000002378734099e+00,1.000000000002569500e+01,6.599999999999610623e-01,1.570000000000104423e+00,2.869999999999986812e+03,-2.175000000000012701e+00,-4.944999999999676987e+00,1.337301691008303273e+01,-2.178488825437631782e+00
2.000000000000013500e+01,3.000000000087664986e+00,1.000000000000492584e+01,6.600000000005109557e-01,1.569999999999215357e+00,2.869999999999984084e+03,-2.175000000000218758e+00,-4.945000000002370832e+00,1.338140835714172638e+01,-2.137615954700960330e+00
1.999999999999982236e+01,3.000000000295055536e+00,1.000000000000339995e+01,6.600000000001106093e-01,1.569999999999882823e+00,2.869999999999989996e+03,-2.175000000000046452e+00,-4.945000000000402629e+00,1.341133114374996005e+01,-2.170157390074573200e+00
2.000000000000031619e+01,3.000000000435324665e+00,1.000000000000063949e+01,6.600000000003841683e-01,1.569999999999424078e+00,2.869999999999988177e+03,-2.175000000000204547e+00,-4.945000000001665619e+00,1.341475077872176769e+01,-2.156242747547420180e+00
1.999999999999793587e+01,2.999999999565996944e+00,1.000000000005244871e+01,6.599999999994966560e-01,1.570000000000935980e+00,2.870000000000001819e+03,-2.174999999999644107e+00,-4.944999999997552464e+00,1.339217415766143660e+01,-2.136564984433731329e+00
1.999999999999996803e+01,2.999999999648673032e+00,1.000000000002407496e+01,6.600000000000371125e-01,1.569999999999987406e+00,2.869999999999992269e+03,-2.175000000000019806e+00,-4.945000000000097984e+00,1.343019251941308845e+01,-2.174305400780808473e+00
2.000000000000019895e+01,3.000000001674163919e+00,9.999999999995667466e+00,6.600000000004069278e-01,1.569999999999368345e+00,2.869999999999995453e+03,-2.175000000000198774e+00,-4.945000000001854801e+00,1.339088538918980476e+01,-2.179359506511066691e+00
1.999999999999991473e+01,3.000000001214214507e+00,9.999999999998371081e+00,6.599999999996085664e-01,1.570000000000677076e+00,2.870000000000000909e+03,-2.174999999999865263e+00,-4.944999999998129780e+00,1.337287097160412230e+01,-2.134480532791042773e+00
1.999999999999961631e+01,2.999999998976362825e+00,1.000000000001921130e+01,6.600000000002844702e-01,1.569999999999563522e+00,2.869999999999999091e+03,-2.175000000000101963e+00,-4.945000000001371632e+00,1.336175386184724267e+01,-2.108931054710581510e+00
2.000000000000000711e+01,3.000000001945081429e+00,9.999999999983881338e+00,6.599999999999629496e-01,1.570000000000061124e+00,2.869999999999993634e+03,-2.174999999999992273e+00,-4.944999999999811990e+00,1.342683493569354880e+01,-2.168762998475686210e+00
1.999999999999973710e+01,3.000000002529274568e+00,9.999999999959909402e+00,6.599999999999038858e-01,1.570000000000137508e+00,2.869999999999997272e+03,-2.174999999999918554e+00,-4.944999999999616591e+00,1.355046269560987149e+01,-2.263229809370039813e+00
2.000000000000024158e+01,2.999999998412250513e+00,1.000000000002272316e+01,6.600000000000367795e-01,1.569999999999892371e+00,2.870000000000000455e+03,-2.175000000000015810e+00,-4.945000000000272955e+00,1.343658416408413636e+01,-2.146365867726461207e+00
2.000000000000011724e+01,2.999999998579511384e+00,9.999999999998617994e+00,6.600000000002798073e-01,1.569999999999562190e+00,2.869999999999998181e+03,-2.175000000000099298e+00,-4.945000000001236629e+00,1.339851414625706738e+01,-2.115767912035760201e+00
2.000000000000025224e+01,3.000000000581942494e+00,9.999999999973294251e+00,6.600000000001426947e-01,1.569999999999752482e+00,2.870000000000002274e+03,-2.175000000000029132e+00,-4.945000000000658424e+00,1.339324474400896925e+01,-2.168855647857098834e+00
2.000000000000059686e+01,3.000000000239700260e+00,9.999999999986643573e+00,6.600000000000743050e-01,1.569999999999827311e+00,2.869999999999994998e+03,-2.175000000000050004e+00,-4.945000000000360885e+00,1.340126660290222560e+01,-2.185730268728087733e+00
2.000000000000090239e+01,3.000000000345040441e+00,9.999999999983890220e+00,6.599999999996934985e-01,1.570000000000451257e+00,2.870000000000000000e+03,-2.174999999999956746e+00,-4.944999999998580087e+00,1.340313632047001668e+01,-2.164128549947533564e+00
2.000000000000036593e+01,2.999999998996349060e+00,1.000000000001986500e+01,6.599999999997799849e-01,1.570000000000290941e+00,2.869999999999999545e+03,-2.174999999999949196e+00,-4.944999999999100559e+00,1.338447228198119632e+01,-2.176698604549303973e+00
2.000000000000068212e+01,3.000000003854387476e+00,1.000000000000123102e+01,6.599999999999701661e-01,1.570000000000006946e+00,2.870000000000002274e+03,-2.175000000000026912e+00,-4.944999999999851958e+00,1.343079667012895406e+01,-2.172874828970631000e+00
1.999999999999948486e+01,2.999999999506049342e+00,1.000000000000561151e+01,6.600000000000285638e-01,1.569999999999961204e+00,2.870000000000004547e+03,-2.174999999999967404e+00,-4.945000000000132623e+00,1.338724808495419261e+01,-2.150507991128187246e+00
2.000000000000038369e+01,3.000000001919628012e+00,1.000000000001366018e+01,6.600000000001130518e-01,1.569999999999837748e+00,2.869999999999993179e+03,-2.175000000000088196e+00,-4.945000000000492335e+00,1.340761268545026930e+01,-2.141560220265748438e+00
2.000000000000069278e+01,2.999999999840861964e+00,1.000000000001688605e+01,6.600000000003403144e-01,1.569999999999454277e+00,2.869999999999991360e+03,-2.175000000000182343e+00,-4.945000000001551932e+00,1.340050081579540731e+01,-2.144397033646582518e+00
2.000000000000013500e+01,3.000000001947775718e+00,9.999999999997761790e+00,6.599999999999309752e-01,1.570000000000129736e+00,2.870000000000004547e+03,-2.174999999999981171e+00,-4.944999999999659224e+00,1.340522962842419830e+01,-2.206168565835123108e+00
1.999999999999994671e+01,3.000000000399610567e+00,1.000000000001560174e+01,6.600000000002750333e-01,1.569999999999583284e+00,2.870000000000001364e+03,-2.175000000000098410e+00,-4.945000000001288143e+00,1.343922842543479312e+01,-2.199301393149150741e+00
2.000000000000002842e+01,3.000000003415599803e+00,9.999999999981783461e+00,6.599999999998055200e-01,1.570000000000314033e+00,2.869999999999989541e+03,-2.174999999999914557e+00,-4.944999999999152962e+00,1.338083603985662506e+01,-2.153952501367955463e+00
2.000000000000009592e+01,3.000000001045488585e+00,9.999999999974535925e+00,6.599999999999691669e-01,1.570000000000048246e+00,2.869999999999995907e+03,-2.175000000000030465e+00,-4.944999999999895479e+00,1.342978069103372718e+01,-2.169466999805965912e+00
2.000000000000030198e+01,3.000000003392408576e+00,1.000000000002645173e+01,6.599999999999822675e-01,1.570000000000017826e+00,2.869999999999995453e+03,-2.175000000000030020e+00,-4.945000000000006501e+00,1.338420021522382797e+01,-2.139298804754360628e+00
2.000000000000030909e+01,3.000000001368050562e+00,9.999999999992841282e+00,6.599999999999364153e-01,1.570000000000063345e+00,2.869999999999997272e+03,-2.174999999999979838e+00,-4.944999999999777351e+00,1.345113346785167074e+01,-2.196699796974755259e+00
1.999999999999996092e+01,2.999999999722664512e+00,9.999999999979186427e+00,6.599999999999185407e-01,1.570000000000143947e+00,2.869999999999994998e+03,-2.174999999999965183e+00,-4.944999999999661888e+00,1.341568197181034883e+01,-2.168474770445931288e+00
2.000000000000023093e+01,3.000000001521400339e+00,1.000000000000649791e+01,6.599999999994572430e-01,1.570000000000912221e+00,2.869999999999987267e+03,-2.174999999999807532e+00,-4.944999999997493845e+00,1.331284899961197432e+01,-2.126042322337425183e+00
2.000000000000130740e+01,2.999999999357646718e+00,9.999999999967389641e+00,6.600000000002625988e-01,1.569999999999575069e+00,2.869999999999979991e+03,-2.175000000000212985e+00,-4.945000000001284590e+00,1.342296862373027011e+01,-2.177882059754017163e+00
2.000000000000100187e+01,3.000000001552773465e+00,9.999999999982183141e+00,6.600000000002886891e-01,1.569999999999539320e+00,2.869999999999992724e+03,-2.175000000000201439e+00,-4.945000000001424034e+00,1.335975770000255558e+01,-2.102325714291822134e+00
1.999999999999996447e+01,3.000000002141441247e+00,1.000000000000464162e+01,6.599999999999549560e-01,1.570000000000095763e+00,2.869999999999995907e+03,-2.174999999999981615e+00,-4.944999999999819984e+00,1.336912137305582959e+01,-2.140247275055591203e+00
2.000000000000006040e+01,2.999999999760420533e+00,1.000000000001816680e+01,6.600000000003458656e-01,1.569999999999461826e+00,2.869999999999996362e+03,-2.175000000000112177e+00,-4.945000000001568807e+00,1.363998761879598476e+01,-2.104362917945466815e+00
2.000000000000006395e+01,2.999999996329468566e+00,9.999999999975321074e+00,6.599999999993809707e-01,1.570000000000921103e+00,2.869999999999979536e+03,-2.174999999999779998e+00,-4.944999999997251372e+00,1.358731651519483918e+01,-2.080253747756445115e+00
2.000000000000073541e+01,2.999999998011008806e+00,9.999999999997573497e+00,6.599999999999942579e-01,1.569999999999980078e+00,2.869999999999976353e+03,-2.175000000000048672e+00,-4.944999999999982521e+00,1.343649098740024073e+01,-2.115220747787552646e+00
2.000000000000013856e+01,3.000000001572598052e+00,9.999999999975305087e+00,6.599999999998659161e-01,1.570000000000178142e+00,2.869999999999989541e+03,-2.174999999999969624e+00,-4.944999999999361684e+00,1.342324804619788381e+01,-2.171752233069106808e+00
2.000000000000014211e+01,2.999999999839914722e+00,9.999999999966386000e+00,6.600000000003498624e-01,1.569999999999450946e+00,2.870000000000004547e+03,-2.175000000000155254e+00,-4.945000000001641638e+00,1.339481954746886494e+01,-2.142751543906611378e+00
1.999999999999995026e+01,3.000000002037902735e+00,9.999999999987879917e+00,6.600000000001844391e-01,1.569999999999737605e+00,2.870000000000000909e+03,-2.175000000000078870e+00,-4.945000000000791651e+00,1.333172174904128582e+01,-2.090970161715600906e+00
2.000000000000018829e+01,3.000000000778528797e+00,9.999999999960548891e+00,6.600000000000224576e-01,1.569999999999976525e+00,2.870000000000000455e+03,-2.175000000000025580e+00,-4.945000000000108642e+00,1.337800367306825855e+01,-2.163700230709278749e+00
1.999999999999931433e+01,3.000000001377297831e+00,9.999999999963582908e+00,6.599999999998970024e-01,1.570000000000160600e+00,2.869999999999997726e+03,-2.174999999999897238e+00,-4.944999999999494911e+00,1.344560420303782600e+01,-2.169129644893236453e+00
1.999999999999998934e+01,2.999999999507322546e+00,9.999999999963307573e+00,6.599999999996866151e-01,1.570000000000535190e+00,2.870000000000000000e+03,-2.174999999999861267e+00,-4.944999999998547224e+00,1.338855020171977195e+01,-2.100318704529989144e+00
1.999999999999989342e+01,3.000000001473946742e+00,9.999999999974019005e+00,6.600000000000663114e-01,1.569999999999892371e+00,2.869999999999996817e+03,-2.175000000000019362e+00,-4.945000000000375096e+00,1.338073541033192804e+01,-2.140364632000054446e+00
1.999999999999881695e+01,3.000000000377657905e+00,1.000000000000848388e+01,6.599999999999717204e-01,1.570000000000145501e+00,2.870000000000000455e+03,-2.174999999999907452e+00,-4.944999999999831530e+00,1.337645010608087404e+01,-2.162073099346679239e+00
2.000000000000013145e+01,2.999999997926062090e+00,1.000000000002735945e+01,6.600000000004198064e-01,1.569999999999353912e+00,2.869999999999988631e+03,-2.175000000000193445e+00,-4.945000000002006679e+00,1.334787062768959842e+01,-2.134086944290243704e+00
1.999999999999950617e+01,2.999999997430066401e+00,1.000000000005664980e+01,6.600000000001935430e-01,1.569999999999752260e+00,2.869999999999998181e+03,-2.175000000000078870e+00,-4.945000000000898233e+00,1.337479384706560914e+01,-2.135122059626626267e+00
2.000000000000061462e+01,2.999999999253028626e+00,9.999999999967503328e+00,6.600000000000758593e-01,1.569999999999878160e+00,2.869999999999996362e+03,-2.175000000000086420e+00,-4.945000000000417728e+00,1.343989266759174050e+01,-2.170241677333883512e+00
1.999999999999928235e+01,2.999999998541847290e+00,1.000000000001877964e+01,6.599999999998277245e-01,1.570000000000317364e+00,2.869999999999994998e+03,-2.174999999999876810e+00,-4.944999999999227569e+00,1.340483402882501984e+01,-2.140917049786034365e+00
1.999999999999872102e+01,2.999999996454961515e+00,1.000000000002861533e+01,6.600000000001068345e-01,1.569999999999911466e+00,2.870000000000001819e+03,-2.174999999999912337e+00,-4.945000000000484341e+00,1.339119779062616367e+01,-2.192975546120617736e+00
1.999999999999951328e+01,2.999999996106759159e+00,1.000000000000368239e+01,6.599999999999281997e-01,1.570000000000151053e+00,2.869999999999993634e+03,-2.174999999999929656e+00,-4.944999999999609486e+00,1.339783535695122119e+01,-2.141735784860880010e+00
1.999999999999878497e+01,3.000000000436685355e+00,1.000000000004387424e+01,6.599999999998519273e-01,1.570000000000334239e+00,2.869999999999995453e+03,-2.174999999999849276e+00,-4.944999999999204476e+00,1.337724847098311542e+01,-2.151536000611649957e+00
1.999999999999968026e+01,2.999999998954102409e+00,1.000000000000227018e+01,6.600000000003333200e-01,1.569999999999558860e+00,2.869999999999989086e+03,-2.175000000000116618e+00,-4.945000000001430251e+00,1.346192311732580471e+01,-2.179496069082455634e+00
1.999999999999842615e+01,2.999999997277227770e+00,1.000000000002055422e+01,6.599999999995580513e-01,1.570000000000786322e+00,2.870000000000001364e+03,-2.174999999999701394e+00,-4.944999999997901519e+00,1.340533226560530089e+01,-2.164767369582513368e+00
1.999999999999979750e+01,2.999999999276941942e+00,1.000000000003262990e+01,6.599999999999703881e-01,1.570000000000070228e+00,2.869999999999987267e+03,-2.174999999999951417e+00,-4.944999999999810214e+00,1.342034929382405473e+01,-2.180126404178922339e+00
1.999999999999983302e+01,3.000000000080475182e+00,1.000000000001146638e+01,6.600000000000538769e-01,1.569999999999895701e+00,2.869999999999996362e+03,-2.175000000000014477e+00,-4.945000000000239204e+00,1.342296925486528814e+01,-2.139802163247547018e+00
1.999999999999911537e+01,2.999999997349569014e+00,1.000000000004559908e+01,6.600000000003901635e-01,1.569999999999440732e+00,2.870000000000002274e+03,-2.175000000000099298e+00,-4.945000000001687823e+00,1.335031904074424958e+01,-2.137658792775169125e+00
1.999999999999903721e+01,3.000000001351376344e+00,1.000000000005030643e+01,6.600000000002306244e-01,1.569999999999634577e+00,2.870000000000000455e+03,-2.175000000000026912e+00,-4.945000000001037677e+00,1.340421974081100309e+01,-2.146365167074760993e+00
1.999999999999927169e+01,2.999999995843210421e+00,9.999999999982545518e+00,6.599999999999388578e-01,1.570000000000178364e+00,2.869999999999989541e+03,-2.174999999999904787e+00,-4.944999999999622808e+00,1.336845988712834199e+01,-2.164744075200884410e+00
2.000000000000069633e+01,2.999999997695823151e+00,9.999999999976244780e+00,6.600000000002468337e-01,1.569999999999569518e+00,2.869999999999983629e+03,-2.175000000000166356e+00,-4.945000000001222418e+00,1.344221243953777289e+01,-2.165417530380396194e+00
1.999999999999953815e+01,3.000000000325000471e+00,9.999999999964940045e+00,6.600000000001169376e-01,1.569999999999832196e+00,2.870000000000001819e+03,-2.175000000000038458e+00,-4.945000000000693063e+00,1.342577025182948169e+01,-2.162872987807814784e+00
1.999999999999906919e+01,2.999999998340972862e+00,1.000000000001907985e+01,6.600000000000736389e-01,1.569999999999899254e+00,2.869999999999996817e+03,-2.174999999999998046e+00,-4.945000000000306706e+00,1.341473285945586902e+01,-2.160233719741170511e+00
1.999999999999966249e+01,2.999999998996401018e+00,9.999999999992233768e+00,6.600000000000445510e-01,1.569999999999944107e+00,2.870000000000000000e+03,-2.174999999999984279e+00,-4.945000000000220552e+00,1.341262549440804719e+01,-2.210918224097364604e+00
1.999999999999922906e+01,2.999999996184176343e+00,9.999999999986767918e+00,6.600000000000995071e-01,1.569999999999920348e+00,2.870000000000000455e+03,-2.174999999999990941e+00,-4.945000000000443485e+00,1.333230332974052956e+01,-2.133707031991104230e+00
2.000000000000014921e+01,2.999999998808966950e+00,9.999999999966929565e+00,6.600000000002089751e-01,1.569999999999691198e+00,2.869999999999995907e+03,-2.175000000000096190e+00,-4.945000000000932872e+00,1.336225617908377394e+01,-2.152483736271679771e+00
1.999999999999960920e+01,2.999999997453404621e+00,1.000000000000251887e+01,6.600000000000505462e-01,1.569999999999983409e+00,2.870000000000009095e+03,-2.174999999999968736e+00,-4.945000000000185914e+00,1.340949960616675440e+01,-2.142903206068086597e+00
1.999999999999922196e+01,2.999999998897008524e+00,1.000000000003322853e+01,6.599999999999113243e-01,1.570000000000170814e+00,2.869999999999990450e+03,-2.174999999999899458e+00,-4.944999999999541096e+00,1.341112421744307426e+01,-2.163299979305898013e+00
2.000000000000027356e+01,3.000000001459476984e+00,9.999999999950807350e+00,6.600000000005307177e-01,1.569999999999158291e+00,2.869999999999991360e+03,-2.175000000000237854e+00,-4.945000000002427676e+00,1.345397828904508408e+01,-2.122823753250977497e+00
1.999999999999994316e+01,3.000000000379276610e+00,9.999999999981309173e+00,6.600000000001855494e-01,1.569999999999729612e+00,2.869999999999983629e+03,-2.175000000000071321e+00,-4.945000000000705498e+00,1.345584507597461510e+01,-2.101892071623632674e+00
1.999999999999988631e+01,3.000000001325294541e+00,9.999999999987318589e+00,6.600000000002882450e-01,1.569999999999587281e+00,2.869999999999984993e+03,-2.175000000000104183e+00,-4.945000000001159357e+00,1.344034473521032602e+01,-2.098771349096532735e+00
1.999999999999979394e+01,3.000000000136560541e+00,9.999999999988640198e+00,6.600000000000629807e-01,1.569999999999928564e+00,2.869999999999987267e+03,-2.174999999999982059e+00,-4.945000000000188578e+00,1.344415980213840278e+01,-2.112380999878341825e+00
2.000000000000011369e+01,2.999999999485613245e+00,9.999999999980424548e+00,6.600000000001562395e-01,1.569999999999729612e+00,2.869999999999986812e+03,-2.175000000000066880e+00,-4.945000000000693952e+00,1.343396524526963454e+01,-2.109976305682314646e+00
1.999999999999986855e+01,2.999999999497175551e+00,9.999999999981811882e+00,6.599999999996364330e-01,1.570000000000554952e+00,2.869999999999981810e+03,-2.174999999999821743e+00,-4.944999999998349161e+00,1.341484227141713070e+01,-2.154277976721311383e+00
2.000000000000042277e+01,3.000000000917570908e+00,1.000000000003144152e+01,6.600000000000565414e-01,1.569999999999983631e+00,2.869999999999974989e+03,-2.175000000000088196e+00,-4.945000000000166374e+00,1.338681338775187335e+01,-2.194169780942189618e+00
2.000000000000114042e+01,3.000000001157843599e+00,9.999999999987959853e+00,6.600000000004129230e-01,1.569999999999311058e+00,2.869999999999990905e+03,-2.175000000000235190e+00,-4.945000000001878782e+00,1.341886587034802858e+01,-2.124963797820452527e+00
1.999999999999964828e+01,2.999999998107396593e+00,9.999999999987457144e+00,6.600000000003963807e-01,1.569999999999377449e+00,2.869999999999996362e+03,-2.175000000000126832e+00,-4.945000000001820162e+00,1.341390586543825236e+01,-2.121643341244861869e+00
2.000000000000081002e+01,2.999999995488638049e+00,9.999999999984861887e+00,6.600000000000677547e-01,1.569999999999855289e+00,2.869999999999993634e+03,-2.175000000000123279e+00,-4.945000000000309370e+00,1.343616919294863443e+01,-2.117007616083868893e+00
2.000000000000008882e+01,2.999999998682672420e+00,1.000000000000319389e+01,6.600000000000620926e-01,1.569999999999910800e+00,2.870000000000000909e+03,-2.175000000000042455e+00,-4.945000000000300489e+00,1.339305145704352817e+01,-2.159753144782930789e+00
2.000000000000114753e+01,2.999999996675105418e+00,9.999999999994216182e+00,6.600000000001287059e-01,1.569999999999789786e+00,2.869999999999986812e+03,-2.175000000000162359e+00,-4.945000000000651319e+00,1.342906092554123276e+01,-2.209481350307668457e+00
2.000000000000064659e+01,2.999999997321526557e+00,9.999999999989588773e+00,6.600000000003943823e-01,1.569999999999445173e+00,2.869999999999992269e+03,-2.175000000000215206e+00,-4.945000000001698481e+00,1.338128580382119637e+01,-2.173430370557450253e+00
1.999999999999952749e+01,2.999999999955770491e+00,1.000000000000514788e+01,6.599999999999406342e-01,1.570000000000169038e+00,2.870000000000000909e+03,-2.174999999999939870e+00,-4.944999999999692086e+00,1.338150784847471364e+01,-2.132472368875953705e+00
1.999999999999954170e+01,2.999999998601543094e+00,1.000000000000475886e+01,6.600000000003390932e-01,1.569999999999438067e+00,2.869999999999997726e+03,-2.175000000000084199e+00,-4.945000000001605223e+00,1.352612930789816126e+01,-2.274611020337004685e+00
2.000000000000041211e+01,2.999999997746175318e+00,9.999999999968579800e+00,6.600000000004214717e-01,1.569999999999341256e+00,2.869999999999992269e+03,-2.175000000000214317e+00,-4.945000000001945395e+00,1.353167979070180316e+01,-2.271245115796716618e+00
2.000000000000036238e+01,2.999999999218091684e+00,9.999999999981948662e+00,6.600000000003986012e-01,1.569999999999402318e+00,2.870000000000003183e+03,-2.175000000000183675e+00,-4.945000000001790852e+00,1.345466332266649090e+01,-2.168956646181435133e+00
1.999999999999992539e+01,2.999999997455966128e+00,9.999999999951942442e+00,6.599999999997788747e-01,1.570000000000315366e+00,2.870000000000000455e+03,-2.174999999999918998e+00,-4.944999999999026841e+00,1.339084580914803801e+01,-2.172797308954938611e+00
1.999999999999975486e+01,2.999999999868250722e+00,1.000000000003021938e+01,6.599999999999427436e-01,1.570000000000095985e+00,2.869999999999998181e+03,-2.174999999999961631e+00,-4.944999999999748930e+00,1.344120322781384402e+01,-2.214306812474733377e+00
1.999999999999924682e+01,3.000000003967792317e+00,1.000000000001749889e+01,6.599999999999871525e-01,1.570000000000059570e+00,2.870000000000001364e+03,-2.174999999999932765e+00,-4.944999999999919460e+00,1.333941290540421676e+01,-2.128720187544470122e+00
2.000000000000077804e+01,2.999999997339837687e+00,1.000000000001436540e+01,6.600000000000133538e-01,1.569999999999962315e+00,2.869999999999980901e+03,-2.175000000000101075e+00,-4.945000000000094431e+00,1.347050767733406040e+01,-2.177252396052411498e+00
1.999999999999912603e+01,3.000000002517982711e+00,1.000000000003409006e+01,6.600000000002071987e-01,1.569999999999681650e+00,2.869999999999996817e+03,-2.175000000000011813e+00,-4.945000000000980833e+00,1.344249233846290004e+01,-2.168642406060588446e+00
1.999999999999916511e+01,2.999999998159894599e+00,1.000000000004014566e+01,6.600000000002692602e-01,1.569999999999572848e+00,2.870000000000000909e+03,-2.175000000000034017e+00,-4.945000000001376073e+00,1.338471421559287045e+01,-2.074079801868364381e+00
2.000000000000031619e+01,2.999999995699927258e+00,1.000000000001655032e+01,6.600000000000192379e-01,1.569999999999969198e+00,2.869999999999986812e+03,-2.175000000000015810e+00,-4.945000000000026930e+00,1.341202255794780029e+01,-2.209472600957946842e+00
2.000000000000083844e+01,2.999999997702310850e+00,9.999999999993473665e+00,6.600000000004138112e-01,1.569999999999317941e+00,2.869999999999985448e+03,-2.175000000000227196e+00,-4.945000000001908980e+00,1.341077517334170643e+01,-2.196990005015948988e+00
1.999999999999928946e+01,3.000000001030055152e+00,9.999999999990299315e+00,6.599999999999526246e-01,1.570000000000103979e+00,2.869999999999985903e+03,-2.174999999999933209e+00,-4.944999999999764029e+00,1.338703746148415696e+01,-2.163847499775735095e+00
1.999999999999946709e+01,2.999999999920825555e+00,1.000000000002299849e+01,6.599999999998287237e-01,1.570000000000264517e+00,2.869999999999999545e+03,-2.174999999999893685e+00,-4.944999999999278195e+00,1.336951693552820508e+01,-2.167271744004205303e+00
1.999999999999937828e+01,2.999999999575694964e+00,1.000000000002213341e+01,6.599999999998117373e-01,1.570000000000306484e+00,2.870000000000000455e+03,-2.174999999999877698e+00,-4.944999999999192930e+00,1.336892574705020031e+01,-2.166606034697306171e+00
2.000000000000147082e+01,2.999999998589370609e+00,1.000000000000120437e+01,6.600000000003867218e-01,1.569999999999342144e+00,2.869999999999985903e+03,-2.175000000000270273e+00,-4.945000000001734897e+00,1.339207910282264180e+01,-2.124122933752028430e+00
1.999999999999896971e+01,2.999999997766646942e+00,1.000000000001158185e+01,6.600000000000459943e-01,1.569999999999996065e+00,2.870000000000000455e+03,-2.174999999999924327e+00,-4.945000000000201013e+00,1.332735804517780842e+01,-2.108426560023100471e+00
1.999999999999977973e+01,2.999999999256925509e+00,1.000000000005606893e+01,6.600000000000965095e-01,1.569999999999807772e+00,2.869999999999991360e+03,-2.175000000000024247e+00,-4.945000000000507434e+00,1.337428489642390872e+01,-2.130177498994734187e+00
2.000000000000074252e+01,2.999999998825676251e+00,9.999999999979262810e+00,6.600000000003654055e-01,1.569999999999383000e+00,2.869999999999982265e+03,-2.175000000000163247e+00,-4.945000000001731344e+00,1.340156004705225179e+01,-2.157870276891979966e+00
2.000000000000033040e+01,2.999999999889261471e+00,9.999999999957491781e+00,6.599999999997705480e-01,1.570000000000380203e+00,2.869999999999996817e+03,-2.174999999999912337e+00,-4.944999999998843876e+00,1.342856649714142492e+01,-2.149613495095433535e+00
2.000000000000069278e+01,3.000000001779816294e+00,9.999999999966803443e+00,6.600000000000758593e-01,1.569999999999818430e+00,2.869999999999991815e+03,-2.175000000000086420e+00,-4.945000000000352003e+00,1.344275743448192273e+01,-2.149127747752078044e+00
2.000000000000009237e+01,3.000000001924541859e+00,9.999999999993091748e+00,6.599999999991696953e-01,1.570000000001326779e+00,2.870000000000002728e+03,-2.174999999999679634e+00,-4.944999999996225526e+00,1.337271207885833491e+01,-2.158022754173246405e+00
2.000000000000123990e+01,2.999999997460935930e+00,9.999999999978987475e+00,6.599999999999176525e-01,1.570000000000107754e+00,2.869999999999990905e+03,-2.175000000000074429e+00,-4.944999999999632578e+00,1.340988077551508084e+01,-2.113214916172041047e+00
2.000000000000017408e+01,2.999999998411681190e+00,1.000000000000211919e+01,6.599999999998485967e-01,1.570000000000244089e+00,2.869999999999992269e+03,-2.174999999999960743e+00,-4.944999999999263984e+00,1.342074922695434935e+01,-2.179421040674179189e+00
2.000000000000093436e+01,3.000000000003884004e+00,9.999999999994246380e+00,6.600000000002634870e-01,1.569999999999640572e+00,2.869999999999983174e+03,-2.175000000000166356e+00,-4.945000000001049223e+00,1.337565803944547582e+01,-2.166610050479937488e+00
2.000000000000019895e+01,3.000000000672368383e+00,9.999999999984320098e+00,6.599999999998218403e-01,1.570000000000311813e+00,2.870000000000001364e+03,-2.174999999999952305e+00,-4.944999999999208917e+00,1.341496182011372440e+01,-2.154405540188730761e+00
1.999999999999993960e+01,2.999999997247141614e+00,9.999999999954219732e+00,6.600000000000371125e-01,1.569999999999954543e+00,2.869999999999999091e+03,-2.174999999999989608e+00,-4.945000000000092655e+00,1.336852090865745524e+01,-2.155740399775634586e+00
1.999999999999981171e+01,2.999999997079710656e+00,9.999999999956880714e+00,6.600000000002006484e-01,1.569999999999735829e+00,2.870000000000002274e+03,-2.175000000000029576e+00,-4.945000000000769447e+00,1.335685836455126640e+01,-2.155613526065138785e+00
1.999999999999925038e+01,3.000000000999633709e+00,9.999999999974134468e+00,6.600000000000102451e-01,1.570000000000104201e+00,2.869999999999997272e+03,-2.174999999999930544e+00,-4.944999999999941664e+00,1.339258802787814773e+01,-2.155259171088327985e+00
1.999999999999911537e+01,2.999999999185732236e+00,9.999999999989292121e+00,6.599999999998147349e-01,1.570000000000360885e+00,2.870000000000001819e+03,-2.174999999999841283e+00,-4.944999999999137863e+00,1.335576627210336653e+01,-2.111175359527571516e+00
2.000000000000023448e+01,3.000000000511358511e+00,9.999999999968014919e+00,6.600000000000486589e-01,1.569999999999939222e+00,2.869999999999998181e+03,-2.175000000000018474e+00,-4.945000000000164597e+00,1.338262231152451953e+01,-2.110864632856355616e+00
1.999999999999955591e+01,2.999999999421903762e+00,9.999999999988988364e+00,6.600000000003470868e-01,1.569999999999530216e+00,2.869999999999994998e+03,-2.175000000000095746e+00,-4.945000000001508411e+00,1.337573496415114072e+01,-2.149004805389354011e+00
2.000000000000031619e+01,3.000000000587131233e+00,9.999999999993258726e+00,6.600000000004141443e-01,1.569999999999350360e+00,2.869999999999993634e+03,-2.175000000000185008e+00,-4.945000000001871676e+00,1.342332687180705442e+01,-2.166851111249890049e+00
1.999999999999891287e+01,2.999999996956851600e+00,9.999999999993393729e+00,6.599999999997823164e-01,1.570000000000369766e+00,2.869999999999996362e+03,-2.174999999999837730e+00,-4.944999999999021512e+00,1.343334373887802080e+01,-2.200849466128969922e+00
1.999999999999990052e+01,3.000000002017681577e+00,9.999999999972782661e+00,6.600000000000488809e-01,1.569999999999937002e+00,2.869999999999993179e+03,-2.174999999999995826e+00,-4.945000000000121965e+00,1.341523992530153642e+01,-2.146689444742548414e+00
2.000000000000036593e+01,3.000000003877619115e+00,9.999999999943689488e+00,6.599999999997574474e-01,1.570000000000346230e+00,2.869999999999986358e+03,-2.174999999999923883e+00,-4.944999999998923812e+00,1.343324903996913378e+01,-2.204110478244715843e+00
2.000000000000070344e+01,3.000000001231294178e+00,9.999999999978593124e+00,6.600000000001401412e-01,1.569999999999757367e+00,2.869999999999979536e+03,-2.175000000000096190e+00,-4.945000000000619345e+00,1.341034895094244384e+01,-2.164349207750428938e+00
1.999999999999994316e+01,3.000000004096847306e+00,1.000000000000339639e+01,6.599999999996455369e-01,1.570000000000523865e+00,2.869999999999984993e+03,-2.174999999999853273e+00,-4.944999999998434426e+00,1.343561809341804114e+01,-2.190772008003070148e+00
1.999999999999974065e+01,3.000000000407661016e+00,9.999999999985268673e+00,6.600000000004131451e-01,1.569999999999325935e+00,2.869999999999990905e+03,-2.175000000000126832e+00,-4.945000000002050200e+00,1.341448863568014360e+01,-2.142791730120617633e+00
1.999999999999899103e+01,3.000000003914425228e+00,9.999999999972297715e+00,6.600000000000634248e-01,1.569999999999942331e+00,2.869999999999998181e+03,-2.174999999999982503e+00,-4.945000000000239204e+00,1.342962602712810849e+01,-2.183748050011143249e+00
1.999999999999865707e+01,3.000000002056060211e+00,9.999999999993196553e+00,6.600000000000109113e-01,1.570000000000024709e+00,2.869999999999999091e+03,-2.174999999999885247e+00,-4.944999999999980744e+00,1.337411402909113711e+01,-2.155638139197036729e+00
1.999999999999916866e+01,3.000000003499412760e+00,1.000000000000003375e+01,6.600000000001375877e-01,1.569999999999818652e+00,2.869999999999999545e+03,-2.174999999999984723e+00,-4.945000000000543849e+00,1.342346777287795945e+01,-2.200046329411852408e+00
1.999999999999897682e+01,3.000000004401902842e+00,9.999999999989954702e+00,6.600000000002100853e-01,1.569999999999724283e+00,2.870000000000005457e+03,-2.174999999999994493e+00,-4.945000000000875140e+00,1.336793838021742076e+01,-2.166643381265206614e+00
1.999999999999991829e+01,2.999999999420149610e+00,9.999999999989739763e+00,6.600000000003645173e-01,1.569999999999410090e+00,2.870000000000002728e+03,-2.175000000000137490e+00,-4.945000000001673612e+00,1.343400369926829363e+01,-2.159128786568143443e+00
2.000000000000064304e+01,3.000000001578948972e+00,9.999999999959017671e+00,6.600000000000950662e-01,1.569999999999785345e+00,2.869999999999991360e+03,-2.175000000000059330e+00,-4.945000000000439044e+00,1.341588130075908047e+01,-2.148675480317776998e+00
1.999999999999956302e+01,3.000000003239515323e+00,9.999999999978140153e+00,6.599999999999539568e-01,1.570000000000091100e+00,2.870000000000000909e+03,-2.174999999999962075e+00,-4.944999999999730278e+00,1.344361271068326680e+01,-2.165489500227160136e+00
1.999999999999910472e+01,3.000000002731763260e+00,1.000000000000318323e+01,6.600000000001137179e-01,1.569999999999891038e+00,2.869999999999999545e+03,-2.174999999999987388e+00,-4.945000000000500329e+00,1.340249262793298612e+01,-2.142664274368368815e+00
2.000000000000052935e+01,2.999999999906487247e+00,1.000000000000624034e+01,6.600000000003360956e-01,1.569999999999504237e+00,2.869999999999994998e+03,-2.175000000000201439e+00,-4.945000000001316565e+00,1.337637014953796744e+01,-2.161963147255523410e+00
1.999999999999911893e+01,3.000000001633635005e+00,1.000000000002169465e+01,6.599999999999097700e-01,1.570000000000161711e+00,2.869999999999998636e+03,-2.174999999999898570e+00,-4.944999999999565077e+00,1.341501415043484258e+01,-2.120467827030644958e+00
1.999999999999918643e+01,2.999999998630164200e+00,1.000000000001707967e+01,6.600000000001351452e-01,1.569999999999788010e+00,2.870000000000000909e+03,-2.174999999999983391e+00,-4.945000000000592699e+00,1.342713433366453302e+01,-2.192172616477462643e+00
1.999999999999896261e+01,2.999999999838830700e+00,1.000000000001073452e+01,6.600000000001458034e-01,1.569999999999780682e+00,2.870000000000001819e+03,-2.174999999999944311e+00,-4.945000000000669971e+00,1.341598074430725518e+01,-2.185592127649413463e+00
2.000000000000022382e+01,2.999999998344983432e+00,1.000000000000517275e+01,6.600000000003207745e-01,1.569999999999449836e+00,2.869999999999993634e+03,-2.175000000000153033e+00,-4.945000000001608775e+00,1.338212296535199464e+01,-2.164448123116974987e+00
1.999999999999864997e+01,3.000000003286051431e+00,1.000000000003704059e+01,6.600000000000391109e-01,1.570000000000007390e+00,2.870000000000000455e+03,-2.174999999999878142e+00,-4.945000000000105977e+00,1.346265880822633321e+01,-2.168267285809825751e+00
1.999999999999918643e+01,3.000000000261529021e+00,1.000000000002941292e+01,6.599999999996217781e-01,1.570000000000552953e+00,2.869999999999991815e+03,-2.174999999999797318e+00,-4.944999999998380247e+00,1.339752318880720949e+01,-2.204567955039353766e+00
1.999999999999943867e+01,2.999999998146962721e+00,1.000000000004528999e+01,6.600000000001280398e-01,1.569999999999847740e+00,2.869999999999996362e+03,-2.175000000000016254e+00,-4.945000000000535856e+00,1.339907811204087729e+01,-2.162721561515673852e+00
1.999999999999897327e+01,3.000000001618027046e+00,1.000000000003470646e+01,6.599999999996825073e-01,1.570000000000521645e+00,2.869999999999993634e+03,-2.174999999999791100e+00,-4.944999999998573870e+00,1.336117146478855311e+01,-2.118232593480053438e+00
1.999999999999938183e+01,2.999999999344167723e+00,1.000000000002279243e+01,6.600000000000606493e-01,1.569999999999931006e+00,2.870000000000002274e+03,-2.174999999999936318e+00,-4.945000000000198348e+00,1.338122106535962708e+01,-2.157235704114313091e+00
1.999999999999933564e+01,3.000000001906650837e+00,1.000000000000729372e+01,6.599999999994604627e-01,1.570000000000901563e+00,2.869999999999999091e+03,-2.174999999999735145e+00,-4.944999999997331308e+00,1.335415309264803341e+01,-2.155366355718277838e+00
2.000000000000059330e+01,2.999999997843585842e+00,1.000000000000111200e+01,6.600000000003765077e-01,1.569999999999380780e+00,2.869999999999996817e+03,-2.175000000000194778e+00,-4.945000000001820162e+00,1.340074643220404838e+01,-2.115945226207665009e+00
1.999999999999978684e+01,3.000000002352837036e+00,9.999999999993967492e+00,6.599999999999193179e-01,1.570000000000171481e+00,2.869999999999998636e+03,-2.174999999999951417e+00,-4.944999999999628137e+00,1.344181471020367979e+01,-2.148946590872653051e+00
1.999999999999994671e+01,3.000000001728287735e+00,9.999999999973047338e+00,6.600000000002601563e-01,1.569999999999594831e+00,2.869999999999999091e+03,-2.175000000000044675e+00,-4.945000000001209095e+00,1.339358947483914797e+01,-2.177959299555810357e+00
1.999999999999955946e+01,2.999999997950159702e+00,9.999999999997481126e+00,6.600000000002059775e-01,1.569999999999690754e+00,2.869999999999996362e+03,-2.175000000000047340e+00,-4.945000000000942642e+00,1.337537836471397235e+01,-2.100409550222772204e+00
2.000000000000097700e+01,3.000000001280187956e+00,9.999999999988544275e+00,6.600000000003385381e-01,1.569999999999458939e+00,2.869999999999985448e+03,-2.175000000000181455e+00,-4.945000000001494200e+00,1.338175276660325075e+01,-2.153764444394674626e+00
1.999999999999977618e+01,3.000000000976878134e+00,9.999999999980536458e+00,6.600000000003161116e-01,1.569999999999542650e+00,2.869999999999991360e+03,-2.175000000000114397e+00,-4.945000000001497753e+00,1.341985776845107026e+01,-2.193383346693261959e+00
2.000000000000179767e+01,2.999999995692269827e+00,9.999999999951162621e+00,6.600000000007324452e-01,1.569999999998767048e+00,2.869999999999983629e+03,-2.175000000000404388e+00,-4.945000000003386909e+00,1.340713875624181739e+01,-2.120082767852598415e+00
1.999999999999968736e+01,2.999999999283565977e+00,9.999999999998440359e+00,6.600000000003879430e-01,1.569999999999381668e+00,2.869999999999996817e+03,-2.175000000000136602e+00,-4.945000000001814833e+00,1.339786066338619186e+01,-2.187866157646016774e+00
1.999999999999904432e+01,3.000000000326091154e+00,9.999999999990716759e+00,6.599999999998760192e-01,1.570000000000242313e+00,2.869999999999999545e+03,-2.174999999999869704e+00,-4.944999999999434515e+00,1.337386555559558943e+01,-2.168822393597670928e+00
2.000000000000032330e+01,2.999999998413109381e+00,9.999999999992704502e+00,6.600000000005592504e-01,1.569999999999144968e+00,2.869999999999993634e+03,-2.175000000000240963e+00,-4.945000000002500506e+00,1.345341372403862046e+01,-2.176607425282251818e+00
2.000000000000017764e+01,2.999999995199090108e+00,9.999999999991604938e+00,6.600000000003025669e-01,1.569999999999537987e+00,2.869999999999991360e+03,-2.175000000000118394e+00,-4.945000000001297913e+00,1.340946924465702139e+01,-2.157699547387919914e+00
2.000000000000007105e+01,3.000000002288555123e+00,9.999999999995203837e+00,6.600000000002692602e-01,1.569999999999522222e+00,2.869999999999981355e+03,-2.175000000000094413e+00,-4.945000000001251728e+00,1.350468716419421433e+01,-2.240792290839806356e+00
2.000000000000060751e+01,2.999999999319954647e+00,9.999999999946233231e+00,6.599999999997924194e-01,1.570000000000273177e+00,2.869999999999985903e+03,-2.174999999999946976e+00,-4.944999999999162732e+00,1.343983996571278716e+01,-2.116643987108488112e+00
2.000000000000060396e+01,2.999999999837555720e+00,9.999999999948585128e+00,6.599999999999807132e-01,1.569999999999981855e+00,2.869999999999992724e+03,-2.175000000000036238e+00,-4.944999999999994955e+00,1.334636488245749675e+01,-2.130161984306719436e+00
2.000000000000068923e+01,3.000000000819155854e+00,9.999999999947288387e+00,6.600000000004228040e-01,1.569999999999271312e+00,2.870000000000000909e+03,-2.175000000000209877e+00,-4.945000000002044871e+00,1.341900254947736570e+01,-2.162720000978108459e+00
1.999999999999852918e+01,3.000000002302765090e+00,9.999999999994042099e+00,6.599999999994786704e-01,1.570000000000817186e+00,2.870000000000002728e+03,-2.174999999999655209e+00,-4.944999999997747864e+00,1.338963407926008031e+01,-2.146684895409688210e+00
2.000000000000020606e+01,3.000000000326330962e+00,9.999999999960213160e+00,6.600000000001264855e-01,1.569999999999782458e+00,2.870000000000001819e+03,-2.175000000000030465e+00,-4.945000000000617568e+00,1.337207673043895007e+01,-2.178121507034087578e+00
2.000000000000100187e+01,3.000000001555508611e+00,9.999999999924302330e+00,6.600000000005291634e-01,1.569999999999164508e+00,2.869999999999991360e+03,-2.175000000000268940e+00,-4.945000000002377050e+00,1.351498014517907720e+01,-2.149496013553188867e+00
2.000000000000065015e+01,2.999999999174703724e+00,9.999999999950144769e+00,6.600000000006179812e-01,1.569999999998989759e+00,2.869999999999995907e+03,-2.175000000000277822e+00,-4.945000000002907292e+00,1.341754076369391946e+01,-2.091445527460407128e+00
2.000000000000049027e+01,2.999999999966101782e+00,9.999999999948853358e+00,6.599999999998384936e-01,1.570000000000204121e+00,2.869999999999990905e+03,-2.174999999999963407e+00,-4.944999999999401652e+00,1.342169507674131701e+01,-2.095441508546298515e+00
2.000000000000042988e+01,2.999999999509039839e+00,9.999999999947531748e+00,6.599999999998804601e-01,1.570000000000119744e+00,2.869999999999993634e+03,-2.174999999999963407e+00,-4.944999999999591722e+00,1.343208125360034622e+01,-2.102152017509908877e+00
2.000000000000144240e+01,2.999999999323855082e+00,9.999999999939982231e+00,6.600000000001173817e-01,1.569999999999742490e+00,2.869999999999992724e+03,-2.175000000000113509e+00,-4.945000000000562501e+00,1.346776524754709392e+01,-2.120802862554804769e+00
2.000000000000168399e+01,2.999999998843004168e+00,9.999999999943801399e+00,6.600000000000618705e-01,1.569999999999792450e+00,2.869999999999991360e+03,-2.175000000000126388e+00,-4.945000000000337792e+00,1.348711429444473175e+01,-2.122781365851361457e+00
2.000000000000030198e+01,2.999999999142536122e+00,9.999999999960673236e+00,6.600000000002473888e-01,1.569999999999650564e+00,2.869999999999997272e+03,-2.175000000000149480e+00,-4.945000000001070539e+00,1.348637911940299006e+01,-2.242075578100991784e+00
1.999999999999996447e+01,2.999999996518917467e+00,1.000000000001593570e+01,6.600000000001640110e-01,1.569999999999674101e+00,2.869999999999991360e+03,-2.175000000000083755e+00,-4.945000000000902673e+00,1.340289617828681656e+01,-2.179235511463371466e+00
