1.999999999999999645e+01,2.999999999492693803e+00,9.999999999996802558e+00,6.600000000000317835e-01,1.569999999999828422e+00,2.869999999999998636e+03,-2.175000000000076206e+00,-4.945000000000566942e+00,1.336958643310154038e+01,-2.171283126830709787e+00
1.999999999999936762e+01,2.999999999406665285e+00,1.000000000002168576e+01,6.599999999996988276e-01,1.570000000000411067e+00,2.869999999999999091e+03,-2.174999999999891021e+00,-4.944999999998946905e+00,1.336342369957930032e+01,-2.185677954521542343e+00
1.999999999999973710e+01,3.000000000825841617e+00,1.000000000000890310e+01,6.599999999998311662e-01,1.570000000000228768e+00,2.869999999999984993e+03,-2.174999999999937650e+00,-4.944999999999476259e+00,1.337884819182241536e+01,-2.178229058861627543e+00
2.000000000000008882e+01,3.000000002960134360e+00,9.999999999991814548e+00,6.600000000001844391e-01,1.569999999999809770e+00,2.870000000000008185e+03,-2.175000000000008704e+00,-4.945000000000502105e+00,1.338856497056966255e+01,-2.158807913472523765e+00
1.999999999999955236e+01,2.999999997913388672e+00,1.000000000000880185e+01,6.600000000002003153e-01,1.569999999999791118e+00,2.870000000000005002e+03,-2.175000000000026912e+00,-4.945000000000604246e+00,1.339415311114840179e+01,-2.175075400415737992e+00
2.000000000000031619e+01,3.000000000655784316e+00,9.999999999963405273e+00,6.599999999999826006e-01,1.569999999999982077e+00,2.869999999999984084e+03,-2.175000000000017586e+00,-4.945000000000105089e+00,1.337290170967806802e+01,-2.166912416685287557e+00
1.999999999999995737e+01,3.000000000149408486e+00,9.999999999996429523e+00,6.600000000001216005e-01,1.569999999999971196e+00,2.869999999999988177e+03,-2.175000000000011369e+00,-4.945000000000135287e+00,1.339655595309535308e+01,-2.158791247468758279e+00
1.999999999999974776e+01,2.999999997554327447e+00,9.999999999999729994e+00,6.599999999999269784e-01,1.570000000000125295e+00,2.869999999999984084e+03,-2.174999999999978062e+00,-4.944999999999784457e+00,1.337105125937547179e+01,-2.177639425027188214e+00
2.000000000000039790e+01,3.000000000685533852e+00,1.000000000000524025e+01,6.600000000002068656e-01,1.569999999999532214e+00,2.869999999999997726e+03,-2.175000000000163691e+00,-4.945000000001360085e+00,1.337608972450075839e+01,-2.155484369510317855e+00
1.999999999999928946e+01,2.999999999561430375e+00,9.999999999968201436e+00,6.600000000002135270e-01,1.569999999999725171e+00,2.869999999999999545e+03,-2.174999999999990052e+00,-4.945000000000893792e+00,1.337127588835250513e+01,-2.174376867415222847e+00
1.999999999999971934e+01,2.999999998944670843e+00,1.000000000000485301e+01,6.600000000000786349e-01,1.569999999999936335e+00,2.869999999999992269e+03,-2.174999999999963407e+00,-4.945000000000078444e+00,1.339263254939460879e+01,-2.182327595031265499e+00
2.000000000000004619e+01,2.999999997941900531e+00,9.999999999990283328e+00,6.599999999998986677e-01,1.570000000000133289e+00,2.869999999999987722e+03,-2.174999999999970957e+00,-4.944999999999595275e+00,1.338754984191970188e+01,-2.180728405144212179e+00
1.999999999999995737e+01,2.999999994663602454e+00,9.999999999994289013e+00,6.599999999998996669e-01,1.570000000000068008e+00,2.869999999999982265e+03,-2.175000000000022915e+00,-4.944999999999938112e+00,1.338055154807540248e+01,-2.184423834680011556e+00
1.999999999999936406e+01,2.999999998682165714e+00,9.999999999984535037e+00,6.600000000000982858e-01,1.570000000000008278e+00,2.869999999999996362e+03,-2.174999999999913225e+00,-4.945000000000097096e+00,1.339431155375121385e+01,-2.164399375984333851e+00
1.999999999999938893e+01,2.999999998743863916e+00,1.000000000000400568e+01,6.599999999997671063e-01,1.570000000000377982e+00,2.869999999999999091e+03,-2.174999999999891021e+00,-4.944999999999083684e+00,1.338833132201612663e+01,-2.159454099827852858e+00
1.999999999999958433e+01,2.999999998793572598e+00,9.999999999992407851e+00,6.600000000003002354e-01,1.569999999999694085e+00,2.869999999999985448e+03,-2.175000000000035350e+00,-4.945000000000873364e+00,1.338464192686860699e+01,-2.159688376710069857e+00
1.999999999999960565e+01,3.000000000355977470e+00,9.999999999978351539e+00,6.599999999998316103e-01,1.570000000000336682e+00,2.869999999999971806e+03,-2.174999999999907008e+00,-4.944999999999078355e+00,1.338595472526204766e+01,-2.170583509409258482e+00
1.999999999999925393e+01,3.000000000789752708e+00,9.999999999996161293e+00,6.599999999999035527e-01,1.570000000000221885e+00,2.869999999999972260e+03,-2.174999999999907008e+00,-4.944999999999528661e+00,1.337122736612499807e+01,-2.193054519429063376e+00
1.999999999999961275e+01,2.999999996673479608e+00,9.999999999979118925e+00,6.599999999999022204e-01,1.570000000000115303e+00,2.869999999999974989e+03,-2.174999999999932321e+00,-4.944999999999781792e+00,1.337937946749875451e+01,-2.162617165341963243e+00
1.999999999999878852e+01,2.999999999065867673e+00,1.000000000001608846e+01,6.599999999998866773e-01,1.570000000000253859e+00,2.869999999999993634e+03,-2.174999999999875477e+00,-4.944999999999441620e+00,1.337130794608515671e+01,-2.182602778884027650e+00
1.999999999999921840e+01,2.999999998291404069e+00,1.000000000001055867e+01,6.599999999999569544e-01,1.570000000000215890e+00,2.869999999999994543e+03,-2.174999999999894129e+00,-4.944999999999533991e+00,1.338078508438340108e+01,-2.165219035924765834e+00
1.999999999999942801e+01,3.000000000681961154e+00,1.000000000000992806e+01,6.600000000000227907e-01,1.569999999999984741e+00,2.869999999999989996e+03,-2.175000000000011369e+00,-4.945000000000096207e+00,1.339525689837710765e+01,-2.177237421319181632e+00
1.999999999999989697e+01,3.000000001563321916e+00,1.000000000001122125e+01,6.600000000002719247e-01,1.569999999999580842e+00,2.869999999999998181e+03,-2.175000000000139266e+00,-4.945000000001295248e+00,1.338599451841224841e+01,-2.173820540084953290e+00
2.000000000000007461e+01,2.999999999995566213e+00,9.999999999990741628e+00,6.600000000000354472e-01,1.569999999999848184e+00,2.869999999999968622e+03,-2.175000000000029132e+00,-4.945000000000467466e+00,1.338385882400604920e+01,-2.191132566127592440e+00
1.999999999999863931e+01,3.000000001527492799e+00,1.000000000000398437e+01,6.600000000001685629e-01,1.569999999999990958e+00,2.870000000000004093e+03,-2.174999999999907896e+00,-4.945000000000126406e+00,1.336623906869198386e+01,-2.179379209059086886e+00
2.000000000000130385e+01,2.999999999426122166e+00,9.999999999973612219e+00,6.600000000002534950e-01,1.569999999999533324e+00,2.869999999999992724e+03,-2.175000000000157918e+00,-4.945000000001290807e+00,1.338096109705803016e+01,-2.167429024882133071e+00
1.999999999999990763e+01,2.999999997632238458e+00,9.999999999993718802e+00,6.599999999995308508e-01,1.570000000000617790e+00,2.869999999999981355e+03,-2.174999999999825739e+00,-4.944999999998289653e+00,1.338266815042380209e+01,-2.194429719928398637e+00
1.999999999999991829e+01,2.999999998073587637e+00,9.999999999988654409e+00,6.599999999999471845e-01,1.569999999999980078e+00,2.869999999999998181e+03,-2.174999999999976286e+00,-4.945000000000073115e+00,1.337210520387073487e+01,-2.189704238661907887e+00
2.000000000000020250e+01,2.999999997619327008e+00,9.999999999996632027e+00,6.600000000000502132e-01,1.569999999999844631e+00,2.869999999999997272e+03,-2.174999999999992717e+00,-4.945000000000415064e+00,1.340044403838429155e+01,-2.167191410449032851e+00
1.999999999999926459e+01,3.000000000475117279e+00,1.000000000000569145e+01,6.600000000002609335e-01,1.569999999999708740e+00,2.869999999999988177e+03,-2.174999999999998490e+00,-4.945000000000884910e+00,1.337964407409211631e+01,-2.149319295148137687e+00
1.999999999999931077e+01,2.999999999288871511e+00,1.000000000000393108e+01,6.600000000000547651e-01,1.569999999999990292e+00,2.869999999999993634e+03,-2.174999999999938094e+00,-4.945000000000119300e+00,1.338858036234406157e+01,-2.175278349995323879e+00
1.999999999999984723e+01,2.999999999148800445e+00,9.999999999994333422e+00,6.599999999998698019e-01,1.570000000000258078e+00,2.869999999999979991e+03,-2.174999999999875921e+00,-4.944999999999192930e+00,1.338648802928413062e+01,-2.181067785824104543e+00
1.999999999999898392e+01,2.999999998621414754e+00,1.000000000002105516e+01,6.599999999997671063e-01,1.570000000000429274e+00,2.870000000000005002e+03,-2.174999999999843503e+00,-4.944999999998925588e+00,1.336958391789872813e+01,-2.201002228056182730e+00
1.999999999999832667e+01,2.999999998483393604e+00,1.000000000002129497e+01,6.599999999997648858e-01,1.570000000000422613e+00,2.869999999999998636e+03,-2.174999999999818190e+00,-4.944999999999046381e+00,1.338807908055237483e+01,-2.194720247211458641e+00
1.999999999999975131e+01,3.000000000307041947e+00,9.999999999998721023e+00,6.599999999998099609e-01,1.570000000000218776e+00,2.869999999999997272e+03,-2.174999999999916778e+00,-4.944999999999402540e+00,1.339558306965658652e+01,-2.179033536416199013e+00
1.999999999999945999e+01,3.000000001128351634e+00,1.000000000002565059e+01,6.599999999998834577e-01,1.570000000000225215e+00,2.869999999999975898e+03,-2.174999999999915445e+00,-4.944999999999417639e+00,1.338518137650542172e+01,-2.182707794183208261e+00
1.999999999999952038e+01,2.999999999818371066e+00,9.999999999997850608e+00,6.599999999999329736e-01,1.570000000000079554e+00,2.869999999999995907e+03,-2.174999999999946088e+00,-4.944999999999872387e+00,1.338260571607554361e+01,-2.169586215880438207e+00
1.999999999999897327e+01,2.999999999311268706e+00,1.000000000000035350e+01,6.599999999997243627e-01,1.570000000000396856e+00,2.869999999999994998e+03,-2.174999999999832845e+00,-4.944999999999068585e+00,1.336735472880621423e+01,-2.197172625819128200e+00
1.999999999999896971e+01,2.999999999667375405e+00,1.000000000000027889e+01,6.600000000000113554e-01,1.570000000000074669e+00,2.869999999999995907e+03,-2.174999999999893685e+00,-4.944999999999883045e+00,1.337871569578153164e+01,-2.203964669424584244e+00
1.999999999999946354e+01,2.999999998818703606e+00,1.000000000001218936e+01,6.599999999998730216e-01,1.570000000000141727e+00,2.869999999999993179e+03,-2.174999999999932765e+00,-4.944999999999657447e+00,1.339119921237340272e+01,-2.211260753730865503e+00
1.999999999999946709e+01,2.999999998640015431e+00,1.000000000002048672e+01,6.599999999998699129e-01,1.570000000000139728e+00,2.869999999999994998e+03,-2.174999999999899902e+00,-4.944999999999648566e+00,1.338722037268445852e+01,-2.194109911838105553e+00
1.999999999999984723e+01,2.999999998242388166e+00,1.000000000000352962e+01,6.599999999996616351e-01,1.570000000000435936e+00,2.869999999999999545e+03,-2.174999999999839062e+00,-4.944999999998822560e+00,1.339448598095838427e+01,-2.188294759883004925e+00
1.999999999999871036e+01,3.000000001002034899e+00,1.000000000001717559e+01,6.599999999999615063e-01,1.570000000000072005e+00,2.869999999999999545e+03,-2.174999999999872369e+00,-4.944999999999943441e+00,1.338231628768052417e+01,-2.176790714261391813e+00
1.999999999999900524e+01,3.000000004728100578e+00,1.000000000003887379e+01,6.600000000000088018e-01,1.569999999999975859e+00,2.869999999999997726e+03,-2.174999999999992717e+00,-4.945000000000261409e+00,1.338180693685865918e+01,-2.167774057349630912e+00
1.999999999999881695e+01,3.000000002316974612e+00,9.999999999982717824e+00,6.600000000000545430e-01,1.569999999999990736e+00,2.870000000000002274e+03,-2.174999999999942979e+00,-4.945000000000232099e+00,1.338206012777055420e+01,-2.162821660713349914e+00
1.999999999999876366e+01,2.999999999930919259e+00,1.000000000001309708e+01,6.599999999998880096e-01,1.570000000000264517e+00,2.869999999999991360e+03,-2.174999999999842615e+00,-4.944999999999335039e+00,1.338817170553515545e+01,-2.192063905796933998e+00
1.999999999999977263e+01,2.999999999170037235e+00,9.999999999993459454e+00,6.599999999997017142e-01,1.570000000000441931e+00,2.869999999999998636e+03,-2.174999999999922551e+00,-4.944999999998793250e+00,1.338407922420438645e+01,-2.194265657904338696e+00
1.999999999999856115e+01,3.000000003047579966e+00,1.000000000002401457e+01,6.599999999997546718e-01,1.570000000000436824e+00,2.869999999999994998e+03,-2.174999999999819522e+00,-4.944999999998953122e+00,1.338783642782600758e+01,-2.172298368871451224e+00
1.999999999999910827e+01,3.000000000894583074e+00,9.999999999993669064e+00,6.600000000000003642e-01,1.570000000000046692e+00,2.869999999999984539e+03,-2.174999999999886580e+00,-4.944999999999920348e+00,1.339801916498528733e+01,-2.155471385212937907e+00
1.999999999999960920e+01,2.999999999848115717e+00,1.000000000001229949e+01,6.600000000000404432e-01,1.569999999999913243e+00,2.869999999999990905e+03,-2.175000000000017142e+00,-4.945000000000357332e+00,1.337413539174183974e+01,-2.160032418477822791e+00
1.999999999999984368e+01,2.999999999660080352e+00,9.999999999990343724e+00,6.599999999999317524e-01,1.570000000000032481e+00,2.870000000000003638e+03,-2.174999999999970512e+00,-4.944999999999899920e+00,1.338599024466017795e+01,-2.187167081670339464e+00
2.000000000000070344e+01,3.000000000405623535e+00,9.999999999987180033e+00,6.600000000002237410e-01,1.569999999999550200e+00,2.869999999999999545e+03,-2.175000000000161915e+00,-4.945000000001201101e+00,1.339143074956820811e+01,-2.169032492801890033e+00
1.999999999999973710e+01,3.000000002084200368e+00,9.999999999989453769e+00,6.599999999998646949e-01,1.570000000000194129e+00,2.870000000000001364e+03,-2.174999999999942091e+00,-4.944999999999557083e+00,1.338315845263714010e+01,-2.180713669612045269e+00
1.999999999999974776e+01,3.000000001833908581e+00,9.999999999994322764e+00,6.599999999999558442e-01,1.570000000000099094e+00,2.869999999999996817e+03,-2.174999999999978062e+00,-4.944999999999816431e+00,1.338247923436957088e+01,-2.176230750460947494e+00
1.999999999999960565e+01,2.999999999365778880e+00,9.999999999993418598e+00,6.599999999998270583e-01,1.570000000000257412e+00,2.869999999999983629e+03,-2.174999999999869260e+00,-4.944999999999341256e+00,1.339545571118410550e+01,-2.157672501809138943e+00
2.000000000000000000e+01,3.000000002169268321e+00,9.999999999965201170e+00,6.600000000002257394e-01,1.569999999999782014e+00,2.869999999999993634e+03,-2.175000000000030465e+00,-4.945000000000634444e+00,1.337573380948373547e+01,-2.150524660617016970e+00
2.000000000000034461e+01,2.999999999765657233e+00,9.999999999953896435e+00,6.599999999999202061e-01,1.570000000000107976e+00,2.869999999999986812e+03,-2.174999999999981171e+00,-4.944999999999624585e+00,1.338155868343137378e+01,-2.158814256271153198e+00
1.999999999999960565e+01,3.000000000117715615e+00,9.999999999952169816e+00,6.600000000003251044e-01,1.569999999999561302e+00,2.869999999999986812e+03,-2.175000000000010036e+00,-4.945000000001241958e+00,1.339355715311417683e+01,-2.162831885614894034e+00
1.999999999999935696e+01,3.000000000311533910e+00,9.999999999963039343e+00,6.599999999999193179e-01,1.570000000000167040e+00,2.870000000000000909e+03,-2.174999999999901235e+00,-4.944999999999623697e+00,1.338085424264472145e+01,-2.175405258432207223e+00
1.999999999999910472e+01,3.000000001371804004e+00,1.000000000001159961e+01,6.600000000000559863e-01,1.569999999999944329e+00,2.870000000000000455e+03,-2.174999999999946088e+00,-4.945000000000259632e+00,1.338865823443310710e+01,-2.195458310837185678e+00
1.999999999999918288e+01,3.000000001015791007e+00,9.999999999992304822e+00,6.600000000000099121e-01,1.570000000000026930e+00,2.870000000000002728e+03,-2.174999999999949196e+00,-4.944999999999959428e+00,1.336952702532622794e+01,-2.192304955065181193e+00
1.999999999999895905e+01,3.000000001042404385e+00,9.999999999990498267e+00,6.599999999999772715e-01,1.570000000000040918e+00,2.870000000000000000e+03,-2.174999999999884359e+00,-4.944999999999976303e+00,1.336120628416041001e+01,-2.190200763542553997e+00
1.999999999999901590e+01,2.999999999161790942e+00,1.000000000000110489e+01,6.599999999997353539e-01,1.570000000000437490e+00,2.869999999999990905e+03,-2.174999999999823963e+00,-4.944999999998922036e+00,1.337887082221878998e+01,-2.164714520820811394e+00
1.999999999999930722e+01,2.999999998965864112e+00,9.999999999991596056e+00,6.599999999998258371e-01,1.570000000000356000e+00,2.869999999999992724e+03,-2.174999999999854605e+00,-4.944999999999070361e+00,1.336837208993579651e+01,-2.169613680488715612e+00
1.999999999999958789e+01,3.000000000750317586e+00,1.000000000000758327e+01,6.599999999997738787e-01,1.570000000000294715e+00,2.870000000000000000e+03,-2.174999999999922995e+00,-4.944999999999247997e+00,1.336262139223556922e+01,-2.204990993049369408e+00
1.999999999999871036e+01,2.999999997050475375e+00,1.000000000001021405e+01,6.599999999998436007e-01,1.570000000000315143e+00,2.869999999999999091e+03,-2.174999999999842171e+00,-4.944999999999339479e+00,1.337882420546675988e+01,-2.186007732624585920e+00
1.999999999999988276e+01,2.999999998717466365e+00,9.999999999984122923e+00,6.600000000001394751e-01,1.569999999999827756e+00,2.869999999999984993e+03,-2.175000000000036682e+00,-4.945000000000554508e+00,1.338055861313672423e+01,-2.168334486741722245e+00
2.000000000000007105e+01,2.999999997712779809e+00,9.999999999992024158e+00,6.600000000003192202e-01,1.569999999999630580e+00,2.869999999999984993e+03,-2.175000000000087752e+00,-4.945000000001078533e+00,1.338982202064806692e+01,-2.148929772652751868e+00
1.999999999999963762e+01,2.999999997141209462e+00,9.999999999986615151e+00,6.599999999998267253e-01,1.570000000000195683e+00,2.870000000000005002e+03,-2.174999999999983835e+00,-4.944999999999636131e+00,1.336683023910663870e+01,-2.192271322440657588e+00
1.999999999999993960e+01,2.999999999267539241e+00,1.000000000000668798e+01,6.599999999999175415e-01,1.570000000000111307e+00,2.869999999999977717e+03,-2.174999999999972289e+00,-4.944999999999698304e+00,1.338053395216356733e+01,-2.177822935450936637e+00
1.999999999999992184e+01,3.000000004365293016e+00,9.999999999988775201e+00,6.599999999999350830e-01,1.570000000000074447e+00,2.869999999999973625e+03,-2.175000000000002931e+00,-4.944999999999868834e+00,1.337715532216443393e+01,-2.158145917949290560e+00
1.999999999999988631e+01,3.000000002371048691e+00,1.000000000001522871e+01,6.600000000002221867e-01,1.569999999999763807e+00,2.869999999999984084e+03,-2.175000000000056222e+00,-4.945000000000711715e+00,1.337630242324481422e+01,-2.161649442707028523e+00
1.999999999999927525e+01,3.000000000998901850e+00,9.999999999972279952e+00,6.599999999997995248e-01,1.570000000000386420e+00,2.869999999999992269e+03,-2.174999999999834177e+00,-4.944999999999008189e+00,1.337801001742128726e+01,-2.160437513893237238e+00
1.999999999999988276e+01,3.000000003444003305e+00,1.000000000002028955e+01,6.599999999999118794e-01,1.570000000000054241e+00,2.869999999999985903e+03,-2.174999999999974065e+00,-4.944999999999873275e+00,1.340628507755583243e+01,-2.175637573902205801e+00
2.000000000000047251e+01,2.999999995938186892e+00,9.999999999971805664e+00,6.599999999997477884e-01,1.570000000000338236e+00,2.869999999999990450e+03,-2.174999999999965183e+00,-4.944999999999072138e+00,1.338159682084608981e+01,-2.177816628480226058e+00
1.999999999999964828e+01,3.000000001938623484e+00,9.999999999991922905e+00,6.599999999997212541e-01,1.570000000000456364e+00,2.869999999999993634e+03,-2.174999999999843059e+00,-4.944999999998745288e+00,1.338598682521743122e+01,-2.180324263677610119e+00
2.000000000000055422e+01,3.000000003554693428e+00,1.000000000000891376e+01,6.600000000000409983e-01,1.569999999999863283e+00,2.870000000000000455e+03,-2.175000000000078870e+00,-4.945000000000376872e+00,1.338088789382449839e+01,-2.168433367178364879e+00
1.999999999999965894e+01,2.999999999171429454e+00,1.000000000001261036e+01,6.599999999998196198e-01,1.570000000000249862e+00,2.869999999999985903e+03,-2.174999999999924327e+00,-4.944999999999359019e+00,1.339508109828865301e+01,-2.177230502389405853e+00
1.999999999999955591e+01,3.000000000189242844e+00,9.999999999994027888e+00,6.599999999995624922e-01,1.570000000000623119e+00,2.870000000000000455e+03,-2.174999999999799538e+00,-4.944999999998268336e+00,1.338152145824509986e+01,-2.169098767748517620e+00
2.000000000000033040e+01,3.000000001457364895e+00,9.999999999966515674e+00,6.599999999998771294e-01,1.570000000000019380e+00,2.869999999999989086e+03,-2.175000000000000711e+00,-4.945000000000062457e+00,1.337897792319070156e+01,-2.149427633197736220e+00
1.999999999999959854e+01,2.999999998478459329e+00,9.999999999967574382e+00,6.599999999997147038e-01,1.570000000000318030e+00,2.869999999999999545e+03,-2.174999999999904343e+00,-4.944999999999274642e+00,1.336273522325114982e+01,-2.172613500100582407e+00
1.999999999999953815e+01,3.000000003836463147e+00,1.000000000000329159e+01,6.599999999999188738e-01,1.570000000000124629e+00,2.870000000000003183e+03,-2.174999999999966960e+00,-4.944999999999699192e+00,1.337953485139679977e+01,-2.168567989061342516e+00
1.999999999999917932e+01,2.999999998955294345e+00,1.000000000003415401e+01,6.599999999999710543e-01,1.570000000000184803e+00,2.870000000000002728e+03,-2.174999999999883027e+00,-4.944999999999525109e+00,1.339122743596544751e+01,-2.167461377653377319e+00
1.999999999999913669e+01,3.000000000409577705e+00,9.999999999999349853e+00,6.600000000001077227e-01,1.569999999999866391e+00,2.870000000000002274e+03,-2.174999999999998046e+00,-4.945000000000512763e+00,1.337322832989921828e+01,-2.162405824461582693e+00
2.000000000000022027e+01,2.999999999264939543e+00,1.000000000002213874e+01,6.599999999999071054e-01,1.570000000000036700e+00,2.869999999999998181e+03,-2.174999999999994049e+00,-4.944999999999875051e+00,1.337640204307611391e+01,-2.184609407527191571e+00
1.999999999999969802e+01,3.000000002623126161e+00,1.000000000003131895e+01,6.599999999997457900e-01,1.570000000000350227e+00,2.870000000000002274e+03,-2.174999999999910560e+00,-4.944999999999052598e+00,1.338308745506049746e+01,-2.192183861214734630e+00
1.999999999999975842e+01,3.000000001850496201e+00,1.000000000002491696e+01,6.599999999996689626e-01,1.570000000000475460e+00,2.869999999999998181e+03,-2.174999999999883471e+00,-4.944999999998830553e+00,1.337528805711057167e+01,-2.192067020665927402e+00
1.999999999999998579e+01,2.999999997107306360e+00,1.000000000002106404e+01,6.599999999996826183e-01,1.570000000000467022e+00,2.869999999999997726e+03,-2.174999999999925659e+00,-4.944999999998740847e+00,1.336229239806591096e+01,-2.204981666020068065e+00
1.999999999999948486e+01,3.000000000012192025e+00,1.000000000002157208e+01,6.599999999998639177e-01,1.570000000000118190e+00,2.870000000000002728e+03,-2.174999999999962963e+00,-4.944999999999773799e+00,1.337729511159862206e+01,-2.190552681648177735e+00
1.999999999999944578e+01,3.000000000974238468e+00,1.000000000000400391e+01,6.599999999998076294e-01,1.570000000000257634e+00,2.869999999999989996e+03,-2.174999999999951417e+00,-4.944999999999385665e+00,1.338928482590149471e+01,-2.163250398946209074e+00
1.999999999999889155e+01,3.000000002059890480e+00,1.000000000000256151e+01,6.599999999998868994e-01,1.570000000000338236e+00,2.869999999999988631e+03,-2.174999999999828404e+00,-4.944999999999152962e+00,1.337221698001700787e+01,-2.184124922577650008e+00
1.999999999999944933e+01,3.000000000362189834e+00,1.000000000001958966e+01,6.600000000000166844e-01,1.569999999999998508e+00,2.869999999999991815e+03,-2.174999999999959410e+00,-4.945000000000067786e+00,1.338714937292293961e+01,-2.174592633406063236e+00
1.999999999999943512e+01,2.999999999353577973e+00,1.000000000000825828e+01,6.600000000000975087e-01,1.569999999999859286e+00,2.869999999999997272e+03,-2.174999999999980282e+00,-4.945000000000423057e+00,1.338736647353415954e+01,-2.195505767469224434e+00
1.999999999999998579e+01,2.999999998744644625e+00,1.000000000000948042e+01,6.600000000000173506e-01,1.570000000000005613e+00,2.869999999999994088e+03,-2.175000000000022027e+00,-4.945000000000018048e+00,1.338065298602468367e+01,-2.184947679223800954e+00
1.999999999999942801e+01,3.000000001275314521e+00,1.000000000002123635e+01,6.599999999996780664e-01,1.570000000000458584e+00,2.870000000000000909e+03,-2.174999999999929656e+00,-4.944999999998886508e+00,1.335929493736668761e+01,-2.210127853960187849e+00
1.999999999999952749e+01,2.999999999555556851e+00,1.000000000000325073e+01,6.599999999997669953e-01,1.570000000000326246e+00,2.869999999999986358e+03,-2.174999999999970957e+00,-4.944999999999282636e+00,1.336846391010696422e+01,-2.203439958415015276e+00
1.999999999999956302e+01,2.999999998044564631e+00,9.999999999990519584e+00,6.600000000000979528e-01,1.569999999999828422e+00,2.869999999999989086e+03,-2.175000000000046452e+00,-4.945000000000655760e+00,1.336894030444041448e+01,-2.164536490903717247e+00
1.999999999999929301e+01,2.999999999291142583e+00,1.000000000000810729e+01,6.599999999998056310e-01,1.570000000000343121e+00,2.869999999999974534e+03,-2.174999999999902123e+00,-4.944999999999135198e+00,1.336038748753452765e+01,-2.197427903643175195e+00
1.999999999999862865e+01,2.999999997475158775e+00,1.000000000001939782e+01,6.599999999997498978e-01,1.570000000000521645e+00,2.869999999999971806e+03,-2.174999999999811973e+00,-4.944999999998709761e+00,1.337247232653840001e+01,-2.184346382002022580e+00
1.999999999999960920e+01,3.000000001191902133e+00,9.999999999972606801e+00,6.600000000003368728e-01,1.569999999999565299e+00,2.870000000000000909e+03,-2.175000000000043343e+00,-4.945000000001264162e+00,1.337884394484810002e+01,-2.149519389659560353e+00
1.999999999999929656e+01,2.999999999762296365e+00,1.000000000001248956e+01,6.599999999998685807e-01,1.570000000000241203e+00,2.869999999999980446e+03,-2.174999999999883471e+00,-4.944999999999389217e+00,1.338694932432029105e+01,-2.184130230429445874e+00
2.000000000000036238e+01,2.999999997181801881e+00,9.999999999981953991e+00,6.600000000001057243e-01,1.569999999999707185e+00,2.869999999999990450e+03,-2.175000000000090861e+00,-4.945000000000825402e+00,1.337919635815772779e+01,-2.167968241351571290e+00
2.000000000000015632e+01,2.999999999689942687e+00,9.999999999998051337e+00,6.599999999997385736e-01,1.570000000000489004e+00,2.869999999999965439e+03,-2.174999999999867928e+00,-4.944999999998576534e+00,1.339560736738198266e+01,-2.173948093463695663e+00
1.999999999999947065e+01,3.000000000103111297e+00,1.000000000002203215e+01,6.600000000001446931e-01,1.569999999999919460e+00,2.870000000000001364e+03,-2.174999999999975397e+00,-4.945000000000234763e+00,1.338991229600838295e+01,-2.187187927036302604e+00
1.999999999999963407e+01,3.000000001315793696e+00,9.999999999993198330e+00,6.600000000001431388e-01,1.569999999999740270e+00,2.869999999999996362e+03,-2.175000000000050893e+00,-4.945000000000706386e+00,1.337689503826322124e+01,-2.170124378444933555e+00
1.999999999999961275e+01,3.000000003440742802e+00,9.999999999995541344e+00,6.600000000001101652e-01,1.569999999999840634e+00,2.869999999999986358e+03,-2.175000000000036238e+00,-4.945000000000560725e+00,1.337766542620338583e+01,-2.159363802058908544e+00
1.999999999999926459e+01,3.000000000871979822e+00,1.000000000000074962e+01,6.600000000000922906e-01,1.569999999999917017e+00,2.869999999999989541e+03,-2.174999999999949640e+00,-4.945000000000243645e+00,1.338367203455987386e+01,-2.184642204634529961e+00
1.999999999999954170e+01,3.000000002295120094e+00,1.000000000001243983e+01,6.600000000000664224e-01,1.569999999999953433e+00,2.869999999999984993e+03,-2.174999999999983391e+00,-4.945000000000078444e+00,1.338772958718536898e+01,-2.184486802675824624e+00
1.999999999999912603e+01,3.000000001829966401e+00,1.000000000000432188e+01,6.599999999998067413e-01,1.570000000000324691e+00,2.869999999999980446e+03,-2.174999999999888800e+00,-4.944999999999149409e+00,1.337256253506951253e+01,-2.204106357203006183e+00
1.999999999999890932e+01,3.000000001860664067e+00,1.000000000001282174e+01,6.599999999998323874e-01,1.570000000000303375e+00,2.869999999999989996e+03,-2.174999999999883027e+00,-4.944999999999210694e+00,1.339226793566614404e+01,-2.184880357381852711e+00
1.999999999999986144e+01,3.000000000580159476e+00,1.000000000003795364e+01,6.600000000000629807e-01,1.569999999999878826e+00,2.870000000000003183e+03,-2.175000000000029576e+00,-4.945000000000322693e+00,1.338354982919872604e+01,-2.196528841580837721e+00
1.999999999999964473e+01,3.000000001201645450e+00,9.999999999998653522e+00,6.600000000001018385e-01,1.569999999999844631e+00,2.870000000000001819e+03,-2.175000000000024691e+00,-4.945000000000471907e+00,1.338012645756028718e+01,-2.175993665136197297e+00
2.000000000000027356e+01,2.999999999814022988e+00,9.999999999966107112e+00,6.599999999999693889e-01,1.570000000000022933e+00,2.869999999999990905e+03,-2.174999999999988720e+00,-4.944999999999886597e+00,1.337621307846647589e+01,-2.181711701478431742e+00
1.999999999999850431e+01,3.000000003246259705e+00,1.000000000001800160e+01,6.599999999999975886e-01,1.570000000000186358e+00,2.869999999999985903e+03,-2.174999999999840394e+00,-4.944999999999606821e+00,1.340547898297800522e+01,-2.170633735511228402e+00
1.999999999999955236e+01,3.000000000880944206e+00,9.999999999987622346e+00,6.599999999999339728e-01,1.570000000000112195e+00,2.869999999999991815e+03,-2.174999999999940314e+00,-4.944999999999748042e+00,1.338801138268678059e+01,-2.159945513808266160e+00
2.000000000000006750e+01,2.999999998959124614e+00,9.999999999960579089e+00,6.599999999996252198e-01,1.570000000000500773e+00,2.869999999999988177e+03,-2.174999999999841727e+00,-4.944999999998674234e+00,1.337002500437147745e+01,-2.187836597270649275e+00
2.000000000000014921e+01,2.999999999431860243e+00,9.999999999959815256e+00,6.599999999997870903e-01,1.570000000000222329e+00,2.869999999999975444e+03,-2.174999999999885247e+00,-4.944999999999380336e+00,1.339757370231641609e+01,-2.160624783050346664e+00
2.000000000000049383e+01,3.000000002610659244e+00,1.000000000000483169e+01,6.600000000000403322e-01,1.570000000000007834e+00,2.869999999999996817e+03,-2.174999999999960298e+00,-4.944999999999850182e+00,1.338683338121046518e+01,-2.170313216122796707e+00
1.999999999999987921e+01,3.000000000334727801e+00,1.000000000002025580e+01,6.600000000002088640e-01,1.569999999999782458e+00,2.869999999999989541e+03,-2.175000000000043343e+00,-4.945000000000650431e+00,1.338156310524454540e+01,-2.182149171888336348e+00
2.000000000000008882e+01,2.999999999659067829e+00,1.000000000001073452e+01,6.600000000000257883e-01,1.569999999999888596e+00,2.869999999999991815e+03,-2.175000000000026024e+00,-4.945000000000301377e+00,1.336922667146112431e+01,-2.184045434253888196e+00
1.999999999999926814e+01,3.000000001978754050e+00,1.000000000000878053e+01,6.599999999998529265e-01,1.570000000000228546e+00,2.870000000000001364e+03,-2.174999999999908784e+00,-4.944999999999459384e+00,1.338452479715804344e+01,-2.170749541515895942e+00
1.999999999999971223e+01,2.999999999722484212e+00,1.000000000001853451e+01,6.600000000000250111e-01,1.569999999999919460e+00,2.870000000000002274e+03,-2.174999999999993161e+00,-4.945000000000280060e+00,1.336905951141427984e+01,-2.182698658634443234e+00
1.999999999999900879e+01,3.000000001205214151e+00,1.000000000004149392e+01,6.599999999999004441e-01,1.570000000000148388e+00,2.869999999999994543e+03,-2.174999999999919886e+00,-4.944999999999704521e+00,1.340556776253593974e+01,-2.181217265805910355e+00
1.999999999999947065e+01,3.000000003614316846e+00,1.000000000002378542e+01,6.600000000002954614e-01,1.569999999999504237e+00,2.870000000000005912e+03,-2.175000000000061995e+00,-4.945000000001477325e+00,1.339404008094907539e+01,-2.167557727092819242e+00
1.999999999999905498e+01,3.000000002552265066e+00,1.000000000001852207e+01,6.600000000002592682e-01,1.569999999999672768e+00,2.870000000000001819e+03,-2.175000000000015365e+00,-4.945000000001047447e+00,1.337984008971718453e+01,-2.180125531038604514e+00
1.999999999999949907e+01,3.000000000768780595e+00,9.999999999999756639e+00,6.599999999999690559e-01,1.570000000000028928e+00,2.869999999999992269e+03,-2.174999999999982947e+00,-4.945000000000075779e+00,1.338624548461558383e+01,-2.164372906088953830e+00
1.999999999999907274e+01,3.000000004259242736e+00,1.000000000002925127e+01,6.600000000004027090e-01,1.569999999999581286e+00,2.869999999999995907e+03,-2.175000000000005151e+00,-4.945000000001151363e+00,1.339424628005769158e+01,-2.158685234024562138e+00
2.000000000000069278e+01,3.000000000458262317e+00,1.000000000000142641e+01,6.599999999998351630e-01,1.570000000000255413e+00,2.869999999999966803e+03,-2.174999999999995826e+00,-4.944999999999142304e+00,1.338625181763277894e+01,-2.182231584286682846e+00
1.999999999999979750e+01,3.000000003074189348e+00,1.000000000000108535e+01,6.599999999999267564e-01,1.570000000000130846e+00,2.869999999999968168e+03,-2.174999999999966072e+00,-4.944999999999597939e+00,1.340541772559506484e+01,-2.161967628312325473e+00
2.000000000000131095e+01,2.999999999140374740e+00,9.999999999991496580e+00,6.600000000002431699e-01,1.569999999999655671e+00,2.869999999999997726e+03,-2.175000000000173461e+00,-4.945000000000940865e+00,1.337646512010348943e+01,-2.136906991881818652e+00
1.999999999999970868e+01,3.000000000412225365e+00,9.999999999985796251e+00,6.600000000003150014e-01,1.569999999999645235e+00,2.869999999999989541e+03,-2.175000000000039346e+00,-4.945000000000990603e+00,1.339287343923038165e+01,-2.175789939692399422e+00
1.999999999999986500e+01,3.000000001242462133e+00,1.000000000000721556e+01,6.599999999999206501e-01,1.570000000000017382e+00,2.869999999999996362e+03,-2.174999999999979394e+00,-4.945000000000025153e+00,1.337658321012832374e+01,-2.209004179826131065e+00
2.000000000000004619e+01,3.000000002333298887e+00,1.000000000001003642e+01,6.600000000000012523e-01,1.569999999999853957e+00,2.870000000000003183e+03,-2.175000000000057554e+00,-4.945000000000509210e+00,1.338129247328834559e+01,-2.177592881919792500e+00
1.999999999999891998e+01,2.999999998145979951e+00,1.000000000001917400e+01,6.600000000000283418e-01,1.570000000000034479e+00,2.870000000000005002e+03,-2.174999999999955413e+00,-4.945000000000034035e+00,1.337516958682665802e+01,-2.185551318693057965e+00
1.999999999999930722e+01,2.999999999104721038e+00,1.000000000000798472e+01,6.600000000000633138e-01,1.569999999999884821e+00,2.869999999999993179e+03,-2.174999999999998490e+00,-4.945000000000420393e+00,1.338219084244127544e+01,-2.198541603685920443e+00
2.000000000000035527e+01,2.999999998652782995e+00,1.000000000000102141e+01,6.599999999999841549e-01,1.569999999999842188e+00,2.870000000000001364e+03,-2.175000000000104183e+00,-4.945000000000561613e+00,1.337087807459476885e+01,-2.193215093571184493e+00
1.999999999999923617e+01,3.000000003445514096e+00,1.000000000000233058e+01,6.600000000001345901e-01,1.569999999999849960e+00,2.870000000000000455e+03,-2.175000000000002931e+00,-4.945000000000548290e+00,1.338313910794371964e+01,-2.190336899609896193e+00
1.999999999999979394e+01,2.999999999664677119e+00,1.000000000001490008e+01,6.599999999997867572e-01,1.570000000000255636e+00,2.869999999999994543e+03,-2.174999999999960743e+00,-4.944999999999396323e+00,1.337973889880166034e+01,-2.193857105233657734e+00
1.999999999999983302e+01,2.999999999735983636e+00,1.000000000001718981e+01,6.599999999997635536e-01,1.570000000000186580e+00,2.869999999999991815e+03,-2.174999999999982503e+00,-4.944999999999543761e+00,1.337660443009371924e+01,-2.208710394642077635e+00
1.999999999999993605e+01,3.000000000385791843e+00,1.000000000001017852e+01,6.599999999998399369e-01,1.570000000000118190e+00,2.869999999999988177e+03,-2.175000000000017586e+00,-4.944999999999807550e+00,1.336876247113919547e+01,-2.193404759700160245e+00
1.999999999999983658e+01,3.000000000361012109e+00,1.000000000000707701e+01,6.599999999998241718e-01,1.570000000000192131e+00,2.869999999999994543e+03,-2.174999999999996714e+00,-4.944999999999589058e+00,1.337369913584941017e+01,-2.205307009731426238e+00
1.999999999999976552e+01,3.000000001631658808e+00,1.000000000002998846e+01,6.599999999999418554e-01,1.570000000000087992e+00,2.869999999999998181e+03,-2.175000000000025580e+00,-4.944999999999778240e+00,1.337171142756219666e+01,-2.177112976962456425e+00
1.999999999999899813e+01,2.999999998931118572e+00,1.000000000002183320e+01,6.599999999997503419e-01,1.570000000000476126e+00,2.869999999999983174e+03,-2.174999999999824851e+00,-4.944999999998736406e+00,1.340106803324854035e+01,-2.167867897904679264e+00
2.000000000000005329e+01,3.000000001402754801e+00,9.999999999997442046e+00,6.600000000000212363e-01,1.569999999999914353e+00,2.869999999999994998e+03,-2.174999999999993161e+00,-4.945000000000218776e+00,1.339566717598513534e+01,-2.157104953075842158e+00
1.999999999999908340e+01,2.999999995659975660e+00,9.999999999996058264e+00,6.599999999998306111e-01,1.570000000000159490e+00,2.869999999999998636e+03,-2.174999999999922107e+00,-4.944999999999744489e+00,1.339400844787412836e+01,-2.179700950271356685e+00
1.999999999999937117e+01,2.999999999849477295e+00,1.000000000001210942e+01,6.599999999998460432e-01,1.570000000000278506e+00,2.870000000000008640e+03,-2.174999999999907008e+00,-4.944999999999279083e+00,1.338526868407541670e+01,-2.187698509163114924e+00
1.999999999999946354e+01,3.000000001766397251e+00,9.999999999995500488e+00,6.599999999999428546e-01,1.570000000000008944e+00,2.869999999999995907e+03,-2.174999999999973621e+00,-4.945000000000127294e+00,1.338500462910519850e+01,-2.177821679988184211e+00
2.000000000000006040e+01,2.999999998917327826e+00,1.000000000002046541e+01,6.600000000003860556e-01,1.569999999999424078e+00,2.869999999999980446e+03,-2.175000000000107736e+00,-4.945000000001555485e+00,1.338718109452199023e+01,-2.195885025775624833e+00
2.000000000000009237e+01,2.999999999426023578e+00,1.000000000001949196e+01,6.600000000000173506e-01,1.569999999999786899e+00,2.870000000000005457e+03,-2.175000000000104183e+00,-4.945000000000680629e+00,1.337520634578959289e+01,-2.197154683028970545e+00
1.999999999999933920e+01,2.999999998002577328e+00,1.000000000000907185e+01,6.600000000000116884e-01,1.570000000000009166e+00,2.869999999999999091e+03,-2.174999999999937206e+00,-4.945000000000042029e+00,1.338271502882812491e+01,-2.173022414146088543e+00
1.999999999999963407e+01,3.000000001656322635e+00,9.999999999998189892e+00,6.599999999998997779e-01,1.570000000000111307e+00,2.869999999999990450e+03,-2.174999999999979838e+00,-4.944999999999864393e+00,1.338755138433359626e+01,-2.176575598828329294e+00
2.000000000000004974e+01,2.999999998004326152e+00,9.999999999986425081e+00,6.600000000001172706e-01,1.569999999999746487e+00,2.869999999999994543e+03,-2.175000000000021139e+00,-4.945000000000716156e+00,1.338841017949127377e+01,-2.165650550309980105e+00
2.000000000000043343e+01,2.999999995925058727e+00,9.999999999999376499e+00,6.599999999999724976e-01,1.569999999999888596e+00,2.869999999999985448e+03,-2.175000000000057554e+00,-4.945000000000290719e+00,1.338534711249763554e+01,-2.176437315166665609e+00
2.000000000000002487e+01,2.999999999667677830e+00,9.999999999990910382e+00,6.600000000000167955e-01,1.569999999999926787e+00,2.869999999999988177e+03,-2.175000000000024691e+00,-4.945000000000238316e+00,1.337468658699049229e+01,-2.171466648227812435e+00
1.999999999999871036e+01,3.000000000377575748e+00,1.000000000004018652e+01,6.600000000000736389e-01,1.570000000000047358e+00,2.870000000000000455e+03,-2.174999999999904343e+00,-4.944999999999937224e+00,1.340182780869351475e+01,-2.181364452407253740e+00
1.999999999999979394e+01,2.999999998695111803e+00,9.999999999997447375e+00,6.599999999998719113e-01,1.570000000000293161e+00,2.869999999999983629e+03,-2.174999999999884359e+00,-4.944999999999140528e+00,1.339248242987836335e+01,-2.195523988825164530e+00
2.000000000000031264e+01,2.999999996491124588e+00,1.000000000001376854e+01,6.599999999997744338e-01,1.570000000000171925e+00,2.869999999999996362e+03,-2.174999999999992717e+00,-4.944999999999577511e+00,1.337061563713481505e+01,-2.183969877519932989e+00
2.000000000000070699e+01,2.999999996354255849e+00,9.999999999994447109e+00,6.600000000001816636e-01,1.569999999999659890e+00,2.869999999999982720e+03,-2.175000000000130829e+00,-4.945000000000901785e+00,1.339320053506840402e+01,-2.186074440686887055e+00
1.999999999999949551e+01,2.999999998852533878e+00,9.999999999990416555e+00,6.600000000001314815e-01,1.569999999999836859e+00,2.869999999999982265e+03,-2.174999999999974509e+00,-4.945000000000493223e+00,1.339346577879782529e+01,-2.140347364176440337e+00
1.999999999999977263e+01,2.999999999854383148e+00,1.000000000001380052e+01,6.599999999996227773e-01,1.570000000000498996e+00,2.870000000000008185e+03,-2.174999999999875477e+00,-4.944999999998629825e+00,1.337769739034636984e+01,-2.177418985543684737e+00
1.999999999999964473e+01,2.999999997915996808e+00,1.000000000001844924e+01,6.599999999999678346e-01,1.570000000000035145e+00,2.870000000000002274e+03,-2.174999999999989164e+00,-4.944999999999870610e+00,1.338202330233352022e+01,-2.191468813764453127e+00
1.999999999999966960e+01,3.000000001330101806e+00,9.999999999994990674e+00,6.599999999998251710e-01,1.570000000000313811e+00,2.870000000000000000e+03,-2.174999999999925659e+00,-4.944999999999217799e+00,1.338196592971174859e+01,-2.193829955964671008e+00
2.000000000000041211e+01,3.000000000384553722e+00,9.999999999986876276e+00,6.599999999997160360e-01,1.570000000000305596e+00,2.869999999999987267e+03,-2.174999999999915445e+00,-4.944999999999031282e+00,1.339060744943882320e+01,-2.183858472001171780e+00
1.999999999999980815e+01,3.000000000333162387e+00,1.000000000002005507e+01,6.599999999993888533e-01,1.570000000000836726e+00,2.870000000000004093e+03,-2.174999999999798206e+00,-4.944999999997603091e+00,1.339893855152047308e+01,-2.187070450204751104e+00
1.999999999999985789e+01,2.999999997977008448e+00,1.000000000000580158e+01,6.599999999997715472e-01,1.570000000000344453e+00,2.869999999999993634e+03,-2.174999999999913225e+00,-4.944999999999095230e+00,1.338967435468052258e+01,-2.177898098567858653e+00
1.999999999999911893e+01,2.999999998411339686e+00,9.999999999986050270e+00,6.599999999995203037e-01,1.570000000000677520e+00,2.870000000000000000e+03,-2.174999999999774669e+00,-4.944999999998233697e+00,1.338302721647417037e+01,-2.170145027448322050e+00
1.999999999999915090e+01,3.000000001982696674e+00,1.000000000000408207e+01,6.599999999999378586e-01,1.570000000000127738e+00,2.870000000000004547e+03,-2.174999999999938538e+00,-4.944999999999772022e+00,1.338417465298200248e+01,-2.147158984374566426e+00
1.999999999999928590e+01,3.000000002242943165e+00,9.999999999986515675e+00,6.600000000000497691e-01,1.570000000000022045e+00,2.870000000000003183e+03,-2.174999999999958966e+00,-4.945000000000034923e+00,1.338193221343382611e+01,-2.169787040399344669e+00
2.000000000000017408e+01,2.999999999680510232e+00,9.999999999995836220e+00,6.599999999999754952e-01,1.569999999999919016e+00,2.870000000000000909e+03,-2.175000000000063771e+00,-4.945000000000291607e+00,1.337678837336261317e+01,-2.163375639812891826e+00
1.999999999999916511e+01,3.000000000041974424e+00,1.000000000001703526e+01,6.600000000000274536e-01,1.570000000000176366e+00,2.869999999999989996e+03,-2.174999999999853273e+00,-4.944999999999430962e+00,1.340111100236791941e+01,-2.157706416005178429e+00
1.999999999999936762e+01,3.000000001399694582e+00,1.000000000002225242e+01,6.599999999999001110e-01,1.570000000000330020e+00,2.869999999999979991e+03,-2.174999999999857714e+00,-4.944999999999035722e+00,1.340085987673110957e+01,-2.173400918979755847e+00
1.999999999999992184e+01,2.999999999918239180e+00,1.000000000001675815e+01,6.599999999996797317e-01,1.570000000000431273e+00,2.869999999999996817e+03,-2.174999999999885691e+00,-4.944999999998760387e+00,1.339683528727838713e+01,-2.173995209561806252e+00
1.999999999999963407e+01,2.999999998458462436e+00,1.000000000001621103e+01,6.600000000000647571e-01,1.569999999999940998e+00,2.869999999999981810e+03,-2.174999999999994049e+00,-4.945000000000113971e+00,1.340661431155036531e+01,-2.184587347904918708e+00
2.000000000000031974e+01,3.000000000024659386e+00,9.999999999998539835e+00,6.600000000000120215e-01,1.569999999999982965e+00,2.869999999999988177e+03,-2.174999999999991829e+00,-4.944999999999969198e+00,1.340485416109464367e+01,-2.162717071569299154e+00
1.999999999999939959e+01,3.000000001952638051e+00,1.000000000001939782e+01,6.599999999997138156e-01,1.570000000000487894e+00,2.869999999999996362e+03,-2.174999999999819078e+00,-4.944999999998611173e+00,1.341282070918867397e+01,-2.166910087132407625e+00
1.999999999999941380e+01,3.000000001313165576e+00,1.000000000002136247e+01,6.599999999997702149e-01,1.570000000000421059e+00,2.870000000000000000e+03,-2.174999999999855493e+00,-4.944999999998747953e+00,1.340525340659694997e+01,-2.175110706818905282e+00
1.999999999999957723e+01,3.000000000503932451e+00,9.999999999980937915e+00,6.600000000002003153e-01,1.569999999999623252e+00,2.869999999999999545e+03,-2.175000000000070433e+00,-4.945000000001210871e+00,1.338532125806319861e+01,-2.142658568907000571e+00
2.000000000000003908e+01,2.999999999249706839e+00,9.999999999983799626e+00,6.600000000000066924e-01,1.569999999999968532e+00,2.870000000000000000e+03,-2.174999999999993161e+00,-4.945000000000164597e+00,1.337180293240268725e+01,-2.173006091120141203e+00
1.999999999999977618e+01,3.000000001306095676e+00,9.999999999991098676e+00,6.599999999998747979e-01,1.570000000000059570e+00,2.869999999999967713e+03,-2.174999999999902123e+00,-4.944999999999826201e+00,1.339321094722521543e+01,-2.177515895374596333e+00
1.999999999999877787e+01,3.000000000423073132e+00,1.000000000001695177e+01,6.599999999998591438e-01,1.570000000000151719e+00,2.870000000000001364e+03,-2.174999999999934097e+00,-4.944999999999826201e+00,1.339099793955008977e+01,-2.152017369848027162e+00
1.999999999999887734e+01,2.999999999833964814e+00,9.999999999999371170e+00,6.599999999997624434e-01,1.570000000000369100e+00,2.869999999999997726e+03,-2.174999999999844391e+00,-4.944999999999045492e+00,1.338785735279276068e+01,-2.189582197113492334e+00
1.999999999999864286e+01,2.999999998557736358e+00,9.999999999999847233e+00,6.599999999996702948e-01,1.570000000000521423e+00,2.869999999999997726e+03,-2.174999999999729816e+00,-4.944999999998680451e+00,1.339367863501223077e+01,-2.181948236941538610e+00
2.000000000000035172e+01,2.999999996521540702e+00,9.999999999992441602e+00,6.599999999997621103e-01,1.570000000000306706e+00,2.870000000000005002e+03,-2.174999999999951417e+00,-4.944999999999108553e+00,1.338278505643963179e+01,-2.193638221470544547e+00
1.999999999999929301e+01,3.000000000693736624e+00,9.999999999990055954e+00,6.600000000000885159e-01,1.569999999999920792e+00,2.869999999999993179e+03,-2.174999999999963851e+00,-4.945000000000288942e+00,1.339555490146938155e+01,-2.154226676241413951e+00
1.999999999999899103e+01,3.000000000338373329e+00,1.000000000001124256e+01,6.599999999998511502e-01,1.570000000000232987e+00,2.869999999999968168e+03,-2.174999999999877254e+00,-4.944999999999454054e+00,1.340746091848814281e+01,-2.170094293726691603e+00
1.999999999999915801e+01,3.000000001159374374e+00,9.999999999999891642e+00,6.599999999999693889e-01,1.570000000000213225e+00,2.869999999999970441e+03,-2.174999999999860822e+00,-4.944999999999392770e+00,1.341211482705714175e+01,-2.175654663914983189e+00
1.999999999999905498e+01,3.000000001618743362e+00,1.000000000001081979e+01,6.599999999998266142e-01,1.570000000000379536e+00,2.870000000000001819e+03,-2.174999999999864375e+00,-4.944999999999054374e+00,1.339139369223291531e+01,-2.184657430988504956e+00
1.999999999999927525e+01,2.999999999072465506e+00,9.999999999987878141e+00,6.599999999999420774e-01,1.570000000000217000e+00,2.869999999999980901e+03,-2.174999999999833733e+00,-4.944999999999350138e+00,1.340324435539147352e+01,-2.187016101322194039e+00
1.999999999999980460e+01,2.999999999249001625e+00,1.000000000000841993e+01,6.599999999997755440e-01,1.570000000000255191e+00,2.869999999999985903e+03,-2.174999999999962963e+00,-4.944999999999398987e+00,1.340403644544838535e+01,-2.167597913687655087e+00
1.999999999999954525e+01,2.999999997808923791e+00,9.999999999996321165e+00,6.599999999995957989e-01,1.570000000000569829e+00,2.869999999999969532e+03,-2.174999999999850608e+00,-4.944999999998534790e+00,1.338803713273483709e+01,-2.194836713028045061e+00
1.999999999999990408e+01,2.999999997445430111e+00,9.999999999976319387e+00,6.599999999999863753e-01,1.569999999999950324e+00,2.869999999999969532e+03,-2.174999999999973177e+00,-4.945000000000165485e+00,1.340238019671254222e+01,-2.192404655440297834e+00
1.999999999999983302e+01,2.999999998292662173e+00,9.999999999985691446e+00,6.599999999997543387e-01,1.570000000000211227e+00,2.869999999999975444e+03,-2.174999999999951417e+00,-4.944999999999474483e+00,1.339584844290897969e+01,-2.190423341749119679e+00
1.999999999999989342e+01,2.999999996194136376e+00,9.999999999994843236e+00,6.599999999998813482e-01,1.570000000000127516e+00,2.869999999999968622e+03,-2.174999999999963851e+00,-4.944999999999671658e+00,1.340515439170227374e+01,-2.182299927329896416e+00
1.999999999999909406e+01,2.999999998018014757e+00,9.999999999993150368e+00,6.599999999999371925e-01,1.570000000000102647e+00,2.869999999999989541e+03,-2.174999999999899902e+00,-4.944999999999795115e+00,1.340450194192646727e+01,-2.184336632429812131e+00
1.999999999999937117e+01,2.999999999395026595e+00,1.000000000001097611e+01,6.600000000000280087e-01,1.569999999999950990e+00,2.869999999999988631e+03,-2.174999999999920330e+00,-4.945000000000157492e+00,1.339107360733203222e+01,-2.178547940959377982e+00
1.999999999999956302e+01,2.999999997216062475e+00,9.999999999985528021e+00,6.599999999998505951e-01,1.570000000000202345e+00,2.869999999999984993e+03,-2.174999999999905675e+00,-4.944999999999546425e+00,1.337562919871623990e+01,-2.192332319957439157e+00
1.999999999999912959e+01,2.999999998221650532e+00,1.000000000000176392e+01,6.600000000000230127e-01,1.570000000000026041e+00,2.869999999999984084e+03,-2.174999999999917222e+00,-4.945000000000071338e+00,1.338492961968651684e+01,-2.184803773963718942e+00
1.999999999999981526e+01,2.999999998698303916e+00,1.000000000000747669e+01,6.599999999999824896e-01,1.570000000000026485e+00,2.869999999999975898e+03,-2.174999999999982059e+00,-4.944999999999912355e+00,1.339604894703257010e+01,-2.163532465632395763e+00
1.999999999999925748e+01,2.999999998496089226e+00,1.000000000001372058e+01,6.599999999996233324e-01,1.570000000000624896e+00,2.869999999999983174e+03,-2.174999999999812861e+00,-4.944999999998279883e+00,1.337380272191715846e+01,-2.209848779038814381e+00
1.999999999999962697e+01,3.000000000246476617e+00,1.000000000002175327e+01,6.599999999997707700e-01,1.570000000000309148e+00,2.869999999999985448e+03,-2.174999999999930989e+00,-4.944999999999180496e+00,1.337613219496681616e+01,-2.193514621539051301e+00
1.999999999999973710e+01,2.999999997003148788e+00,1.000000000001823608e+01,6.599999999996912781e-01,1.570000000000536744e+00,2.869999999999994543e+03,-2.174999999999855937e+00,-4.944999999998483275e+00,1.337649335892001368e+01,-2.208774263204451582e+00
1.999999999999917222e+01,2.999999999891560520e+00,1.000000000002009592e+01,6.599999999997431255e-01,1.570000000000486784e+00,2.869999999999991815e+03,-2.174999999999863487e+00,-4.944999999998682227e+00,1.337563278123543853e+01,-2.187256754791861546e+00
1.999999999999892353e+01,2.999999997449187550e+00,9.999999999991175059e+00,6.599999999998028555e-01,1.570000000000230322e+00,2.869999999999975898e+03,-2.174999999999885691e+00,-4.944999999999579288e+00,1.337522520754858313e+01,-2.183341276453307778e+00
1.999999999999874589e+01,2.999999998878409624e+00,1.000000000001420730e+01,6.599999999999706102e-01,1.570000000000167928e+00,2.869999999999974989e+03,-2.174999999999863043e+00,-4.944999999999625473e+00,1.339531655811789257e+01,-2.188450147376221899e+00
1.999999999999882760e+01,2.999999997374206195e+00,1.000000000002300382e+01,6.599999999998785727e-01,1.570000000000227214e+00,2.869999999999980446e+03,-2.174999999999893685e+00,-4.944999999999514451e+00,1.338315452547509388e+01,-2.190608917389778476e+00
1.999999999999936406e+01,3.000000002889334105e+00,1.000000000003230127e+01,6.599999999999649480e-01,1.570000000000126184e+00,2.869999999999974534e+03,-2.174999999999912337e+00,-4.944999999999631690e+00,1.339655319023627555e+01,-2.175209392749080539e+00
1.999999999999940314e+01,2.999999999359993286e+00,1.000000000001196909e+01,6.599999999999296429e-01,1.570000000000083107e+00,2.869999999999974989e+03,-2.174999999999962075e+00,-4.944999999999854623e+00,1.339205597175999785e+01,-2.185882470423984536e+00
1.999999999999968381e+01,3.000000000489069674e+00,1.000000000002605383e+01,6.599999999998235056e-01,1.570000000000370877e+00,2.869999999999989541e+03,-2.174999999999915001e+00,-4.944999999998874962e+00,1.338816845721603066e+01,-2.175032730897760391e+00
1.999999999999945643e+01,3.000000002132245491e+00,1.000000000002254374e+01,6.600000000001062794e-01,1.569999999999891038e+00,2.869999999999980446e+03,-2.174999999999971845e+00,-4.945000000000323581e+00,1.339688118846906484e+01,-2.163871837888624139e+00
1.999999999999918288e+01,3.000000002323182979e+00,1.000000000001635847e+01,6.599999999999410782e-01,1.570000000000116858e+00,2.870000000000003638e+03,-2.174999999999925215e+00,-4.944999999999737383e+00,1.339990833919796742e+01,-2.168701531522602810e+00
1.999999999999938893e+01,2.999999999700059039e+00,1.000000000001113598e+01,6.599999999997657740e-01,1.570000000000195906e+00,2.869999999999994088e+03,-2.174999999999960743e+00,-4.944999999999630802e+00,1.338697775334316376e+01,-2.171484979585039721e+00
1.999999999999996092e+01,3.000000002707132740e+00,9.999999999990109245e+00,6.600000000000273426e-01,1.569999999999906137e+00,2.870000000000004547e+03,-2.175000000000032685e+00,-4.945000000000320028e+00,1.337282783441112066e+01,-2.166542004806636168e+00
2.000000000000012434e+01,3.000000001203180222e+00,9.999999999997939426e+00,6.600000000000755263e-01,1.569999999999792228e+00,2.869999999999987267e+03,-2.175000000000070433e+00,-4.945000000000607798e+00,1.338781060695998093e+01,-2.146811127597300750e+00
1.999999999999939249e+01,3.000000001717405329e+00,1.000000000001585221e+01,6.599999999997108180e-01,1.570000000000297824e+00,2.870000000000002274e+03,-2.174999999999932321e+00,-4.944999999999340368e+00,1.337704440759133817e+01,-2.173509459268553545e+00
1.999999999999931788e+01,3.000000002279998412e+00,9.999999999997713829e+00,6.599999999998606981e-01,1.570000000000192131e+00,2.870000000000006821e+03,-2.174999999999927880e+00,-4.944999999999573959e+00,1.337556545678620168e+01,-2.164054978363364690e+00
1.999999999999919353e+01,3.000000001149391249e+00,1.000000000002512834e+01,6.599999999996527533e-01,1.570000000000522089e+00,2.869999999999992724e+03,-2.174999999999851497e+00,-4.944999999998629825e+00,1.339972939252209017e+01,-2.176972341666633781e+00
1.999999999999998934e+01,3.000000000590727911e+00,9.999999999979642951e+00,6.599999999993174660e-01,1.570000000000870699e+00,2.869999999999993179e+03,-2.174999999999789768e+00,-4.944999999997677698e+00,1.336643636675913527e+01,-2.166073920643087014e+00
1.999999999999896261e+01,3.000000003963862127e+00,9.999999999981236343e+00,6.600000000000200151e-01,1.570000000000021378e+00,2.870000000000000455e+03,-2.174999999999924771e+00,-4.945000000000138840e+00,1.338628070944298720e+01,-2.148571878459563322e+00
1.999999999999938538e+01,3.000000002019145295e+00,1.000000000000014388e+01,6.599999999997494537e-01,1.570000000000448148e+00,2.869999999999996817e+03,-2.174999999999871481e+00,-4.944999999998800355e+00,1.338031320905390587e+01,-2.168821761249684510e+00
1.999999999999997158e+01,2.999999997754230652e+00,9.999999999972672526e+00,6.600000000000081357e-01,1.569999999999942553e+00,2.869999999999994543e+03,-2.174999999999994493e+00,-4.945000000000229434e+00,1.336997338965483628e+01,-2.179957371586366932e+00
1.999999999999929656e+01,2.999999999769684234e+00,1.000000000000011902e+01,6.599999999999632827e-01,1.570000000000108198e+00,2.870000000000002274e+03,-2.174999999999945199e+00,-4.944999999999827089e+00,1.336288564738168994e+01,-2.180450120978610684e+00
1.999999999999915801e+01,3.000000000034040770e+00,9.999999999982343013e+00,6.599999999998783506e-01,1.570000000000236984e+00,2.869999999999995453e+03,-2.174999999999923883e+00,-4.944999999999472706e+00,1.338106200432421566e+01,-2.163504877639260027e+00
1.999999999999891998e+01,3.000000000355605767e+00,9.999999999996736832e+00,6.600000000000416644e-01,1.569999999999938556e+00,2.869999999999982265e+03,-2.174999999999923883e+00,-4.945000000000286278e+00,1.339054118049589626e+01,-2.159128944288615237e+00
1.999999999999895195e+01,2.999999999675888596e+00,1.000000000000393285e+01,6.599999999999240918e-01,1.570000000000231433e+00,2.869999999999995907e+03,-2.174999999999850608e+00,-4.944999999999423856e+00,1.339004162656510566e+01,-2.170991752743340442e+00
1.999999999999960565e+01,3.000000001942544348e+00,9.999999999997632116e+00,6.600000000002673728e-01,1.569999999999676543e+00,2.869999999999999545e+03,-2.175000000000066880e+00,-4.945000000001035900e+00,1.338273537097667187e+01,-2.156754544601260370e+00
1.999999999999930012e+01,3.000000000687344848e+00,9.999999999999216627e+00,6.600000000000392220e-01,1.569999999999921458e+00,2.869999999999992269e+03,-2.174999999999968292e+00,-4.945000000000305818e+00,1.338594333911076717e+01,-2.195477678556252865e+00
2.000000000000065015e+01,3.000000000357483376e+00,1.000000000000188827e+01,6.599999999999723865e-01,1.570000000000012941e+00,2.869999999999992724e+03,-2.175000000000032241e+00,-4.944999999999863505e+00,1.338311132322017905e+01,-2.198868623305508585e+00
1.999999999999918998e+01,2.999999998879999463e+00,9.999999999995333511e+00,6.599999999998490408e-01,1.570000000000223883e+00,2.869999999999987722e+03,-2.174999999999901679e+00,-4.944999999999490470e+00,1.337932261550312418e+01,-2.178648112530180203e+00
1.999999999999878852e+01,2.999999999690649233e+00,1.000000000000841816e+01,6.600000000000516565e-01,1.570000000000015383e+00,2.869999999999996817e+03,-2.174999999999896350e+00,-4.945000000000029594e+00,1.338792899298431571e+01,-2.182664592702770801e+00
2.000000000000046185e+01,3.000000000249385401e+00,1.000000000000184563e+01,6.600000000000075806e-01,1.569999999999806883e+00,2.869999999999979991e+03,-2.175000000000063771e+00,-4.945000000000480789e+00,1.339925595385942358e+01,-2.189984592374861538e+00
2.000000000000022737e+01,2.999999999040344090e+00,9.999999999997093880e+00,6.600000000000126876e-01,1.569999999999908358e+00,2.869999999999981355e+03,-2.175000000000058442e+00,-4.945000000000247198e+00,1.339120095393263377e+01,-2.187520731973063182e+00
2.000000000000082068e+01,2.999999998164658344e+00,9.999999999964677144e+00,6.600000000002017586e-01,1.569999999999615703e+00,2.869999999999983629e+03,-2.175000000000116618e+00,-4.945000000000986162e+00,1.336505861465137102e+01,-2.169571882518587014e+00
1.999999999999993960e+01,3.000000000683431089e+00,9.999999999991446842e+00,6.599999999997684386e-01,1.570000000000339568e+00,2.869999999999997272e+03,-2.174999999999880362e+00,-4.944999999999009965e+00,1.337060046362412358e+01,-2.192922046952112680e+00
2.000000000000009592e+01,3.000000000314667403e+00,9.999999999993935518e+00,6.599999999997416822e-01,1.570000000000303597e+00,2.870000000000004093e+03,-2.174999999999910560e+00,-4.944999999999145857e+00,1.337743999388299265e+01,-2.198528239032545795e+00
1.999999999999932498e+01,3.000000000776704479e+00,1.000000000001487166e+01,6.599999999998523714e-01,1.570000000000264517e+00,2.869999999999985448e+03,-2.174999999999864819e+00,-4.944999999999294182e+00,1.337555139073857191e+01,-2.200149924022535508e+00
1.999999999999949907e+01,2.999999999056097710e+00,1.000000000001848299e+01,6.599999999998865663e-01,1.570000000000152829e+00,2.869999999999990905e+03,-2.174999999999906120e+00,-4.944999999999572182e+00,1.336866059140547591e+01,-2.212622812210546464e+00
1.999999999999972999e+01,3.000000000459085658e+00,1.000000000002255796e+01,6.600000000000083578e-01,1.569999999999979634e+00,2.870000000000000000e+03,-2.174999999999993161e+00,-4.945000000000066898e+00,1.338399011555651086e+01,-2.197477194113826027e+00
1.999999999999978328e+01,2.999999999687697372e+00,1.000000000003111644e+01,6.599999999998795719e-01,1.570000000000153273e+00,2.869999999999995453e+03,-2.174999999999970957e+00,-4.944999999999566853e+00,1.338199366921761957e+01,-2.191338765741041250e+00
1.999999999999930367e+01,2.999999998382903321e+00,9.999999999999007017e+00,6.600000000001529088e-01,1.569999999999855511e+00,2.869999999999986358e+03,-2.174999999999992717e+00,-4.945000000000489671e+00,1.339652723318641137e+01,-2.151431634120415382e+00
2.000000000000007816e+01,2.999999996751983034e+00,9.999999999994287236e+00,6.600000000000031397e-01,1.569999999999954765e+00,2.869999999999985903e+03,-2.174999999999963407e+00,-4.945000000000052687e+00,1.338944349411596413e+01,-2.180111065911559010e+00
1.999999999999899103e+01,3.000000000530692379e+00,1.000000000000404476e+01,6.599999999999779376e-01,1.570000000000070672e+00,2.869999999999993179e+03,-2.174999999999895017e+00,-4.944999999999909690e+00,1.338744010009707530e+01,-2.170910470895727418e+00
1.999999999999967315e+01,3.000000000532751177e+00,9.999999999994374278e+00,6.600000000001094991e-01,1.569999999999847518e+00,2.869999999999989541e+03,-2.175000000000013589e+00,-4.945000000000512763e+00,1.336729218792499907e+01,-2.178273357401407484e+00
1.999999999999991473e+01,3.000000001447138853e+00,1.000000000001708500e+01,6.600000000000799671e-01,1.569999999999987628e+00,2.869999999999983174e+03,-2.174999999999959410e+00,-4.944999999999969198e+00,1.340060036285324685e+01,-2.157756541652044113e+00
2.000000000000010658e+01,2.999999999848230292e+00,9.999999999961394437e+00,6.599999999999862643e-01,1.570000000000045359e+00,2.869999999999986358e+03,-2.174999999999923439e+00,-4.944999999999883045e+00,1.338726510871175890e+01,-2.163519945621793727e+00
1.999999999999977618e+01,3.000000002119821652e+00,9.999999999987513988e+00,6.599999999998853450e-01,1.569999999999966089e+00,2.869999999999996817e+03,-2.174999999999980282e+00,-4.945000000000334239e+00,1.338286984705554872e+01,-2.156409296579522739e+00
1.999999999999900879e+01,3.000000003900765932e+00,1.000000000002868106e+01,6.600000000000055822e-01,1.570000000000108642e+00,2.869999999999984993e+03,-2.174999999999909672e+00,-4.944999999999752482e+00,1.341317357088185780e+01,-2.168325746375465712e+00
2.000000000000022737e+01,2.999999997904353677e+00,9.999999999967755571e+00,6.599999999997555600e-01,1.570000000000317142e+00,2.870000000000001364e+03,-2.174999999999932765e+00,-4.944999999999128093e+00,1.338303537672692833e+01,-2.163744516445288646e+00
1.999999999999968026e+01,3.000000000084824592e+00,9.999999999995676347e+00,6.599999999998552580e-01,1.570000000000138618e+00,2.869999999999999545e+03,-2.174999999999952305e+00,-4.944999999999639684e+00,1.338024448298040525e+01,-2.185567446868716068e+00
1.999999999999995381e+01,2.999999998492914877e+00,9.999999999976008525e+00,6.599999999997674394e-01,1.570000000000335794e+00,2.869999999999987267e+03,-2.174999999999908784e+00,-4.944999999999112994e+00,1.337234706449045518e+01,-2.184668081471956569e+00
1.999999999999989342e+01,2.999999998755266351e+00,9.999999999971707965e+00,6.599999999998882316e-01,1.570000000000216778e+00,2.869999999999974079e+03,-2.174999999999937206e+00,-4.944999999999455831e+00,1.336663742912918096e+01,-2.168820717375864682e+00
1.999999999999941380e+01,3.000000001339381495e+00,9.999999999994248157e+00,6.599999999999962563e-01,1.570000000000089768e+00,2.869999999999998181e+03,-2.174999999999966072e+00,-4.944999999999887486e+00,1.338450761835439984e+01,-2.161181229828472716e+00
1.999999999999957012e+01,2.999999999695207809e+00,9.999999999997806199e+00,6.599999999999471845e-01,1.570000000000218776e+00,2.869999999999992269e+03,-2.174999999999878142e+00,-4.944999999999382112e+00,1.337438165109085908e+01,-2.183316544321847186e+00
1.999999999999894484e+01,3.000000000011308732e+00,9.999999999986858512e+00,6.599999999997583355e-01,1.570000000000394857e+00,2.869999999999988177e+03,-2.174999999999872813e+00,-4.944999999999148521e+00,1.336100457350292992e+01,-2.177101631268673732e+00
2.000000000000027711e+01,2.999999998436458259e+00,9.999999999994773958e+00,6.600000000001174927e-01,1.569999999999841966e+00,2.869999999999975444e+03,-2.175000000000017142e+00,-4.945000000000424834e+00,1.338260054059888482e+01,-2.175350679285341648e+00
1.999999999999913669e+01,3.000000000952950163e+00,1.000000000000879119e+01,6.599999999997934186e-01,1.570000000000349116e+00,2.869999999999982265e+03,-2.174999999999842171e+00,-4.944999999999144080e+00,1.338152737867339681e+01,-2.172192403306970387e+00
1.999999999999953815e+01,3.000000000664607480e+00,9.999999999993045563e+00,6.599999999997235856e-01,1.570000000000449258e+00,2.869999999999984084e+03,-2.174999999999832401e+00,-4.944999999998724860e+00,1.338937052063930366e+01,-2.166716597842470282e+00
1.999999999999991829e+01,3.000000001176394981e+00,9.999999999993660182e+00,6.599999999998485967e-01,1.570000000000241647e+00,2.869999999999996817e+03,-2.174999999999922995e+00,-4.944999999999369678e+00,1.336339558933608629e+01,-2.167620529679203489e+00
1.999999999999934275e+01,3.000000003538891846e+00,1.000000000001120526e+01,6.599999999998807931e-01,1.570000000000179030e+00,2.870000000000001819e+03,-2.174999999999950973e+00,-4.944999999999636131e+00,1.337847281845220770e+01,-2.156691384605525119e+00
1.999999999999915090e+01,2.999999999826661323e+00,1.000000000002779288e+01,6.599999999998135136e-01,1.570000000000276064e+00,2.869999999999981810e+03,-2.174999999999892353e+00,-4.944999999999251550e+00,1.339775916259675093e+01,-2.172721048383931208e+00
1.999999999999939604e+01,3.000000000646116050e+00,1.000000000000645883e+01,6.599999999997219202e-01,1.570000000000481011e+00,2.869999999999989086e+03,-2.174999999999830624e+00,-4.944999999998664464e+00,1.340607502778001781e+01,-2.166902812859578198e+00
1.999999999999931788e+01,2.999999999774091375e+00,9.999999999995905497e+00,6.599999999997776534e-01,1.570000000000370877e+00,2.869999999999986358e+03,-2.174999999999822187e+00,-4.944999999999038387e+00,1.338295119832566549e+01,-2.165752334637464749e+00
1.999999999999864642e+01,3.000000003211451993e+00,1.000000000003043965e+01,6.599999999995814770e-01,1.570000000000717044e+00,2.869999999999989541e+03,-2.174999999999787992e+00,-4.944999999998158202e+00,1.337853014165868260e+01,-2.194763900515949384e+00
1.999999999999861444e+01,3.000000000073709483e+00,9.999999999985753618e+00,6.599999999999119904e-01,1.570000000000296270e+00,2.869999999999985903e+03,-2.174999999999835953e+00,-4.944999999999338591e+00,1.337276585155541930e+01,-2.170047160516147766e+00
1.999999999999989697e+01,3.000000000700421499e+00,1.000000000002035527e+01,6.600000000001042810e-01,1.569999999999885709e+00,2.870000000000002274e+03,-2.175000000000018030e+00,-4.945000000000324469e+00,1.340359226271172766e+01,-2.158772746865774028e+00
1.999999999999961986e+01,2.999999999348024193e+00,1.000000000000033040e+01,6.599999999997500089e-01,1.570000000000281615e+00,2.869999999999977717e+03,-2.174999999999833289e+00,-4.944999999999223128e+00,1.338826332465822766e+01,-2.205809643731983183e+00
1.999999999999981526e+01,2.999999998721448069e+00,9.999999999983169019e+00,6.599999999999964784e-01,1.570000000000017826e+00,2.869999999999996362e+03,-2.174999999999976286e+00,-4.944999999999959428e+00,1.336851574870122583e+01,-2.160002420524908651e+00
1.999999999999948486e+01,2.999999998961347725e+00,1.000000000002226308e+01,6.599999999999373035e-01,1.570000000000143503e+00,2.869999999999998636e+03,-2.174999999999941203e+00,-4.944999999999653895e+00,1.337224322607835525e+01,-2.166663358319459221e+00
1.999999999999995737e+01,2.999999999665353023e+00,9.999999999979809928e+00,6.599999999997249178e-01,1.570000000000361107e+00,2.870000000000001364e+03,-2.174999999999899902e+00,-4.944999999999080131e+00,1.337549892551270325e+01,-2.155826854965795292e+00
1.999999999999975131e+01,3.000000001669476113e+00,1.000000000000417621e+01,6.600000000002501643e-01,1.569999999999702522e+00,2.870000000000004093e+03,-2.175000000000065103e+00,-4.945000000000874252e+00,1.339320452120237803e+01,-2.153203265427262370e+00
1.999999999999945999e+01,3.000000001192350219e+00,1.000000000003231015e+01,6.599999999999350830e-01,1.570000000000107976e+00,2.869999999999998181e+03,-2.174999999999913225e+00,-4.944999999999835083e+00,1.339370013701475415e+01,-2.179150676614050930e+00
2.000000000000009948e+01,2.999999999856835853e+00,1.000000000001112177e+01,6.600000000000979528e-01,1.569999999999738716e+00,2.870000000000005457e+03,-2.175000000000080203e+00,-4.945000000000876916e+00,1.337393846297592326e+01,-2.175551872571968914e+00
2.000000000000027356e+01,3.000000000320261595e+00,9.999999999995610622e+00,6.599999999997467892e-01,1.570000000000328244e+00,2.869999999999986812e+03,-2.174999999999906564e+00,-4.944999999999045492e+00,1.339489321703761959e+01,-2.194342712356235570e+00
2.000000000000027356e+01,2.999999999965783815e+00,9.999999999988002486e+00,6.599999999996836175e-01,1.570000000000400853e+00,2.869999999999978627e+03,-2.174999999999860822e+00,-4.944999999998868745e+00,1.338689176945897330e+01,-2.188707573302184350e+00
1.999999999999998579e+01,3.000000000242523779e+00,1.000000000000394706e+01,6.599999999998585887e-01,1.570000000000200568e+00,2.869999999999998636e+03,-2.174999999999977174e+00,-4.944999999999337703e+00,1.339256945430449086e+01,-2.175698201854319169e+00
