1.999999999999941735e+01,3.000000000466189753e+00,1.000000000004591172e+01,6.599999999997196998e-01,1.570000000000316032e+00,2.870000000000004093e+03,-2.174999999999938094e+00,-4.944999999999304841e+00,1.337891233474882036e+01,-2.199690081374632289e+00
1.999999999999966249e+01,3.000000002205401639e+00,9.999999999999493738e+00,6.600000000000135758e-01,1.570000000000065121e+00,2.869999999999976808e+03,-2.174999999999978062e+00,-4.944999999999920348e+00,1.338227407471202035e+01,-2.152685014647152340e+00
2.000000000000083844e+01,3.000000001311884823e+00,9.999999999966199482e+00,6.600000000000635358e-01,1.569999999999809992e+00,2.869999999999999091e+03,-2.175000000000062439e+00,-4.945000000000472795e+00,1.338133628122189833e+01,-2.173028120025372267e+00
1.999999999999929301e+01,3.000000000367226693e+00,1.000000000001522515e+01,6.600000000001471356e-01,1.569999999999908802e+00,2.870000000000000455e+03,-2.174999999999971401e+00,-4.945000000000288942e+00,1.338697288883555103e+01,-2.181245937793721446e+00
2.000000000000018829e+01,2.999999998553725344e+00,9.999999999970436093e+00,6.599999999997456790e-01,1.570000000000286944e+00,2.869999999999969987e+03,-2.174999999999937206e+00,-4.944999999999225793e+00,1.337498253941755166e+01,-2.176666532912587826e+00
2.000000000000024514e+01,3.000000001962720653e+00,1.000000000000767919e+01,6.599999999998923395e-01,1.570000000000224771e+00,2.869999999999997272e+03,-2.174999999999954081e+00,-4.944999999999356355e+00,1.340032397024681110e+01,-2.160729600478459744e+00
1.999999999999982592e+01,3.000000001731736088e+00,1.000000000000567546e+01,6.599999999997839817e-01,1.570000000000455920e+00,2.869999999999996817e+03,-2.174999999999883027e+00,-4.944999999998767493e+00,1.340094610804400865e+01,-2.160513165429755578e+00
1.999999999999932854e+01,2.999999997938560536e+00,1.000000000000940403e+01,6.599999999999828226e-01,1.570000000000056017e+00,2.869999999999962256e+03,-2.174999999999942979e+00,-4.944999999999911466e+00,1.338457587464323950e+01,-2.191513374639766365e+00
2.000000000000054357e+01,2.999999999394298733e+00,9.999999999989659827e+00,6.600000000000095790e-01,1.569999999999819096e+00,2.869999999999985903e+03,-2.175000000000088640e+00,-4.945000000000474571e+00,1.337762732677808586e+01,-2.172810030228952360e+00
1.999999999999925393e+01,2.999999999712501975e+00,9.999999999973248066e+00,6.600000000002750333e-01,1.569999999999627249e+00,2.870000000000001819e+03,-2.175000000000022027e+00,-4.945000000001088303e+00,1.338344783579369413e+01,-2.158347678782801538e+00
2.000000000000015987e+01,2.999999999789659366e+00,9.999999999978442133e+00,6.600000000000005862e-01,1.570000000000002949e+00,2.869999999999981355e+03,-2.174999999999967404e+00,-4.944999999999942553e+00,1.338125070450652032e+01,-2.194891999291948892e+00
2.000000000000015987e+01,2.999999997941658503e+00,9.999999999988872901e+00,6.600000000000657563e-01,1.569999999999902363e+00,2.869999999999971806e+03,-2.175000000000026024e+00,-4.945000000000189466e+00,1.339669421676058114e+01,-2.177397983005092907e+00
2.000000000000015632e+01,2.999999999055518618e+00,9.999999999979133136e+00,6.600000000001122746e-01,1.569999999999832196e+00,2.869999999999968622e+03,-2.175000000000040679e+00,-4.945000000000396412e+00,1.339780555513940818e+01,-2.173189997871014523e+00
1.999999999999983658e+01,2.999999996455451345e+00,1.000000000000276046e+01,6.600000000000293410e-01,1.569999999999860396e+00,2.869999999999984539e+03,-2.175000000000067768e+00,-4.945000000000547402e+00,1.338027504499251563e+01,-2.172324592838444701e+00
1.999999999999911893e+01,2.999999997641885852e+00,9.999999999992295940e+00,6.600000000003735101e-01,1.569999999999643903e+00,2.869999999999991815e+03,-2.174999999999943867e+00,-4.945000000001075868e+00,1.340080453171152008e+01,-2.147357881361563248e+00
1.999999999999947775e+01,2.999999999130238848e+00,9.999999999997754685e+00,6.599999999997631095e-01,1.570000000000231211e+00,2.869999999999999091e+03,-2.174999999999938982e+00,-4.944999999999456719e+00,1.338451273060466740e+01,-2.162603324020453854e+00
1.999999999999954881e+01,3.000000000712426118e+00,9.999999999976200371e+00,6.599999999997788747e-01,1.570000000000372209e+00,2.869999999999975444e+03,-2.174999999999854605e+00,-4.944999999998982432e+00,1.340050682136317306e+01,-2.175179883928204827e+00
1.999999999999984723e+01,3.000000000228838282e+00,9.999999999971686648e+00,6.599999999997799849e-01,1.570000000000365992e+00,2.869999999999970896e+03,-2.174999999999860822e+00,-4.944999999998941576e+00,1.340870517621454994e+01,-2.168050528409604549e+00
1.999999999999968736e+01,2.999999999093311054e+00,9.999999999981632470e+00,6.599999999997867572e-01,1.570000000000374429e+00,2.869999999999969987e+03,-2.174999999999883027e+00,-4.944999999998990425e+00,1.340245255797598567e+01,-2.168758293454056130e+00
1.999999999999952749e+01,3.000000000839146974e+00,9.999999999988601118e+00,6.599999999996827293e-01,1.570000000000519869e+00,2.869999999999970896e+03,-2.174999999999827516e+00,-4.944999999998567652e+00,1.340610632816009051e+01,-2.165697774318963376e+00
1.999999999999878497e+01,3.000000000613605611e+00,9.999999999983421262e+00,6.599999999998413802e-01,1.570000000000369988e+00,2.869999999999985448e+03,-2.174999999999815081e+00,-4.944999999999072138e+00,1.336942087115417976e+01,-2.191395295621435313e+00
1.999999999999919709e+01,3.000000001225638702e+00,1.000000000002155787e+01,6.599999999998931166e-01,1.570000000000204787e+00,2.869999999999999091e+03,-2.174999999999867040e+00,-4.944999999999404316e+00,1.338648694422401597e+01,-2.184354840446666390e+00
1.999999999999927880e+01,2.999999998465372908e+00,1.000000000002467182e+01,6.599999999999978106e-01,1.570000000000131513e+00,2.869999999999997272e+03,-2.174999999999922107e+00,-4.944999999999779128e+00,1.337617689947706978e+01,-2.186150928117392311e+00
1.999999999999907274e+01,2.999999997648588046e+00,1.000000000002570921e+01,6.599999999998933387e-01,1.570000000000266516e+00,2.869999999999974534e+03,-2.174999999999895017e+00,-4.944999999999287965e+00,1.339441104437158003e+01,-2.185518828962289550e+00
1.999999999999988987e+01,2.999999999764014991e+00,1.000000000000565592e+01,6.600000000001620126e-01,1.569999999999756035e+00,2.869999999999996362e+03,-2.175000000000094413e+00,-4.945000000000788987e+00,1.338494137079818991e+01,-2.174031441375604778e+00
1.999999999999978328e+01,3.000000002117464426e+00,9.999999999994333422e+00,6.600000000000132427e-01,1.569999999999834639e+00,2.869999999999978627e+03,-2.175000000000048672e+00,-4.945000000000546514e+00,1.337456861964929011e+01,-2.191840014076709586e+00
2.000000000000004263e+01,2.999999997976481314e+00,9.999999999982620125e+00,6.599999999994928812e-01,1.570000000000675300e+00,2.869999999999975444e+03,-2.174999999999836398e+00,-4.944999999998168860e+00,1.338080162599460188e+01,-2.182081554033284743e+00
2.000000000000057199e+01,2.999999995604469394e+00,1.000000000000107647e+01,6.599999999996634115e-01,1.570000000000293605e+00,2.869999999999994998e+03,-2.174999999999945199e+00,-4.944999999999184936e+00,1.338975822588425935e+01,-2.166737597652341751e+00
1.999999999999924682e+01,3.000000000692583768e+00,1.000000000003371170e+01,6.600000000001954303e-01,1.569999999999811990e+00,2.869999999999989086e+03,-2.175000000000000711e+00,-4.945000000000560725e+00,1.338211303617252668e+01,-2.174716678798326530e+00
2.000000000000029488e+01,2.999999998488525055e+00,9.999999999977188025e+00,6.599999999999381917e-01,1.570000000000112639e+00,2.869999999999998181e+03,-2.174999999999964739e+00,-4.944999999999660112e+00,1.338391286402133851e+01,-2.167814841795153491e+00
1.999999999999966960e+01,2.999999999374857396e+00,9.999999999995166533e+00,6.599999999999438538e-01,1.570000000000236096e+00,2.869999999999986358e+03,-2.174999999999902123e+00,-4.944999999999304841e+00,1.340711757349189526e+01,-2.167170765608844807e+00
1.999999999999963407e+01,2.999999999691907782e+00,1.000000000000354206e+01,6.599999999998933387e-01,1.570000000000262075e+00,2.869999999999994998e+03,-2.174999999999920774e+00,-4.944999999999280860e+00,1.340229241286191986e+01,-2.169362922083964307e+00
1.999999999999945288e+01,2.999999999522552141e+00,9.999999999997735145e+00,6.599999999999588418e-01,1.570000000000270068e+00,2.869999999999984539e+03,-2.174999999999863931e+00,-4.944999999999194706e+00,1.341227496181450007e+01,-2.160347058679724430e+00
1.999999999999921485e+01,2.999999999973632647e+00,1.000000000000248335e+01,6.600000000000694200e-01,1.570000000000115525e+00,2.869999999999993179e+03,-2.174999999999886580e+00,-4.944999999999645013e+00,1.340292482216053394e+01,-2.166789901615838065e+00
1.999999999999923972e+01,2.999999998490008313e+00,1.000000000001843325e+01,6.599999999999361933e-01,1.570000000000178142e+00,2.869999999999994543e+03,-2.174999999999883027e+00,-4.944999999999532214e+00,1.338107822187175344e+01,-2.190009321997142155e+00
1.999999999999883826e+01,2.999999994943197468e+00,1.000000000001648104e+01,6.599999999996953859e-01,1.570000000000458362e+00,2.869999999999995907e+03,-2.174999999999835953e+00,-4.944999999998853646e+00,1.337762480643227470e+01,-2.216366528472475395e+00
1.999999999999984013e+01,2.999999998270721946e+00,1.000000000000214762e+01,6.599999999998791278e-01,1.570000000000103313e+00,2.869999999999995453e+03,-2.174999999999982059e+00,-4.944999999999760476e+00,1.338913997497441066e+01,-2.201004886827196749e+00
1.999999999999972289e+01,2.999999999546247853e+00,1.000000000001662137e+01,6.599999999998947819e-01,1.570000000000046692e+00,2.869999999999995907e+03,-2.174999999999987832e+00,-4.944999999999951434e+00,1.339504235380612052e+01,-2.185223862052544153e+00
1.999999999999936051e+01,3.000000003499276868e+00,1.000000000001553602e+01,6.600000000000797451e-01,1.569999999999903695e+00,2.869999999999970896e+03,-2.174999999999947864e+00,-4.945000000000287166e+00,1.338880821439783197e+01,-2.172946140852970665e+00
2.000000000000008527e+01,3.000000003289539308e+00,1.000000000000673772e+01,6.600000000000926237e-01,1.569999999999817764e+00,2.869999999999958618e+03,-2.175000000000021139e+00,-4.945000000000448814e+00,1.339250621458018209e+01,-2.175418613245110322e+00
1.999999999999938538e+01,2.999999999864815692e+00,1.000000000000509104e+01,6.599999999996664091e-01,1.570000000000421725e+00,2.869999999999995907e+03,-2.174999999999868372e+00,-4.944999999999065032e+00,1.337062310103392271e+01,-2.189389480951100087e+00
1.999999999999957012e+01,2.999999999555647445e+00,9.999999999989178434e+00,6.600000000001082778e-01,1.569999999999849516e+00,2.869999999999997726e+03,-2.174999999999997602e+00,-4.945000000000569607e+00,1.337424564914730496e+01,-2.192344581622608590e+00
1.999999999999945643e+01,2.999999997870651747e+00,1.000000000001875478e+01,6.599999999997453459e-01,1.570000000000296714e+00,2.870000000000002274e+03,-2.174999999999904343e+00,-4.944999999999304841e+00,1.338819160323126312e+01,-2.212636233241962014e+00
1.999999999999937117e+01,2.999999997981437350e+00,1.000000000000303224e+01,6.599999999999905942e-01,1.570000000000012497e+00,2.869999999999993179e+03,-2.174999999999945643e+00,-4.945000000000045581e+00,1.338959259632527043e+01,-2.203171227995586623e+00
1.999999999999934985e+01,2.999999997552294850e+00,1.000000000001042189e+01,6.600000000000034728e-01,1.570000000000007390e+00,2.869999999999989996e+03,-2.174999999999943867e+00,-4.945000000000003837e+00,1.339586301699978321e+01,-2.199787134629742180e+00
1.999999999999933209e+01,2.999999997642138094e+00,1.000000000000727951e+01,6.599999999999273115e-01,1.570000000000134399e+00,2.869999999999999545e+03,-2.174999999999896794e+00,-4.944999999999668994e+00,1.339747774854095219e+01,-2.198789167908014264e+00
1.999999999999965894e+01,2.999999999729414668e+00,1.000000000001077183e+01,6.599999999996090105e-01,1.570000000000582041e+00,2.869999999999994543e+03,-2.174999999999823075e+00,-4.944999999998360707e+00,1.338114463006732713e+01,-2.184842827855306702e+00
2.000000000000032685e+01,3.000000000693781477e+00,1.000000000000385647e+01,6.599999999998347189e-01,1.570000000000189910e+00,2.870000000000001819e+03,-2.174999999999949196e+00,-4.944999999999438067e+00,1.339499771033687736e+01,-2.192522323832276854e+00
1.999999999999981881e+01,3.000000001280604955e+00,1.000000000001239897e+01,6.599999999996882805e-01,1.570000000000413287e+00,2.870000000000002728e+03,-2.174999999999867040e+00,-4.944999999998858975e+00,1.339522646670187278e+01,-2.192470162420496749e+00
1.999999999999919353e+01,3.000000004283009503e+00,1.000000000003889511e+01,6.599999999997843148e-01,1.570000000000232987e+00,2.869999999999984539e+03,-2.174999999999951861e+00,-4.944999999999562412e+00,1.337833216916592605e+01,-2.174217669580018164e+00
1.999999999999876721e+01,3.000000001569922858e+00,1.000000000000376055e+01,6.599999999999727196e-01,1.570000000000160822e+00,2.869999999999993179e+03,-2.174999999999904343e+00,-4.944999999999710738e+00,1.339028703660113173e+01,-2.154640497007058730e+00
1.999999999999920064e+01,2.999999998240379551e+00,1.000000000000665423e+01,6.599999999996561950e-01,1.570000000000491669e+00,2.869999999999984993e+03,-2.174999999999833733e+00,-4.944999999998731077e+00,1.339731276027796092e+01,-2.189562494460389530e+00
1.999999999999899103e+01,2.999999996955060144e+00,1.000000000001019096e+01,6.599999999997264721e-01,1.570000000000470131e+00,2.869999999999973625e+03,-2.174999999999839506e+00,-4.944999999998796802e+00,1.339706627476027201e+01,-2.192289549162396600e+00
1.999999999999894840e+01,2.999999999069261847e+00,1.000000000000566125e+01,6.599999999997563371e-01,1.570000000000380425e+00,2.869999999999991815e+03,-2.174999999999844391e+00,-4.944999999999068585e+00,1.339327085924704797e+01,-2.183507154835582664e+00
1.999999999999994316e+01,2.999999999372408688e+00,1.000000000001015898e+01,6.599999999997371303e-01,1.570000000000410623e+00,2.869999999999983629e+03,-2.174999999999938982e+00,-4.944999999998826112e+00,1.338823517842984145e+01,-2.202109045998490888e+00
1.999999999999966960e+01,3.000000000229555042e+00,1.000000000000295586e+01,6.599999999996332134e-01,1.570000000000547180e+00,2.870000000000001819e+03,-2.174999999999848832e+00,-4.944999999998515250e+00,1.337851686942219231e+01,-2.205159469875312528e+00
1.999999999999937472e+01,2.999999998280786340e+00,1.000000000001871570e+01,6.599999999996722932e-01,1.570000000000447260e+00,2.869999999999989541e+03,-2.174999999999875033e+00,-4.944999999998879403e+00,1.339483727229617216e+01,-2.185467702661392231e+00
1.999999999999916156e+01,2.999999999184918664e+00,1.000000000001291767e+01,6.599999999996125633e-01,1.570000000000559393e+00,2.869999999999991815e+03,-2.174999999999802203e+00,-4.944999999998558771e+00,1.339944494236446282e+01,-2.176434603676042467e+00
1.999999999999921485e+01,3.000000000709399206e+00,9.999999999996344258e+00,6.599999999999457412e-01,1.570000000000141949e+00,2.869999999999982265e+03,-2.174999999999900790e+00,-4.944999999999707185e+00,1.339466118479610479e+01,-2.152229862673649130e+00
2.000000000000020961e+01,3.000000000520769206e+00,9.999999999992317257e+00,6.599999999999964784e-01,1.569999999999939444e+00,2.869999999999992724e+03,-2.175000000000034905e+00,-4.945000000000242757e+00,1.337525458854364935e+01,-2.168237293009982469e+00
1.999999999999942091e+01,3.000000000972682379e+00,1.000000000000575895e+01,6.599999999998765743e-01,1.570000000000154605e+00,2.870000000000005002e+03,-2.174999999999930100e+00,-4.944999999999581064e+00,1.339467906359892879e+01,-2.180298681523584303e+00
1.999999999999910827e+01,3.000000001257304927e+00,1.000000000001058353e+01,6.599999999999698330e-01,1.570000000000064899e+00,2.870000000000005912e+03,-2.174999999999922995e+00,-4.944999999999834195e+00,1.339835563839872101e+01,-2.169526726026856256e+00
2.000000000000056488e+01,3.000000001485155110e+00,9.999999999973132603e+00,6.600000000002981260e-01,1.569999999999548868e+00,2.870000000000000000e+03,-2.175000000000121503e+00,-4.945000000001171792e+00,1.339264669236124661e+01,-2.156735463995141266e+00
2.000000000000060751e+01,3.000000000518153964e+00,9.999999999987343458e+00,6.600000000003571898e-01,1.569999999999476925e+00,2.869999999999987267e+03,-2.175000000000148592e+00,-4.945000000001381402e+00,1.339831745384140227e+01,-2.159741193443017959e+00
1.999999999999981881e+01,3.000000001143124706e+00,9.999999999987723598e+00,6.599999999997487876e-01,1.570000000000318030e+00,2.869999999999992269e+03,-2.174999999999950528e+00,-4.944999999999288853e+00,1.337755916714483995e+01,-2.175407987885324967e+00
1.999999999999971578e+01,3.000000002527610121e+00,9.999999999995358380e+00,6.599999999998887867e-01,1.570000000000215001e+00,2.869999999999996817e+03,-2.174999999999918554e+00,-4.944999999999381224e+00,1.339017464502382637e+01,-2.186207221364304232e+00
1.999999999999975486e+01,2.999999998229845311e+00,9.999999999995825561e+00,6.599999999998668043e-01,1.570000000000171703e+00,2.869999999999984539e+03,-2.174999999999888800e+00,-4.944999999999520668e+00,1.339917707872271180e+01,-2.159115487320852456e+00
1.999999999999948486e+01,2.999999999456056887e+00,1.000000000001016787e+01,6.599999999999098810e-01,1.570000000000157714e+00,2.869999999999984084e+03,-2.174999999999878142e+00,-4.944999999999540208e+00,1.340028561099014048e+01,-2.157611832684902531e+00
1.999999999999974776e+01,3.000000003361722456e+00,1.000000000000155964e+01,6.600000000002822498e-01,1.569999999999635243e+00,2.870000000000003183e+03,-2.175000000000085532e+00,-4.945000000001070539e+00,1.338488613769238711e+01,-2.165658971492613993e+00
1.999999999999952038e+01,3.000000001752569645e+00,9.999999999999026556e+00,6.599999999999683897e-01,1.570000000000078444e+00,2.869999999999989541e+03,-2.174999999999944311e+00,-4.944999999999814655e+00,1.338608812530701897e+01,-2.151243624138328592e+00
1.999999999999958433e+01,2.999999999465318812e+00,9.999999999976255438e+00,6.600000000002139711e-01,1.569999999999763585e+00,2.869999999999986812e+03,-2.174999999999979394e+00,-4.945000000000615792e+00,1.338446991504629402e+01,-2.179869025063985610e+00
1.999999999999936762e+01,3.000000001070725730e+00,9.999999999958461672e+00,6.599999999999307532e-01,1.570000000000292495e+00,2.869999999999995907e+03,-2.174999999999853273e+00,-4.944999999999165397e+00,1.338227118903788515e+01,-2.168828271737695434e+00
1.999999999999874234e+01,3.000000000382679222e+00,1.000000000000782485e+01,6.600000000000481037e-01,1.570000000000125295e+00,2.870000000000003183e+03,-2.174999999999875033e+00,-4.944999999999744489e+00,1.338781098771881339e+01,-2.202682165616856036e+00
1.999999999999864286e+01,3.000000002629438445e+00,1.000000000000817302e+01,6.599999999998608091e-01,1.570000000000301821e+00,2.869999999999999091e+03,-2.174999999999852829e+00,-4.944999999999262208e+00,1.338066093327474171e+01,-2.194324055472363533e+00
1.999999999999964473e+01,3.000000001021732920e+00,9.999999999985606181e+00,6.600000000001750022e-01,1.569999999999749152e+00,2.870000000000004093e+03,-2.175000000000014477e+00,-4.945000000000683293e+00,1.337749487066011511e+01,-2.192718052300723031e+00
1.999999999999871036e+01,3.000000001457777010e+00,1.000000000001272937e+01,6.600000000000376676e-01,1.569999999999984963e+00,2.869999999999996362e+03,-2.174999999999891909e+00,-4.945000000000165485e+00,1.337645571297920455e+01,-2.195500632104003369e+00
1.999999999999863221e+01,2.999999999325346334e+00,1.000000000003655920e+01,6.599999999998418243e-01,1.570000000000243867e+00,2.870000000000000455e+03,-2.174999999999867928e+00,-4.944999999999524221e+00,1.338182835271273063e+01,-2.208187620036043519e+00
1.999999999999923261e+01,3.000000000903471076e+00,1.000000000003067058e+01,6.599999999998028555e-01,1.570000000000249418e+00,2.870000000000001364e+03,-2.174999999999897238e+00,-4.944999999999437179e+00,1.338417411292522807e+01,-2.199427162142916892e+00
1.999999999999882050e+01,2.999999995647990580e+00,1.000000000002009948e+01,6.599999999998221734e-01,1.570000000000316920e+00,2.870000000000002274e+03,-2.174999999999886136e+00,-4.944999999999337703e+00,1.337750788155860171e+01,-2.197258713644570260e+00
2.000000000000051159e+01,2.999999999080100288e+00,9.999999999966883379e+00,6.600000000002249623e-01,1.569999999999624141e+00,2.869999999999989541e+03,-2.175000000000156586e+00,-4.945000000001077645e+00,1.337616271410506208e+01,-2.173002127101950176e+00
2.000000000000001776e+01,2.999999998946881075e+00,9.999999999999147349e+00,6.600000000003556355e-01,1.569999999999587947e+00,2.869999999999987722e+03,-2.175000000000064659e+00,-4.945000000001143370e+00,1.339258191239595064e+01,-2.159004386127773234e+00
1.999999999999933209e+01,3.000000002236869800e+00,1.000000000003008971e+01,6.600000000002022027e-01,1.569999999999778240e+00,2.869999999999984539e+03,-2.175000000000031797e+00,-4.945000000000679741e+00,1.338154240313815535e+01,-2.166467455086384497e+00
2.000000000000004263e+01,3.000000001753950318e+00,1.000000000000878586e+01,6.599999999998640288e-01,1.570000000000034923e+00,2.869999999999979991e+03,-2.174999999999991385e+00,-4.945000000000002949e+00,1.340073677766946503e+01,-2.168041712086570261e+00
2.000000000000010303e+01,3.000000002852750924e+00,1.000000000001117684e+01,6.599999999998897859e-01,1.570000000000032481e+00,2.869999999999979991e+03,-2.175000000000002043e+00,-4.944999999999998508e+00,1.339995759865904468e+01,-2.173141114837578769e+00
2.000000000000014921e+01,3.000000003501079426e+00,1.000000000000422062e+01,6.599999999998601430e-01,1.570000000000022933e+00,2.869999999999977717e+03,-2.175000000000007816e+00,-4.945000000000010942e+00,1.340114796380854578e+01,-2.165918016515425037e+00
2.000000000000033040e+01,3.000000004407060494e+00,1.000000000000529532e+01,6.599999999998673594e-01,1.569999999999996732e+00,2.869999999999979536e+03,-2.175000000000024247e+00,-4.945000000000059792e+00,1.340311006696884810e+01,-2.162803073197685055e+00
1.999999999999992539e+01,2.999999996539175040e+00,1.000000000000494538e+01,6.599999999995473932e-01,1.570000000000632889e+00,2.870000000000005912e+03,-2.174999999999910560e+00,-4.944999999998364260e+00,1.337065069798968331e+01,-2.209322578525117375e+00
2.000000000000003908e+01,3.000000002249302966e+00,9.999999999991059596e+00,6.599999999998162892e-01,1.570000000000201013e+00,2.869999999999993634e+03,-2.174999999999951861e+00,-4.944999999999523332e+00,1.339568729117752532e+01,-2.165794037623952839e+00
1.999999999999992184e+01,3.000000002379267006e+00,9.999999999997401190e+00,6.599999999998422684e-01,1.570000000000155715e+00,2.869999999999994543e+03,-2.174999999999942091e+00,-4.944999999999645013e+00,1.338886364677861351e+01,-2.168297442140158626e+00
2.000000000000024158e+01,2.999999999207116019e+00,9.999999999994875211e+00,6.599999999998132916e-01,1.570000000000232765e+00,2.869999999999981355e+03,-2.174999999999981615e+00,-4.944999999999418527e+00,1.337592304809251509e+01,-2.183211161693383140e+00
1.999999999999945643e+01,3.000000002283217171e+00,1.000000000000862599e+01,6.599999999999749400e-01,1.570000000000048690e+00,2.870000000000007276e+03,-2.174999999999899014e+00,-4.944999999999826201e+00,1.339383416394663051e+01,-2.152006170145791319e+00
2.000000000000005684e+01,3.000000003685307171e+00,9.999999999966187048e+00,6.599999999999376366e-01,1.569999999999964979e+00,2.869999999999984993e+03,-2.174999999999984723e+00,-4.945000000000180584e+00,1.338362570155671527e+01,-2.168459407154097462e+00
1.999999999999880984e+01,3.000000000576072523e+00,1.000000000004844658e+01,6.599999999998181766e-01,1.570000000000387752e+00,2.869999999999996817e+03,-2.174999999999820410e+00,-4.944999999999024176e+00,1.339018162372378029e+01,-2.167923206025835992e+00
2.000000000000003908e+01,3.000000001602112221e+00,1.000000000000020073e+01,6.599999999999118794e-01,1.570000000000059792e+00,2.869999999999977717e+03,-2.174999999999972733e+00,-4.944999999999819984e+00,1.338816180983246618e+01,-2.167060146206529758e+00
1.999999999999960210e+01,3.000000001548147832e+00,1.000000000003550760e+01,6.599999999998120703e-01,1.570000000000340457e+00,2.869999999999996362e+03,-2.174999999999843947e+00,-4.944999999998982432e+00,1.339773558965528721e+01,-2.187309188504173552e+00
1.999999999999947775e+01,3.000000002025920764e+00,1.000000000003551470e+01,6.599999999998372724e-01,1.570000000000332019e+00,2.870000000000003183e+03,-2.174999999999843059e+00,-4.944999999999018847e+00,1.339586664041331687e+01,-2.186754186895863761e+00
1.999999999999985079e+01,3.000000001884507661e+00,1.000000000002879119e+01,6.599999999998470424e-01,1.570000000000253415e+00,2.870000000000001819e+03,-2.174999999999895017e+00,-4.944999999999200035e+00,1.340375236381555091e+01,-2.180448717277629012e+00
1.999999999999981171e+01,3.000000002255344356e+00,1.000000000003040057e+01,6.599999999999208722e-01,1.570000000000145279e+00,2.869999999999994998e+03,-2.174999999999911893e+00,-4.944999999999520668e+00,1.340573289604947149e+01,-2.177925461505770599e+00
1.999999999999915801e+01,3.000000004281876631e+00,1.000000000004354028e+01,6.599999999999507372e-01,1.570000000000112195e+00,2.869999999999997272e+03,-2.174999999999943423e+00,-4.944999999999754259e+00,1.339696184008137259e+01,-2.168253730329116724e+00
1.999999999999906919e+01,3.000000002939693822e+00,1.000000000004428102e+01,6.599999999999381917e-01,1.570000000000112861e+00,2.869999999999996362e+03,-2.174999999999941203e+00,-4.944999999999778240e+00,1.338797227827564207e+01,-2.172918798939925011e+00
1.999999999999984723e+01,2.999999997047380074e+00,1.000000000001886136e+01,6.599999999997050448e-01,1.570000000000403295e+00,2.869999999999998181e+03,-2.174999999999975842e+00,-4.944999999999078355e+00,1.337398375623596891e+01,-2.193926645598562430e+00
1.999999999999973355e+01,2.999999996859744389e+00,1.000000000002236078e+01,6.599999999996606359e-01,1.570000000000523199e+00,2.869999999999989541e+03,-2.174999999999921219e+00,-4.944999999998683116e+00,1.337864205639535697e+01,-2.188452064214168491e+00
1.999999999999962697e+01,2.999999998902870946e+00,1.000000000003886491e+01,6.599999999996383204e-01,1.570000000000602691e+00,2.869999999999995907e+03,-2.174999999999877254e+00,-4.944999999998400675e+00,1.337873684945434505e+01,-2.203781812806729690e+00
1.999999999999935696e+01,2.999999999984869437e+00,1.000000000003035083e+01,6.599999999999586198e-01,1.570000000000026930e+00,2.870000000000004547e+03,-2.174999999999966072e+00,-4.945000000000012719e+00,1.338365472589361005e+01,-2.191916024938350027e+00
1.999999999999947065e+01,3.000000001160573415e+00,1.000000000000242295e+01,6.599999999997966382e-01,1.570000000000307816e+00,2.869999999999988631e+03,-2.174999999999913669e+00,-4.944999999999225793e+00,1.338300157827765169e+01,-2.177315001447984510e+00
1.999999999999987210e+01,3.000000002272396049e+00,1.000000000000883205e+01,6.600000000001339240e-01,1.569999999999754037e+00,2.869999999999993179e+03,-2.175000000000082423e+00,-4.945000000000765894e+00,1.338871327139347223e+01,-2.149938801922031573e+00
1.999999999999949196e+01,3.000000000487249796e+00,1.000000000000361133e+01,6.600000000003471978e-01,1.569999999999549090e+00,2.869999999999991360e+03,-2.175000000000048228e+00,-4.945000000001265050e+00,1.339919560239117224e+01,-2.182693126407552864e+00
1.999999999999958789e+01,3.000000001904533420e+00,1.000000000000579270e+01,6.600000000003312106e-01,1.569999999999562412e+00,2.870000000000002274e+03,-2.175000000000050893e+00,-4.945000000001254392e+00,1.338953988303924270e+01,-2.193802833197230573e+00
1.999999999999960210e+01,3.000000001011878581e+00,1.000000000002016520e+01,6.599999999999914824e-01,1.569999999999990958e+00,2.869999999999998636e+03,-2.174999999999990496e+00,-4.945000000000131735e+00,1.338390975103787639e+01,-2.185511793788544654e+00
1.999999999999922906e+01,2.999999999718743204e+00,1.000000000000990497e+01,6.599999999997951949e-01,1.570000000000343121e+00,2.869999999999969077e+03,-2.174999999999946976e+00,-4.944999999999271090e+00,1.337325984795264411e+01,-2.190665425620787143e+00
1.999999999999997158e+01,2.999999998701835313e+00,9.999999999986927790e+00,6.600000000002083089e-01,1.569999999999704077e+00,2.869999999999966349e+03,-2.175000000000064215e+00,-4.945000000000850271e+00,1.338725431271471500e+01,-2.148289837322402196e+00
1.999999999999913314e+01,2.999999997542590613e+00,1.000000000002453149e+01,6.599999999994476951e-01,1.570000000000916662e+00,2.869999999999971806e+03,-2.174999999999744027e+00,-4.944999999997582663e+00,1.337317221866582528e+01,-2.195074117584061568e+00
1.999999999999932143e+01,2.999999999972037923e+00,9.999999999984417798e+00,6.599999999997692157e-01,1.570000000000350671e+00,2.870000000000001364e+03,-2.174999999999863043e+00,-4.944999999999135198e+00,1.338847858632487231e+01,-2.160777243554457883e+00
1.999999999999903011e+01,3.000000000326933591e+00,1.000000000003605294e+01,6.600000000000325606e-01,1.569999999999955653e+00,2.870000000000000455e+03,-2.174999999999922995e+00,-4.945000000000168150e+00,1.339554395846757018e+01,-2.172707822169013259e+00
1.999999999999900879e+01,3.000000001257352888e+00,1.000000000003234035e+01,6.600000000000921796e-01,1.569999999999814877e+00,2.870000000000004547e+03,-2.174999999999995826e+00,-4.945000000000646878e+00,1.338900153814314997e+01,-2.169169149027592169e+00
1.999999999999948841e+01,2.999999998985485750e+00,1.000000000000202860e+01,6.599999999999561773e-01,1.570000000000039142e+00,2.869999999999998636e+03,-2.174999999999976730e+00,-4.945000000000019824e+00,1.337711293686092517e+01,-2.190524061716182747e+00
2.000000000000002487e+01,2.999999999616802970e+00,1.000000000000840927e+01,6.599999999995671551e-01,1.570000000000676410e+00,2.869999999999970896e+03,-2.174999999999824407e+00,-4.944999999998084483e+00,1.338960510794848169e+01,-2.193315351934464363e+00
1.999999999999927169e+01,3.000000001248131376e+00,1.000000000002935785e+01,6.599999999999810463e-01,1.570000000000117968e+00,2.870000000000014097e+03,-2.174999999999951861e+00,-4.944999999999773799e+00,1.338637872774506477e+01,-2.194761465529242894e+00
1.999999999999908340e+01,2.999999999626262071e+00,9.999999999978436804e+00,6.600000000000569855e-01,1.569999999999966978e+00,2.869999999999969532e+03,-2.174999999999949196e+00,-4.945000000000081108e+00,1.338679354554598611e+01,-2.174129170780298104e+00
1.999999999999963407e+01,3.000000003260130388e+00,9.999999999979634069e+00,6.600000000001035039e-01,1.569999999999855289e+00,2.869999999999970896e+03,-2.175000000000028244e+00,-4.945000000000487894e+00,1.339002503194478066e+01,-2.147682592274115176e+00
1.999999999999980460e+01,3.000000000968960023e+00,9.999999999989032773e+00,6.599999999998241718e-01,1.570000000000242535e+00,2.869999999999984993e+03,-2.174999999999915001e+00,-4.944999999999330598e+00,1.339158957245853365e+01,-2.161564117362407167e+00
1.999999999999951683e+01,2.999999998792832745e+00,1.000000000001749711e+01,6.600000000000039169e-01,1.570000000000019158e+00,2.869999999999972260e+03,-2.174999999999963407e+00,-4.944999999999959428e+00,1.338575454072584847e+01,-2.185446987356527426e+00
1.999999999999937472e+01,3.000000001039656361e+00,1.000000000001595524e+01,6.600000000000501021e-01,1.570000000000002727e+00,2.869999999999974079e+03,-2.174999999999956302e+00,-4.944999999999995843e+00,1.339994129036308124e+01,-2.172617178115054948e+00
1.999999999999931788e+01,3.000000001867530131e+00,1.000000000000582645e+01,6.599999999998270583e-01,1.570000000000232765e+00,2.869999999999985903e+03,-2.174999999999930989e+00,-4.944999999999462048e+00,1.337336282507421359e+01,-2.186285888664488031e+00
1.999999999999920419e+01,3.000000001564688823e+00,9.999999999995631939e+00,6.599999999999431877e-01,1.570000000000152385e+00,2.869999999999987722e+03,-2.174999999999916334e+00,-4.944999999999562412e+00,1.338762442576893896e+01,-2.187613674155692411e+00
1.999999999999963407e+01,3.000000001510889636e+00,1.000000000001424283e+01,6.600000000002462786e-01,1.569999999999610596e+00,2.870000000000002728e+03,-2.175000000000062439e+00,-4.945000000001067875e+00,1.338638248360588356e+01,-2.193288014939046349e+00
1.999999999999898748e+01,3.000000000707958137e+00,9.999999999997593036e+00,6.599999999998164002e-01,1.570000000000342011e+00,2.869999999999996362e+03,-2.174999999999815969e+00,-4.944999999999138751e+00,1.338566613955286400e+01,-2.185051304612914524e+00
2.000000000000003197e+01,2.999999999647430471e+00,9.999999999969515940e+00,6.599999999999739408e-01,1.570000000000058238e+00,2.869999999999985903e+03,-2.174999999999943423e+00,-4.944999999999789786e+00,1.338688027151209248e+01,-2.172307209314921383e+00
1.999999999999918998e+01,3.000000001729784760e+00,1.000000000002978418e+01,6.599999999999660583e-01,1.570000000000051799e+00,2.869999999999994088e+03,-2.174999999999916334e+00,-4.945000000000002061e+00,1.340430591089304713e+01,-2.178991620958217190e+00
1.999999999999913314e+01,3.000000001009738959e+00,1.000000000002253664e+01,6.599999999999925926e-01,1.570000000000025153e+00,2.869999999999984993e+03,-2.174999999999916778e+00,-4.945000000000074891e+00,1.340589755693512330e+01,-2.180101456045363317e+00
1.999999999999904077e+01,3.000000003096370271e+00,1.000000000003126210e+01,6.599999999999561773e-01,1.570000000000094209e+00,2.870000000000001819e+03,-2.174999999999918554e+00,-4.944999999999880380e+00,1.340053892913174849e+01,-2.171412922315643090e+00
1.999999999999906564e+01,3.000000002759614315e+00,1.000000000002213518e+01,6.600000000000149081e-01,1.570000000000032037e+00,2.869999999999992724e+03,-2.174999999999909228e+00,-4.945000000000031370e+00,1.340180256287669458e+01,-2.179590166882624747e+00
1.999999999999969447e+01,3.000000001602751265e+00,9.999999999995695887e+00,6.599999999998614753e-01,1.570000000000242091e+00,2.869999999999993634e+03,-2.174999999999891909e+00,-4.944999999999310170e+00,1.340335925978168419e+01,-2.160518988581975552e+00
2.000000000000004619e+01,3.000000001098851676e+00,9.999999999995292654e+00,6.599999999999938138e-01,1.569999999999987628e+00,2.869999999999990450e+03,-2.174999999999964295e+00,-4.944999999999993179e+00,1.339856046272013046e+01,-2.163044219265052970e+00
1.999999999999979394e+01,3.000000001857781928e+00,1.000000000000139089e+01,6.599999999998775735e-01,1.570000000000176144e+00,2.869999999999985903e+03,-2.174999999999929656e+00,-4.944999999999486917e+00,1.340061475669449642e+01,-2.165132706401739604e+00
1.999999999999941735e+01,2.999999999540941431e+00,9.999999999977319476e+00,6.599999999997093747e-01,1.570000000000485230e+00,2.869999999999987722e+03,-2.174999999999859490e+00,-4.944999999998821671e+00,1.337899217251072770e+01,-2.171391673887842710e+00
1.999999999999988276e+01,2.999999999589408883e+00,9.999999999994242827e+00,6.599999999996850608e-01,1.570000000000489004e+00,2.869999999999973170e+03,-2.174999999999823075e+00,-4.944999999998614726e+00,1.340462177035694857e+01,-2.177976046296271395e+00
1.999999999999997868e+01,2.999999999715281085e+00,1.000000000000152234e+01,6.599999999997872013e-01,1.570000000000284501e+00,2.869999999999979082e+03,-2.174999999999881695e+00,-4.944999999999192042e+00,1.339898451334559049e+01,-2.191798637573283415e+00
1.999999999999963052e+01,2.999999998627566722e+00,9.999999999994265920e+00,6.599999999997749889e-01,1.570000000000348450e+00,2.869999999999974534e+03,-2.174999999999829292e+00,-4.944999999999019735e+00,1.341345044576423717e+01,-2.177431322328508223e+00
1.999999999999966249e+01,2.999999998865995554e+00,9.999999999999284128e+00,6.599999999999383027e-01,1.570000000000179030e+00,2.869999999999978172e+03,-2.174999999999881695e+00,-4.944999999999492246e+00,1.340483549708650912e+01,-2.177955281338777915e+00
2.000000000000013856e+01,2.999999999315274835e+00,1.000000000001918998e+01,6.599999999998673594e-01,1.570000000000106422e+00,2.869999999999986812e+03,-2.174999999999972733e+00,-4.944999999999686757e+00,1.339457712728229666e+01,-2.184505770360731347e+00
2.000000000000045475e+01,2.999999999556918873e+00,1.000000000000496669e+01,6.600000000000029177e-01,1.569999999999886375e+00,2.869999999999987722e+03,-2.175000000000030909e+00,-4.945000000000272067e+00,1.339489703677092258e+01,-2.171646295883294719e+00
1.999999999999993250e+01,2.999999997885402614e+00,1.000000000003236700e+01,6.599999999999784928e-01,1.570000000000019824e+00,2.869999999999989541e+03,-2.175000000000018474e+00,-4.944999999999968310e+00,1.338055071387826978e+01,-2.203092213013564837e+00
1.999999999999905498e+01,3.000000003447542252e+00,1.000000000000560263e+01,6.600000000000733058e-01,1.569999999999941664e+00,2.869999999999988631e+03,-2.174999999999928768e+00,-4.945000000000177032e+00,1.340072570644959704e+01,-2.154965798174004910e+00
1.999999999999904077e+01,3.000000003089490441e+00,1.000000000000200195e+01,6.599999999998285016e-01,1.570000000000336682e+00,2.869999999999991360e+03,-2.174999999999855049e+00,-4.944999999999115659e+00,1.339120579389196131e+01,-2.161693178424647588e+00
1.999999999999870326e+01,2.999999999479173951e+00,1.000000000001743139e+01,6.600000000000341149e-01,1.570000000000001839e+00,2.869999999999994998e+03,-2.174999999999923883e+00,-4.945000000000179696e+00,1.339026270152450948e+01,-2.165884143653423077e+00
1.999999999999874944e+01,2.999999999076966350e+00,1.000000000001848299e+01,6.599999999999319744e-01,1.570000000000093321e+00,2.869999999999998636e+03,-2.174999999999911449e+00,-4.944999999999951434e+00,1.339069494439203112e+01,-2.165486794419056338e+00
1.999999999999938893e+01,3.000000002221617112e+00,1.000000000001558575e+01,6.600000000000428857e-01,1.569999999999848850e+00,2.870000000000000909e+03,-2.174999999999986944e+00,-4.945000000000500329e+00,1.338559559771664276e+01,-2.191682364774910408e+00
1.999999999999919709e+01,3.000000001957990658e+00,1.000000000002558487e+01,6.600000000001510214e-01,1.569999999999812212e+00,2.870000000000001819e+03,-2.174999999999993161e+00,-4.945000000000574936e+00,1.339112318604880691e+01,-2.169840511711694120e+00
1.999999999999914024e+01,3.000000002591487913e+00,1.000000000002590461e+01,6.600000000001717826e-01,1.569999999999762919e+00,2.870000000000000455e+03,-2.174999999999989164e+00,-4.945000000000725038e+00,1.339702988491037949e+01,-2.169705191010209866e+00
1.999999999999958078e+01,2.999999999912106308e+00,9.999999999984378718e+00,6.600000000001410294e-01,1.569999999999774909e+00,2.869999999999988631e+03,-2.175000000000044231e+00,-4.945000000000776552e+00,1.339310306819251650e+01,-2.156512603326330879e+00
1.999999999999917222e+01,3.000000001961740548e+00,1.000000000000994227e+01,6.600000000002147482e-01,1.569999999999802665e+00,2.869999999999994088e+03,-2.174999999999944311e+00,-4.945000000000541185e+00,1.339427183153291701e+01,-2.166667421644073777e+00
1.999999999999989697e+01,2.999999999584469723e+00,1.000000000001368861e+01,6.599999999996873923e-01,1.570000000000512985e+00,2.869999999999965439e+03,-2.174999999999900790e+00,-4.944999999998497486e+00,1.339724210540785521e+01,-2.180386532242005071e+00
2.000000000000028777e+01,3.000000000756968266e+00,9.999999999997877254e+00,6.599999999999670575e-01,1.570000000000031148e+00,2.869999999999943611e+03,-2.174999999999997158e+00,-4.944999999999808438e+00,1.340057431107011965e+01,-2.164319501732384854e+00
1.999999999999995737e+01,3.000000001646341286e+00,1.000000000000953015e+01,6.600000000000667555e-01,1.569999999999935447e+00,2.869999999999953616e+03,-2.174999999999974953e+00,-4.945000000000048246e+00,1.339854611411963248e+01,-2.170675181287976319e+00
1.999999999999924327e+01,3.000000002521172604e+00,9.999999999981824317e+00,6.600000000003023448e-01,1.569999999999669438e+00,2.869999999999990450e+03,-2.174999999999995381e+00,-4.945000000000979057e+00,1.338382352480958737e+01,-2.160093910699111497e+00
1.999999999999973710e+01,3.000000002114132869e+00,1.000000000001296563e+01,6.599999999999208722e-01,1.569999999999958762e+00,2.869999999999985448e+03,-2.174999999999977618e+00,-4.945000000000227658e+00,1.338296603304751997e+01,-2.209900737308409191e+00
1.999999999999901590e+01,2.999999999209438606e+00,1.000000000001839950e+01,6.600000000001228218e-01,1.569999999999929008e+00,2.869999999999999545e+03,-2.174999999999932765e+00,-4.945000000000305818e+00,1.338909459996222040e+01,-2.170242388320036575e+00
2.000000000000025935e+01,2.999999999774816573e+00,1.000000000000022204e+01,6.599999999999665024e-01,1.569999999999975415e+00,2.869999999999992724e+03,-2.175000000000036682e+00,-4.945000000000091767e+00,1.338856420703999994e+01,-2.174048680281711388e+00
2.000000000000044764e+01,3.000000000562241809e+00,9.999999999995248245e+00,6.599999999999046629e-01,1.570000000000108642e+00,2.869999999999987267e+03,-2.175000000000024691e+00,-4.944999999999684981e+00,1.338354330479287135e+01,-2.185794994659773227e+00
1.999999999999952038e+01,2.999999999199657985e+00,1.000000000000961897e+01,6.599999999997134825e-01,1.570000000000287166e+00,2.869999999999999545e+03,-2.174999999999932765e+00,-4.944999999999305729e+00,1.338750374285036671e+01,-2.207699348425707697e+00
1.999999999999993960e+01,3.000000000021344704e+00,1.000000000000575895e+01,6.599999999996930544e-01,1.570000000000181917e+00,2.869999999999990905e+03,-2.174999999999971401e+00,-4.944999999999600604e+00,1.338777564199807557e+01,-2.206827929848713232e+00
1.999999999999967315e+01,2.999999999735455614e+00,1.000000000002178702e+01,6.599999999997182565e-01,1.570000000000306706e+00,2.870000000000005912e+03,-2.174999999999930100e+00,-4.944999999999179607e+00,1.337934849278918215e+01,-2.214857307569468858e+00
1.999999999999937828e+01,3.000000000011490364e+00,1.000000000001906031e+01,6.599999999998736877e-01,1.570000000000110196e+00,2.870000000000000909e+03,-2.174999999999975842e+00,-4.944999999999842188e+00,1.338347905529706416e+01,-2.207119141816420438e+00
1.999999999999958078e+01,2.999999999234058468e+00,1.000000000000684253e+01,6.599999999997644418e-01,1.570000000000264517e+00,2.869999999999983629e+03,-2.174999999999911449e+00,-4.944999999999348361e+00,1.338224862760879397e+01,-2.208025980868593585e+00
1.999999999999976197e+01,2.999999997872595081e+00,1.000000000000002487e+01,6.599999999997663291e-01,1.570000000000348672e+00,2.869999999999971806e+03,-2.174999999999907008e+00,-4.944999999999037499e+00,1.338055527257300525e+01,-2.196382387612532572e+00
1.999999999999957367e+01,2.999999999653659710e+00,1.000000000001755218e+01,6.600000000000466605e-01,1.569999999999955209e+00,2.869999999999995907e+03,-2.175000000000054445e+00,-4.945000000000289830e+00,1.337538438915381711e+01,-2.187576409083102913e+00
1.999999999999875655e+01,2.999999999166776288e+00,1.000000000002284573e+01,6.599999999999280886e-01,1.570000000000277618e+00,2.869999999999986358e+03,-2.174999999999832401e+00,-4.944999999999280860e+00,1.340237821475825619e+01,-2.164412064814988490e+00
1.999999999999898748e+01,2.999999997528771445e+00,1.000000000002066791e+01,6.599999999999219824e-01,1.570000000000209672e+00,2.869999999999981355e+03,-2.174999999999884803e+00,-4.944999999999474483e+00,1.339491420694411872e+01,-2.173028688557668620e+00
2.000000000000041922e+01,3.000000003438918927e+00,9.999999999970194509e+00,6.599999999999822675e-01,1.569999999999868168e+00,2.869999999999991360e+03,-2.175000000000030465e+00,-4.945000000000352003e+00,1.338778052632131654e+01,-2.151555738817969132e+00
1.999999999999873523e+01,2.999999996304874017e+00,9.999999999999594991e+00,6.599999999998855671e-01,1.570000000000200790e+00,2.870000000000003183e+03,-2.174999999999901679e+00,-4.944999999999645901e+00,1.338348510627696264e+01,-2.171479305693393869e+00
1.999999999999955946e+01,3.000000000097470032e+00,1.000000000002973799e+01,6.600000000000370015e-01,1.570000000000064455e+00,2.870000000000000909e+03,-2.174999999999961187e+00,-4.944999999999881268e+00,1.340237685631242748e+01,-2.170922407273470967e+00
1.999999999999982947e+01,3.000000000355595109e+00,1.000000000002890843e+01,6.600000000000634248e-01,1.569999999999931894e+00,2.869999999999999545e+03,-2.175000000000015365e+00,-4.945000000000232987e+00,1.340081042812737344e+01,-2.178190221734521259e+00
1.999999999999956657e+01,3.000000000137982514e+00,1.000000000002676614e+01,6.599999999999849321e-01,1.570000000000089768e+00,2.870000000000003183e+03,-2.174999999999965627e+00,-4.944999999999821760e+00,1.339792085159787760e+01,-2.170567488228432040e+00
1.999999999999965539e+01,2.999999999452931387e+00,9.999999999978786747e+00,6.599999999998872324e-01,1.570000000000006501e+00,2.869999999999989541e+03,-2.174999999999981171e+00,-4.945000000000138840e+00,1.338899236855226782e+01,-2.170478853081601933e+00
2.000000000000045475e+01,3.000000000028911096e+00,1.000000000001697842e+01,6.600000000003304335e-01,1.569999999999403206e+00,2.869999999999973170e+03,-2.175000000000174794e+00,-4.945000000001664731e+00,1.337968115472741637e+01,-2.187769107485728615e+00
1.999999999999931788e+01,3.000000001624726131e+00,1.000000000001823253e+01,6.600000000000525446e-01,1.569999999999864393e+00,2.869999999999992724e+03,-2.174999999999996714e+00,-4.945000000000494111e+00,1.338703183496679294e+01,-2.169531410375296954e+00
1.999999999999916511e+01,2.999999998895972020e+00,1.000000000001120348e+01,6.599999999998675815e-01,1.570000000000223439e+00,2.870000000000000455e+03,-2.174999999999860822e+00,-4.944999999999431850e+00,1.338669428050366328e+01,-2.179586110559354584e+00
1.999999999999941025e+01,3.000000001416422535e+00,1.000000000000296119e+01,6.599999999999289768e-01,1.570000000000022933e+00,2.869999999999979082e+03,-2.174999999999958522e+00,-4.945000000000144169e+00,1.339543254441105447e+01,-2.152526421505411847e+00
2.000000000000015277e+01,2.999999998160581605e+00,9.999999999995253575e+00,6.600000000000341149e-01,1.569999999999805329e+00,2.869999999999983629e+03,-2.175000000000051337e+00,-4.945000000000670859e+00,1.337616722659607582e+01,-2.180871121723916950e+00
2.000000000000009237e+01,2.999999999055953825e+00,1.000000000001340084e+01,6.600000000000011413e-01,1.569999999999924789e+00,2.869999999999991360e+03,-2.175000000000047784e+00,-4.945000000000163709e+00,1.339424765853504518e+01,-2.171606253246530116e+00
1.999999999999977618e+01,2.999999999103101889e+00,1.000000000001595879e+01,6.599999999999647260e-01,1.570000000000033813e+00,2.869999999999977717e+03,-2.174999999999969624e+00,-4.944999999999837748e+00,1.340328942707001225e+01,-2.169010551274942689e+00
1.999999999999997158e+01,2.999999997857636380e+00,1.000000000002715339e+01,6.599999999999892619e-01,1.570000000000010054e+00,2.869999999999978627e+03,-2.174999999999983391e+00,-4.944999999999852847e+00,1.340505009964367567e+01,-2.178599445179924654e+00
2.000000000000004619e+01,3.000000000093320018e+00,9.999999999994745536e+00,6.599999999996660760e-01,1.570000000000443485e+00,2.869999999999980901e+03,-2.174999999999897238e+00,-4.944999999998699103e+00,1.338349423031520402e+01,-2.189763475666175019e+00
1.999999999999897682e+01,2.999999998839184556e+00,1.000000000001678657e+01,6.599999999999012212e-01,1.570000000000292273e+00,2.869999999999988177e+03,-2.174999999999867484e+00,-4.944999999999171614e+00,1.340187507465913619e+01,-2.178072838335728623e+00
1.999999999999871392e+01,2.999999998402696821e+00,1.000000000001476863e+01,6.600000000000074696e-01,1.570000000000140838e+00,2.869999999999992724e+03,-2.174999999999874145e+00,-4.944999999999627249e+00,1.340245175024026381e+01,-2.171051000480187287e+00
1.999999999999879208e+01,2.999999997040594835e+00,9.999999999996724398e+00,6.599999999998659161e-01,1.570000000000376206e+00,2.869999999999982720e+03,-2.174999999999814193e+00,-4.944999999998958451e+00,1.340083414268609197e+01,-2.173935375738572429e+00
1.999999999999874589e+01,2.999999997300366150e+00,9.999999999999543476e+00,6.599999999998911182e-01,1.570000000000339790e+00,2.869999999999988631e+03,-2.174999999999834177e+00,-4.944999999999081908e+00,1.339826669377478119e+01,-2.176604915638082449e+00
1.999999999999940670e+01,2.999999996418239334e+00,1.000000000001134559e+01,6.599999999999257572e-01,1.570000000000280727e+00,2.869999999999983174e+03,-2.174999999999880806e+00,-4.944999999999205365e+00,1.339087887432655144e+01,-2.187854355900921366e+00
2.000000000000009592e+01,2.999999996814560088e+00,1.000000000000872724e+01,6.599999999997370193e-01,1.570000000000290719e+00,2.869999999999991815e+03,-2.174999999999929212e+00,-4.944999999999193818e+00,1.338130285078388049e+01,-2.195270051173885850e+00
2.000000000000037303e+01,2.999999999676288276e+00,1.000000000000006928e+01,6.600000000001372547e-01,1.569999999999761808e+00,2.869999999999983629e+03,-2.175000000000111733e+00,-4.945000000000653095e+00,1.339392532486436771e+01,-2.171607489851123951e+00
2.000000000000046896e+01,2.999999999497370062e+00,9.999999999993381294e+00,6.600000000001562395e-01,1.569999999999702522e+00,2.869999999999977263e+03,-2.175000000000116618e+00,-4.945000000000801421e+00,1.339335540534568914e+01,-2.170873035829073316e+00
2.000000000000008882e+01,2.999999998024560632e+00,9.999999999989663380e+00,6.600000000000045830e-01,1.570000000000014939e+00,2.869999999999974989e+03,-2.174999999999983391e+00,-4.944999999999892815e+00,1.338577595214394478e+01,-2.152516301193432735e+00
1.999999999999933920e+01,2.999999997803640017e+00,1.000000000001855760e+01,6.600000000001656764e-01,1.569999999999742935e+00,2.869999999999995907e+03,-2.175000000000063327e+00,-4.945000000000691287e+00,1.339069182231963318e+01,-2.185943469086478963e+00
2.000000000000008527e+01,3.000000001981603770e+00,1.000000000000173550e+01,6.599999999998191758e-01,1.570000000000300489e+00,2.870000000000002274e+03,-2.174999999999978506e+00,-4.944999999999150297e+00,1.339038210476756241e+01,-2.191115392281473895e+00
1.999999999999996447e+01,3.000000001847846320e+00,1.000000000000089173e+01,6.599999999998764633e-01,1.570000000000229878e+00,2.869999999999992269e+03,-2.175000000000002487e+00,-4.944999999999379448e+00,1.339057327695029542e+01,-2.189183340919310883e+00
1.999999999999936406e+01,3.000000001237522973e+00,9.999999999988681054e+00,6.599999999998145128e-01,1.570000000000276952e+00,2.869999999999978627e+03,-2.174999999999867484e+00,-4.944999999999246221e+00,1.337986619362599683e+01,-2.181651680945988048e+00
1.999999999999942446e+01,2.999999998610159757e+00,1.000000000001782752e+01,6.599999999996362110e-01,1.570000000000478568e+00,2.869999999999994998e+03,-2.174999999999847500e+00,-4.944999999998635154e+00,1.341143318301495668e+01,-2.166249437007099043e+00
1.999999999999962697e+01,2.999999998644443444e+00,1.000000000001263523e+01,6.599999999996247757e-01,1.570000000000461693e+00,2.869999999999994543e+03,-2.174999999999867040e+00,-4.944999999998694662e+00,1.340289602847386341e+01,-2.174250997887690495e+00
1.999999999999962697e+01,2.999999997866614532e+00,1.000000000000719602e+01,6.599999999995923572e-01,1.570000000000482343e+00,2.869999999999996817e+03,-2.174999999999877698e+00,-4.944999999998672457e+00,1.339923480936687739e+01,-2.182045373001419541e+00
1.999999999999971578e+01,2.999999997879590818e+00,1.000000000000678391e+01,6.599999999995872502e-01,1.570000000000479012e+00,2.869999999999996817e+03,-2.174999999999893685e+00,-4.944999999998672457e+00,1.340348708601994154e+01,-2.171021297387110138e+00
1.999999999999942446e+01,2.999999998144961211e+00,1.000000000001649347e+01,6.599999999998051869e-01,1.570000000000331797e+00,2.870000000000005457e+03,-2.174999999999886136e+00,-4.944999999999160956e+00,1.338434202522246252e+01,-2.172341159094764329e+00
1.999999999999944933e+01,2.999999997360546011e+00,9.999999999990370370e+00,6.599999999995510569e-01,1.570000000000619567e+00,2.869999999999987267e+03,-2.174999999999823963e+00,-4.944999999998398899e+00,1.337946208278364502e+01,-2.181731606743089191e+00
1.999999999999858602e+01,3.000000001696516705e+00,9.999999999992441602e+00,6.599999999999686118e-01,1.570000000000068896e+00,2.870000000000002274e+03,-2.174999999999902567e+00,-4.944999999999950546e+00,1.339584241629276917e+01,-2.147758446397903143e+00
1.999999999999989342e+01,2.999999998420871172e+00,1.000000000000471978e+01,6.599999999997463451e-01,1.570000000000269624e+00,2.869999999999993179e+03,-2.174999999999962519e+00,-4.944999999999318163e+00,1.338176359287359141e+01,-2.166813832365494630e+00
1.999999999999907629e+01,2.999999999920230032e+00,1.000000000001149481e+01,6.599999999997935296e-01,1.570000000000427942e+00,2.869999999999988631e+03,-2.174999999999804423e+00,-4.944999999998792362e+00,1.339462333742757316e+01,-2.160272723001173123e+00
1.999999999999872458e+01,2.999999999353418101e+00,1.000000000002148859e+01,6.599999999999027755e-01,1.570000000000342455e+00,2.869999999999988631e+03,-2.174999999999819522e+00,-4.944999999999028617e+00,1.339691534528564532e+01,-2.164462541134609008e+00
1.999999999999929301e+01,3.000000002023237577e+00,1.000000000001605294e+01,6.599999999998727995e-01,1.570000000000283169e+00,2.869999999999984539e+03,-2.174999999999884803e+00,-4.944999999999228457e+00,1.339004196595864471e+01,-2.183011287691795310e+00
1.999999999999992184e+01,3.000000000330280692e+00,1.000000000002423484e+01,6.599999999998769074e-01,1.570000000000104867e+00,2.870000000000000455e+03,-2.174999999999941203e+00,-4.944999999999673435e+00,1.340513919454816438e+01,-2.162338263793349036e+00
1.999999999999992184e+01,3.000000000482406115e+00,1.000000000002303402e+01,6.599999999998902300e-01,1.570000000000141060e+00,2.869999999999998181e+03,-2.174999999999929212e+00,-4.944999999999557971e+00,1.340325831135182888e+01,-2.163229313313742352e+00
1.999999999999969447e+01,3.000000000710081771e+00,1.000000000003217693e+01,6.599999999998941158e-01,1.570000000000106866e+00,2.870000000000005002e+03,-2.174999999999943867e+00,-4.944999999999734719e+00,1.340181040034013371e+01,-2.174346593393789995e+00
2.000000000000011013e+01,3.000000001268628758e+00,1.000000000002853540e+01,6.599999999998329425e-01,1.570000000000125961e+00,2.869999999999997726e+03,-2.175000000000000266e+00,-4.944999999999703633e+00,1.340477784511179316e+01,-2.165083886435318128e+00
1.999999999999945643e+01,3.000000000764919239e+00,1.000000000002334666e+01,6.600000000001305933e-01,1.569999999999853513e+00,2.869999999999990450e+03,-2.174999999999967848e+00,-4.945000000000288054e+00,1.339915784945360855e+01,-2.196999080800857929e+00
2.000000000000007461e+01,3.000000000352395002e+00,9.999999999999511502e+00,6.600000000000550981e-01,1.569999999999937224e+00,2.869999999999983629e+03,-2.174999999999986056e+00,-4.945000000000136176e+00,1.339471000694785197e+01,-2.188746479270395007e+00
2.000000000000012434e+01,2.999999999987533972e+00,9.999999999997939426e+00,6.600000000000606493e-01,1.569999999999953877e+00,2.869999999999984084e+03,-2.174999999999995381e+00,-4.945000000000071338e+00,1.339698285855378224e+01,-2.183468776527211386e+00
1.999999999999922906e+01,3.000000002652671416e+00,1.000000000001999112e+01,6.599999999997927524e-01,1.570000000000365326e+00,2.869999999999993179e+03,-2.174999999999826628e+00,-4.944999999998985984e+00,1.340203501347709114e+01,-2.169152148981401851e+00
1.999999999999955946e+01,3.000000002931115350e+00,1.000000000002463807e+01,6.599999999997148148e-01,1.570000000000493889e+00,2.869999999999995453e+03,-2.174999999999814193e+00,-4.944999999998555218e+00,1.341163026768952093e+01,-2.161482959231157963e+00
1.999999999999964473e+01,3.000000002565113899e+00,1.000000000001842260e+01,6.599999999996709610e-01,1.570000000000510765e+00,2.869999999999994088e+03,-2.174999999999802647e+00,-4.944999999998514362e+00,1.341011587033231756e+01,-2.165510813421015257e+00
1.999999999999926459e+01,3.000000002309028968e+00,1.000000000001889333e+01,6.599999999997113731e-01,1.570000000000536966e+00,2.869999999999995453e+03,-2.174999999999785771e+00,-4.944999999998472617e+00,1.341311741638969046e+01,-2.159564021089805053e+00
1.999999999999961631e+01,3.000000001209367717e+00,1.000000000002379608e+01,6.599999999999380806e-01,1.570000000000103091e+00,2.870000000000000000e+03,-2.174999999999977618e+00,-4.944999999999722284e+00,1.339159036361366617e+01,-2.178327031562885985e+00
1.999999999999955946e+01,3.000000000146581858e+00,1.000000000003757350e+01,6.599999999998675815e-01,1.570000000000214557e+00,2.870000000000000000e+03,-2.174999999999946976e+00,-4.944999999999375007e+00,1.339187007574652100e+01,-2.186728056952680799e+00
1.999999999999950617e+01,2.999999999262597417e+00,9.999999999987025490e+00,6.599999999999559552e-01,1.569999999999994067e+00,2.869999999999994088e+03,-2.174999999999992273e+00,-4.945000000000218776e+00,1.338702766585140402e+01,-2.156103313337688565e+00
1.999999999999965539e+01,3.000000003723877207e+00,9.999999999998522071e+00,6.600000000001433609e-01,1.569999999999739826e+00,2.869999999999963620e+03,-2.174999999999959410e+00,-4.945000000000727702e+00,1.338796979781853658e+01,-2.178105247000075462e+00
1.999999999999931788e+01,3.000000000359022589e+00,1.000000000000061107e+01,6.600000000000962874e-01,1.569999999999775131e+00,2.870000000000001364e+03,-2.175000000000025580e+00,-4.945000000000828955e+00,1.340099551946765288e+01,-2.153332526419912352e+00
1.999999999999916511e+01,3.000000000368115760e+00,1.000000000000988187e+01,6.600000000000070255e-01,1.569999999999840634e+00,2.869999999999996817e+03,-2.174999999999985167e+00,-4.945000000000631779e+00,1.340287522202913451e+01,-2.170739021857815310e+00
1.999999999999878497e+01,3.000000000457859084e+00,9.999999999995051070e+00,6.599999999995465050e-01,1.570000000000695284e+00,2.869999999999995453e+03,-2.174999999999761791e+00,-4.944999999998156426e+00,1.339657697355146659e+01,-2.170303722077145281e+00
1.999999999999898037e+01,3.000000000707482073e+00,9.999999999994161115e+00,6.599999999996950528e-01,1.570000000000472129e+00,2.869999999999996817e+03,-2.174999999999834621e+00,-4.944999999998759499e+00,1.339361173308577158e+01,-2.171099293107754846e+00
1.999999999999861089e+01,2.999999998699451886e+00,9.999999999995271338e+00,6.599999999997587796e-01,1.570000000000443929e+00,2.869999999999988177e+03,-2.174999999999739586e+00,-4.944999999998809237e+00,1.338929603533567025e+01,-2.185214946244936840e+00
1.999999999999930367e+01,2.999999999576694165e+00,9.999999999988926191e+00,6.599999999996079003e-01,1.570000000000529417e+00,2.869999999999994543e+03,-2.174999999999788880e+00,-4.944999999998568541e+00,1.339424879941298485e+01,-2.180754685539283866e+00
2.000000000000026645e+01,2.999999997966937393e+00,9.999999999999456435e+00,6.599999999999842659e-01,1.569999999999969864e+00,2.869999999999988177e+03,-2.175000000000025580e+00,-4.945000000000040252e+00,1.339268638761176256e+01,-2.170598263838236175e+00
1.999999999999925393e+01,3.000000001036945196e+00,1.000000000000697753e+01,6.600000000000864064e-01,1.569999999999917462e+00,2.870000000000000455e+03,-2.174999999999992273e+00,-4.945000000000359108e+00,1.339331386602611218e+01,-2.158421972850302240e+00
1.999999999999910472e+01,3.000000000392482491e+00,1.000000000000159162e+01,6.600000000000083578e-01,1.570000000000038476e+00,2.869999999999955890e+03,-2.174999999999922995e+00,-4.944999999999946994e+00,1.338553745161814845e+01,-2.177856400542429682e+00
1.999999999999930722e+01,3.000000000282127210e+00,9.999999999980857979e+00,6.599999999999198730e-01,1.570000000000280727e+00,2.869999999999968622e+03,-2.174999999999838618e+00,-4.944999999999208029e+00,1.341548434958584934e+01,-2.168492612791983909e+00
1.999999999999912248e+01,2.999999999786918892e+00,9.999999999985551113e+00,6.599999999999442979e-01,1.570000000000229212e+00,2.869999999999969987e+03,-2.174999999999835509e+00,-4.944999999999401652e+00,1.340991265910660601e+01,-2.171758516833785624e+00
1.999999999999936762e+01,2.999999999448881738e+00,9.999999999986858512e+00,6.599999999999209832e-01,1.570000000000272289e+00,2.869999999999970896e+03,-2.174999999999831957e+00,-4.944999999999210694e+00,1.340831863140505220e+01,-2.169875537864105919e+00
1.999999999999932143e+01,3.000000000337179173e+00,9.999999999993459454e+00,6.599999999998407141e-01,1.570000000000343343e+00,2.869999999999971806e+03,-2.174999999999844835e+00,-4.944999999999065921e+00,1.340837938402639296e+01,-2.177388593636427672e+00
1.999999999999942091e+01,2.999999999360964509e+00,9.999999999994118483e+00,6.599999999998050759e-01,1.570000000000403739e+00,2.869999999999963165e+03,-2.174999999999834621e+00,-4.944999999998882068e+00,1.340335699011627923e+01,-2.178642127626149616e+00
1.999999999999934630e+01,3.000000000970765690e+00,9.999999999989864108e+00,6.599999999998357181e-01,1.570000000000351337e+00,2.869999999999965439e+03,-2.174999999999850164e+00,-4.944999999999072138e+00,1.340659009483574415e+01,-2.168425127876735026e+00
1.999999999999892708e+01,3.000000001559770535e+00,1.000000000000830447e+01,6.599999999999184297e-01,1.570000000000242979e+00,2.869999999999999091e+03,-2.174999999999906564e+00,-4.944999999999422080e+00,1.338110402035006175e+01,-2.182278439037238282e+00
1.999999999999866418e+01,2.999999999133122319e+00,1.000000000000127010e+01,6.600000000000110223e-01,1.570000000000116414e+00,2.869999999999993179e+03,-2.174999999999848388e+00,-4.944999999999755147e+00,1.339947822778315611e+01,-2.199521698146643001e+00
1.999999999999890932e+01,2.999999999538148998e+00,9.999999999996500577e+00,6.599999999999545119e-01,1.570000000000171925e+00,2.869999999999992724e+03,-2.174999999999814637e+00,-4.944999999999568630e+00,1.340191981136299937e+01,-2.186056707186834647e+00
1.999999999999998934e+01,3.000000001539197658e+00,1.000000000000580336e+01,6.599999999997581135e-01,1.570000000000267626e+00,2.869999999999992724e+03,-2.174999999999967848e+00,-4.944999999999397211e+00,1.338526198867583616e+01,-2.170948127694134921e+00
1.999999999999966604e+01,2.999999998543568580e+00,1.000000000000139799e+01,6.599999999997028244e-01,1.570000000000350671e+00,2.869999999999975444e+03,-2.174999999999933653e+00,-4.944999999999172502e+00,1.338037732409204672e+01,-2.187701420759469606e+00
1.999999999999972289e+01,2.999999998547657754e+00,9.999999999986345145e+00,6.599999999999242029e-01,1.570000000000076223e+00,2.869999999999963165e+03,-2.174999999999939870e+00,-4.944999999999819984e+00,1.341422610209130184e+01,-2.177701688745506292e+00
1.999999999999989697e+01,2.999999997397718055e+00,9.999999999977289278e+00,6.599999999998854561e-01,1.570000000000064455e+00,2.869999999999964530e+03,-2.174999999999945643e+00,-4.944999999999858176e+00,1.341177295899010780e+01,-2.174677909105944273e+00
1.999999999999978684e+01,2.999999996471353292e+00,9.999999999986346921e+00,6.599999999998525935e-01,1.570000000000101759e+00,2.869999999999964530e+03,-2.174999999999950528e+00,-4.944999999999812879e+00,1.340860847873936024e+01,-2.183495465427343518e+00
1.999999999999964473e+01,2.999999997096192583e+00,9.999999999981740828e+00,6.599999999999629496e-01,1.569999999999963869e+00,2.869999999999961346e+03,-2.174999999999964295e+00,-4.945000000000194795e+00,1.340759526824537673e+01,-2.182246656844134769e+00
1.999999999999954525e+01,2.999999997450883527e+00,9.999999999984479970e+00,6.599999999999049960e-01,1.570000000000076223e+00,2.869999999999958618e+03,-2.174999999999918554e+00,-4.944999999999858176e+00,1.341440578397086192e+01,-2.177876066238881858e+00
1.999999999999970157e+01,2.999999997178136368e+00,9.999999999980939691e+00,6.599999999997796518e-01,1.570000000000242091e+00,2.869999999999964075e+03,-2.174999999999907896e+00,-4.944999999999437179e+00,1.340903263574017501e+01,-2.175468426692701573e+00
1.999999999999925038e+01,2.999999997260532236e+00,9.999999999997561062e+00,6.600000000000787459e-01,1.569999999999860396e+00,2.869999999999965894e+03,-2.175000000000010925e+00,-4.945000000000492335e+00,1.339310883276480268e+01,-2.184503672255507123e+00
1.999999999999939249e+01,2.999999996925656554e+00,9.999999999974679810e+00,6.600000000000898481e-01,1.569999999999806883e+00,2.869999999999956344e+03,-2.175000000000015365e+00,-4.945000000000612239e+00,1.339630627694098663e+01,-2.174952107390959011e+00
2.000000000000010658e+01,2.999999996339651087e+00,9.999999999975626608e+00,6.600000000000780798e-01,1.569999999999826423e+00,2.869999999999968622e+03,-2.175000000000031797e+00,-4.945000000000459472e+00,1.339535060105367847e+01,-2.184840763654626539e+00
1.999999999999989342e+01,2.999999997649816397e+00,9.999999999988133936e+00,6.600000000000785239e-01,1.569999999999930340e+00,2.869999999999971351e+03,-2.175000000000013589e+00,-4.945000000000165485e+00,1.339335919978104883e+01,-2.184233559336630215e+00
1.999999999999936051e+01,2.999999997542100338e+00,9.999999999979053200e+00,6.599999999998987787e-01,1.570000000000220997e+00,2.869999999999988631e+03,-2.174999999999887024e+00,-4.944999999999429185e+00,1.339650115065063041e+01,-2.175967942627616836e+00
1.999999999999904432e+01,2.999999998180891581e+00,9.999999999984970245e+00,6.599999999999346390e-01,1.570000000000230544e+00,2.869999999999981810e+03,-2.174999999999867928e+00,-4.944999999999422080e+00,1.339627913208054544e+01,-2.182019435736104906e+00
1.999999999999977973e+01,2.999999997611739744e+00,1.000000000000562572e+01,6.599999999998350519e-01,1.570000000000184581e+00,2.869999999999988631e+03,-2.174999999999895017e+00,-4.944999999999442508e+00,1.339601528183706236e+01,-2.189524543753819330e+00
1.999999999999972289e+01,2.999999999061137679e+00,1.000000000000225597e+01,6.599999999999665024e-01,1.570000000000125961e+00,2.869999999999984539e+03,-2.174999999999916778e+00,-4.944999999999620144e+00,1.339376860423122473e+01,-2.176111503751900322e+00
1.999999999999905498e+01,3.000000001287295603e+00,9.999999999999749534e+00,6.599999999998844569e-01,1.570000000000254303e+00,2.869999999999969987e+03,-2.174999999999826183e+00,-4.944999999999443396e+00,1.340269891687179893e+01,-2.161064796429715162e+00
1.999999999999944578e+01,3.000000000669239775e+00,1.000000000001018741e+01,6.599999999999032196e-01,1.570000000000191909e+00,2.869999999999984084e+03,-2.174999999999891909e+00,-4.944999999999591722e+00,1.340278127478305770e+01,-2.161543537288768579e+00
1.999999999999933209e+01,3.000000001364314439e+00,1.000000000000559019e+01,6.600000000000999512e-01,1.569999999999813323e+00,2.869999999999970441e+03,-2.175000000000002487e+00,-4.945000000000580265e+00,1.338686257122919265e+01,-2.163841867008414521e+00
2.000000000000009592e+01,3.000000000271384692e+00,1.000000000001760014e+01,6.599999999999649480e-01,1.569999999999992291e+00,2.869999999999991360e+03,-2.175000000000010925e+00,-4.945000000000018048e+00,1.338124393952979752e+01,-2.182406598241412699e+00
1.999999999999921840e+01,3.000000000595182570e+00,1.000000000003337775e+01,6.599999999997344657e-01,1.570000000000391527e+00,2.869999999999986358e+03,-2.174999999999887912e+00,-4.944999999999005524e+00,1.337553571223453908e+01,-2.189583185468760185e+00
1.999999999999952749e+01,2.999999999203760481e+00,1.000000000001870859e+01,6.599999999997936406e-01,1.570000000000355334e+00,2.870000000000000000e+03,-2.174999999999879030e+00,-4.944999999999045492e+00,1.337550522980329859e+01,-2.200886794323861917e+00
1.999999999999937117e+01,2.999999998824196989e+00,1.000000000001056577e+01,6.599999999997196998e-01,1.570000000000504548e+00,2.870000000000001364e+03,-2.174999999999863931e+00,-4.944999999998722195e+00,1.337082082248738502e+01,-2.202753001142190747e+00
1.999999999999910116e+01,3.000000000310926396e+00,1.000000000001194955e+01,6.600000000000159073e-01,1.570000000000071561e+00,2.869999999999996362e+03,-2.174999999999950973e+00,-4.944999999999905249e+00,1.338384350261446620e+01,-2.185341643949525015e+00
1.999999999999927525e+01,2.999999998884786301e+00,1.000000000000001066e+01,6.599999999999703881e-01,1.570000000000053797e+00,2.869999999999969987e+03,-2.174999999999922551e+00,-4.944999999999976303e+00,1.338874648780000953e+01,-2.176301135870162717e+00
1.999999999999904077e+01,3.000000000197458494e+00,1.000000000001768008e+01,6.600000000001505773e-01,1.569999999999954099e+00,2.869999999999983629e+03,-2.174999999999953637e+00,-4.945000000000204565e+00,1.339273137880110909e+01,-2.171729388465383437e+00
1.999999999999940670e+01,2.999999999199965295e+00,1.000000000000720313e+01,6.600000000000525446e-01,1.569999999999905693e+00,2.869999999999986358e+03,-2.174999999999990496e+00,-4.945000000000404405e+00,1.338879750820617076e+01,-2.191662916734984368e+00
1.999999999999903366e+01,3.000000001311739162e+00,1.000000000004383871e+01,6.599999999999046629e-01,1.570000000000287832e+00,2.869999999999971351e+03,-2.174999999999866596e+00,-4.944999999999196483e+00,1.338875128704150264e+01,-2.183721318775556863e+00
1.999999999999896971e+01,2.999999999639946680e+00,1.000000000003511325e+01,6.599999999998034106e-01,1.570000000000424389e+00,2.869999999999962711e+03,-2.174999999999811973e+00,-4.944999999998784368e+00,1.339393425619187461e+01,-2.189569635725637564e+00
1.999999999999996092e+01,2.999999998829139702e+00,1.000000000002159162e+01,6.599999999997705480e-01,1.570000000000319362e+00,2.869999999999984993e+03,-2.174999999999941203e+00,-4.944999999999088125e+00,1.339457084461272807e+01,-2.186113393095445723e+00
2.000000000000024158e+01,3.000000000134238842e+00,1.000000000001330669e+01,6.599999999997672173e-01,1.570000000000246310e+00,2.869999999999983174e+03,-2.174999999999972733e+00,-4.944999999999288853e+00,1.340171453021257975e+01,-2.179118952670201281e+00
1.999999999999976552e+01,3.000000000505372189e+00,1.000000000001180567e+01,6.599999999997666622e-01,1.570000000000321361e+00,2.869999999999990450e+03,-2.174999999999906120e+00,-4.944999999999115659e+00,1.339942203184390301e+01,-2.179160297788883760e+00
1.999999999999900524e+01,3.000000000406125800e+00,1.000000000001698908e+01,6.599999999998835687e-01,1.570000000000238094e+00,2.869999999999992269e+03,-2.174999999999893241e+00,-4.944999999999438067e+00,1.338496942768117215e+01,-2.168448810733026644e+00
1.999999999999988276e+01,3.000000001462575838e+00,1.000000000000790656e+01,6.600000000000830758e-01,1.569999999999874385e+00,2.869999999999976353e+03,-2.174999999999983391e+00,-4.945000000000282725e+00,1.338574379675080728e+01,-2.170696083635152540e+00
1.999999999999905853e+01,3.000000001134989880e+00,1.000000000000529177e+01,6.599999999996811750e-01,1.570000000000502771e+00,2.870000000000001364e+03,-2.174999999999870148e+00,-4.944999999998768381e+00,1.339336135747684864e+01,-2.181573816795782328e+00
1.999999999999887734e+01,3.000000001985919873e+00,1.000000000000988010e+01,6.599999999997631095e-01,1.570000000000427942e+00,2.870000000000002728e+03,-2.174999999999853273e+00,-4.944999999998946905e+00,1.339211582156320723e+01,-2.181248251191687082e+00
2.000000000000023093e+01,2.999999999427624520e+00,1.000000000000534328e+01,6.599999999998541478e-01,1.570000000000021156e+00,2.870000000000001819e+03,-2.175000000000035350e+00,-4.945000000000025153e+00,1.338773687958189562e+01,-2.178505468080299767e+00
1.999999999999989697e+01,3.000000001775003700e+00,9.999999999995925037e+00,6.600000000000010303e-01,1.569999999999921680e+00,2.869999999999993634e+03,-2.175000000000026468e+00,-4.945000000000328022e+00,1.338081945323171240e+01,-2.183286088646677392e+00
1.999999999999998579e+01,3.000000001545039652e+00,1.000000000000012434e+01,6.599999999997562261e-01,1.570000000000308482e+00,2.869999999999984084e+03,-2.174999999999960298e+00,-4.944999999999212470e+00,1.339530361792634316e+01,-2.156470401756842126e+00
1.999999999999953815e+01,3.000000000148056678e+00,1.000000000001212719e+01,6.599999999998581446e-01,1.570000000000118634e+00,2.870000000000003638e+03,-2.174999999999973177e+00,-4.944999999999773799e+00,1.339391545018632002e+01,-2.163216612830966668e+00
1.999999999999943867e+01,3.000000001174051967e+00,1.000000000001948308e+01,6.599999999996712940e-01,1.570000000000360885e+00,2.869999999999989996e+03,-2.174999999999890576e+00,-4.944999999999081908e+00,1.339963259514563809e+01,-2.180324471156782185e+00
1.999999999999981526e+01,3.000000000090203844e+00,1.000000000000810552e+01,6.599999999997845368e-01,1.570000000000215890e+00,2.869999999999990905e+03,-2.174999999999933653e+00,-4.944999999999422968e+00,1.339860551033141611e+01,-2.190325426145957710e+00
1.999999999999943867e+01,3.000000003105419033e+00,9.999999999987569055e+00,6.600000000002185230e-01,1.569999999999785567e+00,2.869999999999985448e+03,-2.174999999999990941e+00,-4.945000000000689511e+00,1.338805600925273254e+01,-2.153327168701985261e+00
1.999999999999939249e+01,3.000000001158125595e+00,9.999999999994024336e+00,6.599999999998835687e-01,1.570000000000213003e+00,2.870000000000005912e+03,-2.174999999999925215e+00,-4.944999999999462936e+00,1.337400485478448964e+01,-2.177174932746919200e+00
1.999999999999960210e+01,2.999999998581338367e+00,9.999999999989917399e+00,6.599999999998508171e-01,1.570000000000173923e+00,2.869999999999991815e+03,-2.174999999999952749e+00,-4.944999999999638796e+00,1.338932589858556987e+01,-2.172288750544375979e+00
1.999999999999950617e+01,3.000000000334565264e+00,1.000000000000486899e+01,6.599999999998856781e-01,1.570000000000164375e+00,2.869999999999984993e+03,-2.174999999999932765e+00,-4.944999999999671658e+00,1.337852880170069803e+01,-2.192858534913937341e+00
1.999999999999895905e+01,2.999999998014529101e+00,1.000000000000252953e+01,6.599999999996839506e-01,1.570000000000528306e+00,2.869999999999989086e+03,-2.174999999999860822e+00,-4.944999999998620943e+00,1.338101964604797267e+01,-2.177601427676119972e+00
1.999999999999985434e+01,2.999999999970183406e+00,1.000000000000951594e+01,6.599999999998016342e-01,1.570000000000302265e+00,2.869999999999991815e+03,-2.174999999999921219e+00,-4.944999999999246221e+00,1.338403974927090445e+01,-2.156900311425187677e+00
1.999999999999941025e+01,3.000000003656521752e+00,9.999999999999092282e+00,6.600000000003904965e-01,1.569999999999597273e+00,2.869999999999997726e+03,-2.175000000000031353e+00,-4.945000000001148699e+00,1.339560604677779310e+01,-2.152167955088039264e+00
1.999999999999937117e+01,3.000000001407954198e+00,9.999999999993484323e+00,6.600000000001043921e-01,1.569999999999863505e+00,2.869999999999988631e+03,-2.175000000000000711e+00,-4.945000000000474571e+00,1.338028508549514228e+01,-2.194416009602301099e+00
1.999999999999986855e+01,3.000000000589744698e+00,9.999999999995520028e+00,6.599999999999682787e-01,1.570000000000034257e+00,2.869999999999983629e+03,-2.174999999999954525e+00,-4.944999999999891926e+00,1.339129671799013011e+01,-2.168737277100019956e+00
1.999999999999917932e+01,2.999999999881159507e+00,9.999999999992303046e+00,6.599999999997683275e-01,1.570000000000394635e+00,2.869999999999977263e+03,-2.174999999999840394e+00,-4.944999999998944240e+00,1.337990742055564475e+01,-2.177408856993131359e+00
1.999999999999934275e+01,2.999999999240499982e+00,9.999999999982133403e+00,6.600000000001422507e-01,1.569999999999891926e+00,2.869999999999982720e+03,-2.174999999999966960e+00,-4.945000000000331575e+00,1.338341466808850200e+01,-2.163017147468929036e+00
2.000000000000059686e+01,3.000000000708805903e+00,9.999999999985336174e+00,6.599999999999215383e-01,1.569999999999947216e+00,2.869999999999974079e+03,-2.175000000000044675e+00,-4.945000000000083773e+00,1.339005097689613777e+01,-2.184216631854741575e+00
2.000000000000031619e+01,3.000000001015458384e+00,9.999999999996175504e+00,6.599999999999414113e-01,1.569999999999923013e+00,2.869999999999976353e+03,-2.175000000000026912e+00,-4.945000000000148610e+00,1.339550152200604494e+01,-2.177123647916142879e+00
2.000000000000001776e+01,3.000000001335656918e+00,9.999999999981170618e+00,6.599999999999238698e-01,1.570000000000100426e+00,2.869999999999994998e+03,-2.175000000000023803e+00,-4.944999999999781792e+00,1.338737951839514650e+01,-2.155060412209638177e+00
2.000000000000049027e+01,2.999999998565278769e+00,9.999999999978740561e+00,6.600000000000544320e-01,1.569999999999803331e+00,2.869999999999995907e+03,-2.175000000000038902e+00,-4.945000000000493223e+00,1.337287614066906727e+01,-2.203823208639862585e+00
2.000000000000027356e+01,3.000000000375426801e+00,9.999999999998376410e+00,6.599999999997114841e-01,1.570000000000352891e+00,2.870000000000003638e+03,-2.174999999999916334e+00,-4.944999999998968221e+00,1.336976751141331476e+01,-2.207253017327820199e+00
1.999999999999938183e+01,3.000000000984591075e+00,9.999999999993502087e+00,6.599999999998863442e-01,1.570000000000211893e+00,2.869999999999994998e+03,-2.174999999999883471e+00,-4.944999999999416751e+00,1.338074616405725514e+01,-2.185732690684988988e+00
1.999999999999936051e+01,2.999999999282116026e+00,1.000000000000560796e+01,6.599999999998196198e-01,1.570000000000275397e+00,2.869999999999997726e+03,-2.174999999999865263e+00,-4.944999999999291518e+00,1.337533424221512135e+01,-2.201471242008747442e+00
1.999999999999954525e+01,3.000000000546446000e+00,1.000000000000881073e+01,6.600000000003173328e-01,1.569999999999584617e+00,2.869999999999999091e+03,-2.175000000000061551e+00,-4.945000000001190443e+00,1.337956745192741614e+01,-2.189218921143331720e+00
2.000000000000029132e+01,2.999999999375726034e+00,1.000000000001326761e+01,6.599999999999940359e-01,1.569999999999982077e+00,2.869999999999998636e+03,-2.175000000000031797e+00,-4.944999999999999396e+00,1.338639607226171790e+01,-2.185720212935759132e+00
1.999999999999957723e+01,2.999999996593061269e+00,1.000000000000414246e+01,6.600000000000588729e-01,1.570000000000040696e+00,2.869999999999989541e+03,-2.174999999999959854e+00,-4.944999999999894591e+00,1.338828049995991698e+01,-2.161510159617588744e+00
2.000000000000013856e+01,2.999999998285427516e+00,1.000000000000533262e+01,6.599999999999391909e-01,1.570000000000036033e+00,2.869999999999994543e+03,-2.174999999999981171e+00,-4.944999999999872387e+00,1.338980507232968797e+01,-2.168505820847818288e+00
1.999999999999942801e+01,3.000000000331141337e+00,9.999999999993397282e+00,6.599999999997863132e-01,1.570000000000273621e+00,2.870000000000006821e+03,-2.174999999999942979e+00,-4.944999999999360796e+00,1.337711675161505909e+01,-2.194280228053675952e+00
1.999999999999961275e+01,3.000000001780063652e+00,1.000000000001852385e+01,6.600000000002806955e-01,1.569999999999717399e+00,2.869999999999965894e+03,-2.174999999999989164e+00,-4.945000000000741025e+00,1.340766821862050229e+01,-2.155223402084257778e+00
1.999999999999943867e+01,3.000000000265031552e+00,1.000000000002511769e+01,6.600000000001183809e-01,1.569999999999916573e+00,2.869999999999975898e+03,-2.174999999999922107e+00,-4.945000000000238316e+00,1.340619057569518446e+01,-2.167185212865456290e+00
1.999999999999970157e+01,3.000000000663201050e+00,9.999999999974219733e+00,6.599999999999973666e-01,1.570000000000018492e+00,2.869999999999988631e+03,-2.174999999999918110e+00,-4.944999999999960316e+00,1.338857218937297944e+01,-2.178373176299310376e+00
1.999999999999987210e+01,3.000000001188770860e+00,1.000000000001022826e+01,6.599999999996631894e-01,1.570000000000335794e+00,2.870000000000000455e+03,-2.174999999999921219e+00,-4.944999999999249773e+00,1.338555682677710301e+01,-2.178590744131908341e+00
1.999999999999907985e+01,3.000000003299351015e+00,1.000000000002057909e+01,6.599999999999582867e-01,1.570000000000147500e+00,2.869999999999989541e+03,-2.174999999999926104e+00,-4.944999999999659224e+00,1.339633319118295240e+01,-2.171518543849033644e+00
1.999999999999921130e+01,3.000000002803143939e+00,1.000000000002700595e+01,6.600000000000693090e-01,1.569999999999996287e+00,2.869999999999992269e+03,-2.174999999999965627e+00,-4.945000000000069562e+00,1.340384480666179812e+01,-2.164365318069762623e+00
1.999999999999924682e+01,2.999999998760985331e+00,1.000000000001680966e+01,6.599999999998945599e-01,1.570000000000130846e+00,2.869999999999984539e+03,-2.174999999999945199e+00,-4.944999999999714291e+00,1.339003638038370170e+01,-2.196637770760126340e+00
2.000000000000045119e+01,2.999999999117207494e+00,9.999999999983307575e+00,6.599999999998402700e-01,1.570000000000126184e+00,2.869999999999990450e+03,-2.175000000000016254e+00,-4.944999999999718732e+00,1.338833488246400982e+01,-2.192572472680943463e+00
1.999999999999911537e+01,3.000000002078928141e+00,1.000000000001663558e+01,6.599999999998065192e-01,1.570000000000510543e+00,2.870000000000006366e+03,-2.174999999999833289e+00,-4.944999999998674234e+00,1.338497304447925451e+01,-2.172677458118136951e+00
1.999999999999927169e+01,2.999999997609223534e+00,1.000000000000821920e+01,6.599999999998316103e-01,1.570000000000339124e+00,2.869999999999968168e+03,-2.174999999999854605e+00,-4.944999999999067697e+00,1.337998552327818835e+01,-2.194279465638160342e+00
1.999999999999923261e+01,2.999999999594846312e+00,1.000000000000538058e+01,6.599999999997562261e-01,1.570000000000360441e+00,2.869999999999979991e+03,-2.174999999999847500e+00,-4.944999999999130758e+00,1.339312046945473789e+01,-2.182420654717896369e+00
1.999999999999925038e+01,2.999999999861922007e+00,1.000000000001981881e+01,6.599999999996408739e-01,1.570000000000493445e+00,2.869999999999984539e+03,-2.174999999999859934e+00,-4.944999999998804796e+00,1.339239751274696033e+01,-2.196311018912897151e+00
1.999999999999968381e+01,2.999999999940126560e+00,1.000000000001098144e+01,6.599999999998885647e-01,1.570000000000169260e+00,2.869999999999989996e+03,-2.174999999999952749e+00,-4.944999999999571294e+00,1.339378379833254584e+01,-2.153091983192360281e+00
1.999999999999963052e+01,2.999999998238698673e+00,9.999999999999550582e+00,6.599999999996792877e-01,1.570000000000429496e+00,2.869999999999997726e+03,-2.174999999999879918e+00,-4.944999999998813678e+00,1.338924205406354773e+01,-2.171453343305918882e+00
1.999999999999949551e+01,2.999999998670657142e+00,9.999999999993708144e+00,6.599999999996467581e-01,1.570000000000458806e+00,2.869999999999988177e+03,-2.174999999999870148e+00,-4.944999999998760387e+00,1.339002404365225019e+01,-2.169511954026368539e+00
1.999999999999914024e+01,3.000000000535335332e+00,9.999999999997886135e+00,6.599999999996761790e-01,1.570000000000401741e+00,2.869999999999974534e+03,-2.174999999999855937e+00,-4.944999999998963780e+00,1.340081369067271666e+01,-2.181521406404904884e+00
1.999999999999896261e+01,3.000000000990699078e+00,1.000000000000111733e+01,6.599999999998175104e-01,1.570000000000249640e+00,2.869999999999977263e+03,-2.174999999999870592e+00,-4.944999999999398099e+00,1.340105903393131115e+01,-2.179361800047268094e+00
1.999999999999955591e+01,2.999999997966035004e+00,1.000000000000235012e+01,6.599999999997722133e-01,1.570000000000259854e+00,2.869999999999983629e+03,-2.174999999999907452e+00,-4.944999999999348361e+00,1.338438667463357667e+01,-2.178027279406248073e+00
1.999999999999850786e+01,3.000000000854450288e+00,1.000000000003066525e+01,6.599999999994713429e-01,1.570000000000885354e+00,2.869999999999977717e+03,-2.174999999999713385e+00,-4.944999999997680362e+00,1.338507503723975134e+01,-2.200221678029992134e+00
1.999999999999972644e+01,2.999999999559512354e+00,1.000000000003450928e+01,6.600000000000323386e-01,1.570000000000002505e+00,2.869999999999996362e+03,-2.174999999999955413e+00,-4.944999999999935447e+00,1.340486952254718389e+01,-2.177267987122093018e+00
1.999999999999977973e+01,3.000000000117899024e+00,1.000000000003691802e+01,6.600000000000020295e-01,1.570000000000065343e+00,2.869999999999989541e+03,-2.174999999999954081e+00,-4.944999999999753371e+00,1.340007668998208246e+01,-2.176396730603168184e+00
1.999999999999965894e+01,2.999999999418336394e+00,1.000000000003141309e+01,6.599999999999004441e-01,1.570000000000183471e+00,2.869999999999994543e+03,-2.174999999999950528e+00,-4.944999999999504681e+00,1.339275949534317078e+01,-2.183960753157596191e+00
1.999999999999980815e+01,2.999999999181008015e+00,1.000000000001243983e+01,6.599999999998121814e-01,1.570000000000236096e+00,2.869999999999979536e+03,-2.174999999999853273e+00,-4.944999999999263984e+00,1.338431554180381333e+01,-2.200757633571314820e+00
1.999999999999936406e+01,2.999999998876420992e+00,9.999999999993177013e+00,6.599999999998256150e-01,1.570000000000299822e+00,2.869999999999997726e+03,-2.174999999999904787e+00,-4.944999999999243556e+00,1.337589558679112045e+01,-2.175010145585370314e+00
1.999999999999963052e+01,3.000000002016239620e+00,9.999999999988077093e+00,6.599999999998280575e-01,1.570000000000296270e+00,2.869999999999999091e+03,-2.174999999999874145e+00,-4.944999999999222240e+00,1.337956470624447114e+01,-2.164235196189007393e+00
1.999999999999996803e+01,2.999999999025908082e+00,1.000000000002312106e+01,6.600000000001600142e-01,1.569999999999848184e+00,2.869999999999991360e+03,-2.175000000000025580e+00,-4.945000000000413287e+00,1.341730746307285749e+01,-2.150377188624468694e+00
1.999999999999971578e+01,2.999999998331753126e+00,1.000000000000504130e+01,6.600000000001328138e-01,1.569999999999961204e+00,2.869999999999989086e+03,-2.174999999999962963e+00,-4.945000000000068674e+00,1.341147962966490326e+01,-2.156733334804531665e+00
2.000000000000002842e+01,2.999999999597742217e+00,1.000000000002350475e+01,6.600000000002161915e-01,1.569999999999746709e+00,2.869999999999993179e+03,-2.175000000000053113e+00,-4.945000000000688622e+00,1.340814608476177483e+01,-2.157616019471074509e+00
1.999999999999960565e+01,3.000000001157631324e+00,1.000000000003684164e+01,6.600000000002299583e-01,1.569999999999668105e+00,2.869999999999994088e+03,-2.175000000000047784e+00,-4.945000000001031459e+00,1.339508835640145534e+01,-2.175097846655410283e+00
1.999999999999986144e+01,3.000000002563187884e+00,1.000000000003519673e+01,6.600000000001733369e-01,1.569999999999701856e+00,2.869999999999994543e+03,-2.175000000000063771e+00,-4.945000000000938201e+00,1.340263292277423091e+01,-2.175078859451931912e+00
2.000000000000041211e+01,2.999999998748925645e+00,1.000000000001312905e+01,6.600000000000710854e-01,1.569999999999785567e+00,2.869999999999988631e+03,-2.175000000000110845e+00,-4.945000000000703722e+00,1.337573727084936870e+01,-2.197304274538258717e+00
1.999999999999911893e+01,3.000000002243971675e+00,9.999999999985105248e+00,6.599999999998357181e-01,1.570000000000372653e+00,2.869999999999975444e+03,-2.174999999999784439e+00,-4.944999999998946016e+00,1.339624309712950989e+01,-2.165976031973966709e+00
1.999999999999913314e+01,3.000000000592192961e+00,9.999999999987748467e+00,6.599999999998595879e-01,1.570000000000349116e+00,2.869999999999986812e+03,-2.174999999999795985e+00,-4.944999999999014406e+00,1.340024104429792473e+01,-2.166879798471127661e+00
1.999999999999987566e+01,3.000000001231495794e+00,9.999999999988395061e+00,6.599999999997638866e-01,1.570000000000326246e+00,2.869999999999985448e+03,-2.174999999999883027e+00,-4.944999999999149409e+00,1.338558521504582899e+01,-2.181644089924050345e+00
1.999999999999937117e+01,2.999999999557013908e+00,1.000000000000534506e+01,6.599999999997154809e-01,1.570000000000359552e+00,2.870000000000003183e+03,-2.174999999999910116e+00,-4.944999999999104112e+00,1.337640680061850240e+01,-2.193186590420450610e+00
