2.000000000000006040e+01,2.999999999447555687e+00,9.999999999950984986e+00,6.599999999999101030e-01,1.570000000000131735e+00,2.869999999999984084e+03,-2.174999999999945643e+00,-4.944999999999557971e+00,1.341041849331467262e+01,-2.167910845202665193e+00
1.999999999999962697e+01,2.999999998027372161e+00,9.999999999956493468e+00,6.600000000000526557e-01,1.569999999999909690e+00,2.869999999999989086e+03,-2.174999999999990496e+00,-4.945000000000250751e+00,1.341559722557529177e+01,-2.160148043088902625e+00
2.000000000000000711e+01,3.000000000034327652e+00,9.999999999962396302e+00,6.600000000000796341e-01,1.569999999999903917e+00,2.869999999999990905e+03,-2.175000000000037570e+00,-4.945000000000272067e+00,1.338147970084903982e+01,-2.184220182278320710e+00
2.000000000000059686e+01,2.999999997969362120e+00,9.999999999994750866e+00,6.600000000002708145e-01,1.569999999999599272e+00,2.869999999999978627e+03,-2.175000000000175682e+00,-4.945000000001108731e+00,1.339847093706758230e+01,-2.132223162284969664e+00
1.999999999999978684e+01,2.999999998311032368e+00,9.999999999987609911e+00,6.599999999995442845e-01,1.570000000000701057e+00,2.869999999999980446e+03,-2.174999999999806644e+00,-4.944999999997936158e+00,1.342987517323220104e+01,-2.208312766912630565e+00
2.000000000000120792e+01,2.999999998038961557e+00,9.999999999988851584e+00,6.600000000000606493e-01,1.569999999999858842e+00,2.869999999999982265e+03,-2.175000000000103739e+00,-4.945000000000249862e+00,1.346472376444743801e+01,-2.171485725013107881e+00
2.000000000000030909e+01,2.999999998652569388e+00,9.999999999984597210e+00,6.599999999996476463e-01,1.570000000000523421e+00,2.869999999999976808e+03,-2.174999999999857270e+00,-4.944999999998351825e+00,1.335039159390047736e+01,-2.089551386230395824e+00
1.999999999999922551e+01,3.000000002317188663e+00,9.999999999999984013e+00,6.599999999995715960e-01,1.570000000000704832e+00,2.869999999999986812e+03,-2.174999999999752909e+00,-4.944999999997987672e+00,1.339145756358070827e+01,-2.138510351071102988e+00
2.000000000000097700e+01,2.999999996168118965e+00,9.999999999961957542e+00,6.600000000000052491e-01,1.569999999999961204e+00,2.869999999999977717e+03,-2.175000000000078426e+00,-4.945000000000022489e+00,1.346403657825926459e+01,-2.138455610898744474e+00
2.000000000000056133e+01,2.999999995245087092e+00,9.999999999960655472e+00,6.599999999997026023e-01,1.570000000000421503e+00,2.869999999999981810e+03,-2.174999999999934541e+00,-4.944999999998641371e+00,1.342089422917175590e+01,-2.118995886804585727e+00
2.000000000000096279e+01,2.999999996281801362e+00,9.999999999977410070e+00,6.600000000001552403e-01,1.569999999999688978e+00,2.869999999999975444e+03,-2.175000000000109068e+00,-4.945000000000796092e+00,1.344047060800400395e+01,-2.114098571527957215e+00
1.999999999999949907e+01,2.999999997594083201e+00,9.999999999986661336e+00,6.600000000002171907e-01,1.569999999999667883e+00,2.869999999999994543e+03,-2.175000000000042899e+00,-4.945000000000973728e+00,1.340185831689268703e+01,-2.129923315195092481e+00
1.999999999999973710e+01,2.999999998168207505e+00,9.999999999952510876e+00,6.600000000003232170e-01,1.569999999999468709e+00,2.870000000000003183e+03,-2.175000000000102407e+00,-4.945000000001522622e+00,1.343777284506982106e+01,-2.206061224543999444e+00
1.999999999999926459e+01,3.000000003497392154e+00,9.999999999984773069e+00,6.600000000001423617e-01,1.569999999999808882e+00,2.869999999999997726e+03,-2.175000000000007372e+00,-4.945000000000618456e+00,1.343149820760250179e+01,-2.170307665690452303e+00
1.999999999999880274e+01,2.999999998730812578e+00,1.000000000002442135e+01,6.599999999997917532e-01,1.570000000000396634e+00,2.870000000000001819e+03,-2.174999999999848388e+00,-4.944999999998923812e+00,1.340073339988972378e+01,-2.097358118956892170e+00
1.999999999999878852e+01,2.999999999993791633e+00,9.999999999988814281e+00,6.599999999997893108e-01,1.570000000000380647e+00,2.870000000000002274e+03,-2.174999999999821299e+00,-4.944999999999009077e+00,1.338439211688896435e+01,-2.183677760977514648e+00
1.999999999999987921e+01,2.999999997938383345e+00,9.999999999968308018e+00,6.599999999995387334e-01,1.570000000000731699e+00,2.869999999999994998e+03,-2.174999999999798206e+00,-4.944999999997811813e+00,1.344085454383657918e+01,-2.199435512207001064e+00
1.999999999999861089e+01,2.999999999455419619e+00,1.000000000002570033e+01,6.600000000001050582e-01,1.569999999999891260e+00,2.870000000000000000e+03,-2.174999999999937650e+00,-4.945000000000475460e+00,1.343646243935376283e+01,-2.244290522092533102e+00
1.999999999999959499e+01,2.999999998991269123e+00,1.000000000002765965e+01,6.599999999997840927e-01,1.570000000000376428e+00,2.869999999999997726e+03,-2.174999999999875033e+00,-4.944999999998974438e+00,1.340515354489133060e+01,-2.175689823269996825e+00
1.999999999999977263e+01,2.999999999245137161e+00,1.000000000003724665e+01,6.600000000001338130e-01,1.569999999999761142e+00,2.869999999999992724e+03,-2.175000000000026024e+00,-4.945000000000712603e+00,1.341081875516308664e+01,-2.177685366386327370e+00
2.000000000000038725e+01,3.000000001838589281e+00,1.000000000001614886e+01,6.599999999999597300e-01,1.570000000000053131e+00,2.869999999999986812e+03,-2.175000000000004707e+00,-4.944999999999756035e+00,1.338659464502714158e+01,-2.116651126389465176e+00
2.000000000000061462e+01,3.000000001222629109e+00,9.999999999996763478e+00,6.600000000001733369e-01,1.569999999999719620e+00,2.869999999999986358e+03,-2.175000000000136602e+00,-4.945000000000772111e+00,1.346047872825358205e+01,-2.108949905766547062e+00
2.000000000000020250e+01,3.000000000754755369e+00,1.000000000002943956e+01,6.600000000004127010e-01,1.569999999999335039e+00,2.869999999999993634e+03,-2.175000000000185896e+00,-4.945000000001939178e+00,1.342822699829563149e+01,-2.168947525936335996e+00
1.999999999999952038e+01,2.999999999391047556e+00,1.000000000006047784e+01,6.600000000002738121e-01,1.569999999999623252e+00,2.869999999999991360e+03,-2.175000000000085532e+00,-4.945000000001212648e+00,1.341218666909978552e+01,-2.150013319735057493e+00
2.000000000000060751e+01,2.999999997792047957e+00,1.000000000004872014e+01,6.599999999999540679e-01,1.570000000000095763e+00,2.869999999999984084e+03,-2.175000000000041123e+00,-4.944999999999806661e+00,1.339625490487544646e+01,-2.124161180986855690e+00
2.000000000000033396e+01,2.999999999476842039e+00,1.000000000004000356e+01,6.599999999999062172e-01,1.570000000000163265e+00,2.869999999999981355e+03,-2.175000000000006484e+00,-4.944999999999517115e+00,1.340309766024681615e+01,-2.115455691631554114e+00
1.999999999999975131e+01,2.999999999189476352e+00,1.000000000001904432e+01,6.599999999999851541e-01,1.570000000000055351e+00,2.869999999999996362e+03,-2.174999999999975842e+00,-4.944999999999908802e+00,1.335985601835292336e+01,-2.184042464606829714e+00
2.000000000000059686e+01,2.999999998333940265e+00,9.999999999987757349e+00,6.600000000003343192e-01,1.569999999999447837e+00,2.869999999999989086e+03,-2.175000000000173905e+00,-4.945000000001537721e+00,1.341193636451774474e+01,-2.185781325186568314e+00
1.999999999999939604e+01,3.000000002192374726e+00,1.000000000005080381e+01,6.599999999998371614e-01,1.570000000000270513e+00,2.870000000000000455e+03,-2.174999999999892797e+00,-4.944999999999336815e+00,1.339961653929407781e+01,-2.171363232243663788e+00
2.000000000000045475e+01,3.000000000854176729e+00,1.000000000000828670e+01,6.600000000002311795e-01,1.569999999999698748e+00,2.869999999999992269e+03,-2.175000000000148592e+00,-4.945000000000971951e+00,1.331061266737253135e+01,-2.144646625660134642e+00
1.999999999999933564e+01,2.999999995543140230e+00,1.000000000000898481e+01,6.600000000000706413e-01,1.569999999999947660e+00,2.869999999999999091e+03,-2.174999999999971401e+00,-4.945000000000277396e+00,1.337020396725762517e+01,-2.176422401577109866e+00
1.999999999999939959e+01,2.999999998738975382e+00,9.999999999992926547e+00,6.599999999999578426e-01,1.570000000000125517e+00,2.869999999999999091e+03,-2.174999999999938094e+00,-4.944999999999738272e+00,1.339378827736685729e+01,-2.189508681355908148e+00
1.999999999999987210e+01,2.999999998761462283e+00,9.999999999988435917e+00,6.599999999997565592e-01,1.570000000000390417e+00,2.869999999999996817e+03,-2.174999999999902123e+00,-4.944999999998938023e+00,1.334698947734325003e+01,-2.148302559495827158e+00
1.999999999999954881e+01,2.999999997706957799e+00,9.999999999984769516e+00,6.600000000001184919e-01,1.569999999999851736e+00,2.869999999999999545e+03,-2.175000000000011369e+00,-4.945000000000488782e+00,1.340225748226734481e+01,-2.200119725285441419e+00
2.000000000000002487e+01,2.999999999171647946e+00,9.999999999980129672e+00,6.600000000003205525e-01,1.569999999999519114e+00,2.870000000000002274e+03,-2.175000000000149480e+00,-4.945000000001495977e+00,1.336681916204795861e+01,-2.203424528077218003e+00
1.999999999999968381e+01,3.000000003411565253e+00,9.999999999997900346e+00,6.599999999998176214e-01,1.570000000000298712e+00,2.869999999999992724e+03,-2.174999999999897682e+00,-4.944999999999225793e+00,1.336943377182265280e+01,-2.138538402498132207e+00
1.999999999999976552e+01,3.000000005435457417e+00,1.000000000000263789e+01,6.600000000000364464e-01,1.569999999999968310e+00,2.870000000000001819e+03,-2.175000000000003375e+00,-4.945000000000272067e+00,1.342230307532519973e+01,-2.202781409009964442e+00
1.999999999999954525e+01,3.000000000765610242e+00,9.999999999990318855e+00,6.600000000001603473e-01,1.569999999999755591e+00,2.870000000000001364e+03,-2.175000000000026024e+00,-4.945000000000753460e+00,1.337862338127302131e+01,-2.187029051942489311e+00
2.000000000000005684e+01,3.000000003459871945e+00,9.999999999992052580e+00,6.600000000004152545e-01,1.569999999999360352e+00,2.870000000000003183e+03,-2.175000000000180567e+00,-4.945000000001869012e+00,1.340784500039830007e+01,-2.144022341827929612e+00
1.999999999999934275e+01,3.000000002927750486e+00,1.000000000001180922e+01,6.600000000006480683e-01,1.569999999998999751e+00,2.869999999999992724e+03,-2.175000000000214762e+00,-4.945000000003047624e+00,1.340205397785238972e+01,-2.162131101962549096e+00
2.000000000000027356e+01,3.000000002952341926e+00,1.000000000001729994e+01,6.600000000000912914e-01,1.569999999999862172e+00,2.869999999999998636e+03,-2.175000000000064659e+00,-4.945000000000463913e+00,1.342623969665915062e+01,-2.190467402910836192e+00
2.000000000000038014e+01,3.000000003639553547e+00,9.999999999999788614e+00,6.599999999999991429e-01,1.569999999999962315e+00,2.869999999999990450e+03,-2.175000000000042899e+00,-4.945000000000076668e+00,1.341990713293235515e+01,-2.165516505517483203e+00
1.999999999999976907e+01,3.000000005381950885e+00,9.999999999983474552e+00,6.600000000001634559e-01,1.569999999999763141e+00,2.869999999999997726e+03,-2.175000000000047784e+00,-4.945000000000712603e+00,1.343292575896548691e+01,-2.098874532240863289e+00
1.999999999999946709e+01,3.000000000680497880e+00,1.000000000005081091e+01,6.600000000001103873e-01,1.569999999999904139e+00,2.869999999999985903e+03,-2.175000000000038014e+00,-4.945000000000406182e+00,1.343386048145359268e+01,-2.190765721907074859e+00
1.999999999999940314e+01,2.999999996892408038e+00,1.000000000002328093e+01,6.599999999999878186e-01,1.570000000000102425e+00,2.869999999999988177e+03,-2.174999999999943423e+00,-4.944999999999855511e+00,1.338207566716953778e+01,-2.124317844961257862e+00
1.999999999999913314e+01,3.000000001724568932e+00,1.000000000000669509e+01,6.599999999999863753e-01,1.570000000000091989e+00,2.869999999999993634e+03,-2.174999999999949196e+00,-4.944999999999861728e+00,1.335101682878407914e+01,-2.162015704719314257e+00
1.999999999999993250e+01,3.000000003761877920e+00,1.000000000002371792e+01,6.600000000000597611e-01,1.569999999999928120e+00,2.869999999999993179e+03,-2.175000000000027800e+00,-4.945000000000162821e+00,1.343702141459679922e+01,-2.214258224308227607e+00
1.999999999999957367e+01,3.000000000951334567e+00,1.000000000003099743e+01,6.599999999999754952e-01,1.570000000000078444e+00,2.869999999999988177e+03,-2.174999999999950973e+00,-4.944999999999802220e+00,1.344285377157958017e+01,-2.170837073462200006e+00
1.999999999999999289e+01,3.000000003216631850e+00,1.000000000001784173e+01,6.600000000001083889e-01,1.569999999999846185e+00,2.869999999999990450e+03,-2.175000000000048672e+00,-4.945000000000430163e+00,1.341586940941027351e+01,-2.174129277652569137e+00
1.999999999999941380e+01,3.000000002822438283e+00,1.000000000005002221e+01,6.599999999996961630e-01,1.570000000000523421e+00,2.869999999999990905e+03,-2.174999999999828404e+00,-4.944999999998534790e+00,1.340165354595500702e+01,-2.227720802025937807e+00
1.999999999999944933e+01,3.000000000650800303e+00,1.000000000001246825e+01,6.600000000001354783e-01,1.569999999999778462e+00,2.869999999999995907e+03,-2.175000000000002043e+00,-4.945000000000688622e+00,1.341213140306428997e+01,-2.113452251083799638e+00
1.999999999999909051e+01,3.000000000990824756e+00,1.000000000001844214e+01,6.599999999999924816e-01,1.570000000000023821e+00,2.870000000000001364e+03,-2.174999999999915890e+00,-4.945000000000021600e+00,1.334550958022331102e+01,-2.135984412881933636e+00
1.999999999999948486e+01,3.000000001506481162e+00,9.999999999975251797e+00,6.600000000001396971e-01,1.569999999999753815e+00,2.869999999999997726e+03,-2.174999999999991385e+00,-4.945000000000718821e+00,1.339114972312787266e+01,-2.193566643367087288e+00
1.999999999999823785e+01,3.000000002085051687e+00,9.999999999975063503e+00,6.599999999999557332e-01,1.570000000000161711e+00,2.869999999999997726e+03,-2.174999999999843503e+00,-4.944999999999780016e+00,1.339113337659547120e+01,-2.178239516447514124e+00
2.000000000000044409e+01,3.000000003286369843e+00,9.999999999981504573e+00,6.600000000003115597e-01,1.569999999999478479e+00,2.869999999999996817e+03,-2.175000000000147704e+00,-4.945000000001487095e+00,1.340680343123987583e+01,-2.154740356060030670e+00
1.999999999999961631e+01,2.999999999216892643e+00,9.999999999981687537e+00,6.600000000001272626e-01,1.569999999999785567e+00,2.869999999999997272e+03,-2.175000000000022471e+00,-4.945000000000670859e+00,1.344552192311814132e+01,-2.181967838180480346e+00
1.999999999999954881e+01,3.000000001758824197e+00,9.999999999968672171e+00,6.600000000000664224e-01,1.569999999999887708e+00,2.869999999999997726e+03,-2.174999999999966516e+00,-4.945000000000342233e+00,1.349285179977569626e+01,-2.319587532383164064e+00
1.999999999999960210e+01,3.000000001300743513e+00,9.999999999956907359e+00,6.600000000000095790e-01,1.570000000000033591e+00,2.869999999999999091e+03,-2.174999999999965627e+00,-4.944999999999961204e+00,1.336151559185925208e+01,-2.122737668610090722e+00
1.999999999999951328e+01,3.000000002182516390e+00,9.999999999973654852e+00,6.599999999999586198e-01,1.570000000000084217e+00,2.870000000000003183e+03,-2.174999999999968292e+00,-4.944999999999849294e+00,1.342393906312202745e+01,-2.177068941787105860e+00
2.000000000000031619e+01,3.000000002633093743e+00,1.000000000001585043e+01,6.599999999997741007e-01,1.570000000000354001e+00,2.869999999999994543e+03,-2.174999999999943867e+00,-4.944999999998835882e+00,1.350831019086350437e+01,-2.273675428017064348e+00
1.999999999999934985e+01,3.000000002592262849e+00,1.000000000001352873e+01,6.599999999997809841e-01,1.570000000000343787e+00,2.870000000000000000e+03,-2.174999999999860378e+00,-4.944999999998944240e+00,1.346825035593812281e+01,-2.209446296211685201e+00
1.999999999999932143e+01,3.000000003282536465e+00,1.000000000002808598e+01,6.599999999998400479e-01,1.570000000000266738e+00,2.869999999999996817e+03,-2.174999999999877254e+00,-4.944999999999207141e+00,1.343798425921130857e+01,-2.193985659956992240e+00
1.999999999999899103e+01,2.999999999734680234e+00,1.000000000002356693e+01,6.599999999999053291e-01,1.570000000000237206e+00,2.870000000000000000e+03,-2.174999999999901235e+00,-4.944999999999379448e+00,1.337463243035050908e+01,-2.167090802690404328e+00
2.000000000000049738e+01,3.000000003264333248e+00,1.000000000001778488e+01,6.600000000004944134e-01,1.569999999999240892e+00,2.869999999999981355e+03,-2.175000000000255618e+00,-4.945000000002235829e+00,1.351368205114642862e+01,-2.251382146646916382e+00
2.000000000000028777e+01,3.000000000381823462e+00,9.999999999973235632e+00,6.600000000001033928e-01,1.569999999999899254e+00,2.869999999999997726e+03,-2.175000000000093081e+00,-4.945000000000333351e+00,1.342668864745531998e+01,-2.192558496676761060e+00
2.000000000000023448e+01,3.000000000886247076e+00,9.999999999981957544e+00,6.599999999995940225e-01,1.570000000000692397e+00,2.869999999999999091e+03,-2.174999999999863931e+00,-4.944999999998084483e+00,1.340006032132204616e+01,-2.206710090379035982e+00
1.999999999999998224e+01,3.000000002826529677e+00,1.000000000001804423e+01,6.599999999998892308e-01,1.570000000000227880e+00,2.869999999999988631e+03,-2.174999999999971401e+00,-4.944999999999346585e+00,1.338927042364253772e+01,-2.175833047413556542e+00
2.000000000000035527e+01,3.000000000118512311e+00,9.999999999959969799e+00,6.599999999998603650e-01,1.570000000000235651e+00,2.869999999999998181e+03,-2.174999999999983835e+00,-4.944999999999295959e+00,1.338179536264935976e+01,-2.177942629128822194e+00
2.000000000000011013e+01,3.000000000561121816e+00,9.999999999999760192e+00,6.600000000005967760e-01,1.569999999999064810e+00,2.869999999999987267e+03,-2.175000000000246736e+00,-4.945000000002790941e+00,1.339275744401156132e+01,-2.124133897233077217e+00
1.999999999999955946e+01,2.999999999956279417e+00,1.000000000000077627e+01,6.600000000001459144e-01,1.569999999999846851e+00,2.869999999999992724e+03,-2.175000000000041567e+00,-4.945000000000551843e+00,1.340335959128897336e+01,-2.149496768144951719e+00
2.000000000000019895e+01,3.000000000680287382e+00,9.999999999999554134e+00,6.600000000002657075e-01,1.569999999999615925e+00,2.869999999999989086e+03,-2.175000000000146816e+00,-4.945000000001142482e+00,1.341009285798593886e+01,-2.151392995208373016e+00
1.999999999999950973e+01,3.000000002545158750e+00,1.000000000002896350e+01,6.599999999997526734e-01,1.570000000000419949e+00,2.869999999999998636e+03,-2.174999999999870148e+00,-4.944999999998923812e+00,1.338223080308536161e+01,-2.213555698891530810e+00
1.999999999999813838e+01,2.999999999826417962e+00,1.000000000006362022e+01,6.599999999995785904e-01,1.570000000000782547e+00,2.870000000000002274e+03,-2.174999999999690292e+00,-4.944999999997963691e+00,1.339957449693993397e+01,-2.150004932233215982e+00
1.999999999999962697e+01,3.000000000111986864e+00,1.000000000002989786e+01,6.599999999999569544e-01,1.570000000000110196e+00,2.869999999999996362e+03,-2.174999999999965183e+00,-4.944999999999741824e+00,1.340997153722687507e+01,-2.152055915953551946e+00
1.999999999999972289e+01,3.000000001990970055e+00,1.000000000000200195e+01,6.600000000002477218e-01,1.569999999999646345e+00,2.870000000000000909e+03,-2.175000000000089528e+00,-4.945000000001101625e+00,1.338923959960469112e+01,-2.215089369388166141e+00
1.999999999999971934e+01,3.000000002404369592e+00,9.999999999991747046e+00,6.599999999995285194e-01,1.570000000000804086e+00,2.870000000000000000e+03,-2.174999999999808864e+00,-4.944999999997748752e+00,1.338190693704521905e+01,-2.141989058080347785e+00
1.999999999999945643e+01,2.999999998667515211e+00,1.000000000002229328e+01,6.600000000003235501e-01,1.569999999999522222e+00,2.869999999999998181e+03,-2.175000000000103295e+00,-4.945000000001515517e+00,1.338578563605803673e+01,-2.120695097292583320e+00
2.000000000000011724e+01,3.000000002226919538e+00,9.999999999994452438e+00,6.599999999999508482e-01,1.570000000000087548e+00,2.869999999999994998e+03,-2.174999999999999822e+00,-4.944999999999796891e+00,1.342183567834355529e+01,-2.172458239790370893e+00
2.000000000000020961e+01,3.000000002573851354e+00,9.999999999964693131e+00,6.599999999999088818e-01,1.570000000000110418e+00,2.869999999999995453e+03,-2.174999999999967404e+00,-4.944999999999641460e+00,1.352050274852809153e+01,-2.253056278991026229e+00
1.999999999999985434e+01,3.000000002197919180e+00,9.999999999986066257e+00,6.599999999993879651e-01,1.570000000001008811e+00,2.870000000000000000e+03,-2.174999999999762679e+00,-4.944999999997165219e+00,1.348326488045761273e+01,-2.284412859983127486e+00
2.000000000000022382e+01,2.999999997674140051e+00,1.000000000002705391e+01,6.600000000001694511e-01,1.569999999999697637e+00,2.869999999999998636e+03,-2.175000000000048228e+00,-4.945000000000868035e+00,1.341993409424950912e+01,-2.131023758448340910e+00
2.000000000000050093e+01,2.999999997959759579e+00,9.999999999992589039e+00,6.600000000003041212e-01,1.569999999999481366e+00,2.869999999999996817e+03,-2.175000000000139710e+00,-4.945000000001418705e+00,1.343415768431176538e+01,-2.139495318532362411e+00
2.000000000000040856e+01,3.000000001108852121e+00,9.999999999971908693e+00,6.600000000001223777e-01,1.569999999999782014e+00,2.870000000000001819e+03,-2.175000000000038014e+00,-4.945000000000558948e+00,1.341913173243774615e+01,-2.166995653893154294e+00
2.000000000000055067e+01,3.000000000480497864e+00,9.999999999989954702e+00,6.600000000000278977e-01,1.569999999999899254e+00,2.869999999999994088e+03,-2.175000000000022471e+00,-4.945000000000157492e+00,1.343328438894242360e+01,-2.213609898265323395e+00
2.000000000000086331e+01,3.000000000462503369e+00,9.999999999999923617e+00,6.599999999996758460e-01,1.570000000000496110e+00,2.870000000000002274e+03,-2.174999999999935429e+00,-4.944999999998487716e+00,1.338268702769575924e+01,-2.163123275307088811e+00
1.999999999999917932e+01,3.000000000400147915e+00,1.000000000004010303e+01,6.599999999994117239e-01,1.570000000000972173e+00,2.869999999999999545e+03,-2.174999999999697842e+00,-4.944999999997281570e+00,1.337163924333579779e+01,-2.182624375802407091e+00
2.000000000000031264e+01,3.000000000316823456e+00,1.000000000001106137e+01,6.599999999997967493e-01,1.570000000000273399e+00,2.870000000000002274e+03,-2.174999999999935429e+00,-4.944999999999201812e+00,1.337379020312360289e+01,-2.146758352196870945e+00
1.999999999999975486e+01,2.999999998265043377e+00,9.999999999995193178e+00,6.599999999997168132e-01,1.570000000000454143e+00,2.869999999999994543e+03,-2.174999999999853273e+00,-4.944999999998748841e+00,1.340395119947647196e+01,-2.226639548968279758e+00
2.000000000000081712e+01,3.000000002745584649e+00,1.000000000000443912e+01,6.599999999998114042e-01,1.570000000000267182e+00,2.869999999999997726e+03,-2.174999999999977174e+00,-4.944999999999115659e+00,1.342362060564779824e+01,-2.163972148964032005e+00
1.999999999999957723e+01,2.999999999941121764e+00,9.999999999998042455e+00,6.599999999999598410e-01,1.570000000000069340e+00,2.870000000000002274e+03,-2.174999999999945199e+00,-4.944999999999843965e+00,1.339895117351152187e+01,-2.138120122327483053e+00
2.000000000000058620e+01,3.000000001894178592e+00,1.000000000000969180e+01,6.600000000002289591e-01,1.569999999999653895e+00,2.869999999999994998e+03,-2.175000000000141487e+00,-4.945000000001028795e+00,1.339786197088082176e+01,-2.147758439111794093e+00
2.000000000000050449e+01,2.999999999604524348e+00,1.000000000002051159e+01,6.600000000003128919e-01,1.569999999999511342e+00,2.869999999999994543e+03,-2.175000000000150813e+00,-4.945000000001416041e+00,1.337101835802022265e+01,-2.138408248403278034e+00
1.999999999999995381e+01,3.000000001986223186e+00,9.999999999999062084e+00,6.599999999999148770e-01,1.570000000000155937e+00,2.870000000000001364e+03,-2.174999999999974065e+00,-4.944999999999597051e+00,1.341029173354056425e+01,-2.207842407400570917e+00
1.999999999999991473e+01,3.000000000151890944e+00,1.000000000001443468e+01,6.600000000003426459e-01,1.569999999999486473e+00,2.870000000000000455e+03,-2.175000000000125500e+00,-4.945000000001591012e+00,1.343457386678775123e+01,-2.196867251999093718e+00
2.000000000000025935e+01,3.000000002884711137e+00,9.999999999976976639e+00,6.599999999998426015e-01,1.570000000000260520e+00,2.869999999999989086e+03,-2.174999999999955413e+00,-4.944999999999278195e+00,1.337136524539423910e+01,-2.135248029350818921e+00
1.999999999999968381e+01,3.000000002214858963e+00,9.999999999975299758e+00,6.599999999999804912e-01,1.570000000000038476e+00,2.870000000000000000e+03,-2.174999999999996270e+00,-4.944999999999976303e+00,1.342366269357102482e+01,-2.190132966997508479e+00
2.000000000000043343e+01,3.000000002971734858e+00,1.000000000002342659e+01,6.600000000000845191e-01,1.569999999999858398e+00,2.869999999999997272e+03,-2.175000000000054001e+00,-4.945000000000478124e+00,1.341130351586530089e+01,-2.143841717451459683e+00
2.000000000000003197e+01,3.000000001439230068e+00,9.999999999995493383e+00,6.600000000000469935e-01,1.569999999999920570e+00,2.870000000000001364e+03,-2.175000000000014921e+00,-4.945000000000266738e+00,1.345108018058660981e+01,-2.185168820711546722e+00
1.999999999999969447e+01,2.999999998989876904e+00,9.999999999975420550e+00,6.599999999997936406e-01,1.570000000000366214e+00,2.869999999999994998e+03,-2.174999999999898126e+00,-4.944999999999057039e+00,1.341137302407852694e+01,-2.192365417148780971e+00
2.000000000000053646e+01,3.000000001143625639e+00,9.999999999999126032e+00,6.599999999995985744e-01,1.570000000000651097e+00,2.869999999999985448e+03,-2.174999999999887912e+00,-4.944999999998209717e+00,1.331045344267005603e+01,-2.117368204126371278e+00
2.000000000000118305e+01,2.999999999812374973e+00,9.999999999980776266e+00,6.600000000001559064e-01,1.569999999999739160e+00,2.869999999999980901e+03,-2.175000000000157918e+00,-4.945000000000808527e+00,1.342126723422312118e+01,-2.176199540263300758e+00
2.000000000000042633e+01,3.000000000195254035e+00,9.999999999988482102e+00,6.600000000001117195e-01,1.569999999999840190e+00,2.869999999999994998e+03,-2.175000000000078870e+00,-4.945000000000568718e+00,1.336667843619009588e+01,-2.103444931289224495e+00
2.000000000000000000e+01,3.000000001007034456e+00,9.999999999995850430e+00,6.599999999999599520e-01,1.570000000000086660e+00,2.869999999999994543e+03,-2.174999999999989608e+00,-4.944999999999838636e+00,1.338759536437057385e+01,-2.134645243340001386e+00
2.000000000000022382e+01,2.999999999163191600e+00,9.999999999999340972e+00,6.600000000004354606e-01,1.569999999999303286e+00,2.869999999999993179e+03,-2.175000000000175682e+00,-4.945000000001998686e+00,1.364337636032596102e+01,-2.090311126987272505e+00
2.000000000000030198e+01,2.999999996014294457e+00,9.999999999965636377e+00,6.599999999993879651e-01,1.570000000000902451e+00,2.869999999999978627e+03,-2.174999999999791100e+00,-4.944999999997296669e+00,1.359805434245990163e+01,-2.072665688014835528e+00
2.000000000000085265e+01,2.999999998413580116e+00,1.000000000001624834e+01,6.600000000001448042e-01,1.569999999999763363e+00,2.869999999999977717e+03,-2.175000000000109956e+00,-4.945000000000627338e+00,1.344514595133242985e+01,-2.138654503933269613e+00
2.000000000000054001e+01,3.000000001413378303e+00,9.999999999968428810e+00,6.599999999997907540e-01,1.570000000000312923e+00,2.869999999999988177e+03,-2.174999999999955858e+00,-4.944999999998971774e+00,1.342312824749916977e+01,-2.166139697458269620e+00
1.999999999999987210e+01,3.000000001109814018e+00,9.999999999987393196e+00,6.600000000001305933e-01,1.569999999999807327e+00,2.869999999999991815e+03,-2.175000000000027800e+00,-4.945000000000581153e+00,1.342892085247087230e+01,-2.233082640101154315e+00
2.000000000000036948e+01,3.000000000217635687e+00,9.999999999963518960e+00,6.600000000004833112e-01,1.569999999999253770e+00,2.869999999999999091e+03,-2.175000000000226308e+00,-4.945000000002198526e+00,1.341009794881659900e+01,-2.160127129159401083e+00
1.999999999999988987e+01,3.000000000304565262e+00,9.999999999982099652e+00,6.600000000000805223e-01,1.569999999999907248e+00,2.869999999999998636e+03,-2.175000000000022027e+00,-4.945000000000312035e+00,1.335122707610377724e+01,-2.098831278125005806e+00
2.000000000000017764e+01,3.000000001870478883e+00,9.999999999954230390e+00,6.600000000000040279e-01,1.570000000000013385e+00,2.870000000000000455e+03,-2.175000000000018474e+00,-4.944999999999990514e+00,1.340986833340699036e+01,-2.177170530381096203e+00
1.999999999999973355e+01,3.000000003097663015e+00,9.999999999979346299e+00,6.599999999998837907e-01,1.570000000000230100e+00,2.870000000000000909e+03,-2.174999999999923883e+00,-4.944999999999375007e+00,1.334431529783484827e+01,-2.195223190026574400e+00
1.999999999999924327e+01,3.000000001538918326e+00,9.999999999950643925e+00,6.600000000000688649e-01,1.569999999999913243e+00,2.869999999999999545e+03,-2.174999999999952305e+00,-4.945000000000256968e+00,1.343996086965003833e+01,-2.164803193313205032e+00
1.999999999999976907e+01,3.000000000720894455e+00,9.999999999970430764e+00,6.599999999996208899e-01,1.570000000000631113e+00,2.870000000000002728e+03,-2.174999999999823519e+00,-4.944999999998261231e+00,1.340709062059450574e+01,-2.124066397167465148e+00
1.999999999999965539e+01,3.000000002153051071e+00,9.999999999965826447e+00,6.599999999999214273e-01,1.570000000000149498e+00,2.869999999999996817e+03,-2.174999999999945643e+00,-4.944999999999689422e+00,1.339078795611152728e+01,-2.158702742439473798e+00
1.999999999999855049e+01,3.000000001777246794e+00,1.000000000001621281e+01,6.600000000000073586e-01,1.570000000000098428e+00,2.869999999999999091e+03,-2.174999999999899014e+00,-4.944999999999970974e+00,1.336505814248120139e+01,-2.154407037188385221e+00
1.999999999999988276e+01,2.999999998774102838e+00,1.000000000002055067e+01,6.600000000005299405e-01,1.569999999999182272e+00,2.869999999999992724e+03,-2.175000000000209432e+00,-4.945000000002546692e+00,1.335195460616621510e+01,-2.109052258295829763e+00
1.999999999999935341e+01,2.999999997026481235e+00,1.000000000005695888e+01,6.600000000001627898e-01,1.569999999999816209e+00,2.869999999999999091e+03,-2.175000000000042899e+00,-4.945000000000719709e+00,1.336290675516921844e+01,-2.116577712851276161e+00
2.000000000000031974e+01,2.999999999926411309e+00,9.999999999993557154e+00,6.600000000000056932e-01,1.570000000000005391e+00,2.869999999999997272e+03,-2.175000000000034905e+00,-4.945000000000089990e+00,1.344775907911148316e+01,-2.197467022661692582e+00
1.999999999999885247e+01,2.999999997817087927e+00,1.000000000003007372e+01,6.599999999997052669e-01,1.570000000000536078e+00,2.869999999999998636e+03,-2.174999999999805311e+00,-4.944999999998648477e+00,1.339142394802679981e+01,-2.145744625799193450e+00
1.999999999999866063e+01,2.999999996970165839e+00,1.000000000004152234e+01,6.600000000001056133e-01,1.569999999999916351e+00,2.870000000000000909e+03,-2.174999999999919442e+00,-4.945000000000467466e+00,1.338488406690625254e+01,-2.186759188321044878e+00
1.999999999999942091e+01,2.999999995868583902e+00,1.000000000000410694e+01,6.600000000000303402e-01,1.569999999999983853e+00,2.869999999999993179e+03,-2.174999999999956746e+00,-4.945000000000105089e+00,1.338438427815657406e+01,-2.162414154167898950e+00
1.999999999999874944e+01,3.000000000235053754e+00,1.000000000004050627e+01,6.599999999996574163e-01,1.570000000000630891e+00,2.870000000000000000e+03,-2.174999999999774669e+00,-4.944999999998308304e+00,1.337963477483798158e+01,-2.159019723538000868e+00
1.999999999999969447e+01,2.999999999398237804e+00,1.000000000000105160e+01,6.600000000001894351e-01,1.569999999999758922e+00,2.869999999999989541e+03,-2.175000000000058442e+00,-4.945000000000797868e+00,1.345599846586684656e+01,-2.191804801035338812e+00
1.999999999999865707e+01,2.999999996843162542e+00,1.000000000001604228e+01,6.599999999997123723e-01,1.570000000000528972e+00,2.869999999999999545e+03,-2.174999999999775113e+00,-4.944999999998607620e+00,1.339380368571827873e+01,-2.172037293435344463e+00
2.000000000000008527e+01,2.999999999296772302e+00,1.000000000002853717e+01,6.599999999999829337e-01,1.570000000000022267e+00,2.869999999999985903e+03,-2.174999999999986056e+00,-4.944999999999912355e+00,1.343463006651832004e+01,-2.192525723372835689e+00
1.999999999999977263e+01,2.999999999597728451e+00,1.000000000000963318e+01,6.600000000000569855e-01,1.569999999999920126e+00,2.869999999999997726e+03,-2.174999999999986944e+00,-4.945000000000224105e+00,1.341992956896732991e+01,-2.154938288713800887e+00
1.999999999999918643e+01,2.999999998378856336e+00,1.000000000002917488e+01,6.600000000003160006e-01,1.569999999999535989e+00,2.870000000000002274e+03,-2.175000000000078426e+00,-4.945000000001383178e+00,1.337577810917662902e+01,-2.142595653847191528e+00
1.999999999999926104e+01,3.000000000976917214e+00,1.000000000004674661e+01,6.600000000002654854e-01,1.569999999999603935e+00,2.869999999999999545e+03,-2.175000000000067768e+00,-4.945000000001155804e+00,1.339886188681096435e+01,-2.149318146858489431e+00
2.000000000000063949e+01,2.999999999295166031e+00,9.999999999989649169e+00,6.599999999997738787e-01,1.570000000000310036e+00,2.869999999999991815e+03,-2.174999999999942535e+00,-4.944999999999050821e+00,1.351095244889991420e+01,-2.315377464990802547e+00
1.999999999999903366e+01,2.999999996861264062e+00,9.999999999978944842e+00,6.599999999999988098e-01,1.570000000000049134e+00,2.869999999999994088e+03,-2.174999999999925659e+00,-4.944999999999962093e+00,1.337596340390560989e+01,-2.168211793434335899e+00
2.000000000000046541e+01,2.999999996916470568e+00,9.999999999971134201e+00,6.600000000000568745e-01,1.569999999999892148e+00,2.869999999999987722e+03,-2.175000000000056222e+00,-4.945000000000299600e+00,1.343811701811288550e+01,-2.177647897505204710e+00
1.999999999999982236e+01,2.999999999392507721e+00,9.999999999976600051e+00,6.600000000001287059e-01,1.569999999999809326e+00,2.869999999999999091e+03,-2.175000000000066436e+00,-4.945000000000787210e+00,1.344035181418567149e+01,-2.161760874792071352e+00
1.999999999999921840e+01,2.999999997546281882e+00,1.000000000000341949e+01,6.600000000002301803e-01,1.569999999999673213e+00,2.869999999999995453e+03,-2.175000000000060663e+00,-4.945000000001031459e+00,1.339976436522453440e+01,-2.152166763313207998e+00
1.999999999999956302e+01,2.999999999342137347e+00,9.999999999991450395e+00,6.600000000001217115e-01,1.569999999999795781e+00,2.870000000000000000e+03,-2.175000000000011813e+00,-4.945000000000606022e+00,1.343891273720106483e+01,-2.214669755461360356e+00
1.999999999999943512e+01,2.999999996813611070e+00,9.999999999993397282e+00,6.600000000001885470e-01,1.569999999999745377e+00,2.870000000000002274e+03,-2.175000000000049560e+00,-4.945000000000900009e+00,1.335104040926666258e+01,-2.120858242589326093e+00
2.000000000000027711e+01,2.999999998628455788e+00,9.999999999974422238e+00,6.600000000002825828e-01,1.569999999999568407e+00,2.869999999999992724e+03,-2.175000000000141487e+00,-4.945000000001289031e+00,1.334656846887214421e+01,-2.142585315285135295e+00
1.999999999999970512e+01,2.999999997927459638e+00,1.000000000000544098e+01,6.599999999998460432e-01,1.570000000000294715e+00,2.870000000000000000e+03,-2.174999999999899014e+00,-4.944999999999248885e+00,1.341596271682394459e+01,-2.137056953759833178e+00
1.999999999999958433e+01,2.999999996854974427e+00,1.000000000001970335e+01,6.600000000000257883e-01,1.570000000000000506e+00,2.869999999999989541e+03,-2.174999999999981615e+00,-4.945000000000062457e+00,1.339978431585130281e+01,-2.185611202819927712e+00
2.000000000000040856e+01,3.000000001850099629e+00,9.999999999951651120e+00,6.600000000005065148e-01,1.569999999999215134e+00,2.869999999999991815e+03,-2.175000000000233413e+00,-4.945000000002302443e+00,1.346972745117987103e+01,-2.118248558972823048e+00
1.999999999999992539e+01,3.000000002466098437e+00,9.999999999977703169e+00,6.599999999999226485e-01,1.570000000000150386e+00,2.869999999999985448e+03,-2.174999999999962075e+00,-4.944999999999476259e+00,1.345490324566922169e+01,-2.098711075674223103e+00
2.000000000000081712e+01,2.999999999639432424e+00,9.999999999970459186e+00,6.600000000003145573e-01,1.569999999999487583e+00,2.869999999999979082e+03,-2.175000000000171685e+00,-4.945000000001377849e+00,1.344878887159936909e+01,-2.085891042995206668e+00
1.999999999999968736e+01,2.999999998685137559e+00,9.999999999994226840e+00,6.599999999995208588e-01,1.570000000000765450e+00,2.869999999999979082e+03,-2.174999999999777778e+00,-4.944999999997802043e+00,1.341379651593971722e+01,-2.149031154953855882e+00
2.000000000000066791e+01,3.000000000456942928e+00,1.000000000002653167e+01,6.600000000000882938e-01,1.569999999999905915e+00,2.869999999999974534e+03,-2.175000000000116174e+00,-4.945000000000339568e+00,1.338290151334588707e+01,-2.180225179379356781e+00
2.000000000000160227e+01,3.000000000291798141e+00,9.999999999991077360e+00,6.600000000005821210e-01,1.569999999999014406e+00,2.869999999999990905e+03,-2.175000000000349765e+00,-4.945000000002671925e+00,1.341712061423513269e+01,-2.114885285351337352e+00
1.999999999999964118e+01,2.999999997308973487e+00,9.999999999982300380e+00,6.600000000000731948e-01,1.569999999999959206e+00,2.870000000000003638e+03,-2.175000000000018918e+00,-4.945000000000201901e+00,1.337581141275395069e+01,-2.189428894123592872e+00
1.999999999999969447e+01,2.999999997422432063e+00,9.999999999981207921e+00,6.600000000005309397e-01,1.569999999999169615e+00,2.869999999999998181e+03,-2.175000000000179678e+00,-4.945000000002405471e+00,1.341727100189118893e+01,-2.104378355153750491e+00
1.999999999999966249e+01,2.999999997795623763e+00,9.999999999989080735e+00,6.600000000004220269e-01,1.569999999999395435e+00,2.869999999999999545e+03,-2.175000000000133937e+00,-4.945000000001877005e+00,1.336312737654437832e+01,-2.206615925258570865e+00
2.000000000000090949e+01,2.999999994902634803e+00,9.999999999983572252e+00,6.600000000000216804e-01,1.569999999999945883e+00,2.869999999999994088e+03,-2.175000000000100187e+00,-4.945000000000087326e+00,1.345484703350322064e+01,-2.107597991460614661e+00
1.999999999999991829e+01,2.999999997395136564e+00,1.000000000001598188e+01,6.599999999999562883e-01,1.570000000000103535e+00,2.870000000000002728e+03,-2.174999999999982947e+00,-4.944999999999792450e+00,1.340413667320845370e+01,-2.180310570059828645e+00
2.000000000000082778e+01,2.999999997106346683e+00,1.000000000000478018e+01,6.600000000000224576e-01,1.569999999999981855e+00,2.869999999999990905e+03,-2.175000000000105960e+00,-4.945000000000108642e+00,1.342601765401646752e+01,-2.222537974264521932e+00
2.000000000000086686e+01,2.999999996548865067e+00,9.999999999988352428e+00,6.600000000003066747e-01,1.569999999999548645e+00,2.869999999999991360e+03,-2.175000000000219202e+00,-4.945000000001321894e+00,1.338615873650807586e+01,-2.188983750673337614e+00
1.999999999999952038e+01,3.000000000382726295e+00,1.000000000000530243e+01,6.599999999997580025e-01,1.570000000000460805e+00,2.870000000000002274e+03,-2.174999999999866596e+00,-4.944999999998849205e+00,1.337477099506010170e+01,-2.139967685659876828e+00
1.999999999999964118e+01,2.999999998819330660e+00,1.000000000000612665e+01,6.600000000001482459e-01,1.569999999999729390e+00,2.869999999999996362e+03,-2.175000000000010925e+00,-4.945000000000770335e+00,1.351395264061329371e+01,-2.298190173916762724e+00
2.000000000000004619e+01,2.999999997742968549e+00,9.999999999968014919e+00,6.600000000003987122e-01,1.569999999999378781e+00,2.869999999999992269e+03,-2.175000000000181455e+00,-4.945000000001833484e+00,1.352835311507145377e+01,-2.303675875254559191e+00
2.000000000000043343e+01,2.999999999237372705e+00,9.999999999994789945e+00,6.600000000002242961e-01,1.569999999999659668e+00,2.869999999999997272e+03,-2.175000000000146372e+00,-4.945000000001011031e+00,1.343843891128659074e+01,-2.162553020721783792e+00
1.999999999999992895e+01,2.999999997947059072e+00,9.999999999956289187e+00,6.599999999999349720e-01,1.570000000000085105e+00,2.870000000000003183e+03,-2.174999999999978950e+00,-4.944999999999698304e+00,1.338541435799480084e+01,-2.173148343028362017e+00
1.999999999999977618e+01,2.999999998650411115e+00,1.000000000001357670e+01,6.599999999998852340e-01,1.570000000000194129e+00,2.870000000000001364e+03,-2.174999999999941203e+00,-4.944999999999500240e+00,1.341261135694993456e+01,-2.197528198820040135e+00
1.999999999999898037e+01,3.000000003557729666e+00,1.000000000000384048e+01,6.600000000000744160e-01,1.569999999999945217e+00,2.870000000000002728e+03,-2.174999999999940758e+00,-4.945000000000277396e+00,1.333526488002096499e+01,-2.140543432434069526e+00
2.000000000000064659e+01,2.999999998091442688e+00,1.000000000001251976e+01,6.599999999999507372e-01,1.570000000000061346e+00,2.869999999999979991e+03,-2.175000000000053557e+00,-4.944999999999801332e+00,1.347168833178254665e+01,-2.176419965334243756e+00
1.999999999999893063e+01,3.000000002408122590e+00,1.000000000003900169e+01,6.600000000001255973e-01,1.569999999999809770e+00,2.869999999999999545e+03,-2.174999999999967848e+00,-4.945000000000612239e+00,1.342718900048741304e+01,-2.172241164557954907e+00
1.999999999999963762e+01,2.999999997501225479e+00,1.000000000003064571e+01,6.600000000003561906e-01,1.569999999999412532e+00,2.869999999999995453e+03,-2.175000000000101963e+00,-4.945000000001749108e+00,1.338286087895316712e+01,-2.073790440722598216e+00
2.000000000000023803e+01,2.999999996321294660e+00,1.000000000000674305e+01,6.599999999999394129e-01,1.570000000000062901e+00,2.869999999999985903e+03,-2.174999999999987832e+00,-4.944999999999703633e+00,1.341484644407425719e+01,-2.226578894843088019e+00
2.000000000000055067e+01,2.999999997967485399e+00,1.000000000000472511e+01,6.600000000005306067e-01,1.569999999999145635e+00,2.869999999999985903e+03,-2.175000000000243627e+00,-4.945000000002437446e+00,1.341650583455628976e+01,-2.207597400147159217e+00
1.999999999999954170e+01,3.000000000104594999e+00,9.999999999980333953e+00,6.600000000000365574e-01,1.569999999999974527e+00,2.869999999999984539e+03,-2.174999999999972289e+00,-4.945000000000132623e+00,1.337849365466314744e+01,-2.168151074078942031e+00
1.999999999999988631e+01,2.999999999022636032e+00,1.000000000000983391e+01,6.599999999999457412e-01,1.570000000000094875e+00,2.869999999999996362e+03,-2.174999999999956302e+00,-4.944999999999764029e+00,1.335582382509603150e+01,-2.152114783489141647e+00
2.000000000000141043e+01,2.999999998091362308e+00,9.999999999996708411e+00,6.600000000002317346e-01,1.569999999999593721e+00,2.869999999999984993e+03,-2.175000000000202771e+00,-4.945000000001001261e+00,1.337863741038905907e+01,-2.134867619992636190e+00
1.999999999999877076e+01,2.999999998390090905e+00,1.000000000001157474e+01,6.600000000000079137e-01,1.570000000000053797e+00,2.870000000000003183e+03,-2.174999999999898570e+00,-4.945000000000011831e+00,1.335434200528666082e+01,-2.098157079529349378e+00
1.999999999999991829e+01,3.000000000317841753e+00,1.000000000005161738e+01,6.599999999999544009e-01,1.570000000000059570e+00,2.869999999999989996e+03,-2.174999999999956302e+00,-4.944999999999837748e+00,1.337709531907447946e+01,-2.143358822987929013e+00
2.000000000000081002e+01,2.999999999388217820e+00,9.999999999979545251e+00,6.600000000002096412e-01,1.569999999999617923e+00,2.869999999999982720e+03,-2.175000000000117950e+00,-4.945000000001059881e+00,1.340399418532396147e+01,-2.170675212842853252e+00
2.000000000000003908e+01,3.000000000981841275e+00,9.999999999999943157e+00,6.600000000002458345e-01,1.569999999999649676e+00,2.869999999999982720e+03,-2.175000000000102407e+00,-4.945000000001112284e+00,1.336279951252368292e+01,-2.176356160121268868e+00
1.999999999999995026e+01,3.000000000672939482e+00,9.999999999969343634e+00,6.599999999997685496e-01,1.570000000000386420e+00,2.870000000000000455e+03,-2.174999999999898570e+00,-4.944999999998869633e+00,1.341802448339105425e+01,-2.158652176539616274e+00
2.000000000000083844e+01,3.000000000916936749e+00,9.999999999966471265e+00,6.599999999999629496e-01,1.570000000000010276e+00,2.869999999999992269e+03,-2.175000000000048672e+00,-4.944999999999814655e+00,1.342467150230130279e+01,-2.123486637049192716e+00
1.999999999999988987e+01,3.000000001165863406e+00,9.999999999985954346e+00,6.599999999992052224e-01,1.570000000001270379e+00,2.870000000000004093e+03,-2.174999999999678302e+00,-4.944999999996363194e+00,1.337892539511676482e+01,-2.154706905006705586e+00
2.000000000000093436e+01,2.999999997942992103e+00,9.999999999986357579e+00,6.600000000000079137e-01,1.569999999999970752e+00,2.869999999999990450e+03,-2.175000000000083311e+00,-4.945000000000030482e+00,1.340224746784495480e+01,-2.113101543707274654e+00
2.000000000000013856e+01,2.999999997916646954e+00,9.999999999994352962e+00,6.599999999998574784e-01,1.570000000000230767e+00,2.869999999999991360e+03,-2.174999999999957634e+00,-4.944999999999264872e+00,1.342842707052893481e+01,-2.189106961442790933e+00
2.000000000000111555e+01,2.999999999128278194e+00,9.999999999981238119e+00,6.600000000003037881e-01,1.569999999999520668e+00,2.869999999999979082e+03,-2.175000000000209877e+00,-4.945000000001305018e+00,1.339711864714786493e+01,-2.150884177769956551e+00
2.000000000000033751e+01,3.000000001813651007e+00,9.999999999970860642e+00,6.599999999999711653e-01,1.570000000000061124e+00,2.869999999999999545e+03,-2.175000000000016698e+00,-4.944999999999915019e+00,1.342859840791998671e+01,-2.147959015971329322e+00
2.000000000000017053e+01,2.999999999929522598e+00,9.999999999984201082e+00,6.600000000000766365e-01,1.569999999999915907e+00,2.869999999999990905e+03,-2.175000000000061995e+00,-4.945000000000238316e+00,1.336776693519365011e+01,-2.196309485815843399e+00
1.999999999999966249e+01,2.999999997713824751e+00,9.999999999969750419e+00,6.599999999999988098e-01,1.570000000000048912e+00,2.870000000000004093e+03,-2.174999999999938982e+00,-4.944999999999879492e+00,1.337058983020940239e+01,-2.155612145281172065e+00
1.999999999999979750e+01,3.000000000416944701e+00,9.999999999970917486e+00,6.600000000001182698e-01,1.569999999999873719e+00,2.869999999999991815e+03,-2.175000000000034905e+00,-4.945000000000531415e+00,1.337335635479945850e+01,-2.150309038911095705e+00
1.999999999999945643e+01,2.999999998787350464e+00,9.999999999969599429e+00,6.599999999998353850e-01,1.570000000000303597e+00,2.869999999999997272e+03,-2.174999999999887912e+00,-4.944999999999217799e+00,1.335778203316530721e+01,-2.117598908261844493e+00
1.999999999999994316e+01,3.000000000004202860e+00,9.999999999984856558e+00,6.599999999999376366e-01,1.570000000000123075e+00,2.869999999999999545e+03,-2.174999999999962075e+00,-4.944999999999623697e+00,1.338459149288910588e+01,-2.114669233172734586e+00
1.999999999999946709e+01,2.999999998830847669e+00,9.999999999999644729e+00,6.600000000003795053e-01,1.569999999999466045e+00,2.869999999999996362e+03,-2.175000000000121059e+00,-4.945000000001686935e+00,1.338133279786231178e+01,-2.140489418999042215e+00
2.000000000000017053e+01,3.000000000431790603e+00,9.999999999972287057e+00,6.600000000002683720e-01,1.569999999999578177e+00,2.869999999999995907e+03,-2.175000000000112621e+00,-4.945000000001243734e+00,1.340103046892166283e+01,-2.163880275435661193e+00
1.999999999999889511e+01,2.999999997510816474e+00,9.999999999979253928e+00,6.599999999998449329e-01,1.570000000000281393e+00,2.869999999999995907e+03,-2.174999999999846612e+00,-4.944999999999220464e+00,1.346110170956347041e+01,-2.213151109061395339e+00
1.999999999999966604e+01,3.000000003387234493e+00,9.999999999973654852e+00,6.600000000000113554e-01,1.570000000000002505e+00,2.869999999999997726e+03,-2.174999999999970957e+00,-4.944999999999979856e+00,1.339052807300576475e+01,-2.151687667472463872e+00
2.000000000000027711e+01,3.000000003380464797e+00,9.999999999948768092e+00,6.599999999996767341e-01,1.570000000000488560e+00,2.869999999999985903e+03,-2.174999999999881695e+00,-4.944999999998555218e+00,1.342078520367583927e+01,-2.205810036195047452e+00
2.000000000000075673e+01,3.000000001667348926e+00,9.999999999977925214e+00,6.600000000001374767e-01,1.569999999999758034e+00,2.869999999999985448e+03,-2.175000000000101963e+00,-4.945000000000606910e+00,1.340507063281722111e+01,-2.164636925081051544e+00
1.999999999999995737e+01,3.000000003154115635e+00,9.999999999998081535e+00,6.599999999996076783e-01,1.570000000000590479e+00,2.869999999999985448e+03,-2.174999999999823963e+00,-4.944999999998192841e+00,1.343469261767229739e+01,-2.169166281205914704e+00
1.999999999999966604e+01,2.999999999828419472e+00,9.999999999987016608e+00,6.600000000003831691e-01,1.569999999999378559e+00,2.869999999999990905e+03,-2.175000000000102407e+00,-4.945000000001889440e+00,1.339491620371765812e+01,-2.151100035360212992e+00
1.999999999999864642e+01,3.000000004173416279e+00,9.999999999973798737e+00,6.599999999999531797e-01,1.570000000000146612e+00,2.869999999999999091e+03,-2.174999999999904787e+00,-4.944999999999688534e+00,1.343591646173415732e+01,-2.164582744046378959e+00
1.999999999999888800e+01,3.000000001533904115e+00,9.999999999984442667e+00,6.600000000001350342e-01,1.569999999999837303e+00,2.869999999999997726e+03,-2.174999999999946976e+00,-4.945000000000572271e+00,1.337993781584980013e+01,-2.138933824918002546e+00
1.999999999999871747e+01,3.000000003606171806e+00,1.000000000001209344e+01,6.600000000000902922e-01,1.569999999999889040e+00,2.870000000000002274e+03,-2.174999999999932321e+00,-4.945000000000340457e+00,1.342274227727027380e+01,-2.201009408978255255e+00
1.999999999999909051e+01,3.000000003437610196e+00,9.999999999984718002e+00,6.600000000002603784e-01,1.569999999999651008e+00,2.870000000000001819e+03,-2.175000000000022915e+00,-4.945000000001081197e+00,1.337582920963237676e+01,-2.160339734680030155e+00
1.999999999999980460e+01,3.000000000460965044e+00,9.999999999974420462e+00,6.600000000003344303e-01,1.569999999999467155e+00,2.870000000000001364e+03,-2.175000000000090417e+00,-4.945000000001476437e+00,1.342119473736041257e+01,-2.149550705515662852e+00
2.000000000000035527e+01,3.000000001983421871e+00,9.999999999954184204e+00,6.599999999999589528e-01,1.570000000000003393e+00,2.869999999999989541e+03,-2.174999999999982059e+00,-4.944999999999819984e+00,1.341312249901349141e+01,-2.128101049954457924e+00
1.999999999999964828e+01,3.000000003385594027e+00,9.999999999958365748e+00,6.599999999999341949e-01,1.570000000000117524e+00,2.870000000000000000e+03,-2.174999999999946532e+00,-4.944999999999610374e+00,1.343171540059140057e+01,-2.159168792443556306e+00
1.999999999999905143e+01,3.000000002706519897e+00,1.000000000000912515e+01,6.600000000000025846e-01,1.570000000000075335e+00,2.870000000000000455e+03,-2.174999999999929212e+00,-4.944999999999955875e+00,1.340918538189300868e+01,-2.158867428626592311e+00
1.999999999999997513e+01,3.000000000242740494e+00,1.000000000001481126e+01,6.599999999999965894e-01,1.570000000000021823e+00,2.870000000000001819e+03,-2.175000000000030020e+00,-4.944999999999803997e+00,1.339995247736425910e+01,-2.160565995396972916e+00
1.999999999999901590e+01,3.000000001390093818e+00,1.000000000001633538e+01,6.600000000000382228e-01,1.569999999999976970e+00,2.870000000000001819e+03,-2.174999999999924327e+00,-4.945000000000107754e+00,1.341900492192579897e+01,-2.127302752836464528e+00
1.999999999999918288e+01,2.999999999423526020e+00,1.000000000001612577e+01,6.600000000001225997e-01,1.569999999999846185e+00,2.870000000000000909e+03,-2.174999999999978506e+00,-4.945000000000462137e+00,1.342435642001417762e+01,-2.170288949493038633e+00
1.999999999999919709e+01,2.999999999686280727e+00,1.000000000000628475e+01,6.600000000001329248e-01,1.569999999999788010e+00,2.870000000000002728e+03,-2.174999999999959410e+00,-4.945000000000639773e+00,1.340859054499171776e+01,-2.183393545376755895e+00
2.000000000000001421e+01,2.999999998102952592e+00,1.000000000002325429e+01,6.600000000003651834e-01,1.569999999999403206e+00,2.869999999999993634e+03,-2.175000000000153033e+00,-4.945000000001764207e+00,1.338865950580339081e+01,-2.159532676154205078e+00
1.999999999999866773e+01,3.000000002773114183e+00,1.000000000002946088e+01,6.599999999999937028e-01,1.570000000000048690e+00,2.870000000000000909e+03,-2.174999999999879474e+00,-4.944999999999923901e+00,1.344714159182295710e+01,-2.158444628514685437e+00
1.999999999999957723e+01,3.000000000427995861e+00,1.000000000001580602e+01,6.599999999995940225e-01,1.570000000000603357e+00,2.869999999999991815e+03,-2.174999999999809308e+00,-4.944999999998205276e+00,1.340342262528394102e+01,-2.203480644150989765e+00
1.999999999999946709e+01,3.000000000028991032e+00,1.000000000000303935e+01,6.599999999997249178e-01,1.570000000000412843e+00,2.869999999999990905e+03,-2.174999999999834621e+00,-4.944999999998789697e+00,1.336533985330721208e+01,-2.162217341401588389e+00
1.999999999999942801e+01,2.999999997704029031e+00,1.000000000002486722e+01,6.600000000003189982e-01,1.569999999999541096e+00,2.870000000000000455e+03,-2.175000000000095746e+00,-4.945000000001479989e+00,1.337177262270048139e+01,-2.154155565710388576e+00
1.999999999999866773e+01,3.000000000505570696e+00,1.000000000003946177e+01,6.599999999997427924e-01,1.570000000000433493e+00,2.869999999999999091e+03,-2.174999999999772893e+00,-4.944999999998844764e+00,1.337073189608297419e+01,-2.142048114354824673e+00
1.999999999999945288e+01,2.999999999404830753e+00,1.000000000000851230e+01,6.600000000000920686e-01,1.569999999999849294e+00,2.870000000000000455e+03,-2.174999999999970512e+00,-4.945000000000391971e+00,1.338264376311027348e+01,-2.150415849032885518e+00
1.999999999999941380e+01,3.000000000769552866e+00,1.000000000001079847e+01,6.599999999995060929e-01,1.570000000000809637e+00,2.869999999999998181e+03,-2.174999999999754685e+00,-4.944999999997567564e+00,1.338793165981645394e+01,-2.155030328788396066e+00
2.000000000000031264e+01,2.999999999795324168e+00,1.000000000001356781e+01,6.600000000003234391e-01,1.569999999999473594e+00,2.869999999999999091e+03,-2.175000000000141487e+00,-4.945000000001573248e+00,1.339849418158285310e+01,-2.129215303151830163e+00
1.999999999999968381e+01,3.000000002093957896e+00,9.999999999997157829e+00,6.599999999999432987e-01,1.570000000000126628e+00,2.870000000000000909e+03,-2.174999999999957634e+00,-4.944999999999797780e+00,1.341093055996491934e+01,-2.133070739673057492e+00
1.999999999999992184e+01,3.000000001411551320e+00,9.999999999983751664e+00,6.600000000001895462e-01,1.569999999999689200e+00,2.869999999999997726e+03,-2.175000000000035794e+00,-4.945000000000931095e+00,1.342017932481853393e+01,-2.180974613840287901e+00
1.999999999999927169e+01,2.999999999089749902e+00,9.999999999982895460e+00,6.600000000000597611e-01,1.569999999999934781e+00,2.870000000000000000e+03,-2.174999999999960743e+00,-4.945000000000263185e+00,1.338009452451905190e+01,-2.123642578974635597e+00
2.000000000000108358e+01,3.000000000159320113e+00,9.999999999990793143e+00,6.600000000001631228e-01,1.569999999999712958e+00,2.869999999999984993e+03,-2.175000000000133937e+00,-4.945000000000731255e+00,1.337809160626047600e+01,-2.149239470911500582e+00
2.000000000000006750e+01,2.999999999697760433e+00,9.999999999967650766e+00,6.600000000002740341e-01,1.569999999999589724e+00,2.869999999999991815e+03,-2.175000000000121059e+00,-4.945000000001310347e+00,1.341070937042194089e+01,-2.177171304422648834e+00
2.000000000000196465e+01,2.999999995102046402e+00,9.999999999953667285e+00,6.600000000006437384e-01,1.569999999998929585e+00,2.869999999999982720e+03,-2.175000000000391509e+00,-4.945000000002964136e+00,1.339459776025420545e+01,-2.110374954155580518e+00
2.000000000000000711e+01,2.999999999234909787e+00,1.000000000000691003e+01,6.600000000003231060e-01,1.569999999999508677e+00,2.869999999999995907e+03,-2.175000000000137490e+00,-4.945000000001461338e+00,1.339731587549862013e+01,-2.186324328566176423e+00
1.999999999999901590e+01,2.999999998794344425e+00,1.000000000000344613e+01,6.599999999999059952e-01,1.570000000000222773e+00,2.870000000000000000e+03,-2.174999999999881695e+00,-4.944999999999534879e+00,1.339477436339522853e+01,-2.169693087893731054e+00
2.000000000000012790e+01,2.999999997803202589e+00,9.999999999988945731e+00,6.600000000001965406e-01,1.569999999999712070e+00,2.869999999999988631e+03,-2.175000000000080203e+00,-4.945000000000842277e+00,1.344153251739035504e+01,-2.168723672770392685e+00
2.000000000000013500e+01,2.999999994532942083e+00,9.999999999983673504e+00,6.600000000002361755e-01,1.569999999999628360e+00,2.869999999999990450e+03,-2.175000000000090861e+00,-4.945000000000987050e+00,1.341653722360331713e+01,-2.150672269890149479e+00
2.000000000000028066e+01,3.000000000644283737e+00,9.999999999983712584e+00,6.600000000003949374e-01,1.569999999999326601e+00,2.869999999999979991e+03,-2.175000000000156142e+00,-4.945000000001831708e+00,1.349895721129994719e+01,-2.232450664624857861e+00
2.000000000000026290e+01,2.999999999265979156e+00,9.999999999937593032e+00,6.599999999997001598e-01,1.570000000000440377e+00,2.869999999999992269e+03,-2.174999999999878142e+00,-4.944999999998755058e+00,1.340999647274596640e+01,-2.122221259484496692e+00
2.000000000000082423e+01,2.999999999918781857e+00,9.999999999943074869e+00,6.600000000000357803e-01,1.569999999999893037e+00,2.869999999999989996e+03,-2.175000000000072653e+00,-4.945000000000238316e+00,1.337363273514102424e+01,-2.129841717691764558e+00
2.000000000000043698e+01,3.000000001319473864e+00,9.999999999940216711e+00,6.600000000002962386e-01,1.569999999999504015e+00,2.870000000000000455e+03,-2.175000000000124611e+00,-4.945000000001425811e+00,1.340508094710635412e+01,-2.161826452135514831e+00
1.999999999999887379e+01,3.000000002012692679e+00,9.999999999963057107e+00,6.599999999995865840e-01,1.570000000000648210e+00,2.870000000000003638e+03,-2.174999999999720046e+00,-4.944999999998223039e+00,1.337750437910957046e+01,-2.165214148711885667e+00
2.000000000000039790e+01,2.999999999418449637e+00,9.999999999954145125e+00,6.600000000002095302e-01,1.569999999999621254e+00,2.869999999999998181e+03,-2.175000000000092637e+00,-4.945000000001054552e+00,1.340726527484681263e+01,-2.182245466450455140e+00
2.000000000000077449e+01,3.000000000177686310e+00,9.999999999926187044e+00,6.600000000004732081e-01,1.569999999999250884e+00,2.869999999999994543e+03,-2.175000000000229861e+00,-4.945000000002091056e+00,1.348931479041635662e+01,-2.142856373458311481e+00
2.000000000000071765e+01,2.999999999692919861e+00,9.999999999943348428e+00,6.600000000005684653e-01,1.569999999999082796e+00,2.869999999999994088e+03,-2.175000000000267164e+00,-4.945000000002626628e+00,1.343090963297611218e+01,-2.083414393869026604e+00
2.000000000000066080e+01,2.999999999094534520e+00,9.999999999945517359e+00,6.599999999998575895e-01,1.570000000000161489e+00,2.869999999999992269e+03,-2.174999999999968736e+00,-4.944999999999474483e+00,1.342932180541246900e+01,-2.095200489414697831e+00
2.000000000000150990e+01,2.999999999401304684e+00,9.999999999944744644e+00,6.600000000002408385e-01,1.569999999999531326e+00,2.869999999999991815e+03,-2.175000000000179234e+00,-4.945000000001153140e+00,1.347956044852401192e+01,-2.115505077605561279e+00
2.000000000000001066e+01,2.999999999822399399e+00,9.999999999963979036e+00,6.600000000001549072e-01,1.569999999999804219e+00,2.869999999999997726e+03,-2.175000000000090861e+00,-4.945000000000620233e+00,1.347492866468522088e+01,-2.226788769935737822e+00
1.999999999999950973e+01,2.999999996371867095e+00,1.000000000002895284e+01,6.600000000000769695e-01,1.569999999999931228e+00,2.869999999999997726e+03,-2.174999999999995826e+00,-4.945000000000223217e+00,1.345326186205418928e+01,-2.264534556566565993e+00
1.999999999999939249e+01,2.999999998456055916e+00,1.000000000002086331e+01,6.600000000000522116e-01,1.569999999999906137e+00,2.869999999999998636e+03,-2.174999999999970068e+00,-4.945000000000337792e+00,1.338135755697042484e+01,-2.178819984737116577e+00
1.999999999999978328e+01,2.999999998713813287e+00,1.000000000001963052e+01,6.600000000002118616e-01,1.569999999999668105e+00,2.869999999999994088e+03,-2.175000000000068212e+00,-4.945000000000955964e+00,1.334289000387511059e+01,-2.162760559981404818e+00
