2.000000000000028422e+01,2.999999999907945192e+00,9.999999999954948038e+00,6.600000000000780798e-01,1.569999999999862395e+00,2.869999999999983629e+03,-2.175000000000032685e+00,-4.945000000000337792e+00,1.340752166856805516e+01,-2.177843539565144315e+00
1.999999999999987566e+01,2.999999999054076216e+00,9.999999999950635043e+00,6.600000000000224576e-01,1.569999999999955875e+00,2.869999999999988631e+03,-2.174999999999995381e+00,-4.945000000000080220e+00,1.339932611636248438e+01,-2.155468368091600695e+00
2.000000000000014921e+01,2.999999999130510631e+00,9.999999999956443730e+00,6.600000000001060574e-01,1.569999999999836637e+00,2.869999999999986812e+03,-2.175000000000056666e+00,-4.945000000000422169e+00,1.337751544185659291e+01,-2.163886160748842880e+00
2.000000000000044409e+01,2.999999999339866275e+00,9.999999999983323562e+00,6.600000000002536060e-01,1.569999999999619034e+00,2.869999999999978172e+03,-2.175000000000145484e+00,-4.945000000001043894e+00,1.339129988378718039e+01,-2.132546622031608496e+00
1.999999999999952394e+01,2.999999998419466518e+00,9.999999999983037569e+00,6.599999999996797317e-01,1.570000000000509655e+00,2.869999999999982265e+03,-2.174999999999839506e+00,-4.944999999998517026e+00,1.341228947886869172e+01,-2.201129560728587009e+00
2.000000000000136779e+01,2.999999997080467384e+00,9.999999999990331290e+00,6.600000000001919886e-01,1.569999999999642126e+00,2.869999999999979082e+03,-2.175000000000156586e+00,-4.945000000000846718e+00,1.346458149807542171e+01,-2.169654438108341132e+00
2.000000000000028066e+01,2.999999998877703078e+00,9.999999999984023447e+00,6.599999999996004618e-01,1.570000000000607576e+00,2.869999999999978627e+03,-2.174999999999837286e+00,-4.944999999998112905e+00,1.334334017763083580e+01,-2.077170495771761161e+00
1.999999999999956302e+01,3.000000002551977296e+00,9.999999999997983835e+00,6.599999999996853939e-01,1.570000000000510765e+00,2.869999999999983629e+03,-2.174999999999817302e+00,-4.944999999998504592e+00,1.338052347699470879e+01,-2.111384606869340708e+00
2.000000000000061107e+01,2.999999996451009565e+00,9.999999999972473574e+00,6.599999999998593658e-01,1.570000000000207674e+00,2.869999999999979536e+03,-2.174999999999994493e+00,-4.944999999999336815e+00,1.347410319655282152e+01,-2.133669363731009572e+00
2.000000000000046896e+01,2.999999994675823789e+00,9.999999999967352338e+00,6.599999999996236655e-01,1.570000000000570717e+00,2.869999999999984084e+03,-2.174999999999898126e+00,-4.944999999998225704e+00,1.343080025292167612e+01,-2.121615882363949268e+00
2.000000000000060751e+01,2.999999996036757821e+00,9.999999999992301269e+00,6.600000000001735589e-01,1.569999999999666551e+00,2.869999999999974989e+03,-2.175000000000092193e+00,-4.945000000000900009e+00,1.343341457772261371e+01,-2.121985923607677460e+00
1.999999999999946354e+01,2.999999997299045429e+00,9.999999999983247179e+00,6.600000000001481348e-01,1.569999999999775797e+00,2.869999999999994543e+03,-2.175000000000012701e+00,-4.945000000000637996e+00,1.340916514719565988e+01,-2.130031083875384201e+00
1.999999999999977263e+01,2.999999997764298598e+00,9.999999999964755304e+00,6.600000000002919087e-01,1.569999999999513118e+00,2.870000000000001364e+03,-2.175000000000093969e+00,-4.945000000001387619e+00,1.342797023953529489e+01,-2.193184618371606387e+00
1.999999999999920419e+01,3.000000002318136794e+00,9.999999999978482990e+00,6.599999999998312772e-01,1.570000000000309370e+00,2.869999999999994543e+03,-2.174999999999871925e+00,-4.944999999999159179e+00,1.342458087000083289e+01,-2.166254172173804449e+00
1.999999999999895550e+01,2.999999998419424774e+00,1.000000000001643308e+01,6.600000000000098010e-01,1.570000000000034923e+00,2.869999999999999091e+03,-2.174999999999934097e+00,-4.944999999999934559e+00,1.342071995686633912e+01,-2.108214199621051499e+00
1.999999999999880984e+01,3.000000000081541440e+00,9.999999999987478461e+00,6.599999999996389866e-01,1.570000000000612461e+00,2.870000000000000909e+03,-2.174999999999762235e+00,-4.944999999998310081e+00,1.341743960131414504e+01,-2.186809366945537736e+00
1.999999999999947775e+01,2.999999997316198375e+00,9.999999999969093167e+00,6.599999999994925481e-01,1.570000000000825846e+00,2.869999999999999091e+03,-2.174999999999756461e+00,-4.944999999997587992e+00,1.344333201968715841e+01,-2.195839341656891097e+00
1.999999999999860734e+01,2.999999998836746951e+00,1.000000000003724487e+01,6.600000000001151612e-01,1.569999999999879270e+00,2.869999999999999545e+03,-2.174999999999946088e+00,-4.945000000000485230e+00,1.341513049938842705e+01,-2.225824982795830742e+00
1.999999999999991118e+01,2.999999999180058552e+00,1.000000000003250378e+01,6.599999999999650591e-01,1.570000000000081775e+00,2.869999999999994543e+03,-2.174999999999974509e+00,-4.944999999999795115e+00,1.339230613959161609e+01,-2.176674593275045311e+00
1.999999999999992184e+01,2.999999998602002282e+00,1.000000000004637357e+01,6.600000000002180789e-01,1.569999999999629248e+00,2.869999999999994088e+03,-2.175000000000073541e+00,-4.945000000001121165e+00,1.341752523685722842e+01,-2.179527297705719402e+00
2.000000000000027711e+01,3.000000001592133536e+00,1.000000000001610445e+01,6.599999999999131006e-01,1.570000000000140838e+00,2.869999999999988631e+03,-2.174999999999987388e+00,-4.944999999999555307e+00,1.337961888962232138e+01,-2.104962740909587016e+00
2.000000000000052580e+01,3.000000001450243481e+00,1.000000000000220624e+01,6.600000000001000622e-01,1.569999999999851070e+00,2.869999999999983629e+03,-2.175000000000096190e+00,-4.945000000000416840e+00,1.343604786186839739e+01,-2.104072567316249920e+00
2.000000000000027356e+01,3.000000000677574441e+00,1.000000000004149747e+01,6.600000000003787282e-01,1.569999999999403650e+00,2.869999999999994543e+03,-2.175000000000183231e+00,-4.945000000001777529e+00,1.341284906580509961e+01,-2.173337098919971844e+00
1.999999999999940314e+01,3.000000000089268593e+00,1.000000000005498357e+01,6.600000000002227418e-01,1.569999999999698970e+00,2.869999999999992269e+03,-2.175000000000054889e+00,-4.945000000001004814e+00,1.342199979273556032e+01,-2.155698182582758804e+00
2.000000000000072831e+01,2.999999998393276357e+00,1.000000000004555289e+01,6.600000000000545430e-01,1.569999999999918350e+00,2.869999999999984539e+03,-2.175000000000077982e+00,-4.945000000000251639e+00,1.341752328534510319e+01,-2.115694143475688627e+00
2.000000000000031264e+01,2.999999999691698171e+00,1.000000000005223377e+01,6.599999999999629496e-01,1.570000000000079110e+00,2.869999999999983174e+03,-2.175000000000020695e+00,-4.944999999999757812e+00,1.341307947067634032e+01,-2.118177311335311952e+00
1.999999999999947775e+01,3.000000000051105786e+00,1.000000000002038192e+01,6.599999999998225064e-01,1.570000000000309148e+00,2.869999999999999545e+03,-2.174999999999894573e+00,-4.944999999999174278e+00,1.336125497235497050e+01,-2.188396296573853039e+00
2.000000000000057909e+01,2.999999997769642768e+00,9.999999999981692866e+00,6.600000000002224088e-01,1.569999999999624807e+00,2.869999999999989541e+03,-2.175000000000122391e+00,-4.945000000000990603e+00,1.342633617371586929e+01,-2.203205392699040033e+00
1.999999999999960565e+01,3.000000002219148865e+00,1.000000000005204370e+01,6.600000000000543210e-01,1.569999999999940776e+00,2.870000000000000455e+03,-2.174999999999995826e+00,-4.945000000000282725e+00,1.337822974114179608e+01,-2.162061632727061422e+00
2.000000000000035172e+01,3.000000000591412697e+00,1.000000000000837730e+01,6.600000000001893241e-01,1.569999999999761364e+00,2.869999999999991360e+03,-2.175000000000128164e+00,-4.945000000000764118e+00,1.331723025024960805e+01,-2.121965131870525045e+00
1.999999999999927169e+01,2.999999996032157945e+00,1.000000000000694378e+01,6.600000000001439160e-01,1.569999999999847073e+00,2.869999999999998636e+03,-2.175000000000005151e+00,-4.945000000000575824e+00,1.337631727182929708e+01,-2.183590380547188570e+00
1.999999999999924682e+01,2.999999998005432378e+00,9.999999999995559108e+00,6.599999999999345279e-01,1.570000000000166818e+00,2.869999999999996817e+03,-2.174999999999912781e+00,-4.944999999999593499e+00,1.339384633153467341e+01,-2.180413704439011724e+00
1.999999999999950262e+01,2.999999999319321820e+00,9.999999999989777066e+00,6.599999999996302158e-01,1.570000000000609797e+00,2.869999999999999545e+03,-2.174999999999814193e+00,-4.944999999998296758e+00,1.334880535399266499e+01,-2.150264953999349693e+00
1.999999999999967670e+01,2.999999998329746287e+00,9.999999999979626963e+00,6.600000000001483569e-01,1.569999999999786233e+00,2.869999999999998181e+03,-2.175000000000031353e+00,-4.945000000000645990e+00,1.339261169984478528e+01,-2.188443281658345452e+00
2.000000000000009237e+01,2.999999999157049402e+00,9.999999999986179944e+00,6.600000000004211387e-01,1.569999999999352580e+00,2.870000000000001364e+03,-2.175000000000189893e+00,-4.945000000001955165e+00,1.337562673127742841e+01,-2.205523539213401385e+00
1.999999999999927880e+01,3.000000006089056370e+00,9.999999999997333688e+00,6.600000000000159073e-01,1.570000000000017826e+00,2.869999999999994998e+03,-2.174999999999954969e+00,-4.945000000000057128e+00,1.337092104072001320e+01,-2.231721286662678327e+00
1.999999999999930722e+01,3.000000002975179214e+00,9.999999999993022470e+00,6.599999999996989386e-01,1.570000000000487894e+00,2.869999999999993634e+03,-2.174999999999817302e+00,-4.944999999998698215e+00,1.335872335461299620e+01,-2.154135420150300906e+00
2.000000000000001421e+01,3.000000004542926035e+00,9.999999999997497113e+00,6.600000000000156852e-01,1.569999999999979190e+00,2.869999999999995907e+03,-2.175000000000020250e+00,-4.945000000000183249e+00,1.343425122070913602e+01,-2.187857809898877903e+00
1.999999999999956302e+01,3.000000001426938567e+00,9.999999999980268228e+00,6.600000000001523537e-01,1.569999999999757145e+00,2.869999999999999091e+03,-2.175000000000015365e+00,-4.945000000000741025e+00,1.337841788545808086e+01,-2.195501006765627316e+00
2.000000000000007105e+01,3.000000002537325017e+00,9.999999999991599609e+00,6.600000000002154144e-01,1.569999999999663887e+00,2.869999999999998181e+03,-2.175000000000102851e+00,-4.945000000000943530e+00,1.340405417364270413e+01,-2.139087123202282115e+00
1.999999999999910116e+01,3.000000003117988534e+00,1.000000000002701661e+01,6.600000000005853407e-01,1.569999999999117213e+00,2.869999999999996362e+03,-2.175000000000175238e+00,-4.945000000002755414e+00,1.338810066077660998e+01,-2.175978388454224532e+00
2.000000000000016342e+01,3.000000002890905737e+00,1.000000000003776179e+01,6.600000000000859623e-01,1.569999999999854179e+00,2.869999999999998181e+03,-2.175000000000058886e+00,-4.945000000000480789e+00,1.343522729835102680e+01,-2.187964810092526857e+00
2.000000000000002842e+01,3.000000004570790857e+00,1.000000000001590017e+01,6.599999999999748290e-01,1.570000000000034257e+00,2.869999999999994998e+03,-2.175000000000002043e+00,-4.944999999999933671e+00,1.340880706526430899e+01,-2.142849827665831874e+00
1.999999999999975842e+01,3.000000004803326181e+00,9.999999999972732923e+00,6.600000000001768896e-01,1.569999999999727169e+00,2.869999999999998181e+03,-2.175000000000043343e+00,-4.945000000000760565e+00,1.345596309205914487e+01,-2.109206938221421357e+00
1.999999999999969091e+01,3.000000000658540333e+00,1.000000000004393641e+01,6.599999999999857092e-01,1.570000000000095985e+00,2.869999999999980901e+03,-2.174999999999985167e+00,-4.944999999999811102e+00,1.344891738576005125e+01,-2.203524547262690092e+00
1.999999999999934985e+01,2.999999997980960398e+00,1.000000000002637357e+01,6.599999999999784928e-01,1.570000000000121521e+00,2.869999999999989541e+03,-2.174999999999944311e+00,-4.944999999999809326e+00,1.337069824074341007e+01,-2.123385369378451681e+00
1.999999999999930722e+01,3.000000001599187005e+00,9.999999999998774314e+00,6.600000000001225997e-01,1.569999999999865281e+00,2.869999999999992269e+03,-2.175000000000006484e+00,-4.945000000000483453e+00,1.335539006742244617e+01,-2.160131067843724662e+00
2.000000000000007461e+01,3.000000002973179036e+00,1.000000000002380496e+01,6.600000000001292610e-01,1.569999999999816653e+00,2.869999999999991360e+03,-2.175000000000076206e+00,-4.945000000000503881e+00,1.342142758081842580e+01,-2.205361222528734011e+00
1.999999999999946709e+01,3.000000001127956839e+00,1.000000000003618084e+01,6.599999999999791589e-01,1.570000000000083995e+00,2.869999999999985448e+03,-2.174999999999949196e+00,-4.944999999999819984e+00,1.341651606131001095e+01,-2.156743972474670201e+00
2.000000000000015987e+01,3.000000003655921343e+00,1.000000000002398970e+01,6.600000000002141931e-01,1.569999999999670770e+00,2.869999999999987267e+03,-2.175000000000101963e+00,-4.945000000000916884e+00,1.342433139495839889e+01,-2.161190999661993573e+00
1.999999999999933920e+01,3.000000002288002232e+00,1.000000000004258993e+01,6.599999999998149569e-01,1.570000000000337348e+00,2.869999999999992724e+03,-2.174999999999879918e+00,-4.944999999999090790e+00,1.340816354366327978e+01,-2.240682733990911224e+00
1.999999999999916156e+01,3.000000001063049204e+00,1.000000000001650058e+01,6.600000000001057243e-01,1.569999999999847962e+00,2.870000000000000000e+03,-2.174999999999981615e+00,-4.945000000000518092e+00,1.339218952229528270e+01,-2.116810933642566450e+00
1.999999999999931433e+01,3.000000000622929264e+00,1.000000000002208544e+01,6.599999999999879297e-01,1.570000000000030260e+00,2.870000000000003183e+03,-2.174999999999936762e+00,-4.945000000000002061e+00,1.334797769571844839e+01,-2.132380173778170906e+00
1.999999999999939249e+01,3.000000001829387308e+00,9.999999999984460430e+00,6.600000000002104183e-01,1.569999999999654117e+00,2.869999999999999545e+03,-2.175000000000026912e+00,-4.945000000001083862e+00,1.338809406473528618e+01,-2.200472137829064589e+00
1.999999999999815614e+01,3.000000001237681957e+00,9.999999999972803977e+00,6.600000000000517675e-01,1.569999999999996509e+00,2.870000000000000909e+03,-2.174999999999870148e+00,-4.945000000000228546e+00,1.338665245792626912e+01,-2.165567436382588529e+00
2.000000000000044054e+01,3.000000001852235254e+00,9.999999999984343191e+00,6.600000000002690381e-01,1.569999999999552642e+00,2.869999999999995907e+03,-2.175000000000132605e+00,-4.945000000001284590e+00,1.340235294178179970e+01,-2.132492114983733700e+00
1.999999999999987566e+01,2.999999998962673331e+00,9.999999999973651299e+00,6.600000000001599032e-01,1.569999999999718510e+00,2.869999999999996362e+03,-2.175000000000053557e+00,-4.945000000000808527e+00,1.346164242819760837e+01,-2.172825005658677089e+00
1.999999999999955946e+01,3.000000002368503171e+00,9.999999999967648989e+00,6.600000000000511013e-01,1.569999999999918794e+00,2.870000000000000909e+03,-2.174999999999970512e+00,-4.945000000000267626e+00,1.351176773987350899e+01,-2.321102415545289066e+00
1.999999999999911182e+01,3.000000002631050489e+00,9.999999999965075048e+00,6.599999999997753219e-01,1.570000000000427942e+00,2.869999999999997726e+03,-2.174999999999845279e+00,-4.944999999998876739e+00,1.334676733282564776e+01,-2.108140036774189152e+00
1.999999999999963407e+01,3.000000001219799817e+00,9.999999999978433252e+00,6.599999999999464073e-01,1.570000000000085771e+00,2.870000000000001364e+03,-2.174999999999966516e+00,-4.944999999999818208e+00,1.342319990879249758e+01,-2.166434983400021164e+00
2.000000000000044054e+01,3.000000002640136998e+00,1.000000000002533262e+01,6.599999999998055200e-01,1.570000000000291607e+00,2.869999999999992724e+03,-2.174999999999954969e+00,-4.944999999999017071e+00,1.349576374357333641e+01,-2.290453325864299838e+00
1.999999999999947775e+01,3.000000001808168726e+00,1.000000000000731681e+01,6.599999999998305000e-01,1.570000000000264073e+00,2.869999999999999091e+03,-2.174999999999891021e+00,-4.944999999999203588e+00,1.343705616542084691e+01,-2.201639643460323814e+00
1.999999999999878497e+01,3.000000003749523803e+00,1.000000000003619682e+01,6.600000000000304512e-01,1.569999999999989848e+00,2.870000000000001819e+03,-2.174999999999929212e+00,-4.945000000000109530e+00,1.342260658062398093e+01,-2.202411806440483399e+00
1.999999999999890576e+01,3.000000000775057352e+00,1.000000000002463807e+01,6.599999999998320543e-01,1.570000000000339346e+00,2.870000000000002274e+03,-2.174999999999862599e+00,-4.944999999999089013e+00,1.337983980747414314e+01,-2.169308865962459087e+00
2.000000000000025224e+01,3.000000003795327164e+00,1.000000000001578293e+01,6.600000000001854383e-01,1.569999999999722506e+00,2.869999999999983174e+03,-2.175000000000089972e+00,-4.945000000000772111e+00,1.351014964242404126e+01,-2.262132610589276283e+00
1.999999999999996092e+01,3.000000000355189211e+00,9.999999999991764810e+00,6.600000000000303402e-01,1.570000000000030482e+00,2.870000000000000909e+03,-2.175000000000043343e+00,-4.944999999999987850e+00,1.341812295945057443e+01,-2.197469783309613067e+00
2.000000000000028066e+01,3.000000001130366911e+00,9.999999999982064125e+00,6.599999999998182876e-01,1.570000000000338236e+00,2.869999999999997726e+03,-2.174999999999966960e+00,-4.944999999999107665e+00,1.340421415282601458e+01,-2.200092154682173895e+00
1.999999999999999289e+01,3.000000002558777634e+00,1.000000000001010214e+01,6.599999999999009992e-01,1.570000000000219664e+00,2.869999999999989541e+03,-2.174999999999964295e+00,-4.944999999999359908e+00,1.340022265868309503e+01,-2.175640762921961180e+00
2.000000000000025224e+01,2.999999999636310477e+00,9.999999999985146104e+00,6.599999999998757971e-01,1.570000000000202789e+00,2.869999999999996817e+03,-2.174999999999983391e+00,-4.944999999999358131e+00,1.337821173603443903e+01,-2.184161721232253051e+00
2.000000000000005684e+01,2.999999999419650454e+00,1.000000000000782130e+01,6.600000000005142864e-01,1.569999999999191376e+00,2.869999999999989541e+03,-2.175000000000214762e+00,-4.945000000002412577e+00,1.338716994840637220e+01,-2.103861596067781559e+00
1.999999999999969091e+01,3.000000000028951064e+00,1.000000000000302158e+01,6.600000000001648992e-01,1.569999999999812434e+00,2.869999999999992269e+03,-2.175000000000061551e+00,-4.945000000000625562e+00,1.340165159028745734e+01,-2.167536514093548305e+00
2.000000000000007461e+01,3.000000001210955780e+00,9.999999999998387068e+00,6.600000000002713696e-01,1.569999999999616369e+00,2.869999999999991360e+03,-2.175000000000136158e+00,-4.945000000001147811e+00,1.340793125106957540e+01,-2.153211812765530642e+00
1.999999999999914735e+01,3.000000002429056956e+00,1.000000000002762768e+01,6.599999999997572253e-01,1.570000000000416840e+00,2.870000000000000000e+03,-2.174999999999836398e+00,-4.944999999998921147e+00,1.338360921350317412e+01,-2.198645672787226779e+00
1.999999999999820233e+01,3.000000000991323468e+00,1.000000000006063772e+01,6.599999999997219202e-01,1.570000000000544071e+00,2.870000000000004547e+03,-2.174999999999765787e+00,-4.944999999998677787e+00,1.339985050887996643e+01,-2.147196304135447154e+00
1.999999999999992895e+01,3.000000000039457770e+00,1.000000000002248335e+01,6.600000000000282308e-01,1.569999999999984519e+00,2.869999999999995453e+03,-2.175000000000008704e+00,-4.945000000000068674e+00,1.340392252826448960e+01,-2.140138849976959357e+00
1.999999999999971578e+01,3.000000001033746422e+00,1.000000000000458122e+01,6.600000000002277378e-01,1.569999999999694973e+00,2.870000000000000000e+03,-2.175000000000085976e+00,-4.945000000001010143e+00,1.338243171196978842e+01,-2.221613536983714887e+00
2.000000000000047962e+01,3.000000002692179368e+00,9.999999999990897948e+00,6.599999999998866773e-01,1.570000000000217444e+00,2.869999999999996362e+03,-2.175000000000019806e+00,-4.944999999999390106e+00,1.339846528987750673e+01,-2.158230954800206991e+00
1.999999999999937117e+01,2.999999998409821345e+00,1.000000000001462297e+01,6.600000000002377298e-01,1.569999999999661000e+00,2.869999999999999545e+03,-2.175000000000053113e+00,-4.945000000001083862e+00,1.338080701573328568e+01,-2.119209185690984043e+00
1.999999999999993605e+01,3.000000003929236492e+00,9.999999999999269917e+00,6.599999999998460432e-01,1.570000000000272511e+00,2.869999999999999545e+03,-2.174999999999942535e+00,-4.944999999999290630e+00,1.342544242219878647e+01,-2.211282935368579672e+00
1.999999999999907629e+01,2.999999997446813893e+00,1.000000000003909228e+01,6.599999999998693578e-01,1.570000000000263407e+00,2.870000000000000909e+03,-2.174999999999880362e+00,-4.944999999999319051e+00,1.362176741802962887e+01,-2.136031125764020544e+00
2.000000000000004619e+01,3.000000003161344519e+00,9.999999999962618347e+00,6.599999999998600320e-01,1.570000000000201457e+00,2.869999999999994543e+03,-2.174999999999930544e+00,-4.944999999999383888e+00,1.351354293421119479e+01,-2.283924749086797767e+00
1.999999999999990052e+01,3.000000002560218704e+00,9.999999999986746602e+00,6.599999999994168309e-01,1.570000000000973506e+00,2.869999999999998181e+03,-2.174999999999776890e+00,-4.944999999997238049e+00,1.347928168073763366e+01,-2.298570986161380780e+00
1.999999999999986855e+01,2.999999997305799582e+00,1.000000000003397638e+01,6.600000000000375566e-01,1.569999999999911244e+00,2.870000000000000455e+03,-2.174999999999973177e+00,-4.945000000000285389e+00,1.341562033895885797e+01,-2.114948842481635172e+00
2.000000000000037659e+01,2.999999997702861076e+00,1.000000000000408917e+01,6.600000000002125278e-01,1.569999999999635687e+00,2.869999999999997272e+03,-2.175000000000096634e+00,-4.945000000001000373e+00,1.341847893183207496e+01,-2.140174066935974118e+00
2.000000000000045830e+01,3.000000001094893065e+00,9.999999999971810993e+00,6.600000000000660894e-01,1.569999999999870166e+00,2.870000000000000000e+03,-2.175000000000024247e+00,-4.945000000000295159e+00,1.343781616667479462e+01,-2.189338755242973278e+00
2.000000000000073186e+01,3.000000000268095768e+00,9.999999999985655919e+00,6.600000000000172395e-01,1.569999999999907025e+00,2.869999999999993634e+03,-2.175000000000030020e+00,-4.945000000000129070e+00,1.344234373109948777e+01,-2.220346116293780980e+00
2.000000000000082068e+01,3.000000001585182208e+00,1.000000000000660449e+01,6.599999999996091216e-01,1.570000000000583595e+00,2.870000000000002274e+03,-2.174999999999911893e+00,-4.944999999998231921e+00,1.339283497324761996e+01,-2.183551949874688702e+00
1.999999999999929656e+01,3.000000000369517750e+00,1.000000000001539568e+01,6.599999999993754196e-01,1.570000000001017026e+00,2.870000000000000455e+03,-2.174999999999691624e+00,-4.944999999997130580e+00,1.337823920359233831e+01,-2.174578399371320359e+00
2.000000000000026645e+01,2.999999999804341400e+00,1.000000000001307043e+01,6.599999999997259170e-01,1.570000000000377538e+00,2.870000000000002728e+03,-2.174999999999905675e+00,-4.944999999998898055e+00,1.337914807013656926e+01,-2.151239123455362279e+00
1.999999999999963762e+01,2.999999998217989461e+00,1.000000000000746248e+01,6.599999999997514522e-01,1.570000000000409734e+00,2.869999999999997726e+03,-2.174999999999863487e+00,-4.944999999998899831e+00,1.338590021816885667e+01,-2.233441472611905176e+00
2.000000000000055422e+01,3.000000002030470903e+00,9.999999999994150457e+00,6.599999999997669953e-01,1.570000000000342233e+00,2.869999999999998636e+03,-2.174999999999946976e+00,-4.944999999998952234e+00,1.339089835064518574e+01,-2.161822648569492689e+00
1.999999999999969091e+01,3.000000000404207334e+00,9.999999999991672439e+00,6.600000000000055822e-01,1.569999999999982521e+00,2.870000000000001819e+03,-2.174999999999970957e+00,-4.945000000000066898e+00,1.341582722307538056e+01,-2.138253357164365376e+00
2.000000000000105871e+01,3.000000001740867006e+00,9.999999999992519761e+00,6.600000000002375078e-01,1.569999999999613927e+00,2.869999999999989541e+03,-2.175000000000171685e+00,-4.945000000001098961e+00,1.343623411004625190e+01,-2.153762357410886175e+00
2.000000000000035172e+01,2.999999998976501825e+00,1.000000000003292655e+01,6.600000000002330669e-01,1.569999999999632578e+00,2.869999999999994088e+03,-2.175000000000112177e+00,-4.945000000001093632e+00,1.336474760947770335e+01,-2.138965297262047205e+00
1.999999999999992895e+01,3.000000001509355751e+00,9.999999999986670218e+00,6.599999999998361622e-01,1.570000000000267848e+00,2.869999999999998636e+03,-2.174999999999946088e+00,-4.944999999999263096e+00,1.341610652231782908e+01,-2.216116251632356260e+00
1.999999999999950973e+01,3.000000000624033270e+00,1.000000000000139444e+01,6.600000000001141620e-01,1.569999999999849960e+00,2.870000000000001364e+03,-2.174999999999993605e+00,-4.945000000000552731e+00,1.344026827151930981e+01,-2.200111555764296067e+00
1.999999999999895905e+01,2.999999999719233035e+00,1.000000000000171774e+01,6.599999999996801758e-01,1.570000000000567608e+00,2.870000000000003638e+03,-2.174999999999787548e+00,-4.944999999998488605e+00,1.337441419048511193e+01,-2.219724780919271279e+00
1.999999999999861089e+01,3.000000002090696505e+00,1.000000000001050182e+01,6.600000000000291189e-01,1.570000000000006279e+00,2.870000000000003183e+03,-2.174999999999900790e+00,-4.945000000000186802e+00,1.337294635513503671e+01,-2.237529844655572919e+00
1.999999999999977973e+01,3.000000003965328954e+00,9.999999999973844922e+00,6.599999999995382893e-01,1.570000000000743912e+00,2.869999999999992269e+03,-2.174999999999795985e+00,-4.944999999997900630e+00,1.335585093997993056e+01,-2.120026374160435267e+00
2.000000000000012079e+01,3.000000002564141344e+00,9.999999999978832932e+00,6.600000000000200151e-01,1.569999999999961204e+00,2.869999999999997272e+03,-2.175000000000023803e+00,-4.945000000000109530e+00,1.342003657163754760e+01,-2.174043006375915521e+00
2.000000000000056488e+01,3.000000003247674574e+00,1.000000000000905409e+01,6.600000000000352252e-01,1.569999999999929452e+00,2.869999999999996817e+03,-2.175000000000045119e+00,-4.945000000000277396e+00,1.341451529900692563e+01,-2.154999033468897984e+00
2.000000000000023448e+01,3.000000000855934434e+00,1.000000000000606448e+01,6.600000000001911005e-01,1.569999999999682760e+00,2.869999999999997272e+03,-2.175000000000081979e+00,-4.945000000000920437e+00,1.345388413469510347e+01,-2.172912458769937327e+00
1.999999999999968026e+01,2.999999999059423050e+00,9.999999999975889509e+00,6.599999999998688027e-01,1.570000000000255636e+00,2.869999999999994543e+03,-2.174999999999930989e+00,-4.944999999999373230e+00,1.340429036572611388e+01,-2.183491131535198804e+00
2.000000000000066791e+01,3.000000001309653719e+00,9.999999999992787991e+00,6.599999999997979705e-01,1.570000000000338236e+00,2.869999999999983629e+03,-2.174999999999993161e+00,-4.944999999999105000e+00,1.332620206686790176e+01,-2.126394036008564470e+00
2.000000000000089528e+01,3.000000000697842228e+00,9.999999999990969002e+00,6.600000000003247713e-01,1.569999999999483142e+00,2.869999999999984993e+03,-2.175000000000213429e+00,-4.945000000001593676e+00,1.339998421288968977e+01,-2.193638885844932496e+00
2.000000000000015987e+01,3.000000000346649376e+00,9.999999999994786393e+00,6.600000000000073586e-01,1.570000000000003171e+00,2.869999999999994543e+03,-2.175000000000020695e+00,-4.945000000000113971e+00,1.335820174613588485e+01,-2.117520451651375701e+00
2.000000000000021672e+01,3.000000000231329622e+00,9.999999999986624033e+00,6.599999999999066613e-01,1.570000000000173257e+00,2.869999999999989996e+03,-2.174999999999982503e+00,-4.944999999999565077e+00,1.340059336403785828e+01,-2.143315736837511309e+00
2.000000000000018119e+01,2.999999998335964424e+00,9.999999999995745625e+00,6.600000000004132561e-01,1.569999999999338147e+00,2.869999999999994543e+03,-2.175000000000162359e+00,-4.945000000001923190e+00,1.363855305005639451e+01,-2.103627388591123193e+00
2.000000000000027001e+01,2.999999995708765521e+00,9.999999999961861619e+00,6.599999999992079980e-01,1.570000000001205986e+00,2.869999999999977717e+03,-2.174999999999727596e+00,-4.944999999996428919e+00,1.360245477505647393e+01,-2.068936620325658282e+00
2.000000000000061107e+01,2.999999999057826994e+00,1.000000000000721556e+01,6.600000000001813305e-01,1.569999999999714513e+00,2.869999999999981355e+03,-2.175000000000114397e+00,-4.945000000000819185e+00,1.343877964105839773e+01,-2.139311006643051183e+00
2.000000000000008882e+01,3.000000002528399712e+00,9.999999999973905318e+00,6.599999999996913891e-01,1.570000000000500329e+00,2.869999999999990450e+03,-2.174999999999887024e+00,-4.944999999998493045e+00,1.342611138873808763e+01,-2.166239346949908384e+00
1.999999999999979394e+01,3.000000001627364465e+00,9.999999999980646592e+00,6.600000000000424416e-01,1.569999999999954099e+00,2.869999999999992724e+03,-2.174999999999995381e+00,-4.945000000000185025e+00,1.342609778981677593e+01,-2.214577271056827890e+00
2.000000000000001776e+01,2.999999999498925707e+00,9.999999999991162625e+00,6.600000000003546363e-01,1.569999999999467599e+00,2.870000000000002274e+03,-2.175000000000153033e+00,-4.945000000001597229e+00,1.340181416093420452e+01,-2.150344536989256650e+00
2.000000000000023448e+01,3.000000000634804209e+00,9.999999999978351539e+00,6.600000000002396172e-01,1.569999999999645901e+00,2.869999999999996362e+03,-2.175000000000110845e+00,-4.945000000001047447e+00,1.334951652486876839e+01,-2.109227238632289669e+00
2.000000000000022737e+01,3.000000002572888125e+00,9.999999999950187402e+00,6.600000000000182387e-01,1.569999999999989182e+00,2.869999999999996362e+03,-2.175000000000028244e+00,-4.945000000000053575e+00,1.341579942106315215e+01,-2.175555019056273576e+00
1.999999999999974065e+01,3.000000002140646771e+00,9.999999999972756015e+00,6.599999999998125144e-01,1.570000000000332907e+00,2.869999999999998181e+03,-2.174999999999904343e+00,-4.944999999999064144e+00,1.336807934099629414e+01,-2.171059561323636533e+00
1.999999999999940314e+01,3.000000001705906083e+00,9.999999999943479878e+00,6.600000000000461053e-01,1.569999999999958096e+00,2.870000000000000000e+03,-2.174999999999961187e+00,-4.945000000000125517e+00,1.343171552780069078e+01,-2.157680702529760186e+00
2.000000000000001066e+01,3.000000000806680056e+00,9.999999999978060217e+00,6.599999999996802869e-01,1.570000000000530749e+00,2.870000000000000000e+03,-2.174999999999868372e+00,-4.944999999998528573e+00,1.339950776976301938e+01,-2.125418458549807266e+00
1.999999999999954170e+01,3.000000001665168448e+00,9.999999999978001597e+00,6.599999999998210631e-01,1.570000000000310925e+00,2.869999999999997272e+03,-2.174999999999889244e+00,-4.944999999999233786e+00,1.338211802600314471e+01,-2.154725230191270935e+00
1.999999999999891998e+01,3.000000001347946199e+00,1.000000000000015810e+01,6.600000000001554623e-01,1.569999999999831974e+00,2.869999999999999545e+03,-2.174999999999982059e+00,-4.945000000000712603e+00,1.337173562876328781e+01,-2.155895465786507703e+00
1.999999999999971934e+01,2.999999998359686337e+00,1.000000000003270273e+01,6.600000000004920819e-01,1.569999999999253104e+00,2.869999999999995453e+03,-2.175000000000187672e+00,-4.945000000002354845e+00,1.333888074559943071e+01,-2.115868699538372866e+00
1.999999999999907274e+01,2.999999998347024910e+00,1.000000000005816148e+01,6.600000000000514344e-01,1.569999999999993401e+00,2.870000000000001364e+03,-2.174999999999971401e+00,-4.945000000000191243e+00,1.336620952238748217e+01,-2.149001877841260733e+00
2.000000000000010303e+01,2.999999999703674369e+00,1.000000000000194511e+01,6.600000000000498801e-01,1.569999999999949214e+00,2.870000000000000455e+03,-2.175000000000034905e+00,-4.945000000000279172e+00,1.341463501483293896e+01,-2.201877732389994513e+00
1.999999999999900169e+01,2.999999998426788661e+00,1.000000000002521716e+01,6.599999999998048539e-01,1.570000000000393081e+00,2.870000000000002728e+03,-2.174999999999870592e+00,-4.944999999999085460e+00,1.338231095323576803e+01,-2.158605658384744164e+00
1.999999999999871392e+01,2.999999996816394177e+00,1.000000000005039880e+01,6.600000000001129408e-01,1.569999999999911688e+00,2.870000000000002274e+03,-2.174999999999950528e+00,-4.945000000000525198e+00,1.338602411918631319e+01,-2.196628927288217792e+00
1.999999999999912959e+01,2.999999995811418074e+00,1.000000000001339728e+01,6.599999999998620304e-01,1.570000000000268736e+00,2.869999999999994998e+03,-2.174999999999864375e+00,-4.944999999999312834e+00,1.335236106931741062e+01,-2.171734014522032297e+00
1.999999999999864642e+01,3.000000000786884780e+00,1.000000000003666756e+01,6.599999999996295497e-01,1.570000000000671525e+00,2.870000000000001819e+03,-2.174999999999756906e+00,-4.944999999998190177e+00,1.340117505597908298e+01,-2.189253045878712722e+00
1.999999999999947420e+01,2.999999998317758099e+00,1.000000000000818012e+01,6.600000000001293721e-01,1.569999999999859064e+00,2.869999999999992724e+03,-2.175000000000023359e+00,-4.945000000000510099e+00,1.341713172021037970e+01,-2.190041802229279355e+00
1.999999999999870681e+01,2.999999997372485794e+00,1.000000000003541345e+01,6.599999999998623634e-01,1.570000000000296714e+00,2.870000000000002728e+03,-2.174999999999843059e+00,-4.944999999999328821e+00,1.339454108478720684e+01,-2.186397270100469026e+00
2.000000000000032685e+01,2.999999999890893942e+00,1.000000000002583356e+01,6.600000000003243272e-01,1.569999999999482698e+00,2.869999999999987267e+03,-2.175000000000160139e+00,-4.945000000001487095e+00,1.342680849729070935e+01,-2.190196497320099578e+00
1.999999999999992539e+01,2.999999999303321285e+00,1.000000000002114398e+01,6.600000000001413625e-01,1.569999999999788898e+00,2.869999999999993634e+03,-2.175000000000047340e+00,-4.945000000000587370e+00,1.342040607374449657e+01,-2.165837266547387507e+00
1.999999999999924682e+01,2.999999997969021948e+00,1.000000000003552003e+01,6.600000000004137002e-01,1.569999999999367679e+00,2.869999999999998636e+03,-2.175000000000116618e+00,-4.945000000001841478e+00,1.338237428491297720e+01,-2.125413525259249869e+00
1.999999999999901590e+01,3.000000000685693724e+00,1.000000000006020251e+01,6.600000000002831380e-01,1.569999999999584617e+00,2.869999999999998636e+03,-2.175000000000055334e+00,-4.945000000001213536e+00,1.339410624939461059e+01,-2.137372311733854779e+00
2.000000000000106581e+01,2.999999998986183858e+00,9.999999999974246379e+00,6.599999999998623634e-01,1.570000000000150608e+00,2.869999999999989541e+03,-2.175000000000005151e+00,-4.944999999999454054e+00,1.352571152617644934e+01,-2.307678013040464382e+00
1.999999999999944578e+01,2.999999997820340436e+00,9.999999999983959498e+00,6.600000000002459455e-01,1.569999999999654117e+00,2.869999999999993634e+03,-2.175000000000066436e+00,-4.945000000001103402e+00,1.337863560765960713e+01,-2.186055465865958336e+00
2.000000000000027711e+01,2.999999997648026717e+00,9.999999999975232257e+00,6.600000000000750822e-01,1.569999999999884821e+00,2.869999999999991360e+03,-2.175000000000062883e+00,-4.945000000000380425e+00,1.343271513995003197e+01,-2.160229745145114233e+00
1.999999999999973355e+01,2.999999998723358097e+00,9.999999999977733367e+00,6.600000000001778888e-01,1.569999999999744711e+00,2.870000000000000000e+03,-2.175000000000071765e+00,-4.945000000000996820e+00,1.343936946742054239e+01,-2.181578789402345286e+00
1.999999999999894840e+01,2.999999997678847397e+00,1.000000000000058797e+01,6.600000000001180478e-01,1.569999999999850182e+00,2.869999999999999091e+03,-2.174999999999986944e+00,-4.945000000000528750e+00,1.340763454902640817e+01,-2.145459212490231860e+00
1.999999999999949196e+01,2.999999998665759726e+00,9.999999999994429345e+00,6.600000000001244871e-01,1.569999999999805773e+00,2.870000000000000455e+03,-2.175000000000021139e+00,-4.945000000000623785e+00,1.343169629620639149e+01,-2.209621144501047851e+00
1.999999999999963407e+01,2.999999996611574460e+00,9.999999999987396748e+00,6.600000000000655342e-01,1.569999999999930784e+00,2.869999999999998636e+03,-2.175000000000009592e+00,-4.945000000000337792e+00,1.336204298678353553e+01,-2.132675955333794171e+00
2.000000000000015632e+01,2.999999998711604832e+00,9.999999999974674481e+00,6.600000000001257083e-01,1.569999999999823981e+00,2.869999999999990905e+03,-2.175000000000075318e+00,-4.945000000000557172e+00,1.333492110176563550e+01,-2.121352602138047327e+00
1.999999999999937828e+01,2.999999997551152653e+00,1.000000000000742872e+01,6.599999999998702460e-01,1.570000000000257412e+00,2.870000000000000455e+03,-2.174999999999901679e+00,-4.944999999999382112e+00,1.343279883985970535e+01,-2.159621917261768331e+00
1.999999999999964118e+01,2.999999996755391862e+00,1.000000000001803002e+01,6.599999999999969225e-01,1.570000000000043139e+00,2.869999999999990450e+03,-2.174999999999976730e+00,-4.944999999999954987e+00,1.338359945471042600e+01,-2.165084745814957135e+00
2.000000000000055778e+01,3.000000001856054865e+00,9.999999999956610708e+00,6.600000000004740963e-01,1.569999999999262874e+00,2.869999999999988631e+03,-2.175000000000228972e+00,-4.945000000002162999e+00,1.346555318142661228e+01,-2.117918164594563724e+00
2.000000000000002842e+01,3.000000000737828909e+00,9.999999999982241761e+00,6.600000000001464695e-01,1.569999999999805107e+00,2.869999999999986358e+03,-2.175000000000075762e+00,-4.945000000000517204e+00,1.342077609990867160e+01,-2.082755317495148972e+00
2.000000000000080291e+01,3.000000000013215651e+00,9.999999999971677767e+00,6.600000000003006795e-01,1.569999999999504903e+00,2.869999999999981810e+03,-2.175000000000172573e+00,-4.945000000001340545e+00,1.344948901345479264e+01,-2.078083803110825745e+00
1.999999999999970157e+01,2.999999999118107663e+00,9.999999999996040501e+00,6.599999999997114841e-01,1.570000000000474571e+00,2.869999999999979082e+03,-2.174999999999839506e+00,-4.944999999998634266e+00,1.340676408921788365e+01,-2.137695173042379881e+00
2.000000000000076028e+01,3.000000000659382327e+00,1.000000000002602007e+01,6.599999999999923705e-01,1.570000000000051577e+00,2.869999999999974079e+03,-2.175000000000077982e+00,-4.944999999999876827e+00,1.340035038318242400e+01,-2.214021298223327605e+00
2.000000000000147438e+01,3.000000000783985765e+00,1.000000000000617284e+01,6.600000000006467360e-01,1.569999999998928919e+00,2.869999999999991815e+03,-2.175000000000375522e+00,-4.945000000002966800e+00,1.339984323620961604e+01,-2.110247113967923305e+00
1.999999999999981171e+01,2.999999997289186204e+00,9.999999999972700948e+00,6.600000000001525757e-01,1.569999999999820650e+00,2.870000000000000000e+03,-2.175000000000061107e+00,-4.945000000000599805e+00,1.336486401393901602e+01,-2.194728760868210227e+00
2.000000000000006040e+01,2.999999998257939282e+00,9.999999999981836751e+00,6.600000000007004708e-01,1.569999999998891171e+00,2.869999999999994998e+03,-2.175000000000276046e+00,-4.945000000003191509e+00,1.340753335845606387e+01,-2.087833328247808762e+00
1.999999999999937828e+01,2.999999997850389288e+00,9.999999999992802202e+00,6.600000000003338751e-01,1.569999999999532880e+00,2.870000000000000909e+03,-2.175000000000077538e+00,-4.945000000001484430e+00,1.336537555099174668e+01,-2.165220400804271694e+00
2.000000000000099831e+01,2.999999996758577758e+00,9.999999999984725108e+00,6.600000000000604272e-01,1.569999999999899920e+00,2.869999999999993179e+03,-2.175000000000127720e+00,-4.945000000000229434e+00,1.344214939078599613e+01,-2.112281066997894197e+00
2.000000000000025580e+01,2.999999997650219186e+00,1.000000000000982858e+01,6.600000000000639799e-01,1.569999999999909690e+00,2.870000000000001819e+03,-2.175000000000064215e+00,-4.945000000000324469e+00,1.341026712070445726e+01,-2.167452035330127202e+00
2.000000000000085976e+01,2.999999997301349364e+00,1.000000000000902212e+01,6.600000000001928768e-01,1.569999999999705853e+00,2.869999999999990905e+03,-2.175000000000167244e+00,-4.945000000000926654e+00,1.342035916893399694e+01,-2.213755510270318361e+00
2.000000000000077449e+01,2.999999996730017049e+00,9.999999999995434763e+00,6.600000000001642331e-01,1.569999999999782458e+00,2.869999999999992269e+03,-2.175000000000157474e+00,-4.945000000000638885e+00,1.336903549818249459e+01,-2.181854068712989925e+00
1.999999999999971223e+01,2.999999999693451880e+00,9.999999999995718980e+00,6.599999999998679145e-01,1.570000000000275842e+00,2.869999999999998636e+03,-2.174999999999937650e+00,-4.944999999999369678e+00,1.338658443734688142e+01,-2.152996035755060600e+00
1.999999999999936051e+01,2.999999998836510695e+00,1.000000000000961897e+01,6.600000000002164136e-01,1.569999999999654339e+00,2.869999999999998181e+03,-2.175000000000012257e+00,-4.945000000001042118e+00,1.350772569942973433e+01,-2.297522636253585215e+00
1.999999999999982236e+01,2.999999997443794086e+00,9.999999999969052311e+00,6.600000000004206946e-01,1.569999999999353690e+00,2.869999999999995907e+03,-2.175000000000166800e+00,-4.945000000001930296e+00,1.350936347934525728e+01,-2.292972419300348896e+00
2.000000000000038725e+01,2.999999998650892064e+00,9.999999999997440270e+00,6.600000000001617906e-01,1.569999999999752927e+00,2.869999999999997726e+03,-2.175000000000117506e+00,-4.945000000000746354e+00,1.345639173942057276e+01,-2.169990799474925680e+00
2.000000000000025580e+01,2.999999997740343982e+00,9.999999999946890483e+00,6.600000000000113554e-01,1.569999999999955209e+00,2.870000000000002274e+03,-2.175000000000037570e+00,-4.945000000000038476e+00,1.339697715025415370e+01,-2.165961120391957540e+00
1.999999999999972999e+01,2.999999998950411584e+00,1.000000000000468248e+01,6.600000000000276756e-01,1.569999999999980522e+00,2.870000000000004547e+03,-2.174999999999990941e+00,-4.945000000000123741e+00,1.340154133291440886e+01,-2.213106240262102897e+00
1.999999999999948130e+01,3.000000001950170692e+00,1.000000000000695266e+01,6.600000000001906564e-01,1.569999999999740048e+00,2.870000000000000000e+03,-2.175000000000032241e+00,-4.945000000000830731e+00,1.336912352235741075e+01,-2.146761233800287716e+00
2.000000000000051870e+01,2.999999998200702844e+00,1.000000000001544187e+01,6.600000000000053602e-01,1.569999999999994733e+00,2.869999999999984084e+03,-2.175000000000052669e+00,-4.945000000000048246e+00,1.343229244869048600e+01,-2.165030731575551926e+00
1.999999999999876721e+01,3.000000001857298759e+00,1.000000000004298428e+01,6.600000000002037570e-01,1.569999999999702744e+00,2.870000000000000000e+03,-2.174999999999991385e+00,-4.945000000000961293e+00,1.340769000483142115e+01,-2.153993862848355700e+00
1.999999999999963407e+01,2.999999997555939046e+00,1.000000000003665157e+01,6.600000000004381251e-01,1.569999999999285745e+00,2.869999999999994998e+03,-2.175000000000142375e+00,-4.945000000002131912e+00,1.339193955402510738e+01,-2.095080976981747778e+00
2.000000000000045119e+01,2.999999996557308091e+00,1.000000000000559375e+01,6.600000000000197931e-01,1.569999999999937446e+00,2.869999999999986358e+03,-2.175000000000037126e+00,-4.945000000000048246e+00,1.341818521546785092e+01,-2.219256322791381297e+00
2.000000000000068212e+01,2.999999999614614055e+00,9.999999999992112976e+00,6.600000000004645484e-01,1.569999999999235785e+00,2.869999999999983174e+03,-2.175000000000230749e+00,-4.945000000002165663e+00,1.342572260440094389e+01,-2.230421740958954846e+00
1.999999999999970868e+01,2.999999999759050073e+00,9.999999999978436804e+00,6.600000000000858513e-01,1.569999999999879492e+00,2.869999999999984539e+03,-2.174999999999986500e+00,-4.945000000000320028e+00,1.337753239439172503e+01,-2.152894520993322569e+00
2.000000000000012434e+01,2.999999998035143722e+00,1.000000000000107825e+01,6.599999999998772404e-01,1.570000000000197904e+00,2.869999999999994543e+03,-2.174999999999949640e+00,-4.944999999999428297e+00,1.336201374877643744e+01,-2.150063135580684293e+00
2.000000000000118305e+01,2.999999998833973613e+00,9.999999999995566213e+00,6.600000000000129097e-01,1.569999999999951212e+00,2.869999999999989996e+03,-2.175000000000096190e+00,-4.944999999999980744e+00,1.337946654836641969e+01,-2.128373324268886702e+00
1.999999999999915801e+01,2.999999999563359498e+00,1.000000000000587796e+01,6.600000000000120215e-01,1.570000000000033147e+00,2.869999999999999091e+03,-2.174999999999926548e+00,-4.945000000000007390e+00,1.334723735236670628e+01,-2.106728659005571824e+00
2.000000000000031619e+01,3.000000000501412689e+00,1.000000000004052758e+01,6.599999999999758282e-01,1.570000000000012497e+00,2.869999999999984993e+03,-2.175000000000002043e+00,-4.944999999999962093e+00,1.339171818990139506e+01,-2.147328121898029352e+00
2.000000000000103739e+01,2.999999997805260943e+00,9.999999999977273291e+00,6.600000000002090861e-01,1.569999999999609264e+00,2.869999999999979536e+03,-2.175000000000134825e+00,-4.945000000001048335e+00,1.340824383182690482e+01,-2.154914800766305483e+00
2.000000000000027001e+01,3.000000000943021217e+00,1.000000000001520029e+01,6.600000000003812817e-01,1.569999999999432516e+00,2.869999999999980901e+03,-2.175000000000169464e+00,-4.945000000001684271e+00,1.336880391124087275e+01,-2.196475678584956182e+00
1.999999999999998934e+01,2.999999999507643622e+00,9.999999999982323473e+00,6.599999999996312150e-01,1.570000000000600693e+00,2.870000000000000455e+03,-2.174999999999854161e+00,-4.944999999998246132e+00,1.341911512810363227e+01,-2.139987338298005692e+00
2.000000000000054357e+01,3.000000000869167849e+00,9.999999999975910825e+00,6.599999999998883426e-01,1.570000000000150164e+00,2.869999999999988177e+03,-2.174999999999990941e+00,-4.944999999999454943e+00,1.343528900282681349e+01,-2.135931213592408007e+00
2.000000000000028777e+01,3.000000000149127821e+00,9.999999999995504041e+00,6.599999999994424771e-01,1.570000000000876916e+00,2.870000000000002728e+03,-2.174999999999798206e+00,-4.944999999997470752e+00,1.339089052541543090e+01,-2.164486841312847520e+00
2.000000000000064659e+01,2.999999998995179773e+00,9.999999999992535749e+00,6.599999999999204281e-01,1.570000000000129514e+00,2.869999999999994998e+03,-2.175000000000026912e+00,-4.944999999999613927e+00,1.340259983511091058e+01,-2.123273591735800103e+00
2.000000000000026645e+01,2.999999998134579737e+00,9.999999999987934984e+00,6.599999999999466294e-01,1.570000000000090212e+00,2.869999999999989996e+03,-2.174999999999990941e+00,-4.944999999999637907e+00,1.342278166087028168e+01,-2.186818791874482137e+00
2.000000000000085620e+01,2.999999998665570988e+00,9.999999999985641708e+00,6.600000000002872458e-01,1.569999999999544649e+00,2.869999999999982265e+03,-2.175000000000187672e+00,-4.945000000001253504e+00,1.339725911545694714e+01,-2.145935772976971467e+00
2.000000000000040146e+01,3.000000001636736524e+00,9.999999999967542408e+00,6.599999999998997779e-01,1.570000000000174145e+00,2.870000000000000455e+03,-2.174999999999991829e+00,-4.944999999999573959e+00,1.342631069915377751e+01,-2.173172921566355331e+00
2.000000000000014921e+01,3.000000000840528092e+00,9.999999999988176569e+00,6.600000000001273737e-01,1.569999999999841522e+00,2.869999999999991815e+03,-2.175000000000077982e+00,-4.945000000000446150e+00,1.336305791177552216e+01,-2.200539525408026886e+00
1.999999999999966960e+01,2.999999998533993573e+00,9.999999999970624387e+00,6.600000000000333378e-01,1.569999999999989404e+00,2.870000000000001819e+03,-2.174999999999972289e+00,-4.945000000000085549e+00,1.334942809356223492e+01,-2.151088892988954004e+00
1.999999999999972644e+01,2.999999999598983447e+00,9.999999999961806552e+00,6.600000000001753353e-01,1.569999999999772244e+00,2.869999999999990450e+03,-2.175000000000045119e+00,-4.945000000000835172e+00,1.338196063160683558e+01,-2.148860245175824524e+00
1.999999999999927169e+01,2.999999999332613854e+00,9.999999999974518161e+00,6.599999999998205080e-01,1.570000000000331353e+00,2.869999999999998181e+03,-2.174999999999864819e+00,-4.944999999999127205e+00,1.335998857176599941e+01,-2.132411899080769668e+00
1.999999999999963762e+01,2.999999998811833990e+00,9.999999999992281730e+00,6.599999999998469313e-01,1.570000000000276508e+00,2.870000000000000000e+03,-2.174999999999910116e+00,-4.944999999999238227e+00,1.336831854742213643e+01,-2.127751438395842687e+00
1.999999999999936762e+01,2.999999998258992218e+00,1.000000000001579359e+01,6.600000000004078160e-01,1.569999999999434737e+00,2.869999999999995907e+03,-2.175000000000130829e+00,-4.945000000001791740e+00,1.338619225652291256e+01,-2.148763742323407833e+00
1.999999999999968736e+01,3.000000000425246061e+00,9.999999999983362642e+00,6.600000000001204903e-01,1.569999999999835527e+00,2.869999999999999545e+03,-2.175000000000013145e+00,-4.945000000000510099e+00,1.340348130741031163e+01,-2.163132882764744025e+00
1.999999999999910116e+01,2.999999998540450186e+00,9.999999999975134557e+00,6.599999999998769074e-01,1.570000000000241647e+00,2.869999999999995907e+03,-2.174999999999885247e+00,-4.944999999999339479e+00,1.345418522336403733e+01,-2.209684666992917990e+00
1.999999999999937472e+01,3.000000003683015226e+00,9.999999999977777776e+00,6.600000000000495470e-01,1.569999999999961648e+00,2.870000000000001364e+03,-2.174999999999958966e+00,-4.945000000000143281e+00,1.338574210282897248e+01,-2.163157857931207850e+00
2.000000000000012790e+01,3.000000004039713897e+00,9.999999999958543384e+00,6.599999999996510880e-01,1.570000000000524754e+00,2.869999999999987722e+03,-2.174999999999863931e+00,-4.944999999998473506e+00,1.341718898782877822e+01,-2.221418447495852266e+00
2.000000000000062883e+01,3.000000001291238227e+00,9.999999999981982413e+00,6.600000000000237899e-01,1.569999999999937224e+00,2.869999999999986812e+03,-2.175000000000050893e+00,-4.945000000000119300e+00,1.340821829470483095e+01,-2.182388537360465008e+00
2.000000000000002487e+01,3.000000002498621754e+00,9.999999999992047250e+00,6.599999999996274402e-01,1.570000000000564055e+00,2.869999999999983174e+03,-2.174999999999848388e+00,-4.944999999998274554e+00,1.343220651552638678e+01,-2.168823716145196645e+00
1.999999999999950617e+01,2.999999999951139085e+00,1.000000000000801492e+01,6.600000000003637401e-01,1.569999999999413642e+00,2.869999999999990905e+03,-2.175000000000089528e+00,-4.945000000001791740e+00,1.338520094085134815e+01,-2.159890008208106948e+00
1.999999999999867839e+01,3.000000003899819134e+00,9.999999999982032151e+00,6.599999999999945910e-01,1.570000000000072671e+00,2.869999999999999091e+03,-2.174999999999911005e+00,-4.944999999999904361e+00,1.343112444688894591e+01,-2.177604280122306335e+00
1.999999999999863576e+01,3.000000002172982239e+00,9.999999999985325516e+00,6.600000000001077227e-01,1.569999999999878382e+00,2.869999999999999545e+03,-2.174999999999915445e+00,-4.945000000000453255e+00,1.339949932154210543e+01,-2.155853599301590595e+00
1.999999999999881695e+01,3.000000003170459006e+00,1.000000000002055245e+01,6.600000000003566347e-01,1.569999999999476703e+00,2.870000000000000909e+03,-2.175000000000050004e+00,-4.945000000001521734e+00,1.341877637110284560e+01,-2.177693301154552508e+00
1.999999999999881339e+01,3.000000003180686825e+00,9.999999999983073096e+00,6.600000000001314815e-01,1.569999999999857510e+00,2.870000000000002728e+03,-2.174999999999944755e+00,-4.945000000000501217e+00,1.338000187539675245e+01,-2.146892014245522784e+00
1.999999999999952749e+01,3.000000000442076153e+00,9.999999999977053022e+00,6.600000000001149392e-01,1.569999999999822204e+00,2.870000000000000455e+03,-2.174999999999995826e+00,-4.945000000000500329e+00,1.340839531440137478e+01,-2.141931231436933647e+00
2.000000000000022027e+01,3.000000001935774208e+00,9.999999999954114926e+00,6.599999999998733546e-01,1.570000000000136842e+00,2.869999999999989996e+03,-2.174999999999942535e+00,-4.944999999999420304e+00,1.340560301423964873e+01,-2.128741693584306205e+00
1.999999999999965539e+01,3.000000003372874424e+00,9.999999999964366282e+00,6.599999999998713562e-01,1.570000000000205675e+00,2.870000000000001819e+03,-2.174999999999911449e+00,-4.944999999999312834e+00,1.343489311796358976e+01,-2.170799950946064261e+00
1.999999999999900524e+01,3.000000002673462340e+00,1.000000000000179767e+01,6.599999999999891509e-01,1.570000000000091767e+00,2.870000000000000000e+03,-2.174999999999916334e+00,-4.944999999999912355e+00,1.340519800559029662e+01,-2.149204512544342194e+00
1.999999999999971934e+01,3.000000000213199236e+00,1.000000000002855494e+01,6.599999999998987787e-01,1.570000000000191021e+00,2.870000000000003638e+03,-2.174999999999962519e+00,-4.944999999999320828e+00,1.340620107339293909e+01,-2.170651675038424155e+00
1.999999999999904077e+01,3.000000001006477568e+00,1.000000000001934986e+01,6.600000000000734168e-01,1.569999999999922125e+00,2.870000000000002728e+03,-2.174999999999948308e+00,-4.945000000000280949e+00,1.344396388423277244e+01,-2.161584063926646593e+00
1.999999999999946354e+01,2.999999998963712056e+00,1.000000000000857447e+01,6.600000000001596812e-01,1.569999999999792006e+00,2.870000000000000000e+03,-2.175000000000016698e+00,-4.945000000000612239e+00,1.341763698345907763e+01,-2.146382902317264030e+00
1.999999999999904077e+01,3.000000000055951688e+00,1.000000000001048228e+01,6.600000000001748912e-01,1.569999999999734275e+00,2.870000000000000455e+03,-2.174999999999979394e+00,-4.945000000000844942e+00,1.338581657764778932e+01,-2.183050097920226751e+00
1.999999999999992539e+01,2.999999998318474415e+00,1.000000000002616218e+01,6.600000000003634071e-01,1.569999999999400986e+00,2.869999999999992724e+03,-2.175000000000145928e+00,-4.945000000001751772e+00,1.339675809032673826e+01,-2.163869526630276319e+00
1.999999999999868550e+01,3.000000002562450252e+00,1.000000000004057910e+01,6.600000000001555733e-01,1.569999999999801998e+00,2.870000000000003183e+03,-2.174999999999960743e+00,-4.945000000000676188e+00,1.345443159752684537e+01,-2.198761722204366720e+00
1.999999999999944578e+01,2.999999999569075371e+00,1.000000000001127809e+01,6.599999999996204458e-01,1.570000000000562057e+00,2.869999999999996817e+03,-2.174999999999796874e+00,-4.944999999998324292e+00,1.338317804488544915e+01,-2.199485097254235022e+00
1.999999999999912248e+01,2.999999999522395822e+00,1.000000000001316813e+01,6.599999999999128786e-01,1.570000000000128626e+00,2.869999999999995453e+03,-2.174999999999876810e+00,-4.944999999999664553e+00,1.335637198263949266e+01,-2.156465873431605562e+00
1.999999999999935696e+01,2.999999997580037991e+00,1.000000000002340350e+01,6.600000000003525269e-01,1.569999999999477813e+00,2.870000000000000455e+03,-2.175000000000093969e+00,-4.945000000001645191e+00,1.338179869967901681e+01,-2.166841570964856523e+00
1.999999999999870681e+01,3.000000000922470100e+00,1.000000000003034550e+01,6.599999999998262812e-01,1.570000000000286944e+00,2.870000000000000455e+03,-2.174999999999816858e+00,-4.944999999999287077e+00,1.337187005100692794e+01,-2.134930747115375560e+00
1.999999999999952394e+01,3.000000000004066081e+00,1.000000000000200373e+01,6.600000000000758593e-01,1.569999999999866169e+00,2.870000000000000909e+03,-2.174999999999980727e+00,-4.945000000000356444e+00,1.338160810902488684e+01,-2.155567706678889639e+00
1.999999999999943867e+01,3.000000000176122672e+00,1.000000000000980371e+01,6.599999999994102806e-01,1.570000000000962848e+00,2.869999999999995907e+03,-2.174999999999737366e+00,-4.944999999997164331e+00,1.337489362000180471e+01,-2.148614671593781278e+00
2.000000000000012434e+01,3.000000001001632555e+00,1.000000000001129585e+01,6.600000000002168576e-01,1.569999999999641904e+00,2.869999999999998636e+03,-2.175000000000075762e+00,-4.945000000001080309e+00,1.340528183377994509e+01,-2.151440773456852362e+00
1.999999999999975842e+01,3.000000002101131269e+00,9.999999999996195044e+00,6.600000000000494360e-01,1.569999999999970086e+00,2.870000000000001364e+03,-2.174999999999998046e+00,-4.945000000000267626e+00,1.340504555225092176e+01,-2.110198744064300858e+00
1.999999999999945288e+01,3.000000000635139497e+00,1.000000000000562217e+01,6.600000000003014566e-01,1.569999999999541762e+00,2.870000000000004093e+03,-2.175000000000055334e+00,-4.945000000001432916e+00,1.340859705237572541e+01,-2.181133966648347133e+00
1.999999999999908340e+01,2.999999998354224484e+00,9.999999999985089261e+00,6.600000000001253753e-01,1.569999999999829088e+00,2.870000000000000909e+03,-2.174999999999973177e+00,-4.945000000000587370e+00,1.337555788154148395e+01,-2.135889724804836298e+00
2.000000000000094147e+01,2.999999998991234484e+00,9.999999999998038902e+00,6.600000000001126077e-01,1.569999999999799778e+00,2.869999999999985448e+03,-2.175000000000106404e+00,-4.945000000000517204e+00,1.337218989236934696e+01,-2.138556747407620584e+00
1.999999999999980105e+01,2.999999999332620959e+00,9.999999999980655474e+00,6.600000000002268497e-01,1.569999999999677431e+00,2.869999999999993179e+03,-2.175000000000077982e+00,-4.945000000001074980e+00,1.338121557211613677e+01,-2.177829574665250512e+00
2.000000000000163780e+01,2.999999995568346289e+00,9.999999999974352960e+00,6.600000000007330003e-01,1.569999999998800799e+00,2.869999999999986812e+03,-2.175000000000409273e+00,-4.945000000003385132e+00,1.340353003005865595e+01,-2.124911407416536058e+00
2.000000000000009592e+01,2.999999999145199769e+00,1.000000000000600231e+01,6.600000000002905765e-01,1.569999999999539764e+00,2.869999999999997726e+03,-2.175000000000119726e+00,-4.945000000001332552e+00,1.340046657901639549e+01,-2.169018283165912830e+00
1.999999999999920419e+01,2.999999998712440163e+00,1.000000000000340528e+01,6.599999999998460432e-01,1.570000000000306484e+00,2.869999999999999091e+03,-2.174999999999871925e+00,-4.944999999999258655e+00,1.338218289942193095e+01,-2.166092573812874900e+00
2.000000000000000000e+01,2.999999997013318431e+00,9.999999999992093436e+00,6.600000000002325118e-01,1.569999999999672324e+00,2.869999999999989541e+03,-2.175000000000085532e+00,-4.945000000001004814e+00,1.343055336720319914e+01,-2.161892470396361343e+00
1.999999999999996447e+01,2.999999995656771112e+00,9.999999999980865084e+00,6.600000000000835199e-01,1.569999999999870388e+00,2.869999999999992724e+03,-2.175000000000016254e+00,-4.945000000000285389e+00,1.341645213033075201e+01,-2.128630803290507689e+00
2.000000000000015632e+01,3.000000000100094155e+00,9.999999999971365128e+00,6.600000000002577139e-01,1.569999999999547313e+00,2.869999999999978172e+03,-2.175000000000083311e+00,-4.945000000001176232e+00,1.352292011477040390e+01,-2.243121827778413291e+00
2.000000000000033040e+01,2.999999999369010961e+00,9.999999999943167239e+00,6.599999999996268851e-01,1.570000000000554730e+00,2.869999999999988177e+03,-2.174999999999856826e+00,-4.944999999998385576e+00,1.342642178524649132e+01,-2.145425565520735489e+00
2.000000000000048317e+01,2.999999999571564047e+00,9.999999999941914908e+00,6.599999999998812372e-01,1.570000000000153051e+00,2.869999999999992269e+03,-2.174999999999984279e+00,-4.944999999999515339e+00,1.337983829407090930e+01,-2.125199799144372292e+00
2.000000000000003908e+01,3.000000000338625572e+00,9.999999999949762852e+00,6.600000000002439471e-01,1.569999999999598828e+00,2.870000000000001364e+03,-2.175000000000078426e+00,-4.945000000001191331e+00,1.338530545546755768e+01,-2.160147161805576310e+00
1.999999999999922196e+01,3.000000001221641455e+00,9.999999999941374895e+00,6.599999999995971312e-01,1.570000000000611573e+00,2.870000000000000000e+03,-2.174999999999740918e+00,-4.944999999998259455e+00,1.341230794562561002e+01,-2.165036508555279404e+00
2.000000000000017408e+01,2.999999998845041649e+00,9.999999999948567364e+00,6.600000000001448042e-01,1.569999999999718288e+00,2.869999999999999545e+03,-2.175000000000044675e+00,-4.945000000000772111e+00,1.341747133270326309e+01,-2.178764655367184222e+00
2.000000000000045830e+01,2.999999999950248686e+00,9.999999999928473216e+00,6.600000000001753353e-01,1.569999999999720286e+00,2.869999999999995907e+03,-2.175000000000088196e+00,-4.945000000000749907e+00,1.349664661965875823e+01,-2.142767048348227732e+00
2.000000000000083844e+01,2.999999999398238693e+00,9.999999999943225859e+00,6.600000000005853407e-01,1.569999999999054152e+00,2.869999999999993634e+03,-2.175000000000282263e+00,-4.945000000002714557e+00,1.341520279636483970e+01,-2.089884051539827148e+00
2.000000000000055422e+01,2.999999999663182759e+00,9.999999999961811881e+00,6.599999999998534816e-01,1.570000000000163487e+00,2.869999999999990905e+03,-2.174999999999961631e+00,-4.944999999999461160e+00,1.343675173279551593e+01,-2.113533599231248949e+00
2.000000000000132161e+01,2.999999999798239170e+00,9.999999999956830976e+00,6.600000000001005063e-01,1.569999999999753371e+00,2.869999999999989086e+03,-2.175000000000118394e+00,-4.945000000000527862e+00,1.346416271808069887e+01,-2.116338592793530538e+00
2.000000000000017408e+01,3.000000000216971330e+00,9.999999999956116881e+00,6.600000000000730838e-01,1.569999999999927676e+00,2.869999999999998636e+03,-2.175000000000071765e+00,-4.945000000000235651e+00,1.348637039801354831e+01,-2.250343256057731445e+00
1.999999999999943867e+01,2.999999995872454583e+00,1.000000000003778133e+01,6.600000000000723066e-01,1.569999999999941442e+00,2.869999999999998636e+03,-2.174999999999984723e+00,-4.945000000000208118e+00,1.345040853780808909e+01,-2.277260470107162593e+00
1.999999999999966604e+01,2.999999998188427330e+00,1.000000000001162093e+01,6.599999999999062172e-01,1.570000000000126628e+00,2.869999999999996362e+03,-2.174999999999909672e+00,-4.944999999999625473e+00,1.341029031566935181e+01,-2.184619322332627789e+00
1.999999999999984723e+01,2.999999998736461393e+00,1.000000000002319211e+01,6.600000000002053113e-01,1.569999999999680318e+00,2.869999999999992269e+03,-2.175000000000064659e+00,-4.945000000000908003e+00,1.336164405079811068e+01,-2.145197473321679649e+00
