1.999999999999989697e+01,2.999999999797282157e+00,9.999999999968386177e+00,6.600000000001408074e-01,1.569999999999766027e+00,2.869999999999983629e+03,-2.175000000000024691e+00,-4.945000000000642437e+00,1.340871110508706110e+01,-2.154755944311641969e+00
1.999999999999975131e+01,2.999999997791348072e+00,9.999999999954985341e+00,6.600000000001483569e-01,1.569999999999700302e+00,2.869999999999989086e+03,-2.175000000000054445e+00,-4.945000000000767670e+00,1.341921558114608359e+01,-2.191737089438271280e+00
1.999999999999987566e+01,2.999999997600646395e+00,9.999999999949519491e+00,6.600000000001584599e-01,1.569999999999700080e+00,2.869999999999987722e+03,-2.175000000000069100e+00,-4.945000000000767670e+00,1.341813981536611244e+01,-2.171370979595281359e+00
1.999999999999937828e+01,3.000000000603954220e+00,9.999999999967778663e+00,6.599999999998108491e-01,1.570000000000342899e+00,2.869999999999991815e+03,-2.174999999999869704e+00,-4.944999999999020623e+00,1.338264521128433415e+01,-2.172278408449905829e+00
2.000000000000040856e+01,2.999999996976522088e+00,9.999999999984126475e+00,6.600000000001818856e-01,1.569999999999734053e+00,2.869999999999977263e+03,-2.175000000000126832e+00,-4.945000000000735696e+00,1.339186391699845480e+01,-2.129896715954241238e+00
1.999999999999984723e+01,2.999999997440915944e+00,9.999999999984476418e+00,6.599999999995626032e-01,1.570000000000674856e+00,2.869999999999981810e+03,-2.174999999999817746e+00,-4.944999999998018758e+00,1.343486841807354004e+01,-2.226295872772406703e+00
2.000000000000004974e+01,2.999999998364737852e+00,9.999999999991509014e+00,6.599999999996257749e-01,1.570000000000558504e+00,2.869999999999979536e+03,-2.174999999999859490e+00,-4.944999999998360707e+00,1.344375429829888269e+01,-2.234879383514366769e+00
2.000000000000092371e+01,3.000000000051648019e+00,9.999999999982753351e+00,6.599999999999399680e-01,1.570000000000089102e+00,2.869999999999990905e+03,-2.175000000000010925e+00,-4.944999999999608598e+00,1.343463097195181355e+01,-2.183467380933122648e+00
2.000000000000047251e+01,2.999999999825370356e+00,9.999999999990736299e+00,6.599999999999385247e-01,1.570000000000100204e+00,2.869999999999994088e+03,-2.174999999999977174e+00,-4.944999999999617479e+00,1.344189820620197295e+01,-2.184039871085534656e+00
1.999999999999937472e+01,3.000000002123306420e+00,1.000000000000793321e+01,6.599999999995348476e-01,1.570000000000734586e+00,2.869999999999989541e+03,-2.174999999999759570e+00,-4.944999999997855333e+00,1.341164300161250011e+01,-2.139295805531810757e+00
2.000000000000152767e+01,2.999999996056353702e+00,9.999999999977882581e+00,6.599999999998819034e-01,1.570000000000116192e+00,2.869999999999976353e+03,-2.175000000000072209e+00,-4.944999999999554419e+00,1.343897795782590521e+01,-2.124321825065461411e+00
2.000000000000117950e+01,2.999999995965596966e+00,9.999999999969507058e+00,6.599999999999934808e-01,1.569999999999962093e+00,2.869999999999976808e+03,-2.175000000000087308e+00,-4.944999999999952323e+00,1.345290733352443269e+01,-2.129515765212210976e+00
1.999999999999979394e+01,2.999999994427696937e+00,9.999999999971961984e+00,6.599999999995148636e-01,1.570000000000765006e+00,2.869999999999984539e+03,-2.174999999999791100e+00,-4.944999999997727436e+00,1.340896213501063983e+01,-2.140110064390631006e+00
2.000000000000078160e+01,2.999999995737189451e+00,9.999999999989377386e+00,6.600000000000864064e-01,1.569999999999807327e+00,2.869999999999975444e+03,-2.175000000000078426e+00,-4.945000000000447926e+00,1.342675925579309748e+01,-2.111876016209804696e+00
2.000000000000009592e+01,2.999999998237794063e+00,9.999999999955035079e+00,6.600000000002844702e-01,1.569999999999535323e+00,2.869999999999993634e+03,-2.175000000000093081e+00,-4.945000000001328999e+00,1.343667344177545431e+01,-2.215495623926714508e+00
1.999999999999882760e+01,3.000000004039563795e+00,1.000000000000386891e+01,6.600000000000281197e-01,1.569999999999991624e+00,2.869999999999998636e+03,-2.174999999999930989e+00,-4.945000000000139728e+00,1.341542121245547570e+01,-2.178319246356370087e+00
1.999999999999988631e+01,2.999999997703766574e+00,9.999999999973370635e+00,6.599999999995947997e-01,1.570000000000642659e+00,2.869999999999997726e+03,-2.174999999999810196e+00,-4.944999999998128004e+00,1.349075907950466124e+01,-2.207283344625932564e+00
2.000000000000002132e+01,2.999999998631195819e+00,9.999999999968084197e+00,6.599999999995430633e-01,1.570000000000716600e+00,2.869999999999992269e+03,-2.174999999999811529e+00,-4.944999999997846452e+00,1.347511289120060063e+01,-2.193757688819057972e+00
1.999999999999934275e+01,3.000000000758708207e+00,1.000000000002610356e+01,6.599999999998245048e-01,1.570000000000332685e+00,2.870000000000000000e+03,-2.174999999999875477e+00,-4.944999999999133422e+00,1.338842704632260094e+01,-2.172958718499614417e+00
1.999999999999940314e+01,3.000000000215225615e+00,1.000000000001762146e+01,6.600000000000103562e-01,1.570000000000007168e+00,2.869999999999994088e+03,-2.174999999999916778e+00,-4.945000000000063345e+00,1.341348407180237601e+01,-2.156266745809602092e+00
2.000000000000106581e+01,3.000000000862851124e+00,9.999999999975175413e+00,6.600000000003524159e-01,1.569999999999452944e+00,2.869999999999984084e+03,-2.175000000000226752e+00,-4.945000000001573248e+00,1.347119523907181993e+01,-2.106713089994988408e+00
2.000000000000096279e+01,3.000000001498074997e+00,9.999999999968153475e+00,6.600000000002469447e-01,1.569999999999626139e+00,2.869999999999980901e+03,-2.175000000000170797e+00,-4.945000000001017249e+00,1.346586544238212468e+01,-2.101986729668724241e+00
2.000000000000072475e+01,3.000000000456446880e+00,9.999999999980818899e+00,6.600000000001986500e-01,1.569999999999684093e+00,2.869999999999979991e+03,-2.175000000000142819e+00,-4.945000000000815632e+00,1.346799738649577627e+01,-2.092982007814041534e+00
2.000000000000072120e+01,3.000000000939898825e+00,9.999999999986540544e+00,6.600000000001871037e-01,1.569999999999691864e+00,2.869999999999983629e+03,-2.175000000000133049e+00,-4.945000000000762341e+00,1.346447745663277296e+01,-2.090428316904355821e+00
2.000000000000022737e+01,3.000000000368073572e+00,1.000000000003512213e+01,6.600000000003926059e-01,1.569999999999397211e+00,2.869999999999992269e+03,-2.175000000000178790e+00,-4.945000000001805951e+00,1.342886836042437970e+01,-2.173712363840438311e+00
1.999999999999957367e+01,2.999999999735457390e+00,1.000000000003775291e+01,6.600000000002332889e-01,1.569999999999683649e+00,2.869999999999996362e+03,-2.175000000000061107e+00,-4.945000000000986162e+00,1.341924454572753866e+01,-2.181197480336744654e+00
1.999999999999956657e+01,2.999999998348139130e+00,1.000000000005521450e+01,6.600000000004082601e-01,1.569999999999399876e+00,2.869999999999992269e+03,-2.175000000000140155e+00,-4.945000000001843254e+00,1.341004221293589360e+01,-2.146221079264332587e+00
2.000000000000056843e+01,2.999999999652873228e+00,1.000000000004300738e+01,6.599999999999410782e-01,1.570000000000104645e+00,2.869999999999988177e+03,-2.175000000000053557e+00,-4.944999999999787121e+00,1.339753871637219795e+01,-2.147591807970213207e+00
1.999999999999912959e+01,3.000000000231201724e+00,1.000000000004804690e+01,6.599999999996901678e-01,1.570000000000564500e+00,2.869999999999983629e+03,-2.174999999999823519e+00,-4.944999999998401563e+00,1.341610231213084958e+01,-2.129296769178750548e+00
2.000000000000072120e+01,2.999999998003065382e+00,9.999999999970954789e+00,6.600000000004138112e-01,1.569999999999333040e+00,2.869999999999984993e+03,-2.175000000000213429e+00,-4.945000000001846807e+00,1.341021855338637359e+01,-2.179626336833193623e+00
1.999999999999980460e+01,3.000000001898404101e+00,1.000000000003760192e+01,6.599999999997676614e-01,1.570000000000380425e+00,2.870000000000000455e+03,-2.174999999999883471e+00,-4.944999999999025064e+00,1.343824355702982132e+01,-2.170069393123687629e+00
1.999999999999963052e+01,3.000000001792944904e+00,1.000000000004701661e+01,6.599999999998591438e-01,1.570000000000259632e+00,2.870000000000002728e+03,-2.174999999999910116e+00,-4.944999999999407869e+00,1.343201889763460066e+01,-2.157423752362662928e+00
1.999999999999983302e+01,2.999999996528551982e+00,9.999999999997381650e+00,6.600000000002294032e-01,1.569999999999691864e+00,2.869999999999998636e+03,-2.175000000000073985e+00,-4.945000000001034124e+00,1.340019436645186346e+01,-2.197020123639368272e+00
1.999999999999985434e+01,2.999999997246785899e+00,1.000000000002581935e+01,6.600000000001875478e-01,1.569999999999734275e+00,2.869999999999996817e+03,-2.175000000000073097e+00,-4.945000000000842277e+00,1.340423104199584969e+01,-2.203985959526673089e+00
2.000000000000039080e+01,3.000000005309096274e+00,9.999999999998992806e+00,6.600000000001441380e-01,1.569999999999774909e+00,2.869999999999998636e+03,-2.175000000000091305e+00,-4.945000000000772999e+00,1.342524058113900587e+01,-2.202567622883719434e+00
1.999999999999975842e+01,3.000000004456181646e+00,9.999999999995935696e+00,6.600000000003837242e-01,1.569999999999436069e+00,2.869999999999999091e+03,-2.175000000000132605e+00,-4.945000000001715357e+00,1.340543652748183767e+01,-2.147110064567970600e+00
1.999999999999952038e+01,3.000000003742535615e+00,1.000000000000263967e+01,6.600000000007172352e-01,1.569999999998886731e+00,2.869999999999994088e+03,-2.175000000000250733e+00,-4.945000000003410889e+00,1.338910870498259520e+01,-2.186410192398872798e+00
2.000000000000044764e+01,3.000000002700808022e+00,1.000000000001569234e+01,6.600000000003892753e-01,1.569999999999391660e+00,2.869999999999998636e+03,-2.175000000000179234e+00,-4.945000000001861906e+00,1.341102435735624177e+01,-2.187304063636843043e+00
2.000000000000062883e+01,3.000000003151634065e+00,1.000000000000542855e+01,6.599999999998662492e-01,1.570000000000160378e+00,2.869999999999982265e+03,-2.175000000000015810e+00,-4.944999999999440732e+00,1.341819039939347036e+01,-2.162948202696818534e+00
1.999999999999986855e+01,2.999999999268836870e+00,1.000000000002924949e+01,6.600000000001207123e-01,1.569999999999901252e+00,2.869999999999982265e+03,-2.175000000000055778e+00,-4.945000000000397300e+00,1.343517129251016229e+01,-2.191326958678550429e+00
1.999999999999960210e+01,2.999999998629311104e+00,1.000000000004444090e+01,6.600000000001369216e-01,1.569999999999885709e+00,2.869999999999982720e+03,-2.175000000000040234e+00,-4.945000000000434603e+00,1.342998255962915266e+01,-2.187990749930406320e+00
2.000000000000015632e+01,3.000000004626741656e+00,1.000000000002466827e+01,6.600000000001168265e-01,1.569999999999825757e+00,2.869999999999994088e+03,-2.175000000000047784e+00,-4.945000000000550067e+00,1.339254527851224630e+01,-2.215892030754792685e+00
1.999999999999975486e+01,2.999999999354649560e+00,1.000000000002915712e+01,6.600000000001027267e-01,1.569999999999860396e+00,2.869999999999985448e+03,-2.175000000000001155e+00,-4.945000000000431939e+00,1.342400122063510359e+01,-2.149601381405921607e+00
1.999999999999937117e+01,2.999999999947912777e+00,1.000000000002478906e+01,6.600000000000201261e-01,1.569999999999993623e+00,2.869999999999985448e+03,-2.174999999999940758e+00,-4.945000000000021600e+00,1.342911302439255117e+01,-2.154699553679722435e+00
2.000000000000023803e+01,3.000000003416613659e+00,1.000000000001840839e+01,6.600000000002856915e-01,1.569999999999509344e+00,2.869999999999986812e+03,-2.175000000000153477e+00,-4.945000000001314788e+00,1.339811128389002626e+01,-2.190274775613834102e+00
1.999999999999985079e+01,2.999999999281806051e+00,9.999999999987284838e+00,6.600000000002272937e-01,1.569999999999607931e+00,2.869999999999993179e+03,-2.175000000000061107e+00,-4.945000000001102514e+00,1.339396018725636850e+01,-2.171897945912974137e+00
2.000000000000000711e+01,3.000000003980746843e+00,9.999999999990107469e+00,6.600000000001907674e-01,1.569999999999688534e+00,2.869999999999995907e+03,-2.175000000000072653e+00,-4.945000000000908003e+00,1.340851525132833011e+01,-2.154455930543056841e+00
1.999999999999967315e+01,2.999999997809252861e+00,9.999999999992999378e+00,6.600000000001510214e-01,1.569999999999718732e+00,2.869999999999998636e+03,-2.175000000000048228e+00,-4.945000000000844054e+00,1.343744841405565005e+01,-2.173262095209350875e+00
1.999999999999960210e+01,2.999999999204421286e+00,9.999999999991880273e+00,6.600000000002357314e-01,1.569999999999603935e+00,2.869999999999999091e+03,-2.175000000000080203e+00,-4.945000000001182450e+00,1.344295762852987508e+01,-2.176141287259767410e+00
1.999999999999967670e+01,3.000000001512042491e+00,9.999999999975303311e+00,6.599999999999828226e-01,1.570000000000048468e+00,2.869999999999998181e+03,-2.174999999999984279e+00,-4.944999999999929230e+00,1.345198455471476606e+01,-2.171851751027499944e+00
1.999999999999963407e+01,3.000000003102941015e+00,9.999999999969151787e+00,6.600000000000095790e-01,1.570000000000012275e+00,2.870000000000000000e+03,-2.174999999999989164e+00,-4.945000000000052687e+00,1.344388092202428808e+01,-2.162852647396521721e+00
2.000000000000026645e+01,3.000000002345410977e+00,1.000000000002971312e+01,6.599999999997413491e-01,1.570000000000413065e+00,2.869999999999994088e+03,-2.174999999999929656e+00,-4.944999999998742624e+00,1.348000970211006155e+01,-2.258173590101908879e+00
2.000000000000004619e+01,3.000000002782555963e+00,1.000000000003761258e+01,6.599999999997597788e-01,1.570000000000389972e+00,2.869999999999995907e+03,-2.174999999999916778e+00,-4.944999999998812790e+00,1.346615719454931615e+01,-2.253312417015299829e+00
1.999999999999927169e+01,3.000000003271370730e+00,1.000000000001948308e+01,6.599999999999108802e-01,1.570000000000123963e+00,2.870000000000002728e+03,-2.174999999999889688e+00,-4.944999999999539320e+00,1.348996393694459428e+01,-2.221235174734681905e+00
1.999999999999930367e+01,3.000000002235572172e+00,1.000000000001908518e+01,6.599999999998927835e-01,1.570000000000150164e+00,2.870000000000002274e+03,-2.174999999999886136e+00,-4.944999999999487805e+00,1.347303331037583440e+01,-2.215396874427739249e+00
1.999999999999899103e+01,3.000000002401601584e+00,1.000000000004570566e+01,6.599999999996419842e-01,1.570000000000587148e+00,2.869999999999998636e+03,-2.174999999999767564e+00,-4.944999999998340279e+00,1.343611483379809535e+01,-2.180739316904285907e+00
1.999999999999905498e+01,3.000000002704141799e+00,1.000000000003346123e+01,6.599999999998058531e-01,1.570000000000333573e+00,2.869999999999998181e+03,-2.174999999999842171e+00,-4.944999999999057927e+00,1.344711449627769007e+01,-2.202471134592090873e+00
2.000000000000049738e+01,3.000000000036296743e+00,9.999999999976559195e+00,6.600000000001571276e-01,1.569999999999798668e+00,2.869999999999996362e+03,-2.175000000000127720e+00,-4.945000000000563389e+00,1.342650539892271944e+01,-2.202120286889189149e+00
2.000000000000036948e+01,3.000000000026473046e+00,9.999999999996823874e+00,6.599999999996903899e-01,1.570000000000528528e+00,2.869999999999996362e+03,-2.174999999999916334e+00,-4.944999999998514362e+00,1.338600036934824544e+01,-2.186021826279599622e+00
2.000000000000031619e+01,3.000000001866050425e+00,1.000000000002093259e+01,6.599999999999015543e-01,1.570000000000188578e+00,2.869999999999984993e+03,-2.174999999999983835e+00,-4.944999999999434515e+00,1.339151865334959446e+01,-2.181679264677195640e+00
1.999999999999963762e+01,3.000000000910559184e+00,1.000000000000369660e+01,6.600000000000326716e-01,1.570000000000019158e+00,2.869999999999990905e+03,-2.175000000000001599e+00,-4.945000000000014495e+00,1.341968998476789388e+01,-2.169292266645987510e+00
2.000000000000054357e+01,3.000000000346632056e+00,9.999999999989174881e+00,6.600000000004383471e-01,1.569999999999308393e+00,2.869999999999982265e+03,-2.175000000000251177e+00,-4.945000000001953389e+00,1.342478889570057454e+01,-2.160067437455809536e+00
2.000000000000040146e+01,3.000000000490476992e+00,9.999999999988641974e+00,6.600000000004488943e-01,1.569999999999295737e+00,2.869999999999984993e+03,-2.175000000000241407e+00,-4.945000000002002238e+00,1.342463853275790875e+01,-2.158097597849876426e+00
1.999999999999804956e+01,2.999999999915389015e+00,1.000000000005359091e+01,6.599999999995459499e-01,1.570000000000866258e+00,2.870000000000000455e+03,-2.174999999999678302e+00,-4.944999999997749640e+00,1.339937940752807677e+01,-2.150030962598417528e+00
2.000000000000025935e+01,3.000000000059930283e+00,1.000000000002932410e+01,6.600000000000680878e-01,1.569999999999920570e+00,2.869999999999987722e+03,-2.175000000000053557e+00,-4.945000000000274731e+00,1.343207948176681832e+01,-2.166307859148342008e+00
1.999999999999979394e+01,3.000000001310877185e+00,1.000000000002474643e+01,6.600000000000191269e-01,1.570000000000030926e+00,2.869999999999991815e+03,-2.174999999999989164e+00,-4.944999999999943441e+00,1.342651838638590611e+01,-2.171713206637911675e+00
2.000000000000002842e+01,3.000000002368335306e+00,9.999999999992301269e+00,6.600000000004443423e-01,1.569999999999308615e+00,2.869999999999991360e+03,-2.175000000000198774e+00,-4.945000000001981810e+00,1.339496976279401963e+01,-2.179662855372545227e+00
1.999999999999981171e+01,3.000000003459936782e+00,9.999999999989208632e+00,6.599999999998555911e-01,1.570000000000223661e+00,2.869999999999996817e+03,-2.174999999999936318e+00,-4.944999999999347473e+00,1.341764604586958320e+01,-2.187584935638156036e+00
1.999999999999991473e+01,3.000000002352336992e+00,9.999999999990444977e+00,6.599999999998994449e-01,1.570000000000135731e+00,2.869999999999997726e+03,-2.174999999999963851e+00,-4.944999999999618367e+00,1.341803341438094144e+01,-2.177830043873226984e+00
2.000000000000049738e+01,2.999999997884528646e+00,1.000000000002202860e+01,6.599999999999849321e-01,1.569999999999927898e+00,2.869999999999997272e+03,-2.175000000000027800e+00,-4.945000000000139728e+00,1.343889043553248897e+01,-2.141518716618824758e+00
2.000000000000061462e+01,2.999999997377806871e+00,1.000000000001316813e+01,6.599999999999949241e-01,1.569999999999937224e+00,2.869999999999995453e+03,-2.175000000000038014e+00,-4.945000000000086438e+00,1.344549738933572414e+01,-2.129730009929354129e+00
2.000000000000039790e+01,3.000000001144286887e+00,9.999999999967821296e+00,6.600000000001369216e-01,1.569999999999765139e+00,2.869999999999997726e+03,-2.175000000000043343e+00,-4.945000000000563389e+00,1.340551535237556813e+01,-2.168028445251922509e+00
2.000000000000106226e+01,3.000000000198425276e+00,9.999999999981875831e+00,6.600000000001231548e-01,1.569999999999730944e+00,2.869999999999993634e+03,-2.175000000000101963e+00,-4.945000000000645102e+00,1.338389108447923626e+01,-2.176286647870800728e+00
2.000000000000073541e+01,3.000000000514116305e+00,9.999999999984538590e+00,6.599999999996811750e-01,1.570000000000462359e+00,2.869999999999997726e+03,-2.174999999999937206e+00,-4.944999999998497486e+00,1.342341513379624907e+01,-2.149680506850494943e+00
2.000000000000032685e+01,2.999999997956442677e+00,1.000000000001462475e+01,6.599999999998303890e-01,1.570000000000215667e+00,2.869999999999996362e+03,-2.174999999999968292e+00,-4.944999999999330598e+00,1.338868070388788389e+01,-2.158436335653329596e+00
2.000000000000062172e+01,3.000000003455575825e+00,9.999999999994004796e+00,6.599999999998829026e-01,1.570000000000150608e+00,2.870000000000001819e+03,-2.174999999999983391e+00,-4.944999999999454943e+00,1.344531193031828131e+01,-2.188049685779766662e+00
2.000000000000082778e+01,3.000000004443271528e+00,9.999999999993246291e+00,6.599999999999424105e-01,1.570000000000054685e+00,2.870000000000000909e+03,-2.175000000000020250e+00,-4.944999999999687645e+00,1.344013727133526714e+01,-2.176657083389604619e+00
2.000000000000039080e+01,3.000000002583778080e+00,1.000000000001682743e+01,6.600000000000372236e-01,1.569999999999951212e+00,2.869999999999992724e+03,-2.175000000000069988e+00,-4.945000000000110418e+00,1.340889847633098420e+01,-2.130398954734092243e+00
2.000000000000019895e+01,3.000000000866044569e+00,9.999999999994621191e+00,6.599999999998991118e-01,1.570000000000161933e+00,2.870000000000002274e+03,-2.174999999999969624e+00,-4.944999999999547313e+00,1.341410167851000956e+01,-2.199961777144875175e+00
1.999999999999992539e+01,3.000000000000779821e+00,1.000000000001160849e+01,6.600000000004053735e-01,1.569999999999381668e+00,2.869999999999998636e+03,-2.175000000000151257e+00,-4.945000000001819274e+00,1.342464671739397453e+01,-2.190903147133347773e+00
2.000000000000029843e+01,3.000000000070420114e+00,1.000000000000968470e+01,6.600000000003756195e-01,1.569999999999410756e+00,2.870000000000000000e+03,-2.175000000000174349e+00,-4.945000000001741114e+00,1.343346986316021052e+01,-2.191247597157340632e+00
1.999999999999999289e+01,3.000000000768769493e+00,9.999999999974637177e+00,6.600000000001049472e-01,1.569999999999845519e+00,2.869999999999993179e+03,-2.175000000000070877e+00,-4.945000000000517204e+00,1.342076780455827922e+01,-2.175566814069608501e+00
2.000000000000011724e+01,3.000000000435148362e+00,9.999999999972615683e+00,6.600000000000669775e-01,1.569999999999893259e+00,2.869999999999994088e+03,-2.175000000000063771e+00,-4.945000000000395524e+00,1.343381667438048410e+01,-2.180725999339709453e+00
2.000000000000032685e+01,3.000000000984912152e+00,9.999999999997838174e+00,6.599999999999522915e-01,1.570000000000018048e+00,2.869999999999999091e+03,-2.174999999999987832e+00,-4.944999999999921236e+00,1.345154922610272408e+01,-2.210874552447567254e+00
2.000000000000066436e+01,3.000000001241047265e+00,9.999999999995290878e+00,6.599999999999355271e-01,1.570000000000044693e+00,2.869999999999997272e+03,-2.175000000000018030e+00,-4.944999999999865281e+00,1.344499321403158376e+01,-2.196622235787905275e+00
1.999999999999990408e+01,2.999999999089612235e+00,9.999999999984931165e+00,6.599999999998961142e-01,1.570000000000165707e+00,2.869999999999996362e+03,-2.174999999999948308e+00,-4.944999999999615703e+00,1.341457130208413417e+01,-2.180553822432302447e+00
2.000000000000120437e+01,2.999999999274132634e+00,9.999999999960763830e+00,6.600000000001970957e-01,1.569999999999673213e+00,2.869999999999980446e+03,-2.175000000000178346e+00,-4.945000000000973728e+00,1.341790106485662548e+01,-2.174270687426766546e+00
2.000000000000132161e+01,2.999999999054947075e+00,9.999999999958603780e+00,6.600000000002178568e-01,1.569999999999637019e+00,2.869999999999979991e+03,-2.175000000000195222e+00,-4.945000000001011919e+00,1.343151930155472762e+01,-2.162641624789012340e+00
2.000000000000041922e+01,2.999999995721828405e+00,9.999999999971933562e+00,6.599999999994817790e-01,1.570000000000729923e+00,2.869999999999978172e+03,-2.174999999999840838e+00,-4.944999999997770068e+00,1.359420828867252418e+01,-2.086310839346248613e+00
2.000000000000032330e+01,2.999999995739126568e+00,9.999999999967878139e+00,6.599999999994968780e-01,1.570000000000725038e+00,2.869999999999976353e+03,-2.174999999999841727e+00,-4.944999999997775397e+00,1.357701401971697130e+01,-2.069299703933272117e+00
2.000000000000060751e+01,2.999999996449473016e+00,9.999999999969888975e+00,6.599999999995478372e-01,1.570000000000621343e+00,2.869999999999979991e+03,-2.174999999999884803e+00,-4.944999999998088924e+00,1.357980336894694062e+01,-2.082618561688489578e+00
2.000000000000080291e+01,2.999999998152592884e+00,9.999999999994120259e+00,6.599999999999724976e-01,1.570000000000004947e+00,2.869999999999976353e+03,-2.175000000000044675e+00,-4.944999999999942553e+00,1.342708426695433843e+01,-2.127521193942946809e+00
2.000000000000002487e+01,3.000000001411874617e+00,9.999999999982682297e+00,6.599999999998156230e-01,1.570000000000278728e+00,2.869999999999991360e+03,-2.174999999999948752e+00,-4.944999999999097895e+00,1.341484850035884513e+01,-2.170428969658298790e+00
2.000000000000041211e+01,2.999999999271821594e+00,9.999999999961975305e+00,6.600000000003274359e-01,1.569999999999461160e+00,2.870000000000000909e+03,-2.175000000000176126e+00,-4.945000000001562590e+00,1.341488158658750329e+01,-2.145494475890417974e+00
1.999999999999944578e+01,3.000000000833420888e+00,9.999999999958346208e+00,6.599999999999063283e-01,1.570000000000139284e+00,2.869999999999995907e+03,-2.174999999999908784e+00,-4.944999999999523332e+00,1.345551652797456654e+01,-2.156357163759350826e+00
1.999999999999913669e+01,3.000000001040817210e+00,9.999999999965444530e+00,6.599999999999505151e-01,1.570000000000103091e+00,2.869999999999996362e+03,-2.174999999999897682e+00,-4.944999999999629914e+00,1.344376126281227712e+01,-2.166854237297655583e+00
2.000000000000075673e+01,2.999999998071217977e+00,9.999999999969125142e+00,6.600000000001376987e-01,1.569999999999787343e+00,2.869999999999993634e+03,-2.175000000000117950e+00,-4.945000000000653984e+00,1.345812975586768445e+01,-2.181913046258966205e+00
2.000000000000059330e+01,2.999999997872311308e+00,9.999999999962193797e+00,6.600000000001126077e-01,1.569999999999834861e+00,2.869999999999996362e+03,-2.175000000000094413e+00,-4.945000000000557172e+00,1.343768041688682757e+01,-2.168666918788743292e+00
1.999999999999968026e+01,2.999999999168996290e+00,1.000000000000200906e+01,6.599999999998451550e-01,1.570000000000266072e+00,2.869999999999993179e+03,-2.174999999999920774e+00,-4.944999999999367013e+00,1.340489789022673683e+01,-2.128483634463461449e+00
1.999999999999870681e+01,2.999999995713196643e+00,1.000000000001757883e+01,6.599999999999961453e-01,1.570000000000087104e+00,2.870000000000000909e+03,-2.174999999999867928e+00,-4.945000000000018936e+00,1.339123428964883011e+01,-2.194998946911744131e+00
1.999999999999953104e+01,2.999999996172515893e+00,1.000000000000287770e+01,6.599999999999133227e-01,1.570000000000156382e+00,2.869999999999992724e+03,-2.174999999999925659e+00,-4.944999999999592610e+00,1.339736484752756418e+01,-2.136740926085526571e+00
1.999999999999966604e+01,2.999999998751182506e+00,9.999999999992979838e+00,6.600000000001967626e-01,1.569999999999765139e+00,2.869999999999989541e+03,-2.175000000000056222e+00,-4.945000000000813856e+00,1.346594942956591012e+01,-2.177504241287794962e+00
1.999999999999957723e+01,2.999999998722981509e+00,1.000000000000956746e+01,6.600000000003473088e-01,1.569999999999527995e+00,2.869999999999990450e+03,-2.175000000000112177e+00,-4.945000000001511964e+00,1.345905830088375232e+01,-2.182758570366999606e+00
1.999999999999831246e+01,2.999999997464885215e+00,1.000000000002203038e+01,6.599999999994944355e-01,1.570000000000873808e+00,2.870000000000000455e+03,-2.174999999999669420e+00,-4.944999999997660822e+00,1.340331734829919696e+01,-2.155463929758665298e+00
1.999999999999977618e+01,2.999999999276007134e+00,1.000000000003460165e+01,6.599999999999957012e-01,1.570000000000030482e+00,2.869999999999989086e+03,-2.174999999999955413e+00,-4.944999999999947882e+00,1.342046832122370148e+01,-2.184010752601076355e+00
1.999999999999969802e+01,3.000000000347281759e+00,1.000000000000879652e+01,6.600000000000224576e-01,1.569999999999948104e+00,2.869999999999996817e+03,-2.174999999999992717e+00,-4.945000000000108642e+00,1.342341186130473751e+01,-2.140358084162875318e+00
1.999999999999944222e+01,3.000000000554890356e+00,1.000000000001823963e+01,6.600000000000464384e-01,1.569999999999932117e+00,2.869999999999995453e+03,-2.174999999999976286e+00,-4.945000000000144169e+00,1.342794899097946448e+01,-2.141855359973820594e+00
1.999999999999912603e+01,3.000000000088711705e+00,1.000000000005242029e+01,6.600000000002819167e-01,1.569999999999563300e+00,2.870000000000000000e+03,-2.175000000000052225e+00,-4.945000000001284590e+00,1.340424155799103012e+01,-2.164698148908282604e+00
2.000000000000046896e+01,2.999999997466767265e+00,9.999999999991452171e+00,6.600000000002563816e-01,1.569999999999584395e+00,2.869999999999984084e+03,-2.175000000000157474e+00,-4.945000000001210871e+00,1.345906566616841715e+01,-2.171440277477646230e+00
2.000000000000068923e+01,2.999999997469955382e+00,9.999999999981691090e+00,6.600000000001751133e-01,1.569999999999680984e+00,2.869999999999980446e+03,-2.175000000000136602e+00,-4.945000000000863594e+00,1.345138991531562134e+01,-2.169709184039550376e+00
1.999999999999938183e+01,3.000000000597934591e+00,9.999999999956886043e+00,6.600000000002417266e-01,1.569999999999639462e+00,2.870000000000002274e+03,-2.175000000000068656e+00,-4.945000000001252616e+00,1.343714634680959286e+01,-2.167171130641880605e+00
1.999999999999959144e+01,3.000000000390274479e+00,9.999999999957232433e+00,6.600000000000679767e-01,1.569999999999892148e+00,2.870000000000001819e+03,-2.175000000000015810e+00,-4.945000000000500329e+00,1.344166374627988603e+01,-2.162659263885827077e+00
1.999999999999912248e+01,2.999999999045879662e+00,1.000000000003356426e+01,6.599999999999984768e-01,1.570000000000022711e+00,2.869999999999996362e+03,-2.174999999999974953e+00,-4.944999999999973639e+00,1.341613108704716950e+01,-2.164321655851848547e+00
1.999999999999917222e+01,2.999999998427783421e+00,1.000000000003849898e+01,6.600000000000630918e-01,1.569999999999926121e+00,2.869999999999998181e+03,-2.175000000000008260e+00,-4.945000000000259632e+00,1.341872081080381207e+01,-2.168901577923557422e+00
1.999999999999967670e+01,2.999999998506743371e+00,9.999999999991729283e+00,6.600000000001152722e-01,1.569999999999827534e+00,2.869999999999998636e+03,-2.175000000000008704e+00,-4.945000000000524309e+00,1.342738870971041010e+01,-2.204312845991964753e+00
2.000000000000005684e+01,2.999999997301596721e+00,1.000000000000090239e+01,6.600000000002023137e-01,1.569999999999748708e+00,2.870000000000004547e+03,-2.175000000000053113e+00,-4.945000000000840501e+00,1.342059708210125635e+01,-2.160408929377900300e+00
1.999999999999924327e+01,2.999999997736603419e+00,1.000000000003145040e+01,6.599999999999346390e-01,1.570000000000125517e+00,2.869999999999989996e+03,-2.174999999999915001e+00,-4.944999999999645901e+00,1.340415848512630959e+01,-2.150045586832040279e+00
1.999999999999990763e+01,3.000000001083825918e+00,9.999999999959186425e+00,6.600000000005593614e-01,1.569999999999148077e+00,2.869999999999994088e+03,-2.175000000000208100e+00,-4.945000000002516494e+00,1.344996344042947811e+01,-2.132367517371528187e+00
2.000000000000042277e+01,3.000000000691558810e+00,9.999999999952768448e+00,6.600000000005717959e-01,1.569999999999089679e+00,2.869999999999991360e+03,-2.175000000000257838e+00,-4.945000000002649720e+00,1.345785119342441050e+01,-2.135097240015130460e+00
2.000000000000002132e+01,3.000000001566929697e+00,9.999999999975276666e+00,6.600000000001363665e-01,1.569999999999799778e+00,2.869999999999984993e+03,-2.175000000000052669e+00,-4.945000000000445262e+00,1.345078333294211959e+01,-2.109652917484616363e+00
2.000000000000023093e+01,3.000000001258516846e+00,9.999999999976422416e+00,6.600000000001917666e-01,1.569999999999715401e+00,2.869999999999982265e+03,-2.175000000000098854e+00,-4.945000000000724150e+00,1.344551148408962860e+01,-2.094579661956655681e+00
1.999999999999989697e+01,3.000000000785806975e+00,9.999999999996598277e+00,6.600000000002315126e-01,1.569999999999669882e+00,2.869999999999985448e+03,-2.175000000000069100e+00,-4.945000000000963958e+00,1.342066125932841736e+01,-2.095624758513659813e+00
2.000000000000012790e+01,2.999999998796114120e+00,9.999999999985154986e+00,6.599999999999621725e-01,1.570000000000056239e+00,2.869999999999984084e+03,-2.174999999999972733e+00,-4.944999999999804885e+00,1.345576559098891956e+01,-2.099695258207970650e+00
1.999999999999987566e+01,3.000000000422561541e+00,9.999999999996463274e+00,6.600000000000657563e-01,1.569999999999917017e+00,2.869999999999984993e+03,-2.174999999999994049e+00,-4.945000000000227658e+00,1.344245266903136482e+01,-2.107315162838834244e+00
2.000000000000019185e+01,2.999999998721707861e+00,9.999999999984023447e+00,6.600000000001484679e-01,1.569999999999727835e+00,2.869999999999985903e+03,-2.175000000000067324e+00,-4.945000000000693063e+00,1.343376050621261442e+01,-2.109962566014580876e+00
2.000000000000030198e+01,2.999999998749028229e+00,9.999999999975889509e+00,6.599999999996886135e-01,1.570000000000446594e+00,2.869999999999981355e+03,-2.174999999999872813e+00,-4.944999999998664464e+00,1.340739144607234579e+01,-2.138765026866210839e+00
2.000000000000141043e+01,3.000000001331246668e+00,9.999999999986345145e+00,6.600000000005581402e-01,1.569999999999070583e+00,2.869999999999991815e+03,-2.175000000000304912e+00,-4.945000000002571561e+00,1.342201427854164386e+01,-2.135907241683694391e+00
2.000000000000125056e+01,3.000000001668912120e+00,9.999999999987940313e+00,6.600000000004170309e-01,1.569999999999311280e+00,2.869999999999987267e+03,-2.175000000000241851e+00,-4.945000000001891216e+00,1.342619990398318386e+01,-2.138903296688378308e+00
1.999999999999981881e+01,2.999999998041525284e+00,9.999999999997386979e+00,6.600000000003531930e-01,1.569999999999432516e+00,2.869999999999999091e+03,-2.175000000000119282e+00,-4.945000000001677165e+00,1.341232501703851021e+01,-2.121764603755222023e+00
2.000000000000060041e+01,2.999999994723218322e+00,9.999999999980362375e+00,6.600000000000681988e-01,1.569999999999858176e+00,2.869999999999996817e+03,-2.175000000000103739e+00,-4.945000000000314699e+00,1.344011885834638953e+01,-2.122239114903007540e+00
1.999999999999977618e+01,2.999999998699311110e+00,1.000000000001706191e+01,6.600000000000905143e-01,1.569999999999907692e+00,2.870000000000001364e+03,-2.175000000000034017e+00,-4.945000000000350227e+00,1.339357553315581661e+01,-2.167153931677811229e+00
2.000000000000111910e+01,2.999999996362327614e+00,9.999999999992198241e+00,6.600000000000461053e-01,1.569999999999903251e+00,2.869999999999983174e+03,-2.175000000000123723e+00,-4.945000000000337792e+00,1.345421908861413485e+01,-2.197632995569391401e+00
2.000000000000098410e+01,2.999999997321699752e+00,9.999999999994161115e+00,6.600000000000907363e-01,1.569999999999851514e+00,2.869999999999985903e+03,-2.175000000000137934e+00,-4.945000000000502993e+00,1.342532764811821622e+01,-2.209036842192409367e+00
1.999999999999934275e+01,2.999999997924746697e+00,1.000000000001020695e+01,6.600000000003257705e-01,1.569999999999471596e+00,2.869999999999994088e+03,-2.175000000000062439e+00,-4.945000000001451568e+00,1.353751756135429041e+01,-2.273788908371340955e+00
1.999999999999980105e+01,2.999999998252214528e+00,1.000000000000529354e+01,6.600000000003752865e-01,1.569999999999380558e+00,2.869999999999996817e+03,-2.175000000000120171e+00,-4.945000000001742890e+00,1.353429876884513128e+01,-2.270881632906535774e+00
1.999999999999954881e+01,2.999999997714779099e+00,1.000000000000827072e+01,6.600000000003576339e-01,1.569999999999401208e+00,2.869999999999994998e+03,-2.175000000000091305e+00,-4.945000000001674501e+00,1.353554898739108658e+01,-2.275820117339217408e+00
2.000000000000093081e+01,2.999999997252329909e+00,9.999999999955342389e+00,6.600000000005139533e-01,1.569999999999185381e+00,2.869999999999991815e+03,-2.175000000000283595e+00,-4.945000000002378826e+00,1.353701270656861766e+01,-2.262766449317195505e+00
2.000000000000064304e+01,2.999999997079022762e+00,9.999999999966968645e+00,6.600000000003666267e-01,1.569999999999435181e+00,2.869999999999993634e+03,-2.175000000000199218e+00,-4.945000000001633644e+00,1.354005510634658549e+01,-2.270801784089452102e+00
2.000000000000045830e+01,2.999999997749633440e+00,9.999999999961158181e+00,6.600000000003527489e-01,1.569999999999473372e+00,2.869999999999994088e+03,-2.175000000000176570e+00,-4.945000000001548379e+00,1.351472601718471545e+01,-2.255158131594029225e+00
2.000000000000066791e+01,2.999999999352333191e+00,9.999999999987682742e+00,6.600000000003478640e-01,1.569999999999476481e+00,2.870000000000000000e+03,-2.175000000000190781e+00,-4.945000000001559926e+00,1.346934308155381821e+01,-2.172927458305820458e+00
2.000000000000056133e+01,2.999999999501735015e+00,9.999999999994406252e+00,6.600000000004420109e-01,1.569999999999317275e+00,2.870000000000000455e+03,-2.175000000000212541e+00,-4.945000000002015561e+00,1.345806744502955965e+01,-2.162154301631296072e+00
2.000000000000017053e+01,2.999999997584597011e+00,9.999999999947100093e+00,6.599999999998367173e-01,1.570000000000232099e+00,2.869999999999997726e+03,-2.174999999999950528e+00,-4.944999999999240003e+00,1.338919319980768030e+01,-2.178487260486835719e+00
1.999999999999982236e+01,2.999999999786540972e+00,1.000000000000922462e+01,6.600000000000303402e-01,1.569999999999953211e+00,2.870000000000000000e+03,-2.174999999999992717e+00,-4.945000000000124629e+00,1.344763871795796994e+01,-2.210460068505501141e+00
1.999999999999970157e+01,3.000000000294116287e+00,1.000000000002280842e+01,6.599999999999311973e-01,1.570000000000114859e+00,2.870000000000000909e+03,-2.174999999999945643e+00,-4.944999999999678764e+00,1.344916948090425990e+01,-2.223450231478337091e+00
2.000000000000070344e+01,2.999999998219935904e+00,1.000000000001134737e+01,6.599999999999177636e-01,1.570000000000098872e+00,2.869999999999981355e+03,-2.175000000000060663e+00,-4.944999999999717843e+00,1.347842044689202901e+01,-2.188055014828263367e+00
2.000000000000087041e+01,2.999999997426200604e+00,1.000000000001604050e+01,6.599999999999975886e-01,1.569999999999993179e+00,2.869999999999980901e+03,-2.175000000000110845e+00,-4.945000000000033147e+00,1.346498359623197949e+01,-2.196585461826522589e+00
1.999999999999941735e+01,3.000000002276625555e+00,1.000000000001873168e+01,6.600000000001730038e-01,1.569999999999723173e+00,2.870000000000002274e+03,-2.175000000000025135e+00,-4.945000000000903562e+00,1.344920596527042456e+01,-2.188790780694799931e+00
1.999999999999923972e+01,3.000000002686628253e+00,1.000000000002360245e+01,6.600000000001462475e-01,1.569999999999782903e+00,2.870000000000000455e+03,-2.174999999999994493e+00,-4.945000000000669083e+00,1.344520373228012744e+01,-2.177946927758468210e+00
2.000000000000031264e+01,2.999999994439821016e+00,1.000000000000660982e+01,6.599999999999175415e-01,1.570000000000119966e+00,2.869999999999985448e+03,-2.174999999999968736e+00,-4.944999999999587281e+00,1.343063760341596335e+01,-2.204908364550380639e+00
2.000000000000053291e+01,2.999999997389237283e+00,1.000000000000533795e+01,6.600000000002969047e-01,1.569999999999512674e+00,2.869999999999986812e+03,-2.175000000000158806e+00,-4.945000000001384954e+00,1.341934076190337599e+01,-2.178092014996416914e+00
1.999999999999941025e+01,3.000000000374637654e+00,9.999999999989560351e+00,6.600000000000526557e-01,1.569999999999955653e+00,2.869999999999980901e+03,-2.174999999999979838e+00,-4.945000000000196572e+00,1.337383998222719939e+01,-2.152680716276741624e+00
2.000000000000059686e+01,2.999999998417418823e+00,9.999999999979753085e+00,6.600000000004166978e-01,1.569999999999320162e+00,2.869999999999980446e+03,-2.175000000000184119e+00,-4.945000000001938290e+00,1.340796024120094643e+01,-2.147557622946325573e+00
2.000000000000013500e+01,3.000000000159873892e+00,9.999999999958994579e+00,6.599999999996780664e-01,1.570000000000541185e+00,2.869999999999998181e+03,-2.174999999999852385e+00,-4.944999999998379359e+00,1.343326705175718772e+01,-2.164705426548569456e+00
2.000000000000018119e+01,3.000000000456498395e+00,9.999999999964190422e+00,6.599999999997439026e-01,1.570000000000437934e+00,2.869999999999996817e+03,-2.174999999999882583e+00,-4.944999999998652918e+00,1.343053159181947365e+01,-2.149560013014250259e+00
2.000000000000068212e+01,3.000000001396394556e+00,9.999999999966535214e+00,6.600000000000237899e-01,1.569999999999914131e+00,2.869999999999991815e+03,-2.175000000000061107e+00,-4.945000000000071338e+00,1.345611666849986676e+01,-2.166893589775247264e+00
2.000000000000051514e+01,3.000000001958304630e+00,9.999999999967853270e+00,6.600000000001451372e-01,1.569999999999728280e+00,2.869999999999991815e+03,-2.175000000000095302e+00,-4.945000000000577600e+00,1.345068703284715106e+01,-2.156391436285610474e+00
2.000000000000057909e+01,2.999999997778501015e+00,9.999999999997713829e+00,6.599999999998796829e-01,1.570000000000176588e+00,2.869999999999989541e+03,-2.175000000000004707e+00,-4.944999999999432738e+00,1.343623671312244028e+01,-2.173144775530399198e+00
2.000000000000033751e+01,2.999999998717437055e+00,1.000000000000074785e+01,6.599999999998515943e-01,1.570000000000236984e+00,2.869999999999990450e+03,-2.174999999999974065e+00,-4.944999999999267537e+00,1.342731124902690532e+01,-2.172375081239447336e+00
2.000000000000012434e+01,3.000000000430021352e+00,9.999999999994191313e+00,6.599999999998358291e-01,1.570000000000312701e+00,2.870000000000001364e+03,-2.174999999999948752e+00,-4.944999999999197371e+00,1.342317180384472941e+01,-2.172000792130528435e+00
1.999999999999894484e+01,3.000000001375063619e+00,9.999999999984476418e+00,6.599999999997920863e-01,1.570000000000437490e+00,2.869999999999999545e+03,-2.174999999999831068e+00,-4.944999999998983320e+00,1.339777710643235586e+01,-2.157484583926980282e+00
2.000000000000029488e+01,3.000000001112701931e+00,9.999999999990709654e+00,6.600000000002848033e-01,1.569999999999569962e+00,2.869999999999992269e+03,-2.175000000000137934e+00,-4.945000000001242846e+00,1.340249899035124059e+01,-2.155755965282260433e+00
1.999999999999898748e+01,2.999999997611727753e+00,9.999999999990789590e+00,6.599999999998986677e-01,1.570000000000197904e+00,2.869999999999996362e+03,-2.174999999999881251e+00,-4.944999999999509122e+00,1.342029115012768337e+01,-2.200605734189934548e+00
1.999999999999886313e+01,2.999999997433477450e+00,9.999999999984710897e+00,6.599999999997853140e-01,1.570000000000353113e+00,2.869999999999999545e+03,-2.174999999999824407e+00,-4.944999999999039275e+00,1.344085607316957365e+01,-2.221281432441996717e+00
1.999999999999971578e+01,3.000000002926596299e+00,9.999999999974123810e+00,6.600000000000841860e-01,1.569999999999899476e+00,2.869999999999993634e+03,-2.174999999999991385e+00,-4.945000000000199236e+00,1.341962890640592221e+01,-2.150193980421463813e+00
2.000000000000041922e+01,3.000000003267753179e+00,9.999999999943451456e+00,6.599999999998026334e-01,1.570000000000267404e+00,2.869999999999988177e+03,-2.174999999999947864e+00,-4.944999999999138751e+00,1.344398415510900513e+01,-2.206535176138650023e+00
2.000000000000036593e+01,3.000000002517418718e+00,9.999999999944973794e+00,6.599999999998453770e-01,1.570000000000205231e+00,2.869999999999984539e+03,-2.174999999999958966e+00,-4.944999999999298623e+00,1.345005005334159343e+01,-2.211598361588908546e+00
2.000000000000064304e+01,3.000000001692027407e+00,9.999999999977585929e+00,6.600000000001576828e-01,1.569999999999715179e+00,2.869999999999979536e+03,-2.175000000000107292e+00,-4.945000000000764118e+00,1.340918397743038248e+01,-2.155483192271635762e+00
1.999999999999958789e+01,3.000000005040281970e+00,9.999999999998157918e+00,6.599999999995248556e-01,1.570000000000736806e+00,2.869999999999986358e+03,-2.174999999999781330e+00,-4.944999999997821583e+00,1.343049057644133093e+01,-2.178608576550176146e+00
1.999999999999965183e+01,3.000000004904561646e+00,1.000000000000193445e+01,6.599999999995836975e-01,1.570000000000638885e+00,2.869999999999985448e+03,-2.174999999999807532e+00,-4.944999999998115570e+00,1.343812401371003240e+01,-2.188769308359737042e+00
1.999999999999987921e+01,3.000000000249897436e+00,9.999999999985879739e+00,6.600000000003447553e-01,1.569999999999433404e+00,2.869999999999989996e+03,-2.175000000000115730e+00,-4.945000000001693152e+00,1.341057320825194488e+01,-2.145966674197117285e+00
1.999999999999883471e+01,3.000000003586045239e+00,9.999999999975877074e+00,6.600000000000568745e-01,1.569999999999935225e+00,2.869999999999999545e+03,-2.174999999999963407e+00,-4.945000000000229434e+00,1.343430756828670880e+01,-2.165193469200018317e+00
1.999999999999884182e+01,3.000000003351538158e+00,9.999999999970778930e+00,6.600000000000398881e-01,1.569999999999974527e+00,2.869999999999999545e+03,-2.174999999999963407e+00,-4.945000000000147722e+00,1.344098432937779286e+01,-2.176187018592431688e+00
1.999999999999909761e+01,3.000000002728761661e+00,1.000000000000187050e+01,6.600000000001414735e-01,1.569999999999831308e+00,2.870000000000001364e+03,-2.174999999999973177e+00,-4.945000000000530527e+00,1.342421240655589720e+01,-2.207278806017795247e+00
2.000000000000007105e+01,2.999999998840118920e+00,9.999999999985247356e+00,6.600000000003367617e-01,1.569999999999439400e+00,2.870000000000001364e+03,-2.175000000000136602e+00,-4.945000000001580354e+00,1.342767595740813746e+01,-2.154077634409988562e+00
1.999999999999999645e+01,2.999999998379475841e+00,9.999999999986131982e+00,6.600000000002992362e-01,1.569999999999503570e+00,2.870000000000000455e+03,-2.175000000000121059e+00,-4.945000000001407159e+00,1.343488711551447956e+01,-2.152312443491952720e+00
2.000000000000040856e+01,3.000000002003289978e+00,9.999999999973796960e+00,6.600000000001290390e-01,1.569999999999768914e+00,2.869999999999992269e+03,-2.175000000000062439e+00,-4.945000000000505658e+00,1.341428175564145064e+01,-2.163565207225383258e+00
1.999999999999992184e+01,3.000000003994805819e+00,9.999999999975504039e+00,6.600000000000612044e-01,1.569999999999903251e+00,2.870000000000002274e+03,-2.175000000000022471e+00,-4.945000000000344897e+00,1.344170052673018922e+01,-2.161981650531930921e+00
1.999999999999967315e+01,3.000000003416117167e+00,9.999999999972748910e+00,6.599999999999452971e-01,1.570000000000110196e+00,2.869999999999999545e+03,-2.174999999999962963e+00,-4.944999999999695639e+00,1.344993995067111747e+01,-2.152633107068811835e+00
1.999999999999895550e+01,3.000000002842918789e+00,1.000000000000873612e+01,6.600000000001612355e-01,1.569999999999821094e+00,2.870000000000000909e+03,-2.174999999999986500e+00,-4.945000000000706386e+00,1.341072773611143987e+01,-2.141367521908579707e+00
1.999999999999877787e+01,3.000000001060910026e+00,1.000000000003591971e+01,6.599999999998855671e-01,1.570000000000198570e+00,2.870000000000002274e+03,-2.174999999999867484e+00,-4.944999999999506457e+00,1.340534729121555912e+01,-2.128906577061389083e+00
1.999999999999917577e+01,2.999999998343083174e+00,1.000000000001769962e+01,6.600000000001049472e-01,1.569999999999820872e+00,2.869999999999999545e+03,-2.174999999999969180e+00,-4.945000000000497664e+00,1.343370962221445275e+01,-2.201674612394882491e+00
1.999999999999924327e+01,2.999999997915011818e+00,1.000000000001660894e+01,6.600000000000113554e-01,1.569999999999957874e+00,2.869999999999994543e+03,-2.174999999999939426e+00,-4.945000000000088214e+00,1.342836619122221364e+01,-2.189430723541041957e+00
1.999999999999942801e+01,2.999999999348374136e+00,1.000000000000120259e+01,6.600000000001853273e-01,1.569999999999675655e+00,2.869999999999997726e+03,-2.175000000000014033e+00,-4.945000000000977280e+00,1.341559711390211795e+01,-2.176391985847216937e+00
1.999999999999894840e+01,2.999999999531028916e+00,1.000000000000998845e+01,6.600000000001273737e-01,1.569999999999819318e+00,2.870000000000002728e+03,-2.174999999999945643e+00,-4.945000000000517204e+00,1.340340453418823863e+01,-2.177423476835770977e+00
1.999999999999872813e+01,3.000000003050017572e+00,1.000000000003494094e+01,6.600000000000447731e-01,1.569999999999989626e+00,2.870000000000000000e+03,-2.174999999999891021e+00,-4.945000000000171703e+00,1.346778546969522061e+01,-2.172938435204951446e+00
1.999999999999851141e+01,3.000000002828635548e+00,1.000000000004126655e+01,6.600000000000671996e-01,1.569999999999966089e+00,2.869999999999999545e+03,-2.174999999999880806e+00,-4.945000000000233875e+00,1.346070972212281447e+01,-2.165458555496558635e+00
1.999999999999895195e+01,2.999999999444701082e+00,1.000000000003588418e+01,6.599999999995685984e-01,1.570000000000648210e+00,2.869999999999996817e+03,-2.174999999999759570e+00,-4.944999999998152873e+00,1.339665181217523227e+01,-2.211771894510723424e+00
1.999999999999963407e+01,2.999999998119562417e+00,1.000000000003125855e+01,6.600000000001837730e-01,1.569999999999758256e+00,2.869999999999994543e+03,-2.175000000000046896e+00,-4.945000000000798757e+00,1.341156211671685483e+01,-2.159630971406563127e+00
2.000000000000083489e+01,2.999999998364785370e+00,9.999999999987050359e+00,6.600000000002785860e-01,1.569999999999516671e+00,2.869999999999994543e+03,-2.175000000000175682e+00,-4.945000000001366303e+00,1.340681869986359409e+01,-2.119940180830668819e+00
1.999999999999981171e+01,3.000000002286473233e+00,9.999999999998987477e+00,6.599999999998878986e-01,1.570000000000224105e+00,2.869999999999998181e+03,-2.174999999999932321e+00,-4.944999999999478923e+00,1.343866603700952211e+01,-2.168816245405873477e+00
1.999999999999998579e+01,3.000000001669565819e+00,9.999999999999399591e+00,6.599999999999746070e-01,1.570000000000084883e+00,2.869999999999999091e+03,-2.174999999999986500e+00,-4.944999999999914131e+00,1.345244769408542851e+01,-2.159378067713404903e+00
2.000000000000000355e+01,3.000000001399674598e+00,9.999999999963669950e+00,6.600000000002228528e-01,1.569999999999644791e+00,2.870000000000001364e+03,-2.175000000000036682e+00,-4.945000000001068763e+00,1.340740207590866362e+01,-2.183527418830781830e+00
1.999999999999931077e+01,3.000000002405615707e+00,9.999999999993130828e+00,6.600000000001363665e-01,1.569999999999840856e+00,2.869999999999993179e+03,-2.175000000000025135e+00,-4.945000000000676188e+00,1.340597374800020347e+01,-2.192525877721386074e+00
1.999999999999983302e+01,2.999999998589573114e+00,9.999999999998884448e+00,6.600000000004779821e-01,1.569999999999240226e+00,2.869999999999992269e+03,-2.175000000000186784e+00,-4.945000000002192309e+00,1.339366879119464571e+01,-2.186041014309923813e+00
2.000000000000031264e+01,2.999999999201786505e+00,9.999999999996674660e+00,6.600000000005181722e-01,1.569999999999206919e+00,2.869999999999992724e+03,-2.175000000000231193e+00,-4.945000000002305995e+00,1.345979616948834412e+01,-2.163982862954284769e+00
2.000000000000017764e+01,2.999999998940463097e+00,1.000000000000219380e+01,6.600000000005497025e-01,1.569999999999178053e+00,2.869999999999994543e+03,-2.175000000000235190e+00,-4.945000000002382379e+00,1.345613978107919451e+01,-2.160552112593615348e+00
2.000000000000023803e+01,2.999999995402020225e+00,9.999999999990260235e+00,6.600000000002608225e-01,1.569999999999600826e+00,2.869999999999991815e+03,-2.175000000000112177e+00,-4.945000000001109619e+00,1.340898881042092405e+01,-2.161017108032736278e+00
2.000000000000057909e+01,2.999999998718141381e+00,9.999999999951391771e+00,6.599999999997999689e-01,1.570000000000278506e+00,2.869999999999984993e+03,-2.174999999999942535e+00,-4.944999999999149409e+00,1.343735778683456772e+01,-2.123727466997686442e+00
2.000000000000067502e+01,3.000000000928006116e+00,9.999999999948981255e+00,6.600000000005318279e-01,1.569999999999093898e+00,2.870000000000000909e+03,-2.175000000000251177e+00,-4.945000000002595542e+00,1.341383832664886988e+01,-2.150566298067597248e+00
1.999999999999886313e+01,3.000000001321737386e+00,9.999999999984968468e+00,6.599999999994570210e-01,1.570000000000814522e+00,2.869999999999996817e+03,-2.174999999999678302e+00,-4.944999999997763851e+00,1.339451500942858786e+01,-2.147419292596902007e+00
2.000000000000018829e+01,2.999999999678946150e+00,9.999999999950116347e+00,6.599999999999360822e-01,1.570000000000040474e+00,2.869999999999994998e+03,-2.174999999999969180e+00,-4.944999999999846629e+00,1.341831335381472101e+01,-2.088407221091076238e+00
2.000000000000147438e+01,2.999999999600578615e+00,9.999999999943568696e+00,6.600000000001498002e-01,1.569999999999682094e+00,2.869999999999992269e+03,-2.175000000000134825e+00,-4.945000000000715268e+00,1.345874201304715001e+01,-2.117909046392595140e+00
2.000000000000153477e+01,2.999999999793915517e+00,9.999999999927283056e+00,6.600000000001819966e-01,1.569999999999642792e+00,2.869999999999990905e+03,-2.175000000000148148e+00,-4.945000000000818297e+00,1.346309848599047676e+01,-2.120536803775328050e+00
1.999999999999987921e+01,2.999999996201202279e+00,1.000000000001300116e+01,6.600000000001045031e-01,1.569999999999781792e+00,2.869999999999993634e+03,-2.175000000000050004e+00,-4.945000000000609575e+00,1.340281397283759723e+01,-2.167006134999522438e+00
