1.999999999999973355e+01,2.999999997539866570e+00,1.000000000003528733e+01,6.599999999999702771e-01,1.570000000000021378e+00,2.870000000000001819e+03,-2.174999999999958522e+00,-4.944999999999907914e+00,1.343362028061632252e+01,-2.227591911410828018e+00
1.999999999999987921e+01,2.999999998162971693e+00,9.999999999958387065e+00,6.599999999999789368e-01,1.570000000000015827e+00,2.869999999999988631e+03,-2.174999999999978506e+00,-4.944999999999851958e+00,1.346340120106574290e+01,-2.190485278276860903e+00
2.000000000000004263e+01,2.999999997992477407e+00,9.999999999974319209e+00,6.600000000000295630e-01,1.569999999999951878e+00,2.869999999999984539e+03,-2.175000000000010925e+00,-4.945000000000077556e+00,1.346348978950934772e+01,-2.221055124794137026e+00
2.000000000000035172e+01,2.999999997724509093e+00,9.999999999977664089e+00,6.600000000000080247e-01,1.569999999999966311e+00,2.869999999999984539e+03,-2.175000000000026912e+00,-4.944999999999965645e+00,1.344418873780720958e+01,-2.141882425034085546e+00
1.999999999999918288e+01,2.999999998825594982e+00,9.999999999965952568e+00,6.599999999999917044e-01,1.570000000000035589e+00,2.870000000000005457e+03,-2.174999999999939870e+00,-4.944999999999942553e+00,1.333953688028056739e+01,-2.448032342460495059e+00
1.999999999999957723e+01,2.999999999633504721e+00,9.999999999979049647e+00,6.599999999999711653e-01,1.570000000000054019e+00,2.870000000000001819e+03,-2.174999999999968292e+00,-4.944999999999873275e+00,1.332690465214145981e+01,-2.353605602644553763e+00
1.999999999999906919e+01,2.999999998034546422e+00,9.999999999967863928e+00,6.599999999999992539e-01,1.570000000000041807e+00,2.869999999999997726e+03,-2.174999999999941647e+00,-4.944999999999933671e+00,1.344404214545796528e+01,-2.167444111284583030e+00
1.999999999999911537e+01,2.999999998012455205e+00,9.999999999964156672e+00,6.599999999999980327e-01,1.570000000000049134e+00,2.869999999999998181e+03,-2.174999999999945199e+00,-4.944999999999909690e+00,1.343923613352111168e+01,-2.182530019799588938e+00
1.999999999999886668e+01,2.999999999433686781e+00,9.999999999975523579e+00,6.599999999999970335e-01,1.570000000000055129e+00,2.869999999999992269e+03,-2.174999999999934985e+00,-4.944999999999888374e+00,1.349454425886563058e+01,-2.179937603243876865e+00
1.999999999999839062e+01,2.999999999421425034e+00,1.000000000001938716e+01,6.599999999999937028e-01,1.570000000000067564e+00,2.870000000000002728e+03,-2.174999999999882139e+00,-4.944999999999843965e+00,1.341718204718469387e+01,-2.226342754349367681e+00
1.999999999999843325e+01,2.999999999507520165e+00,1.000000000001097966e+01,6.599999999999818234e-01,1.570000000000084661e+00,2.870000000000001819e+03,-2.174999999999883027e+00,-4.944999999999802220e+00,1.342736527813401004e+01,-2.207711551803918315e+00
1.999999999999861089e+01,2.999999998246257515e+00,1.000000000002564704e+01,6.600000000000353362e-01,1.570000000000027152e+00,2.870000000000000909e+03,-2.174999999999919886e+00,-4.944999999999945217e+00,1.346195198657869341e+01,-2.283976117958644192e+00
1.999999999999898392e+01,2.999999998065514095e+00,9.999999999997539746e+00,6.599999999999958122e-01,1.570000000000020712e+00,2.870000000000001819e+03,-2.174999999999903011e+00,-4.945000000000046469e+00,1.332522644553366575e+01,-2.438504443606452909e+00
1.999999999999936051e+01,2.999999997991297018e+00,1.000000000000897415e+01,6.600000000000587619e-01,1.569999999999945217e+00,2.870000000000000455e+03,-2.174999999999964295e+00,-4.945000000000203677e+00,1.332589636742209827e+01,-2.363533294147991626e+00
1.999999999999985079e+01,2.999999997010229791e+00,9.999999999996157740e+00,6.600000000000481037e-01,1.569999999999915241e+00,2.870000000000003638e+03,-2.174999999999994937e+00,-4.945000000000242757e+00,1.367193429020396600e+01,-2.566121823762751664e+00
1.999999999999991118e+01,2.999999996876916430e+00,1.000000000000110489e+01,6.600000000000468825e-01,1.569999999999915907e+00,2.870000000000000000e+03,-2.175000000000000266e+00,-4.945000000000244533e+00,1.366931556618788690e+01,-2.555918658159906265e+00
1.999999999999979750e+01,3.000000000255098609e+00,9.999999999987171151e+00,6.600000000000053602e-01,1.570000000000024265e+00,2.869999999999995453e+03,-2.174999999999990941e+00,-4.944999999999967422e+00,1.350910237340475462e+01,-2.220539308697540903e+00
1.999999999999988987e+01,2.999999998207416585e+00,9.999999999992274624e+00,6.600000000000307843e-01,1.569999999999955875e+00,2.869999999999992269e+03,-2.174999999999998490e+00,-4.945000000000150386e+00,1.347373883763113156e+01,-2.143687412542199855e+00
2.000000000000007105e+01,3.000000000005698997e+00,1.000000000003125322e+01,6.599999999999712763e-01,1.570000000000024043e+00,2.869999999999988177e+03,-2.174999999999979394e+00,-4.944999999999911466e+00,1.344802527249629343e+01,-2.161778629462960843e+00
1.999999999999932854e+01,2.999999999353414548e+00,1.000000000001067058e+01,6.599999999999374145e-01,1.570000000000070672e+00,2.869999999999994543e+03,-2.174999999999929212e+00,-4.944999999999754259e+00,1.348787002229028431e+01,-2.235191885854951543e+00
1.999999999999884892e+01,3.000000000545272272e+00,9.999999999987334576e+00,6.600000000000048050e-01,1.570000000000039586e+00,2.870000000000000909e+03,-2.174999999999922551e+00,-4.944999999999898144e+00,1.353609328618370888e+01,-2.275094437193935892e+00
1.999999999999859313e+01,2.999999999238977644e+00,1.000000000000130740e+01,6.599999999999056621e-01,1.570000000000147944e+00,2.870000000000000000e+03,-2.174999999999853717e+00,-4.944999999999541984e+00,1.356037069215066815e+01,-2.315903256208309724e+00
1.999999999999964828e+01,3.000000001020413531e+00,9.999999999983444354e+00,6.599999999999905942e-01,1.570000000000059348e+00,2.869999999999996362e+03,-2.174999999999990052e+00,-4.944999999999851958e+00,1.355235266846160869e+01,-2.247477790982058909e+00
1.999999999999921840e+01,3.000000001157184570e+00,9.999999999991358024e+00,6.599999999999484057e-01,1.570000000000112861e+00,2.869999999999994088e+03,-2.174999999999938982e+00,-4.944999999999767581e+00,1.352200525153623367e+01,-2.259936098847930896e+00
1.999999999999931433e+01,3.000000001985762221e+00,9.999999999998284039e+00,6.600000000000083578e-01,1.570000000000037588e+00,2.869999999999993634e+03,-2.174999999999975842e+00,-4.944999999999978968e+00,1.356307611693552317e+01,-2.225469103772534485e+00
1.999999999999987566e+01,2.999999998926907274e+00,9.999999999988503419e+00,6.600000000000282308e-01,1.569999999999949658e+00,2.869999999999984084e+03,-2.175000000000007816e+00,-4.945000000000230322e+00,1.366171204918785342e+01,-2.455370589553822480e+00
1.999999999999966604e+01,2.999999998857859840e+00,9.999999999969743314e+00,6.600000000000284528e-01,1.569999999999956319e+00,2.869999999999985448e+03,-2.174999999999990052e+00,-4.945000000000215223e+00,1.377051429517261738e+01,-2.444211503240313554e+00
1.999999999999988631e+01,2.999999997195597512e+00,9.999999999979911181e+00,6.600000000000437739e-01,1.569999999999923901e+00,2.869999999999985903e+03,-2.175000000000011369e+00,-4.945000000000297824e+00,1.375373261238335765e+01,-2.457054149423662626e+00
2.000000000000010303e+01,2.999999996002654434e+00,9.999999999979696241e+00,6.600000000000006972e-01,1.570000000000012941e+00,2.869999999999984993e+03,-2.175000000000006484e+00,-4.944999999999978080e+00,1.355283883390312916e+01,-2.286286133240793550e+00
2.000000000000032330e+01,2.999999995728696245e+00,9.999999999982858156e+00,6.600000000000386668e-01,1.569999999999960316e+00,2.869999999999980901e+03,-2.175000000000042899e+00,-4.945000000000137952e+00,1.351496012329216256e+01,-2.340215351915125197e+00
1.999999999999998934e+01,2.999999996683483161e+00,9.999999999985138999e+00,6.600000000000023626e-01,1.570000000000019824e+00,2.869999999999984993e+03,-2.175000000000002043e+00,-4.944999999999989626e+00,1.358414942901836930e+01,-2.305642918785357764e+00
2.000000000000065725e+01,2.999999996355489529e+00,1.000000000000158096e+01,6.600000000000026956e-01,1.570000000000000950e+00,2.869999999999992269e+03,-2.175000000000041123e+00,-4.944999999999990514e+00,1.337598454460142428e+01,-2.399088066807000708e+00
2.000000000000015632e+01,2.999999998295695747e+00,9.999999999999101163e+00,6.600000000000867395e-01,1.569999999999903917e+00,2.869999999999991815e+03,-2.175000000000042899e+00,-4.945000000000335127e+00,1.342328847133311776e+01,-2.418676454160939571e+00
2.000000000000020961e+01,2.999999997803066254e+00,9.999999999999356959e+00,6.600000000000841860e-01,1.569999999999911466e+00,2.869999999999990905e+03,-2.175000000000049560e+00,-4.945000000000319140e+00,1.342962735651980566e+01,-2.418717212756447132e+00
1.999999999999979039e+01,2.999999996013980041e+00,9.999999999970878406e+00,6.600000000000686429e-01,1.569999999999932561e+00,2.869999999999992724e+03,-2.175000000000028688e+00,-4.945000000000223217e+00,1.339665255578359826e+01,-2.447838678029157222e+00
1.999999999999931433e+01,2.999999995697286703e+00,9.999999999977323029e+00,6.600000000000162403e-01,1.570000000000005613e+00,2.869999999999994088e+03,-2.174999999999967404e+00,-4.945000000000058016e+00,1.338596304863509978e+01,-2.428169123992784950e+00
1.999999999999982236e+01,2.999999997186791223e+00,9.999999999973454123e+00,6.600000000000062483e-01,1.570000000000008278e+00,2.869999999999997272e+03,-2.174999999999993605e+00,-4.945000000000007390e+00,1.339675621588974685e+01,-2.449250415700463090e+00
1.999999999999971934e+01,2.999999998054715178e+00,9.999999999981664445e+00,6.600000000000155742e-01,1.569999999999996954e+00,2.869999999999999091e+03,-2.174999999999989608e+00,-4.945000000000056239e+00,1.339621393891016154e+01,-2.426006327288328102e+00
1.999999999999943157e+01,2.999999998928790212e+00,1.000000000001351275e+01,6.600000000000338929e-01,1.569999999999978746e+00,2.870000000000004093e+03,-2.174999999999973621e+00,-4.945000000000121076e+00,1.340295362940726953e+01,-2.207111282667340912e+00
1.999999999999952038e+01,2.999999998200948426e+00,1.000000000001376854e+01,6.600000000000475486e-01,1.569999999999955209e+00,2.870000000000002274e+03,-2.174999999999985612e+00,-4.945000000000188578e+00,1.340035002589395852e+01,-2.205708950327292417e+00
1.999999999999909051e+01,3.000000000273522982e+00,9.999999999974095388e+00,6.600000000000197931e-01,1.570000000000004947e+00,2.870000000000009550e+03,-2.174999999999950973e+00,-4.944999999999997620e+00,1.346571776064336134e+01,-2.428048140419383216e+00
1.999999999999891287e+01,3.000000000864694982e+00,9.999999999977928766e+00,6.599999999999955902e-01,1.570000000000039808e+00,2.870000000000009550e+03,-2.174999999999926992e+00,-4.944999999999909690e+00,1.344868744776360892e+01,-2.421437827968543122e+00
2.000000000000036948e+01,3.000000000289473778e+00,9.999999999996679989e+00,6.600000000000194600e-01,1.569999999999934781e+00,2.869999999999995453e+03,-2.175000000000025580e+00,-4.945000000000169038e+00,1.347098221597082990e+01,-2.258890963672512520e+00
2.000000000000065015e+01,3.000000000013495871e+00,9.999999999978909315e+00,6.599999999999934808e-01,1.569999999999974971e+00,2.869999999999979082e+03,-2.175000000000018918e+00,-4.945000000000042029e+00,1.343957881479698635e+01,-2.460418632043187337e+00
2.000000000000068212e+01,3.000000000568654013e+00,9.999999999971270981e+00,6.599999999999957012e-01,1.569999999999974749e+00,2.869999999999979536e+03,-2.175000000000024247e+00,-4.945000000000058016e+00,1.342105221388815295e+01,-2.440995079183732042e+00
1.999999999999945288e+01,3.000000006432601118e+00,1.000000000000878586e+01,6.600000000000081357e-01,1.570000000000022933e+00,2.869999999999999091e+03,-2.174999999999974953e+00,-4.945000000000035811e+00,1.336633489540702868e+01,-2.159757843482734252e+00
1.999999999999958078e+01,3.000000003826060802e+00,9.999999999994784616e+00,6.600000000000224576e-01,1.569999999999981410e+00,2.870000000000000455e+03,-2.174999999999984723e+00,-4.945000000000028706e+00,1.345130987331810601e+01,-2.139762643648028373e+00
1.999999999999997158e+01,3.000000003750692645e+00,9.999999999990285104e+00,6.600000000000370015e-01,1.569999999999919904e+00,2.870000000000000000e+03,-2.175000000000002043e+00,-4.945000000000230322e+00,1.338987422215880230e+01,-2.268996692793511460e+00
1.999999999999988987e+01,3.000000003760293854e+00,9.999999999986405541e+00,6.600000000000120215e-01,1.569999999999954321e+00,2.869999999999998636e+03,-2.174999999999984723e+00,-4.945000000000144169e+00,1.337273429780542955e+01,-2.247964248646864505e+00
2.000000000000030553e+01,3.000000001356720070e+00,1.000000000002458656e+01,6.599999999999824896e-01,1.570000000000034923e+00,2.869999999999979536e+03,-2.175000000000019806e+00,-4.944999999999912355e+00,1.349763499106809128e+01,-2.207341672472344030e+00
1.999999999999960565e+01,3.000000001158434682e+00,1.000000000004423661e+01,6.600000000000030287e-01,1.570000000000039142e+00,2.869999999999984539e+03,-2.174999999999984279e+00,-4.944999999999946994e+00,1.342212213371261775e+01,-2.214421958100419197e+00
1.999999999999951683e+01,3.000000002141128608e+00,1.000000000004696865e+01,6.599999999999874856e-01,1.570000000000065343e+00,2.869999999999985448e+03,-2.174999999999973177e+00,-4.944999999999881268e+00,1.341865613186156914e+01,-2.195823102894418177e+00
1.999999999999967670e+01,3.000000002226767215e+00,1.000000000003624301e+01,6.600000000000350031e-01,1.569999999999947882e+00,2.870000000000000000e+03,-2.174999999999983391e+00,-4.945000000000216112e+00,1.338486330534441038e+01,-2.164375912044438355e+00
1.999999999999933209e+01,3.000000003165605111e+00,1.000000000000340172e+01,6.600000000000195710e-01,1.569999999999972751e+00,2.870000000000006821e+03,-2.174999999999943867e+00,-4.945000000000152163e+00,1.337509293135127031e+01,-2.099589957878920554e+00
2.000000000000007105e+01,3.000000004270793497e+00,9.999999999959754859e+00,6.600000000000065814e-01,1.569999999999989848e+00,2.869999999999999091e+03,-2.175000000000000711e+00,-4.945000000000002949e+00,1.352617454327168467e+01,-2.260278527202054466e+00
1.999999999999986855e+01,3.000000004257181718e+00,9.999999999959642949e+00,6.600000000000005862e-01,1.569999999999990958e+00,2.870000000000000000e+03,-2.174999999999979394e+00,-4.945000000000021600e+00,1.352381432755890422e+01,-2.281177922603137009e+00
2.000000000000004974e+01,3.000000001981029119e+00,9.999999999999912959e+00,6.599999999999558442e-01,1.570000000000056017e+00,2.870000000000000000e+03,-2.174999999999973621e+00,-4.944999999999831530e+00,1.349979004945496897e+01,-2.251051250272356086e+00
1.999999999999961631e+01,3.000000002481597150e+00,9.999999999999149125e+00,6.599999999999888178e-01,1.570000000000037366e+00,2.870000000000006821e+03,-2.174999999999965627e+00,-4.944999999999920348e+00,1.358024520813647307e+01,-2.289792344952692904e+00
1.999999999999994671e+01,3.000000001638039926e+00,9.999999999995612399e+00,6.599999999999915934e-01,1.570000000000019602e+00,2.870000000000002274e+03,-2.174999999999990496e+00,-4.944999999999965645e+00,1.352275555592804324e+01,-2.231993789192582955e+00
1.999999999999973710e+01,3.000000000862152127e+00,1.000000000001904965e+01,6.599999999999952571e-01,1.570000000000046692e+00,2.870000000000000909e+03,-2.174999999999993161e+00,-4.944999999999862617e+00,1.344023224263550098e+01,-2.272670680554974343e+00
2.000000000000017764e+01,3.000000003657644410e+00,1.000000000001234746e+01,6.599999999999379696e-01,1.570000000000081553e+00,2.869999999999997726e+03,-2.174999999999988276e+00,-4.944999999999698304e+00,1.345031391611656346e+01,-2.197857978238110022e+00
1.999999999999955236e+01,3.000000000615082651e+00,9.999999999989267252e+00,6.599999999999301981e-01,1.570000000000103535e+00,2.869999999999996817e+03,-2.174999999999943423e+00,-4.944999999999666329e+00,1.352397492022274328e+01,-2.257466544880753823e+00
1.999999999999959499e+01,3.000000001205113342e+00,9.999999999989402255e+00,6.599999999998916733e-01,1.570000000000166818e+00,2.869999999999999545e+03,-2.174999999999932321e+00,-4.944999999999487805e+00,1.352202544311384536e+01,-2.303599636218724989e+00
1.999999999999923972e+01,3.000000003622907307e+00,9.999999999973862685e+00,6.599999999999431877e-01,1.570000000000079110e+00,2.870000000000002728e+03,-2.174999999999915890e+00,-4.944999999999804885e+00,1.352349403430368646e+01,-2.298164112990411567e+00
1.999999999999903366e+01,3.000000003940921367e+00,9.999999999987439381e+00,6.599999999999388578e-01,1.570000000000099094e+00,2.870000000000003638e+03,-2.174999999999897238e+00,-4.944999999999771134e+00,1.354367648491070142e+01,-2.300063692095799972e+00
2.000000000000021672e+01,2.999999999925198502e+00,9.999999999995299760e+00,6.600000000000283418e-01,1.569999999999958318e+00,2.869999999999989996e+03,-2.175000000000046896e+00,-4.945000000000188578e+00,1.348427816919516964e+01,-2.211830035492086122e+00
2.000000000000035882e+01,3.000000000859019078e+00,9.999999999985048404e+00,6.600000000000449951e-01,1.569999999999928342e+00,2.869999999999989086e+03,-2.175000000000063771e+00,-4.945000000000289830e+00,1.347921523989224468e+01,-2.207175771309921597e+00
2.000000000000016342e+01,2.999999999352902513e+00,1.000000000000580158e+01,6.600000000000155742e-01,1.569999999999989404e+00,2.869999999999994088e+03,-2.175000000000038014e+00,-4.945000000000129070e+00,1.345263871336431549e+01,-2.235070863753476633e+00
1.999999999999983302e+01,2.999999998023726633e+00,9.999999999981598720e+00,6.600000000000031397e-01,1.570000000000003393e+00,2.870000000000001364e+03,-2.174999999999986944e+00,-4.945000000000049134e+00,1.341248928179273037e+01,-2.229495564404342822e+00
1.999999999999968381e+01,2.999999997371726401e+00,9.999999999983868904e+00,6.599999999999912603e-01,1.570000000000020268e+00,2.870000000000002728e+03,-2.174999999999968736e+00,-4.945000000000009166e+00,1.339703249926221673e+01,-2.228151596847539384e+00
1.999999999999948486e+01,3.000000004023138711e+00,1.000000000000266631e+01,6.599999999999368594e-01,1.570000000000104201e+00,2.870000000000001364e+03,-2.174999999999938982e+00,-4.944999999999639684e+00,1.347633119240565591e+01,-2.298786826250524218e+00
1.999999999999931788e+01,3.000000003579024188e+00,1.000000000001154632e+01,6.599999999999429656e-01,1.570000000000098206e+00,2.870000000000003638e+03,-2.174999999999929212e+00,-4.944999999999680540e+00,1.347266333633253588e+01,-2.318043527222041433e+00
2.000000000000008527e+01,2.999999998905860110e+00,9.999999999977301712e+00,6.600000000000796341e-01,1.569999999999867502e+00,2.869999999999999545e+03,-2.175000000000029576e+00,-4.945000000000450591e+00,1.349853401720194945e+01,-2.234905418969471036e+00
1.999999999999984368e+01,2.999999997875218316e+00,9.999999999988373744e+00,6.600000000000640910e-01,1.569999999999914797e+00,2.869999999999997726e+03,-2.175000000000016254e+00,-4.945000000000333351e+00,1.349389394886230775e+01,-2.269172854021320518e+00
1.999999999999992184e+01,3.000000000626877217e+00,9.999999999962842168e+00,6.600000000000323386e-01,1.569999999999977414e+00,2.869999999999997726e+03,-2.175000000000018918e+00,-4.945000000000151275e+00,1.340956807220215552e+01,-2.416525827586010866e+00
1.999999999999980105e+01,2.999999999129750794e+00,9.999999999975115017e+00,6.600000000000316724e-01,1.569999999999980300e+00,2.869999999999998636e+03,-2.175000000000008260e+00,-4.945000000000139728e+00,1.339221173484128613e+01,-2.421085400463820925e+00
1.999999999999982947e+01,3.000000000565930858e+00,9.999999999954308549e+00,6.600000000000175726e-01,1.570000000000006946e+00,2.869999999999998636e+03,-2.175000000000011369e+00,-4.945000000000066009e+00,1.341080195259914376e+01,-2.511123084162653729e+00
1.999999999999920064e+01,3.000000001986336429e+00,9.999999999998227196e+00,6.599999999999918154e-01,1.570000000000065343e+00,2.869999999999995453e+03,-2.174999999999957190e+00,-4.944999999999931006e+00,1.339781436538929427e+01,-2.155224982019085633e+00
1.999999999999939959e+01,3.000000001372860048e+00,1.000000000000472156e+01,6.599999999999707212e-01,1.570000000000073781e+00,2.869999999999993634e+03,-2.174999999999951417e+00,-4.944999999999843077e+00,1.347863300369343520e+01,-2.161653897975793104e+00
1.999999999999966960e+01,3.000000003013429506e+00,9.999999999974685139e+00,6.600000000000317835e-01,1.569999999999959428e+00,2.869999999999991815e+03,-2.174999999999977618e+00,-4.945000000000163709e+00,1.339372482749072013e+01,-2.234149671878268517e+00
1.999999999999955591e+01,3.000000003488167089e+00,9.999999999976141751e+00,6.600000000000133538e-01,1.569999999999990736e+00,2.869999999999992269e+03,-2.174999999999964295e+00,-4.945000000000094431e+00,1.341841531422766742e+01,-2.241727204402506501e+00
2.000000000000039080e+01,3.000000002972580848e+00,9.999999999998218314e+00,6.599999999999884848e-01,1.570000000000009832e+00,2.869999999999998636e+03,-2.175000000000009592e+00,-4.944999999999892815e+00,1.356998194635448485e+01,-2.295650781142418495e+00
2.000000000000022737e+01,3.000000001953405881e+00,9.999999999992862598e+00,6.600000000000038058e-01,1.570000000000008500e+00,2.869999999999999091e+03,-2.175000000000017142e+00,-4.944999999999948770e+00,1.356022167681798329e+01,-2.296507105338753352e+00
2.000000000000041567e+01,3.000000001789894011e+00,1.000000000000207478e+01,6.599999999999817124e-01,1.570000000000042251e+00,2.869999999999994088e+03,-2.175000000000021583e+00,-4.944999999999842188e+00,1.362560113385321792e+01,-2.337998145906545755e+00
2.000000000000035882e+01,2.999999999144593588e+00,9.999999999975017317e+00,6.600000000000052491e-01,1.569999999999993623e+00,2.869999999999997272e+03,-2.175000000000025135e+00,-4.944999999999915907e+00,1.358353433589911496e+01,-2.326949246374401259e+00
2.000000000000068923e+01,2.999999999078216906e+00,9.999999999981948662e+00,6.600000000000155742e-01,1.569999999999965423e+00,2.869999999999991360e+03,-2.175000000000051337e+00,-4.944999999999957652e+00,1.356420743350331115e+01,-2.326214180720437064e+00
2.000000000000034817e+01,3.000000001018685580e+00,9.999999999971612041e+00,6.599999999999826006e-01,1.570000000000022933e+00,2.869999999999992269e+03,-2.175000000000015810e+00,-4.944999999999875051e+00,1.354583941287430271e+01,-2.308455363221789458e+00
1.999999999999953815e+01,3.000000002499848772e+00,1.000000000002925304e+01,6.600000000000300071e-01,1.569999999999977414e+00,2.870000000000002728e+03,-2.174999999999974509e+00,-4.945000000000075779e+00,1.341156494754708994e+01,-2.247372237603133538e+00
1.999999999999952749e+01,3.000000002947662558e+00,1.000000000002484768e+01,6.599999999999988098e-01,1.570000000000016049e+00,2.869999999999997726e+03,-2.174999999999961187e+00,-4.944999999999984297e+00,1.341152681435690575e+01,-2.203326326788630496e+00
1.999999999999937828e+01,2.999999997605758306e+00,1.000000000003747047e+01,6.600000000000019185e-01,1.570000000000006501e+00,2.870000000000000000e+03,-2.174999999999954081e+00,-4.945000000000001172e+00,1.341456707401076898e+01,-2.474520531963953385e+00
1.999999999999979750e+01,2.999999997784683181e+00,1.000000000001566747e+01,6.599999999999818234e-01,1.570000000000022933e+00,2.869999999999997272e+03,-2.174999999999976730e+00,-4.944999999999918572e+00,1.342505062569105867e+01,-2.479676116895352500e+00
1.999999999999917932e+01,2.999999999992111643e+00,1.000000000005419132e+01,6.600000000000135758e-01,1.570000000000000284e+00,2.869999999999992269e+03,-2.174999999999953193e+00,-4.945000000000043805e+00,1.327930306773756541e+01,-2.319520500053077861e+00
1.999999999999928590e+01,3.000000000049933391e+00,1.000000000004901857e+01,6.600000000000316724e-01,1.569999999999970086e+00,2.869999999999989996e+03,-2.174999999999966516e+00,-4.945000000000134399e+00,1.326637442195711003e+01,-2.334109563200642778e+00
1.999999999999972644e+01,3.000000005973346706e+00,9.999999999996559197e+00,6.600000000001045031e-01,1.569999999999858842e+00,2.870000000000008185e+03,-2.175000000000027356e+00,-4.945000000000375984e+00,1.372450738608130294e+01,-2.122095213606324027e+00
1.999999999999966604e+01,3.000000005907381251e+00,9.999999999988880006e+00,6.600000000000211253e-01,1.569999999999953211e+00,2.870000000000005912e+03,-2.174999999999971401e+00,-4.945000000000079332e+00,1.368252637683824346e+01,-2.111548462003679738e+00
2.000000000000084910e+01,3.000000002949973155e+00,9.999999999986977528e+00,6.599999999999572875e-01,1.570000000000040030e+00,2.869999999999983174e+03,-2.175000000000042455e+00,-4.944999999999796003e+00,1.357123631134929020e+01,-2.314975067252824203e+00
1.999999999999962697e+01,2.999999996717876094e+00,9.999999999971818099e+00,6.599999999999545119e-01,1.570000000000081997e+00,2.870000000000002274e+03,-2.174999999999961187e+00,-4.944999999999796891e+00,1.352500278749636387e+01,-2.321882601290754078e+00
1.999999999999982592e+01,2.999999996566614868e+00,9.999999999993063327e+00,6.600000000000424416e-01,1.569999999999992069e+00,2.870000000000004093e+03,-2.175000000000017142e+00,-4.945000000000116636e+00,1.347219947993428413e+01,-2.237015854371142698e+00
2.000000000000005684e+01,2.999999998651516897e+00,9.999999999974647835e+00,6.600000000000527667e-01,1.569999999999961204e+00,2.870000000000002274e+03,-2.175000000000025135e+00,-4.945000000000250751e+00,1.349176874717371533e+01,-2.302623038304781211e+00
2.000000000000008171e+01,2.999999997877349944e+00,9.999999999972898124e+00,6.600000000000426637e-01,1.569999999999978080e+00,2.870000000000000455e+03,-2.175000000000023803e+00,-4.945000000000204565e+00,1.350124719363850012e+01,-2.327248110580547813e+00
1.999999999999955236e+01,3.000000001425108032e+00,9.999999999975388576e+00,6.600000000000323386e-01,1.569999999999986962e+00,2.870000000000003638e+03,-2.174999999999985612e+00,-4.945000000000104201e+00,1.356568113643768214e+01,-2.286163566650795342e+00
1.999999999999963052e+01,3.000000001346526890e+00,9.999999999974647835e+00,6.600000000000062483e-01,1.570000000000044249e+00,2.870000000000006366e+03,-2.174999999999992273e+00,-4.944999999999896367e+00,1.354059010506026617e+01,-2.266199239104980112e+00
1.999999999999980815e+01,2.999999998728752004e+00,9.999999999986100008e+00,6.600000000000638689e-01,1.569999999999918128e+00,2.870000000000000909e+03,-2.175000000000003819e+00,-4.945000000000236540e+00,1.353570146216464742e+01,-2.270332165401325764e+00
1.999999999999992895e+01,2.999999998100552290e+00,9.999999999969777065e+00,6.600000000000322276e-01,1.569999999999946105e+00,2.869999999999998181e+03,-2.174999999999994937e+00,-4.945000000000129070e+00,1.360830832951482172e+01,-2.339502034119164353e+00
2.000000000000031974e+01,3.000000003163795448e+00,9.999999999982902565e+00,6.599999999999515143e-01,1.570000000000094431e+00,2.870000000000001819e+03,-2.175000000000024247e+00,-4.944999999999751594e+00,1.341690192764747636e+01,-2.163438991251013466e+00
1.999999999999980815e+01,3.000000001842098474e+00,1.000000000000243716e+01,6.599999999999794920e-01,1.570000000000088880e+00,2.869999999999999091e+03,-2.175000000000013145e+00,-4.944999999999820872e+00,1.343956125939823565e+01,-2.170679077946001012e+00
1.999999999999969802e+01,3.000000002719144465e+00,1.000000000002429168e+01,6.599999999999817124e-01,1.570000000000090878e+00,2.869999999999997272e+03,-2.175000000000001155e+00,-4.944999999999827089e+00,1.342697698425864061e+01,-2.189625746865305977e+00
1.999999999999947775e+01,3.000000003012811778e+00,1.000000000002045475e+01,6.599999999999587308e-01,1.570000000000111751e+00,2.869999999999997272e+03,-2.174999999999970512e+00,-4.944999999999787121e+00,1.343386850441121538e+01,-2.177021349071691425e+00
2.000000000000032330e+01,2.999999999348422541e+00,1.000000000001857181e+01,6.600000000000314504e-01,1.569999999999940554e+00,2.869999999999995907e+03,-2.175000000000038458e+00,-4.945000000000186802e+00,1.373784293796046896e+01,-2.152427870638183638e+00
2.000000000000014211e+01,2.999999997769486004e+00,1.000000000002109957e+01,6.599999999999871525e-01,1.569999999999987850e+00,2.869999999999997726e+03,-2.175000000000004707e+00,-4.945000000000043805e+00,1.373258292294093685e+01,-2.126528947800582436e+00
2.000000000000023093e+01,3.000000002678795408e+00,9.999999999976163068e+00,6.600000000000220135e-01,1.570000000000015827e+00,2.869999999999978627e+03,-2.175000000000045119e+00,-4.945000000000082885e+00,1.328878467510876504e+01,-2.280661270845588451e+00
2.000000000000021672e+01,3.000000003044432706e+00,9.999999999978388843e+00,6.600000000000164624e-01,1.570000000000027596e+00,2.869999999999979536e+03,-2.175000000000043343e+00,-4.945000000000048246e+00,1.331021843114440983e+01,-2.276043163759420285e+00
1.999999999999954881e+01,2.999999999216479640e+00,9.999999999980889953e+00,6.600000000000155742e-01,1.569999999999959428e+00,2.870000000000003638e+03,-2.174999999999960298e+00,-4.945000000000137952e+00,1.325611364113868085e+01,-2.297930185849006879e+00
1.999999999999958078e+01,2.999999999356604885e+00,9.999999999987764454e+00,6.600000000000515454e-01,1.569999999999917462e+00,2.870000000000003638e+03,-2.174999999999981171e+00,-4.945000000000233875e+00,1.327608055160205325e+01,-2.358316109845971287e+00
1.999999999999955946e+01,2.999999999536306028e+00,1.000000000000019895e+01,6.600000000000419975e-01,1.569999999999931450e+00,2.870000000000002274e+03,-2.174999999999976286e+00,-4.945000000000181473e+00,1.328079218234992709e+01,-2.357316019445473643e+00
1.999999999999924327e+01,3.000000000205706119e+00,9.999999999996777689e+00,6.599999999999798250e-01,1.570000000000048246e+00,2.870000000000000455e+03,-2.174999999999942091e+00,-4.944999999999944329e+00,1.360808511380838226e+01,-2.327345754588140636e+00
1.999999999999900524e+01,3.000000000431327862e+00,1.000000000000071587e+01,6.600000000000101341e-01,1.570000000000006946e+00,2.869999999999996817e+03,-2.174999999999934985e+00,-4.945000000000081997e+00,1.362444858062110420e+01,-2.395061674849399580e+00
1.999999999999890576e+01,2.999999999889326752e+00,9.999999999991239008e+00,6.599999999999838218e-01,1.570000000000038476e+00,2.869999999999996817e+03,-2.174999999999915001e+00,-4.944999999999990514e+00,1.362091939198909429e+01,-2.384008764022054194e+00
1.999999999999881339e+01,3.000000000942983913e+00,9.999999999997351452e+00,6.600000000000323386e-01,1.569999999999987184e+00,2.870000000000002728e+03,-2.174999999999931433e+00,-4.945000000000146834e+00,1.359195304024646944e+01,-2.288640240619744137e+00
2.000000000000006750e+01,3.000000001530374938e+00,9.999999999999261036e+00,6.599999999999677236e-01,1.570000000000048468e+00,2.869999999999995907e+03,-2.174999999999988276e+00,-4.944999999999891038e+00,1.337666570029389312e+01,-2.302041638041574689e+00
1.999999999999989342e+01,3.000000001318840592e+00,9.999999999993514521e+00,6.599999999999529576e-01,1.570000000000069562e+00,2.870000000000000000e+03,-2.174999999999968292e+00,-4.944999999999832418e+00,1.334137363496408391e+01,-2.293719059894471446e+00
1.999999999999973355e+01,3.000000001694948182e+00,1.000000000001030465e+01,6.599999999999625055e-01,1.570000000000065343e+00,2.869999999999998636e+03,-2.174999999999962075e+00,-4.944999999999842188e+00,1.334610307357882952e+01,-2.240475874185424487e+00
1.999999999999973710e+01,3.000000001244557790e+00,1.000000000000635225e+01,6.599999999999736078e-01,1.570000000000058460e+00,2.870000000000001819e+03,-2.174999999999968292e+00,-4.944999999999869722e+00,1.334838731022812475e+01,-2.251643823961681612e+00
2.000000000000004619e+01,3.000000001916071302e+00,1.000000000000089351e+01,6.600000000000268985e-01,1.569999999999977192e+00,2.869999999999994543e+03,-2.175000000000014477e+00,-4.945000000000042029e+00,1.343303111152656548e+01,-2.403770522985857916e+00
2.000000000000016342e+01,3.000000001638766900e+00,1.000000000000119549e+01,6.600000000000456613e-01,1.569999999999959650e+00,2.869999999999994088e+03,-2.175000000000035794e+00,-4.945000000000109530e+00,1.342357010576336407e+01,-2.389989651246923419e+00
1.999999999999933920e+01,3.000000000707223169e+00,1.000000000003412559e+01,6.599999999999796030e-01,1.570000000000067786e+00,2.869999999999996817e+03,-2.174999999999953637e+00,-4.944999999999815543e+00,1.348688079837172182e+01,-2.241277420427171041e+00
1.999999999999995737e+01,3.000000004460904091e+00,9.999999999996235900e+00,6.599999999999889289e-01,1.570000000000023155e+00,2.869999999999996817e+03,-2.174999999999999822e+00,-4.944999999999962981e+00,1.352696498820600546e+01,-2.305284150606114579e+00
2.000000000000008171e+01,3.000000004119800057e+00,9.999999999997836397e+00,6.600000000000179057e-01,1.569999999999980744e+00,2.869999999999997272e+03,-2.175000000000021583e+00,-4.945000000000075779e+00,1.351967658265044747e+01,-2.302274064407185517e+00
2.000000000000046896e+01,3.000000004327195935e+00,1.000000000000548894e+01,6.600000000000098010e-01,1.569999999999964757e+00,2.869999999999994088e+03,-2.175000000000036238e+00,-4.945000000000083773e+00,1.350120508078654247e+01,-2.332835103417760347e+00
2.000000000000036948e+01,3.000000004557143107e+00,1.000000000000714984e+01,6.599999999999917044e-01,1.569999999999995399e+00,2.869999999999994998e+03,-2.175000000000023803e+00,-4.945000000000007390e+00,1.349455495471188371e+01,-2.311882304555294532e+00
1.999999999999948130e+01,3.000000002036188107e+00,9.999999999975653253e+00,6.599999999999275335e-01,1.570000000000141505e+00,2.870000000000000909e+03,-2.174999999999938094e+00,-4.944999999999623697e+00,1.355313108657327170e+01,-2.286544147119242698e+00
1.999999999999923972e+01,3.000000002329769266e+00,9.999999999977037035e+00,6.599999999999700551e-01,1.570000000000097540e+00,2.869999999999998636e+03,-2.174999999999938538e+00,-4.944999999999794227e+00,1.360041367950348246e+01,-2.350487331705400695e+00
1.999999999999934985e+01,3.000000001556822227e+00,9.999999999983669952e+00,6.599999999999462963e-01,1.570000000000090434e+00,2.870000000000000455e+03,-2.174999999999938982e+00,-4.944999999999734719e+00,1.351208089514070032e+01,-2.255688570939476278e+00
1.999999999999899458e+01,3.000000002028580415e+00,1.000000000000246025e+01,6.599999999999561773e-01,1.570000000000094653e+00,2.870000000000012733e+03,-2.174999999999907896e+00,-4.944999999999713403e+00,1.349312747489899955e+01,-2.232444724039999606e+00
1.999999999999996447e+01,3.000000002276519862e+00,9.999999999967947417e+00,6.599999999999399680e-01,1.570000000000093543e+00,2.869999999999996362e+03,-2.174999999999983835e+00,-4.944999999999721396e+00,1.346289148526257762e+01,-2.151751247587286642e+00
1.999999999999953104e+01,3.000000002711871172e+00,9.999999999953516294e+00,6.599999999999932587e-01,1.570000000000050466e+00,2.870000000000006366e+03,-2.174999999999983391e+00,-4.944999999999900808e+00,1.346970907504161730e+01,-2.216809146535662300e+00
1.999999999999946354e+01,3.000000000171371362e+00,9.999999999953610441e+00,6.599999999999774936e-01,1.570000000000053353e+00,2.870000000000004547e+03,-2.174999999999972289e+00,-4.944999999999905249e+00,1.339798192720521364e+01,-2.243692284218098187e+00
1.999999999999954881e+01,3.000000000457666349e+00,9.999999999963010922e+00,6.599999999999860423e-01,1.570000000000043583e+00,2.870000000000000909e+03,-2.174999999999980727e+00,-4.944999999999927454e+00,1.337443028569083836e+01,-2.258246226192292205e+00
1.999999999999990408e+01,3.000000000094228625e+00,1.000000000001387690e+01,6.599999999999707212e-01,1.570000000000023821e+00,2.870000000000001819e+03,-2.174999999999961187e+00,-4.944999999999956763e+00,1.334852430799494627e+01,-2.134140799517462828e+00
1.999999999999993605e+01,3.000000000332901706e+00,1.000000000000710720e+01,6.599999999999600631e-01,1.570000000000038698e+00,2.870000000000002274e+03,-2.174999999999958078e+00,-4.944999999999899920e+00,1.336772628053891587e+01,-2.135533448578434079e+00
2.000000000000036948e+01,2.999999999881431734e+00,9.999999999995919708e+00,6.599999999999720535e-01,1.570000000000025819e+00,2.869999999999995907e+03,-2.175000000000003819e+00,-4.944999999999891038e+00,1.355522944885257708e+01,-2.298789007561286013e+00
2.000000000000050093e+01,3.000000000482108131e+00,1.000000000000460432e+01,6.599999999999811573e-01,1.570000000000006501e+00,2.870000000000000000e+03,-2.175000000000010481e+00,-4.944999999999917684e+00,1.351999205061682652e+01,-2.234513977557418318e+00
2.000000000000090239e+01,3.000000000418733492e+00,1.000000000000533795e+01,6.599999999999537348e-01,1.569999999999996287e+00,2.869999999999991360e+03,-2.175000000000018474e+00,-4.944999999999880380e+00,1.356008975469109323e+01,-2.288552910148379471e+00
2.000000000000047251e+01,2.999999999952700946e+00,1.000000000002046185e+01,6.600000000000378897e-01,1.569999999999920126e+00,2.869999999999992724e+03,-2.175000000000036238e+00,-4.945000000000166374e+00,1.348346827711987395e+01,-2.250509113869075595e+00
2.000000000000024869e+01,3.000000002662308152e+00,1.000000000000935430e+01,6.600000000000506573e-01,1.569999999999931228e+00,2.869999999999999091e+03,-2.175000000000033573e+00,-4.945000000000258744e+00,1.344897575742710139e+01,-2.193210069966742282e+00
2.000000000000051514e+01,3.000000001745448230e+00,1.000000000001189449e+01,6.600000000000378897e-01,1.569999999999942109e+00,2.869999999999999091e+03,-2.175000000000043787e+00,-4.945000000000189466e+00,1.359453620160802778e+01,-2.277516225471635458e+00
2.000000000000009237e+01,3.000000001008106487e+00,9.999999999932256856e+00,6.599999999999757172e-01,1.570000000000008722e+00,2.869999999999996817e+03,-2.174999999999992717e+00,-4.944999999999960316e+00,1.359694874030206257e+01,-2.288028865465545625e+00
1.999999999999959854e+01,3.000000001483863699e+00,1.000000000000148148e+01,6.599999999999729416e-01,1.570000000000029150e+00,2.870000000000001819e+03,-2.174999999999951417e+00,-4.944999999999958540e+00,1.338526758067083300e+01,-2.241725281230981359e+00
1.999999999999984723e+01,3.000000001478289935e+00,9.999999999998628653e+00,6.600000000000133538e-01,1.569999999999970752e+00,2.870000000000001819e+03,-2.174999999999989164e+00,-4.945000000000113083e+00,1.341943981833358102e+01,-2.268146744208802357e+00
1.999999999999992184e+01,3.000000000303136627e+00,1.000000000000003553e+01,6.600000000000418865e-01,1.569999999999950990e+00,2.869999999999991360e+03,-2.175000000000024247e+00,-4.945000000000154827e+00,1.343606493071753860e+01,-2.270652393659622792e+00
1.999999999999969447e+01,3.000000001000886041e+00,1.000000000002299494e+01,6.600000000000499911e-01,1.569999999999893259e+00,2.869999999999996817e+03,-2.174999999999989164e+00,-4.945000000000256080e+00,1.344370809630736829e+01,-2.185943663420585104e+00
1.999999999999987566e+01,3.000000001080599166e+00,9.999999999988894217e+00,6.599999999999734968e-01,1.570000000000016049e+00,2.869999999999998636e+03,-2.174999999999986056e+00,-4.944999999999997620e+00,1.346138696052059558e+01,-2.182695416536088562e+00
1.999999999999971934e+01,3.000000001537321825e+00,9.999999999993223199e+00,6.600000000000536549e-01,1.569999999999937668e+00,2.870000000000003638e+03,-2.175000000000015365e+00,-4.945000000000262297e+00,1.340168260640885123e+01,-2.200292859070444695e+00
1.999999999999970512e+01,3.000000001302075336e+00,9.999999999991251443e+00,6.600000000000423306e-01,1.569999999999944773e+00,2.870000000000003638e+03,-2.175000000000006928e+00,-4.945000000000228546e+00,1.344624646620435193e+01,-2.181199578593372213e+00
1.999999999999997513e+01,2.999999999516771432e+00,9.999999999983701926e+00,6.600000000000502132e-01,1.569999999999954543e+00,2.869999999999998181e+03,-2.175000000000026468e+00,-4.945000000000159268e+00,1.345234165640324342e+01,-2.215107282854364090e+00
1.999999999999975842e+01,2.999999999632211978e+00,9.999999999985135446e+00,6.600000000000324496e-01,1.569999999999981410e+00,2.870000000000001819e+03,-2.175000000000001599e+00,-4.945000000000086438e+00,1.343134076178824365e+01,-2.207962134909738694e+00
2.000000000000022737e+01,3.000000001122508753e+00,1.000000000002450484e+01,6.600000000000211253e-01,1.569999999999970974e+00,2.869999999999997272e+03,-2.175000000000028244e+00,-4.945000000000064233e+00,1.342647663239803180e+01,-2.248130228351687521e+00
1.999999999999998934e+01,3.000000000765236763e+00,1.000000000003059419e+01,6.599999999999894840e-01,1.570000000000011831e+00,2.869999999999999545e+03,-2.174999999999994937e+00,-4.944999999999943441e+00,1.345264385758734349e+01,-2.213636804533774427e+00
2.000000000000009592e+01,3.000000001661408344e+00,1.000000000003150546e+01,6.600000000000280087e-01,1.569999999999962759e+00,2.869999999999995907e+03,-2.175000000000017586e+00,-4.945000000000097984e+00,1.348081624965133507e+01,-2.260856981403651211e+00
2.000000000000045119e+01,3.000000002289162193e+00,9.999999999986577848e+00,6.600000000000336708e-01,1.569999999999960538e+00,2.869999999999986812e+03,-2.175000000000058886e+00,-4.945000000000220552e+00,1.338903358508274088e+01,-2.177889030679216020e+00
2.000000000000061462e+01,2.999999999315424049e+00,9.999999999928796512e+00,6.599999999999850431e-01,1.569999999999987850e+00,2.869999999999994088e+03,-2.175000000000035794e+00,-4.945000000000009166e+00,1.347401810918569254e+01,-2.219732917606411782e+00
2.000000000000074607e+01,3.000000001345456635e+00,9.999999999927510430e+00,6.599999999999488498e-01,1.570000000000045803e+00,2.869999999999999091e+03,-2.175000000000028688e+00,-4.944999999999803109e+00,1.351573998462440152e+01,-2.259789753419203073e+00
2.000000000000002487e+01,2.999999999832978492e+00,9.999999999934843231e+00,6.599999999999758282e-01,1.570000000000056684e+00,2.869999999999992269e+03,-2.174999999999994937e+00,-4.944999999999818208e+00,1.358471890539250815e+01,-2.280654786663300015e+00
2.000000000000001776e+01,3.000000000020480950e+00,1.000000000000425260e+01,6.600000000000041389e-01,1.569999999999994733e+00,2.870000000000000000e+03,-2.174999999999995381e+00,-4.944999999999957652e+00,1.362014586928435378e+01,-2.080240774468693044e+00
1.999999999999967315e+01,2.999999996446911510e+00,9.999999999979392484e+00,6.599999999999437428e-01,1.570000000000108642e+00,2.870000000000002274e+03,-2.174999999999964295e+00,-4.944999999999695639e+00,1.363025124638785179e+01,-2.032320611422509860e+00
1.999999999999969802e+01,2.999999995154726928e+00,9.999999999989521271e+00,6.599999999999864864e-01,1.570000000000030704e+00,2.870000000000001819e+03,-2.174999999999979394e+00,-4.944999999999897256e+00,1.366477738681418863e+01,-2.096481513649522288e+00
1.999999999999959499e+01,2.999999994740305098e+00,9.999999999975813125e+00,6.599999999999229816e-01,1.570000000000100870e+00,2.870000000000003638e+03,-2.174999999999938982e+00,-4.944999999999690310e+00,1.362973332116250802e+01,-2.046284262605368109e+00
1.999999999999992895e+01,2.999999995760457949e+00,9.999999999967426945e+00,6.600000000000251221e-01,1.569999999999992291e+00,2.869999999999996817e+03,-2.175000000000010925e+00,-4.945000000000074891e+00,1.375684046272331607e+01,-2.162072695611839013e+00
2.000000000000012434e+01,2.999999996088805521e+00,9.999999999975326404e+00,6.600000000000290079e-01,1.569999999999968976e+00,2.869999999999996817e+03,-2.175000000000024247e+00,-4.945000000000112195e+00,1.371880990723721538e+01,-2.147353874102637672e+00
2.000000000000093792e+01,2.999999998740446205e+00,9.999999999947354112e+00,6.599999999999931477e-01,1.569999999999944107e+00,2.869999999999986358e+03,-2.175000000000060663e+00,-4.945000000000122853e+00,1.364180966655105998e+01,-2.021068581214921611e+00
2.000000000000047251e+01,3.000000000969166081e+00,1.000000000002544098e+01,6.600000000000141309e-01,1.569999999999995399e+00,2.869999999999989541e+03,-2.175000000000044231e+00,-4.945000000000045581e+00,1.343268406725358410e+01,-2.118491909853132960e+00
2.000000000000030198e+01,3.000000000673761047e+00,1.000000000002521716e+01,6.599999999999837108e-01,1.570000000000014051e+00,2.869999999999996817e+03,-2.175000000000006928e+00,-4.944999999999923901e+00,1.336870229605512250e+01,-2.215361667352434782e+00
2.000000000000022737e+01,2.999999997350180525e+00,1.000000000000469669e+01,6.599999999999861533e-01,1.570000000000011608e+00,2.869999999999983174e+03,-2.175000000000007372e+00,-4.945000000000013607e+00,1.347636124055583196e+01,-2.191478526336767096e+00
1.999999999999965539e+01,2.999999997168217192e+00,9.999999999991073807e+00,6.599999999999601741e-01,1.570000000000094875e+00,2.870000000000003638e+03,-2.174999999999964739e+00,-4.944999999999788898e+00,1.340171565495895756e+01,-2.413804186252104245e+00
1.999999999999966249e+01,2.999999996948324643e+00,9.999999999995180744e+00,6.599999999999636158e-01,1.570000000000090656e+00,2.870000000000003638e+03,-2.174999999999966516e+00,-4.944999999999796891e+00,1.340176834847690657e+01,-2.419951150962479147e+00
1.999999999999989342e+01,2.999999995338432868e+00,9.999999999983730348e+00,6.599999999999679456e-01,1.570000000000058460e+00,2.870000000000001819e+03,-2.174999999999973621e+00,-4.944999999999851070e+00,1.342397358064120283e+01,-2.456019487346561725e+00
2.000000000000020606e+01,2.999999993135897380e+00,9.999999999992612132e+00,6.599999999999840439e-01,1.570000000000042917e+00,2.869999999999997726e+03,-2.175000000000003375e+00,-4.944999999999890150e+00,1.346519539530713061e+01,-2.548620510100457093e+00
2.000000000000041922e+01,2.999999993628091222e+00,9.999999999989615418e+00,6.600000000000209033e-01,1.569999999999993179e+00,2.869999999999998181e+03,-2.175000000000035350e+00,-4.945000000000027818e+00,1.347914222814977414e+01,-2.540699144599351644e+00
1.999999999999982236e+01,2.999999994837586836e+00,1.000000000001113065e+01,6.599999999999336397e-01,1.570000000000108420e+00,2.870000000000000455e+03,-2.174999999999947864e+00,-4.944999999999609486e+00,1.360200744841833931e+01,-2.539821638362533829e+00
1.999999999999983658e+01,2.999999994948785442e+00,1.000000000001212008e+01,6.599999999999485167e-01,1.570000000000085993e+00,2.870000000000001819e+03,-2.174999999999954081e+00,-4.944999999999667217e+00,1.358529727850523372e+01,-2.511295197095756215e+00
2.000000000000051514e+01,3.000000002663783860e+00,9.999999999999303668e+00,6.600000000000088018e-01,1.569999999999951656e+00,2.869999999999989086e+03,-2.175000000000036682e+00,-4.945000000000105977e+00,1.359596420176463916e+01,-2.305372467543294057e+00
2.000000000000029488e+01,3.000000003323352704e+00,9.999999999999920064e+00,6.600000000000462164e-01,1.569999999999899254e+00,2.869999999999995907e+03,-2.175000000000031353e+00,-4.945000000000272067e+00,1.357031263966928947e+01,-2.275279628939776533e+00
1.999999999999969447e+01,3.000000003958526840e+00,9.999999999968570918e+00,6.599999999999290878e-01,1.570000000000115747e+00,2.869999999999994998e+03,-2.174999999999945643e+00,-4.944999999999724949e+00,1.341784163500812710e+01,-2.177264949477005551e+00
1.999999999999966604e+01,3.000000003051712660e+00,9.999999999953333329e+00,6.599999999999804912e-01,1.570000000000046692e+00,2.869999999999998181e+03,-2.174999999999974065e+00,-4.944999999999936335e+00,1.349906508886422962e+01,-2.226827193088946277e+00
2.000000000000033040e+01,3.000000004169499856e+00,9.999999999953514518e+00,6.599999999999563993e-01,1.570000000000044915e+00,2.869999999999995907e+03,-2.174999999999997158e+00,-4.944999999999857287e+00,1.353805903172692382e+01,-2.226018445824633041e+00
1.999999999999968381e+01,3.000000000843790371e+00,9.999999999967622344e+00,6.599999999999844880e-01,1.570000000000054463e+00,2.869999999999999091e+03,-2.174999999999970512e+00,-4.944999999999943441e+00,1.342026873865332881e+01,-2.209712451132876954e+00
1.999999999999961275e+01,3.000000000824033730e+00,9.999999999962051689e+00,6.599999999999698330e-01,1.570000000000071116e+00,2.869999999999999091e+03,-2.174999999999959854e+00,-4.944999999999904361e+00,1.341736918101671527e+01,-2.192444432682192357e+00
2.000000000000047251e+01,3.000000001524777193e+00,9.999999999986679100e+00,6.600000000000253442e-01,1.569999999999995843e+00,2.869999999999987722e+03,-2.175000000000042011e+00,-4.945000000000021600e+00,1.344527022332577637e+01,-2.250787825041995482e+00
1.999999999999982947e+01,3.000000002242651842e+00,9.999999999980875742e+00,6.599999999999591749e-01,1.570000000000068452e+00,2.870000000000000000e+03,-2.174999999999976286e+00,-4.944999999999768470e+00,1.356748263558807466e+01,-2.283119788570896258e+00
1.999999999999863931e+01,3.000000000449873916e+00,1.000000000004479617e+01,6.600000000000381117e-01,1.569999999999970086e+00,2.870000000000000455e+03,-2.174999999999908784e+00,-4.945000000000193019e+00,1.340917494144347444e+01,-2.477599082934502039e+00
1.999999999999912248e+01,3.000000000185011562e+00,1.000000000003129941e+01,6.600000000000091349e-01,1.569999999999995621e+00,2.870000000000006821e+03,-2.174999999999917222e+00,-4.945000000000047358e+00,1.342311381483648169e+01,-2.389174581710229006e+00
1.999999999999894129e+01,3.000000000063546057e+00,1.000000000004227907e+01,6.599999999999973666e-01,1.570000000000012941e+00,2.870000000000006821e+03,-2.174999999999898126e+00,-4.945000000000016271e+00,1.339354596980610879e+01,-2.360477302066546823e+00
1.999999999999871036e+01,3.000000000249440024e+00,1.000000000003205791e+01,6.600000000000251221e-01,1.570000000000019158e+00,2.870000000000002274e+03,-2.174999999999931877e+00,-4.944999999999996732e+00,1.351979718120866636e+01,-2.308123409774670787e+00
1.999999999999896616e+01,3.000000000341692452e+00,1.000000000003081979e+01,6.600000000000548761e-01,1.569999999999980966e+00,2.870000000000000000e+03,-2.174999999999967848e+00,-4.945000000000114859e+00,1.352575340013916971e+01,-2.295118842974331663e+00
1.999999999999906919e+01,3.000000000803863642e+00,1.000000000004144418e+01,6.599999999999740519e-01,1.570000000000060014e+00,2.870000000000003183e+03,-2.174999999999926548e+00,-4.944999999999819984e+00,1.354558113952495013e+01,-2.262140284056595174e+00
2.000000000000020961e+01,3.000000001028072738e+00,1.000000000002251710e+01,6.599999999999603961e-01,1.570000000000025819e+00,2.869999999999989541e+03,-2.174999999999987388e+00,-4.944999999999907025e+00,1.354799483698201890e+01,-2.250273335169943767e+00
1.999999999999910827e+01,2.999999999723784061e+00,1.000000000003565503e+01,6.600000000000303402e-01,1.570000000000006501e+00,2.870000000000000000e+03,-2.174999999999967404e+00,-4.945000000000129070e+00,1.342980112819813066e+01,-2.169686160967795541e+00
1.999999999999999289e+01,2.999999999082511692e+00,1.000000000002062173e+01,6.600000000000325606e-01,1.569999999999942775e+00,2.870000000000001819e+03,-2.175000000000006928e+00,-4.945000000000160156e+00,1.351565805590601244e+01,-2.240166189210524461e+00
2.000000000000014211e+01,2.999999999702431808e+00,9.999999999985440979e+00,6.600000000000355582e-01,1.569999999999970974e+00,2.869999999999996817e+03,-2.175000000000035794e+00,-4.945000000000100648e+00,1.350688972510124231e+01,-2.240310704456579760e+00
1.999999999999968381e+01,2.999999998293235492e+00,9.999999999992748911e+00,6.600000000000351141e-01,1.569999999999988516e+00,2.869999999999996817e+03,-2.175000000000011369e+00,-4.945000000000115747e+00,1.347576927677033432e+01,-2.209045534477184436e+00
2.000000000000013145e+01,2.999999997658655992e+00,9.999999999991493027e+00,6.600000000000063594e-01,1.570000000000003171e+00,2.869999999999995453e+03,-2.175000000000018918e+00,-4.944999999999981632e+00,1.357424976098017844e+01,-2.292875386719161579e+00
1.999999999999979750e+01,2.999999999647548599e+00,1.000000000006360601e+01,6.599999999999885958e-01,1.569999999999993623e+00,2.869999999999994543e+03,-2.174999999999968736e+00,-4.945000000000016271e+00,1.349063410198565904e+01,-2.323748046690559566e+00
1.999999999999987566e+01,2.999999999115924521e+00,1.000000000006512124e+01,6.599999999999989209e-01,1.569999999999981410e+00,2.869999999999994543e+03,-2.174999999999980282e+00,-4.945000000000046469e+00,1.349134842927689704e+01,-2.321394680150076439e+00
2.000000000000034106e+01,3.000000000919326837e+00,1.000000000003712941e+01,6.600000000000326716e-01,1.569999999999898588e+00,2.869999999999984993e+03,-2.175000000000010481e+00,-4.945000000000254303e+00,1.352403407214198339e+01,-2.238379408594174613e+00
1.999999999999955946e+01,2.999999998333291895e+00,1.000000000003849898e+01,6.599999999999541789e-01,1.570000000000076668e+00,2.869999999999992269e+03,-2.174999999999953193e+00,-4.944999999999685869e+00,1.349963870008430789e+01,-2.189748418612085690e+00
1.999999999999934985e+01,2.999999998152594660e+00,1.000000000003477219e+01,6.599999999999155431e-01,1.570000000000149942e+00,2.869999999999995453e+03,-2.174999999999923883e+00,-4.944999999999488693e+00,1.347661371318434220e+01,-2.169082961186843850e+00
1.999999999999951683e+01,2.999999997475952807e+00,1.000000000004167156e+01,6.599999999999235367e-01,1.570000000000135509e+00,2.869999999999994088e+03,-2.174999999999940314e+00,-4.944999999999516227e+00,1.349320780497861172e+01,-2.183371451808293617e+00
1.999999999999973710e+01,2.999999997724562828e+00,9.999999999989382715e+00,6.600000000000274536e-01,1.569999999999988960e+00,2.869999999999998636e+03,-2.174999999999995826e+00,-4.945000000000088214e+00,1.364711447272998868e+01,-2.366012614119536117e+00
1.999999999999960565e+01,2.999999996043266837e+00,9.999999999971764808e+00,6.599999999999813793e-01,1.570000000000050910e+00,2.870000000000002274e+03,-2.174999999999965183e+00,-4.944999999999883933e+00,1.366877579966767442e+01,-2.409099463376308314e+00
2.000000000000055778e+01,3.000000000145539136e+00,9.999999999944183315e+00,6.599999999999195399e-01,1.570000000000074891e+00,2.869999999999989996e+03,-2.175000000000002487e+00,-4.944999999999810214e+00,1.345656394333776618e+01,-2.197496269846717087e+00
2.000000000000099121e+01,3.000000000638351150e+00,9.999999999945631046e+00,6.599999999999914824e-01,1.569999999999979856e+00,2.869999999999988631e+03,-2.175000000000067324e+00,-4.945000000000066898e+00,1.343903273961561773e+01,-2.210534229525375594e+00
2.000000000000064659e+01,3.000000001455105370e+00,9.999999999961222130e+00,6.599999999999749400e-01,1.570000000000002505e+00,2.869999999999987722e+03,-2.175000000000030465e+00,-4.945000000000016271e+00,1.338795044072582030e+01,-2.098989631154577484e+00
2.000000000000001421e+01,2.999999997350171643e+00,9.999999999980557774e+00,6.599999999999830447e-01,1.570000000000009166e+00,2.869999999999998636e+03,-2.174999999999992717e+00,-4.944999999999951434e+00,1.359669895128437922e+01,-2.427449066506421893e+00
2.000000000000004974e+01,2.999999997449293243e+00,9.999999999980328624e+00,6.599999999999695000e-01,1.570000000000030038e+00,2.869999999999996817e+03,-2.174999999999991385e+00,-4.944999999999890150e+00,1.362349114298365826e+01,-2.430647068476388561e+00
2.000000000000017053e+01,2.999999997227598580e+00,9.999999999987998933e+00,6.600000000000543210e-01,1.569999999999958762e+00,2.869999999999992269e+03,-2.175000000000036238e+00,-4.945000000000087326e+00,1.340120472143205177e+01,-2.125511136451111227e+00
1.999999999999999645e+01,2.999999998451515992e+00,9.999999999983298693e+00,6.599999999999860423e-01,1.570000000000052021e+00,2.869999999999992269e+03,-2.174999999999990941e+00,-4.944999999999839524e+00,1.338059721629750776e+01,-2.171606670081633883e+00
2.000000000000014566e+01,2.999999996783023537e+00,9.999999999994200195e+00,6.599999999999434097e-01,1.570000000000071116e+00,2.869999999999979991e+03,-2.174999999999990496e+00,-4.944999999999833307e+00,1.348950051694516716e+01,-2.211945298537579152e+00
2.000000000000012079e+01,2.999999996648935241e+00,1.000000000000103206e+01,6.599999999999757172e-01,1.570000000000038476e+00,2.869999999999979082e+03,-2.175000000000004263e+00,-4.944999999999922125e+00,1.351540231086223365e+01,-2.258883252740274905e+00
2.000000000000014211e+01,2.999999995725760371e+00,9.999999999978673060e+00,6.599999999999854872e-01,1.570000000000011608e+00,2.870000000000000455e+03,-2.175000000000006040e+00,-4.945000000000017160e+00,1.348312497916640140e+01,-2.229613749851272253e+00
2.000000000000009592e+01,2.999999996583238016e+00,9.999999999998392397e+00,6.600000000000150191e-01,1.569999999999979412e+00,2.869999999999998181e+03,-2.175000000000018918e+00,-4.945000000000108642e+00,1.353354198398604602e+01,-2.259343874148818543e+00
2.000000000000037303e+01,2.999999997607721625e+00,1.000000000000043876e+01,6.600000000000048050e-01,1.569999999999997620e+00,2.869999999999995907e+03,-2.175000000000035794e+00,-4.945000000000019824e+00,1.348647711558101570e+01,-2.184192881706295442e+00
1.999999999999993605e+01,2.999999998237744325e+00,1.000000000000986944e+01,6.599999999999593969e-01,1.570000000000048024e+00,2.870000000000000455e+03,-2.174999999999963851e+00,-4.944999999999858176e+00,1.350738200726361882e+01,-2.199392730958129150e+00
1.999999999999965539e+01,2.999999999163950548e+00,1.000000000001859668e+01,6.599999999999693889e-01,1.570000000000068008e+00,2.869999999999993634e+03,-2.174999999999979394e+00,-4.944999999999837748e+00,1.349247350948663104e+01,-2.204569821348310033e+00
1.999999999999950617e+01,2.999999997674183128e+00,1.000000000003086242e+01,6.600000000000101341e-01,1.570000000000019380e+00,2.869999999999996362e+03,-2.174999999999988720e+00,-4.944999999999966533e+00,1.343958614644252592e+01,-2.220475249307625631e+00
2.000000000000001421e+01,2.999999997512319272e+00,9.999999999992246202e+00,6.600000000000395550e-01,1.569999999999945883e+00,2.869999999999995453e+03,-2.175000000000024691e+00,-4.945000000000151275e+00,1.351102112205363248e+01,-2.310318947675730428e+00
2.000000000000000355e+01,2.999999996919409107e+00,1.000000000001207390e+01,6.600000000000405542e-01,1.569999999999930118e+00,2.869999999999994998e+03,-2.175000000000018474e+00,-4.945000000000152163e+00,1.352196839624680891e+01,-2.280004115522388020e+00
2.000000000000082778e+01,2.999999996751322229e+00,9.999999999975791809e+00,6.599999999999679456e-01,1.570000000000015605e+00,2.869999999999983174e+03,-2.175000000000055778e+00,-4.944999999999932783e+00,1.353631222030465864e+01,-2.243884053256129718e+00
1.999999999999915801e+01,2.999999996412582970e+00,1.000000000000432721e+01,6.599999999999857092e-01,1.570000000000043583e+00,2.869999999999998636e+03,-2.174999999999941203e+00,-4.944999999999978080e+00,1.341180844074303913e+01,-2.218639987108739220e+00
1.999999999999947775e+01,2.999999996839942451e+00,1.000000000000366640e+01,6.600000000000249001e-01,1.569999999999996732e+00,2.869999999999999091e+03,-2.174999999999985167e+00,-4.945000000000085549e+00,1.339698600515562354e+01,-2.180292482293062051e+00
1.999999999999927880e+01,3.000000001277948414e+00,9.999999999992544630e+00,6.599999999999193179e-01,1.570000000000152829e+00,2.869999999999999091e+03,-2.174999999999929656e+00,-4.944999999999591722e+00,1.345889735628817796e+01,-2.249836490128480193e+00
2.000000000000013856e+01,3.000000000239678943e+00,9.999999999989446664e+00,6.599999999999958122e-01,1.570000000000018936e+00,2.869999999999985903e+03,-2.175000000000013145e+00,-4.944999999999935447e+00,1.341915164368476887e+01,-2.116254421862649338e+00
2.000000000000055067e+01,2.999999998906096810e+00,9.999999999994960476e+00,6.600000000000139089e-01,1.569999999999995399e+00,2.869999999999983629e+03,-2.175000000000046452e+00,-4.944999999999970974e+00,1.337192835849183403e+01,-2.151780540265530117e+00
2.000000000000006040e+01,2.999999997075970981e+00,9.999999999987259969e+00,6.599999999999712763e-01,1.570000000000040918e+00,2.869999999999981810e+03,-2.174999999999996270e+00,-4.944999999999893703e+00,1.350805220465498380e+01,-2.227751466303213856e+00
2.000000000000047251e+01,2.999999996913662592e+00,9.999999999984204635e+00,6.599999999999547340e-01,1.570000000000041585e+00,2.869999999999983174e+03,-2.175000000000009148e+00,-4.944999999999835083e+00,1.351135220048083596e+01,-2.265590536310670533e+00
2.000000000000057199e+01,2.999999998327075534e+00,9.999999999959973351e+00,6.599999999999222045e-01,1.570000000000088658e+00,2.869999999999984539e+03,-2.175000000000005596e+00,-4.944999999999667217e+00,1.346328726009234522e+01,-2.211725563318078791e+00
1.999999999999960210e+01,2.999999997944876373e+00,1.000000000000896705e+01,6.600000000000915135e-01,1.569999999999867279e+00,2.870000000000000000e+03,-2.175000000000004263e+00,-4.945000000000389306e+00,1.347714505922341033e+01,-2.213717927276371178e+00
1.999999999999914735e+01,2.999999998304875515e+00,1.000000000001925038e+01,6.600000000000293410e-01,1.569999999999990070e+00,2.869999999999995453e+03,-2.174999999999961187e+00,-4.945000000000166374e+00,1.352229555399702043e+01,-2.333638384809687771e+00
2.000000000000005684e+01,2.999999998093426878e+00,1.000000000000007816e+01,6.599999999999723865e-01,1.570000000000036255e+00,2.869999999999997726e+03,-2.174999999999990052e+00,-4.944999999999859064e+00,1.348354456535193080e+01,-2.253709998981111795e+00
2.000000000000010303e+01,2.999999999360487113e+00,9.999999999994383160e+00,6.600000000000108002e-01,1.569999999999987184e+00,2.870000000000000000e+03,-2.175000000000010481e+00,-4.944999999999987850e+00,1.346180255418682847e+01,-2.217377415504097726e+00
2.000000000000003197e+01,3.000000000719249549e+00,9.999999999979291232e+00,6.600000000000072475e-01,1.569999999999962537e+00,2.870000000000001364e+03,-2.175000000000002043e+00,-4.945000000000041140e+00,1.352437939505603204e+01,-2.227020654017058732e+00
2.000000000000021316e+01,2.999999997211134861e+00,9.999999999989162447e+00,6.600000000001589040e-01,1.569999999999778240e+00,2.869999999999996362e+03,-2.175000000000088196e+00,-4.945000000000678853e+00,1.335495626661012913e+01,-2.130785410875627228e+00
1.999999999999992539e+01,2.999999996649992173e+00,9.999999999986744825e+00,6.600000000001035039e-01,1.569999999999846851e+00,2.869999999999995453e+03,-2.175000000000039346e+00,-4.945000000000495000e+00,1.337951488868226768e+01,-2.110223590054024267e+00
2.000000000000012434e+01,2.999999996792793500e+00,9.999999999990743405e+00,6.600000000000352252e-01,1.569999999999926787e+00,2.869999999999999091e+03,-2.175000000000015365e+00,-4.945000000000246310e+00,1.340782103189277841e+01,-2.125143001280857202e+00
1.999999999999921485e+01,3.000000000918847665e+00,1.000000000002868461e+01,6.600000000000527667e-01,1.569999999999932561e+00,2.869999999999993634e+03,-2.174999999999966960e+00,-4.945000000000239204e+00,1.349970086674799497e+01,-2.337412809734836561e+00
1.999999999999972999e+01,2.999999999772410053e+00,9.999999999996132871e+00,6.599999999999617284e-01,1.570000000000037366e+00,2.870000000000001819e+03,-2.174999999999970957e+00,-4.944999999999893703e+00,1.356543147682380202e+01,-2.317843678004022578e+00
2.000000000000099476e+01,2.999999999050351640e+00,1.000000000002593303e+01,6.600000000000300071e-01,1.569999999999956986e+00,2.869999999999981810e+03,-2.175000000000087752e+00,-4.945000000000031370e+00,1.349181217922760290e+01,-2.229689317490985090e+00
2.000000000000042988e+01,2.999999999111155446e+00,1.000000000000297717e+01,6.600000000000078026e-01,1.569999999999997398e+00,2.869999999999997272e+03,-2.175000000000034461e+00,-4.944999999999974527e+00,1.334816655796723772e+01,-2.146103956562930293e+00
1.999999999999990408e+01,3.000000001292089991e+00,9.999999999982172483e+00,6.600000000000242339e-01,1.569999999999978302e+00,2.870000000000001819e+03,-2.175000000000018030e+00,-4.945000000000117524e+00,1.340013522703880966e+01,-2.201023307532400608e+00
2.000000000000003553e+01,3.000000001259763849e+00,9.999999999991493027e+00,6.600000000000527667e-01,1.569999999999939444e+00,2.870000000000000455e+03,-2.175000000000040679e+00,-4.945000000000218776e+00,1.340641799490126296e+01,-2.237564632471093162e+00
1.999999999999924682e+01,2.999999999981416199e+00,9.999999999955528907e+00,6.600000000000522116e-01,1.569999999999967866e+00,2.870000000000000000e+03,-2.174999999999994493e+00,-4.945000000000239204e+00,1.336968694190853846e+01,-2.224216271322215110e+00
1.999999999999939959e+01,2.999999999534168182e+00,9.999999999956212804e+00,6.600000000000880718e-01,1.569999999999913465e+00,2.870000000000000000e+03,-2.175000000000021139e+00,-4.945000000000387530e+00,1.335832486445677247e+01,-2.206096793322737781e+00
1.999999999999994316e+01,2.999999998295109105e+00,9.999999999995448974e+00,6.600000000000524336e-01,1.569999999999877049e+00,2.869999999999981355e+03,-2.175000000000008260e+00,-4.945000000000355556e+00,1.332662087277402740e+01,-2.408992563467807102e+00
2.000000000000009237e+01,2.999999998896974329e+00,9.999999999985902832e+00,6.599999999999907052e-01,1.569999999999942331e+00,2.869999999999984084e+03,-2.174999999999988720e+00,-4.945000000000117524e+00,1.343259518428368260e+01,-2.429757964908036083e+00
2.000000000000048317e+01,2.999999998563473547e+00,9.999999999984421351e+00,6.600000000000452172e-01,1.569999999999869500e+00,2.869999999999982720e+03,-2.175000000000041123e+00,-4.945000000000299600e+00,1.345721458394463177e+01,-2.459641009245618015e+00
2.000000000000007816e+01,3.000000000063618888e+00,9.999999999974722442e+00,6.600000000000960654e-01,1.569999999999835305e+00,2.869999999999990450e+03,-2.175000000000042899e+00,-4.945000000000446150e+00,1.333980483348591939e+01,-2.364023396812469535e+00
1.999999999999977973e+01,2.999999998409174751e+00,1.000000000000987121e+01,6.599999999999766054e-01,1.570000000000022933e+00,2.869999999999995907e+03,-2.174999999999968736e+00,-4.944999999999958540e+00,1.342963360862410660e+01,-2.229041196600475505e+00
1.999999999999988987e+01,2.999999998920134914e+00,1.000000000002306244e+01,6.599999999999975886e-01,1.570000000000002061e+00,2.869999999999996362e+03,-2.174999999999990052e+00,-4.945000000000010942e+00,1.343364024581298821e+01,-2.210216291211096085e+00
1.999999999999985434e+01,2.999999996984128003e+00,1.000000000001996447e+01,6.600000000000227907e-01,1.569999999999945217e+00,2.869999999999991360e+03,-2.174999999999995381e+00,-4.945000000000200124e+00,1.353622709089016141e+01,-2.255423710786431890e+00
1.999999999999980815e+01,3.000000001022570473e+00,9.999999999976354914e+00,6.600000000000360023e-01,1.569999999999924567e+00,2.870000000000001364e+03,-2.174999999999971401e+00,-4.945000000000221441e+00,1.331558790050183916e+01,-2.362680695209666837e+00
1.999999999999947775e+01,3.000000001991418142e+00,9.999999999969682918e+00,6.600000000000262323e-01,1.569999999999945661e+00,2.870000000000005002e+03,-2.174999999999949196e+00,-4.945000000000148610e+00,1.332598577795763006e+01,-2.362684348985802707e+00
1.999999999999996092e+01,2.999999999086187863e+00,9.999999999994720667e+00,6.599999999999947020e-01,1.570000000000016716e+00,2.869999999999998181e+03,-2.174999999999974953e+00,-4.944999999999944329e+00,1.338038399548698543e+01,-2.242221887844710437e+00
1.999999999999989342e+01,2.999999998678327007e+00,9.999999999994043876e+00,6.599999999999749400e-01,1.570000000000043139e+00,2.869999999999998181e+03,-2.174999999999962075e+00,-4.944999999999876827e+00,1.342969021197211887e+01,-2.221193098333924087e+00
1.999999999999997158e+01,3.000000001604113287e+00,9.999999999954765073e+00,6.599999999999403011e-01,1.570000000000081108e+00,2.869999999999990450e+03,-2.174999999999960743e+00,-4.944999999999752482e+00,1.351914202755166095e+01,-2.315741381110972608e+00
1.999999999999997158e+01,3.000000001448831721e+00,9.999999999947613460e+00,6.599999999999353051e-01,1.570000000000082885e+00,2.869999999999989086e+03,-2.174999999999957634e+00,-4.944999999999750706e+00,1.352191038410276391e+01,-2.345420822444042486e+00
2.000000000000032685e+01,2.999999999988469224e+00,9.999999999972839504e+00,6.599999999999822675e-01,1.570000000000019824e+00,2.869999999999984084e+03,-2.175000000000010925e+00,-4.944999999999884821e+00,1.362068457794183196e+01,-2.321544950435654453e+00
2.000000000000097344e+01,3.000000000355732777e+00,9.999999999988535393e+00,6.600000000000724176e-01,1.569999999999861284e+00,2.869999999999975444e+03,-2.175000000000087308e+00,-4.945000000000285389e+00,1.342546785692172406e+01,-2.212030840013226474e+00
2.000000000000098055e+01,3.000000000061214589e+00,9.999999999989592325e+00,6.600000000000687539e-01,1.569999999999861728e+00,2.869999999999974534e+03,-2.175000000000085532e+00,-4.945000000000279172e+00,1.347359170246186721e+01,-2.234954761921096988e+00
2.000000000000002132e+01,3.000000001162069996e+00,9.999999999973059772e+00,6.599999999999454081e-01,1.570000000000045581e+00,2.870000000000002728e+03,-2.174999999999965183e+00,-4.944999999999815543e+00,1.357934759956253323e+01,-2.532945213942854323e+00
1.999999999999989697e+01,3.000000001500733315e+00,9.999999999972475351e+00,6.599999999999246469e-01,1.570000000000075557e+00,2.870000000000002728e+03,-2.174999999999946532e+00,-4.944999999999738272e+00,1.355488811812844396e+01,-2.534976964375377229e+00
1.999999999999965539e+01,2.999999999930536454e+00,9.999999999982250642e+00,6.600000000000406652e-01,1.569999999999954099e+00,2.869999999999996362e+03,-2.174999999999990941e+00,-4.945000000000160156e+00,1.356040687602366113e+01,-2.632192785523424394e+00
2.000000000000063949e+01,2.999999998134211143e+00,1.000000000002975042e+01,6.600000000000619815e-01,1.569999999999930340e+00,2.869999999999989086e+03,-2.175000000000070433e+00,-4.945000000000187690e+00,1.334714377072426750e+01,-2.263302675019664978e+00
2.000000000000022737e+01,2.999999999191286904e+00,1.000000000002655298e+01,6.600000000000089129e-01,1.569999999999999618e+00,2.869999999999989086e+03,-2.175000000000013145e+00,-4.945000000000025153e+00,1.329807893634933080e+01,-2.249230697273202573e+00
1.999999999999975842e+01,3.000000001376195602e+00,9.999999999991366906e+00,6.599999999999426326e-01,1.570000000000087770e+00,2.869999999999992269e+03,-2.174999999999950084e+00,-4.944999999999772911e+00,1.344684842879847686e+01,-2.271923894035324132e+00
2.000000000000098765e+01,3.000000001245270109e+00,9.999999999987542409e+00,6.600000000000227907e-01,1.569999999999897922e+00,2.869999999999988177e+03,-2.175000000000072209e+00,-4.945000000000223217e+00,1.353791672913119726e+01,-2.280947652896674338e+00
2.000000000000061107e+01,3.000000000598917804e+00,9.999999999976495246e+00,6.599999999999945910e-01,1.569999999999942331e+00,2.869999999999989086e+03,-2.175000000000032241e+00,-4.945000000000111307e+00,1.349655215492594884e+01,-2.217714737320005458e+00
1.999999999999982947e+01,2.999999999565966746e+00,9.999999999958031793e+00,6.599999999999632827e-01,1.570000000000059348e+00,2.869999999999996362e+03,-2.174999999999976730e+00,-4.944999999999914131e+00,1.352220892942291819e+01,-2.264618761020427140e+00
1.999999999999964473e+01,2.999999997352004844e+00,9.999999999982840393e+00,6.599999999999780487e-01,1.570000000000057128e+00,2.869999999999998636e+03,-2.174999999999974953e+00,-4.944999999999927454e+00,1.355054386976170910e+01,-2.249725185648171699e+00
1.999999999999918643e+01,2.999999999402772399e+00,9.999999999972462916e+00,6.599999999999741629e-01,1.570000000000081108e+00,2.870000000000000455e+03,-2.174999999999945643e+00,-4.944999999999883045e+00,1.349961432217749646e+01,-2.230060873866028359e+00
2.000000000000048672e+01,3.000000000256447308e+00,9.999999999993120170e+00,6.599999999999301981e-01,1.570000000000090878e+00,2.869999999999993179e+03,-2.175000000000010925e+00,-4.944999999999715179e+00,1.342532777404338873e+01,-2.164510963127438181e+00
2.000000000000046541e+01,3.000000001855205767e+00,9.999999999971540987e+00,6.599999999999970335e-01,1.570000000000015827e+00,2.869999999999998181e+03,-2.175000000000041123e+00,-4.944999999999959428e+00,1.343491167746033810e+01,-2.154651464245711079e+00
2.000000000000078515e+01,2.999999999427112041e+00,9.999999999965286435e+00,6.599999999999943689e-01,1.570000000000001839e+00,2.869999999999988631e+03,-2.175000000000065992e+00,-4.944999999999982521e+00,1.347613776804010577e+01,-2.211571112612106482e+00
2.000000000000106581e+01,3.000000002505486041e+00,9.999999999967931430e+00,6.600000000000065814e-01,1.569999999999970308e+00,2.869999999999989541e+03,-2.175000000000078870e+00,-4.945000000000075779e+00,1.346271079552124128e+01,-2.319881715195150740e+00
2.000000000000103029e+01,3.000000002583529390e+00,9.999999999962501107e+00,6.599999999999910383e-01,1.569999999999988960e+00,2.869999999999989541e+03,-2.175000000000068212e+00,-4.945000000000024265e+00,1.350951149539399765e+01,-2.309585123908271864e+00
2.000000000000082778e+01,2.999999997678229668e+00,9.999999999940813566e+00,6.599999999999887068e-01,1.569999999999963647e+00,2.869999999999994998e+03,-2.175000000000038014e+00,-4.945000000000005613e+00,1.376920362104655915e+01,-2.474210927386341741e+00
2.000000000000069633e+01,2.999999999088510894e+00,9.999999999943891993e+00,6.599999999999908162e-01,1.569999999999961426e+00,2.869999999999995907e+03,-2.175000000000030020e+00,-4.945000000000000284e+00,1.372770347839244387e+01,-2.506088409732715405e+00
2.000000000000060041e+01,2.999999997410288444e+00,1.000000000001984546e+01,6.600000000000083578e-01,1.569999999999992513e+00,2.870000000000002274e+03,-2.175000000000042455e+00,-4.944999999999949658e+00,1.344278450870829644e+01,-2.226428866437442089e+00
2.000000000000095213e+01,2.999999996051084583e+00,1.000000000000843237e+01,6.600000000000655342e-01,1.569999999999879714e+00,2.869999999999994543e+03,-2.175000000000090861e+00,-4.945000000000390195e+00,1.353574727734981131e+01,-2.300134874505781468e+00
2.000000000000079226e+01,2.999999996176303085e+00,1.000000000000646594e+01,6.600000000000426637e-01,1.569999999999915463e+00,2.869999999999994998e+03,-2.175000000000070433e+00,-4.945000000000304041e+00,1.350092776963164454e+01,-2.326964184561517435e+00
2.000000000000051514e+01,2.999999995605918457e+00,1.000000000001610623e+01,6.600000000000777467e-01,1.569999999999885265e+00,2.870000000000000000e+03,-2.175000000000068212e+00,-4.945000000000421281e+00,1.347744550004945197e+01,-2.263500551805390781e+00
2.000000000000020961e+01,2.999999999275602125e+00,1.000000000001826272e+01,6.600000000000149081e-01,1.569999999999996954e+00,2.870000000000003638e+03,-2.175000000000004707e+00,-4.945000000000019824e+00,1.347295955413272850e+01,-2.219801366904576412e+00
2.000000000000030198e+01,2.999999999291184771e+00,1.000000000002185274e+01,6.599999999999939249e-01,1.570000000000014273e+00,2.870000000000001819e+03,-2.174999999999996270e+00,-4.944999999999919460e+00,1.352815664447068933e+01,-2.290147045132709280e+00
1.999999999999929656e+01,2.999999997290006881e+00,9.999999999955809571e+00,6.600000000000041389e-01,1.569999999999986073e+00,2.870000000000004093e+03,-2.174999999999945199e+00,-4.945000000000042029e+00,1.345239312874794102e+01,-2.183178629417397598e+00
1.999999999999909051e+01,2.999999998990992900e+00,9.999999999941005413e+00,6.600000000000187939e-01,1.569999999999995621e+00,2.869999999999994543e+03,-2.174999999999942091e+00,-4.945000000000058904e+00,1.345778963010004858e+01,-2.291292555372482109e+00
1.999999999999920419e+01,2.999999998868265738e+00,9.999999999978186338e+00,6.600000000000064704e-01,1.570000000000033591e+00,2.869999999999998636e+03,-2.174999999999946088e+00,-4.945000000000011831e+00,1.341925530529719701e+01,-2.228756335222000562e+00
1.999999999999923261e+01,2.999999999469628253e+00,9.999999999976457943e+00,6.600000000000151301e-01,1.570000000000020712e+00,2.870000000000000000e+03,-2.174999999999949196e+00,-4.945000000000033147e+00,1.338744402468420347e+01,-2.191271625107763299e+00
1.999999999999965539e+01,2.999999998229219145e+00,1.000000000003512213e+01,6.600000000000277867e-01,1.569999999999970752e+00,2.869999999999996362e+03,-2.174999999999994049e+00,-4.945000000000094431e+00,1.357100711749290944e+01,-2.281518967069925630e+00
1.999999999999977263e+01,3.000000000876712924e+00,1.000000000001788436e+01,6.600000000000295630e-01,1.569999999999976303e+00,2.869999999999984993e+03,-2.175000000000004707e+00,-4.945000000000158380e+00,1.343674062366087618e+01,-2.213540628878153615e+00
1.999999999999943512e+01,2.999999996375887878e+00,9.999999999992603250e+00,6.599999999999658362e-01,1.570000000000064011e+00,2.870000000000001819e+03,-2.174999999999942091e+00,-4.944999999999881268e+00,1.333795517249969365e+01,-2.340829044470224662e+00
1.999999999999953104e+01,2.999999996236881294e+00,9.999999999989885424e+00,6.599999999999882627e-01,1.570000000000032037e+00,2.870000000000002274e+03,-2.174999999999958078e+00,-4.944999999999964757e+00,1.330584398586349870e+01,-2.319049210622000867e+00
1.999999999999958789e+01,2.999999995700612487e+00,9.999999999951745266e+00,6.600000000000074696e-01,1.570000000000000728e+00,2.870000000000000455e+03,-2.174999999999963407e+00,-4.945000000000034035e+00,1.339983616125433308e+01,-2.362326105531625586e+00
1.999999999999921840e+01,2.999999996291982551e+00,9.999999999951239005e+00,6.600000000000522116e-01,1.569999999999952989e+00,2.870000000000002274e+03,-2.174999999999955413e+00,-4.945000000000189466e+00,1.333820371811738248e+01,-2.445324197973135050e+00
2.000000000000022737e+01,2.999999995629881067e+00,9.999999999956656893e+00,6.600000000000115774e-01,1.569999999999954543e+00,2.869999999999997726e+03,-2.175000000000006484e+00,-4.945000000000149498e+00,1.332820947260259459e+01,-2.321899361902773684e+00
2.000000000000011724e+01,2.999999997101237881e+00,9.999999999997410072e+00,6.600000000000481037e-01,1.569999999999921458e+00,2.869999999999990905e+03,-2.175000000000014033e+00,-4.945000000000176144e+00,1.348505434362669497e+01,-2.298397798782265244e+00
2.000000000000012079e+01,2.999999997567752708e+00,9.999999999951478813e+00,6.600000000000347811e-01,1.569999999999941220e+00,2.869999999999992269e+03,-2.175000000000006484e+00,-4.945000000000221441e+00,1.323551830480590752e+01,-2.329921587324260024e+00
2.000000000000015632e+01,3.000000000311608961e+00,9.999999999930109240e+00,6.600000000000302292e-01,1.569999999999924345e+00,2.870000000000005002e+03,-2.175000000000006928e+00,-4.945000000000290719e+00,1.321824637085159360e+01,-2.277951111856977295e+00
1.999999999999996447e+01,3.000000003508403790e+00,9.999999999985345056e+00,6.600000000001098321e-01,1.569999999999839302e+00,2.869999999999981355e+03,-2.175000000000051781e+00,-4.945000000000558060e+00,1.348397447803294646e+01,-2.210079430660021771e+00
1.999999999999950617e+01,3.000000003489778244e+00,9.999999999993750777e+00,6.599999999999459632e-01,1.570000000000064455e+00,2.869999999999994543e+03,-2.174999999999942091e+00,-4.944999999999830642e+00,1.342336142590579939e+01,-2.220782743071930465e+00
2.000000000000026290e+01,3.000000001788162951e+00,9.999999999989727328e+00,6.600000000000096900e-01,1.569999999999992291e+00,2.869999999999997272e+03,-2.175000000000015810e+00,-4.945000000000046469e+00,1.347497569300463205e+01,-2.238979213872346552e+00
2.000000000000035882e+01,3.000000000434452918e+00,9.999999999980333953e+00,6.599999999999908162e-01,1.570000000000028262e+00,2.869999999999992269e+03,-2.175000000000021139e+00,-4.944999999999930118e+00,1.344175850515600956e+01,-2.210512785369037392e+00
1.999999999999979394e+01,2.999999999934302775e+00,9.999999999997072564e+00,6.599999999999632827e-01,1.570000000000058904e+00,2.869999999999991815e+03,-2.174999999999975842e+00,-4.944999999999880380e+00,1.346767824778519795e+01,-2.237667762942626926e+00
1.999999999999972999e+01,3.000000001857162424e+00,9.999999999975509368e+00,6.599999999999607292e-01,1.570000000000076446e+00,2.869999999999990905e+03,-2.174999999999972733e+00,-4.944999999999850182e+00,1.344715798087655045e+01,-2.227197866961155626e+00
1.999999999999992539e+01,3.000000001356113444e+00,9.999999999984590104e+00,6.600000000000066924e-01,1.570000000000013163e+00,2.869999999999992269e+03,-2.175000000000007816e+00,-4.945000000000016271e+00,1.348709940684310205e+01,-2.221581798727930490e+00
1.999999999999947065e+01,3.000000001411217365e+00,9.999999999989810817e+00,6.599999999999131006e-01,1.570000000000120854e+00,2.869999999999993634e+03,-2.174999999999924327e+00,-4.944999999999701856e+00,1.343953789991466685e+01,-2.188793685642952180e+00
2.000000000000063949e+01,3.000000001477603817e+00,9.999999999963485209e+00,6.600000000000211253e-01,1.569999999999948326e+00,2.869999999999985448e+03,-2.175000000000046896e+00,-4.945000000000135287e+00,1.334535357877726547e+01,-2.075585564199423860e+00
2.000000000000034817e+01,3.000000001413963613e+00,1.000000000001002043e+01,6.600000000000521005e-01,1.569999999999925011e+00,2.869999999999990450e+03,-2.175000000000040234e+00,-4.945000000000238316e+00,1.336111963089231125e+01,-2.098676796611171458e+00
1.999999999999956657e+01,3.000000002396844501e+00,9.999999999956910912e+00,6.599999999999812683e-01,1.570000000000016049e+00,2.870000000000000909e+03,-2.174999999999953637e+00,-4.944999999999962981e+00,1.349802378995703300e+01,-2.241071833405928970e+00
1.999999999999941025e+01,3.000000001910517522e+00,9.999999999977253751e+00,6.600000000000270095e-01,1.569999999999964313e+00,2.870000000000000909e+03,-2.174999999999950528e+00,-4.945000000000138840e+00,1.344194112984396128e+01,-2.215389546800818898e+00
1.999999999999884892e+01,3.000000002842832192e+00,9.999999999981756815e+00,6.600000000000636469e-01,1.569999999999944107e+00,2.870000000000005002e+03,-2.174999999999940314e+00,-4.945000000000266738e+00,1.342165949336781594e+01,-2.117850241334104044e+00
1.999999999999926104e+01,3.000000002568225632e+00,9.999999999961948660e+00,6.599999999999980327e-01,1.570000000000007168e+00,2.870000000000004093e+03,-2.174999999999930989e+00,-4.945000000000014495e+00,1.333236128274690024e+01,-2.121634064918421103e+00
1.999999999999957367e+01,3.000000003070582899e+00,9.999999999963817388e+00,6.600000000000496581e-01,1.569999999999937002e+00,2.870000000000002728e+03,-2.174999999999978062e+00,-4.945000000000203677e+00,1.332450009853311101e+01,-2.114180004794308676e+00
1.999999999999979394e+01,3.000000000828792146e+00,9.999999999997260858e+00,6.599999999999637268e-01,1.570000000000078888e+00,2.869999999999998181e+03,-2.174999999999980727e+00,-4.944999999999708074e+00,1.345262530464411199e+01,-2.173301497076839617e+00
1.999999999999899103e+01,3.000000000555275381e+00,1.000000000003037215e+01,6.599999999999958122e-01,1.570000000000031370e+00,2.870000000000009550e+03,-2.174999999999924327e+00,-4.944999999999947882e+00,1.340033257884671514e+01,-2.204333469117777167e+00
1.999999999999885958e+01,3.000000000129399602e+00,1.000000000003033485e+01,6.599999999999912603e-01,1.570000000000038920e+00,2.870000000000014552e+03,-2.174999999999911005e+00,-4.944999999999915907e+00,1.340845913194406513e+01,-2.183556640306076435e+00
1.999999999999962697e+01,3.000000001647573633e+00,1.000000000001133671e+01,6.600000000000468825e-01,1.569999999999951656e+00,2.869999999999998636e+03,-2.174999999999987832e+00,-4.945000000000240981e+00,1.343432068031989246e+01,-2.202233762668427186e+00
2.000000000000021316e+01,3.000000002163206503e+00,9.999999999989292121e+00,6.600000000000715294e-01,1.569999999999917906e+00,2.869999999999998181e+03,-2.175000000000046896e+00,-4.945000000000221441e+00,1.348337102137772270e+01,-2.196169382324098862e+00
2.000000000000024158e+01,2.999999999855863742e+00,9.999999999985174526e+00,6.600000000000268985e-01,1.569999999999968754e+00,2.869999999999995907e+03,-2.175000000000029576e+00,-4.945000000000087326e+00,1.344182269147242259e+01,-2.195379594416311253e+00
1.999999999999984723e+01,3.000000002884887440e+00,9.999999999989366728e+00,6.599999999999949241e-01,1.570000000000024043e+00,2.870000000000002728e+03,-2.174999999999975842e+00,-4.944999999999950546e+00,1.348227613536436742e+01,-2.246462118071352876e+00
1.999999999999959499e+01,3.000000002739860783e+00,1.000000000000668621e+01,6.600000000000592060e-01,1.569999999999947660e+00,2.870000000000004093e+03,-2.174999999999982947e+00,-4.945000000000199236e+00,1.348074033855073495e+01,-2.274077804853432472e+00
2.000000000000037659e+01,2.999999998863001949e+00,9.999999999967840836e+00,6.599999999999942579e-01,1.569999999999980078e+00,2.869999999999984993e+03,-2.175000000000025580e+00,-4.944999999999960316e+00,1.362852690116643828e+01,-2.415813451047360783e+00
2.000000000000029843e+01,2.999999999738089951e+00,9.999999999972175146e+00,6.599999999999922595e-01,1.569999999999984519e+00,2.869999999999986358e+03,-2.175000000000019362e+00,-4.944999999999951434e+00,1.360715684524391911e+01,-2.398963964417879069e+00
1.999999999999960920e+01,2.999999999036952136e+00,1.000000000001313083e+01,6.600000000000283418e-01,1.569999999999980744e+00,2.869999999999984993e+03,-2.174999999999988720e+00,-4.945000000000064233e+00,1.351904588232783411e+01,-2.265839866717560991e+00
2.000000000000007461e+01,3.000000000629099883e+00,1.000000000000906475e+01,6.600000000000388889e-01,1.569999999999957208e+00,2.869999999999988177e+03,-2.175000000000024691e+00,-4.945000000000103313e+00,1.346425994089044664e+01,-2.232933143625234873e+00
2.000000000000007461e+01,3.000000000452762716e+00,1.000000000002470379e+01,6.600000000000983968e-01,1.569999999999871054e+00,2.869999999999989541e+03,-2.175000000000040234e+00,-4.945000000000407958e+00,1.355006664063311206e+01,-2.305140499078138117e+00
2.000000000000033751e+01,3.000000002105696950e+00,1.000000000000900080e+01,6.600000000000495470e-01,1.569999999999928564e+00,2.869999999999989086e+03,-2.175000000000043343e+00,-4.945000000000185025e+00,1.355395063830396651e+01,-2.228334985562723691e+00
2.000000000000014921e+01,3.000000002230862606e+00,9.999999999992256861e+00,6.600000000000434408e-01,1.569999999999939444e+00,2.869999999999992269e+03,-2.175000000000021139e+00,-4.945000000000185025e+00,1.350245470714344798e+01,-2.267561808175702964e+00
2.000000000000057554e+01,3.000000001249714110e+00,9.999999999942200901e+00,6.599999999999487388e-01,1.570000000000023821e+00,2.869999999999991815e+03,-2.174999999999994493e+00,-4.944999999999858176e+00,1.336102239147940729e+01,-2.083016844721308214e+00
2.000000000000079936e+01,3.000000000672217837e+00,9.999999999956433072e+00,6.600000000000840750e-01,1.569999999999867502e+00,2.869999999999989541e+03,-2.175000000000083311e+00,-4.945000000000314699e+00,1.338914779992642323e+01,-2.122157083178571657e+00
1.999999999999914380e+01,3.000000000545540058e+00,9.999999999998360423e+00,6.600000000000366684e-01,1.569999999999979856e+00,2.870000000000000909e+03,-2.174999999999955858e+00,-4.945000000000074891e+00,1.329597816795362775e+01,-2.301096458389007893e+00
1.999999999999975842e+01,3.000000001306251995e+00,9.999999999993343991e+00,6.600000000000072475e-01,1.570000000000005835e+00,2.870000000000002274e+03,-2.174999999999982503e+00,-4.944999999999962093e+00,1.330973275940683109e+01,-2.246974064476891186e+00
1.999999999999963762e+01,3.000000001324509391e+00,9.999999999992670752e+00,6.599999999999854872e-01,1.570000000000032481e+00,2.870000000000000909e+03,-2.174999999999962963e+00,-4.944999999999892815e+00,1.329993598650773201e+01,-2.266184225047399359e+00
1.999999999999877076e+01,2.999999997771813032e+00,1.000000000002631140e+01,6.600000000000031397e-01,1.570000000000066676e+00,2.870000000000001364e+03,-2.174999999999921219e+00,-4.944999999999792450e+00,1.333059045531377507e+01,-2.353031653314440419e+00
1.999999999999851852e+01,2.999999998570029192e+00,1.000000000001953460e+01,6.600000000000352252e-01,1.570000000000027374e+00,2.870000000000001364e+03,-2.174999999999921219e+00,-4.944999999999973639e+00,1.329285302900014187e+01,-2.343493138116355290e+00
1.999999999999837641e+01,2.999999998631325937e+00,1.000000000002118306e+01,6.600000000000141309e-01,1.570000000000054463e+00,2.870000000000001364e+03,-2.174999999999900346e+00,-4.944999999999907914e+00,1.332162181220168939e+01,-2.349703799053735054e+00
2.000000000000004974e+01,3.000000001081460255e+00,1.000000000003771916e+01,6.600000000000554312e-01,1.569999999999919238e+00,2.869999999999992724e+03,-2.175000000000017586e+00,-4.945000000000241869e+00,1.348393625952872021e+01,-2.277614873604244305e+00
1.999999999999984368e+01,2.999999998622693287e+00,9.999999999928066430e+00,6.599999999999823785e-01,1.570000000000048024e+00,2.870000000000004547e+03,-2.174999999999992273e+00,-4.944999999999904361e+00,1.361347207455518316e+01,-2.368003861911384345e+00
1.999999999999962697e+01,2.999999998619532704e+00,9.999999999925661243e+00,6.599999999999534017e-01,1.570000000000081997e+00,2.870000000000005002e+03,-2.174999999999961187e+00,-4.944999999999817319e+00,1.361390785370114109e+01,-2.395184001757050041e+00
2.000000000000053646e+01,2.999999999608744083e+00,9.999999999981129761e+00,6.599999999999665024e-01,1.570000000000034479e+00,2.869999999999990905e+03,-2.175000000000027356e+00,-4.944999999999867946e+00,1.348324932277072818e+01,-2.232999574520201591e+00
2.000000000000041567e+01,2.999999998262347756e+00,9.999999999908631310e+00,6.599999999999577316e-01,1.570000000000045359e+00,2.870000000000000455e+03,-2.175000000000005151e+00,-4.944999999999915019e+00,1.357047044505023337e+01,-2.365205608378332158e+00
1.999999999999964473e+01,2.999999995695532995e+00,1.000000000001208633e+01,6.600000000000990630e-01,1.569999999999879714e+00,2.869999999999997272e+03,-2.175000000000020250e+00,-4.945000000000395524e+00,1.366508766949013598e+01,-2.378148299266836130e+00
1.999999999999956302e+01,2.999999998794222744e+00,9.999999999973308462e+00,6.600000000000146860e-01,1.569999999999990736e+00,2.870000000000009550e+03,-2.174999999999946532e+00,-4.945000000000043805e+00,1.353334165869718042e+01,-2.275857408205117061e+00
1.999999999999924327e+01,3.000000000235808262e+00,1.000000000002024514e+01,6.600000000000877387e-01,1.569999999999954321e+00,2.870000000000000909e+03,-2.174999999999987832e+00,-4.945000000000201013e+00,1.337542236308370036e+01,-2.103874131825557381e+00
1.999999999999985789e+01,2.999999997974763133e+00,9.999999999986926014e+00,6.599999999999438538e-01,1.570000000000111084e+00,2.870000000000000455e+03,-2.174999999999953637e+00,-4.944999999999630802e+00,1.350855662167405491e+01,-2.221143501600252534e+00
1.999999999999915801e+01,3.000000003187840214e+00,1.000000000003393374e+01,6.600000000000315614e-01,1.570000000000024709e+00,2.870000000000004093e+03,-2.174999999999958078e+00,-4.945000000000036700e+00,1.350600750935177885e+01,-2.274881759469105535e+00
1.999999999999924327e+01,3.000000003161678030e+00,1.000000000003391420e+01,6.600000000000363354e-01,1.570000000000013829e+00,2.870000000000001364e+03,-2.174999999999964739e+00,-4.945000000000061569e+00,1.352411073275114717e+01,-2.305744495016631479e+00
1.999999999999971578e+01,3.000000002410924349e+00,1.000000000003267964e+01,6.600000000000855183e-01,1.569999999999930562e+00,2.869999999999999091e+03,-2.175000000000024247e+00,-4.945000000000252527e+00,1.349791317997549100e+01,-2.227722723759003376e+00
1.999999999999961986e+01,3.000000001411615713e+00,1.000000000002653167e+01,6.600000000000081357e-01,1.569999999999993401e+00,2.870000000000002274e+03,-2.174999999999970512e+00,-4.944999999999960316e+00,1.349079050377750377e+01,-2.279010701744822676e+00
1.999999999999988276e+01,3.000000003875942234e+00,9.999999999965913489e+00,6.599999999999983658e-01,1.569999999999991624e+00,2.870000000000001819e+03,-2.174999999999975397e+00,-4.945000000000005613e+00,1.348004209686133592e+01,-2.216805469409077300e+00
1.999999999999980460e+01,3.000000005080012411e+00,9.999999999964174435e+00,6.600000000000412204e-01,1.569999999999940332e+00,2.870000000000002728e+03,-2.174999999999989608e+00,-4.945000000000159268e+00,1.352383823231398807e+01,-2.232756078573104208e+00
1.999999999999925038e+01,2.999999996931264068e+00,1.000000000001073808e+01,6.600000000000072475e-01,1.570000000000049800e+00,2.869999999999996817e+03,-2.174999999999952749e+00,-4.944999999999969198e+00,1.332330155605025901e+01,-2.275425466260026397e+00
1.999999999999921485e+01,2.999999997233585347e+00,1.000000000001269207e+01,6.600000000000140199e-01,1.570000000000040696e+00,2.869999999999997272e+03,-2.174999999999952749e+00,-4.945000000000000284e+00,1.330048676070393299e+01,-2.303815162880768153e+00
1.999999999999893774e+01,2.999999996692077175e+00,1.000000000004270895e+01,6.599999999999867084e-01,1.570000000000048690e+00,2.870000000000003183e+03,-2.174999999999900790e+00,-4.944999999999916795e+00,1.360822067917033706e+01,-2.470463187022860829e+00
1.999999999999979394e+01,2.999999995605990843e+00,9.999999999940676787e+00,6.599999999999978106e-01,1.570000000000018936e+00,2.870000000000000000e+03,-2.174999999999988276e+00,-4.944999999999910578e+00,1.336655458326183421e+01,-2.375123544750014748e+00
2.000000000000001776e+01,3.000000002514747521e+00,9.999999999952205343e+00,6.599999999999627276e-01,1.570000000000081775e+00,2.869999999999997272e+03,-2.174999999999979838e+00,-4.944999999999852847e+00,1.326800064716566929e+01,-2.247416022437388250e+00
1.999999999999990763e+01,3.000000002365559748e+00,9.999999999957720931e+00,6.599999999999628386e-01,1.570000000000083773e+00,2.869999999999999091e+03,-2.174999999999971845e+00,-4.944999999999853735e+00,1.325749003020016126e+01,-2.249167815454816033e+00
2.000000000000003908e+01,2.999999998078056063e+00,9.999999999990210497e+00,6.600000000000088018e-01,1.570000000000004725e+00,2.870000000000003183e+03,-2.175000000000006928e+00,-4.945000000000028706e+00,1.375197155041928276e+01,-2.502582591030200199e+00
1.999999999999980105e+01,2.999999999720272648e+00,9.999999999994482636e+00,6.599999999999782707e-01,1.570000000000062013e+00,2.870000000000002728e+03,-2.174999999999978506e+00,-4.944999999999883045e+00,1.373908145609378550e+01,-2.581192188192763304e+00
2.000000000000064304e+01,2.999999996160759519e+00,9.999999999975631937e+00,6.600000000000374456e-01,1.569999999999945661e+00,2.869999999999992724e+03,-2.175000000000067768e+00,-4.945000000000090878e+00,1.372134038443085657e+01,-2.447567121290313175e+00
2.000000000000041922e+01,2.999999997210524239e+00,1.000000000003959144e+01,6.600000000000572076e-01,1.569999999999950102e+00,2.869999999999981355e+03,-2.175000000000065992e+00,-4.945000000000101537e+00,1.360501950442046670e+01,-2.257623019805085729e+00
1.999999999999960920e+01,2.999999995170981482e+00,1.000000000000956391e+01,6.600000000000533218e-01,1.569999999999914575e+00,2.870000000000006366e+03,-2.174999999999991385e+00,-4.945000000000259632e+00,1.353291704962745534e+01,-2.238829546456757136e+00
1.999999999999947420e+01,2.999999995566392741e+00,1.000000000002411049e+01,6.600000000000807443e-01,1.569999999999892148e+00,2.870000000000007276e+03,-2.174999999999998490e+00,-4.945000000000333351e+00,1.350182323420870567e+01,-2.232701094854834256e+00
1.999999999999963407e+01,2.999999996669190150e+00,1.000000000002715517e+01,6.600000000000418865e-01,1.569999999999935891e+00,2.870000000000004093e+03,-2.174999999999989608e+00,-4.945000000000189466e+00,1.346276088010047012e+01,-2.226797628309993282e+00
