2.000000000000039790e+01,2.999999999403373696e+00,9.999999999978207654e+00,6.599999999998901190e-01,1.570000000000078000e+00,2.869999999999976808e+03,-2.174999999999978506e+00,-4.944999999999778240e+00,1.341134049484413104e+01,-2.133772083579555723e+00
2.000000000000034461e+01,2.999999999698651720e+00,9.999999999989862332e+00,6.599999999999528466e-01,1.569999999999937002e+00,2.869999999999983174e+03,-2.175000000000014477e+00,-4.945000000000172591e+00,1.341993381288942544e+01,-2.130884324893439263e+00
2.000000000000016698e+01,2.999999999580703403e+00,9.999999999927959848e+00,6.599999999999484057e-01,1.569999999999973195e+00,2.869999999999990905e+03,-2.175000000000010481e+00,-4.945000000000208118e+00,1.343357038685449290e+01,-2.149908420096660500e+00
2.000000000000005329e+01,2.999999999797874572e+00,9.999999999974543030e+00,6.600000000001726708e-01,1.569999999999789786e+00,2.869999999999994543e+03,-2.175000000000071321e+00,-4.945000000000693063e+00,1.337040975583873958e+01,-2.159739971654392132e+00
1.999999999999997868e+01,2.999999999105004811e+00,9.999999999978086862e+00,6.600000000000645350e-01,1.569999999999893925e+00,2.869999999999991815e+03,-2.175000000000028244e+00,-4.945000000000418616e+00,1.338745249336240484e+01,-2.146937206756355465e+00
1.999999999999983658e+01,2.999999999404499462e+00,9.999999999972780884e+00,6.600000000000336708e-01,1.569999999999992513e+00,2.869999999999994088e+03,-2.174999999999997602e+00,-4.945000000000094431e+00,1.337373774628308354e+01,-2.160686495351842318e+00
1.999999999999978684e+01,2.999999999122106242e+00,9.999999999970370368e+00,6.600000000000429967e-01,1.570000000000041807e+00,2.869999999999991360e+03,-2.175000000000000266e+00,-4.944999999999962093e+00,1.335852117776032522e+01,-2.176479246390683020e+00
1.999999999999970157e+01,2.999999999862108524e+00,9.999999999966894038e+00,6.600000000000635358e-01,1.569999999999946994e+00,2.869999999999996817e+03,-2.174999999999996714e+00,-4.945000000000366214e+00,1.337385425173193987e+01,-2.148461776919666555e+00
2.000000000000002132e+01,2.999999998498362519e+00,9.999999999971404208e+00,6.600000000002065326e-01,1.569999999999765361e+00,2.869999999999990450e+03,-2.175000000000083311e+00,-4.945000000000783658e+00,1.338366787702732452e+01,-2.139456746555536970e+00
1.999999999999973355e+01,2.999999998798045020e+00,9.999999999975246467e+00,6.599999999999595079e-01,1.570000000000151497e+00,2.869999999999999545e+03,-2.174999999999955858e+00,-4.944999999999703633e+00,1.336572084716378406e+01,-2.156287787685576607e+00
1.999999999999996092e+01,2.999999998801101242e+00,9.999999999969650943e+00,6.600000000000836309e-01,1.569999999999917906e+00,2.870000000000000909e+03,-2.175000000000018030e+00,-4.945000000000381313e+00,1.336576293065066778e+01,-2.168284384534454379e+00
2.000000000000019185e+01,2.999999999096321535e+00,9.999999999966867392e+00,6.600000000000478817e-01,1.569999999999961648e+00,2.869999999999989086e+03,-2.175000000000013589e+00,-4.945000000000207230e+00,1.338026858698219712e+01,-2.160888432892379196e+00
2.000000000000011724e+01,2.999999999292070729e+00,9.999999999974958698e+00,6.600000000001803313e-01,1.569999999999724949e+00,2.869999999999991360e+03,-2.175000000000073541e+00,-4.945000000000937312e+00,1.338753840667498629e+01,-2.155373410413851776e+00
1.999999999999949551e+01,2.999999999918848026e+00,9.999999999990864197e+00,6.599999999999337508e-01,1.570000000000163931e+00,2.869999999999995453e+03,-2.174999999999924327e+00,-4.944999999999728502e+00,1.337237969564830742e+01,-2.170903552152178229e+00
1.999999999999961986e+01,2.999999999054087318e+00,9.999999999972915887e+00,6.600000000000116884e-01,1.570000000000003393e+00,2.869999999999992269e+03,-2.174999999999982503e+00,-4.945000000000224105e+00,1.339148193005798682e+01,-2.147193133462802717e+00
2.000000000000000000e+01,3.000000001090663559e+00,9.999999999975896614e+00,6.600000000001722267e-01,1.569999999999779572e+00,2.869999999999991360e+03,-2.175000000000070877e+00,-4.945000000000753460e+00,1.336431016077269263e+01,-2.171774446233716738e+00
1.999999999999961631e+01,3.000000000906137387e+00,9.999999999983490540e+00,6.600000000001043921e-01,1.569999999999921014e+00,2.869999999999996362e+03,-2.175000000000015365e+00,-4.945000000000388418e+00,1.336826520826227771e+01,-2.161757661750947523e+00
1.999999999999989697e+01,3.000000001452056697e+00,9.999999999966350472e+00,6.600000000001863265e-01,1.569999999999734497e+00,2.869999999999995453e+03,-2.175000000000057110e+00,-4.945000000000882245e+00,1.338823338530460205e+01,-2.153388503233176543e+00
1.999999999999980105e+01,3.000000001113135806e+00,9.999999999972901676e+00,6.600000000000837419e-01,1.569999999999915241e+00,2.869999999999991815e+03,-2.175000000000017586e+00,-4.945000000000385754e+00,1.338467271177212048e+01,-2.159906806246429500e+00
2.000000000000010303e+01,3.000000001500334079e+00,9.999999999965984543e+00,6.600000000001190470e-01,1.569999999999874385e+00,2.869999999999997272e+03,-2.175000000000018918e+00,-4.945000000000422169e+00,1.337664013853887290e+01,-2.163116894177394389e+00
1.999999999999983302e+01,3.000000001016299045e+00,9.999999999963806729e+00,6.600000000001017275e-01,1.569999999999938112e+00,2.869999999999997272e+03,-2.174999999999975397e+00,-4.945000000000272067e+00,1.336678642976664122e+01,-2.168100096685346756e+00
2.000000000000068212e+01,3.000000001713330811e+00,9.999999999955834440e+00,6.600000000001230438e-01,1.569999999999831086e+00,2.869999999999995453e+03,-2.175000000000061107e+00,-4.945000000000517204e+00,1.336291965760839062e+01,-2.171071227940635229e+00
1.999999999999966604e+01,3.000000002665883070e+00,9.999999999976330045e+00,6.600000000001046141e-01,1.569999999999909690e+00,2.869999999999993179e+03,-2.174999999999991829e+00,-4.945000000000401741e+00,1.336328897346992406e+01,-2.170417363438511327e+00
1.999999999999954525e+01,2.999999999528013550e+00,1.000000000001881162e+01,6.600000000001841061e-01,1.569999999999731388e+00,2.869999999999979991e+03,-2.175000000000079314e+00,-4.945000000000904450e+00,1.339857846646530071e+01,-2.134463016010904823e+00
2.000000000000053291e+01,2.999999997287467579e+00,9.999999999984417798e+00,6.600000000001345901e-01,1.569999999999740492e+00,2.869999999999974534e+03,-2.175000000000099742e+00,-4.945000000000727702e+00,1.340583733249454212e+01,-2.142229066656887504e+00
2.000000000000105871e+01,2.999999999181249155e+00,9.999999999970334841e+00,6.599999999999111022e-01,1.570000000000107088e+00,2.869999999999975898e+03,-2.175000000000005596e+00,-4.944999999999478923e+00,1.341455804418067999e+01,-2.127415611950746133e+00
2.000000000000054357e+01,2.999999998053412220e+00,1.000000000000534151e+01,6.599999999999178746e-01,1.570000000000081108e+00,2.869999999999981810e+03,-2.174999999999999822e+00,-4.944999999999633467e+00,1.343061316354554791e+01,-2.120685250490200069e+00
1.999999999999953815e+01,2.999999996317519901e+00,1.000000000003020340e+01,6.599999999995624922e-01,1.570000000000668638e+00,2.869999999999981810e+03,-2.174999999999806199e+00,-4.944999999998192841e+00,1.342407382309469988e+01,-2.129713643809155510e+00
1.999999999999988276e+01,2.999999996501496291e+00,9.999999999981977084e+00,6.599999999999233147e-01,1.570000000000044471e+00,2.869999999999986812e+03,-2.174999999999974509e+00,-4.944999999999899032e+00,1.341690089691919674e+01,-2.142872295944557415e+00
2.000000000000051159e+01,2.999999994568157469e+00,9.999999999985490717e+00,6.599999999998892308e-01,1.570000000000116636e+00,2.869999999999981810e+03,-2.174999999999993161e+00,-4.944999999999616591e+00,1.343400998227480692e+01,-2.139734916996647751e+00
1.999999999999843681e+01,3.000000001306248887e+00,1.000000000003043965e+01,6.599999999998723554e-01,1.570000000000301599e+00,2.869999999999999091e+03,-2.174999999999841727e+00,-4.944999999999280860e+00,1.338749378493152165e+01,-2.175900919607911543e+00
1.999999999999819167e+01,3.000000002236044683e+00,1.000000000002777512e+01,6.599999999998850120e-01,1.570000000000350449e+00,2.870000000000000909e+03,-2.174999999999818634e+00,-4.944999999999105000e+00,1.338186489608586527e+01,-2.191329755639250365e+00
1.999999999999775824e+01,3.000000000438787673e+00,1.000000000003070255e+01,6.599999999998369393e-01,1.570000000000492779e+00,2.869999999999999545e+03,-2.174999999999764011e+00,-4.944999999998731965e+00,1.338072069629143179e+01,-2.189788623978655924e+00
1.999999999999802469e+01,3.000000002279762601e+00,1.000000000002585843e+01,6.600000000000965095e-01,1.570000000000084661e+00,2.869999999999994543e+03,-2.174999999999865263e+00,-4.944999999999891926e+00,1.338136348555828548e+01,-2.183811180669926078e+00
1.999999999999818456e+01,3.000000001652777915e+00,1.000000000003732659e+01,6.600000000001237099e-01,1.569999999999948104e+00,2.869999999999998636e+03,-2.174999999999905231e+00,-4.945000000000344009e+00,1.338828743700977775e+01,-2.183928178429619837e+00
1.999999999999833378e+01,3.000000002500474494e+00,1.000000000004287770e+01,6.600000000000783018e-01,1.570000000000088880e+00,2.869999999999997726e+03,-2.174999999999894573e+00,-4.944999999999823537e+00,1.340578958676979937e+01,-2.165442497721336679e+00
1.999999999999798561e+01,3.000000002644934050e+00,1.000000000002558487e+01,6.599999999998634737e-01,1.570000000000399076e+00,2.869999999999999091e+03,-2.174999999999785327e+00,-4.944999999998936246e+00,1.338217033316993110e+01,-2.200679403969738157e+00
1.999999999999854694e+01,3.000000003888529498e+00,1.000000000001876366e+01,6.599999999998933387e-01,1.570000000000278062e+00,2.869999999999997726e+03,-2.174999999999853273e+00,-4.944999999999265761e+00,1.339874158944046023e+01,-2.191432596890787732e+00
1.999999999999990408e+01,2.999999998825252590e+00,1.000000000000247269e+01,6.600000000001865486e-01,1.569999999999623030e+00,2.870000000000000000e+03,-2.175000000000045564e+00,-4.945000000001093632e+00,1.342281006251319653e+01,-2.152395944914753390e+00
2.000000000000140332e+01,2.999999998785187749e+00,9.999999999959094055e+00,6.599999999999849321e-01,1.569999999999797557e+00,2.869999999999979082e+03,-2.175000000000133049e+00,-4.945000000000480789e+00,1.343669471593705822e+01,-2.149501248619602567e+00
1.999999999999955236e+01,2.999999999296132813e+00,1.000000000003635847e+01,6.600000000003322098e-01,1.569999999999563300e+00,2.869999999999994998e+03,-2.175000000000089528e+00,-4.945000000001341434e+00,1.343388291344376562e+01,-2.139973059468318617e+00
1.999999999999954881e+01,2.999999999900047509e+00,1.000000000002164313e+01,6.600000000002702594e-01,1.569999999999678542e+00,2.869999999999994088e+03,-2.175000000000076206e+00,-4.945000000000987050e+00,1.342472579599691329e+01,-2.160304483013339105e+00
1.999999999999993250e+01,2.999999997231610482e+00,1.000000000002685496e+01,6.600000000001984279e-01,1.569999999999725171e+00,2.869999999999981810e+03,-2.175000000000079314e+00,-4.945000000000794316e+00,1.341637594064825478e+01,-2.142414824035745902e+00
2.000000000000022737e+01,2.999999999096154557e+00,1.000000000000239275e+01,6.600000000004083711e-01,1.569999999999460494e+00,2.869999999999976808e+03,-2.175000000000165912e+00,-4.945000000001498641e+00,1.341513193353575240e+01,-2.123340886411221540e+00
2.000000000000073186e+01,2.999999998550196612e+00,1.000000000000266098e+01,6.599999999998723554e-01,1.570000000000178586e+00,2.869999999999981355e+03,-2.175000000000020695e+00,-4.944999999999518892e+00,1.340433500502972564e+01,-2.130917717467075700e+00
1.999999999999991118e+01,3.000000001985466014e+00,1.000000000000131273e+01,6.600000000002952394e-01,1.569999999999537765e+00,2.869999999999996817e+03,-2.175000000000090861e+00,-4.945000000001369855e+00,1.342139051104641823e+01,-2.136713227652429659e+00
2.000000000000020250e+01,3.000000000721378068e+00,9.999999999998935962e+00,6.600000000003739542e-01,1.569999999999438067e+00,2.869999999999998181e+03,-2.175000000000163691e+00,-4.945000000001659402e+00,1.340519690284207144e+01,-2.120583629778954204e+00
2.000000000000011369e+01,3.000000000962196989e+00,9.999999999981261212e+00,6.600000000004345724e-01,1.569999999999348805e+00,2.869999999999994998e+03,-2.175000000000168576e+00,-4.945000000001884999e+00,1.339263331280541891e+01,-2.141619314219714632e+00
2.000000000000018474e+01,3.000000003255121062e+00,9.999999999979980458e+00,6.600000000005495915e-01,1.569999999999189377e+00,2.869999999999994543e+03,-2.175000000000235190e+00,-4.945000000002317542e+00,1.339640119278375430e+01,-2.132014074542535109e+00
2.000000000000034106e+01,3.000000001444401487e+00,1.000000000000303224e+01,6.600000000000575406e-01,1.569999999999804219e+00,2.869999999999997726e+03,-2.175000000000080647e+00,-4.945000000000711715e+00,1.339115109798321690e+01,-2.158917862820968203e+00
1.999999999999978328e+01,3.000000001445632947e+00,1.000000000002912692e+01,6.600000000000244560e-01,1.569999999999947882e+00,2.869999999999998181e+03,-2.175000000000026468e+00,-4.945000000000328022e+00,1.339399290710877821e+01,-2.167634613703320223e+00
1.999999999999956302e+01,3.000000002669145349e+00,1.000000000000985345e+01,6.599999999999381917e-01,1.570000000000064455e+00,2.870000000000000455e+03,-2.174999999999954969e+00,-4.945000000000000284e+00,1.338006086223669655e+01,-2.167138244243062228e+00
2.000000000000018119e+01,3.000000001468376976e+00,1.000000000001760192e+01,6.600000000003927170e-01,1.569999999999389440e+00,2.869999999999994998e+03,-2.175000000000189448e+00,-4.945000000001801510e+00,1.341764117153317670e+01,-2.147470699983700992e+00
1.999999999999983302e+01,3.000000001029758057e+00,9.999999999984845900e+00,6.600000000003708456e-01,1.569999999999481144e+00,2.869999999999998636e+03,-2.175000000000121059e+00,-4.945000000001606999e+00,1.341105063218547500e+01,-2.147474518638967211e+00
2.000000000000013145e+01,2.999999999627235070e+00,1.000000000002023270e+01,6.599999999998208411e-01,1.570000000000090656e+00,2.869999999999987267e+03,-2.174999999999937206e+00,-4.944999999999796003e+00,1.341336898033149794e+01,-2.136306381802338894e+00
1.999999999999993250e+01,2.999999998525886724e+00,9.999999999968524733e+00,6.599999999999349720e-01,1.569999999999899920e+00,2.869999999999998636e+03,-2.174999999999987832e+00,-4.945000000000397300e+00,1.337824842687077087e+01,-2.169697142081649766e+00
1.999999999999967315e+01,2.999999999200690937e+00,9.999999999976241227e+00,6.599999999999895950e-01,1.569999999999878160e+00,2.870000000000000000e+03,-2.174999999999974953e+00,-4.945000000000455920e+00,1.337044521131494790e+01,-2.182556954191871679e+00
1.999999999999988987e+01,2.999999999484944890e+00,9.999999999966174613e+00,6.599999999999626166e-01,1.569999999999900364e+00,2.869999999999997272e+03,-2.174999999999984279e+00,-4.945000000000343121e+00,1.337110917870640137e+01,-2.172890128843416147e+00
1.999999999999965539e+01,2.999999997894770676e+00,9.999999999973216092e+00,6.599999999998427125e-01,1.570000000000067564e+00,2.869999999999994543e+03,-2.174999999999928768e+00,-4.944999999999970974e+00,1.336306214009363025e+01,-2.171169977371882887e+00
1.999999999999935341e+01,2.999999999923195659e+00,9.999999999968789410e+00,6.599999999999746070e-01,1.569999999999970086e+00,2.869999999999997726e+03,-2.174999999999945643e+00,-4.945000000000259632e+00,1.337657870944443594e+01,-2.166166769451875140e+00
1.999999999999962697e+01,2.999999998947531665e+00,9.999999999968558484e+00,6.599999999999809353e-01,1.569999999999897922e+00,2.870000000000002274e+03,-2.174999999999987832e+00,-4.945000000000519869e+00,1.338554083603745148e+01,-2.152532464961181002e+00
1.999999999999966960e+01,2.999999997699831944e+00,9.999999999966588504e+00,6.600000000000190159e-01,1.569999999999820650e+00,2.869999999999997272e+03,-2.175000000000000266e+00,-4.945000000000683293e+00,1.338868736258713632e+01,-2.159095687589986490e+00
1.999999999999995737e+01,2.999999999346767865e+00,9.999999999969309883e+00,6.600000000002158584e-01,1.569999999999589724e+00,2.869999999999996362e+03,-2.175000000000085532e+00,-4.945000000001273044e+00,1.339165261142010444e+01,-2.161112894011721686e+00
1.999999999999991473e+01,2.999999998122659939e+00,9.999999999968002484e+00,6.600000000003176659e-01,1.569999999999438955e+00,2.869999999999994543e+03,-2.175000000000119726e+00,-4.945000000001703810e+00,1.339052203639745997e+01,-2.161512927354246827e+00
1.999999999999963762e+01,2.999999999898601555e+00,1.000000000001107203e+01,6.599999999999370814e-01,1.570000000000167706e+00,2.869999999999991815e+03,-2.174999999999915890e+00,-4.944999999999429185e+00,1.338377090536195801e+01,-2.167326543972912134e+00
1.999999999999926104e+01,3.000000000417026857e+00,9.999999999993992361e+00,6.600000000000018074e-01,1.570000000000075113e+00,2.869999999999997726e+03,-2.174999999999926104e+00,-4.944999999999815543e+00,1.337953889644340322e+01,-2.149113139770040704e+00
1.999999999999920064e+01,3.000000000804889932e+00,1.000000000001001510e+01,6.599999999999003331e-01,1.570000000000282503e+00,2.870000000000000000e+03,-2.174999999999879474e+00,-4.944999999999181384e+00,1.336484714702843668e+01,-2.175698012048095986e+00
1.999999999999917932e+01,2.999999999733583333e+00,1.000000000001045208e+01,6.599999999999673905e-01,1.570000000000167484e+00,2.869999999999998636e+03,-2.174999999999899458e+00,-4.944999999999478923e+00,1.337266614438806123e+01,-2.170724026971724285e+00
1.999999999999926459e+01,2.999999999721693289e+00,9.999999999999067413e+00,6.600000000000945111e-01,1.569999999999896145e+00,2.870000000000000000e+03,-2.174999999999965183e+00,-4.945000000000375096e+00,1.338774550727907808e+01,-2.148749859018373343e+00
1.999999999999986144e+01,3.000000000284713142e+00,9.999999999996488143e+00,6.600000000002699263e-01,1.569999999999627693e+00,2.870000000000001364e+03,-2.175000000000065992e+00,-4.945000000001098073e+00,1.337572115986303700e+01,-2.160780591399999118e+00
1.999999999999948841e+01,3.000000000560318458e+00,9.999999999996434852e+00,6.600000000002772538e-01,1.569999999999633244e+00,2.869999999999993179e+03,-2.175000000000037570e+00,-4.945000000001065210e+00,1.338117375954488431e+01,-2.154428724796837891e+00
1.999999999999959499e+01,3.000000000137324818e+00,9.999999999998053113e+00,6.600000000002094191e-01,1.569999999999676543e+00,2.870000000000000000e+03,-2.175000000000043787e+00,-4.945000000000993268e+00,1.338569943901405601e+01,-2.167614910090869262e+00
1.999999999999956657e+01,3.000000000622402130e+00,1.000000000000588685e+01,6.600000000000249001e-01,1.570000000000041140e+00,2.870000000000000000e+03,-2.174999999999956746e+00,-4.944999999999883045e+00,1.338850586199330550e+01,-2.168920305372094681e+00
1.999999999999936051e+01,3.000000001224629287e+00,1.000000000000923173e+01,6.600000000001807754e-01,1.569999999999834417e+00,2.870000000000000909e+03,-2.174999999999996270e+00,-4.945000000000500329e+00,1.337097192147610691e+01,-2.183051116461363961e+00
1.999999999999936762e+01,3.000000001258439131e+00,1.000000000001048051e+01,6.600000000000518785e-01,1.570000000000026263e+00,2.870000000000000909e+03,-2.174999999999964295e+00,-4.944999999999984297e+00,1.338652221380430873e+01,-2.173649134895202728e+00
1.999999999999914024e+01,3.000000001437718833e+00,1.000000000000174438e+01,6.600000000001269296e-01,1.569999999999855511e+00,2.870000000000001364e+03,-2.174999999999958966e+00,-4.945000000000548290e+00,1.336500185358470816e+01,-2.175054237116824662e+00
1.999999999999926104e+01,3.000000001199564892e+00,1.000000000001425526e+01,6.600000000002309575e-01,1.569999999999697415e+00,2.870000000000002728e+03,-2.175000000000042455e+00,-4.945000000001028795e+00,1.335622167038387254e+01,-2.188056285443544802e+00
1.999999999999927169e+01,3.000000000192124094e+00,1.000000000000695088e+01,6.600000000000391109e-01,1.569999999999915685e+00,2.870000000000001819e+03,-2.174999999999969624e+00,-4.945000000000430163e+00,1.337213890539525529e+01,-2.165871235254718918e+00
1.999999999999906564e+01,3.000000000591820815e+00,1.000000000000415490e+01,6.599999999999784928e-01,1.570000000000051132e+00,2.870000000000000000e+03,-2.174999999999940758e+00,-4.945000000000063345e+00,1.337374535714196000e+01,-2.175056552234858387e+00
1.999999999999927880e+01,3.000000001246682313e+00,9.999999999993725908e+00,6.600000000001092770e-01,1.569999999999911910e+00,2.869999999999999545e+03,-2.174999999999991385e+00,-4.945000000000350227e+00,1.337717392787393500e+01,-2.169862324779296525e+00
1.999999999999932143e+01,3.000000000035940140e+00,1.000000000000585132e+01,6.600000000002468337e-01,1.569999999999738938e+00,2.870000000000004093e+03,-2.175000000000055778e+00,-4.945000000000868923e+00,1.337136263078199327e+01,-2.167505189987745773e+00
1.999999999999919709e+01,3.000000001804195904e+00,9.999999999989331201e+00,6.600000000002612666e-01,1.569999999999701412e+00,2.870000000000002274e+03,-2.175000000000037570e+00,-4.945000000000963958e+00,1.336986817064551758e+01,-2.172323021472195137e+00
1.999999999999926459e+01,3.000000002023607504e+00,9.999999999991324273e+00,6.600000000001130518e-01,1.569999999999861950e+00,2.870000000000003638e+03,-2.174999999999993605e+00,-4.945000000000561613e+00,1.336892657095800274e+01,-2.174392324279322608e+00
1.999999999999937472e+01,3.000000005181080454e+00,1.000000000002414424e+01,6.600000000000043610e-01,1.570000000000132623e+00,2.869999999999987267e+03,-2.174999999999931877e+00,-4.944999999999558860e+00,1.336706202130457299e+01,-2.209964331697216178e+00
1.999999999999921485e+01,3.000000003234404300e+00,1.000000000001932321e+01,6.600000000000093570e-01,1.570000000000158158e+00,2.869999999999985903e+03,-2.174999999999922551e+00,-4.944999999999513562e+00,1.337687649455265770e+01,-2.194919029813293676e+00
1.999999999999937472e+01,3.000000005041730144e+00,1.000000000000719247e+01,6.599999999999536238e-01,1.570000000000167928e+00,2.869999999999989996e+03,-2.174999999999897238e+00,-4.944999999999468265e+00,1.338547453098330209e+01,-2.185287199242503586e+00
1.999999999999983658e+01,3.000000003390155268e+00,1.000000000000952305e+01,6.600000000002341771e-01,1.569999999999750928e+00,2.869999999999984539e+03,-2.175000000000042011e+00,-4.945000000000637996e+00,1.338315602923765191e+01,-2.184740189191851645e+00
1.999999999999961275e+01,3.000000001884964185e+00,1.000000000003429257e+01,6.600000000001972067e-01,1.569999999999856399e+00,2.869999999999994088e+03,-2.175000000000019806e+00,-4.945000000000336904e+00,1.338628139719204668e+01,-2.182464006187230243e+00
1.999999999999943512e+01,3.000000000902931951e+00,1.000000000000843947e+01,6.600000000001209344e-01,1.569999999999964091e+00,2.869999999999989541e+03,-2.174999999999978506e+00,-4.945000000000022489e+00,1.339748524807828112e+01,-2.174966968267939116e+00
1.999999999999942446e+01,3.000000001805356309e+00,1.000000000001545608e+01,6.600000000001545741e-01,1.569999999999896589e+00,2.869999999999994543e+03,-2.174999999999997158e+00,-4.945000000000320028e+00,1.339180942918421380e+01,-2.174432122080314667e+00
1.999999999999939249e+01,3.000000001226992286e+00,1.000000000002257750e+01,6.600000000000941780e-01,1.569999999999987184e+00,2.869999999999997272e+03,-2.174999999999986056e+00,-4.945000000000055351e+00,1.338036416239518722e+01,-2.178687317885374952e+00
2.000000000000013856e+01,3.000000003184609021e+00,9.999999999993242739e+00,6.600000000001655653e-01,1.569999999999842188e+00,2.869999999999994543e+03,-2.175000000000034017e+00,-4.945000000000344897e+00,1.337870050974865421e+01,-2.191900430870113770e+00
1.999999999999997868e+01,3.000000003247775382e+00,1.000000000000397193e+01,6.600000000000900702e-01,1.569999999999937446e+00,2.869999999999994998e+03,-2.175000000000000711e+00,-4.945000000000127294e+00,1.338835003277328184e+01,-2.183227920759276408e+00
1.999999999999989342e+01,3.000000003620853395e+00,1.000000000000077272e+01,6.600000000002208544e-01,1.569999999999772688e+00,2.869999999999993179e+03,-2.175000000000037126e+00,-4.945000000000619345e+00,1.338496664235755063e+01,-2.179267810699919483e+00
1.999999999999996447e+01,3.000000003388168857e+00,1.000000000000453504e+01,6.600000000001842171e-01,1.569999999999835527e+00,2.869999999999994543e+03,-2.175000000000028244e+00,-4.945000000000403517e+00,1.338722159691688063e+01,-2.178322810239439633e+00
2.000000000000034461e+01,2.999999998583225747e+00,9.999999999978552268e+00,6.600000000003527489e-01,1.569999999999411422e+00,2.869999999999976808e+03,-2.175000000000204103e+00,-4.945000000001781082e+00,1.343635316837493932e+01,-2.123945539805971894e+00
2.000000000000038725e+01,3.000000001774139946e+00,9.999999999983026910e+00,6.600000000001747802e-01,1.569999999999799778e+00,2.869999999999990905e+03,-2.175000000000080647e+00,-4.945000000000375984e+00,1.343049276785702872e+01,-2.131424023667192191e+00
2.000000000000017408e+01,3.000000002083769601e+00,9.999999999998795630e+00,6.600000000003851675e-01,1.569999999999509122e+00,2.869999999999995907e+03,-2.175000000000171685e+00,-4.945000000001310347e+00,1.342172661540317158e+01,-2.149249302809599804e+00
1.999999999999956657e+01,2.999999999243108562e+00,1.000000000000786038e+01,6.600000000001876588e-01,1.569999999999649676e+00,2.869999999999980446e+03,-2.175000000000064215e+00,-4.945000000001058993e+00,1.340379774843309413e+01,-2.148269264026946068e+00
1.999999999999943867e+01,2.999999998872719065e+00,1.000000000001235634e+01,6.599999999996124522e-01,1.570000000000613127e+00,2.869999999999996817e+03,-2.174999999999823963e+00,-4.944999999998195506e+00,1.343341378892562155e+01,-2.136566876139178284e+00
1.999999999999929301e+01,2.999999996341373709e+00,1.000000000002251888e+01,6.600000000002179679e-01,1.569999999999790896e+00,2.869999999999997726e+03,-2.175000000000013145e+00,-4.945000000000609575e+00,1.343618392842218157e+01,-2.132875380513137742e+00
1.999999999999971934e+01,3.000000001857018539e+00,9.999999999969453768e+00,6.600000000000928457e-01,1.569999999999927454e+00,2.869999999999997726e+03,-2.174999999999953637e+00,-4.945000000000190354e+00,1.340905862531352888e+01,-2.131947147026928668e+00
2.000000000000020606e+01,3.000000002563301127e+00,9.999999999980820675e+00,6.600000000001770006e-01,1.569999999999781126e+00,2.870000000000001819e+03,-2.175000000000036238e+00,-4.945000000000526086e+00,1.340010595299624718e+01,-2.147332834057370743e+00
2.000000000000106581e+01,3.000000001319064857e+00,9.999999999967858599e+00,6.600000000003130030e-01,1.569999999999458939e+00,2.869999999999987267e+03,-2.175000000000185452e+00,-4.945000000001472884e+00,1.339029642052703650e+01,-2.182241087739438701e+00
2.000000000000090239e+01,3.000000000500273600e+00,9.999999999981701748e+00,6.600000000004631051e-01,1.569999999999333928e+00,2.869999999999985903e+03,-2.175000000000213429e+00,-4.945000000001736673e+00,1.340150015158842933e+01,-2.174871550858909153e+00
2.000000000000104450e+01,3.000000000190408134e+00,1.000000000000187761e+01,6.600000000002372857e-01,1.569999999999586393e+00,2.869999999999983174e+03,-2.175000000000157030e+00,-4.945000000001082086e+00,1.339526559108559844e+01,-2.170829882832035818e+00
2.000000000000121148e+01,3.000000000598624261e+00,9.999999999988988364e+00,6.600000000002019807e-01,1.569999999999602602e+00,2.869999999999985448e+03,-2.175000000000166356e+00,-4.945000000000962181e+00,1.339948752195833137e+01,-2.180203845436969878e+00
2.000000000000133937e+01,3.000000000428594049e+00,9.999999999995445421e+00,6.600000000004246914e-01,1.569999999999286411e+00,2.869999999999994088e+03,-2.175000000000223643e+00,-4.945000000001917861e+00,1.337496595722734938e+01,-2.185976172895363945e+00
2.000000000000085265e+01,3.000000001427389762e+00,1.000000000000063594e+01,6.600000000002105294e-01,1.569999999999613705e+00,2.869999999999989996e+03,-2.175000000000109956e+00,-4.945000000000960405e+00,1.338750947400132851e+01,-2.191035291975582222e+00
2.000000000000098055e+01,3.000000000677098377e+00,9.999999999994155786e+00,6.600000000002071987e-01,1.569999999999574625e+00,2.869999999999994088e+03,-2.175000000000113065e+00,-4.945000000001092744e+00,1.337594191396485854e+01,-2.190199204067134531e+00
2.000000000000110845e+01,3.000000000125616850e+00,9.999999999982506438e+00,6.600000000002340661e-01,1.569999999999557971e+00,2.869999999999988631e+03,-2.175000000000141043e+00,-4.945000000001162022e+00,1.339279473465559711e+01,-2.183163997855811278e+00
2.000000000000042633e+01,2.999999999158667219e+00,1.000000000000666311e+01,6.599999999997676614e-01,1.570000000000279616e+00,2.869999999999993179e+03,-2.174999999999943423e+00,-4.944999999999091678e+00,1.341013134451669764e+01,-2.170308522570025378e+00
1.999999999999984723e+01,2.999999999702149811e+00,1.000000000002011724e+01,6.599999999998562572e-01,1.570000000000169704e+00,2.870000000000004547e+03,-2.174999999999942979e+00,-4.944999999999515339e+00,1.340097036012053877e+01,-2.174286143736442689e+00
1.999999999999995026e+01,3.000000001577292075e+00,1.000000000002626344e+01,6.599999999997464561e-01,1.570000000000348450e+00,2.870000000000001819e+03,-2.174999999999903011e+00,-4.944999999998988649e+00,1.338210604965326489e+01,-2.191563967663079815e+00
1.999999999999996092e+01,3.000000000767154784e+00,1.000000000001395861e+01,6.599999999998010791e-01,1.570000000000269180e+00,2.869999999999999091e+03,-2.174999999999931433e+00,-4.944999999999219575e+00,1.340078128010972591e+01,-2.166444905329086623e+00
2.000000000000007461e+01,3.000000001192146826e+00,1.000000000002602363e+01,6.599999999998931166e-01,1.570000000000176810e+00,2.870000000000002274e+03,-2.174999999999982947e+00,-4.944999999999486029e+00,1.339241468402343216e+01,-2.187560849427049536e+00
1.999999999999966604e+01,3.000000001210172851e+00,1.000000000004222045e+01,6.599999999998771294e-01,1.570000000000182583e+00,2.870000000000003638e+03,-2.174999999999948752e+00,-4.944999999999490470e+00,1.338727750831404073e+01,-2.188920756537654722e+00
2.000000000000014566e+01,2.999999998968624126e+00,1.000000000001613998e+01,6.599999999999492939e-01,1.570000000000044471e+00,2.870000000000000455e+03,-2.174999999999994049e+00,-4.944999999999826201e+00,1.339612001538308128e+01,-2.177469102491115915e+00
2.000000000000027356e+01,2.999999999635795334e+00,1.000000000000962963e+01,6.600000000000989520e-01,1.569999999999854401e+00,2.870000000000000455e+03,-2.175000000000054445e+00,-4.945000000000409734e+00,1.339138336249370909e+01,-2.182042414402054931e+00
2.000000000000072120e+01,2.999999997350678349e+00,1.000000000000503597e+01,6.600000000001619016e-01,1.569999999999744489e+00,2.869999999999991815e+03,-2.175000000000092193e+00,-4.945000000000598916e+00,1.339241021822867062e+01,-2.154341762186771092e+00
2.000000000000086686e+01,2.999999997017340547e+00,1.000000000000623679e+01,6.600000000001950973e-01,1.569999999999664109e+00,2.869999999999993634e+03,-2.175000000000131717e+00,-4.945000000000849383e+00,1.339039826251655185e+01,-2.158453801093726643e+00
2.000000000000042633e+01,2.999999997222369430e+00,1.000000000002030909e+01,6.600000000001395861e-01,1.569999999999761364e+00,2.869999999999994998e+03,-2.175000000000066880e+00,-4.945000000000575824e+00,1.339603021883219114e+01,-2.159853103841784083e+00
2.000000000000006040e+01,2.999999998469670803e+00,1.000000000003432277e+01,6.599999999999469624e-01,1.570000000000112195e+00,2.869999999999995453e+03,-2.174999999999960743e+00,-4.944999999999629914e+00,1.338724975621795643e+01,-2.175902935785650527e+00
2.000000000000019540e+01,2.999999999009180129e+00,1.000000000002064482e+01,6.599999999999168754e-01,1.570000000000111751e+00,2.869999999999993634e+03,-2.174999999999965627e+00,-4.944999999999642348e+00,1.338409738702168639e+01,-2.173924395689026845e+00
1.999999999999998579e+01,2.999999999239512771e+00,1.000000000000888001e+01,6.599999999998840128e-01,1.570000000000164597e+00,2.869999999999996362e+03,-2.174999999999926992e+00,-4.944999999999529550e+00,1.337775349211928599e+01,-2.182708637658363315e+00
2.000000000000051870e+01,2.999999998037092830e+00,1.000000000001300293e+01,6.599999999997171463e-01,1.570000000000333573e+00,2.869999999999996362e+03,-2.174999999999910560e+00,-4.944999999998965556e+00,1.338334789066840536e+01,-2.176555770299476666e+00
1.999999999999997158e+01,2.999999999334830747e+00,1.000000000002809664e+01,6.600000000000066924e-01,1.569999999999978302e+00,2.869999999999989996e+03,-2.175000000000005596e+00,-4.944999999999966533e+00,1.339383602654953087e+01,-2.177517982911784777e+00
2.000000000000020250e+01,2.999999999404898254e+00,1.000000000001463007e+01,6.599999999999954792e-01,1.569999999999963425e+00,2.869999999999989541e+03,-2.175000000000018918e+00,-4.945000000000091767e+00,1.338101539526406647e+01,-2.174332011925909303e+00
2.000000000000005329e+01,2.999999998556934333e+00,1.000000000002647838e+01,6.599999999998498179e-01,1.570000000000172147e+00,2.869999999999989541e+03,-2.174999999999970512e+00,-4.944999999999498463e+00,1.338637424719749269e+01,-2.177653527641911335e+00
2.000000000000010658e+01,2.999999998732935769e+00,1.000000000002530243e+01,6.599999999998309441e-01,1.570000000000172369e+00,2.869999999999984084e+03,-2.174999999999961631e+00,-4.944999999999494023e+00,1.339669652938141908e+01,-2.159275720438957880e+00
2.000000000000024514e+01,3.000000000737556682e+00,1.000000000003135803e+01,6.600000000001463585e-01,1.569999999999866169e+00,2.869999999999999091e+03,-2.175000000000036238e+00,-4.945000000000254303e+00,1.339746047150885921e+01,-2.162979702795301939e+00
1.999999999999982947e+01,3.000000000150095048e+00,1.000000000002457057e+01,6.600000000000667555e-01,1.570000000000049578e+00,2.870000000000002728e+03,-2.174999999999994493e+00,-4.944999999999807550e+00,1.339810679742054056e+01,-2.160961973650232792e+00
2.000000000000041567e+01,2.999999999587009469e+00,1.000000000001749889e+01,6.599999999999328626e-01,1.570000000000160600e+00,2.869999999999999545e+03,-2.175000000000010481e+00,-4.944999999999430962e+00,1.338879324087460176e+01,-2.170301282908260188e+00
2.000000000000041922e+01,2.999999999139420837e+00,1.000000000002818723e+01,6.599999999999800471e-01,1.570000000000107310e+00,2.869999999999994998e+03,-2.175000000000025135e+00,-4.944999999999578399e+00,1.339153902468568624e+01,-2.170109929566415463e+00
2.000000000000052580e+01,2.999999998917236343e+00,1.000000000000711964e+01,6.600000000001500222e-01,1.569999999999881712e+00,2.870000000000001819e+03,-2.175000000000081091e+00,-4.945000000000205453e+00,1.338246630443532048e+01,-2.163425632409620381e+00
2.000000000000076383e+01,2.999999999939714002e+00,1.000000000002331291e+01,6.600000000001133849e-01,1.569999999999876827e+00,2.869999999999995453e+03,-2.175000000000118394e+00,-4.945000000000253415e+00,1.337954317891945522e+01,-2.168949553732808955e+00
2.000000000000090594e+01,2.999999997439711130e+00,1.000000000001959322e+01,6.599999999999918154e-01,1.569999999999978524e+00,2.869999999999995453e+03,-2.175000000000073097e+00,-4.944999999999972751e+00,1.339416289817813777e+01,-2.149121905175721992e+00
2.000000000000039790e+01,2.999999999350124735e+00,1.000000000002393286e+01,6.600000000000668665e-01,1.569999999999974527e+00,2.869999999999995453e+03,-2.175000000000050004e+00,-4.944999999999969198e+00,1.339286279404295499e+01,-2.168722057700875450e+00
2.000000000000047606e+01,2.999999998931061285e+00,1.000000000002214229e+01,6.600000000000109113e-01,1.570000000000040474e+00,2.870000000000000909e+03,-2.175000000000035794e+00,-4.944999999999798668e+00,1.338528651363646738e+01,-2.170843054446457643e+00
1.999999999999993605e+01,3.000000000073216988e+00,1.000000000003520029e+01,6.599999999999254241e-01,1.570000000000187468e+00,2.870000000000005912e+03,-2.174999999999945643e+00,-4.944999999999414086e+00,1.337724337818339215e+01,-2.184089191553144182e+00
2.000000000000088818e+01,3.000000002520633924e+00,1.000000000000268585e+01,6.600000000001706724e-01,1.569999999999641238e+00,2.869999999999990905e+03,-2.175000000000180567e+00,-4.945000000000954188e+00,1.341803762446480164e+01,-2.139136301925228523e+00
2.000000000000056133e+01,3.000000001235681335e+00,1.000000000000204814e+01,6.599999999999287548e-01,1.569999999999989404e+00,2.869999999999993634e+03,-2.175000000000056222e+00,-4.944999999999994955e+00,1.343403485956322108e+01,-2.135938673488606554e+00
1.999999999999939959e+01,2.999999999137472173e+00,1.000000000000632738e+01,6.599999999994069499e-01,1.570000000000878471e+00,2.869999999999992269e+03,-2.174999999999730704e+00,-4.944999999997627071e+00,1.338129129092641456e+01,-2.186519348148766806e+00
1.999999999999910827e+01,2.999999999191003131e+00,1.000000000000606448e+01,6.599999999995578293e-01,1.570000000000688845e+00,2.869999999999997726e+03,-2.174999999999756906e+00,-4.944999999998191065e+00,1.338764599096834473e+01,-2.183690109516523759e+00
1.999999999999923972e+01,3.000000000599574168e+00,1.000000000001139711e+01,6.599999999994414779e-01,1.570000000000848495e+00,2.869999999999995907e+03,-2.174999999999719158e+00,-4.944999999997702567e+00,1.337952590408597686e+01,-2.195666280172110518e+00
2.000000000000014566e+01,3.000000002498486751e+00,9.999999999997998046e+00,6.600000000000649791e-01,1.569999999999915241e+00,2.869999999999983629e+03,-2.175000000000025580e+00,-4.945000000000244533e+00,1.343991308245861305e+01,-2.126485087818632103e+00
2.000000000000026290e+01,3.000000000387895049e+00,9.999999999956836305e+00,6.599999999997974154e-01,1.570000000000285612e+00,2.869999999999992269e+03,-2.174999999999954081e+00,-4.944999999999055262e+00,1.344411752195803267e+01,-2.142710601268035919e+00
2.000000000000024514e+01,3.000000000868465300e+00,9.999999999949597651e+00,6.599999999996489786e-01,1.570000000000406626e+00,2.869999999999989541e+03,-2.174999999999900346e+00,-4.944999999998790585e+00,1.344081794980997024e+01,-2.151491569356432709e+00
1.999999999999988631e+01,3.000000000939715861e+00,9.999999999991858957e+00,6.599999999998032996e-01,1.570000000000307594e+00,2.869999999999990450e+03,-2.174999999999917666e+00,-4.944999999999076579e+00,1.341826962477575336e+01,-2.144832298486558209e+00
2.000000000000029132e+01,2.999999998927831868e+00,9.999999999975084819e+00,6.599999999997993028e-01,1.570000000000318030e+00,2.869999999999990450e+03,-2.174999999999918998e+00,-4.944999999999010853e+00,1.342752431732263751e+01,-2.130511874485903512e+00
2.000000000000016342e+01,2.999999998387044009e+00,9.999999999988753885e+00,6.599999999996183364e-01,1.570000000000531415e+00,2.869999999999983174e+03,-2.174999999999865263e+00,-4.944999999998446860e+00,1.341390753889963072e+01,-2.129932937371548984e+00
2.000000000000067146e+01,2.999999998642866483e+00,1.000000000001444178e+01,6.599999999997703259e-01,1.570000000000181029e+00,2.870000000000001364e+03,-2.174999999999997602e+00,-4.944999999999436291e+00,1.341747651631013838e+01,-2.145142024254373503e+00
1.999999999999981171e+01,3.000000001312375986e+00,1.000000000001493206e+01,6.599999999997617772e-01,1.570000000000163043e+00,2.869999999999997726e+03,-2.174999999999926104e+00,-4.944999999999641460e+00,1.340329837554209291e+01,-2.158365154180488688e+00
2.000000000000100897e+01,2.999999998669650392e+00,1.000000000000250999e+01,6.599999999999991429e-01,1.569999999999833307e+00,2.869999999999991360e+03,-2.175000000000095302e+00,-4.945000000000342233e+00,1.342925729100387677e+01,-2.139545599863952319e+00
1.999999999999887734e+01,2.999999995937904895e+00,9.999999999990315303e+00,6.600000000001606804e-01,1.569999999999982077e+00,2.869999999999995453e+03,-2.174999999999971401e+00,-4.945000000000156604e+00,1.341895899461149533e+01,-2.132877818822867866e+00
1.999999999999911182e+01,2.999999997504226634e+00,9.999999999980204279e+00,6.600000000000477707e-01,1.570000000000165929e+00,2.869999999999999545e+03,-2.174999999999951861e+00,-4.944999999999596163e+00,1.340699201201026369e+01,-2.144592661074874673e+00
2.000000000000023448e+01,2.999999997247723815e+00,1.000000000004027889e+01,6.600000000002483880e-01,1.569999999999539764e+00,2.869999999999986358e+03,-2.175000000000134825e+00,-4.945000000001358309e+00,1.343557327210380947e+01,-2.125789062054981304e+00
1.999999999999889511e+01,2.999999998385838307e+00,1.000000000004303402e+01,6.599999999999985878e-01,1.570000000000142615e+00,2.869999999999998636e+03,-2.174999999999915445e+00,-4.944999999999654783e+00,1.340234092620774398e+01,-2.166770087160078351e+00
1.999999999999930012e+01,2.999999998156581693e+00,1.000000000002753353e+01,6.600000000000239009e-01,1.570000000000073337e+00,2.870000000000000909e+03,-2.174999999999934985e+00,-4.944999999999894591e+00,1.341866388560354473e+01,-2.145856420376289986e+00
1.999999999999920064e+01,2.999999998706055493e+00,1.000000000002855494e+01,6.599999999999843769e-01,1.570000000000099316e+00,2.870000000000002274e+03,-2.174999999999930100e+00,-4.944999999999874163e+00,1.340423126732204651e+01,-2.153991109775428736e+00
1.999999999999888090e+01,2.999999998157556469e+00,1.000000000003053913e+01,6.600000000002288481e-01,1.569999999999723395e+00,2.869999999999997726e+03,-2.175000000000014477e+00,-4.945000000000922213e+00,1.342075102274296405e+01,-2.142422181542640303e+00
1.999999999999924327e+01,3.000000000376793263e+00,9.999999999998289368e+00,6.600000000001950973e-01,1.569999999999722728e+00,2.869999999999996362e+03,-2.175000000000007816e+00,-4.945000000000915108e+00,1.341804110305378828e+01,-2.147665093655608093e+00
1.999999999999916156e+01,3.000000000518783239e+00,9.999999999985236698e+00,6.600000000003183320e-01,1.569999999999514895e+00,2.869999999999994088e+03,-2.175000000000092193e+00,-4.945000000001571472e+00,1.343935758743090858e+01,-2.127536038375444249e+00
1.999999999999987210e+01,3.000000001150860740e+00,9.999999999975155873e+00,6.600000000000723066e-01,1.569999999999951878e+00,2.870000000000001819e+03,-2.174999999999996714e+00,-4.945000000000159268e+00,1.342912235732450910e+01,-2.149304530721554585e+00
2.000000000000039435e+01,3.000000000575075543e+00,9.999999999985160315e+00,6.600000000000547651e-01,1.569999999999826423e+00,2.869999999999984993e+03,-2.175000000000082867e+00,-4.945000000000468354e+00,1.341552217171416750e+01,-2.159401329069031927e+00
1.999999999999984013e+01,3.000000003406466220e+00,9.999999999982895460e+00,6.599999999998437117e-01,1.570000000000262297e+00,2.869999999999988631e+03,-2.174999999999914113e+00,-4.944999999999292406e+00,1.338939661715374463e+01,-2.142725205631148988e+00
2.000000000000023803e+01,3.000000000308399972e+00,9.999999999996134648e+00,6.600000000001378098e-01,1.569999999999790674e+00,2.869999999999989086e+03,-2.175000000000031353e+00,-4.945000000000604246e+00,1.342545638829543364e+01,-2.124905561688653410e+00
1.999999999999987921e+01,3.000000001537221461e+00,1.000000000000776978e+01,6.600000000000548761e-01,1.569999999999850626e+00,2.869999999999985903e+03,-2.175000000000022027e+00,-4.945000000000487006e+00,1.341630447070332366e+01,-2.147161006642283709e+00
1.999999999999965539e+01,3.000000001409961481e+00,9.999999999992054356e+00,6.600000000002169687e-01,1.569999999999708296e+00,2.869999999999981810e+03,-2.175000000000043343e+00,-4.945000000000959517e+00,1.341081387837361127e+01,-2.117627421320518177e+00
1.999999999999896971e+01,2.999999998980413363e+00,1.000000000003357314e+01,6.599999999998301670e-01,1.570000000000289164e+00,2.869999999999997272e+03,-2.174999999999872813e+00,-4.944999999999218687e+00,1.339105587223406779e+01,-2.132497393307203115e+00
2.000000000000069988e+01,2.999999997579632982e+00,9.999999999981859844e+00,6.600000000002922418e-01,1.569999999999591500e+00,2.869999999999976808e+03,-2.175000000000141487e+00,-4.945000000000980833e+00,1.341764022870549766e+01,-2.124395017848364819e+00
2.000000000000081357e+01,3.000000002239612495e+00,9.999999999986416199e+00,6.600000000002529399e-01,1.569999999999561080e+00,2.869999999999987722e+03,-2.175000000000149480e+00,-4.945000000001058993e+00,1.340141319379278428e+01,-2.121302049606893725e+00
2.000000000000042988e+01,2.999999999789960459e+00,9.999999999963780084e+00,6.600000000005671330e-01,1.569999999999180051e+00,2.869999999999983629e+03,-2.175000000000209877e+00,-4.945000000002149676e+00,1.342877827354246278e+01,-2.126945863427124994e+00
2.000000000000014211e+01,2.999999997031859156e+00,9.999999999983993249e+00,6.600000000000866285e-01,1.569999999999871054e+00,2.869999999999984084e+03,-2.175000000000058442e+00,-4.945000000000360885e+00,1.342475608816719124e+01,-2.135513210744476975e+00
1.999999999999945999e+01,2.999999996951657533e+00,1.000000000000523492e+01,6.600000000000701972e-01,1.569999999999991847e+00,2.869999999999987267e+03,-2.175000000000014921e+00,-4.945000000000058016e+00,1.341584567380683524e+01,-2.135914519696096914e+00
1.999999999999986855e+01,2.999999998997240347e+00,9.999999999978889775e+00,6.599999999998406031e-01,1.570000000000109974e+00,2.869999999999977717e+03,-2.174999999999915890e+00,-4.944999999999705409e+00,1.341515097210151275e+01,-2.143003905455086233e+00
2.000000000000023803e+01,2.999999998182948158e+00,9.999999999971478815e+00,6.599999999998032996e-01,1.570000000000141505e+00,2.869999999999982265e+03,-2.174999999999917666e+00,-4.944999999999617479e+00,1.341883495418798766e+01,-2.138090019222384175e+00
2.000000000000107292e+01,3.000000000067715167e+00,9.999999999996123989e+00,6.600000000003773959e-01,1.569999999999301510e+00,2.869999999999978172e+03,-2.175000000000251177e+00,-4.945000000001981810e+00,1.344232734093474235e+01,-2.138524048992298976e+00
2.000000000000130385e+01,2.999999997680091290e+00,9.999999999960355268e+00,6.600000000003108935e-01,1.569999999999341256e+00,2.869999999999990905e+03,-2.175000000000234746e+00,-4.945000000001749108e+00,1.342833079221393433e+01,-2.134044123102923685e+00
2.000000000000097700e+01,2.999999997811922281e+00,9.999999999953940844e+00,6.600000000002964606e-01,1.569999999999425633e+00,2.869999999999989996e+03,-2.175000000000183231e+00,-4.945000000001607887e+00,1.341448505818998882e+01,-2.124513544378119789e+00
1.999999999999995737e+01,2.999999997540847563e+00,9.999999999989594102e+00,6.600000000001629008e-01,1.569999999999705631e+00,2.869999999999992724e+03,-2.175000000000081535e+00,-4.945000000000920437e+00,1.342816266636844524e+01,-2.138455070549505344e+00
1.999999999999975842e+01,2.999999998785960020e+00,9.999999999980333953e+00,6.600000000003490852e-01,1.569999999999464046e+00,2.869999999999999545e+03,-2.175000000000100631e+00,-4.945000000001583018e+00,1.342212199313128096e+01,-2.145141156204018795e+00
2.000000000000052580e+01,2.999999995618475523e+00,9.999999999982794208e+00,6.600000000000382228e-01,1.569999999999784679e+00,2.869999999999990905e+03,-2.175000000000093081e+00,-4.945000000000582041e+00,1.343174421034200705e+01,-2.135501822754397594e+00
2.000000000000083134e+01,2.999999995713701573e+00,9.999999999976203924e+00,6.600000000001264855e-01,1.569999999999703411e+00,2.869999999999986812e+03,-2.175000000000129052e+00,-4.945000000000670859e+00,1.343003060205438537e+01,-2.136152075623363622e+00
1.999999999999979394e+01,2.999999999111556459e+00,9.999999999985213606e+00,6.600000000000235678e-01,1.569999999999943885e+00,2.869999999999997726e+03,-2.174999999999988276e+00,-4.945000000000225882e+00,1.339938625259088489e+01,-2.138781701843852190e+00
1.999999999999972999e+01,2.999999997652256667e+00,9.999999999985934807e+00,6.600000000000415534e-01,1.569999999999856843e+00,2.870000000000002274e+03,-2.175000000000028688e+00,-4.945000000000601581e+00,1.341188393117956146e+01,-2.141532516915515050e+00
1.999999999999994316e+01,2.999999998330003859e+00,9.999999999991599609e+00,6.600000000002655964e-01,1.569999999999645901e+00,2.869999999999987722e+03,-2.175000000000103739e+00,-4.945000000000955964e+00,1.342596317327811839e+01,-2.121910417015786088e+00
2.000000000000039790e+01,2.999999998414761393e+00,9.999999999965552888e+00,6.600000000002809175e-01,1.569999999999589058e+00,2.869999999999990450e+03,-2.175000000000129496e+00,-4.945000000001113172e+00,1.342791762230795349e+01,-2.150488660530551766e+00
2.000000000000033040e+01,2.999999997544144925e+00,9.999999999982723153e+00,6.600000000002539391e-01,1.569999999999685647e+00,2.869999999999989086e+03,-2.175000000000090417e+00,-4.945000000000778329e+00,1.342034006549683589e+01,-2.161563760257113387e+00
1.999999999999972289e+01,3.000000000217893259e+00,9.999999999985909938e+00,6.599999999997515632e-01,1.570000000000320028e+00,2.869999999999979991e+03,-2.174999999999909228e+00,-4.944999999999156515e+00,1.338089759574786619e+01,-2.191050975370936627e+00
1.999999999999988631e+01,3.000000000183757010e+00,9.999999999982929211e+00,6.599999999998540368e-01,1.570000000000186802e+00,2.869999999999982265e+03,-2.174999999999943423e+00,-4.944999999999500240e+00,1.339105470565459832e+01,-2.181551539653816096e+00
1.999999999999909051e+01,3.000000000845098214e+00,1.000000000002015632e+01,6.599999999996123412e-01,1.570000000000585594e+00,2.869999999999984993e+03,-2.174999999999806199e+00,-4.944999999998326068e+00,1.339218317982945727e+01,-2.176898175239998956e+00
1.999999999999914024e+01,2.999999999921656446e+00,9.999999999997507771e+00,6.599999999997682165e-01,1.570000000000330020e+00,2.869999999999984539e+03,-2.174999999999887024e+00,-4.944999999999112106e+00,1.338969066311133282e+01,-2.176445717452377693e+00
1.999999999999942801e+01,3.000000001791089499e+00,9.999999999984343191e+00,6.599999999997394617e-01,1.570000000000323137e+00,2.869999999999981355e+03,-2.174999999999893241e+00,-4.944999999999145857e+00,1.339255294059939239e+01,-2.185684262630292363e+00
1.999999999999976552e+01,3.000000000786097409e+00,9.999999999985474730e+00,6.599999999996980504e-01,1.570000000000415952e+00,2.869999999999978627e+03,-2.174999999999890576e+00,-4.944999999998793250e+00,1.339639450974709511e+01,-2.177767900135489931e+00
1.999999999999978328e+01,3.000000000768134889e+00,9.999999999988979482e+00,6.599999999997012701e-01,1.570000000000385976e+00,2.869999999999981810e+03,-2.174999999999883915e+00,-4.944999999998887397e+00,1.339235988339501482e+01,-2.178733283612748206e+00
1.999999999999968736e+01,3.000000002071371963e+00,9.999999999975623055e+00,6.599999999998050759e-01,1.570000000000469464e+00,2.869999999999994088e+03,-2.174999999999888356e+00,-4.944999999998616502e+00,1.342808540624395874e+01,-2.161404124374068036e+00
1.999999999999980105e+01,3.000000001377551406e+00,9.999999999974535925e+00,6.600000000000131317e-01,1.570000000000176588e+00,2.869999999999989996e+03,-2.174999999999948308e+00,-4.944999999999459384e+00,1.341935670630918054e+01,-2.143023538632029101e+00
1.999999999999837286e+01,2.999999999424061592e+00,1.000000000002576783e+01,6.599999999996714051e-01,1.570000000000568274e+00,2.869999999999988631e+03,-2.174999999999760014e+00,-4.944999999998533013e+00,1.341311556286925999e+01,-2.143381838899792058e+00
1.999999999999892708e+01,3.000000000350376173e+00,1.000000000000229505e+01,6.599999999997919753e-01,1.570000000000338236e+00,2.869999999999993179e+03,-2.174999999999832401e+00,-4.944999999999162732e+00,1.341058720434696205e+01,-2.146441246491521682e+00
1.999999999999933564e+01,3.000000000690897117e+00,9.999999999999198863e+00,6.600000000004783152e-01,1.569999999999317497e+00,2.869999999999997272e+03,-2.175000000000109956e+00,-4.945000000002052865e+00,1.338996424347778635e+01,-2.132414750063448938e+00
1.999999999999970512e+01,3.000000000964860636e+00,9.999999999996605382e+00,6.600000000004578871e-01,1.569999999999340590e+00,2.869999999999996362e+03,-2.175000000000147704e+00,-4.945000000001922302e+00,1.340427761155547159e+01,-2.150647724322060306e+00
2.000000000000024514e+01,2.999999999499527892e+00,9.999999999987826627e+00,6.600000000002809175e-01,1.569999999999619922e+00,2.869999999999999545e+03,-2.175000000000109512e+00,-4.945000000000912443e+00,1.339933450851294516e+01,-2.161492219763544664e+00
2.000000000000003553e+01,3.000000002848158154e+00,9.999999999971203479e+00,6.599999999999780487e-01,1.570000000000021156e+00,2.869999999999986812e+03,-2.174999999999992273e+00,-4.944999999999843965e+00,1.343565186739869510e+01,-2.146873483016916051e+00
1.999999999999929301e+01,3.000000002691425749e+00,1.000000000000600409e+01,6.599999999999087708e-01,1.570000000000134843e+00,2.869999999999998181e+03,-2.174999999999909228e+00,-4.944999999999792450e+00,1.339350023748028917e+01,-2.170110009656520234e+00
1.999999999999898392e+01,3.000000003530105985e+00,9.999999999995379696e+00,6.599999999998839018e-01,1.570000000000215223e+00,2.870000000000000909e+03,-2.174999999999869704e+00,-4.944999999999534879e+00,1.340002035031969463e+01,-2.171568143298743259e+00
1.999999999999904787e+01,3.000000002695388357e+00,1.000000000001166001e+01,6.599999999999704992e-01,1.570000000000064899e+00,2.870000000000002274e+03,-2.174999999999901235e+00,-4.944999999999960316e+00,1.338057489069018935e+01,-2.185071916676633474e+00
1.999999999999886313e+01,3.000000002976883628e+00,1.000000000000213518e+01,6.599999999998713562e-01,1.570000000000218998e+00,2.870000000000003183e+03,-2.174999999999844835e+00,-4.944999999999580176e+00,1.338230916507914969e+01,-2.178938757641162738e+00
1.999999999999926104e+01,3.000000002964143597e+00,1.000000000001111111e+01,6.599999999998923395e-01,1.570000000000151719e+00,2.870000000000003638e+03,-2.174999999999891465e+00,-4.944999999999759588e+00,1.337658599107036217e+01,-2.178032158453425904e+00
1.999999999999904432e+01,3.000000003306769081e+00,1.000000000000814993e+01,6.599999999999593969e-01,1.570000000000116192e+00,2.870000000000004547e+03,-2.174999999999891465e+00,-4.944999999999805773e+00,1.339076118194789800e+01,-2.170889668165640884e+00
1.999999999999961986e+01,3.000000002341268068e+00,1.000000000001243983e+01,6.599999999998922284e-01,1.570000000000079554e+00,2.870000000000000000e+03,-2.174999999999926992e+00,-4.944999999999834195e+00,1.339128999402972475e+01,-2.172181596523089731e+00
1.999999999999863931e+01,3.000000003635001189e+00,1.000000000001191758e+01,6.599999999997020472e-01,1.570000000000435048e+00,2.870000000000000000e+03,-2.174999999999782219e+00,-4.944999999998942464e+00,1.338123037034628204e+01,-2.184987737061264479e+00
1.999999999999918998e+01,3.000000003967501438e+00,1.000000000002845013e+01,6.599999999998479305e-01,1.570000000000185691e+00,2.870000000000001364e+03,-2.174999999999893685e+00,-4.944999999999641460e+00,1.338077139301301521e+01,-2.173978864439120695e+00
1.999999999999917932e+01,3.000000001581193398e+00,1.000000000002097345e+01,6.599999999997812061e-01,1.570000000000424167e+00,2.869999999999995453e+03,-2.174999999999831513e+00,-4.944999999998792362e+00,1.339947036494506349e+01,-2.160299768916562613e+00
1.999999999999917932e+01,3.000000002504745300e+00,1.000000000001248246e+01,6.599999999998039657e-01,1.570000000000316476e+00,2.870000000000000000e+03,-2.174999999999856826e+00,-4.944999999999180496e+00,1.339327147030592968e+01,-2.161554802647574380e+00
1.999999999999981526e+01,3.000000002448475644e+00,9.999999999987528199e+00,6.599999999998654721e-01,1.570000000000163709e+00,2.869999999999999091e+03,-2.174999999999923439e+00,-4.944999999999541984e+00,1.338953057870055474e+01,-2.176094103990791950e+00
1.999999999999923617e+01,3.000000002764191986e+00,9.999999999986867394e+00,6.600000000000135758e-01,1.570000000000022489e+00,2.870000000000000909e+03,-2.174999999999943423e+00,-4.945000000000047358e+00,1.338693845577168773e+01,-2.152644618180301617e+00
1.999999999999912248e+01,3.000000002906757057e+00,9.999999999994166444e+00,6.599999999999347500e-01,1.570000000000185025e+00,2.870000000000001364e+03,-2.174999999999882139e+00,-4.944999999999525997e+00,1.338131994225491717e+01,-2.167320993512551031e+00
1.999999999999889866e+01,3.000000002852943215e+00,9.999999999989009680e+00,6.599999999996757349e-01,1.570000000000586926e+00,2.870000000000000909e+03,-2.174999999999772449e+00,-4.944999999998424656e+00,1.337818677481123508e+01,-2.177814323804192931e+00
1.999999999999861444e+01,3.000000002608025795e+00,1.000000000000634515e+01,6.600000000000032507e-01,1.570000000000120854e+00,2.870000000000005457e+03,-2.174999999999855049e+00,-4.944999999999806661e+00,1.338660737430460124e+01,-2.148751168606198636e+00
1.999999999999904787e+01,3.000000002982734504e+00,1.000000000001704059e+01,6.599999999999255351e-01,1.570000000000235429e+00,2.870000000000006821e+03,-2.174999999999854605e+00,-4.944999999999394547e+00,1.337842192654842854e+01,-2.165380681594671675e+00
1.999999999999829114e+01,3.000000003415086436e+00,1.000000000002314771e+01,6.599999999996765121e-01,1.570000000000612461e+00,2.870000000000000909e+03,-2.174999999999714273e+00,-4.944999999998431761e+00,1.337749507933445869e+01,-2.170471848283742844e+00
1.999999999999885958e+01,3.000000002281992817e+00,1.000000000002835066e+01,6.599999999999429656e-01,1.570000000000203899e+00,2.870000000000004093e+03,-2.174999999999855049e+00,-4.944999999999503792e+00,1.338174315467394315e+01,-2.166396511371007083e+00
1.999999999999972289e+01,3.000000001535759964e+00,1.000000000002367351e+01,6.600000000002539391e-01,1.569999999999668105e+00,2.869999999999998636e+03,-2.175000000000068656e+00,-4.945000000000834284e+00,1.341243323783471730e+01,-2.125533698132031635e+00
1.999999999999960920e+01,3.000000001603176258e+00,1.000000000002928147e+01,6.600000000002801404e-01,1.569999999999613483e+00,2.869999999999999091e+03,-2.175000000000057554e+00,-4.945000000001056328e+00,1.339485827810552543e+01,-2.131878750245495890e+00
2.000000000000004263e+01,3.000000000203526973e+00,1.000000000003709566e+01,6.600000000000925127e-01,1.569999999999799778e+00,2.869999999999998636e+03,-2.175000000000086420e+00,-4.945000000000647766e+00,1.341539120850189093e+01,-2.135239974527373796e+00
2.000000000000050804e+01,2.999999999042249232e+00,1.000000000001532285e+01,6.600000000002175238e-01,1.569999999999617701e+00,2.869999999999994998e+03,-2.175000000000143707e+00,-4.945000000001027907e+00,1.339666646145383844e+01,-2.132978896789462286e+00
1.999999999999959499e+01,2.999999999428161424e+00,1.000000000002194156e+01,6.600000000001768896e-01,1.569999999999784013e+00,2.870000000000000909e+03,-2.175000000000038014e+00,-4.945000000000606910e+00,1.341238951436380944e+01,-2.151580877800497227e+00
2.000000000000056843e+01,2.999999997944121866e+00,9.999999999979610976e+00,6.600000000006126522e-01,1.569999999999174500e+00,2.869999999999994998e+03,-2.175000000000259170e+00,-4.945000000002131024e+00,1.342661005367453519e+01,-2.118473846180658260e+00
2.000000000000070344e+01,2.999999998970791726e+00,9.999999999960891728e+00,6.600000000005100675e-01,1.569999999999349027e+00,2.869999999999989086e+03,-2.175000000000198330e+00,-4.945000000001643414e+00,1.342609995112314358e+01,-2.125793327116693998e+00
2.000000000000065725e+01,2.999999998609828911e+00,1.000000000000370726e+01,6.600000000002924638e-01,1.569999999999390550e+00,2.869999999999994998e+03,-2.175000000000190781e+00,-4.945000000001892992e+00,1.341040546274094858e+01,-2.118929750688010039e+00
2.000000000000141398e+01,2.999999999951410423e+00,1.000000000000280487e+01,6.600000000004072609e-01,1.569999999999191820e+00,2.869999999999996362e+03,-2.175000000000295586e+00,-4.945000000002407248e+00,1.341722968198423871e+01,-2.130068928404621253e+00
2.000000000000015632e+01,3.000000003136177096e+00,9.999999999969602982e+00,6.599999999994375921e-01,1.570000000000592033e+00,2.869999999999990450e+03,-2.174999999999797318e+00,-4.944999999998432649e+00,1.342543988135668798e+01,-2.160811446092307797e+00
1.999999999999999645e+01,3.000000002942688315e+00,9.999999999976106224e+00,6.599999999995647126e-01,1.570000000000452367e+00,2.869999999999987267e+03,-2.174999999999838174e+00,-4.944999999998827001e+00,1.343366696545813888e+01,-2.152394435434937581e+00
2.000000000000055067e+01,2.999999999548996765e+00,9.999999999946279416e+00,6.600000000000387779e-01,1.569999999999964979e+00,2.869999999999994998e+03,-2.175000000000007816e+00,-4.944999999999949658e+00,1.342053639341902027e+01,-2.125832253161351826e+00
2.000000000000034106e+01,2.999999999972169817e+00,9.999999999967581488e+00,6.600000000002453904e-01,1.569999999999625029e+00,2.869999999999997726e+03,-2.175000000000105072e+00,-4.945000000001079421e+00,1.342762721671012294e+01,-2.116217979875373523e+00
2.000000000000032685e+01,3.000000000179467552e+00,9.999999999970905051e+00,6.600000000004043743e-01,1.569999999999382778e+00,2.869999999999997726e+03,-2.175000000000159250e+00,-4.945000000001727791e+00,1.341934269882633934e+01,-2.119328344344215687e+00
2.000000000000020250e+01,2.999999999034927978e+00,9.999999999995035083e+00,6.600000000002606004e-01,1.569999999999647455e+00,2.869999999999997272e+03,-2.175000000000098410e+00,-4.945000000000914220e+00,1.342302301311865165e+01,-2.130336289980820919e+00
2.000000000000001066e+01,3.000000003193229237e+00,9.999999999991585398e+00,6.599999999999220934e-01,1.570000000000064011e+00,2.870000000000000909e+03,-2.174999999999984279e+00,-4.944999999999956763e+00,1.340378819524458365e+01,-2.122513541189295250e+00
1.999999999999978328e+01,2.999999999865414768e+00,9.999999999978374632e+00,6.600000000002691491e-01,1.569999999999499352e+00,2.869999999999999545e+03,-2.175000000000115286e+00,-4.945000000001511076e+00,1.341861788748562212e+01,-2.122846791670249367e+00
2.000000000000019185e+01,3.000000000608869843e+00,9.999999999961660890e+00,6.599999999998665823e-01,1.570000000000087548e+00,2.870000000000000455e+03,-2.174999999999955858e+00,-4.944999999999741824e+00,1.341868217870071511e+01,-2.127404747746926006e+00
2.000000000000004619e+01,3.000000000979636816e+00,9.999999999975162979e+00,6.599999999996915001e-01,1.570000000000313589e+00,2.869999999999999545e+03,-2.174999999999911005e+00,-4.944999999999209805e+00,1.341432049523300485e+01,-2.129750549789349634e+00
