1.999999999999892708e+01,2.999999999744653145e+00,1.000000000003963230e+01,6.599999999996684075e-01,1.570000000000461915e+00,2.870000000000000455e+03,-2.174999999999855049e+00,-4.944999999998877627e+00,1.338327510235091466e+01,-2.194207311433025165e+00
1.999999999999946354e+01,3.000000001467951094e+00,9.999999999988290256e+00,6.600000000000957323e-01,1.569999999999917462e+00,2.869999999999979536e+03,-2.174999999999999378e+00,-4.945000000000369766e+00,1.337833910034898821e+01,-2.159351683930080590e+00
2.000000000000060751e+01,3.000000000386786603e+00,9.999999999975578646e+00,6.600000000000421085e-01,1.569999999999879714e+00,2.869999999999991360e+03,-2.175000000000069544e+00,-4.945000000000342233e+00,1.338096119051295041e+01,-2.176621702770353828e+00
1.999999999999948486e+01,3.000000000616346085e+00,1.000000000001471534e+01,6.600000000001517986e-01,1.569999999999917684e+00,2.870000000000005912e+03,-2.174999999999992717e+00,-4.945000000000242757e+00,1.338445734645378593e+01,-2.180790486463304312e+00
1.999999999999980105e+01,2.999999997951902753e+00,9.999999999979616305e+00,6.599999999996853939e-01,1.570000000000350004e+00,2.869999999999974534e+03,-2.174999999999895461e+00,-4.944999999999092566e+00,1.337128455451891895e+01,-2.182702435263641050e+00
2.000000000000014211e+01,3.000000001336514455e+00,9.999999999995482725e+00,6.599999999998708011e-01,1.570000000000238538e+00,2.869999999999999091e+03,-2.174999999999958522e+00,-4.944999999999337703e+00,1.340462622640307089e+01,-2.147295482551654366e+00
1.999999999999971223e+01,3.000000002515133435e+00,1.000000000002200728e+01,6.599999999997288036e-01,1.570000000000558726e+00,2.870000000000003183e+03,-2.174999999999877254e+00,-4.944999999998514362e+00,1.339059192218093486e+01,-2.164512920903120197e+00
1.999999999999968026e+01,2.999999997977937927e+00,1.000000000001204015e+01,6.599999999998827915e-01,1.570000000000077778e+00,2.869999999999964984e+03,-2.174999999999966960e+00,-4.944999999999864393e+00,1.338972018353504900e+01,-2.199001389992055078e+00
2.000000000000027711e+01,2.999999999602743106e+00,1.000000000000758860e+01,6.599999999999069944e-01,1.570000000000003837e+00,2.869999999999992269e+03,-2.175000000000051337e+00,-4.944999999999986962e+00,1.338331825230763172e+01,-2.165145325359706607e+00
1.999999999999934275e+01,3.000000000264107403e+00,9.999999999987586818e+00,6.600000000002084199e-01,1.569999999999729612e+00,2.870000000000002728e+03,-2.175000000000015365e+00,-4.945000000000796092e+00,1.338001614420546659e+01,-2.165523606955088276e+00
2.000000000000006750e+01,3.000000001014781148e+00,9.999999999978046006e+00,6.600000000000781908e-01,1.569999999999873275e+00,2.869999999999983174e+03,-2.175000000000001155e+00,-4.945000000000343121e+00,1.338130219267633692e+01,-2.192192330839420222e+00
1.999999999999986144e+01,2.999999998417519187e+00,9.999999999990237143e+00,6.600000000000262323e-01,1.570000000000017604e+00,2.869999999999978627e+03,-2.174999999999989608e+00,-4.944999999999960316e+00,1.338449937467992434e+01,-2.172923830954374580e+00
2.000000000000004619e+01,3.000000001058115373e+00,9.999999999975585752e+00,6.600000000001454703e-01,1.569999999999818430e+00,2.869999999999972260e+03,-2.175000000000034905e+00,-4.945000000000431939e+00,1.340186752198753162e+01,-2.167915395434517833e+00
1.999999999999950617e+01,2.999999995640371342e+00,9.999999999994331645e+00,6.599999999999740519e-01,1.569999999999946105e+00,2.869999999999984993e+03,-2.175000000000021583e+00,-4.945000000000326246e+00,1.338339004113006148e+01,-2.176467872117896718e+00
1.999999999999930012e+01,2.999999998103133336e+00,9.999999999982170706e+00,6.600000000004511147e-01,1.569999999999506235e+00,2.869999999999986358e+03,-2.174999999999990052e+00,-4.945000000001417817e+00,1.339993478957055828e+01,-2.138257884146260501e+00
1.999999999999885247e+01,2.999999999048858168e+00,1.000000000002001954e+01,6.599999999997393507e-01,1.570000000000387308e+00,2.869999999999998636e+03,-2.174999999999888800e+00,-4.944999999999057927e+00,1.337923651393413671e+01,-2.173177910085552611e+00
1.999999999999980460e+01,2.999999999641369541e+00,9.999999999969505282e+00,6.599999999997812061e-01,1.570000000000307372e+00,2.869999999999979536e+03,-2.174999999999912781e+00,-4.944999999999225793e+00,1.339774593229847177e+01,-2.175017648530757075e+00
1.999999999999985079e+01,3.000000000630619112e+00,9.999999999971731057e+00,6.599999999999429656e-01,1.570000000000154383e+00,2.869999999999982720e+03,-2.174999999999903011e+00,-4.944999999999517115e+00,1.339445744287347217e+01,-2.166971254026200278e+00
1.999999999999966960e+01,2.999999999236460102e+00,9.999999999984742871e+00,6.599999999997152589e-01,1.570000000000449480e+00,2.869999999999981355e+03,-2.174999999999890132e+00,-4.944999999998848317e+00,1.339921682710774142e+01,-2.167052575445510332e+00
1.999999999999907274e+01,2.999999999614895163e+00,1.000000000000311573e+01,6.599999999996797317e-01,1.570000000000543849e+00,2.869999999999964984e+03,-2.174999999999804423e+00,-4.944999999998551665e+00,1.340573916101997298e+01,-2.166655890670158513e+00
1.999999999999853628e+01,3.000000002372432029e+00,9.999999999983705479e+00,6.599999999998805711e-01,1.570000000000401075e+00,2.869999999999980901e+03,-2.174999999999761791e+00,-4.944999999998906937e+00,1.337004615860427137e+01,-2.191908631409730024e+00
1.999999999999925748e+01,3.000000001495480628e+00,1.000000000001655209e+01,6.600000000000612044e-01,1.569999999999970530e+00,2.870000000000002728e+03,-2.174999999999911005e+00,-4.945000000000101537e+00,1.338606336164730948e+01,-2.177895983206604935e+00
1.999999999999953104e+01,2.999999999715459165e+00,1.000000000000519940e+01,6.600000000000364464e-01,1.570000000000066898e+00,2.869999999999986812e+03,-2.174999999999937206e+00,-4.944999999999907914e+00,1.338307195102141200e+01,-2.175013090644704494e+00
1.999999999999896971e+01,2.999999999008956753e+00,1.000000000002593481e+01,6.599999999998319433e-01,1.570000000000343343e+00,2.869999999999972260e+03,-2.174999999999839950e+00,-4.944999999999049045e+00,1.340297167659145749e+01,-2.177556441429381096e+00
1.999999999999919709e+01,2.999999998581326821e+00,1.000000000000781597e+01,6.600000000001280398e-01,1.569999999999816209e+00,2.869999999999988631e+03,-2.174999999999995826e+00,-4.945000000000628226e+00,1.339675386953943814e+01,-2.175212034062772748e+00
2.000000000000019895e+01,3.000000003079916322e+00,9.999999999980563103e+00,6.600000000001591260e-01,1.569999999999593054e+00,2.869999999999969077e+03,-2.175000000000132161e+00,-4.945000000001198437e+00,1.337582396636167381e+01,-2.184461083301791895e+00
2.000000000000038014e+01,2.999999998798601464e+00,1.000000000000238387e+01,6.599999999996504219e-01,1.570000000000391749e+00,2.869999999999975444e+03,-2.174999999999936762e+00,-4.944999999998973550e+00,1.338185121913323528e+01,-2.182623069438042407e+00
2.000000000000067502e+01,2.999999997298183452e+00,1.000000000001532463e+01,6.599999999997461231e-01,1.570000000000158824e+00,2.869999999999991815e+03,-2.174999999999975842e+00,-4.944999999999524221e+00,1.339634559027238225e+01,-2.173703852119677649e+00
1.999999999999942091e+01,2.999999999872794199e+00,1.000000000003019807e+01,6.600000000001294831e-01,1.569999999999864837e+00,2.869999999999988631e+03,-2.174999999999990052e+00,-4.945000000000398188e+00,1.338660245804943472e+01,-2.180553486068571356e+00
1.999999999999997158e+01,2.999999999330822398e+00,9.999999999981074694e+00,6.599999999998402700e-01,1.570000000000262963e+00,2.869999999999999091e+03,-2.174999999999913669e+00,-4.944999999999271090e+00,1.338791850099619118e+01,-2.170602790015643269e+00
1.999999999999967315e+01,2.999999998976190518e+00,1.000000000000274092e+01,6.599999999999086597e-01,1.570000000000308704e+00,2.869999999999993634e+03,-2.174999999999891021e+00,-4.944999999999051710e+00,1.339990272775250624e+01,-2.178615213702923548e+00
1.999999999999997868e+01,2.999999998624407915e+00,9.999999999989048760e+00,6.599999999998208411e-01,1.570000000000354001e+00,2.869999999999993634e+03,-2.174999999999925215e+00,-4.944999999998996643e+00,1.340053685490453894e+01,-2.162151412782745918e+00
1.999999999999960920e+01,2.999999999733606426e+00,1.000000000000818723e+01,6.600000000001039480e-01,1.569999999999993623e+00,2.869999999999983629e+03,-2.174999999999933653e+00,-4.944999999999942553e+00,1.340665173816308098e+01,-2.152113725479648298e+00
1.999999999999955946e+01,3.000000000669112321e+00,1.000000000002219203e+01,6.600000000001557954e-01,1.569999999999942109e+00,2.870000000000005912e+03,-2.174999999999976286e+00,-4.945000000000086438e+00,1.338708126015478150e+01,-2.171941641867897843e+00
1.999999999999928946e+01,2.999999997466924473e+00,1.000000000001820766e+01,6.599999999998488187e-01,1.570000000000241869e+00,2.869999999999999091e+03,-2.174999999999887912e+00,-4.944999999999359019e+00,1.337955739098359231e+01,-2.198173447652047141e+00
1.999999999999942801e+01,2.999999995608135794e+00,1.000000000001436540e+01,6.599999999997541167e-01,1.570000000000412399e+00,2.869999999999990905e+03,-2.174999999999836398e+00,-4.944999999998839435e+00,1.338377783362204454e+01,-2.205699197825321534e+00
1.999999999999936406e+01,2.999999997298788301e+00,1.000000000001056577e+01,6.599999999998216182e-01,1.570000000000200124e+00,2.869999999999993634e+03,-2.174999999999913669e+00,-4.944999999999512674e+00,1.338868787916347891e+01,-2.211300819066217560e+00
1.999999999999965183e+01,2.999999999197381584e+00,1.000000000001465494e+01,6.600000000000060263e-01,1.569999999999958540e+00,2.869999999999990450e+03,-2.175000000000011813e+00,-4.945000000000202789e+00,1.339302535290280183e+01,-2.188594120529364861e+00
1.999999999999933209e+01,3.000000002198989879e+00,1.000000000003075584e+01,6.599999999999338618e-01,1.570000000000109530e+00,2.869999999999970896e+03,-2.174999999999920774e+00,-4.944999999999724061e+00,1.339724377098354857e+01,-2.176234290592443443e+00
1.999999999999974776e+01,3.000000003091865430e+00,1.000000000001340972e+01,6.600000000000020295e-01,1.569999999999966755e+00,2.869999999999965439e+03,-2.174999999999977618e+00,-4.945000000000061569e+00,1.339083767925742663e+01,-2.179400822876730537e+00
1.999999999999912959e+01,3.000000002219806117e+00,1.000000000000643929e+01,6.599999999997877564e-01,1.570000000000243423e+00,2.870000000000000000e+03,-2.174999999999889244e+00,-4.944999999999534879e+00,1.337315505072455402e+01,-2.182081735072350259e+00
1.999999999999993960e+01,3.000000000010406787e+00,9.999999999976040499e+00,6.600000000000277867e-01,1.569999999999893925e+00,2.869999999999974534e+03,-2.174999999999998934e+00,-4.945000000000400853e+00,1.338127411052411908e+01,-2.176182367596295464e+00
1.999999999999916156e+01,2.999999999085770863e+00,1.000000000003190692e+01,6.599999999998135136e-01,1.570000000000171925e+00,2.870000000000001364e+03,-2.174999999999938538e+00,-4.944999999999738272e+00,1.337992090329517048e+01,-2.210774580991938354e+00
1.999999999999906564e+01,2.999999998041777971e+00,1.000000000000258815e+01,6.599999999999174305e-01,1.570000000000143725e+00,2.869999999999998181e+03,-2.174999999999909228e+00,-4.944999999999706297e+00,1.338712531406596185e+01,-2.201979551853141981e+00
1.999999999999906208e+01,2.999999999670317496e+00,1.000000000000970779e+01,6.600000000001270406e-01,1.569999999999876383e+00,2.869999999999983629e+03,-2.174999999999935429e+00,-4.945000000000361773e+00,1.341166558467432601e+01,-2.180737688818322084e+00
1.999999999999904787e+01,2.999999997073320657e+00,1.000000000000763656e+01,6.599999999999650591e-01,1.570000000000089102e+00,2.869999999999998636e+03,-2.174999999999884803e+00,-4.944999999999824425e+00,1.339506690814431700e+01,-2.194266782129878912e+00
1.999999999999984368e+01,3.000000000874919692e+00,1.000000000002622613e+01,6.599999999997475664e-01,1.570000000000377538e+00,2.870000000000010459e+03,-2.174999999999895017e+00,-4.944999999998915818e+00,1.338130970722833268e+01,-2.180632594858929352e+00
2.000000000000005684e+01,3.000000001814285167e+00,1.000000000001992895e+01,6.599999999998059641e-01,1.570000000000236762e+00,2.869999999999998636e+03,-2.174999999999927436e+00,-4.944999999999326157e+00,1.339470122644973138e+01,-2.192836542601904970e+00
2.000000000000017053e+01,3.000000000973765513e+00,1.000000000000733458e+01,6.599999999998550360e-01,1.570000000000149276e+00,2.870000000000002274e+03,-2.174999999999974065e+00,-4.944999999999567741e+00,1.339223459450128217e+01,-2.187060492316415417e+00
1.999999999999959499e+01,3.000000001985020592e+00,1.000000000001738520e+01,6.599999999998159561e-01,1.570000000000131291e+00,2.869999999999980446e+03,-2.175000000000023359e+00,-4.944999999999825313e+00,1.337730552336192247e+01,-2.183696395654380673e+00
1.999999999999929656e+01,2.999999999913924409e+00,9.999999999999307221e+00,6.599999999998771294e-01,1.570000000000179918e+00,2.869999999999998636e+03,-2.174999999999911449e+00,-4.944999999999635243e+00,1.338945120133010569e+01,-2.159349003234421804e+00
1.999999999999926814e+01,2.999999996716597561e+00,1.000000000000934186e+01,6.599999999995755928e-01,1.570000000000616902e+00,2.869999999999991815e+03,-2.174999999999848388e+00,-4.944999999998417550e+00,1.338802396524783767e+01,-2.184858523500399663e+00
1.999999999999920774e+01,2.999999998796357925e+00,1.000000000002007994e+01,6.599999999996790656e-01,1.570000000000540075e+00,2.869999999999977717e+03,-2.174999999999822631e+00,-4.944999999998581863e+00,1.340423477506391059e+01,-2.182948053148430656e+00
1.999999999999901235e+01,2.999999998810447988e+00,1.000000000000770761e+01,6.599999999997677724e-01,1.570000000000355556e+00,2.869999999999993179e+03,-2.174999999999834177e+00,-4.944999999999081908e+00,1.339596752426686344e+01,-2.175909108548556681e+00
2.000000000000020961e+01,3.000000000010752288e+00,1.000000000002702016e+01,6.599999999998159561e-01,1.570000000000274731e+00,2.869999999999999091e+03,-2.174999999999986944e+00,-4.944999999999140528e+00,1.338709355982079963e+01,-2.209040883809472611e+00
1.999999999999980460e+01,3.000000000084715790e+00,1.000000000000851230e+01,6.599999999996070121e-01,1.570000000000566942e+00,2.870000000000001819e+03,-2.174999999999846167e+00,-4.944999999998440643e+00,1.338264937509426922e+01,-2.201598738184872950e+00
1.999999999999889155e+01,2.999999999008198248e+00,1.000000000002441958e+01,6.599999999996755129e-01,1.570000000000503215e+00,2.869999999999991815e+03,-2.174999999999832845e+00,-4.944999999998778151e+00,1.338829923528340338e+01,-2.187635280632174606e+00
1.999999999999923972e+01,3.000000000877407036e+00,1.000000000003213430e+01,6.599999999995067590e-01,1.570000000000681517e+00,2.869999999999992269e+03,-2.174999999999782219e+00,-4.944999999998208828e+00,1.340204345745201309e+01,-2.177620695274961271e+00
1.999999999999933564e+01,3.000000000847169446e+00,9.999999999991626254e+00,6.599999999998829026e-01,1.570000000000209450e+00,2.869999999999989996e+03,-2.174999999999909672e+00,-4.944999999999545537e+00,1.339295541706563419e+01,-2.156686855301499062e+00
1.999999999999979039e+01,3.000000001542647343e+00,1.000000000001537437e+01,6.599999999999315303e-01,1.570000000000040696e+00,2.869999999999993179e+03,-2.175000000000004263e+00,-4.944999999999991402e+00,1.338365714835426523e+01,-2.166118628169485749e+00
1.999999999999958433e+01,2.999999999359353353e+00,1.000000000001125322e+01,6.599999999999341949e-01,1.570000000000006057e+00,2.869999999999998636e+03,-2.174999999999978950e+00,-4.944999999999983409e+00,1.339887361341148520e+01,-2.186770432131398323e+00
1.999999999999912603e+01,3.000000001679599571e+00,1.000000000001245226e+01,6.600000000000600942e-01,1.569999999999959206e+00,2.870000000000002274e+03,-2.174999999999973621e+00,-4.945000000000129070e+00,1.340077757956785831e+01,-2.157834216572304342e+00
2.000000000000059686e+01,3.000000001443781983e+00,9.999999999976058263e+00,6.600000000000760814e-01,1.569999999999834639e+00,2.870000000000005002e+03,-2.175000000000053113e+00,-4.945000000000365326e+00,1.339122196665310760e+01,-2.159171592775825044e+00
2.000000000000040146e+01,2.999999999653291116e+00,1.000000000000140155e+01,6.600000000002252953e-01,1.569999999999605267e+00,2.869999999999989996e+03,-2.175000000000151257e+00,-4.945000000001142482e+00,1.339214609133061096e+01,-2.164444192519292542e+00
1.999999999999981171e+01,2.999999999113175164e+00,9.999999999994649613e+00,6.599999999996662980e-01,1.570000000000470131e+00,2.869999999999987267e+03,-2.174999999999881695e+00,-4.944999999998776374e+00,1.337951962924577387e+01,-2.183645564497994407e+00
1.999999999999984013e+01,3.000000003497966361e+00,9.999999999988032684e+00,6.599999999999932587e-01,1.570000000000010276e+00,2.869999999999996362e+03,-2.174999999999978062e+00,-4.944999999999949658e+00,1.338589288068371985e+01,-2.187780242722162427e+00
2.000000000000014566e+01,2.999999998451352567e+00,9.999999999980618171e+00,6.599999999998482636e-01,1.570000000000183915e+00,2.869999999999984084e+03,-2.174999999999907896e+00,-4.944999999999428297e+00,1.339805477147269386e+01,-2.161715373043012089e+00
1.999999999999966960e+01,2.999999999534629147e+00,1.000000000001111822e+01,6.599999999998882316e-01,1.570000000000186802e+00,2.869999999999988177e+03,-2.174999999999883915e+00,-4.944999999999450502e+00,1.339221752116779385e+01,-2.172955520627461112e+00
1.999999999999963762e+01,3.000000001196808874e+00,9.999999999988721910e+00,6.600000000001176037e-01,1.569999999999792228e+00,2.869999999999991360e+03,-2.175000000000033573e+00,-4.945000000000669083e+00,1.338484005541746491e+01,-2.168225583806711043e+00
1.999999999999960210e+01,3.000000001115827430e+00,1.000000000000459188e+01,6.600000000000703082e-01,1.569999999999934781e+00,2.869999999999988631e+03,-2.174999999999962075e+00,-4.945000000000157492e+00,1.339043216977638018e+01,-2.158698026662660752e+00
1.999999999999935696e+01,2.999999999011460972e+00,9.999999999976454390e+00,6.600000000001179368e-01,1.569999999999941664e+00,2.869999999999992724e+03,-2.174999999999945643e+00,-4.945000000000182361e+00,1.337647816646949472e+01,-2.190885363334423186e+00
1.999999999999945999e+01,2.999999999555652774e+00,9.999999999962787101e+00,6.599999999999011102e-01,1.570000000000331131e+00,2.869999999999992724e+03,-2.174999999999859934e+00,-4.944999999999009965e+00,1.338853796338505298e+01,-2.173648689189437544e+00
1.999999999999889511e+01,2.999999999891221680e+00,1.000000000000676792e+01,6.599999999999917044e-01,1.570000000000187912e+00,2.870000000000003638e+03,-2.174999999999861711e+00,-4.944999999999534879e+00,1.338213052724001884e+01,-2.196640996091717923e+00
1.999999999999848299e+01,3.000000001430714658e+00,1.000000000000035350e+01,6.599999999999774936e-01,1.570000000000229212e+00,2.869999999999994998e+03,-2.174999999999835953e+00,-4.944999999999388329e+00,1.338428866338065859e+01,-2.186710243742964632e+00
1.999999999999968381e+01,3.000000000928418675e+00,9.999999999979417353e+00,6.600000000001129408e-01,1.569999999999781348e+00,2.869999999999990450e+03,-2.175000000000010925e+00,-4.945000000000622009e+00,1.338576137084898043e+01,-2.186194635326055735e+00
1.999999999999854339e+01,3.000000001479454781e+00,1.000000000000385647e+01,6.600000000002734790e-01,1.569999999999748708e+00,2.869999999999989996e+03,-2.174999999999934541e+00,-4.945000000000814744e+00,1.337900245955876066e+01,-2.188057951440506521e+00
1.999999999999897682e+01,2.999999998284756053e+00,1.000000000003933387e+01,6.599999999998965583e-01,1.570000000000211227e+00,2.870000000000004547e+03,-2.174999999999914557e+00,-4.944999999999560636e+00,1.337947510457446398e+01,-2.215048211119148736e+00
1.999999999999916156e+01,3.000000000123767219e+00,1.000000000002481748e+01,6.599999999998230615e-01,1.570000000000234541e+00,2.869999999999999545e+03,-2.174999999999903899e+00,-4.944999999999470930e+00,1.338463425121214989e+01,-2.204314906871526869e+00
1.999999999999870326e+01,2.999999996578780248e+00,1.000000000002393818e+01,6.599999999997921973e-01,1.570000000000409290e+00,2.870000000000001819e+03,-2.174999999999854161e+00,-4.944999999999091678e+00,1.338504463924936871e+01,-2.177220169390146953e+00
2.000000000000033396e+01,2.999999999451851806e+00,9.999999999968304465e+00,6.600000000002064215e-01,1.569999999999694529e+00,2.869999999999987267e+03,-2.175000000000104183e+00,-4.945000000000844942e+00,1.338078257128510629e+01,-2.169640712189824683e+00
1.999999999999998579e+01,2.999999997852521361e+00,9.999999999985831778e+00,6.600000000001678968e-01,1.569999999999816209e+00,2.869999999999976353e+03,-2.175000000000007372e+00,-4.945000000000542961e+00,1.339308229868123767e+01,-2.155593254556941396e+00
1.999999999999903721e+01,3.000000002644376718e+00,1.000000000004011547e+01,6.600000000002365086e-01,1.569999999999819762e+00,2.869999999999986358e+03,-2.174999999999973621e+00,-4.945000000000501217e+00,1.339292137751445999e+01,-2.156813305078692622e+00
2.000000000000023093e+01,3.000000001979384212e+00,1.000000000000217959e+01,6.599999999999167644e-01,1.569999999999960094e+00,2.869999999999980446e+03,-2.175000000000026024e+00,-4.945000000000196572e+00,1.339866800163118299e+01,-2.164136899992531671e+00
1.999999999999971934e+01,3.000000001606451860e+00,1.000000000001301537e+01,6.599999999999176525e-01,1.570000000000014717e+00,2.869999999999983174e+03,-2.174999999999974509e+00,-4.945000000000074003e+00,1.339648943721764240e+01,-2.178944534098556485e+00
2.000000000000006750e+01,3.000000003274128524e+00,9.999999999999870326e+00,6.599999999997807620e-01,1.570000000000160822e+00,2.869999999999971806e+03,-2.174999999999978062e+00,-4.944999999999649454e+00,1.340033201911825955e+01,-2.164905026493247675e+00
2.000000000000017053e+01,3.000000005894055910e+00,1.000000000000668443e+01,6.599999999997691047e-01,1.570000000000124185e+00,2.869999999999981355e+03,-2.174999999999980282e+00,-4.944999999999690310e+00,1.340702368840258529e+01,-2.163304117507979907e+00
2.000000000000002487e+01,2.999999996943639502e+00,1.000000000001089084e+01,6.599999999996049027e-01,1.570000000000618456e+00,2.869999999999997726e+03,-2.174999999999889244e+00,-4.944999999998301199e+00,1.337846021818954156e+01,-2.207400117669363837e+00
2.000000000000043698e+01,3.000000002164566304e+00,9.999999999993704591e+00,6.599999999997946398e-01,1.570000000000173923e+00,2.869999999999989541e+03,-2.174999999999978950e+00,-4.944999999999526885e+00,1.339228306588308115e+01,-2.176032681850101014e+00
2.000000000000006395e+01,3.000000001503401847e+00,9.999999999989382715e+00,6.599999999998725775e-01,1.570000000000116858e+00,2.869999999999993179e+03,-2.174999999999972733e+00,-4.944999999999742712e+00,1.338652634103013916e+01,-2.171329590765156414e+00
2.000000000000014211e+01,2.999999999408560658e+00,1.000000000000364864e+01,6.599999999998882316e-01,1.570000000000128182e+00,2.869999999999977717e+03,-2.175000000000001599e+00,-4.944999999999707185e+00,1.337358671621497841e+01,-2.187072138076953554e+00
1.999999999999944933e+01,3.000000001681776940e+00,9.999999999998252065e+00,6.599999999999281997e-01,1.570000000000160600e+00,2.870000000000000455e+03,-2.174999999999902567e+00,-4.944999999999538431e+00,1.339324047531673756e+01,-2.152152510189056400e+00
1.999999999999984013e+01,3.000000001991933285e+00,9.999999999963984365e+00,6.599999999999955902e-01,1.569999999999962981e+00,2.869999999999970896e+03,-2.174999999999968736e+00,-4.945000000000146834e+00,1.338965707635525071e+01,-2.165073074924408036e+00
1.999999999999884182e+01,3.000000000251375365e+00,1.000000000003887735e+01,6.599999999997813172e-01,1.570000000000308260e+00,2.869999999999995907e+03,-2.174999999999882583e+00,-4.944999999999322604e+00,1.338557666010128067e+01,-2.175957537207135140e+00
1.999999999999996447e+01,3.000000000451494397e+00,9.999999999987149835e+00,6.599999999999871525e-01,1.569999999999989404e+00,2.869999999999975898e+03,-2.174999999999988720e+00,-4.945000000000034035e+00,1.338687845227559414e+01,-2.162863711049696214e+00
1.999999999999995381e+01,3.000000001465044974e+00,1.000000000001691092e+01,6.599999999997266942e-01,1.570000000000412399e+00,2.869999999999992269e+03,-2.174999999999843947e+00,-4.944999999998771933e+00,1.339322077679929457e+01,-2.175931195514944960e+00
1.999999999999883826e+01,3.000000001156057028e+00,1.000000000003897682e+01,6.599999999997910871e-01,1.570000000000490781e+00,2.869999999999988177e+03,-2.174999999999767120e+00,-4.944999999998604068e+00,1.339448072974448145e+01,-2.180397295067078911e+00
1.999999999999963407e+01,3.000000002562782431e+00,1.000000000003420375e+01,6.599999999998636957e-01,1.570000000000286500e+00,2.869999999999995453e+03,-2.174999999999855937e+00,-4.944999999999117435e+00,1.340926747111735473e+01,-2.171458113571308246e+00
1.999999999999984013e+01,3.000000002104729280e+00,1.000000000003002576e+01,6.599999999999396350e-01,1.570000000000129514e+00,2.869999999999984993e+03,-2.174999999999920330e+00,-4.944999999999519780e+00,1.340535177585756443e+01,-2.181251163770761003e+00
1.999999999999910116e+01,3.000000005269874759e+00,1.000000000003616307e+01,6.600000000000120215e-01,1.570000000000037810e+00,2.870000000000000000e+03,-2.174999999999971845e+00,-4.944999999999993179e+00,1.339813535303240677e+01,-2.160148627439077984e+00
1.999999999999934275e+01,3.000000003101962243e+00,1.000000000003604228e+01,6.599999999998736877e-01,1.570000000000151275e+00,2.870000000000001364e+03,-2.174999999999925215e+00,-4.944999999999644125e+00,1.339124301985656018e+01,-2.172864982274690604e+00
1.999999999999975486e+01,2.999999996943996106e+00,1.000000000001096012e+01,6.599999999999484057e-01,1.570000000000079998e+00,2.869999999999995907e+03,-2.175000000000048228e+00,-4.944999999999958540e+00,1.337580476518620642e+01,-2.183855958474934411e+00
1.999999999999981526e+01,2.999999997250984318e+00,1.000000000001437606e+01,6.599999999998392708e-01,1.570000000000280060e+00,2.869999999999971806e+03,-2.174999999999950084e+00,-4.944999999999306617e+00,1.338373873193320485e+01,-2.180724624644724496e+00
1.999999999999980815e+01,2.999999998295025616e+00,1.000000000003810641e+01,6.599999999996797317e-01,1.570000000000557394e+00,2.870000000000000000e+03,-2.174999999999879474e+00,-4.944999999998475282e+00,1.338269319109567768e+01,-2.196552013388348712e+00
1.999999999999910827e+01,2.999999999817705820e+00,1.000000000002882494e+01,6.599999999999097700e-01,1.570000000000112195e+00,2.870000000000001364e+03,-2.174999999999927436e+00,-4.944999999999817319e+00,1.338560073411739104e+01,-2.188869151902917309e+00
1.999999999999944222e+01,3.000000001113256598e+00,1.000000000000579981e+01,6.599999999996640776e-01,1.570000000000528306e+00,2.869999999999981810e+03,-2.174999999999878142e+00,-4.944999999998619167e+00,1.338641717598441261e+01,-2.190585854499837559e+00
1.999999999999954170e+01,3.000000003565911566e+00,9.999999999999579003e+00,6.600000000000407763e-01,1.569999999999875717e+00,2.870000000000005002e+03,-2.175000000000033129e+00,-4.945000000000491447e+00,1.338175850014507873e+01,-2.153038560614230601e+00
1.999999999999943157e+01,3.000000000464752237e+00,9.999999999995365485e+00,6.600000000002447242e-01,1.569999999999684093e+00,2.869999999999990450e+03,-2.175000000000017142e+00,-4.945000000000951523e+00,1.339522508667490364e+01,-2.179205437400504319e+00
1.999999999999928235e+01,3.000000001584220755e+00,1.000000000001193001e+01,6.600000000002033129e-01,1.569999999999752482e+00,2.869999999999998181e+03,-2.174999999999994049e+00,-4.945000000000765894e+00,1.338746168712194873e+01,-2.186993337987105157e+00
1.999999999999950617e+01,3.000000001604250954e+00,1.000000000001173817e+01,6.599999999999384137e-01,1.570000000000044693e+00,2.869999999999992724e+03,-2.174999999999980282e+00,-4.945000000000009166e+00,1.338371918855958320e+01,-2.191077456596942863e+00
1.999999999999932143e+01,2.999999999108523774e+00,1.000000000001413270e+01,6.599999999999985878e-01,1.570000000000092877e+00,2.869999999999968168e+03,-2.175000000000006484e+00,-4.944999999999917684e+00,1.337399533444805222e+01,-2.187085432629220172e+00
1.999999999999988276e+01,2.999999998253819466e+00,1.000000000000452616e+01,6.600000000000849631e-01,1.569999999999888818e+00,2.869999999999980901e+03,-2.175000000000015365e+00,-4.945000000000299600e+00,1.338831866111125990e+01,-2.161580101632362361e+00
1.999999999999921130e+01,2.999999998415440405e+00,1.000000000001773515e+01,6.599999999993881872e-01,1.570000000000997042e+00,2.869999999999969077e+03,-2.174999999999734701e+00,-4.944999999997356177e+00,1.337454705940785260e+01,-2.180857121057453885e+00
1.999999999999904787e+01,2.999999999171346854e+00,1.000000000000497202e+01,6.599999999997905320e-01,1.570000000000307816e+00,2.870000000000001364e+03,-2.174999999999864819e+00,-4.944999999999297735e+00,1.339250604521990518e+01,-2.173237992241554117e+00
1.999999999999907629e+01,3.000000001278594564e+00,1.000000000003715428e+01,6.600000000001011724e-01,1.569999999999864615e+00,2.869999999999998636e+03,-2.174999999999929212e+00,-4.945000000000403517e+00,1.339649171335828548e+01,-2.179742272869686914e+00
1.999999999999891287e+01,3.000000001764876689e+00,1.000000000003504930e+01,6.600000000003259926e-01,1.569999999999485363e+00,2.870000000000005912e+03,-2.175000000000055778e+00,-4.945000000001538609e+00,1.338898760530890364e+01,-2.169407649473942268e+00
1.999999999999936051e+01,3.000000001043489739e+00,9.999999999998395950e+00,6.599999999999652811e-01,1.570000000000055351e+00,2.869999999999989996e+03,-2.174999999999967848e+00,-4.944999999999969198e+00,1.338527343587390916e+01,-2.182808586820017993e+00
1.999999999999995026e+01,2.999999999222016989e+00,9.999999999998449240e+00,6.599999999997163691e-01,1.570000000000425278e+00,2.869999999999970896e+03,-2.174999999999903455e+00,-4.944999999998857199e+00,1.338926565760679921e+01,-2.191175731698217888e+00
1.999999999999937472e+01,3.000000001229337077e+00,1.000000000001215561e+01,6.599999999999445199e-01,1.570000000000096207e+00,2.869999999999998181e+03,-2.174999999999948308e+00,-4.944999999999831530e+00,1.339752334188461091e+01,-2.186678772804667492e+00
1.999999999999939249e+01,2.999999999244463478e+00,9.999999999973688602e+00,6.599999999999855982e-01,1.570000000000057572e+00,2.869999999999966803e+03,-2.174999999999950973e+00,-4.944999999999837748e+00,1.339160248116105301e+01,-2.169766923447638884e+00
1.999999999999974420e+01,3.000000001579606668e+00,9.999999999974438225e+00,6.599999999999557332e-01,1.570000000000056906e+00,2.869999999999959073e+03,-2.174999999999966960e+00,-4.944999999999865281e+00,1.340359267814638500e+01,-2.143602970540607000e+00
1.999999999999951328e+01,3.000000001187211662e+00,9.999999999989064747e+00,6.599999999999376366e-01,1.570000000000115969e+00,2.869999999999986358e+03,-2.174999999999933209e+00,-4.944999999999716955e+00,1.338495860109835611e+01,-2.162968370282460029e+00
1.999999999999954881e+01,2.999999999344859170e+00,1.000000000002213696e+01,6.600000000000886269e-01,1.569999999999939888e+00,2.869999999999974079e+03,-2.175000000000002043e+00,-4.945000000000205453e+00,1.339208165046897747e+01,-2.174218313889881848e+00
1.999999999999948486e+01,3.000000002467012816e+00,1.000000000001701395e+01,6.600000000000521005e-01,1.570000000000030704e+00,2.869999999999976353e+03,-2.174999999999949196e+00,-4.944999999999869722e+00,1.340949761130611328e+01,-2.166395389010218331e+00
1.999999999999934275e+01,3.000000001145906481e+00,1.000000000000314948e+01,6.599999999998200639e-01,1.570000000000290497e+00,2.869999999999981355e+03,-2.174999999999904343e+00,-4.944999999999268425e+00,1.337259563237626026e+01,-2.197003861168794092e+00
1.999999999999880629e+01,2.999999999759497271e+00,1.000000000000712319e+01,6.599999999998423794e-01,1.570000000000258300e+00,2.869999999999979536e+03,-2.174999999999884803e+00,-4.944999999999359019e+00,1.338061808925358598e+01,-2.184560615101039716e+00
2.000000000000009948e+01,3.000000001406720962e+00,1.000000000001680434e+01,6.600000000002236300e-01,1.569999999999636353e+00,2.870000000000004093e+03,-2.175000000000070433e+00,-4.945000000000933760e+00,1.339159267136997400e+01,-2.192173335895369668e+00
1.999999999999874944e+01,3.000000000624967189e+00,9.999999999987897681e+00,6.599999999997882005e-01,1.570000000000374651e+00,2.869999999999989996e+03,-2.174999999999829736e+00,-4.944999999999129869e+00,1.338559038723665040e+01,-2.181469452208899540e+00
1.999999999999971934e+01,2.999999999655468486e+00,9.999999999968260056e+00,6.600000000000265654e-01,1.569999999999981410e+00,2.869999999999982265e+03,-2.174999999999943423e+00,-4.945000000000047358e+00,1.338695283699980720e+01,-2.167726412509456857e+00
1.999999999999899458e+01,3.000000000650624887e+00,1.000000000002890488e+01,6.599999999999487388e-01,1.570000000000046914e+00,2.869999999999994543e+03,-2.174999999999917666e+00,-4.945000000000042917e+00,1.339183464065218132e+01,-2.195758213025796213e+00
1.999999999999899103e+01,2.999999999597525502e+00,1.000000000002651390e+01,6.599999999998822364e-01,1.570000000000272289e+00,2.869999999999978627e+03,-2.174999999999863487e+00,-4.944999999999369678e+00,1.340536926845981469e+01,-2.181293622448615466e+00
1.999999999999939959e+01,3.000000001587241449e+00,1.000000000003603695e+01,6.599999999999645039e-01,1.570000000000048468e+00,2.870000000000003638e+03,-2.174999999999976730e+00,-4.945000000000006501e+00,1.339246015284449776e+01,-2.178739469394597172e+00
1.999999999999902300e+01,3.000000002127294341e+00,1.000000000000591172e+01,6.600000000001475797e-01,1.569999999999812212e+00,2.869999999999996362e+03,-2.174999999999943867e+00,-4.945000000000625562e+00,1.339717072346883420e+01,-2.180047386810407328e+00
1.999999999999987921e+01,3.000000000823407564e+00,9.999999999981627141e+00,6.599999999999243139e-01,1.570000000000206786e+00,2.869999999999982720e+03,-2.174999999999895905e+00,-4.944999999999345697e+00,1.341517799284835100e+01,-2.156248855300209488e+00
2.000000000000011013e+01,3.000000001985404285e+00,9.999999999999943157e+00,6.600000000000033618e-01,1.569999999999984519e+00,2.869999999999994088e+03,-2.174999999999959854e+00,-4.944999999999962981e+00,1.340396424277802012e+01,-2.159890086697699996e+00
1.999999999999985079e+01,3.000000003505337354e+00,9.999999999999191758e+00,6.599999999998461542e-01,1.570000000000193019e+00,2.869999999999988177e+03,-2.174999999999949640e+00,-4.944999999999463824e+00,1.339417791654338252e+01,-2.153431651083879128e+00
1.999999999999951328e+01,2.999999997670252494e+00,9.999999999971082687e+00,6.599999999996715161e-01,1.570000000000500773e+00,2.869999999999972715e+03,-2.174999999999887912e+00,-4.944999999998779927e+00,1.337340693330606989e+01,-2.182714617824259573e+00
2.000000000000023448e+01,2.999999998665081158e+00,9.999999999988995469e+00,6.599999999997123723e-01,1.570000000000384643e+00,2.869999999999970896e+03,-2.174999999999875921e+00,-4.944999999998875850e+00,1.340191311711689082e+01,-2.182637106354370804e+00
1.999999999999981526e+01,2.999999999561185682e+00,9.999999999994269473e+00,6.599999999997591127e-01,1.570000000000298490e+00,2.869999999999984993e+03,-2.174999999999895017e+00,-4.944999999999203588e+00,1.340060352352164408e+01,-2.182736817132729268e+00
1.999999999999938538e+01,2.999999999605146073e+00,1.000000000001793232e+01,6.599999999998533706e-01,1.570000000000246976e+00,2.869999999999984084e+03,-2.174999999999829736e+00,-4.944999999999298623e+00,1.341714575035977219e+01,-2.176276465923916881e+00
1.999999999999960565e+01,3.000000000090270902e+00,1.000000000000484413e+01,6.600000000001999823e-01,1.569999999999788232e+00,2.869999999999977717e+03,-2.174999999999969624e+00,-4.945000000000566054e+00,1.341053043588803462e+01,-2.168325029065229614e+00
1.999999999999990052e+01,2.999999999595460487e+00,1.000000000002445155e+01,6.600000000000584288e-01,1.569999999999975193e+00,2.869999999999988177e+03,-2.174999999999982059e+00,-4.944999999999992291e+00,1.339696669859048939e+01,-2.172408022186469889e+00
2.000000000000022382e+01,3.000000000304403613e+00,1.000000000000892086e+01,6.600000000001208234e-01,1.569999999999800444e+00,2.869999999999992269e+03,-2.175000000000017142e+00,-4.945000000000496776e+00,1.340241226406482156e+01,-2.166660737604247267e+00
1.999999999999975131e+01,2.999999998773702714e+00,1.000000000000972911e+01,6.600000000000640910e-01,1.569999999999969642e+00,2.869999999999987722e+03,-2.175000000000006484e+00,-4.945000000000129958e+00,1.338269359430490013e+01,-2.200374064957788089e+00
1.999999999999910472e+01,3.000000003209694288e+00,1.000000000000875033e+01,6.599999999999031086e-01,1.570000000000144391e+00,2.869999999999987267e+03,-2.174999999999885691e+00,-4.944999999999637907e+00,1.340132036401253224e+01,-2.164124986348468394e+00
1.999999999999907985e+01,3.000000003108349134e+00,1.000000000001092104e+01,6.599999999997610001e-01,1.570000000000391971e+00,2.869999999999991815e+03,-2.174999999999850164e+00,-4.944999999998948681e+00,1.338936124804678585e+01,-2.168699614327981973e+00
1.999999999999870326e+01,2.999999997938319396e+00,1.000000000003118750e+01,6.600000000000292300e-01,1.570000000000032703e+00,2.869999999999985903e+03,-2.174999999999910116e+00,-4.945000000000060680e+00,1.338549276069329963e+01,-2.177827752443738607e+00
1.999999999999892353e+01,2.999999998911115018e+00,1.000000000002697931e+01,6.599999999998628075e-01,1.570000000000112417e+00,2.869999999999996817e+03,-2.174999999999918998e+00,-4.944999999999859952e+00,1.339665827893878891e+01,-2.158444610586993662e+00
1.999999999999953459e+01,3.000000002659392262e+00,1.000000000001564260e+01,6.600000000000736389e-01,1.569999999999803775e+00,2.870000000000003638e+03,-2.174999999999985167e+00,-4.945000000000620233e+00,1.339097610731745291e+01,-2.189522960527146456e+00
1.999999999999917222e+01,3.000000002650458075e+00,1.000000000002734879e+01,6.600000000001986500e-01,1.569999999999766027e+00,2.869999999999996362e+03,-2.174999999999991385e+00,-4.945000000000636220e+00,1.339963103513033893e+01,-2.164023126306973577e+00
1.999999999999893063e+01,3.000000001680821704e+00,1.000000000002888001e+01,6.600000000001436939e-01,1.569999999999871498e+00,2.870000000000003638e+03,-2.174999999999978062e+00,-4.945000000000506546e+00,1.338654340558935019e+01,-2.174048965702047198e+00
1.999999999999962697e+01,3.000000001017310680e+00,1.000000000000915001e+01,6.600000000001852163e-01,1.569999999999703411e+00,2.869999999999996817e+03,-2.175000000000085976e+00,-4.945000000000960405e+00,1.339170129197421844e+01,-2.163423445090242314e+00
1.999999999999896971e+01,3.000000001425407348e+00,1.000000000003084111e+01,6.600000000001579048e-01,1.569999999999969198e+00,2.869999999999996817e+03,-2.174999999999919442e+00,-4.945000000000051799e+00,1.339569278304342070e+01,-2.176266254270402545e+00
1.999999999999965539e+01,2.999999999750560420e+00,1.000000000002913758e+01,6.599999999997975264e-01,1.570000000000401519e+00,2.869999999999971351e+03,-2.174999999999913669e+00,-4.944999999998830553e+00,1.339302783631327465e+01,-2.181197150580647115e+00
2.000000000000011724e+01,3.000000000569809977e+00,9.999999999992050803e+00,6.599999999998904521e-01,1.570000000000129514e+00,2.869999999999944976e+03,-2.174999999999991829e+00,-4.944999999999601492e+00,1.339255432302862125e+01,-2.175482476150120803e+00
1.999999999999995026e+01,3.000000002263577770e+00,1.000000000001155875e+01,6.599999999999127676e-01,1.570000000000105755e+00,2.869999999999959982e+03,-2.174999999999955858e+00,-4.944999999999648566e+00,1.339971086733505778e+01,-2.166973229097134634e+00
1.999999999999971223e+01,3.000000003009873240e+00,9.999999999980866860e+00,6.600000000003451994e-01,1.569999999999585727e+00,2.869999999999981810e+03,-2.175000000000020695e+00,-4.945000000001106955e+00,1.338739769817011371e+01,-2.156140146760565202e+00
1.999999999999975131e+01,3.000000001563134067e+00,1.000000000002319567e+01,6.600000000000224576e-01,1.569999999999795559e+00,2.869999999999996817e+03,-2.175000000000041567e+00,-4.945000000000713491e+00,1.338465638280733039e+01,-2.212173516748710433e+00
1.999999999999939249e+01,2.999999998646293076e+00,1.000000000000314238e+01,6.599999999999781597e-01,1.570000000000119744e+00,2.869999999999995907e+03,-2.174999999999914113e+00,-4.944999999999689422e+00,1.338957229185324138e+01,-2.178736228192410529e+00
2.000000000000022382e+01,2.999999999296132369e+00,9.999999999988924415e+00,6.599999999999994760e-01,1.569999999999937002e+00,2.869999999999987722e+03,-2.175000000000054001e+00,-4.945000000000232099e+00,1.338345615879908834e+01,-2.184180709288457312e+00
2.000000000000030909e+01,3.000000002579909175e+00,1.000000000000930633e+01,6.600000000000774136e-01,1.569999999999863505e+00,2.869999999999988631e+03,-2.175000000000051337e+00,-4.945000000000358220e+00,1.339118511927288502e+01,-2.171556592716803902e+00
1.999999999999948841e+01,2.999999998455752159e+00,9.999999999989402255e+00,6.599999999998060751e-01,1.570000000000210560e+00,2.869999999999985448e+03,-2.174999999999921219e+00,-4.944999999999524221e+00,1.338641719877320391e+01,-2.201436886829113426e+00
1.999999999999990763e+01,3.000000001120637805e+00,1.000000000001038813e+01,6.599999999997612221e-01,1.570000000000135953e+00,2.869999999999995453e+03,-2.174999999999954525e+00,-4.944999999999657447e+00,1.339579243905372863e+01,-2.193623410888384306e+00
1.999999999999992184e+01,2.999999999309149512e+00,1.000000000002385114e+01,6.599999999996575273e-01,1.570000000000310925e+00,2.870000000000003638e+03,-2.174999999999965627e+00,-4.944999999999204476e+00,1.337150815705189189e+01,-2.227901350318861606e+00
1.999999999999981526e+01,3.000000000915141740e+00,1.000000000002186518e+01,6.599999999999264233e-01,1.570000000000044249e+00,2.870000000000001819e+03,-2.175000000000025135e+00,-4.944999999999995843e+00,1.338456417260673881e+01,-2.195944042966273546e+00
1.999999999999987921e+01,2.999999999584689547e+00,9.999999999992818189e+00,6.599999999997213651e-01,1.570000000000242313e+00,2.869999999999992269e+03,-2.174999999999975397e+00,-4.944999999999459384e+00,1.338140429039570378e+01,-2.203497734042150213e+00
1.999999999999984368e+01,2.999999998905400478e+00,9.999999999997168487e+00,6.599999999999222045e-01,1.570000000000117524e+00,2.869999999999966349e+03,-2.174999999999964295e+00,-4.944999999999692974e+00,1.338230473922394914e+01,-2.181066380365626056e+00
1.999999999999941735e+01,2.999999999247887406e+00,1.000000000002722444e+01,6.599999999999971445e-01,1.569999999999971418e+00,2.869999999999992269e+03,-2.175000000000072209e+00,-4.945000000000291607e+00,1.337102913869927256e+01,-2.202855138614020269e+00
1.999999999999923617e+01,2.999999996904654687e+00,1.000000000001105427e+01,6.599999999998279465e-01,1.570000000000404405e+00,2.869999999999989996e+03,-2.174999999999854605e+00,-4.944999999998892726e+00,1.339578862190858466e+01,-2.160074747398096573e+00
1.999999999999910472e+01,2.999999998966508485e+00,1.000000000003126921e+01,6.599999999999538458e-01,1.570000000000109752e+00,2.869999999999984539e+03,-2.174999999999942979e+00,-4.944999999999786233e+00,1.338852760537074005e+01,-2.181464197004336913e+00
2.000000000000057909e+01,3.000000003714564656e+00,9.999999999998765432e+00,6.599999999999813793e-01,1.569999999999845741e+00,2.870000000000006821e+03,-2.175000000000081535e+00,-4.945000000000411511e+00,1.338405082749292951e+01,-2.158678759519892409e+00
1.999999999999887734e+01,2.999999996516163669e+00,1.000000000000243539e+01,6.599999999998961142e-01,1.570000000000200346e+00,2.869999999999993634e+03,-2.174999999999912781e+00,-4.944999999999620144e+00,1.338292202889201477e+01,-2.173250931030689337e+00
1.999999999999997868e+01,2.999999999658350180e+00,1.000000000002277467e+01,6.599999999999824896e-01,1.570000000000081330e+00,2.870000000000001819e+03,-2.174999999999998046e+00,-4.944999999999810214e+00,1.339070483888953156e+01,-2.178217917677875981e+00
2.000000000000003908e+01,2.999999999536596018e+00,1.000000000001897327e+01,6.599999999998668043e-01,1.570000000000155493e+00,2.870000000000002274e+03,-2.174999999999988276e+00,-4.944999999999653006e+00,1.340044050916619867e+01,-2.176361504240989397e+00
1.999999999999974065e+01,3.000000000556709345e+00,1.000000000000904343e+01,6.600000000000710854e-01,1.569999999999953433e+00,2.869999999999999091e+03,-2.175000000000000711e+00,-4.945000000000180584e+00,1.339280418574923459e+01,-2.166259239173471407e+00
1.999999999999970157e+01,2.999999999609908041e+00,9.999999999982208010e+00,6.599999999998285016e-01,1.570000000000120410e+00,2.869999999999992269e+03,-2.174999999999945643e+00,-4.944999999999748042e+00,1.339085318123467516e+01,-2.168701596930655118e+00
2.000000000000038369e+01,2.999999999088522440e+00,1.000000000001469758e+01,6.600000000001160494e-01,1.569999999999764695e+00,2.869999999999982265e+03,-2.175000000000093525e+00,-4.945000000000711715e+00,1.338005157061177108e+01,-2.193115486585987206e+00
1.999999999999903366e+01,3.000000000608299633e+00,1.000000000000636291e+01,6.599999999999789368e-01,1.570000000000024265e+00,2.869999999999991815e+03,-2.174999999999933653e+00,-4.945000000000048246e+00,1.337959647467736879e+01,-2.175307782872041074e+00
1.999999999999909761e+01,2.999999998073737295e+00,1.000000000000715872e+01,6.599999999998578115e-01,1.570000000000228546e+00,2.869999999999993179e+03,-2.174999999999847500e+00,-4.944999999999430962e+00,1.338332221080099593e+01,-2.184323555303900655e+00
1.999999999999928590e+01,3.000000001665317217e+00,1.000000000001070077e+01,6.599999999999294209e-01,1.570000000000126628e+00,2.869999999999982720e+03,-2.174999999999930544e+00,-4.944999999999830642e+00,1.339055449781460716e+01,-2.150660891279049469e+00
1.999999999999952038e+01,2.999999997617500913e+00,9.999999999998042455e+00,6.599999999998950040e-01,1.570000000000064677e+00,2.869999999999974534e+03,-2.174999999999946976e+00,-4.944999999999969198e+00,1.337852142898818997e+01,-2.187512464785962507e+00
2.000000000000006040e+01,2.999999999309913346e+00,1.000000000001629097e+01,6.599999999998603650e-01,1.570000000000121299e+00,2.869999999999995453e+03,-2.175000000000014033e+00,-4.944999999999639684e+00,1.338964959676847322e+01,-2.176218713063685417e+00
2.000000000000002132e+01,2.999999999748738322e+00,1.000000000001402611e+01,6.599999999998348299e-01,1.570000000000154605e+00,2.869999999999974989e+03,-2.174999999999975397e+00,-4.944999999999524221e+00,1.340029329688840498e+01,-2.169292904381493248e+00
2.000000000000024158e+01,2.999999998789518507e+00,1.000000000002561862e+01,6.599999999999548450e-01,1.570000000000004059e+00,2.869999999999980901e+03,-2.175000000000010036e+00,-4.944999999999887486e+00,1.339942255261423476e+01,-2.178142442701038739e+00
1.999999999999960920e+01,3.000000001387714388e+00,9.999999999994445332e+00,6.599999999997788747e-01,1.570000000000384865e+00,2.869999999999979082e+03,-2.174999999999860822e+00,-4.944999999998850093e+00,1.338489416234378027e+01,-2.184471758518276463e+00
1.999999999999884182e+01,2.999999998670161538e+00,1.000000000001440448e+01,6.599999999999205391e-01,1.570000000000248752e+00,2.869999999999978172e+03,-2.174999999999849720e+00,-4.944999999999275531e+00,1.340914176014061887e+01,-2.180499053964618739e+00
1.999999999999866063e+01,2.999999998501725607e+00,1.000000000001480771e+01,6.599999999999567324e-01,1.570000000000206342e+00,2.869999999999990450e+03,-2.174999999999836398e+00,-4.944999999999450502e+00,1.339651182203953717e+01,-2.173379145698417059e+00
1.999999999999876721e+01,2.999999998258878087e+00,9.999999999986163957e+00,6.599999999999360822e-01,1.570000000000234763e+00,2.869999999999985448e+03,-2.174999999999825739e+00,-4.944999999999369678e+00,1.339690832081545402e+01,-2.162687498377482864e+00
1.999999999999904432e+01,2.999999996678698988e+00,1.000000000000171774e+01,6.599999999998520384e-01,1.570000000000346674e+00,2.869999999999998636e+03,-2.174999999999874589e+00,-4.944999999999091678e+00,1.339860780438240795e+01,-2.176180479074413476e+00
1.999999999999908340e+01,2.999999994452122731e+00,1.000000000001798028e+01,6.599999999998861222e-01,1.570000000000395746e+00,2.869999999999983629e+03,-2.174999999999839062e+00,-4.944999999998883844e+00,1.339847816729838925e+01,-2.199090826166482771e+00
1.999999999999989697e+01,2.999999998357523179e+00,1.000000000001835332e+01,6.599999999997263611e-01,1.570000000000345564e+00,2.869999999999994088e+03,-2.174999999999923883e+00,-4.944999999999068585e+00,1.338438787740215119e+01,-2.197971597379242858e+00
1.999999999999988631e+01,3.000000000162653446e+00,1.000000000002898304e+01,6.599999999999550671e-01,1.570000000000037810e+00,2.870000000000005457e+03,-2.175000000000016698e+00,-4.944999999999888374e+00,1.340005323793738157e+01,-2.172394895127203629e+00
2.000000000000059330e+01,3.000000000446755077e+00,9.999999999971748821e+00,6.599999999999986988e-01,1.569999999999958318e+00,2.869999999999968168e+03,-2.175000000000049560e+00,-4.945000000000074003e+00,1.339181015208478343e+01,-2.168862387230561239e+00
1.999999999999952749e+01,2.999999998367692822e+00,9.999999999991018740e+00,6.599999999999316413e-01,1.570000000000128404e+00,2.869999999999971351e+03,-2.174999999999895461e+00,-4.944999999999633467e+00,1.339067181368809401e+01,-2.159544942154056013e+00
1.999999999999944578e+01,2.999999999181493848e+00,1.000000000000998668e+01,6.600000000000462164e-01,1.569999999999911466e+00,2.870000000000000455e+03,-2.175000000000021583e+00,-4.945000000000263185e+00,1.339178746303959144e+01,-2.184854841249452395e+00
1.999999999999998579e+01,3.000000003523067615e+00,1.000000000001301181e+01,6.599999999998417133e-01,1.570000000000275842e+00,2.869999999999997726e+03,-2.174999999999955858e+00,-4.944999999999192930e+00,1.339769688690675054e+01,-2.188716211422790714e+00
1.999999999999996447e+01,3.000000000840015613e+00,9.999999999989594102e+00,6.599999999999204281e-01,1.570000000000147278e+00,2.869999999999987722e+03,-2.175000000000019362e+00,-4.944999999999650342e+00,1.339941721870925306e+01,-2.177956265569762628e+00
1.999999999999969447e+01,2.999999999643631288e+00,9.999999999987274180e+00,6.599999999998176214e-01,1.570000000000235207e+00,2.869999999999989086e+03,-2.174999999999903899e+00,-4.944999999999334150e+00,1.338317538683822328e+01,-2.187846032201973046e+00
1.999999999999905498e+01,2.999999997075188052e+00,1.000000000001903722e+01,6.599999999995546096e-01,1.570000000000672413e+00,2.869999999999984993e+03,-2.174999999999785327e+00,-4.944999999998118234e+00,1.340217787124094428e+01,-2.168541828224846313e+00
1.999999999999975486e+01,2.999999999116518268e+00,1.000000000001005418e+01,6.599999999997173683e-01,1.570000000000356666e+00,2.869999999999969532e+03,-2.174999999999907896e+00,-4.944999999999016183e+00,1.339951441393162135e+01,-2.165369041282535711e+00
1.999999999999983302e+01,2.999999998430967096e+00,1.000000000000811973e+01,6.599999999996511990e-01,1.570000000000457030e+00,2.870000000000004547e+03,-2.174999999999877698e+00,-4.944999999998695550e+00,1.339737191448895892e+01,-2.171487670804304493e+00
1.999999999999956657e+01,2.999999996495409160e+00,1.000000000001128697e+01,6.599999999995516120e-01,1.570000000000565166e+00,2.869999999999997272e+03,-2.174999999999851941e+00,-4.944999999998393569e+00,1.340571025173371744e+01,-2.172362969974909852e+00
1.999999999999946354e+01,2.999999996769265209e+00,1.000000000001379696e+01,6.599999999997478994e-01,1.570000000000368656e+00,2.870000000000001819e+03,-2.174999999999906120e+00,-4.944999999999096119e+00,1.338173109328806376e+01,-2.178601271567963238e+00
1.999999999999953104e+01,2.999999997080659675e+00,9.999999999987945642e+00,6.599999999995842526e-01,1.570000000000534524e+00,2.869999999999982265e+03,-2.174999999999821743e+00,-4.944999999998588081e+00,1.338607283414801508e+01,-2.167098039592851411e+00
1.999999999999856115e+01,3.000000002685685008e+00,1.000000000000005507e+01,6.600000000000258993e-01,1.569999999999976747e+00,2.870000000000007731e+03,-2.174999999999922551e+00,-4.945000000000185914e+00,1.339461206825761863e+01,-2.150035958561041571e+00
1.999999999999998224e+01,2.999999997413686614e+00,1.000000000001175060e+01,6.599999999998295008e-01,1.570000000000196128e+00,2.869999999999990905e+03,-2.174999999999988276e+00,-4.944999999999483364e+00,1.338765338536199501e+01,-2.172798786286095574e+00
1.999999999999934630e+01,3.000000001042462117e+00,1.000000000000818901e+01,6.599999999997790967e-01,1.570000000000409734e+00,2.869999999999994543e+03,-2.174999999999826183e+00,-4.944999999998901608e+00,1.339107007613387523e+01,-2.159916025437413456e+00
1.999999999999909406e+01,3.000000000109691811e+00,1.000000000003046985e+01,6.599999999998100719e-01,1.570000000000403295e+00,2.869999999999987267e+03,-2.174999999999823075e+00,-4.944999999998816342e+00,1.339419981191411502e+01,-2.169132862174087073e+00
1.999999999999959854e+01,3.000000001857542120e+00,1.000000000002348521e+01,6.599999999999214273e-01,1.570000000000177698e+00,2.869999999999988631e+03,-2.174999999999915001e+00,-4.944999999999475371e+00,1.339306488387581950e+01,-2.186056253928341686e+00
2.000000000000010658e+01,3.000000001331092125e+00,1.000000000002058265e+01,6.599999999997946398e-01,1.570000000000186136e+00,2.870000000000000000e+03,-2.174999999999933209e+00,-4.944999999999425633e+00,1.340426200802057544e+01,-2.167461935893303604e+00
1.999999999999986855e+01,3.000000001118725113e+00,1.000000000002481215e+01,6.600000000000280087e-01,1.569999999999946105e+00,2.870000000000002274e+03,-2.175000000000024691e+00,-4.945000000000176144e+00,1.339651581710355011e+01,-2.162930179838566058e+00
1.999999999999950973e+01,3.000000000767574004e+00,1.000000000003524647e+01,6.599999999998705791e-01,1.570000000000184137e+00,2.870000000000015007e+03,-2.174999999999929212e+00,-4.944999999999533991e+00,1.339053947864221072e+01,-2.176637306488960810e+00
2.000000000000027356e+01,3.000000002630924367e+00,1.000000000002270184e+01,6.599999999998968914e-01,1.570000000000027818e+00,2.870000000000001364e+03,-2.175000000000024691e+00,-4.944999999999956763e+00,1.339605776577996465e+01,-2.174348979822902095e+00
1.999999999999950973e+01,3.000000003048782560e+00,1.000000000003104539e+01,6.600000000002568257e-01,1.569999999999697193e+00,2.869999999999992724e+03,-2.175000000000009148e+00,-4.945000000000712603e+00,1.339372171331532257e+01,-2.199331800973822304e+00
2.000000000000001066e+01,2.999999999532023232e+00,1.000000000001054445e+01,6.600000000000580958e-01,1.569999999999879714e+00,2.869999999999974534e+03,-2.175000000000019806e+00,-4.945000000000334239e+00,1.338769759962991657e+01,-2.197341675164711461e+00
1.999999999999982947e+01,2.999999998005310253e+00,9.999999999988915533e+00,6.599999999998639177e-01,1.570000000000284279e+00,2.869999999999984084e+03,-2.174999999999907896e+00,-4.944999999999216911e+00,1.339311810989846840e+01,-2.180427174471507357e+00
1.999999999999943157e+01,3.000000001830476215e+00,1.000000000001887202e+01,6.599999999998660272e-01,1.570000000000288498e+00,2.869999999999988177e+03,-2.174999999999852385e+00,-4.944999999999144968e+00,1.340580644536552946e+01,-2.170231503039954379e+00
1.999999999999987210e+01,3.000000001987698894e+00,1.000000000003302425e+01,6.599999999996453148e-01,1.570000000000571161e+00,2.870000000000002274e+03,-2.174999999999793765e+00,-4.944999999998294093e+00,1.340728584577751370e+01,-2.164598154462051394e+00
1.999999999999974065e+01,3.000000001916216075e+00,1.000000000002935430e+01,6.599999999996813971e-01,1.570000000000461027e+00,2.870000000000006366e+03,-2.174999999999829292e+00,-4.944999999998622719e+00,1.340766945305937696e+01,-2.164866465157959219e+00
1.999999999999927880e+01,3.000000002417539502e+00,1.000000000001259970e+01,6.599999999999283107e-01,1.570000000000224327e+00,2.869999999999994998e+03,-2.174999999999845723e+00,-4.944999999999306617e+00,1.341089689793066242e+01,-2.164196660467280875e+00
1.999999999999937472e+01,3.000000000615677287e+00,1.000000000002393286e+01,6.599999999999054401e-01,1.570000000000167928e+00,2.869999999999997272e+03,-2.174999999999966960e+00,-4.944999999999617479e+00,1.339544459866863590e+01,-2.179942654516833667e+00
1.999999999999863931e+01,2.999999998449997207e+00,1.000000000005251799e+01,6.599999999999363043e-01,1.570000000000233209e+00,2.870000000000005002e+03,-2.174999999999918110e+00,-4.944999999999449614e+00,1.338887301090218784e+01,-2.197860717703628897e+00
1.999999999999911537e+01,2.999999998129541101e+00,9.999999999990789590e+00,6.599999999999075495e-01,1.570000000000099316e+00,2.869999999999992724e+03,-2.174999999999915890e+00,-4.944999999999916795e+00,1.339053150137222836e+01,-2.158676778465737467e+00
1.999999999999946354e+01,3.000000004944444409e+00,1.000000000001104361e+01,6.600000000000806333e-01,1.569999999999872164e+00,2.869999999999972260e+03,-2.174999999999946088e+00,-4.945000000000358220e+00,1.338134099549694334e+01,-2.181738209253652361e+00
1.999999999999901945e+01,3.000000002742612359e+00,1.000000000002402345e+01,6.600000000000820766e-01,1.569999999999843521e+00,2.870000000000001364e+03,-2.175000000000011369e+00,-4.945000000000666418e+00,1.340289288433775106e+01,-2.164687991316855076e+00
1.999999999999935696e+01,2.999999999863706357e+00,1.000000000000084199e+01,6.599999999998367173e-01,1.570000000000056239e+00,2.869999999999992724e+03,-2.174999999999926548e+00,-4.945000000000004725e+00,1.340220195287673377e+01,-2.173962961554869455e+00
1.999999999999888445e+01,2.999999998236883236e+00,9.999999999987265298e+00,6.599999999995500577e-01,1.570000000000694618e+00,2.869999999999996817e+03,-2.174999999999790212e+00,-4.944999999998189288e+00,1.338658678536689095e+01,-2.184191080605613955e+00
1.999999999999870681e+01,3.000000000522999866e+00,1.000000000000181721e+01,6.599999999998288347e-01,1.570000000000281393e+00,2.869999999999995907e+03,-2.174999999999867928e+00,-4.944999999999327933e+00,1.339396382398769880e+01,-2.169564137313396479e+00
1.999999999999851141e+01,2.999999999243954552e+00,9.999999999998703260e+00,6.599999999998255040e-01,1.570000000000359108e+00,2.869999999999999091e+03,-2.174999999999762679e+00,-4.944999999999036611e+00,1.338675382899569399e+01,-2.179679682529051199e+00
1.999999999999962341e+01,2.999999999081993884e+00,9.999999999989549693e+00,6.599999999996971622e-01,1.570000000000481677e+00,2.869999999999990905e+03,-2.174999999999797318e+00,-4.944999999998618279e+00,1.339253120859186197e+01,-2.175771030013488261e+00
2.000000000000076739e+01,2.999999998633793297e+00,1.000000000000605560e+01,6.599999999999864864e-01,1.569999999999889262e+00,2.869999999999997726e+03,-2.175000000000106404e+00,-4.945000000000294271e+00,1.339010140673942040e+01,-2.170816166496656319e+00
1.999999999999918288e+01,3.000000001552458606e+00,1.000000000001994671e+01,6.600000000000069145e-01,1.569999999999969864e+00,2.870000000000003183e+03,-2.174999999999986944e+00,-4.945000000000290719e+00,1.338884147187161844e+01,-2.170284524004466586e+00
1.999999999999960920e+01,2.999999999066280676e+00,1.000000000000550671e+01,6.600000000000919576e-01,1.569999999999816209e+00,2.869999999999958618e+03,-2.175000000000024247e+00,-4.945000000000582929e+00,1.338221628687097642e+01,-2.181608071865712262e+00
1.999999999999956302e+01,2.999999999393643701e+00,9.999999999977257303e+00,6.599999999999048850e-01,1.570000000000258300e+00,2.869999999999965894e+03,-2.174999999999859934e+00,-4.944999999999263984e+00,1.340777704218062638e+01,-2.176553053872423149e+00
1.999999999999884537e+01,3.000000001168908970e+00,9.999999999996528999e+00,6.600000000002057554e-01,1.569999999999852847e+00,2.869999999999969987e+03,-2.174999999999917222e+00,-4.945000000000513651e+00,1.341023792888676880e+01,-2.163472634493499136e+00
1.999999999999933564e+01,2.999999999644490156e+00,1.000000000000166800e+01,6.599999999998809042e-01,1.570000000000232987e+00,2.869999999999983629e+03,-2.174999999999859934e+00,-4.944999999999362572e+00,1.340288076269608020e+01,-2.181276680110843191e+00
1.999999999999983658e+01,3.000000000872170336e+00,9.999999999987016608e+00,6.599999999998567013e-01,1.570000000000255858e+00,2.869999999999956799e+03,-2.174999999999882583e+00,-4.944999999999257767e+00,1.340918764041377287e+01,-2.171784332484356650e+00
1.999999999999896616e+01,2.999999999504520787e+00,1.000000000000425437e+01,6.599999999998709121e-01,1.570000000000415730e+00,2.869999999999966349e+03,-2.174999999999812417e+00,-4.944999999998856310e+00,1.339850483327250608e+01,-2.184189153300028163e+00
1.999999999999942091e+01,3.000000000655519639e+00,9.999999999970313524e+00,6.600000000000084688e-01,1.570000000000123741e+00,2.869999999999959982e+03,-2.174999999999909672e+00,-4.944999999999724061e+00,1.340135143610551083e+01,-2.160020419124672131e+00
1.999999999999915801e+01,3.000000001347460366e+00,1.000000000000858336e+01,6.599999999997490097e-01,1.570000000000457918e+00,2.869999999999993634e+03,-2.174999999999878142e+00,-4.944999999998785256e+00,1.338098647202886760e+01,-2.191124853097410341e+00
1.999999999999903721e+01,3.000000000991270621e+00,1.000000000000412292e+01,6.600000000000207923e-01,1.570000000000098428e+00,2.869999999999975444e+03,-2.174999999999863487e+00,-4.944999999999750706e+00,1.340962297788888513e+01,-2.177851048741092033e+00
1.999999999999933209e+01,3.000000000153868474e+00,9.999999999994411581e+00,6.599999999999942579e-01,1.570000000000002949e+00,2.869999999999992269e+03,-2.174999999999911449e+00,-4.945000000000089990e+00,1.339185001124325325e+01,-2.184109911114991309e+00
1.999999999999975486e+01,3.000000001646188963e+00,1.000000000001009326e+01,6.599999999998676925e-01,1.570000000000165485e+00,2.870000000000001819e+03,-2.174999999999976730e+00,-4.944999999999645013e+00,1.338737417970418520e+01,-2.163902693479739181e+00
1.999999999999930367e+01,2.999999998556361458e+00,1.000000000000882849e+01,6.599999999996328803e-01,1.570000000000508544e+00,2.869999999999970441e+03,-2.174999999999867484e+00,-4.944999999998730189e+00,1.338595006536127840e+01,-2.180633020819285672e+00
1.999999999999945999e+01,2.999999998165698400e+00,9.999999999989119814e+00,6.599999999998740208e-01,1.570000000000208118e+00,2.869999999999964984e+03,-2.174999999999906120e+00,-4.944999999999483364e+00,1.340501013484715109e+01,-2.193882970075514915e+00
2.000000000000035527e+01,2.999999999069087320e+00,9.999999999971304732e+00,6.599999999998811262e-01,1.570000000000048690e+00,2.869999999999961801e+03,-2.174999999999976730e+00,-4.944999999999891038e+00,1.340536445851989633e+01,-2.158238396158284278e+00
1.999999999999943512e+01,2.999999998756373465e+00,9.999999999993384847e+00,6.599999999998950040e-01,1.570000000000151275e+00,2.869999999999959073e+03,-2.174999999999881251e+00,-4.944999999999622808e+00,1.340768177301633557e+01,-2.173640084712354703e+00
1.999999999999985434e+01,2.999999997140826657e+00,9.999999999980422771e+00,6.599999999999073275e-01,1.570000000000095541e+00,2.869999999999954525e+03,-2.174999999999955413e+00,-4.944999999999769358e+00,1.340864564503483614e+01,-2.181875083228427492e+00
1.999999999999928235e+01,2.999999998417508529e+00,9.999999999978328447e+00,6.599999999999656142e-01,1.570000000000108198e+00,2.869999999999963165e+03,-2.174999999999894129e+00,-4.944999999999750706e+00,1.341361106027432548e+01,-2.185395224493125621e+00
1.999999999999975486e+01,2.999999999012805230e+00,9.999999999978129495e+00,6.600000000000132427e-01,1.569999999999946771e+00,2.869999999999961346e+03,-2.174999999999980727e+00,-4.945000000000207230e+00,1.340170434456764781e+01,-2.172092263013880586e+00
1.999999999999907629e+01,2.999999997022485765e+00,1.000000000001094946e+01,6.600000000000644240e-01,1.569999999999921902e+00,2.869999999999968622e+03,-2.175000000000004263e+00,-4.945000000000347562e+00,1.339169016993593075e+01,-2.189265639521732698e+00
1.999999999999935341e+01,2.999999997924854167e+00,9.999999999986217247e+00,6.600000000000743050e-01,1.569999999999889928e+00,2.869999999999957708e+03,-2.174999999999980727e+00,-4.945000000000332463e+00,1.339735507377492141e+01,-2.176545366206345200e+00
1.999999999999991473e+01,2.999999996534229219e+00,9.999999999976813214e+00,6.600000000001168265e-01,1.569999999999788010e+00,2.869999999999963165e+03,-2.175000000000006484e+00,-4.945000000000539409e+00,1.339693965157792022e+01,-2.183872766919783714e+00
1.999999999999997868e+01,2.999999997578811417e+00,9.999999999987803534e+00,6.600000000000419975e-01,1.569999999999988516e+00,2.869999999999969987e+03,-2.175000000000010036e+00,-4.945000000000014495e+00,1.339265157131433526e+01,-2.177951987311108173e+00
1.999999999999945643e+01,2.999999998682556068e+00,9.999999999976372678e+00,6.600000000000161293e-01,1.570000000000073337e+00,2.869999999999984084e+03,-2.174999999999943423e+00,-4.944999999999825313e+00,1.339527386136556864e+01,-2.159796432686706069e+00
1.999999999999910827e+01,2.999999997341898261e+00,9.999999999984204635e+00,6.600000000000912914e-01,1.570000000000004281e+00,2.869999999999987722e+03,-2.174999999999930100e+00,-4.945000000000104201e+00,1.339286382401198239e+01,-2.185691782462725108e+00
1.999999999999980105e+01,2.999999997323328671e+00,1.000000000000086686e+01,6.599999999997621103e-01,1.570000000000275175e+00,2.870000000000002274e+03,-2.174999999999880362e+00,-4.944999999999201812e+00,1.340107074140916765e+01,-2.191930588598636653e+00
2.000000000000009237e+01,2.999999998497057341e+00,9.999999999983749888e+00,6.599999999997955280e-01,1.570000000000347118e+00,2.869999999999978627e+03,-2.174999999999874145e+00,-4.944999999998948681e+00,1.339063583840792759e+01,-2.175344584063919395e+00
1.999999999999900524e+01,2.999999999925118122e+00,1.000000000000734879e+01,6.599999999997964162e-01,1.570000000000364437e+00,2.869999999999975444e+03,-2.174999999999802203e+00,-4.944999999999124540e+00,1.340626349618802848e+01,-2.166631353369876667e+00
1.999999999999916866e+01,3.000000000747874651e+00,1.000000000000192202e+01,6.599999999999350830e-01,1.570000000000157714e+00,2.869999999999984084e+03,-2.174999999999917666e+00,-4.944999999999690310e+00,1.340171406454811276e+01,-2.161553378687989024e+00
1.999999999999912959e+01,3.000000002275842181e+00,1.000000000000787637e+01,6.600000000001309264e-01,1.569999999999857510e+00,2.869999999999971351e+03,-2.174999999999982503e+00,-4.945000000000450591e+00,1.338244532011548138e+01,-2.164202691891527142e+00
2.000000000000022382e+01,2.999999999864936484e+00,1.000000000001467448e+01,6.599999999999046629e-01,1.570000000000004059e+00,2.870000000000000000e+03,-2.175000000000030020e+00,-4.945000000000031370e+00,1.338036944887423019e+01,-2.188685100235153502e+00
1.999999999999909406e+01,2.999999999346487201e+00,1.000000000003232081e+01,6.599999999997457900e-01,1.570000000000401741e+00,2.869999999999988631e+03,-2.174999999999895461e+00,-4.944999999999021512e+00,1.337862704467205432e+01,-2.189732436928235160e+00
1.999999999999956302e+01,2.999999998107744759e+00,1.000000000002562395e+01,6.599999999999066613e-01,1.570000000000226992e+00,2.869999999999990905e+03,-2.174999999999937206e+00,-4.944999999999427409e+00,1.337146171161270125e+01,-2.208332347287693231e+00
1.999999999999966249e+01,2.999999999556894004e+00,1.000000000001247891e+01,6.599999999996911670e-01,1.570000000000461915e+00,2.869999999999999545e+03,-2.174999999999897682e+00,-4.944999999998855422e+00,1.336969533348684536e+01,-2.203472925004593463e+00
1.999999999999942801e+01,3.000000001720503295e+00,1.000000000000492406e+01,6.599999999999864864e-01,1.570000000000029594e+00,2.870000000000000000e+03,-2.174999999999972733e+00,-4.945000000000006501e+00,1.337379289826379924e+01,-2.184982844107365096e+00
1.999999999999909051e+01,2.999999997240851535e+00,1.000000000001245581e+01,6.599999999999471845e-01,1.570000000000113083e+00,2.869999999999973625e+03,-2.174999999999914113e+00,-4.944999999999828866e+00,1.338536092909472863e+01,-2.190015583449743453e+00
1.999999999999922906e+01,3.000000001177642428e+00,1.000000000002021139e+01,6.600000000000330047e-01,1.570000000000065343e+00,2.869999999999997726e+03,-2.174999999999964295e+00,-4.944999999999888374e+00,1.338575381324954883e+01,-2.156862915462375074e+00
1.999999999999922906e+01,3.000000000886675178e+00,1.000000000001474376e+01,6.600000000001120526e-01,1.569999999999829532e+00,2.869999999999977717e+03,-2.175000000000007816e+00,-4.945000000000649543e+00,1.339197034296078392e+01,-2.194666686657565702e+00
1.999999999999892353e+01,3.000000001854651099e+00,1.000000000003672618e+01,6.599999999999518474e-01,1.570000000000244755e+00,2.869999999999971806e+03,-2.174999999999831068e+00,-4.944999999999280860e+00,1.339258642249772002e+01,-2.179846830473802122e+00
1.999999999999874944e+01,2.999999998563489978e+00,1.000000000002925660e+01,6.599999999997077094e-01,1.570000000000570495e+00,2.869999999999957708e+03,-2.174999999999773337e+00,-4.944999999998434426e+00,1.339241668634963922e+01,-2.195858578868917110e+00
1.999999999999980460e+01,2.999999999159908448e+00,1.000000000002865086e+01,6.599999999996093436e-01,1.570000000000508322e+00,2.869999999999979536e+03,-2.174999999999881695e+00,-4.944999999998556994e+00,1.339081796234943766e+01,-2.198383408950617124e+00
2.000000000000003197e+01,2.999999999958698371e+00,1.000000000000852829e+01,6.599999999997375744e-01,1.570000000000348450e+00,2.869999999999985448e+03,-2.174999999999939426e+00,-4.944999999998981544e+00,1.339679511777289456e+01,-2.183506952238221999e+00
1.999999999999984368e+01,2.999999999855098576e+00,1.000000000001525891e+01,6.599999999998580336e-01,1.570000000000175477e+00,2.869999999999998636e+03,-2.174999999999972289e+00,-4.944999999999534879e+00,1.339238519028734054e+01,-2.184937895441994016e+00
1.999999999999899813e+01,3.000000000010243362e+00,1.000000000001863221e+01,6.599999999998750200e-01,1.570000000000262075e+00,2.869999999999993179e+03,-2.174999999999892797e+00,-4.944999999999356355e+00,1.338167124714998657e+01,-2.172574563749261500e+00
1.999999999999998579e+01,3.000000000939377465e+00,1.000000000001370815e+01,6.600000000000604272e-01,1.569999999999873941e+00,2.869999999999984084e+03,-2.174999999999989164e+00,-4.945000000000272955e+00,1.340084008426847362e+01,-2.163219018616775013e+00
1.999999999999947420e+01,3.000000001216674761e+00,9.999999999998266276e+00,6.599999999995284083e-01,1.570000000000642881e+00,2.869999999999998181e+03,-2.174999999999855049e+00,-4.944999999998338502e+00,1.339621833521190197e+01,-2.176429572336199492e+00
1.999999999999904077e+01,3.000000000934900157e+00,1.000000000000651390e+01,6.599999999998018563e-01,1.570000000000312035e+00,2.870000000000002728e+03,-2.174999999999894129e+00,-4.944999999999256879e+00,1.339077512001500025e+01,-2.194767511711563923e+00
2.000000000000016342e+01,2.999999999607617873e+00,1.000000000000050981e+01,6.599999999998994449e-01,1.569999999999988960e+00,2.870000000000000909e+03,-2.175000000000041567e+00,-4.945000000000128182e+00,1.338824613154143073e+01,-2.164881850020947240e+00
2.000000000000017764e+01,3.000000001194059518e+00,9.999999999993216093e+00,6.599999999999344169e-01,1.569999999999964091e+00,2.870000000000001819e+03,-2.175000000000037126e+00,-4.945000000000161045e+00,1.338823166476404225e+01,-2.182207542258694843e+00
2.000000000000015987e+01,3.000000001107625103e+00,1.000000000000085265e+01,6.599999999996277733e-01,1.570000000000479234e+00,2.869999999999982265e+03,-2.174999999999957190e+00,-4.944999999998734630e+00,1.339091250983389081e+01,-2.161387904289535644e+00
1.999999999999952749e+01,3.000000000945416190e+00,1.000000000000060041e+01,6.599999999999695000e-01,1.570000000000019602e+00,2.869999999999999091e+03,-2.174999999999990496e+00,-4.945000000000077556e+00,1.339334530576899596e+01,-2.153842455787582821e+00
1.999999999999954170e+01,3.000000000645453024e+00,1.000000000001849898e+01,6.599999999996438715e-01,1.570000000000345564e+00,2.869999999999990450e+03,-2.174999999999913669e+00,-4.944999999999139639e+00,1.339279220156117667e+01,-2.186886695977023454e+00
2.000000000000010303e+01,3.000000000988997773e+00,1.000000000001836931e+01,6.599999999998206190e-01,1.570000000000144391e+00,2.869999999999990905e+03,-2.174999999999958966e+00,-4.944999999999558860e+00,1.340801209319704057e+01,-2.183729839263026218e+00
1.999999999999941735e+01,3.000000004713453627e+00,9.999999999989546140e+00,6.600000000002479439e-01,1.569999999999695861e+00,2.869999999999989541e+03,-2.175000000000002487e+00,-4.945000000000945306e+00,1.338421423012217559e+01,-2.143874746713807511e+00
1.999999999999955946e+01,3.000000001281631690e+00,9.999999999989382715e+00,6.599999999998426015e-01,1.570000000000231433e+00,2.870000000000008185e+03,-2.174999999999922107e+00,-4.944999999999381224e+00,1.337415289635301718e+01,-2.172794495845474572e+00
1.999999999999989697e+01,3.000000000082019724e+00,9.999999999985627497e+00,6.599999999998876765e-01,1.570000000000137286e+00,2.869999999999997272e+03,-2.175000000000011369e+00,-4.944999999999745377e+00,1.337261819747462077e+01,-2.184217471794067222e+00
1.999999999999950262e+01,2.999999999278493146e+00,1.000000000001622169e+01,6.599999999997417932e-01,1.570000000000364659e+00,2.869999999999990450e+03,-2.174999999999917666e+00,-4.944999999999155627e+00,1.337929681691597672e+01,-2.206682843480613609e+00
1.999999999999927525e+01,2.999999998182806493e+00,1.000000000001921308e+01,6.599999999996412070e-01,1.570000000000514762e+00,2.870000000000005912e+03,-2.174999999999912337e+00,-4.944999999998706208e+00,1.337878741018438689e+01,-2.190489626693664871e+00
1.999999999999983658e+01,2.999999999595044820e+00,1.000000000001780442e+01,6.600000000000605382e-01,1.570000000000006501e+00,2.869999999999989086e+03,-2.174999999999976286e+00,-4.945000000000022489e+00,1.339150332576860514e+01,-2.158078832677275294e+00
1.999999999999965183e+01,3.000000003417095495e+00,9.999999999994429345e+00,6.600000000002015366e-01,1.569999999999809326e+00,2.870000000000001364e+03,-2.174999999999997602e+00,-4.945000000000558060e+00,1.340198929297106645e+01,-2.151573223792202949e+00
1.999999999999966960e+01,3.000000001013498618e+00,1.000000000000961187e+01,6.599999999999662803e-01,1.569999999999996509e+00,2.869999999999979082e+03,-2.175000000000008260e+00,-4.945000000000048246e+00,1.338432564038284234e+01,-2.197273746844742970e+00
2.000000000000020961e+01,3.000000000660710153e+00,9.999999999982680521e+00,6.600000000001468026e-01,1.569999999999763807e+00,2.869999999999977263e+03,-2.175000000000049560e+00,-4.945000000000624674e+00,1.338413101306696795e+01,-2.162850453993798272e+00
1.999999999999905143e+01,2.999999999194798761e+00,9.999999999989331201e+00,6.599999999996335465e-01,1.570000000000626228e+00,2.869999999999967258e+03,-2.174999999999766676e+00,-4.944999999998280771e+00,1.339391728137831628e+01,-2.170963232971926171e+00
1.999999999999904787e+01,3.000000000208332462e+00,9.999999999988004262e+00,6.600000000000649791e-01,1.570000000000020712e+00,2.869999999999986812e+03,-2.174999999999911449e+00,-4.944999999999998508e+00,1.338758031493372869e+01,-2.154444677366872174e+00
2.000000000000013145e+01,3.000000000349339668e+00,1.000000000000101430e+01,6.599999999999334177e-01,1.570000000000008278e+00,2.869999999999979536e+03,-2.175000000000020695e+00,-4.944999999999921236e+00,1.338608929897339550e+01,-2.185857368351496355e+00
2.000000000000004619e+01,3.000000001167946184e+00,1.000000000001306688e+01,6.600000000001003952e-01,1.569999999999738716e+00,2.869999999999961801e+03,-2.175000000000032685e+00,-4.945000000000682405e+00,1.340922068269508927e+01,-2.168759055985896911e+00
2.000000000000002842e+01,3.000000001961518947e+00,9.999999999981328713e+00,6.600000000000203482e-01,1.569999999999934781e+00,2.869999999999999545e+03,-2.175000000000071765e+00,-4.945000000000240092e+00,1.338942025129268032e+01,-2.164724700896727860e+00
2.000000000000036238e+01,2.999999998748099639e+00,9.999999999986492583e+00,6.600000000000793010e-01,1.569999999999805107e+00,2.870000000000002274e+03,-2.175000000000035794e+00,-4.945000000000429274e+00,1.337746268434328378e+01,-2.191616734232759267e+00
2.000000000000006395e+01,3.000000000886905216e+00,9.999999999984783727e+00,6.599999999997396838e-01,1.570000000000274065e+00,2.869999999999994998e+03,-2.174999999999919886e+00,-4.944999999999230234e+00,1.337025288264388578e+01,-2.208763655498161338e+00
1.999999999999923617e+01,3.000000001968914365e+00,9.999999999993002930e+00,6.599999999997989697e-01,1.570000000000276286e+00,2.869999999999992724e+03,-2.174999999999852829e+00,-4.944999999999281748e+00,1.338957860542961420e+01,-2.180621185691794750e+00
1.999999999999897327e+01,2.999999998053115124e+00,1.000000000001488765e+01,6.599999999998802380e-01,1.570000000000182139e+00,2.869999999999993179e+03,-2.174999999999849720e+00,-4.944999999999638796e+00,1.338618049184708703e+01,-2.192994384582391376e+00
1.999999999999957367e+01,2.999999999080007917e+00,9.999999999998019362e+00,6.600000000000308953e-01,1.569999999999990514e+00,2.870000000000002728e+03,-2.174999999999965627e+00,-4.945000000000051799e+00,1.338079714529012598e+01,-2.196497750433319407e+00
2.000000000000041211e+01,3.000000000813205503e+00,1.000000000000165379e+01,6.599999999999381917e-01,1.570000000000008944e+00,2.870000000000004093e+03,-2.175000000000053557e+00,-4.944999999999977192e+00,1.338553627266456658e+01,-2.181029203775296299e+00
1.999999999999964473e+01,2.999999997932949025e+00,1.000000000000010836e+01,6.600000000000518785e-01,1.570000000000003171e+00,2.869999999999979536e+03,-2.174999999999948308e+00,-4.944999999999939888e+00,1.339102820158672458e+01,-2.152784313922971648e+00
2.000000000000005684e+01,2.999999999079436819e+00,9.999999999999406697e+00,6.599999999998283906e-01,1.570000000000200346e+00,2.869999999999991815e+03,-2.174999999999930989e+00,-4.944999999999406093e+00,1.338700719682848295e+01,-2.178098334650144352e+00
1.999999999999922196e+01,2.999999999984846788e+00,1.000000000000360068e+01,6.599999999997295808e-01,1.570000000000389972e+00,2.870000000000005457e+03,-2.174999999999915445e+00,-4.944999999999065921e+00,1.337524164748498912e+01,-2.189774327640610085e+00
1.999999999999996092e+01,3.000000000793900057e+00,9.999999999992088107e+00,6.600000000002519407e-01,1.569999999999714069e+00,2.869999999999955435e+03,-2.175000000000026468e+00,-4.945000000000760565e+00,1.339732339645489745e+01,-2.154663184168813750e+00
1.999999999999928946e+01,2.999999998318380712e+00,1.000000000001834621e+01,6.600000000001126077e-01,1.570000000000010942e+00,2.869999999999983629e+03,-2.174999999999895905e+00,-4.944999999999952323e+00,1.340127835069249329e+01,-2.165183281925428638e+00
1.999999999999977263e+01,3.000000001374339753e+00,9.999999999975369036e+00,6.600000000000585398e-01,1.569999999999964979e+00,2.869999999999981355e+03,-2.174999999999929656e+00,-4.945000000000055351e+00,1.339149293738431901e+01,-2.180791410786122153e+00
1.999999999999973710e+01,2.999999999910906823e+00,1.000000000002198419e+01,6.599999999996905009e-01,1.570000000000334905e+00,2.869999999999999545e+03,-2.174999999999924771e+00,-4.944999999999257767e+00,1.338752961900661020e+01,-2.181344448753163690e+00
1.999999999999909761e+01,3.000000004507788809e+00,1.000000000002003020e+01,6.599999999999761613e-01,1.570000000000125961e+00,2.869999999999985448e+03,-2.174999999999931877e+00,-4.944999999999708962e+00,1.339761028710764457e+01,-2.167489254077441974e+00
1.999999999999941380e+01,3.000000003189122300e+00,1.000000000001242029e+01,6.600000000001595701e-01,1.569999999999831752e+00,2.869999999999980446e+03,-2.175000000000002043e+00,-4.945000000000521645e+00,1.340943910503659886e+01,-2.144166405886639648e+00
1.999999999999892353e+01,2.999999999466407274e+00,1.000000000001079492e+01,6.599999999999134337e-01,1.570000000000157492e+00,2.869999999999977717e+03,-2.174999999999924327e+00,-4.944999999999705409e+00,1.338999396933072816e+01,-2.181776933171310606e+00
2.000000000000011013e+01,2.999999999777037019e+00,9.999999999987233323e+00,6.599999999999276445e-01,1.570000000000015827e+00,2.869999999999998181e+03,-2.175000000000016698e+00,-4.945000000000046469e+00,1.337965758236487446e+01,-2.204813094220884118e+00
1.999999999999883471e+01,2.999999999938081974e+00,1.000000000002422595e+01,6.599999999997157030e-01,1.570000000000588924e+00,2.870000000000013642e+03,-2.174999999999815969e+00,-4.944999999998523244e+00,1.337216704029778214e+01,-2.190614818083246984e+00
1.999999999999949196e+01,2.999999998322827377e+00,1.000000000001603695e+01,6.599999999999442979e-01,1.570000000000136398e+00,2.869999999999965439e+03,-2.174999999999910116e+00,-4.944999999999629914e+00,1.338727066125685816e+01,-2.184434312640862075e+00
1.999999999999895905e+01,3.000000000344110962e+00,1.000000000001987743e+01,6.599999999999289768e-01,1.570000000000149054e+00,2.869999999999974989e+03,-2.174999999999870592e+00,-4.944999999999692974e+00,1.339615196001926201e+01,-2.168772013869084248e+00
1.999999999999939249e+01,3.000000000965279412e+00,1.000000000001461231e+01,6.599999999997885336e-01,1.570000000000268292e+00,2.869999999999979082e+03,-2.174999999999879474e+00,-4.944999999999361684e+00,1.341167770945923543e+01,-2.180619304444685991e+00
1.999999999999927525e+01,2.999999998766042175e+00,1.000000000000774669e+01,6.599999999997998579e-01,1.570000000000265850e+00,2.869999999999991815e+03,-2.174999999999903899e+00,-4.944999999999379448e+00,1.339553818074172042e+01,-2.157585044402155816e+00
2.000000000000012079e+01,2.999999998122309552e+00,1.000000000001127631e+01,6.599999999995416200e-01,1.570000000000552731e+00,2.870000000000010914e+03,-2.174999999999886136e+00,-4.944999999998431761e+00,1.338702110136473067e+01,-2.176698803065285404e+00
1.999999999999969447e+01,2.999999998156459569e+00,9.999999999974752640e+00,6.599999999994886624e-01,1.570000000000622897e+00,2.869999999999983629e+03,-2.174999999999847500e+00,-4.944999999998338502e+00,1.338461651499378746e+01,-2.173355048787932287e+00
1.999999999999908340e+01,3.000000001733012400e+00,1.000000000000052758e+01,6.599999999996514211e-01,1.570000000000366214e+00,2.869999999999980901e+03,-2.174999999999874589e+00,-4.944999999999116547e+00,1.339597424162758266e+01,-2.171813596143400638e+00
1.999999999999897327e+01,3.000000000684213575e+00,1.000000000001054978e+01,6.599999999998812372e-01,1.570000000000164375e+00,2.869999999999978627e+03,-2.174999999999879918e+00,-4.944999999999622808e+00,1.340469947408146645e+01,-2.171851956436068320e+00
1.999999999999993605e+01,2.999999998644423016e+00,1.000000000000380496e+01,6.599999999998166222e-01,1.570000000000190132e+00,2.869999999999981810e+03,-2.174999999999935429e+00,-4.944999999999454943e+00,1.338687775971714622e+01,-2.175901558442060235e+00
1.999999999999886668e+01,3.000000001110034287e+00,1.000000000003289458e+01,6.599999999994277111e-01,1.570000000000846718e+00,2.869999999999966803e+03,-2.174999999999772005e+00,-4.944999999997786055e+00,1.338826063176397696e+01,-2.194425757048568570e+00
1.999999999999940670e+01,2.999999999439395548e+00,1.000000000004284217e+01,6.599999999998791278e-01,1.570000000000237206e+00,2.869999999999999545e+03,-2.174999999999883471e+00,-4.944999999999294182e+00,1.340545968292848045e+01,-2.178096050967071484e+00
1.999999999999946709e+01,3.000000000776105846e+00,1.000000000003358025e+01,6.599999999998877875e-01,1.570000000000247642e+00,2.869999999999986358e+03,-2.174999999999907452e+00,-4.944999999999295959e+00,1.340126127314273319e+01,-2.168598567437920011e+00
1.999999999999970868e+01,2.999999998870627849e+00,1.000000000003950085e+01,6.599999999999607292e-01,1.570000000000095763e+00,2.870000000000008640e+03,-2.174999999999966516e+00,-4.944999999999735607e+00,1.339595171327470524e+01,-2.185453528655582289e+00
1.999999999999945999e+01,2.999999999368019754e+00,1.000000000001499423e+01,6.599999999999309752e-01,1.570000000000134399e+00,2.869999999999970896e+03,-2.174999999999861711e+00,-4.944999999999569518e+00,1.339339824451185024e+01,-2.187550498494161832e+00
1.999999999999927880e+01,2.999999999588223165e+00,9.999999999981278975e+00,6.599999999997843148e-01,1.570000000000407736e+00,2.869999999999984539e+03,-2.174999999999861267e+00,-4.944999999998923812e+00,1.338904873690928454e+01,-2.170201673849709412e+00
1.999999999999966249e+01,3.000000000614374773e+00,9.999999999988236965e+00,6.599999999998724665e-01,1.570000000000254081e+00,2.870000000000005457e+03,-2.174999999999902567e+00,-4.944999999999370566e+00,1.338828468827019158e+01,-2.161354643987229096e+00
1.999999999999997513e+01,3.000000000626624086e+00,1.000000000002440181e+01,6.600000000001123857e-01,1.569999999999869278e+00,2.870000000000000455e+03,-2.175000000000016254e+00,-4.945000000000348450e+00,1.341028561723867440e+01,-2.166535954222660543e+00
1.999999999999949196e+01,2.999999999703135245e+00,1.000000000001823608e+01,6.600000000000730838e-01,1.570000000000018936e+00,2.869999999999998181e+03,-2.174999999999971401e+00,-4.945000000000005613e+00,1.340126096156303426e+01,-2.164826238563933192e+00
2.000000000000007461e+01,2.999999999248990967e+00,1.000000000002068923e+01,6.599999999999975886e-01,1.570000000000047136e+00,2.869999999999986358e+03,-2.175000000000016254e+00,-4.944999999999867057e+00,1.340273366456374937e+01,-2.175487587655643207e+00
1.999999999999973710e+01,3.000000001353066992e+00,1.000000000002411937e+01,6.600000000001002842e-01,1.569999999999911466e+00,2.869999999999980446e+03,-2.174999999999992273e+00,-4.945000000000262297e+00,1.339797431180494414e+01,-2.175668594495162367e+00
1.999999999999959854e+01,3.000000002382850361e+00,1.000000000004819078e+01,6.600000000002930189e-01,1.569999999999547313e+00,2.869999999999997726e+03,-2.175000000000104627e+00,-4.945000000001404494e+00,1.339805101955433564e+01,-2.171155027861584319e+00
2.000000000000019185e+01,2.999999998904535836e+00,1.000000000000631317e+01,6.600000000000180167e-01,1.569999999999946549e+00,2.869999999999998636e+03,-2.175000000000074429e+00,-4.945000000000224993e+00,1.338114605317814210e+01,-2.188831661282379049e+00
1.999999999999923972e+01,3.000000001653899684e+00,9.999999999997104538e+00,6.599999999999565103e-01,1.570000000000157270e+00,2.869999999999974079e+03,-2.174999999999858602e+00,-4.944999999999562412e+00,1.339591790079933631e+01,-2.173166172596333379e+00
1.999999999999904432e+01,3.000000001115482817e+00,9.999999999981829646e+00,6.600000000000164624e-01,1.570000000000159268e+00,2.869999999999986358e+03,-2.174999999999816414e+00,-4.944999999999518003e+00,1.340880646428397505e+01,-2.158282150554521106e+00
1.999999999999955591e+01,3.000000001915835046e+00,1.000000000000880718e+01,6.599999999998172884e-01,1.570000000000287388e+00,2.869999999999982265e+03,-2.174999999999918998e+00,-4.944999999999319051e+00,1.338819348219342054e+01,-2.180470223839318766e+00
1.999999999999941380e+01,2.999999998776844645e+00,1.000000000001494982e+01,6.599999999996370992e-01,1.570000000000447926e+00,2.869999999999994543e+03,-2.174999999999872813e+00,-4.944999999998838547e+00,1.339013295014652982e+01,-2.189092254877027521e+00
