2.895086330145204417e-03
4.389617584178036845e-03
3.237821775904788871e-03
2.818278658861948522e-03
3.446106485888745467e-03
2.865497325193437118e-03
2.892133725386983410e-03
2.795986317168076395e-03
3.369426007666835501e-03
3.977606022101857521e-03
2.844056026520578023e-03
2.650477135408174732e-03
2.666869860245337735e-03
3.352887394305792152e-03
3.445129847709167518e-03
3.381193602905194738e-03
2.554215636930724179e-03
2.548035747926276177e-03
2.665657691195881009e-03
2.589200599782715950e-03
3.189466041954537243e-03
2.759886497545973628e-03
3.113630215142517994e-03
2.669562805801690888e-03
2.983760027478112031e-03
2.997274769616914327e-03
3.003755543714972231e-03
3.009741607112118196e-03
3.252555398284727103e-03
3.369661858117270307e-03
2.583233072057826603e-03
2.644787323186574730e-03
2.578257362588931567e-03
2.647819982874109399e-03
2.860129650172430968e-03
3.153753553966482086e-03
3.001653981977764687e-03
2.705598709312564878e-03
2.856349970934907775e-03
2.687757805185232111e-03
3.137427461675274757e-03
3.136584088587609023e-03
3.418192722212288689e-03
2.986732765811369369e-03
3.081480730774919467e-03
3.038811932821262277e-03
2.973419998584050667e-03
2.792381448494764794e-03
2.817010243634610316e-03
3.509497526263935085e-03
3.797525574519893411e-03
2.691558896320016617e-03
2.835949865713968329e-03
2.649453039516009353e-03
2.993070048239718662e-03
2.927589270607898475e-03
2.653510114676265862e-03
2.597505539695248080e-03
3.436993007169167769e-03
4.198393362603306672e-03
2.665466741813584967e-03
2.705258995181383363e-03
3.319732509508562662e-03
2.933249042257220912e-03
3.348799000251033095e-03
2.697302717655605028e-03
2.957389198726721648e-03
2.903518782699637639e-03
3.258964905918764095e-03
4.145524512039180411e-03
2.948855439135990384e-03
3.346140090023909386e-03
2.920493303939262347e-03
2.817859049591730711e-03
2.892106880620267436e-03
2.911526832275510880e-03
3.102478771216405501e-03
2.862669037271556478e-03
2.852059282388109528e-03
3.716046274666914839e-03
3.228492260729257102e-03
3.601520427825239193e-03
2.828301663844314234e-03
2.581216358958275323e-03
2.610443119349653042e-03
2.698285747446306591e-03
2.937045978844775741e-03
2.896033566913616859e-03
3.124272886823248069e-03
3.175834013751630252e-03
3.575697040566524609e-03
3.404925015843386117e-03
2.973574995153781091e-03
2.997244089883524271e-03
2.698618430805252866e-03
2.630199109959682584e-03
2.641816821917210029e-03
2.644835100479718624e-03
2.764785667471671756e-03
3.080325766645012307e-03
3.062863565476710900e-03
2.939285599382237667e-03
2.895940888552335068e-03
2.800870466807635524e-03
2.960684713421685328e-03
4.168608774351179394e-03
2.604826171494854098e-03
2.787524463202477668e-03
2.825252865338693815e-03
3.053095905358705134e-03
4.365301658402656430e-03
2.956902157959157007e-03
3.434703532064947110e-03
2.767268169231803729e-03
2.858379946627538810e-03
2.934178702095045690e-03
2.764205309181712832e-03
2.806808593121359798e-03
2.841192265156965591e-03
4.232142028073853507e-03
3.311813942488409622e-03
2.739287613219112179e-03
2.621754832924671520e-03
3.064428231879595069e-03
2.740831187305291065e-03
2.779525042301620244e-03
2.751624381427964991e-03
3.027335155888994777e-03
2.583314405309365246e-03
2.598183370054830531e-03
2.568380725501280461e-03
2.681743938279701651e-03
2.698875053991836928e-03
2.780335498592002852e-03
2.646321150065791047e-03
3.546278052470626298e-03
2.660017094379927682e-03
2.870755384083685004e-03
2.694364174441854932e-03
2.585707584304054816e-03
2.642234513704090799e-03
2.730546445847443094e-03
2.927208330584974046e-03
3.144578396199568249e-03
3.220851089631837812e-03
3.099261873338253134e-03
3.097629775438022134e-03
2.770742329457652215e-03
2.831694011447789816e-03
2.727018915668717822e-03
3.355153220448857995e-03
2.748674333314193516e-03
2.630145740006806232e-03
2.628714977856946335e-03
2.679542188038142817e-03
3.942012098500131609e-03
3.059491990609384572e-03
2.945013441690018993e-03
2.882365745688421615e-03
2.831131869249531047e-03
3.071048023519576311e-03
3.129762961197257113e-03
3.274697537117210542e-03
2.972713086393858738e-03
3.030373088655706308e-03
2.832275328479416827e-03
3.088656273002035862e-03
2.735963655854651080e-03
2.799358211615959185e-03
4.128993568611484359e-03
3.237621718476642318e-03
2.578585092449258310e-03
2.576845295901606520e-03
2.625659627949925370e-03
3.040214252301625623e-03
2.886550972651692141e-03
3.144779092788826860e-03
2.822179139549694030e-03
3.696510634850346845e-03
3.220700567189893962e-03
2.852741267294922091e-03
2.642529326767134416e-03
2.605752955107673748e-03
2.834082556524415448e-03
2.569796147784445331e-03
2.614996822694158531e-03
2.573620568299828625e-03
2.600087750588897084e-03
2.698775664438875926e-03
2.837169385116216757e-03
2.767846290457869150e-03
2.774511142956266520e-03
3.907787258000929888e-03
2.678055179710401440e-03
2.723377614812005475e-03
2.705281046239756734e-03
3.008055180517342324e-03
2.545364374057463002e-03
2.573639263762363474e-03
2.600608826685690735e-03
2.566984637841762500e-03
3.246425843217871660e-03
3.105263596182649723e-03
3.820968725796441718e-03
3.324174359658417250e-03
3.136345681492725117e-03
2.895312593178954452e-03
2.668158728628269600e-03
2.692297766565823584e-03
2.775122180979615067e-03
2.574603598090529754e-03
2.608981357885847060e-03
3.010185504504603315e-03
2.705168873464550237e-03
2.626581298273846822e-03
2.612925461319506783e-03
2.550568583624000709e-03
2.566463721535247079e-03
2.549239927461829577e-03
2.701613859357996934e-03
2.721283083847033171e-03
3.879538893482189794e-03
2.785938065321775289e-03
3.171535974852040304e-03
2.568293320219175099e-03
2.704094763215348328e-03
2.762895028901519220e-03
2.756950510976672632e-03
2.651174939552516582e-03
2.934191804897847648e-03
3.157138870797722863e-03
2.920763669089760858e-03
2.559190867028784521e-03
2.582069798833459655e-03
2.542173841575192349e-03
2.614087456221648748e-03
2.601808052722623735e-03
2.622275110070075316e-03
2.937183398483918066e-03
3.127363869962279056e-03
2.638414727106771877e-03
3.166067312375292573e-03
2.920733308936927265e-03
2.708091118069937218e-03
2.648672943378459904e-03
2.648733344103571061e-03
2.653586494429184539e-03
2.794791725049207767e-03
2.617721246935291596e-03
2.654697196652065425e-03
2.676253704115414377e-03
2.673302058098861889e-03
2.662029173561414157e-03
2.689132001576654066e-03
2.640889558933556119e-03
2.682075982477535869e-03
2.736966819220389407e-03
2.734192859993054073e-03
2.886418027140335955e-03
3.366591967294944171e-03
2.984171647234426083e-03
2.971147780829862077e-03
2.887300708636407563e-03
2.945670499313452189e-03
2.805232741399010278e-03
2.881099887105532508e-03
2.888906920511590676e-03
2.749793504421812421e-03
2.725660059143990895e-03
2.704300253512949108e-03
2.655551275688361815e-03
2.579706979991604112e-03
2.612227018014052441e-03
3.171598293060488502e-03
2.954767040263554280e-03
2.633327164443226807e-03
2.694178817719290915e-03
2.823749877983145352e-03
2.957349251157203283e-03
3.161622266419876395e-03
3.052447795990843784e-03
2.597565141468968948e-03
2.736512056088995833e-03
3.849460291118408321e-03
3.513627785371549114e-03
2.979936246123840796e-03
2.921164423107166022e-03
3.157087098747627090e-03
4.057043841362184544e-03
3.555086012178529722e-03
2.846604681455832276e-03
2.875981484918319151e-03
3.152367533094482289e-03
3.723726434592183106e-03
2.692646109372020917e-03
2.658333224429601342e-03
3.671496425559790319e-03
2.943348107411948838e-03
2.971988916853634741e-03
2.921384294529793743e-03
2.872078767166680140e-03
3.013072914829370130e-03
2.752702646224397445e-03
3.409795743099587259e-03
3.044815253568440312e-03
2.877319249126340794e-03
2.824504727256758971e-03
2.588655714934489250e-03
2.739323406241400433e-03
2.828866362687021668e-03
2.662254797434052567e-03
2.656697451352974925e-03
2.851010419002842581e-03
2.768183447944601999e-03
3.166942004357460420e-03
2.815477215706783855e-03
2.642282290997235127e-03
2.969881922246973404e-03
3.407783024756988292e-03
2.884000400233101714e-03
2.998873950719861767e-03
2.609694821477439967e-03
2.591765553326333318e-03
2.976198751519729038e-03
2.836258900111760222e-03
2.631579697962227720e-03
2.602194106034446362e-03
2.655065513243021723e-03
2.853193154201310970e-03
3.661851803955899938e-03
3.771553901883127613e-03
2.726738963101535407e-03
2.712168007224674895e-03
2.678677403053215337e-03
2.669776285613195427e-03
2.552802132130895917e-03
2.894880520267046741e-03
2.848262026219998237e-03
2.657679043031173274e-03
2.766392198927410898e-03
2.888468775569116246e-03
