6.293638238726350156e-04
1.567768913829231670e-03
3.055735528748497638e-03
3.146172319621334205e-03
2.786268482979342882e-03
2.614493007942665041e-03
3.199721607551089721e-03
2.885435218374247934e-03
1.790234898811901565e-03
3.175340437120361195e-03
2.290881241094054263e-03
3.416193984812558419e-03
2.161773443289829837e-03
8.211354221761605308e-05
1.371452927096412444e-03
3.047697740319696858e-03
2.166079850647172934e-03
3.250858133267198191e-03
2.323166856473579765e-03
2.223748389833930979e-03
3.392140442387205079e-03
1.378773120738696189e-03
1.928761302905465007e-03
3.114179948079384436e-03
1.442421569888751361e-03
2.440915019784264169e-03
3.360172391354186282e-03
3.202287001924237087e-03
2.690952774377995682e-03
2.175206191510215513e-03
3.445638293838300479e-03
3.484230748321299944e-03
2.666554831182486787e-03
2.132172728232511506e-03
3.395192806031140705e-03
2.463401147340897775e-03
1.446846365010835255e-03
2.388272299790884269e-03
3.519886012145188783e-03
1.437139546713354530e-03
1.940986691607748081e-03
3.015706766508145092e-03
3.162871563782683991e-03
3.426302650599567269e-03
1.492359402015227708e-03
1.349152837455800400e-03
2.823083024395630150e-03
2.975345064886903042e-03
1.648978447704264015e-03
2.891358799802491719e-03
1.127848715866765911e-03
2.608402817050937007e-03
1.348299802593682121e-03
1.563396254051006460e-03
3.150927677982630088e-03
3.128327216079411065e-03
2.517002151295391968e-03
1.292495276666175488e-03
2.904873455024220650e-03
1.113363476656416403e-03
2.164702247566550712e-03
1.196449813023845116e-03
2.603043359611471007e-03
2.627919606149297684e-03
2.271816198460442811e-03
2.981925579602375930e-03
3.220445197075393496e-03
3.451482484179917588e-03
1.104629618489233120e-03
3.141828732635395215e-03
3.489477269144578963e-03
1.909096214611838167e-03
1.278678012813201561e-03
2.289900872992645282e-03
1.811749044649516591e-03
1.341428000863191874e-03
3.364538621572579248e-03
1.656562532845757846e-03
1.753009284885456839e-03
1.888430630899066683e-03
2.140436948985846403e-03
1.512449959442114644e-03
3.022949525886359668e-03
3.221350646827449669e-03
3.399132169385874706e-03
1.068137743135406546e-03
1.300244713313794846e-03
6.257716567488534436e-04
2.636042935678478173e-03
9.213868138318216531e-04
2.462700045773081031e-03
3.428913051891541858e-03
1.084903379490678157e-03
2.339113003496293836e-03
1.667232107841628251e-03
1.891536667390299143e-03
6.194964063523826026e-04
2.204265984903369755e-03
3.196862130702127908e-03
3.088461708749586608e-03
3.277726984260925271e-03
3.362781954007921723e-03
3.380597705211480300e-03
3.438422091337654894e-03
3.441781955669229176e-03
2.923192668717267562e-03
2.046573202722314078e-03
2.626690721583061199e-03
1.946952344720982503e-03
1.716250093592944486e-03
2.963417951851629942e-03
2.611424151080028906e-03
7.591924312432925996e-04
1.406792024304192581e-03
2.042380850165477404e-03
1.648336749678377781e-03
3.447820989628377387e-03
1.631883086748019780e-03
3.319478309444214882e-03
3.429562716980698919e-03
2.959509897657819095e-03
2.673073566214351649e-03
3.328367315685616147e-03
1.263383208156122848e-03
3.132057758512629599e-03
1.519121047087400398e-03
2.098286152454705965e-03
2.734352303247029707e-03
1.323073005271946856e-03
3.196326520413476837e-03
2.363339305398884024e-03
9.725655510059606898e-04
1.947300798909293220e-03
1.722189050055570204e-03
2.647949082757776462e-03
2.866407075823153381e-03
1.090610103047616550e-03
8.145664562081047881e-04
2.835434488379845637e-03
3.317613457546724973e-03
2.965659911410596997e-03
2.628513362022520325e-03
2.429138302539854237e-03
3.102328871577781852e-03
3.242136016035361036e-03
1.757581959883687105e-03
1.130633973231575003e-03
2.813310932088545959e-03
3.208013782912391611e-03
1.521283895105820638e-03
3.345047830259627406e-03
2.158340896977541199e-03
3.419721017699776239e-03
3.325687866511962791e-03
3.226004809507904483e-03
3.103040036804466210e-03
9.069126865781392379e-04
2.673380228263751591e-03
1.940098573712631131e-03
2.562469202969678336e-03
2.466783654904925599e-03
2.929878572304775962e-03
3.426884665537443565e-03
3.427890192786023100e-03
4.537411308577351480e-04
2.681662339966185866e-03
2.901774127638900077e-03
2.862686876594881889e-03
1.218658630869444426e-03
1.262354618355970631e-03
1.103240344359784301e-03
3.058656226188908190e-03
3.449277704249546859e-03
3.371097890785996164e-03
3.358937636320276626e-03
2.337976788455468306e-03
2.324751323653159295e-03
2.005482864244408081e-03
1.160930198935117199e-03
2.099975030095042362e-03
1.829446128542254295e-03
2.552255183253893198e-04
9.338641434384091153e-04
1.393870286317446926e-03
2.356692538262529675e-03
1.652664262764735837e-03
3.256024983457770673e-03
2.433036852166955890e-03
1.269174424515641907e-03
2.913167587208080264e-03
3.436292229756636105e-03
8.905695841222914608e-04
6.152643582522324822e-04
3.345862707081871147e-03
1.596331534519689239e-03
1.321993398312254530e-03
6.954643813470506386e-04
6.816889795195076691e-04
3.167894447742225766e-03
3.492887451770494353e-03
3.089716032009073073e-03
3.415630419915939922e-03
7.434119152727841325e-04
2.452952273974928245e-03
3.372081333894281011e-03
2.602473924247179337e-03
3.311837476448547916e-03
2.345549831526814576e-03
1.370082452440821901e-03
3.324703305219359369e-03
2.229095966565011137e-03
1.132057561642303310e-03
1.612315000944039350e-03
3.458323815387723613e-03
3.221977109591994334e-03
1.477136580473664348e-03
3.371550196342905110e-03
2.484105448185703734e-03
3.205365083807502555e-03
2.894220233474010823e-03
1.806246878936377956e-03
1.321804844481516174e-03
8.724839311788101272e-04
3.363465444172718949e-03
3.083965489604145998e-03
1.278679410543599997e-03
3.380706448636472405e-03
2.441693555616149865e-03
2.826846553266250568e-03
7.938327331384131087e-04
1.945626038345980033e-03
3.374314068432619600e-03
1.194942081243135536e-03
1.467606784731135313e-04
2.266000941138071774e-03
2.190907595940177165e-03
8.111273405629434346e-04
2.862068520666648415e-03
1.308663802595268081e-03
1.735208768943240698e-03
2.383481439077470357e-03
3.343704331800725210e-03
2.944137938282750857e-03
1.567254688815675418e-03
7.003931281642626237e-04
1.164666472062969409e-03
2.236949673900348080e-03
2.761646064281857594e-03
1.599238254656116078e-03
2.948622975585003976e-03
2.528909696105088693e-03
8.257247476377611731e-04
2.781063894068014786e-03
8.676860119268845015e-04
2.185166138782839492e-03
1.224183020495917028e-03
3.083252088008824054e-03
3.309711808058724003e-03
1.584541818382574456e-03
2.976698067912514432e-03
2.309992828149930871e-03
1.951729088357372988e-03
3.354577276569556833e-03
3.351167932581880591e-03
8.440369726788164457e-04
1.664452022079293114e-03
2.795129814158857015e-03
1.077304059087842540e-03
1.075635099105682344e-03
7.502459782825186569e-04
2.415093348404987253e-03
1.345924779100791122e-03
2.503468207394165656e-03
1.536443679006417899e-03
6.533382547574408897e-04
1.327133971171337882e-03
2.647435556609419212e-03
1.020772783239709070e-03
8.595814119850419968e-04
1.658069425988228278e-03
3.339301481045895640e-03
1.256950153997677408e-03
2.971438967515650353e-03
3.259574100485282747e-03
1.232576251765020491e-03
1.206042017428660563e-03
7.841556864984171706e-04
3.118737667362352344e-03
1.555387398641451535e-03
1.392658593835109952e-03
3.370077547595194418e-03
3.313581843985699375e-03
3.014056605999842955e-03
2.330205127894514547e-03
2.925864011054610594e-03
3.339267376424176047e-03
1.792430873040762752e-03
1.691853687900874391e-03
3.188726780691521212e-03
8.096311400580205207e-04
1.385707680564072673e-03
2.790340351175841106e-03
1.192009922413458933e-03
7.394745786271279299e-04
2.963781920847362306e-03
3.388472518275832419e-03
2.069609337190702041e-03
1.098298528763347716e-03
2.053119053723906785e-03
1.085955800594122240e-03
3.334331151749332558e-03
1.210231015432541293e-03
3.429153741066139332e-03
2.277110661436385422e-03
1.285496840561593758e-03
5.165392707199490578e-04
2.638586525457411146e-03
1.814255734345932881e-03
2.477068714268207753e-03
1.675893703347216537e-03
3.157299651322667371e-03
2.101686550967832301e-03
1.884762147695534735e-03
3.275747798016849510e-03
1.260209661286649553e-03
1.273503335332398399e-03
1.440105670391711012e-03
1.293793628433210748e-03
2.134830652358029896e-03
1.374481249777496309e-03
1.907591418064965606e-03
1.726146304359403149e-03
3.312812253628363152e-03
3.371128640854760029e-03
3.359044982014870295e-03
7.284299925653780344e-04
3.507562223222861295e-03
3.433809301476992148e-03
2.773420824703710236e-03
1.601066206471089088e-03
2.279889349468322557e-03
3.320308561300839689e-03
1.333853979380566525e-03
2.172042149207451412e-03
3.472641886042429366e-03
6.403361472727898051e-04
1.107301729578295119e-03
1.238769734933187249e-03
3.247366043639938679e-03
1.357321593222927470e-03
2.564199593202846298e-03
1.116795883195665761e-03
7.809384605539953410e-04
7.949893550430548123e-04
3.361109150267166477e-03
1.461365149750745501e-03
7.235620470204945625e-04
8.509474216548212032e-04
6.850139005911231021e-04
3.064491401169455319e-04
2.920705267700348870e-03
9.817236902355658528e-04
2.995918538166423076e-03
3.323765148575980738e-03
3.303283925502752301e-03
1.012352575773917259e-03
3.188410893621491937e-03
1.139782258461871905e-03
3.337113473880305280e-03
2.824104206224671045e-03
1.616135557214912763e-03
3.270367095075327971e-03
3.369669130772794119e-03
1.334429844304690221e-03
1.481347942163918976e-03
1.632948716403728392e-03
1.691080742990581790e-03
1.507803763824930657e-03
1.409086818072217756e-03
3.017277535929820554e-03
1.699296881818213381e-03
1.266683389399687410e-03
3.170858195278905382e-03
1.233995646984553706e-03
2.737868713383220624e-03
1.766441194467603367e-03
2.999498405262699015e-03
3.254790507969940443e-03
3.378759130645479520e-03
9.500436415511289779e-04
2.260914180899325620e-03
1.634493348266954655e-03
1.385214281733451952e-03
2.657318908256212954e-03
1.767407305718948990e-03
3.388482302388621040e-03
2.406002789440142564e-03
2.341246918495467570e-03
1.256126471473924776e-03
1.116622005534109903e-03
2.417871756890844961e-03
3.369345416412534381e-03
2.094580210076497830e-03
9.622309421000569372e-04
3.405561729218323837e-03
1.189268553783158489e-03
3.195816348818075747e-03
1.264646616663199150e-03
2.038227913605874207e-03
1.100027800812197103e-03
1.339184276669596945e-04
3.363676501462871567e-03
2.902641000031962355e-03
1.818313066146288320e-03
2.523350642764736560e-03
1.423334862433965663e-03
1.244767675618623686e-03
1.684071264815853366e-03
1.450774686295421912e-03
3.251723048837702312e-03
1.162702381307195937e-03
9.465836298365121280e-04
2.180440691852068760e-03
2.607767688357922730e-03
1.002882113686798769e-03
1.599325473032973434e-03
3.324117935728526478e-03
2.190771317226336990e-03
3.403244851310004843e-03
3.425347441645328842e-03
1.929252605140487856e-03
1.355069849551171794e-03
2.658073682671326533e-03
2.700127756258901071e-03
2.293631834744984041e-03
2.499599848743668147e-03
1.370160865116169932e-03
3.476443712725964686e-03
3.047019281984333656e-03
3.023055194304475474e-03
3.202206772199371262e-03
3.113328171174624664e-03
1.620207704957490630e-03
1.674875596525052376e-03
2.077960916093934442e-03
3.446654723383986776e-03
1.595287849231234950e-03
1.238463911522026456e-03
1.084176000591372284e-03
2.423994095581734863e-03
1.890354187473287885e-03
1.275874305407134236e-03
1.224509949636092996e-03
6.388726536591884811e-04
9.574078637009608662e-04
1.472229568364146791e-03
