3.891838319215134689e-03
3.874013587199868526e-03
3.804351931231178194e-03
3.479240312494046028e-03
3.666493109105563829e-03
3.630500000316927520e-03
3.543964874777886988e-03
3.448384596848892009e-03
3.693682640729914219e-03
3.650571541914502012e-03
3.593799764046533892e-03
3.799420276988496777e-03
3.912945274627626334e-03
3.655653900701938408e-03
3.603571241949424329e-03
3.558850388219658798e-03
3.525611556970827207e-03
3.645360876285353140e-03
3.879850748579822921e-03
3.628736021218769824e-03
3.810086063177139156e-03
3.747546876775832529e-03
3.675180538181217586e-03
3.774380604889000356e-03
3.847595816428911117e-03
3.836251379838092994e-03
3.543946956615453159e-03
3.840704363170046459e-03
3.879461668481263246e-03
3.474514077184978622e-03
3.608047902853165571e-03
3.576424905895226377e-03
3.921342813432478029e-03
3.699453888869487679e-03
3.884846716226954006e-03
3.833227049993038604e-03
3.741440942959373302e-03
3.873640505460624120e-03
3.896215150356745465e-03
3.917535523882509189e-03
3.949348261381932686e-03
3.623399928452585451e-03
3.786272825302790333e-03
3.601948048413245850e-03
3.551749036486571889e-03
3.749107676710680334e-03
3.778528019558022484e-03
3.676932038559108541e-03
3.574415511965164764e-03
3.679665838198988449e-03
3.719053798834433006e-03
3.679579767025869565e-03
3.797285775888585655e-03
3.789467697658151224e-03
3.637122361172100485e-03
3.779541355637083561e-03
3.659711404591605398e-03
3.736224517920870916e-03
3.645173055546985664e-03
3.790758765254934482e-03
3.892402101397423111e-03
3.720429337768403448e-03
3.896571593802300882e-03
3.898093357740417195e-03
3.890635882528960861e-03
3.790684212900522626e-03
3.802515959516099189e-03
3.552496479833804673e-03
3.846352743910074964e-03
3.798686592230274706e-03
3.811317616877267847e-03
3.588041954528785587e-03
3.762878424475329334e-03
3.641385283995382353e-03
3.748451424011546660e-03
3.805655157581040900e-03
3.886286568565373249e-03
3.617163448024109194e-03
3.747971793199259861e-03
3.518129764253209810e-03
3.820692015501940542e-03
3.686492978053403438e-03
3.566963796163062379e-03
3.663625563181803924e-03
3.771572892829081446e-03
3.908122409228291863e-03
3.890160091322909883e-03
3.731442608321384764e-03
3.685435806469817069e-03
3.794605410768819940e-03
3.760305248362979299e-03
3.848807532163487852e-03
3.867692315467017791e-03
3.904078343960449594e-03
3.768720065395891970e-03
3.898450441120345899e-03
3.636668647701904716e-03
3.750464657547844527e-03
3.668036950779536218e-03
3.613043870500296222e-03
3.687690615231783032e-03
3.708818688478571473e-03
3.612859249433792146e-03
3.906006786192373851e-03
3.942238910469187708e-03
3.863310044883240361e-03
3.581973456873124417e-03
3.798280233903654490e-03
3.696958784750599327e-03
3.489492701077968537e-03
3.820250460784824654e-03
3.502886847464323737e-03
3.699021613200775133e-03
3.727743147713204457e-03
3.697102450017254651e-03
3.743916529079896558e-03
3.881421147530259626e-03
3.593684895826646571e-03
3.584499917776272186e-03
3.854210498071612440e-03
3.579100791474383852e-03
3.680641098182878615e-03
3.715266667217202116e-03
3.467454321186112017e-03
3.620422633783919319e-03
3.566727020445188516e-03
3.577767808176192995e-03
3.927755595780614735e-03
3.928787169989295634e-03
3.940026657343002198e-03
3.894318064909080192e-03
3.848633470014132391e-03
3.867082138042714397e-03
3.927128460095435925e-03
3.913523775300484751e-03
3.672805741724383642e-03
3.643339003635025219e-03
3.811699017763355447e-03
3.925064031809327551e-03
3.894387497788510521e-03
3.507811462428906367e-03
3.658610397503493736e-03
3.752957521896429192e-03
3.690570959842995238e-03
3.662456403083006774e-03
3.876407581687881139e-03
3.543991752021536865e-03
3.617361827679624851e-03
3.599425747083520328e-03
3.771200131057023466e-03
3.820035122868434881e-03
3.780552771913027379e-03
3.622515539149609269e-03
3.758083716188390013e-03
3.649708270445822626e-03
3.760071032382595983e-03
3.686632163779450955e-03
3.681368063630187457e-03
3.716667483558892034e-03
3.706442612152991822e-03
3.627014597756392147e-03
3.528422788669795512e-03
3.491054140947188328e-03
3.650387560782370356e-03
3.656803222835183602e-03
3.596626354170445478e-03
3.486771060191168076e-03
3.621023532159819806e-03
3.583634726504475107e-03
3.518223834605986762e-03
3.547662735550135595e-03
3.640329712247727251e-03
3.739313161170374541e-03
3.578575405354453634e-03
3.516935006779507624e-03
3.775513608695743855e-03
3.613511022592317146e-03
3.604309726215440633e-03
3.494175420849696210e-03
3.515517552144130017e-03
3.612472729072723019e-03
3.757140772890318111e-03
3.709370311907779581e-03
3.672533129681642555e-03
3.842104219610177097e-03
3.779763412864386562e-03
3.770077046233056162e-03
3.750780145193551192e-03
3.796704715478236257e-03
3.723327600542049916e-03
3.868731888855357626e-03
3.894176319445542562e-03
3.541011257681008200e-03
3.916898789181741912e-03
3.894357420872997244e-03
3.804979066916356137e-03
3.857920837564127355e-03
3.924689350234151879e-03
3.811031246245515178e-03
3.815738283523403048e-03
3.616742371206917682e-03
3.640024463551982340e-03
3.506728693470414528e-03
3.540733526163285586e-03
3.853316509753046924e-03
3.657302051678649503e-03
3.831153342658527323e-03
3.722620793027478590e-03
3.676712861036482514e-03
3.642724346670113151e-03
3.558798553535475438e-03
3.533231255545745114e-03
3.766617561014612252e-03
3.746181896759010702e-03
3.840413512997685984e-03
3.647044543619745900e-03
3.586372365750590836e-03
3.590242368869077643e-03
3.828855338326408921e-03
3.901241834853762247e-03
3.797871955773915280e-03
3.906379227997244970e-03
3.786347377657201755e-03
3.869362864146771389e-03
3.873119918848489003e-03
3.883077937621001209e-03
3.934472346955750210e-03
3.928512638143436854e-03
3.804531112855514749e-03
3.895827670094117057e-03
3.855567798875962626e-03
3.810294041848244148e-03
3.504870963986666307e-03
3.733453602087378077e-03
3.526337562516576769e-03
3.652562697714943369e-03
3.639815844946504928e-03
3.636743839990688992e-03
3.850282580892402766e-03
3.754198354644960791e-03
3.855742500959690941e-03
3.783743164727779596e-03
3.840232731537417728e-03
3.866278380470689578e-03
3.756692178895104303e-03
3.781420842889501432e-03
3.640789825061648954e-03
3.471865068849471891e-03
3.628601315033330981e-03
3.763430687838909428e-03
3.604508745805329144e-03
3.484226681125587345e-03
3.489450465409374945e-03
3.586767205258504457e-03
3.490412606738625516e-03
3.739728798545398532e-03
3.487133583013263868e-03
3.557782657718923380e-03
3.465594351932059676e-03
3.563641896834733851e-03
3.644948438582192984e-03
3.654741674253752636e-03
3.629393553786648338e-03
3.448581376668475532e-03
3.763636106772523873e-03
3.775030138277221236e-03
3.756578590543962256e-03
3.737043953885024576e-03
3.689029997873699823e-03
