2.900569396586785090e-03
2.953175197215769914e-03
2.944005166865437673e-03
2.948516356573629548e-03
2.948815164120126807e-03
2.958943894459185441e-03
2.958390203456877192e-03
2.903365072161568153e-03
2.953020741141010753e-03
2.962210362048221107e-03
2.913479986002617730e-03
2.936763672177521763e-03
2.942920468663523265e-03
2.950694826498539546e-03
2.972467771413515002e-03
2.952328060293057596e-03
2.932250626521836108e-03
2.955312423863040456e-03
2.952327235427505431e-03
2.938390925696782174e-03
2.936214311719365522e-03
2.942844787249055023e-03
2.947449805413875773e-03
2.928285910242365946e-03
2.949705812700748227e-03
2.936959577746308964e-03
2.940953989185678737e-03
2.953373783597603493e-03
2.947771915412239572e-03
2.954731718513878540e-03
2.944007641462096335e-03
2.951527734490466074e-03
2.948809183844868734e-03
2.939248167222515556e-03
2.920887278666644063e-03
2.878174296828620114e-03
2.867151618446728799e-03
2.927766244944110183e-03
2.948668750484506780e-03
2.929587548084664015e-03
2.938869966366562930e-03
2.942113337720121072e-03
2.866510079263048880e-03
2.896509408335967706e-03
2.870775046603733782e-03
2.872040596578096568e-03
2.946777746204742778e-03
2.896209157274752966e-03
2.906263443497673123e-03
2.951696625712399609e-03
2.965559934841701002e-03
2.918259257015464771e-03
2.897506670789287177e-03
2.945679437721207029e-03
2.857641124839484410e-03
2.900682609383904795e-03
2.921047508800273147e-03
2.924798997334347641e-03
2.966151982092213313e-03
2.958136557299395099e-03
2.912147003269313552e-03
2.951707761397361855e-03
2.963890200746471804e-03
2.950827217419761932e-03
2.943904945700774427e-03
2.923741313479286466e-03
2.957184868667867093e-03
2.956809761057737143e-03
2.943534787283960934e-03
2.965255765669110553e-03
2.930472216390027796e-03
2.950125050617952160e-03
2.900636210696560732e-03
2.921982287687968551e-03
2.931316878716081452e-03
2.926409134893387734e-03
2.860470207469154643e-03
2.897960553059708046e-03
2.926942822906041138e-03
2.949734682995096106e-03
2.966124555312583348e-03
2.960580840148690617e-03
2.949126963299079657e-03
2.929464436900910528e-03
2.949286987216321026e-03
2.944192617562309006e-03
2.890021015897745790e-03
2.950867223399072058e-03
2.950734832477849671e-03
2.939616882124612002e-03
2.963834316105270258e-03
2.958537441958049383e-03
2.947126458117183510e-03
2.954564477023051503e-03
2.904766106302976436e-03
2.914600359639690254e-03
2.920959866835289194e-03
2.887667880692033201e-03
2.945809354045770753e-03
2.947164401932611706e-03
2.943245053258544859e-03
2.935318507729038628e-03
2.907513114810144923e-03
2.930140208005031083e-03
2.919112374213434728e-03
2.965362585758196320e-03
2.929621161355939769e-03
2.910827218384854850e-03
2.927683139739666821e-03
2.939964150522335253e-03
2.965431668248242475e-03
2.929009523548548044e-03
2.956974734168294535e-03
2.939301164834282575e-03
2.955264994093755645e-03
2.928784129036249382e-03
2.895862713742583180e-03
2.900085200507299295e-03
2.951312857013965209e-03
2.969128715655833337e-03
2.960814689532906014e-03
2.933697028268648140e-03
2.945659022298775884e-03
2.927233381797009811e-03
2.929297607842859356e-03
2.910019056359511910e-03
2.922354508268663973e-03
2.957258281702064822e-03
2.897090938550682220e-03
2.905054396813675464e-03
2.926501519835299561e-03
2.916480434450879726e-03
2.954698105242602787e-03
2.963189683675767662e-03
2.967477953468318670e-03
2.946706807767203277e-03
2.926163118742268910e-03
2.896828837521284259e-03
2.904207053674575430e-03
2.912732657811792358e-03
2.936346908856976058e-03
2.947258436605629597e-03
2.901032971027451158e-03
2.961601611270264344e-03
2.960753030832835413e-03
2.938031284315766913e-03
2.961661620239230183e-03
2.913231082822064378e-03
2.949396488118453171e-03
2.951224390183428657e-03
2.962808802006768223e-03
2.941968161382830377e-03
2.921632544693586638e-03
2.938372366221844376e-03
2.951550418293168165e-03
2.962247893430873438e-03
2.886488322951547870e-03
2.949970594543192999e-03
2.941551191845896956e-03
2.937781143836884230e-03
2.866847243057750634e-03
2.862952021701102492e-03
2.872039359279767671e-03
2.884706613357528298e-03
2.887721084520187935e-03
2.918102120127658797e-03
2.927869146921820674e-03
2.964277062690728881e-03
2.952168448808593828e-03
2.963194220436307820e-03
2.950920839660003524e-03
2.939122993874880574e-03
2.922902631428490449e-03
2.958341742605651199e-03
2.957211058149167727e-03
2.920007971987373038e-03
2.947878735501325339e-03
2.926443573030216520e-03
2.964791160146503304e-03
2.938174398489175679e-03
2.953154988009726485e-03
2.933722805317172909e-03
2.915050117582347264e-03
2.927494451744467024e-03
2.921478501051603775e-03
2.940702405192079007e-03
2.936460327870484346e-03
2.952296096752887473e-03
2.902098697321651901e-03
2.890589554480004278e-03
2.943847205112079535e-03
2.953762501489354351e-03
2.963948559984331144e-03
2.902857367413827668e-03
2.898950804155828696e-03
2.921337242825689223e-03
2.942299757335050791e-03
2.937779081673002300e-03
2.938489290913951640e-03
2.942985014393028394e-03
2.927307001047596124e-03
2.937995608880608796e-03
2.944933140612323273e-03
2.968143413753029144e-03
2.949441443291080187e-03
2.957453156188910842e-03
2.957895284125205016e-03
2.937699069714382050e-03
2.957801043235798975e-03
2.956881111928053377e-03
2.935591538227011119e-03
2.939225689636202048e-03
2.886469969692998655e-03
2.900485260300400547e-03
2.911712505339383080e-03
2.935471107856304444e-03
2.919344161433767761e-03
2.956330101738791939e-03
2.940533513970145906e-03
2.936973394244318022e-03
2.907407944452164786e-03
2.960705188630773435e-03
2.937468932225154646e-03
2.967220182983072718e-03
2.905937621604322198e-03
2.945610355231161308e-03
2.934004909336225715e-03
2.936901837157613205e-03
2.937558842570408245e-03
2.959516351152819639e-03
2.956642519566910106e-03
2.941160411790264169e-03
2.923430545382273930e-03
2.942045080095628384e-03
2.899679572871715835e-03
2.909451961291970902e-03
2.917754026864382948e-03
2.961051013513779206e-03
2.923781938107761474e-03
2.883190922904282395e-03
2.912376315892988791e-03
2.956066763411064648e-03
2.925154514387598610e-03
2.888631117441299752e-03
2.935825181394838366e-03
2.911200676263879170e-03
2.914130598707377964e-03
2.886435943988946169e-03
2.912063073199318026e-03
2.906887248071967841e-03
2.924891176059871319e-03
2.907054489562795746e-03
2.927210904210696737e-03
2.952506025036071447e-03
2.909041590679459569e-03
2.896832549416271819e-03
2.937604210175811560e-03
2.947722835911848263e-03
2.956201422712557113e-03
2.961212274729349472e-03
2.918633952192817987e-03
2.931980689269686729e-03
2.899744531033998131e-03
2.921276202774783070e-03
2.926058773249841372e-03
2.932693373107294731e-03
2.960484124662626348e-03
2.917172702866056150e-03
2.929122117696503734e-03
2.905630565402297222e-03
2.881823502034149866e-03
2.899659569882060989e-03
2.924212724142704386e-03
2.950398699765089099e-03
2.951801796070379746e-03
2.926545237709597680e-03
2.922711262620243840e-03
2.937780525187719781e-03
2.938890381788994508e-03
2.957328189057664009e-03
2.964167561788596302e-03
2.917542655066481059e-03
2.912703993733833062e-03
2.965734600122503159e-03
2.950127112781834090e-03
2.940122524708470124e-03
2.904750227641085016e-03
2.939692151106303511e-03
2.962183553917756024e-03
2.964127349592898027e-03
2.895970358697221546e-03
2.962664450535030559e-03
2.945239165732407502e-03
2.963401467906445850e-03
2.924120957849956574e-03
2.930570169174420963e-03
2.957380568020265710e-03
2.921012039581502746e-03
2.916856573142950857e-03
2.926300046424031888e-03
2.912724409156264641e-03
2.923694089926389371e-03
2.918912550533271817e-03
2.953045074674817607e-03
2.949597136664168680e-03
2.920989768211577388e-03
2.960309253165435608e-03
2.943931341398463644e-03
2.930964454908653160e-03
2.941440866078211779e-03
2.927763976563840104e-03
2.959991886144000984e-03
2.891070657313667396e-03
2.894428891195451308e-03
2.938193989046054225e-03
2.914556229332616270e-03
2.932724717998300406e-03
2.872988367098249299e-03
2.966716190130319793e-03
2.947657671533178252e-03
2.954143176941965206e-03
2.933528137046714605e-03
2.931074986892726487e-03
2.942399772283326321e-03
2.887623956601347366e-03
2.890468093027356421e-03
2.918837693984356607e-03
2.920029418491745365e-03
2.914970930489280045e-03
2.949349058349167926e-03
2.957123828616960940e-03
2.952942791346271998e-03
2.953255002958002015e-03
2.947145017592121309e-03
2.946710519662190837e-03
2.937152183852884037e-03
2.924491941132322664e-03
2.952801945553134178e-03
2.959434277030317025e-03
2.931024257661230415e-03
2.899225896817683550e-03
