5.752415479847613339e-03
5.419249758919768289e-03
3.837104285777637267e-03
7.379773163036106379e-03
6.206215777053274325e-03
5.072419468757580381e-03
4.719233054194372709e-03
5.918303318974612107e-03
4.521275393062793198e-03
6.120159165994393594e-03
6.490781777995017522e-03
3.653253884295528699e-03
3.884408619870919135e-03
4.638279018894974487e-03
6.152801635375897138e-03
3.531791191925147053e-03
3.338062492449716135e-03
3.404722569365797782e-03
4.085374902335315965e-03
3.335801189017923926e-03
7.748957096558269954e-03
4.941806708049003953e-03
5.556430445113978885e-03
4.228877720163878862e-03
3.721523649454684928e-03
3.479282303772383757e-03
3.436170585223199438e-03
3.489859806827756619e-03
3.533122923930017648e-03
3.553821119553328585e-03
3.527601714174895438e-03
3.728532434975703573e-03
2.818184179086433237e-03
3.164389525307596557e-03
4.722802294694368637e-03
4.610736510444747062e-03
4.529227608600219952e-03
4.491560485339747902e-03
6.284781951235753929e-03
5.702525603625102114e-03
4.964872107646414734e-03
5.237895733925092799e-03
6.483312782709897519e-03
5.949646741703809756e-03
6.620340762936928643e-03
6.408188245411005311e-03
4.369814345591931451e-03
4.342799509473498597e-03
4.256033234039746996e-03
6.948045153675547897e-03
5.838810972641877463e-03
7.327848950470007040e-03
4.523710321087406026e-03
3.821033028663294983e-03
6.818453744863894016e-03
3.498414217300824507e-03
6.531981011194973839e-03
7.332252844133081184e-03
7.468601491992419954e-03
4.317007367023783203e-03
5.190243627680529714e-03
6.646570104662540869e-03
6.267768310036284790e-03
6.612005213584629809e-03
7.137651053519957628e-03
6.574026925767748226e-03
4.006327338280274084e-03
3.952380556097511918e-03
3.614458985630185622e-03
3.600843052200457337e-03
6.993004509834473831e-03
4.038272432979470722e-03
5.907655215557701400e-03
5.798945824792177059e-03
3.904535998497051311e-03
3.605098946587119175e-03
3.765270248292073348e-03
6.850944031243857632e-03
7.658856915162983066e-03
5.807298632010630263e-03
5.777423173835790661e-03
7.118122993518440425e-03
7.250405583518810225e-03
5.232561484386637728e-03
4.154441667131396169e-03
3.737085799517488472e-03
3.378837600514800199e-03
7.748998933809551383e-03
6.811139547408516862e-03
3.614161156697621741e-03
3.966042510503650989e-03
5.832407258367525681e-03
4.223673950552859352e-03
3.921048377129596543e-03
4.962206028808468887e-03
4.463726162061829560e-03
4.559805409630956000e-03
5.204243417890771356e-03
5.844572485109051155e-03
4.256373946154874861e-03
4.790882484808653939e-03
3.476721079545463423e-03
5.859816933544932660e-03
3.917053181114986057e-03
5.055970630450418342e-03
5.552593446205777820e-03
3.630726616342732412e-03
5.770528394824516426e-03
4.570475477604790844e-03
3.649245875622712538e-03
3.710144701554441132e-03
3.705401664673163824e-03
3.670148550811663888e-03
3.341215713782276584e-03
3.438676113609350545e-03
3.415843956687836594e-03
3.725138649448270570e-03
3.367056492036607854e-03
4.037763325927931982e-03
3.378975924926851029e-03
3.343547094609966661e-03
3.321446566620246850e-03
3.426317389580645859e-03
5.184176180313356669e-03
3.572238139050487853e-03
3.286609471926182392e-03
3.745161957911839149e-03
3.316267637877175472e-03
3.282205578263109984e-03
3.615619184904799843e-03
3.529311811821047272e-03
3.527604590485921166e-03
3.424736987413468537e-03
3.286703344258746270e-03
3.499024518203900681e-03
3.572634285523564740e-03
3.823758202618677063e-03
3.515536635353626576e-03
3.717068243675972650e-03
3.481377304130329770e-03
3.495019908807751093e-03
3.248917507797761343e-03
4.233477987425156644e-03
4.093437986588641629e-03
4.666534852479558258e-03
4.019390497027439460e-03
4.687191472334407971e-03
5.251963509668667630e-03
4.245863905667193912e-03
3.775165542668729429e-03
5.710258173593298764e-03
4.949219746010534958e-03
5.099723504875499497e-03
3.581105282976888675e-03
4.873623493703436310e-03
4.749537867160494309e-03
4.536258358678161434e-03
7.220325645778329776e-03
4.130376880193985245e-03
7.546289083897976535e-03
6.140597709176935301e-03
5.133424979680078527e-03
5.016756574823794286e-03
6.439753928537636854e-03
5.218071152405114911e-03
4.718537509891810276e-03
4.910715354758780904e-03
5.010677622212519194e-03
5.387257858795700682e-03
5.137505157611355934e-03
5.742445139901469417e-03
4.111585155815031950e-03
4.249063670941806425e-03
3.864912722256324921e-03
5.143865465737503320e-03
3.750648128969012209e-03
4.608786371569364819e-03
6.539628337763682929e-03
4.391249399803446272e-03
7.281562830479801351e-03
6.043490311157553169e-03
3.940326982520345536e-03
6.075751015621108468e-03
4.734110380750254816e-03
3.758817375247465713e-03
5.273760194620951899e-03
3.974612609945949414e-03
3.584360482609448909e-03
5.407177620062346077e-03
6.519973197111396737e-03
3.743819505111327557e-03
3.744329135128506708e-03
5.282887513953762361e-03
5.953418892872523564e-03
4.818884157091701467e-03
3.593852570476874751e-03
3.686113645900877898e-03
5.964567474407895392e-03
4.471958687182846053e-03
3.458942601095995033e-03
3.464077600725220304e-03
3.411644281107585261e-03
3.797931805919474435e-03
3.383995349149409790e-03
3.444160454286780866e-03
3.424101584159622725e-03
3.516819208588240452e-03
3.437587822110377365e-03
3.698879237198299166e-03
3.570349971603567138e-03
3.677716125120117103e-03
3.908564925795507752e-03
5.006447876107908250e-03
