1.191154398003851748e-02
8.976751289103798020e-03
9.704107709937308604e-03
1.167125687009877393e-02
7.809750986307996933e-03
3.918714643085498273e-03
2.310573780108805039e-03
3.173143599675890339e-03
2.530704905822923120e-03
2.761867453824280554e-03
1.927610079821920298e-03
1.823241433657753771e-03
1.851881346695980835e-03
2.275579435205203702e-03
2.530404715018758164e-03
2.819527678856896969e-03
5.566067118928235379e-03
3.866608242812845896e-03
3.152474961508181395e-03
2.882684816247508761e-03
3.782305936469131970e-03
2.634793265779468169e-03
6.296855387088731368e-03
4.830595520363268995e-03
4.189250252347083599e-03
4.620676632207540435e-03
2.339132305463388368e-03
4.552408584190418238e-03
5.277500009378750453e-03
3.549652755348861079e-03
3.878501755292596605e-03
4.097775508940791102e-03
3.904572943286539841e-03
1.668936725451439359e-03
1.703132969754380527e-03
2.598420343263419148e-03
2.323375384515300596e-03
2.484808149905973727e-03
7.011361990159675414e-03
6.679995574798302041e-03
5.922408937383477796e-03
7.073699058172701164e-03
6.836659198857187800e-03
4.444447821836727819e-03
2.520419094978052204e-03
2.154080745814369088e-03
1.706252093753452166e-03
1.722650974800427710e-03
4.330408048257239351e-03
2.985490140655014477e-03
2.347700423347295895e-03
3.162943894641251797e-03
4.634144819436054365e-03
2.976990730489546128e-03
3.200174631547590774e-03
4.470907665508361620e-03
1.866433523508100392e-03
2.554577741709744554e-03
5.337141257812526643e-03
5.385486131662853455e-03
7.233994460172743328e-03
7.384986306306962935e-03
1.985022308325751998e-03
9.923437491338737287e-03
1.096985899198691695e-02
9.327105215152974027e-03
8.914977447452220385e-03
1.168677242938359097e-02
1.152571681923705155e-02
4.728873595773545706e-03
3.909678840903550549e-03
3.881340298201134843e-03
5.003476525036945968e-03
4.218619410826077859e-03
2.791782440572929732e-03
3.735949458092759166e-03
3.362116364843950687e-03
3.713863612651163281e-03
7.201474772664574926e-03
5.285431180173270557e-03
3.990952994626468728e-03
1.983446011720974272e-03
2.244707258525002920e-03
2.058058907908839018e-03
4.422607318977709971e-03
3.400283944760931418e-03
3.458777508902162717e-03
7.215560149827389413e-03
7.383298986285909658e-03
5.715212998034879463e-03
7.354618674288772653e-03
5.055266810828198953e-03
9.423445231720286100e-03
9.117614496985110631e-03
2.975229099974731426e-03
5.614879087310778102e-03
4.219722567798947152e-03
1.993710885879110620e-03
2.350476303637086609e-03
1.957589056162419797e-03
2.974303462514737203e-03
3.304388316741631304e-03
2.437868098247241658e-03
9.446744520343748966e-03
6.046728624149600405e-03
3.772968763951371589e-03
3.542942694691911948e-03
2.794447002563533837e-03
3.449153120428355163e-03
4.751315364889627940e-03
4.299661786580357900e-03
3.354457960742802947e-03
6.415319878759080316e-03
2.941464711696052756e-03
3.451993432634363652e-03
2.441421732216782041e-03
2.392997534863194106e-03
4.497586312300516642e-03
1.899836680219880655e-03
3.341453329451565292e-03
2.668086136282252479e-03
2.879954790250495358e-03
3.579459520068896481e-03
1.793592431295506140e-03
1.992074728043246711e-03
3.218090537734081494e-03
1.938371241920538003e-03
2.117909228327047658e-03
2.003745014158799919e-03
2.097270078450514351e-03
7.779901168682846861e-03
8.593772107464044130e-03
1.007303395153453900e-02
5.863618721033021612e-03
4.367902115603774713e-03
2.462410760668110911e-03
1.788209786065815109e-03
1.755501668377037767e-03
1.797682014957158441e-03
1.661878702958621314e-03
2.801690506407844387e-03
6.517136460763476614e-03
3.943520783388020090e-03
3.425846164849188306e-03
2.720260949390432108e-03
3.280087605749855764e-03
2.507403258136167885e-03
4.085196688574125809e-03
2.134393477976975761e-03
3.235006790849728493e-03
1.976587330076501423e-03
2.083395984893971972e-03
3.613876189348373159e-03
1.744759231343316489e-03
1.696465372236723949e-03
3.361817353571432999e-03
3.130081258306715263e-03
2.667371340104162259e-03
3.559436085712103671e-03
2.826674461106152766e-03
1.675408520715691678e-03
1.686609648118645496e-03
3.316155029569328207e-03
2.194814544270883364e-03
2.629583864260432325e-03
4.783310455697785749e-03
5.308054007397170100e-03
2.303648012601908386e-03
2.072715915596086509e-03
2.650432381004310875e-03
1.962973028365213625e-03
1.863817617197935806e-03
2.641668165984087380e-03
3.160952255455268776e-03
2.487881124729356564e-03
2.108477693277526627e-03
2.030816002665043491e-03
2.386704438643464776e-03
2.100356617887837521e-03
2.137158300157575557e-03
1.770561486121740658e-03
1.653451981430899883e-03
1.741437375342414244e-03
5.453635931632361614e-03
4.356949279612517753e-03
2.238273650597822836e-03
2.173647848865223244e-03
4.959215189748581755e-03
6.157980279798459973e-03
2.792895918447710780e-03
7.204466064921402103e-03
7.660145089859017944e-03
2.864024920474664542e-03
3.609953951739141003e-03
2.829087193090119509e-03
3.390300094017695710e-03
6.248893861023685666e-03
7.821086875201622643e-03
6.605660310871852743e-03
2.338127786824500693e-03
2.342928775510757806e-03
1.874383714250428415e-03
7.093346516817008833e-03
5.339168872713744192e-03
3.495508714155992191e-03
1.796841893541572957e-03
2.680706240256563924e-03
2.099390139144565251e-03
1.791849968169955320e-03
2.591381488159865201e-03
6.120030028587441703e-03
6.602526885051561607e-03
1.103962357078118808e-02
9.339573454427733609e-03
5.984234678427522228e-03
5.850921652618743148e-03
2.394315219154364519e-03
2.839511304020602821e-03
2.129180832745910471e-03
1.905165214435264797e-03
4.079567373788753511e-03
2.114664779090480538e-03
2.104188473884617203e-03
4.474292331569467568e-03
3.982980245341391848e-03
7.744125973828921289e-03
8.772718853632489877e-03
7.923483197010526211e-03
2.057375664202306179e-03
2.959500635227626901e-03
6.673251602606500993e-03
4.575408566658449756e-03
2.528145322148903779e-03
2.103237771377124057e-03
2.092056696012169464e-03
2.155817016398773375e-03
3.660603040661907989e-03
3.111600356461304874e-03
2.046648855962908062e-03
2.401947083793454576e-03
1.915530938549221121e-03
2.363777439696092102e-03
3.360322886974666679e-03
5.090612656162610793e-03
4.340889366472602817e-03
2.803426776992248674e-03
1.683514704518337436e-03
4.656363951953762514e-03
