3.638016135358179953e-03
3.850053830811176782e-03
5.575895159080815344e-03
3.235287747166734184e-03
3.723188650436607457e-03
3.750524082448576917e-03
4.092029519727691071e-03
3.546705912856518931e-03
3.892547337490149216e-03
3.363396527383843461e-03
3.417341073726092460e-03
6.298319150429752128e-03
5.079468559821795001e-03
3.928811078056245430e-03
3.530363995742009150e-03
6.234706826610307562e-03
6.822577006573027521e-03
6.661700870207974690e-03
4.562468804577701417e-03
6.570160385620440330e-03
3.051532834551954482e-03
4.105780180843767758e-03
3.709471444232806999e-03
4.403719477739277341e-03
5.504961977561228202e-03
6.829410114724538197e-03
6.617924771409396285e-03
6.616480442093200694e-03
6.777820794206526438e-03
6.651166033693995533e-03
6.800201438348639146e-03
5.656120500165971732e-03
6.448222998462375261e-03
6.730522469954106947e-03
4.029831992612227000e-03
4.069822379682347911e-03
3.893786784309095309e-03
4.099489734441729219e-03
3.695074295777436412e-03
3.600628771186672496e-03
3.958856357962579897e-03
3.859619397763279676e-03
3.505109920720678694e-03
3.725239782644431882e-03
3.526306953138816022e-03
3.542053372814811443e-03
4.165659397900264328e-03
3.809405881672180225e-03
4.549728712535896884e-03
3.357618748671993905e-03
3.599167137605506321e-03
3.324998594138064284e-03
4.252230559035365814e-03
5.068284928733192939e-03
3.414782580469336547e-03
6.384406715039812538e-03
3.609695283137029451e-03
3.234326091481446591e-03
3.159348787876511619e-03
4.375809313406756745e-03
3.788202158271587738e-03
3.509076058251893188e-03
3.572637392170558215e-03
3.518630550474415204e-03
3.490834132843633614e-03
3.590630136163244345e-03
5.046257291596476305e-03
4.575416086352086624e-03
5.307360653564202439e-03
5.951367714879154079e-03
3.506814967629094497e-03
4.490566584219772908e-03
3.651471008905028941e-03
3.838140190464357695e-03
4.579875510796724107e-03
6.329948578113242345e-03
4.736271919046240383e-03
3.471074738759236285e-03
3.233994541764613224e-03
3.498839316542472037e-03
3.787615428327324382e-03
3.271481809225883480e-03
3.387314943872992562e-03
4.007152330771424943e-03
4.242271147012536409e-03
4.965633260246401365e-03
6.372773173061982259e-03
3.046618192576828251e-03
3.475270446205725068e-03
6.179405164447313199e-03
5.133723660039379681e-03
3.912201752367058978e-03
4.705355888526596524e-03
4.741722993235448179e-03
3.874174361115179620e-03
4.059585176525860872e-03
4.027235891419601865e-03
3.760069345729781173e-03
3.820374247704550093e-03
4.444644295117800188e-03
4.094315989939112735e-03
6.089259172892860263e-03
3.808922977317739933e-03
4.790316137954719888e-03
3.984659093545238166e-03
3.832735722428802852e-03
5.544777014746316880e-03
3.721700483649152940e-03
4.251905238853922152e-03
6.251563026479738452e-03
5.451228773975151133e-03
6.062652596521443324e-03
6.159635387803933174e-03
6.200106141269632644e-03
6.190928420576399284e-03
6.812342572098934942e-03
4.997839496762239431e-03
6.703071906899200384e-03
4.556181588305124527e-03
5.739554744147240366e-03
6.170778411550737960e-03
6.651001297091478290e-03
5.910295234439550544e-03
3.898824863374343325e-03
5.082088656261845444e-03
6.751562148922780372e-03
4.662832618511874097e-03
6.735755279681154492e-03
6.801236464117402063e-03
6.293541327509658001e-03
6.715542052407466947e-03
5.550083656003904770e-03
6.826281042170824140e-03
6.835221117625130821e-03
5.859493604062991808e-03
6.666612051330105676e-03
5.044634843712852285e-03
5.385892483917589790e-03
5.402451511876594885e-03
6.179559749214381774e-03
6.668827920140448645e-03
6.827203013408447534e-03
4.206736031363460422e-03
4.604150395144263226e-03
3.764904618809576404e-03
5.137737326618379771e-03
4.428738214757010558e-03
3.963073061250566367e-03
4.374593400388170940e-03
4.838176043286310755e-03
3.941625463075656630e-03
3.993437201079421198e-03
3.912508153218801667e-03
6.082672938921594892e-03
4.132512732264169084e-03
4.106936105743790727e-03
4.226473968159294610e-03
3.435480557885727503e-03
4.557139090966819128e-03
3.231413437601628798e-03
3.517638439282779004e-03
3.955793733786351976e-03
3.934037427524370543e-03
3.644881775527835082e-03
3.886058007402716855e-03
4.049961236519924665e-03
4.007616085072632402e-03
3.749021149355014852e-03
3.810928887713108202e-03
4.102997655036527344e-03
3.687799352060347740e-03
4.420101771472051237e-03
4.604148087908934220e-03
5.167724925641479540e-03
4.003086520673980811e-03
5.521302279611008459e-03
4.127233316383467285e-03
3.390794946920305548e-03
4.097258176431146058e-03
3.296412409854034692e-03
3.465187597092774310e-03
4.345239829633585661e-03
3.689901704892484865e-03
3.948271223718420250e-03
4.928240820157169140e-03
3.613625889244171437e-03
4.713032983361595957e-03
5.248180067365442944e-03
3.578564910455284305e-03
3.565714071117668822e-03
4.569231772775198853e-03
5.039595841753472492e-03
3.859986017457118362e-03
3.664426827450131992e-03
4.316945279895190342e-03
6.427062881809507237e-03
5.848641291967690385e-03
3.620252038386635902e-03
4.121734713146474327e-03
6.139457691954318570e-03
5.563153221250746391e-03
6.218823357155746009e-03
4.607688771245409959e-03
6.401864180436081173e-03
5.825758593417902816e-03
5.617208053441740886e-03
5.234749189066020131e-03
6.771666936135986407e-03
5.348292854095778627e-03
6.467545632898918928e-03
5.754685131990289193e-03
5.111914748811887885e-03
3.906621472999405147e-03
