2.030422816154128264e-03
2.154413145615015259e-03
1.805994099919726792e-03
1.912703293446248827e-03
1.929443697345740484e-03
1.772010118234349473e-03
1.857784680607437290e-03
2.497002780554603927e-03
3.412618666381839975e-03
1.341391993249534207e-03
1.978586955081803635e-03
2.275235603206554168e-03
2.847170561723918678e-03
2.611960550811733006e-03
2.047518091905133151e-03
1.356813737576153698e-03
1.687857400955147195e-03
1.847071833022674971e-03
1.591169388363132585e-03
1.490845782099454618e-03
1.445880868381645536e-03
1.523305850685577507e-03
1.459929721977075564e-03
1.653720905106087317e-03
1.765965537899047985e-03
1.844379405191779809e-03
2.045588585903382762e-03
4.740073866212596472e-03
1.923240460158921489e-03
2.469377884821695110e-03
1.559236186887911482e-03
1.518348701602491042e-03
2.832881616786811930e-03
2.666860560081672077e-03
1.421074237827572341e-03
2.742212209735823709e-03
3.441968779869634260e-03
2.832420213177697273e-03
2.249095307370753850e-03
2.027132266033441869e-03
2.890637975900165087e-03
2.940222103117435745e-03
2.181090487872987347e-03
2.596356719667138567e-03
2.550234611313842610e-03
1.544617467366732420e-03
1.350415513926905798e-03
2.403553895010825982e-03
2.475760488493304861e-03
2.994028538447324628e-03
1.578901738734572605e-03
2.626185611795352724e-03
1.641876749927429630e-03
1.558766359021194342e-03
1.949350744577012110e-03
2.444740090430409189e-03
2.988078204493953369e-03
3.070210503991442196e-03
1.585397543367718549e-03
2.007143784312010598e-03
1.656345587865427601e-03
2.454920279227167622e-03
2.495340920237105239e-03
3.156368896601553092e-03
2.534061089748865236e-03
1.701483286616775181e-03
1.992443279289938390e-03
2.898163997035973789e-03
2.178380860516153286e-03
2.373689024282433710e-03
1.577896268488617696e-03
2.019792456091725873e-03
2.329710187467557130e-03
3.017433934153482787e-03
2.092698789471328195e-03
2.559345972427258704e-03
1.565650557030897781e-03
1.538795076825701970e-03
2.728987178331790733e-03
2.025250497491439244e-03
2.022369401391317309e-03
1.625021741023467995e-03
3.179849057593935047e-03
2.201886645292076838e-03
1.967968353878971326e-03
2.528094258291022512e-03
1.822361379409565820e-03
1.447952007214341717e-03
2.578150845955511344e-03
3.093731733239637582e-03
2.892012358426971491e-03
1.709306613843812432e-03
1.618528919981556584e-03
2.943341360000201017e-03
1.795091355528170450e-03
1.687731212596473235e-03
2.132180827780032466e-03
2.640851717765547134e-03
2.717633736158490184e-03
1.494300780748760403e-03
3.150779050671430413e-03
1.455620450955246370e-03
1.620790657642513788e-03
1.704088137269675531e-03
2.147808527654501004e-03
1.518295347971007278e-03
3.227487181304982983e-03
2.999448846193192818e-03
2.982397446783868495e-03
3.171062205903589417e-03
1.542748510716500810e-03
1.792529503690117130e-03
2.462867688748478050e-03
2.907804682335425953e-03
2.124583551465334102e-03
1.735980270489083637e-03
1.593221923626956518e-03
3.204262907137283081e-03
1.524219882635470188e-03
2.572002190937742929e-03
1.991834977688877392e-03
2.099143346537391160e-03
2.143875627891608879e-03
1.875792584265401292e-03
1.726655143838998771e-03
2.076367137570934215e-03
1.760008710247107843e-03
1.424077485662933419e-03
2.697783377160669054e-03
2.188737783217201659e-03
1.642219687414006243e-03
2.076576515473434453e-03
3.089761450833632909e-03
2.447032541530542657e-03
2.855644838356130675e-03
1.727468435708392558e-03
3.100906041620533904e-03
2.475131652764336714e-03
2.528484757731980573e-03
1.430121627234818031e-03
1.754744777782989628e-03
1.847405117714081852e-03
4.079284928157625272e-03
1.676224203227290278e-03
1.511766197318184035e-03
1.669769642355324298e-03
1.491744194071708933e-03
2.781673538411254514e-03
2.945543425836472107e-03
2.815617680378385869e-03
2.876763048123157432e-03
3.160747755501288041e-03
2.477061158766087536e-03
2.041215518680749696e-03
1.694684559720665770e-03
2.942466290241720767e-03
2.773393897230737488e-03
2.479591595143497591e-03
2.010884681203707700e-03
1.751740652420794801e-03
1.675744722565403405e-03
1.481548911813412167e-03
1.609894582454892862e-03
1.570402715845652325e-03
1.599826190576736839e-03
1.634673307655657359e-03
3.141893213954252521e-03
2.288232828644581190e-03
1.998923112934712469e-03
2.589395474801443366e-03
2.466107342312815181e-03
2.266110201663800242e-03
2.469276618225095966e-03
1.799716799468151001e-03
1.705560978307213730e-03
1.374194385053450519e-03
2.717739390389256778e-03
2.547727692655573153e-03
2.368431761022251128e-03
1.484055830471681407e-03
1.800390740076366746e-03
1.347023609456936884e-03
2.061041482432595610e-03
1.976767666450354472e-03
2.596012553642994703e-03
3.093797372246791678e-03
3.200204521037183780e-03
3.068478968043354595e-03
1.541263208797925312e-03
2.511864048492593992e-03
1.533426718668383761e-03
1.714659878539592742e-03
1.387518313731631731e-03
2.605075826285929100e-03
2.212624941155014006e-03
2.183869790860409887e-03
2.621174056048581995e-03
2.023808545398444493e-03
1.915417659447984488e-03
3.472238541479055925e-03
1.672242161961715523e-03
2.464076218703731714e-03
3.117523942774052485e-03
1.858678353934790006e-03
2.920391049709954515e-03
1.340513676641769732e-03
2.721636662562704721e-03
2.801005630061141789e-03
2.310628892986716157e-03
1.499748993847937507e-03
2.547330172999945960e-03
1.922441559729599252e-03
1.609815780545234467e-03
1.437423791275372004e-03
2.188909251960489966e-03
1.640871806197574754e-03
1.749784294097935346e-03
3.212651010634434267e-03
2.234504142192150419e-03
1.901525356639671184e-03
1.620582508277580583e-03
1.850805358688969874e-03
1.936304728647036391e-03
2.032408308367863667e-03
1.541302522000071460e-03
2.542189094292533671e-03
1.556924605702804864e-03
1.912878096791504733e-03
2.446980942952726393e-03
1.887483698764276605e-03
2.612713293329607146e-03
3.049572476907769746e-03
3.076041494295442096e-03
1.759901651973406816e-03
1.519514232742897458e-03
2.232842457380018481e-03
1.443982777840538195e-03
1.494276209997419088e-03
1.479390722318821424e-03
1.402253481063631428e-03
2.909765779303187441e-03
1.773931550989231096e-03
2.292831420263452893e-03
2.032650330268574636e-03
1.458698288571464927e-03
1.705744205910072336e-03
1.593574338403335681e-03
2.545260087199450062e-03
1.642677931926519400e-03
1.786638139539964767e-03
1.472213342594007410e-03
2.143809111357621033e-03
2.511591137647339791e-03
1.693052184304776530e-03
2.361924899551001451e-03
2.296658314784844491e-03
2.434194323954766859e-03
2.216170500573549137e-03
1.639463551134990585e-03
3.221191101779167978e-03
1.539914801065393789e-03
1.921391511120496345e-03
3.167211618157690471e-03
1.677329536026910765e-03
1.752369839160496014e-03
1.582569449888346661e-03
2.526172123514673889e-03
1.866068007400655199e-03
1.886495252538893412e-03
1.480411461531681416e-03
2.720143638407993524e-03
1.622086062754295264e-03
2.175729149930337621e-03
2.493092871994752584e-03
2.430094869598854995e-03
2.762482026560111447e-03
2.743372475715228492e-03
1.867951355490957924e-03
1.533718408587877394e-03
2.108238210146335355e-03
1.712490456701531733e-03
3.093840897577739175e-03
2.457640085895271449e-03
2.548985539618875765e-03
2.593694127748586136e-03
1.575618033323188377e-03
1.742417982845844001e-03
2.482965159302644165e-03
2.023393826216878400e-03
1.520635712036256561e-03
2.321759443344278886e-03
2.862274904594820212e-03
2.734094560008792224e-03
2.537457996121786092e-03
1.489394177211289918e-03
3.097075110475707924e-03
2.034443293095015200e-03
2.434736635537940695e-03
1.448434734725513031e-03
1.704293829559474886e-03
1.493664924805123556e-03
1.533473052085198825e-03
1.454789871807230526e-03
2.456695516011569037e-03
2.482338429638077017e-03
1.610537458613198625e-03
1.785080880421033040e-03
2.483181381914446786e-03
2.413817448856778094e-03
1.714262183378598798e-03
1.434296285640371000e-03
2.283416785876339616e-03
1.529716535215862707e-03
1.549356287773615915e-03
1.980256362130071272e-03
1.518954546128418407e-03
1.536804319450964934e-03
4.259065956624569736e-03
2.516597077222375821e-03
3.160642803291988014e-03
3.110608329303705781e-03
1.430987833972278706e-03
2.514910997164269101e-03
1.640640139113500517e-03
2.089208689748677829e-03
2.280470050769063152e-03
1.799110954942223853e-03
1.832269534887903586e-03
1.540252473390968553e-03
3.165014290966319897e-03
1.553406776132212333e-03
1.795604006704367653e-03
2.033212649463554504e-03
1.612183523447692198e-03
3.214313046457299705e-03
2.783213246993513409e-03
1.761195477536887542e-03
2.453727895765652790e-03
2.069580871555861887e-03
1.584160932553789437e-03
3.202969783595268922e-03
1.464202136871893111e-03
1.564939058274203605e-03
4.736927405997989719e-03
1.632359620406150175e-03
2.227319303489250831e-03
1.465493680865606520e-03
1.576226685934983308e-03
2.140501186205628556e-03
2.570018102766941093e-03
1.882053913728605433e-03
1.913762994850521249e-03
1.858473890182557684e-03
1.722889500690593387e-03
2.495494487432987647e-03
2.664953343261494603e-03
3.146268913757386838e-03
1.828501961180464385e-03
2.252540302214156836e-03
1.904443835382905017e-03
3.056851035476499528e-03
2.719957427213899950e-03
1.867024336143927911e-03
2.899353221400887554e-03
3.118632785681007755e-03
2.277441881171627259e-03
1.775365078824623147e-03
2.241504524754624368e-03
1.864765933084938524e-03
1.431546994070657724e-03
2.351586404913459227e-03
1.523009773131916208e-03
1.826503481569591433e-03
2.069062077691829517e-03
2.133626992001828350e-03
1.539988513319417301e-03
1.753454988842943502e-03
2.163066437721284947e-03
1.923342077766254134e-03
1.928970710382422495e-03
2.311761429118178775e-03
2.260857852553885793e-03
2.732309494923853676e-03
3.156239724651645033e-03
1.784575424964871286e-03
1.494385725346254398e-03
2.496716882312212393e-03
2.249076352791147884e-03
2.001103065094776961e-03
1.618485043639876020e-03
2.110424304994235230e-03
1.613883468429769567e-03
2.037661183993878366e-03
2.581133033146865673e-03
2.990566870594083427e-03
2.381567986710722475e-03
1.983699250909073258e-03
1.524016120904705084e-03
1.687844238052642895e-03
2.503436105277196625e-03
1.512177055381682279e-03
2.129492085561838187e-03
2.571867402816099737e-03
1.974505226767930485e-03
1.356095306357473981e-03
2.443880289638834021e-03
3.102640034643755571e-03
3.928077928446826669e-03
2.647544263914789267e-03
3.062520911853847637e-03
2.212981568060194519e-03
2.338173407261666045e-03
3.089307944966021569e-03
3.235481801769941792e-03
2.207148998207894737e-03
1.552444129195737488e-03
1.878820578357470435e-03
1.760079789920630539e-03
2.481283642384072511e-03
2.582709422350770116e-03
2.264745471932163353e-03
2.031671010322261359e-03
2.799169141903754161e-03
2.814699436299692055e-03
2.636703648423052455e-03
3.030115249931408360e-03
1.627420899386569208e-03
2.611646571710665807e-03
1.556365094593692563e-03
1.464118333059282991e-03
1.752295249379638969e-03
1.672457331541317860e-03
3.166293023068262723e-03
2.086543114238891081e-03
3.032086175199706114e-03
1.661138814935995143e-03
2.443873795940265138e-03
4.593342604363964514e-03
3.169943183685364815e-03
2.665849824674715318e-03
1.396038221759192226e-03
1.490189743038644555e-03
1.492605574411584417e-03
4.401544372426773738e-03
2.836754142703551158e-03
4.546143244069723519e-03
1.969982102456749144e-03
1.855165965030565857e-03
2.726202961194099193e-03
1.560591263824378854e-03
1.936069024939527771e-03
1.680741535861369302e-03
1.522048003722275113e-03
1.430858486517004114e-03
3.194668028738544864e-03
2.833171727158004163e-03
1.511316552568640111e-03
