4.029580529471850532e-03
2.806826558065189225e-03
2.916165000005145700e-03
3.907218646903984002e-03
3.832154950983862780e-03
3.702241497913721750e-03
3.416661153451527183e-03
4.240369224067233427e-03
4.276630441198246355e-03
4.188618575819458810e-03
3.556238354808629720e-03
3.048652956315739924e-03
3.418154732134656790e-03
3.426594273181724024e-03
3.627849511209497307e-03
3.848589283631293281e-03
4.088269498340492414e-03
3.307563044331137628e-03
4.540005026559010802e-03
3.357786872313425677e-03
3.345993370232713208e-03
4.748914616533356399e-03
4.281118436903554557e-03
3.849732488394640943e-03
4.732140226319288094e-03
4.579871618070687628e-03
3.933763769808001909e-03
3.832490041417504437e-03
3.957743177476096864e-03
5.140638008070574916e-03
3.920613858332274923e-03
3.456441011179354084e-03
5.085473793193204771e-03
4.639428688952138523e-03
4.961091815844649588e-03
4.727706104902626438e-03
4.493346071719113780e-03
4.258658971932183408e-03
4.347519834966104280e-03
5.124463876774694622e-03
4.840246055101971034e-03
5.107479338626187693e-03
5.090717939375339479e-03
3.771401565224723976e-03
3.712415714637793979e-03
4.541309854188299404e-03
3.720420822591302256e-03
3.677209058050510872e-03
3.775776845219742505e-03
4.604254127685752061e-03
4.670619227468716592e-03
5.043951618045302079e-03
5.171796833353410790e-03
4.348867838443741703e-03
4.355016002831117033e-03
4.213009109264746754e-03
3.921641290688104679e-03
3.680774695367209064e-03
4.545947245970636055e-03
4.715875922455176061e-03
3.965283285363765606e-03
3.722801989732071881e-03
3.645826711782862700e-03
3.575843246656013313e-03
4.383402785815127163e-03
4.391670769730260729e-03
3.865091627792051603e-03
3.791219661703774859e-03
4.697363417779720947e-03
4.255570943557391260e-03
4.576012155732929118e-03
4.948573494433700093e-03
5.011957168157706553e-03
3.993493161995692771e-03
3.764600031804819953e-03
4.428018720645124015e-03
4.227338523783406160e-03
5.127791091707593375e-03
4.740571743536130950e-03
3.161614157601846595e-03
3.057792863115219202e-03
3.987158539077396632e-03
3.971185385624270703e-03
3.595141704606269646e-03
3.047435817688185205e-03
4.010946903168728650e-03
4.105297976511655331e-03
4.633209838441360723e-03
5.052153882970029757e-03
5.152669550447933240e-03
3.970730319824421727e-03
4.260249982839463267e-03
3.933168095935656028e-03
3.763213819611829856e-03
4.955125524942352068e-03
5.094128449307706342e-03
4.717039377837660592e-03
4.631075499601768064e-03
4.252851247198598597e-03
3.323142265928979208e-03
3.149839186748080739e-03
5.124896399432485664e-03
3.996259855074369219e-03
3.676821239589682551e-03
4.121562280375766496e-03
5.021633907407888585e-03
4.747082508632202019e-03
4.695738783202930977e-03
4.497880682057152184e-03
4.078633642415737705e-03
5.218978101332176142e-03
5.036591473206944100e-03
4.910100756858082859e-03
5.017794313602112928e-03
5.146242844525637447e-03
3.984728846868129323e-03
4.154268176543226242e-03
4.914834816690261295e-03
4.964410624860170380e-03
5.219063688854565751e-03
4.996214031171003836e-03
4.777236062614112488e-03
4.728889046729941106e-03
4.884896759862939614e-03
4.867347878988675415e-03
4.255996588646418673e-03
4.081787771868089325e-03
5.030223990793445017e-03
4.773271144221980650e-03
4.719564973922462520e-03
4.602851485745160925e-03
5.067107627897550308e-03
4.627152610796523430e-03
4.538615375581638890e-03
4.736593452093624569e-03
4.714445388152376827e-03
5.055223953248606100e-03
4.574978992069796482e-03
4.610169218909477250e-03
4.805404291746305165e-03
4.820445152544829658e-03
4.166989768319851600e-03
4.281607126372913644e-03
3.693813037394106692e-03
4.096012112419528985e-03
4.704498513284652295e-03
5.354027952007157920e-03
5.013551617849367793e-03
4.525506347431339227e-03
4.642961084686480187e-03
5.155673901736102828e-03
5.100980036144722382e-03
4.975824332310278472e-03
4.841332710966597501e-03
4.873446754133246329e-03
5.308318483743771840e-03
5.261697737619227058e-03
4.963338106220225622e-03
4.696511363427359823e-03
4.603745569684410122e-03
5.284335255204141053e-03
5.291035535528360728e-03
5.287017124934735926e-03
4.548687575035720472e-03
4.532475617111640653e-03
4.049469312074303884e-03
4.618296594752113911e-03
5.157632098397920556e-03
4.661209567138849263e-03
5.027947897619893837e-03
4.876500012577066751e-03
5.181157586527627285e-03
4.691435335592775667e-03
4.538519471706104272e-03
4.816577284289693187e-03
4.355838254385503878e-03
4.276405773951973306e-03
4.389783641278999053e-03
4.352575612181551132e-03
5.027270075009540595e-03
4.930774728561029829e-03
4.568530125092596338e-03
4.435314674841689571e-03
4.395121780900902199e-03
4.931349387639932975e-03
4.487396592651571314e-03
4.161749443009251856e-03
4.523213824510187442e-03
4.759082337775818149e-03
4.778296354465145189e-03
4.827869105937825610e-03
5.107263459384446189e-03
5.355090154293958536e-03
5.181775421454877517e-03
3.409971571567605667e-03
3.204226236355179908e-03
4.539883140757036001e-03
4.526653755153375869e-03
5.296649924162261970e-03
4.446590830916528556e-03
4.431364657848544872e-03
4.818182050334499436e-03
4.142301206894813924e-03
4.431860606973820303e-03
3.931594278950284807e-03
3.827412485234306383e-03
3.045372164971995015e-03
2.767396692169991120e-03
4.478233760622880519e-03
4.373354275764565133e-03
4.349474974930693343e-03
4.116655517150194510e-03
4.976062372606925195e-03
3.853231642546625212e-03
3.829727933384669686e-03
4.619698472518398748e-03
4.470041812051297851e-03
4.760001639467200361e-03
3.468812993210503362e-03
5.174012174669550060e-03
4.089092131982032842e-03
3.491188781095252817e-03
3.272403002376585157e-03
4.284747500687738006e-03
5.121154619938012541e-03
4.496387485461175726e-03
3.938692312001324664e-03
3.155142747482588515e-03
