2.777874375440869854e-03
3.134308581048019307e-03
3.070024082505271468e-03
3.000467623564949393e-03
3.075407013708996665e-03
3.030480355772862018e-03
3.074129155227476370e-03
2.829044411881097114e-03
3.089250833552710344e-03
3.132666890801293503e-03
2.938808516403607161e-03
2.968293925505954313e-03
2.916517785158847641e-03
3.087164201199641463e-03
3.113823878495736597e-03
3.106181293662939845e-03
2.904811847544326153e-03
2.918483493217426897e-03
2.952159532686416451e-03
2.947017602966279029e-03
3.004502598316092891e-03
2.966790101661526818e-03
3.030350113319077443e-03
2.875284506725151075e-03
3.054433107793718891e-03
3.031943306782199088e-03
3.033376609102870526e-03
3.071761707437467657e-03
3.087964927569980794e-03
3.092489741013162638e-03
2.954688354053309259e-03
2.977377013055240718e-03
2.944079206143095269e-03
2.942593806840910781e-03
2.956873250631672587e-03
2.731912766493931662e-03
2.517281461934855503e-03
2.820000079403423964e-03
3.004998578522211951e-03
2.952303328826448147e-03
3.040937024712791776e-03
3.020176165803216493e-03
2.475157028630387522e-03
2.758329112766615392e-03
2.463380357715761783e-03
2.439230230138926276e-03
3.039454802055821525e-03
2.645811703948738360e-03
2.746500133094128410e-03
3.097158562372723505e-03
3.112139621203139587e-03
2.823388500965293580e-03
2.588121497318083934e-03
2.864862357329882835e-03
2.651339490174233621e-03
2.723223371174864592e-03
2.849414966982014626e-03
2.910202826249260605e-03
3.114156579137842586e-03
3.128616456376773908e-03
2.900121848550003129e-03
3.007303764066021189e-03
3.102118999762953043e-03
3.072286277450514847e-03
3.072564551571283289e-03
2.885792637317551902e-03
3.065431924183547804e-03
3.079012717803520944e-03
3.077743965704948272e-03
3.130173647860800580e-03
3.021972029231007311e-03
3.096703666778042631e-03
2.796986767260595339e-03
2.900738329497916292e-03
3.000052965476315663e-03
2.975449001186537216e-03
2.613675702079619034e-03
2.795284932531146797e-03
2.946941151704789586e-03
3.080202053771737263e-03
3.092161064121661061e-03
3.109410247635053907e-03
2.999484345982964244e-03
2.895000037582889929e-03
3.023611178161562160e-03
3.000792276705845692e-03
2.802873302618953764e-03
3.064404808897605755e-03
3.055079449206645013e-03
3.024444729865781792e-03
3.113499013578492538e-03
3.081095538182333175e-03
3.005887403853159737e-03
3.074253256167179798e-03
2.712300582493830468e-03
2.880886626448659477e-03
2.787435653983075159e-03
2.612169760471715237e-03
3.022232514138576027e-03
3.066637143377835308e-03
3.026516749650865184e-03
3.031091542312084209e-03
2.733210743728475747e-03
2.965318467821937212e-03
2.992662818049877937e-03
3.137627963520566322e-03
2.846606812612614574e-03
2.863119014436301020e-03
2.967676809228998736e-03
3.044602873290039660e-03
3.134158431617559137e-03
2.987061968984454363e-03
3.094727158125734102e-03
3.014076159886460490e-03
3.051114360650214723e-03
2.989023229739734555e-03
2.690850179796414575e-03
2.777594830662015717e-03
3.017355940182003208e-03
3.133067148098289938e-03
3.108325105629864988e-03
2.921253104291560154e-03
2.937093763316953911e-03
3.003240834836991974e-03
2.845388675061122797e-03
2.775785837100672865e-03
2.887711119250612694e-03
3.044918420047988770e-03
2.803941290739985371e-03
2.782606094375673043e-03
2.900124389866174952e-03
2.770039497684436813e-03
2.975131760217807324e-03
3.044329681801613997e-03
3.009056213342551061e-03
3.087730279376821492e-03
2.720111105970287550e-03
2.685552170908083597e-03
2.672508442105666401e-03
2.720114706168196873e-03
2.831591234237537408e-03
3.013842782351386883e-03
2.764893332437347220e-03
3.052139781725375992e-03
3.081662039912207857e-03
3.013917751178442871e-03
3.063593705486233106e-03
2.832593995243503065e-03
3.012038447869690855e-03
3.024439647233439013e-03
3.091999478768429638e-03
2.968608625158512815e-03
2.763100010325727791e-03
3.002803940231858586e-03
2.969500838911022598e-03
3.124202613739743457e-03
2.704723224776099232e-03
3.039990807991639534e-03
2.979382958619867985e-03
2.952703162570749062e-03
2.571290995643929229e-03
2.473858416066800590e-03
2.601286573967684975e-03
2.596051886207291839e-03
2.675994069011092096e-03
2.820446503944200062e-03
3.014461804615471002e-03
3.012456494379886583e-03
2.985927906642966197e-03
3.130129386604148592e-03
3.102044454488592142e-03
2.959044805300135687e-03
2.906204488806254493e-03
2.996253062471026119e-03
3.071632312089074123e-03
2.994798794291941586e-03
3.049869115726227837e-03
2.922723043920368979e-03
3.124727819081833495e-03
3.024751170240783278e-03
3.043859538309904352e-03
2.946334836021562414e-03
2.768211867804503193e-03
2.939310426347458739e-03
2.879549894142502137e-03
2.972256260969865452e-03
2.946243136863044201e-03
2.951211833530830754e-03
2.778098223040300751e-03
2.825041203582095550e-03
2.996521806656152285e-03
2.999035380126016323e-03
3.122705990291135044e-03
2.854031903136409337e-03
2.744428113309045018e-03
2.700685073379741064e-03
3.053739116702578350e-03
2.920015059763392349e-03
2.848136473171451483e-03
2.845211630034514844e-03
2.884469458697641684e-03
3.027590032180587330e-03
3.041792177604468652e-03
3.118835353985741684e-03
3.084342916696689810e-03
3.065895290832133455e-03
3.056682172605409802e-03
2.863786957036684819e-03
2.999695063448842673e-03
3.026617555192330587e-03
2.891870194941460054e-03
2.928119740586689057e-03
2.503721845949643653e-03
2.772746634736023268e-03
2.787370638644356968e-03
2.912081706005317100e-03
2.857205583481795246e-03
2.971196532126390861e-03
2.855940008028437244e-03
2.879946974794283902e-03
2.817113991338101447e-03
3.104075813214932870e-03
2.998439017931127382e-03
3.101292860230899819e-03
2.809078349604127341e-03
3.014666592343616478e-03
3.012988264788752854e-03
2.917544900444789691e-03
2.928863287343172125e-03
3.075472029047714856e-03
3.092338532700964100e-03
3.007662936751579440e-03
2.758002765414937878e-03
2.823104508883139078e-03
2.833031101624984213e-03
2.732426324136902687e-03
2.773357397722549939e-03
2.977510432154239529e-03
3.028429937175235870e-03
2.518611417397889282e-03
2.745631638292551305e-03
3.080555720272257648e-03
3.016907609654098134e-03
2.634605982067287668e-03
2.818924467333877755e-03
2.737705484930295571e-03
2.663749795920928535e-03
2.496770075562772771e-03
2.639727581258053974e-03
2.887156053443509264e-03
2.937394273954221577e-03
2.744451196930935283e-03
2.939661763308155495e-03
3.006373007018245478e-03
2.798331970620657888e-03
2.732261562138456595e-03
2.952499857277036607e-03
2.967614970535494348e-03
3.052971639218814842e-03
3.113481647917987899e-03
2.988825642407408160e-03
3.021570077723230528e-03
2.879125282565530176e-03
2.933993357587842774e-03
2.932265474367637056e-03
3.013706186607173834e-03
3.067690307154534099e-03
2.855566858103936352e-03
2.948961921613749235e-03
2.821449264950165719e-03
2.762870444764910834e-03
2.826694117975245280e-03
2.886499758542244044e-03
3.047619627361841839e-03
3.066882803941070341e-03
2.883003966372132791e-03
2.917618810390107745e-03
3.006764369708641183e-03
3.038392955448870631e-03
3.061251882634286482e-03
3.088733252159134475e-03
2.848046256447366725e-03
2.685607656311159511e-03
3.124509054114744944e-03
3.107015480696202325e-03
3.014627837272002356e-03
2.939691200220474233e-03
3.065947599589994698e-03
3.122324369312729810e-03
3.096446358515688151e-03
2.762650620916084782e-03
3.058166089473160834e-03
3.078067559964107070e-03
3.126068998691290766e-03
2.972893284223497058e-03
2.925094303684635209e-03
3.097796009179050198e-03
2.941684015651549033e-03
2.943498727174277511e-03
2.971332916094255715e-03
2.843746984814396559e-03
2.938504617344777064e-03
2.931773941464817929e-03
3.098497412442357147e-03
3.064414338833248465e-03
2.930619760370306408e-03
3.072847061219004337e-03
2.953721383250090381e-03
2.978279603848783819e-03
2.993751136700280660e-03
2.915002948944343981e-03
2.993892179747793640e-03
2.647638274946933611e-03
2.741905009903537836e-03
3.058925095903019999e-03
2.852194107991790593e-03
2.853115970432966875e-03
2.480636106295930430e-03
3.105138718703622132e-03
3.021229117803567524e-03
3.062468961304040324e-03
2.811366593040127461e-03
2.904416672879672930e-03
2.998651429607787026e-03
2.776712358621496405e-03
2.665657689036608682e-03
2.834397059067112964e-03
2.876316281090740383e-03
2.837083018483937697e-03
3.046058200350862562e-03
3.117166344590173443e-03
2.982517883893639771e-03
2.958880255078036921e-03
2.977751645414175065e-03
2.939618984485936528e-03
2.832776758231496210e-03
2.943664548054461538e-03
2.987953547407921732e-03
3.020149693759764230e-03
2.960748969569408726e-03
2.935689474355906124e-03
