2.587055343331564998e-03
4.006015101717982051e-03
2.834702062112396531e-03
2.681676352202078725e-03
2.798740397752137298e-03
3.022952722165633908e-03
3.024163686384453032e-03
2.638263394447851618e-03
2.902394054737914269e-03
3.504894895998292206e-03
2.586641313069718787e-03
2.876977883484446805e-03
2.896337669494737557e-03
2.874277536510319413e-03
3.389623990955149564e-03
3.214263483481720127e-03
2.963049566305850455e-03
3.106901229023946963e-03
2.979652383145267418e-03
3.032407064873241746e-03
2.482788852735696387e-03
2.660156789140192754e-03
2.545334638468503552e-03
2.871163315689254179e-03
2.779782285225949803e-03
2.483101995381792326e-03
2.617476165985876610e-03
2.948786716492205959e-03
2.775226231781651159e-03
2.989146142409726623e-03
3.060883963049190661e-03
2.977776968396670266e-03
3.086652693505604998e-03
2.986360392895754962e-03
2.561233588221290686e-03
3.013996404525543394e-03
2.968049525259450466e-03
2.889133198825813778e-03
2.802939825205877106e-03
2.800995275067882234e-03
2.506705317849918825e-03
2.478467578068515188e-03
3.347867467078123604e-03
3.054311721438968553e-03
3.266095317251669055e-03
3.322477260699407270e-03
2.585758507328177365e-03
3.015731671516447710e-03
3.024816249381212779e-03
2.834044181008760037e-03
3.445592686215581679e-03
3.053360093137845281e-03
3.106169207253852305e-03
2.816668361693315525e-03
2.959462659632386416e-03
2.679582895071534916e-03
2.885080175726093335e-03
2.943060053875388472e-03
3.403774534864748881e-03
3.202817353333859297e-03
2.837159965978906795e-03
2.917562234039871964e-03
3.261296507869937411e-03
3.055607462537999336e-03
2.802573814320829994e-03
2.747912122032814333e-03
3.061317858004370274e-03
3.082573079871500817e-03
3.059975505262713981e-03
3.884107824952280023e-03
2.669238551536611079e-03
2.978127963450536049e-03
2.957470246532500381e-03
2.569132697497263518e-03
2.509149926449236786e-03
2.500450754918128859e-03
2.877599163499578241e-03
2.735354820377527366e-03
2.528977080205049594e-03
2.925878189046037317e-03
3.169036425622886836e-03
3.101918788540058720e-03
2.954460198040256402e-03
2.939773150995736873e-03
2.968667051316786678e-03
3.002160488426598023e-03
2.577822796963699474e-03
2.944998973076690726e-03
2.911246512878999399e-03
2.597511836355624777e-03
3.446759854260121603e-03
2.968535975623765380e-03
2.913166036631692057e-03
2.954778971623045394e-03
3.025330854428992956e-03
2.940526132363522217e-03
3.143827347707796663e-03
3.173554939489231942e-03
2.914507138054083565e-03
2.802055768145070899e-03
2.471003771481896424e-03
2.534851242080243296e-03
2.655272890048432713e-03
2.618981190231998383e-03
2.708136123722655695e-03
3.826859342913446933e-03
3.003891688629890377e-03
2.819212606589119405e-03
2.614211630438088851e-03
2.486411734838032440e-03
4.049658615046807138e-03
2.462691883263342599e-03
3.192907843243564421e-03
2.861511577367574066e-03
2.886966852348076158e-03
2.509496541885674736e-03
2.813171862836756631e-03
2.726123212499111190e-03
2.776137817866290453e-03
3.915766515189610802e-03
3.093114506190680190e-03
2.645039913928104707e-03
2.938132984268981840e-03
2.547486594774692019e-03
2.689513051929703739e-03
2.705740785819401618e-03
2.644134584439790641e-03
2.816414969542129030e-03
3.137903289476906034e-03
3.227374806741638638e-03
2.948097865236757893e-03
3.053127660584349472e-03
3.021089820609687646e-03
2.989854701943600156e-03
2.969912113985579988e-03
2.934727831718776572e-03
3.131328232398337616e-03
3.188062109389390528e-03
3.506320148641262763e-03
3.139114253695725158e-03
2.865379092386240948e-03
2.861776857051779276e-03
2.694699457453806225e-03
3.139209041130057703e-03
3.095286170775294991e-03
2.969306788291078796e-03
2.976885716250089048e-03
2.665839029923098864e-03
2.866905701889686450e-03
2.901302904338729904e-03
3.258126603341573828e-03
2.929341215112254634e-03
2.909962659312987331e-03
2.976899167932188853e-03
2.914701405369993226e-03
3.378432817107556319e-03
2.982420301359711007e-03
2.860132310707596409e-03
2.782294621480492763e-03
2.607654717488864377e-03
3.109559343972876245e-03
3.091042008657827068e-03
3.021169905042655601e-03
2.909331681573550880e-03
2.888918284742029736e-03
2.585065902114933641e-03
2.524887768846640398e-03
2.987684914337883618e-03
2.850829690460884684e-03
3.761871764049668117e-03
2.861831915099444582e-03
2.984262556147782887e-03
2.999997583076839756e-03
2.906278149736844004e-03
2.854832035130368088e-03
2.549266283599507712e-03
2.889472932006293456e-03
2.692344474596852430e-03
3.362126250104156139e-03
2.650602966551007800e-03
2.855612545521986085e-03
2.995366137646817296e-03
3.159810135851346975e-03
2.604870375709065870e-03
3.033892380840938052e-03
2.986457057308985336e-03
2.963636435041191401e-03
2.912997421360717654e-03
2.782190136321855637e-03
2.591347524825831587e-03
2.852623769457249096e-03
2.857340617427115825e-03
3.803632354714305604e-03
2.760431258450515152e-03
2.806103473137914594e-03
2.787081230499389821e-03
2.622201929605506941e-03
3.148882364709061545e-03
3.021156140530739491e-03
2.995762805853860108e-03
3.009610843331117416e-03
2.827613025645680112e-03
2.620406442874968940e-03
3.586295404003006157e-03
3.079391287810118952e-03
3.086755614515161034e-03
2.967839303622910128e-03
2.732367295632055163e-03
3.017605522115963772e-03
3.000549102042940428e-03
2.991792682655453495e-03
3.011274159464277268e-03
3.357305542635284461e-03
2.928486251224362170e-03
2.934549518723497154e-03
2.972906520987010030e-03
3.089033328407494484e-03
3.107316979849782633e-03
3.089654608422625921e-03
2.770074237537339598e-03
2.801740122860444087e-03
3.493405282505967612e-03
2.721381338143941814e-03
3.177986173836834950e-03
2.994171440578444719e-03
2.891584846095998813e-03
2.856145920358743248e-03
2.720197902948955342e-03
2.827947440719283476e-03
2.857558659809062481e-03
3.175169454171051717e-03
2.705096043568048624e-03
3.320146365738306342e-03
3.204505695852320930e-03
3.121932076036558132e-03
3.270608513011137412e-03
3.095286170775294991e-03
3.060566127955850150e-03
2.615835686429305272e-03
3.467207036711801062e-03
3.185478447936735714e-03
2.861626698739965120e-03
2.557280983492595840e-03
3.554786246417857357e-03
3.345206849490663884e-03
3.452465870109064708e-03
3.362393406767258744e-03
3.570227526149427448e-03
3.252217248112049090e-03
2.819500097190280521e-03
2.865888066497328072e-03
2.895040989906257859e-03
2.824775346382206193e-03
2.869652660506438920e-03
2.895010958243894768e-03
2.996027459878432709e-03
2.816579518025492338e-03
3.015187034806304442e-03
3.010698865432138299e-03
3.095827366357458907e-03
2.614712783803768790e-03
2.504212220629076658e-03
2.528456531390760060e-03
2.473769812717442184e-03
2.613934619635772862e-03
2.749922679262044312e-03
2.841523003426560997e-03
2.760489444796343072e-03
2.704911473976443544e-03
2.912292615784638911e-03
2.883989025326908970e-03
3.042920336508956724e-03
2.966096528716415798e-03
2.947814128593392001e-03
2.865254898949177922e-03
2.808421854906364198e-03
2.777062229973397377e-03
2.714676769521433622e-03
2.600646078284932217e-03
3.202969075794754976e-03
3.010424826513077422e-03
2.986602210343739482e-03
3.131087040609985706e-03
3.624550423746411912e-03
2.797537567108541665e-03
2.816587964430531700e-03
2.523890780222156835e-03
2.705400426979289331e-03
3.575828118350284513e-03
3.372450572530838204e-03
2.561972805077159920e-03
2.889933104666041370e-03
2.715685958508752204e-03
3.225877290411107313e-03
2.735135839506131362e-03
2.848831959254121901e-03
3.543530629628110530e-03
2.519073201051447771e-03
2.520802993520566970e-03
2.574307841147979899e-03
2.532643914896572784e-03
2.541139903462007448e-03
2.657102005984220659e-03
3.164833244211351371e-03
2.900121033292824956e-03
2.506102494793947203e-03
3.058620639328405930e-03
3.042212089804899062e-03
2.725487229482613863e-03
2.694396012532014866e-03
2.879700754205345974e-03
3.001065896899435172e-03
2.895519619525165587e-03
2.757799108376336999e-03
2.814273649449694058e-03
2.555060048211917588e-03
2.805973023104525906e-03
2.989397031922383114e-03
3.393962314847317422e-03
2.833136661711732271e-03
2.874958879850176598e-03
3.046678361091925170e-03
3.023263049343383538e-03
2.696964970983304656e-03
2.783765547276640349e-03
3.127966563192595244e-03
2.960241918704739628e-03
2.805180938009705499e-03
2.768504144689431200e-03
2.846269570228974078e-03
3.286966384104407241e-03
3.030527270507216327e-03
3.054780966163388005e-03
3.044832665175874805e-03
2.843108424935466595e-03
3.022038633442464175e-03
2.498816062713158509e-03
2.942202274519149265e-03
2.954303157472483975e-03
2.660631664801305259e-03
2.495684949082014117e-03
