2.689286933379158619e-03
2.620914604463366309e-03
2.750252304935980885e-03
2.674226250254314267e-03
2.739259860272188953e-03
2.722317265860336923e-03
2.738843496697919693e-03
2.716398915206157897e-03
2.752324824826662270e-03
2.628883345814238617e-03
2.755135976301533243e-03
2.713211567433499154e-03
2.754883071227389943e-03
2.727089733377111025e-03
2.752757552846906049e-03
2.741866270212771784e-03
2.750002375215651173e-03
2.742400346222285956e-03
2.755359127837541527e-03
2.728851142834673796e-03
2.754285025110886440e-03
2.754441603105318992e-03
2.755290136820992553e-03
2.738145218349825188e-03
2.692430394683068776e-03
2.735706358020862598e-03
2.730409670354081754e-03
2.683066398353301310e-03
2.711568800209247961e-03
2.724509729701622869e-03
2.725027255305549796e-03
2.739550515147840502e-03
2.751698884768157948e-03
2.665515901965438347e-03
2.689763547868150983e-03
2.750681313763957570e-03
2.755274330253858379e-03
2.752777450525533635e-03
2.678003275960875659e-03
2.706950493211933168e-03
2.725187552492249875e-03
2.750955046314795122e-03
2.749294798886890451e-03
2.629215097764438756e-03
2.694786317024481983e-03
2.754042905694316801e-03
2.730020084964132621e-03
2.747493222152846189e-03
2.752643187684701911e-03
2.737219325435002234e-03
2.680957988257245007e-03
2.755439834309731696e-03
2.751735518811985939e-03
2.754017801146515544e-03
2.749423296979708591e-03
2.671924256200770235e-03
2.669541369715423308e-03
2.748349194253053070e-03
2.739951630033816369e-03
2.752606925560100240e-03
2.633031360949415409e-03
2.708927057942130991e-03
2.688630309984453483e-03
2.727514279174367545e-03
2.750449236166508521e-03
2.618288110884542733e-03
2.751636774257301948e-03
2.625966941198217865e-03
2.755342763391567876e-03
2.749063837047121227e-03
2.628175025647024390e-03
2.748981270978797728e-03
2.745858265232355069e-03
2.750552257792299518e-03
2.742933864352960216e-03
2.753974472556607305e-03
2.737162235833706745e-03
2.754274983291765851e-03
2.641859607633148966e-03
2.632961440134799335e-03
2.747975601389851703e-03
2.751615016982541032e-03
2.717443078435065242e-03
2.637870216048152083e-03
2.669350389192522415e-03
2.682769420850796265e-03
2.693326348100143989e-03
2.748247474344555491e-03
2.729153699125578397e-03
2.754299901879953515e-03
2.754343416429474913e-03
2.735579347604951035e-03
2.679210897689909832e-03
2.720302393449790940e-03
2.687359461986883486e-03
2.619034924691718280e-03
2.715870789904270468e-03
2.729333150152452557e-03
2.729109626697216653e-03
2.752813154771295394e-03
2.755011011441368170e-03
2.745251664973637987e-03
2.669514591531101880e-03
2.747381274465614861e-03
2.735938435618312081e-03
2.753706690713396497e-03
2.738491289190252490e-03
2.754470798764613228e-03
2.662058912753435900e-03
2.748839011874592338e-03
2.751009532481504209e-03
2.729703953621453929e-03
2.741885795972172617e-03
2.755334209249353863e-03
2.738344938974553253e-03
2.745875187557168633e-03
2.753639373333367692e-03
2.693479020942697155e-03
2.648717054334698284e-03
2.747967791086091630e-03
2.649506452893329433e-03
2.716795009182573252e-03
2.692353035483919382e-03
2.752796232446480963e-03
2.706931153412145494e-03
2.704025720413311563e-03
2.718374364178675028e-03
2.608320675609484499e-03
2.751869967612431255e-03
2.728463231081244833e-03
2.734951547950312950e-03
2.703211589226105910e-03
2.754267172988005344e-03
2.748866905816593591e-03
2.685173506732063762e-03
2.730432915305749247e-03
2.750097028658841751e-03
2.685484431205569216e-03
2.711943322870515559e-03
2.684054587738593425e-03
2.714542294426564636e-03
2.752530124239790758e-03
2.750877129236805382e-03
2.755363404908648534e-03
2.706030179085510204e-03
2.685996563980709746e-03
2.731781866340922144e-03
2.725398244734164328e-03
2.678068919704385160e-03
2.750863926104258478e-03
2.754976236993673510e-03
2.739704675667299812e-03
2.708609810841771173e-03
2.678162085470668727e-03
2.755212405702615972e-03
2.747711910658134742e-03
2.754350296935168755e-03
2.742854645557676625e-03
2.749045984924240564e-03
2.702883370508559705e-03
2.734152293532175239e-03
2.746831763808193268e-03
2.702014939114259426e-03
2.732816173710322927e-03
2.709243003325196523e-03
2.747454170634044523e-03
2.712719890215826123e-03
2.673793150314843301e-03
2.754589440997924805e-03
2.722890393388652762e-03
2.631873018517916652e-03
2.749430549404629186e-03
2.689841278986527563e-03
2.745527629039835622e-03
2.728211813684008110e-03
2.754371868250316512e-03
2.752886608818564534e-03
2.636274124686849036e-03
2.718928337866817219e-03
2.677885935444857934e-03
2.755438532592437845e-03
2.667824590565062628e-03
2.724854312865143159e-03
2.719413878417249481e-03
2.754751039901917869e-03
2.748420602744575721e-03
2.750508371323550933e-03
2.716464744909280558e-03
2.708474060324032873e-03
2.754091069234171959e-03
2.737991429749592632e-03
2.712633604955236397e-03
2.755117566299812235e-03
2.708318598087280146e-03
2.742869150407517814e-03
2.755437416834758020e-03
2.750518227183057930e-03
2.634969803958878230e-03
2.755146761959106905e-03
2.689198974482049156e-03
2.754648390195353624e-03
2.749116649577310143e-03
2.729243517618822057e-03
2.728098006400644319e-03
2.753495626552255292e-03
2.755216310854496226e-03
2.755078328821397408e-03
2.752321291594009203e-03
2.713565634537299688e-03
2.748771508534949507e-03
2.666179405865837758e-03
2.753260387641379495e-03
2.654929035218342448e-03
2.749270438177542266e-03
2.735975255621753231e-03
2.755435929157851443e-03
2.749659279729037460e-03
2.750187405030924889e-03
2.754582560492230964e-03
2.753027008326637028e-03
2.698557577983030226e-03
2.692040623333507351e-03
2.748281318994183486e-03
2.748978295624984140e-03
2.734647503982501338e-03
2.742533865224664608e-03
2.754371124411863006e-03
2.754129376914520120e-03
2.755184139841388401e-03
2.755434813400171618e-03
2.734485905078507841e-03
2.755321006116806960e-03
2.752998184586569110e-03
2.738258839673576688e-03
2.723504989910743510e-03
2.673336433504478523e-03
2.753342395830862648e-03
2.754239465005617685e-03
2.740763529705661505e-03
2.752862248109217216e-03
2.733965218161154599e-03
2.753209248747710749e-03
2.755121099532465735e-03
2.754992601439647162e-03
2.721666779132871257e-03
2.715676276148716074e-03
2.755431094207904524e-03
2.753452297962347053e-03
2.753001531859609018e-03
2.737057540571395577e-03
2.732502831761843796e-03
2.731529519145618756e-03
2.754965823255326601e-03
2.752906320537578961e-03
2.744828792812901205e-03
2.745233440931530572e-03
2.743762500390006191e-03
2.748712745297134281e-03
2.648872702531064605e-03
2.732699762992371433e-03
2.755316357126473201e-03
2.723364590402671016e-03
2.748239664040794984e-03
2.617391041709787262e-03
2.747929111486516716e-03
2.751915713677313170e-03
2.750378943432666128e-03
2.754081771253504875e-03
2.755057687304316317e-03
2.619369466036118414e-03
2.750267367664661552e-03
2.560982610477877727e-03
2.751421061105826984e-03
2.716864558077962573e-03
2.723111127449687804e-03
2.755439834309731696e-03
2.754224402276937017e-03
2.755435929157851443e-03
2.641539013259749675e-03
2.723819261657288871e-03
2.745531348232102282e-03
2.670652292445519979e-03
2.741228056819786790e-03
2.726636363839786588e-03
2.714108822567867351e-03
2.737279948268951223e-03
2.753842069311908912e-03
2.718087800414517325e-03
2.753864942344350086e-03
2.716544707543016354e-03
2.751429243328813810e-03
2.752001812978289736e-03
2.751638447893822118e-03
2.747995499068478856e-03
2.725085460664525543e-03
2.654725595401347723e-03
2.754792136976466025e-03
2.670346388881574603e-03
2.695333224247316740e-03
2.720120338988330812e-03
2.751892282766032517e-03
2.722052087451712950e-03
2.736878275504135444e-03
2.660688204443501653e-03
2.739784452341423315e-03
2.744658081887854650e-03
2.697439216868399367e-03
2.716554377442910190e-03
2.722055062805526539e-03
2.675830895757830025e-03
2.596061660019229576e-03
2.709294142218865269e-03
2.651529507526862242e-03
2.750836032162257225e-03
2.739718250719073902e-03
2.737175067047027330e-03
2.663230830236708313e-03
2.735789667927639168e-03
2.747358401433174120e-03
2.747382204263681526e-03
2.755435929157851443e-03
2.743328284692855400e-03
2.740343446939125151e-03
2.553102013983728040e-03
2.727544590591342039e-03
2.684194057448598819e-03
2.704437249037634338e-03
2.753752436778278412e-03
2.751525756368137718e-03
2.746604521160691138e-03
2.755440020269344856e-03
2.744781745030726305e-03
2.755150853070600318e-03
2.725837667300488355e-03
2.738127738146171278e-03
2.725191085724902942e-03
2.751991027320716075e-03
2.749404329099147670e-03
2.690519287736767295e-03
2.733852154716243446e-03
2.733143462629802033e-03
2.752637236977074735e-03
2.751449512926668148e-03
2.749474249913763744e-03
2.722946925111108338e-03
2.745624142079159096e-03
2.666299721735669072e-03
2.706763231881299369e-03
2.754924540221164418e-03
2.731861271095818895e-03
2.731920592212474033e-03
2.735735553680157268e-03
2.750132918864216236e-03
2.654588171247088818e-03
2.734103200194253416e-03
2.729793958074310748e-03
2.753548996961284120e-03
2.754797157886026537e-03
2.754269032584139108e-03
2.752595582023686666e-03
2.755279351163418457e-03
2.751514784750950463e-03
2.755340159956981040e-03
2.752448673929147518e-03
2.744068217994337974e-03
2.742280402271680961e-03
2.724928696710479398e-03
