2.269585067467157474e-03
1.446217545515396819e-03
2.017384707996684821e-03
1.879519825780543623e-03
2.458966872407117397e-03
2.708091901129640235e-03
2.361042258866022630e-03
1.824714593640587926e-03
9.213130610982307430e-04
2.241644702821305596e-03
1.861335418306054711e-03
3.385481159110993558e-03
1.868578497928399546e-03
2.067727991915512074e-03
3.777244589818208511e-03
2.772677907870514311e-03
3.058867542021559850e-03
4.307014813316025273e-03
1.327716575516630498e-03
1.007204661902973012e-03
2.705800801155651761e-03
1.733599769963094315e-03
3.636188863000185036e-03
4.600951546522393139e-03
2.114507041724140914e-03
2.196448102566350095e-03
4.109974800841151819e-03
2.143738363932883896e-03
2.454828001996205329e-03
3.579928427036278751e-03
3.592605170053357697e-03
2.424764844671352653e-03
1.030743542610613973e-03
1.991013707350740725e-03
2.013649233622552461e-03
1.052848314309426034e-03
1.532996425830006251e-03
2.281748766531420478e-03
3.285512943052480272e-03
3.368427975198254841e-03
2.195814130047698664e-03
1.841770597715775915e-03
1.882246133223741246e-03
1.730324094874730566e-03
1.376503580989315743e-03
1.546715162468933211e-03
2.159071925590404489e-03
5.352747293732829439e-03
3.545693008577111612e-03
1.616326021855859964e-03
2.290686425366431425e-03
1.722429783339543335e-03
1.911683891323788824e-03
1.713304076072398293e-03
3.163489928573760650e-03
4.249068822659290458e-03
3.785315443522735499e-03
1.838034220889659103e-03
2.138916111757204874e-03
1.201377810038165234e-03
3.594739243382156016e-03
4.981952786096257961e-03
2.492526128717387993e-03
2.563649046403247873e-03
5.326728249360584456e-03
3.273906733701238258e-03
2.092430358843325872e-03
2.767484973542470774e-03
1.897295873732342351e-03
2.574161935176061313e-03
2.821500560196561237e-03
2.661889066912696052e-03
3.370951005332090741e-03
2.830838682099403886e-03
1.744652663441741396e-03
2.502914479116430738e-03
2.722651384598017039e-03
2.532647339015195540e-03
2.921444635664506746e-03
9.758825840606558154e-04
1.128302211872259184e-03
2.232158804406108709e-03
1.431267864370504381e-03
1.491706540213118357e-03
3.262106497173468487e-03
2.236441164682452173e-03
1.783199433447232602e-03
2.281330705649903777e-03
2.179812979535128512e-03
3.269870517203488178e-03
2.849673983067241376e-03
4.005136502651815422e-03
5.575330758384461002e-03
1.620869980401020609e-03
3.587915296303058809e-04
1.650469051793180750e-03
3.771926665890402378e-03
2.678181258190056972e-03
1.037960563931925343e-03
2.252723203374994241e-03
1.439625472192898863e-03
2.068358580239224465e-03
2.658526305207891977e-03
3.652324253245352401e-03
2.993955750114517343e-03
4.014295939061857110e-03
4.376576263456836285e-03
2.750486387974755090e-03
1.766823201328876145e-03
2.529987136179814855e-03
1.279151347618975344e-03
2.454925466810460675e-03
1.901513708691840963e-03
1.026188416222153241e-03
4.030623551579582894e-03
1.561332515670774438e-03
2.334867541526564495e-03
1.147169098659531466e-03
2.673171747227730006e-03
1.397083547254922720e-03
3.542246544450804949e-03
4.550911486470138843e-03
2.690325554536667375e-03
1.924302426187909964e-03
2.993031864896055546e-03
3.197195382105413614e-03
2.957801944350690448e-03
1.986100758750685303e-03
2.413781327188963682e-03
4.435958506445861205e-03
1.367995714911611352e-03
1.313565000344951543e-03
2.448327414743569491e-03
3.753738648607978044e-03
2.425424537071543731e-03
3.585498811906565313e-03
3.368417145774448354e-03
3.631823477141327920e-03
2.974326968239883462e-03
3.480216281728181534e-03
2.321815378484205859e-03
1.112800455726249216e-03
5.180272475484224565e-03
4.858571806994846712e-03
6.384941189487980742e-03
2.808153972194473227e-03
4.638105043471324636e-03
1.668103640396511418e-03
2.813744662234396194e-03
2.373980261732425157e-03
2.177749748687061223e-03
2.694572267959648507e-03
2.866206452185300971e-03
4.437505760372164980e-03
2.133187572176749053e-03
3.043570304056389224e-03
2.599185123784132200e-03
3.916401106436229532e-03
4.979686277938829599e-03
3.325136451081197372e-03
1.302583738992522293e-03
1.357114061696899085e-03
1.369806710430193728e-03
1.785916377951097742e-03
3.562111543132210397e-03
2.292520433410601827e-03
3.370715916590299576e-03
2.684590472179328776e-03
3.126822853244121212e-03
3.380244173845488266e-04
5.732404895109245594e-04
1.304908229689912729e-03
2.142622707667854714e-03
1.764154989232138895e-03
2.246838765214329101e-03
1.226148650510253341e-03
1.437900660838773662e-03
8.789144004126905885e-04
2.082506996828959681e-03
2.793781521899747766e-03
2.417767006375617835e-03
1.798704122562189926e-03
2.417525374856943458e-03
2.326363059643799577e-03
3.823459381523937849e-03
4.064069324552885450e-03
2.400209577416905458e-03
1.744233361688747076e-03
2.642871921870113862e-03
2.410685014432389396e-03
2.387174335349243753e-03
1.502840767176809355e-03
2.420357946021238493e-03
3.896947851472453307e-03
4.235493688692294062e-03
1.221179637080701316e-03
5.408924929727217806e-03
4.839476825468657512e-03
3.623446917827273170e-03
4.026818814015690508e-03
3.852354540368698680e-03
2.446167170307239191e-03
3.510253493558498396e-03
3.267673949074808345e-03
1.732870814373142993e-03
2.946591685807360261e-03
3.702054095428160361e-03
3.696976223728057603e-03
2.535611893782128718e-03
5.568117910903574823e-03
3.336651964008063419e-03
3.946146375049771823e-03
4.842923289594963307e-03
2.570460302751322382e-03
2.200073929024445787e-03
3.071559175496372390e-03
2.960153508607596233e-03
2.179878858529949066e-03
3.577076453154330246e-03
3.877521670068192431e-03
4.909454757200013356e-03
3.751894262365993490e-03
4.158766318573756289e-03
3.616914519142206373e-03
2.662613961468720484e-03
1.807777262001275488e-03
3.765596867675709454e-03
4.682285031566478170e-03
5.134025421120073235e-03
5.317407274045434472e-03
4.599592002608730509e-03
3.960357737665381322e-03
1.900708947135246402e-03
2.616725857381143380e-03
1.093423345148610264e-03
3.700672892666885191e-03
3.339757075671479988e-03
2.462815830118219099e-03
2.859227790994223022e-03
2.134756710563660669e-03
4.469340656554301842e-03
3.561956998229976780e-03
2.776028035247545163e-03
1.997809622015090172e-03
5.685198421479767568e-03
4.614191870803384388e-03
4.787626446736807824e-03
3.575601169773738337e-03
3.567278757578714720e-03
1.515029960509616056e-03
5.708884176247779399e-03
3.433015561230100786e-03
3.651334940258061951e-03
3.311942828690370242e-03
2.751836456142587803e-03
4.749842587077160103e-03
5.118560101472910233e-03
4.186627267445029721e-03
5.101191510591817670e-03
3.700718466492069342e-03
3.573396253964207687e-03
2.996656563289170835e-03
2.433702954732355501e-03
3.543607442042444149e-03
2.031332554633010802e-03
2.010370174339249239e-03
1.899952917985779947e-03
2.459840220314483700e-03
5.217502680851783536e-03
3.170357588170825362e-03
1.773900455399189408e-03
2.779635812665963955e-03
1.389969067040276122e-03
1.276771356124578507e-03
2.100313051309221114e-03
1.889081868581877783e-03
9.764110825036954443e-04
1.693611220106911678e-03
1.580156084762821857e-03
1.102786510094004493e-03
1.274310256758133487e-03
2.177565874095352752e-03
2.547211109130496053e-03
3.993148781724402407e-03
3.697170476517580226e-03
2.216847804048184024e-03
4.156648263767670666e-03
3.297070419996595263e-03
2.445323377702343474e-03
2.954957641310605124e-03
3.110560442882227914e-03
3.494253245497912046e-03
2.544807653884519506e-03
2.677807868681741053e-03
2.530418057002100946e-03
2.671878533534879398e-03
4.528458481112059876e-03
4.957785573194864112e-03
1.505898725724070337e-03
1.778007514377670734e-03
9.348346119786875080e-04
1.298712896820812535e-03
1.470797178973407525e-03
1.630028514359077628e-03
3.236418201453303278e-03
3.884230949342093019e-03
2.127927405175908827e-03
2.163173344243987054e-03
3.400390793949102739e-03
2.595508985627937183e-03
1.465085109141656952e-03
4.898560808077020816e-03
2.318878799728772266e-03
1.011556962208064571e-03
8.536919955291857355e-04
1.615194008648623619e-03
1.633035033143259316e-03
1.154046685228418863e-03
3.768804182026296544e-03
2.442493965119991745e-03
2.846205634480326874e-03
2.800281657926391703e-03
1.422806587376466243e-03
2.367406124643106017e-03
2.092076597665658289e-03
2.259429775292942991e-03
3.749302194655393296e-03
2.138836470369630694e-03
2.870693217835985477e-03
4.663734679812539703e-03
3.300784235523115517e-03
2.222328846172070323e-03
1.835217893861073148e-03
1.372646049984367709e-03
3.605823384260744072e-03
5.683484213936453554e-03
3.800674273835804272e-03
2.281215643021963866e-03
2.031613217199986984e-03
3.687787006402549594e-03
4.286680313990024263e-03
2.375528192497716566e-03
2.909719302651396847e-03
5.062355391919006950e-03
4.668390880823191855e-03
3.259065233987909135e-03
2.475342766105979603e-03
2.458562348305358587e-03
1.943461030578960431e-03
4.476502966724092529e-03
3.905957480853175685e-03
4.474301435109501353e-03
3.739900449887689597e-03
4.653094319697008430e-03
2.803046770804894748e-03
4.257234208209125653e-03
3.092076421349101902e-03
2.100596872458140602e-03
