4.263940860187966780e-03
4.264360124562356982e-03
4.242313614238115392e-03
4.262710710869699327e-03
4.250677017047045647e-03
4.162448934130118759e-03
4.258105137790026661e-03
4.265469620190466722e-03
3.069354433062152811e-03
4.103829669916724335e-03
3.794729313547635929e-03
4.266050428049769638e-03
4.261465875780076802e-03
4.256851088098768596e-03
3.899083237282041474e-03
4.260345437812525400e-03
4.262333776071569082e-03
4.196544687917273461e-03
4.252642894714603675e-03
4.266029695196090973e-03
4.261892339061995258e-03
3.363923362652910740e-03
4.266758800550457358e-03
4.265566373507633825e-03
4.195306763778877158e-03
4.203681108927248208e-03
4.167716518746002879e-03
4.260404180897949152e-03
4.248860588699753145e-03
4.207554409133243412e-03
4.212297049412235851e-03
4.240701634864599626e-03
4.195380480591956278e-03
4.245126371387186737e-03
4.186255433366637552e-03
4.131967031921673916e-03
4.222183165141343321e-03
4.265325354083618695e-03
4.226826748452760206e-03
4.266764271720177755e-03
4.255930491804176159e-03
4.266655424238365198e-03
4.253996577286039624e-03
3.393758802965403127e-03
4.259233638534008076e-03
4.255196203236390542e-03
4.205465862081419516e-03
4.244839854867599703e-03
4.253835321757427207e-03
4.265355301538932900e-03
4.183514377336538040e-03
4.257093547304288683e-03
4.233458957979521937e-03
4.211375301292439623e-03
4.252891976915047952e-03
4.239662112617655597e-03
4.174199278952498218e-03
4.210251983761877440e-03
4.265986501750927522e-03
4.258748432166666736e-03
4.249014933277139340e-03
4.264816247343287611e-03
4.258505109092244022e-03
4.229339167179792074e-03
4.266475451550182270e-03
4.256918469873224690e-03
4.236181296850050071e-03
4.254671834812101192e-03
4.226943370754702479e-03
4.213354136993546599e-03
4.263553846919298368e-03
4.266579115818575595e-03
4.193198635698579257e-03
4.261991108073268780e-03
4.266268410969696785e-03
4.181037953147143105e-03
4.258273016313563267e-03
4.264870959040495055e-03
4.261034517241040279e-03
1.714070248679771483e-03
4.266006370735702692e-03
4.190387030374712572e-03
4.207828543531882959e-03
4.188261336960047952e-03
4.266277625571331458e-03
4.228470978931997762e-03
4.245742885827825421e-03
4.219746766877799891e-03
4.240720064067869839e-03
4.168966825005346669e-03
4.260978365762327011e-03
4.227542607817276477e-03
4.246249688917748920e-03
4.234901907004296438e-03
4.234177696907048989e-03
4.261776292672654447e-03
4.123867972997147073e-03
4.094277007584282493e-03
4.254462202624905223e-03
4.265909041505933259e-03
4.266008674386112011e-03
4.243987216260064824e-03
4.255264448879749264e-03
4.238273587333788242e-03
4.251633895835575314e-03
4.257400220764952052e-03
4.261908176658554988e-03
3.198701811906180716e-03
2.999027729515241648e-03
4.025037914986598180e-03
4.265045748515258750e-03
4.249214486993796273e-03
4.265974407586282068e-03
4.260270569174241621e-03
4.266168490133217736e-03
4.174295168400761827e-03
4.253554564363862603e-03
4.260991323795875960e-03
4.248487109377236878e-03
4.227566220233965055e-03
4.251385965460334829e-03
4.238744395886073942e-03
4.243986640347462494e-03
4.244423758012520580e-03
4.227240541657430010e-03
4.203538282601906872e-03
4.249851734288113622e-03
4.263579762986396265e-03
4.252743679419985351e-03
4.262204771648680189e-03
4.266730580832950141e-03
4.261704015641080284e-03
4.266537938067519430e-03
4.237766784243865610e-03
4.231858496858050163e-03
4.236249254537107628e-03
4.256949857110043853e-03
4.265694514061619223e-03
4.251729209371237460e-03
4.251204840946947242e-03
4.244998518789501636e-03
4.222225782673904443e-03
4.252478759622980477e-03
3.230285146966303984e-03
3.123050508395769104e-03
2.126500412198430688e-03
4.266083255068094625e-03
4.246414687878274745e-03
4.214412376400062006e-03
4.188293012153168279e-03
4.046348121048945999e-03
4.200455422442410554e-03
3.615473060641959460e-03
4.261068784040870222e-03
4.233562046335312933e-03
4.193727899379986676e-03
4.255307642324913583e-03
4.254424480349463036e-03
4.259753687613780822e-03
4.222195547262289940e-03
4.251318583685879601e-03
4.239908315255089960e-03
4.232055458967997480e-03
4.243076122523408225e-03
4.265975559411485860e-03
4.097406804620856539e-03
4.200801545916323966e-03
4.242819265502833365e-03
4.240626190313713517e-03
4.219512658405010982e-03
4.251739863754377957e-03
4.262226944283864678e-03
4.261601215241590454e-03
4.262474010790201669e-03
4.166081214912098832e-03
4.256545278507008721e-03
4.195650583602381252e-03
4.254987146961796904e-03
4.245324485322337846e-03
4.264980382434909942e-03
4.261852025179841720e-03
4.266670685922323465e-03
4.120055719526984073e-03
4.208818249338738479e-03
4.234691986860800172e-03
4.255487327056794479e-03
4.259518715272089286e-03
4.241626262547407503e-03
4.264404469832725093e-03
4.263090813187141517e-03
4.245420374770602322e-03
4.229628851218691053e-03
4.254627201585431916e-03
4.256435567156292669e-03
4.255159344829850115e-03
4.257993410745202455e-03
4.262761391178691329e-03
4.260941507355787451e-03
4.251463425705329091e-03
4.266172521521433177e-03
4.257696239842474924e-03
4.263580626855299760e-03
4.266717334843100028e-03
4.264288135487083985e-03
4.228088572964147120e-03
4.253063022957897371e-03
4.240956764147367497e-03
4.266413252989146275e-03
4.259150995075594581e-03
4.209230026849300130e-03
4.209831855518583743e-03
4.234283664825850765e-03
4.240867497694028945e-03
4.251619498020520541e-03
4.238670679072994822e-03
4.265495824213865785e-03
4.212149327829775580e-03
4.262497047294288785e-03
4.261522027258790070e-03
4.246245657529533479e-03
4.254124429883723857e-03
4.249399354939098136e-03
4.257478256922548644e-03
4.248299937781526564e-03
4.260536928752752320e-03
4.244809619455985200e-03
4.240551897588031201e-03
4.194918310728702922e-03
4.262835971860674811e-03
4.252683496553057510e-03
4.265402238416010627e-03
4.263534553847124660e-03
2.861169514236124381e-03
3.779228049947225970e-03
3.662045385042849224e-03
2.922334024194875660e-03
4.258259482367411988e-03
4.196212098389511327e-03
4.253200378113518310e-03
4.229803064780851551e-03
