4.100114419775016152e-03
4.109444678488594592e-03
4.408830746486585087e-03
4.050351612763049280e-03
4.146927191532257841e-03
4.182170723848174787e-03
4.049571134847844769e-03
4.340785427808901802e-03
4.281198752618176062e-03
4.122613102498336873e-03
4.082185447478413158e-03
4.079161401386900698e-03
4.099916241997174360e-03
4.063087899118331819e-03
4.161332697503992289e-03
4.084272736573737669e-03
4.087629219770981537e-03
4.094097522242207479e-03
4.050316442324080994e-03
4.067222719421450909e-03
4.111206870395885636e-03
4.228541877223929504e-03
4.101798625056767879e-03
4.126978518549130615e-03
4.135770516631533111e-03
4.101266786853578067e-03
4.080113449878292400e-03
4.122410948931742175e-03
4.201286622002500977e-03
4.245244165775281103e-03
4.067773213248789509e-03
4.179650991268484862e-03
4.078461356736468729e-03
4.036370904528078368e-03
4.153651167803292486e-03
4.192411744016093580e-03
4.194957166307725430e-03
4.243255048079164378e-03
4.352376381173415562e-03
4.214354733803706184e-03
4.258328792391305809e-03
4.295293841237272058e-03
4.128415001608580319e-03
4.155360756967082202e-03
4.216267394023803274e-03
4.109821155100512775e-03
4.204100257120008989e-03
4.121733841524115836e-03
4.218738193818840840e-03
4.078553411537595187e-03
4.058478736633988962e-03
4.041953829427001946e-03
4.130475989332154166e-03
4.160262598669627401e-03
4.097958013121369945e-03
4.065084662562049554e-03
4.032446495198963726e-03
4.040281551511509806e-03
4.085551411402683387e-03
4.036681933540524694e-03
4.184599319116449195e-03
4.090554176973572667e-03
4.069036596582531473e-03
4.079942796791817018e-03
4.055557449390245935e-03
4.183961969596352790e-03
4.055689262078903193e-03
4.035087030590763998e-03
4.099361772381082854e-03
4.101188800228038750e-03
4.068541152137926560e-03
4.057861877717465829e-03
4.108787144194828850e-03
4.027347393208289411e-03
4.074505446927233904e-03
4.091025155025851401e-03
4.039841462279542515e-03
4.057226057346889105e-03
4.056396646647033102e-03
4.032828170919251429e-03
4.064233537939003667e-03
4.048735913379811376e-03
4.050301150828877240e-03
4.189506665757266983e-03
4.061707382931328478e-03
4.060930574974972937e-03
4.145759838788396108e-03
4.066482305223680267e-03
4.075320789451502765e-03
4.069167797611379991e-03
4.044795295065780304e-03
4.118075504211548069e-03
4.108689890285332005e-03
4.039047527848558736e-03
4.064662617294423179e-03
4.137120755658032015e-03
4.159889486186653385e-03
4.180118299361914626e-03
4.033732204115702581e-03
4.142701845577531974e-03
4.203565054787874143e-03
4.094800319361776610e-03
4.108665729722910630e-03
4.289269909616669381e-03
4.124879607917450453e-03
4.070896042399318494e-03
4.211360047382985486e-03
4.057561858581566414e-03
4.232434786072923963e-03
4.082002255365871184e-03
4.098703626427510106e-03
4.183977261091556543e-03
4.096449048374655247e-03
4.153676245855426538e-03
4.146987440023361046e-03
4.151541553124970217e-03
4.121321276983515823e-03
4.147765165469428396e-03
4.127223182472391540e-03
4.096154534177028420e-03
4.061950211875164918e-03
4.109795159558666047e-03
4.095261816687028114e-03
4.031907928737884714e-03
4.045282787932878536e-03
4.038015046092395359e-03
4.112385233016293412e-03
4.060208204741543210e-03
4.101894349816744174e-03
4.145659832409762970e-03
4.140663795096763758e-03
4.106698631779887726e-03
4.082168321003784919e-03
4.119206769026728839e-03
4.079971850632703977e-03
4.071465803510613754e-03
4.076122063800184485e-03
4.063241119900274159e-03
4.049330140883431947e-03
4.056917474973676004e-03
4.112625309490993558e-03
4.216492484833204470e-03
4.169088543871382439e-03
4.124080474378098021e-03
4.109977740011400149e-03
4.161850467531594093e-03
4.285370272509784854e-03
4.359602530146944321e-03
4.117951337270493554e-03
4.140585196811415701e-03
4.124985730894165786e-03
4.130872344887837749e-03
4.103112776154585820e-03
4.162602503265718651e-03
4.117701780068766179e-03
4.121073554761213800e-03
4.094099051391728028e-03
4.098275770391706339e-03
4.097337178416093906e-03
4.182957624191364562e-03
4.258960025313320887e-03
4.132871860800692645e-03
4.163986383581667026e-03
4.375912744761269180e-03
4.223942501296516945e-03
4.128135778906158113e-03
4.101345385138926124e-03
4.153390294895115131e-03
4.190840695798850324e-03
4.117314293580301085e-03
4.103880715043722871e-03
4.205425112264469037e-03
4.115131891384808151e-03
4.116083022386487177e-03
4.117418887407495003e-03
4.128072472116013809e-03
4.123426915873086053e-03
4.231689172766784669e-03
4.202448469808089254e-03
4.150368695442835029e-03
4.120267692963971301e-03
4.165813411428622923e-03
4.157150779395644459e-03
4.107010272452142792e-03
4.165638782553394634e-03
4.221327043956851592e-03
4.096979663258228446e-03
4.173712997850928183e-03
4.356970252162554666e-03
4.193511814181058103e-03
4.096608691584583718e-03
4.165704841812675231e-03
4.230660666799374199e-03
4.181317152585896542e-03
4.149243853055640391e-03
4.077856731016108252e-03
4.324225961822754372e-03
4.145830179666334415e-03
4.091491851459472424e-03
4.124426062169704761e-03
4.188685512464820730e-03
4.147585031655927519e-03
4.131128018687645585e-03
4.358562096813275132e-03
4.087326448165945827e-03
4.304663246178571691e-03
4.296014682321181236e-03
4.061598813315380786e-03
4.033333401920786640e-03
4.040304794584219372e-03
4.133009790087431232e-03
4.128491764914503023e-03
4.072950607694907077e-03
4.083813074227909783e-03
4.085716865380789251e-03
4.059074799117034019e-03
4.168083892636489408e-03
4.033482646913976073e-03
4.034153637723521084e-03
4.125148432403134488e-03
4.048471676342688987e-03
4.030271432921168732e-03
4.074834214074117208e-03
4.229268529076016074e-03
4.221663456851335906e-03
4.104952343027608308e-03
4.181453858553018516e-03
4.231509956442995601e-03
4.119956663951524975e-03
4.135190663133403617e-03
4.204726596763557617e-03
4.127238779797500097e-03
4.273285403850186730e-03
4.393846916166242560e-03
4.108453789599384766e-03
4.109805557775405085e-03
4.101854286099310305e-03
4.141271784946068402e-03
4.294977307286552276e-03
4.124955453733662215e-03
4.087195247137096442e-03
4.122052210454260103e-03
