2.000000000000023803e+01,3.000000001341059264e+00,1.000000000001776357e+01,6.599999999996039035e-01,1.570000000000133955e+00,2.870000000000002274e+03,-2.175000000000272049e+00,-4.944999999999577511e+00,1.341296181483032868e+01,-2.170790317981825979e+00
1.999999999999998934e+01,2.999999999761515657e+00,1.000000000005362111e+01,6.600000000001370326e-01,1.570000000000127516e+00,2.870000000000002274e+03,-2.174999999999736477e+00,-4.944999999999626361e+00,1.337824178190013136e+01,-2.156059766005765432e+00
2.000000000000108358e+01,2.999999999676050244e+00,1.000000000003165468e+01,6.599999999998481526e-01,1.570000000000296936e+00,2.870000000000001819e+03,-2.174999999999847944e+00,-4.944999999999089901e+00,1.338936049216462010e+01,-2.136212481654385709e+00
2.000000000000056133e+01,2.999999998749964369e+00,1.000000000005177547e+01,6.599999999998287237e-01,1.570000000000042917e+00,2.870000000000002274e+03,-2.175000000000127276e+00,-4.944999999999908802e+00,1.340364228075872788e+01,-2.174193910280054709e+00
1.999999999999851497e+01,2.999999999404981743e+00,9.999999999996772360e+00,6.599999999997996358e-01,1.570000000000031815e+00,2.870000000000002274e+03,-2.175000000000113509e+00,-4.944999999999957652e+00,1.343117030507295873e+01,-2.168743381454446784e+00
2.000000000000003197e+01,2.999999998630820119e+00,9.999999999971937115e+00,6.599999999995651567e-01,1.570000000000135065e+00,2.870000000000002274e+03,-2.175000000000206768e+00,-4.944999999999732054e+00,1.343958044898783477e+01,-2.166847964461813270e+00
1.999999999999957012e+01,2.999999998813646762e+00,9.999999999964581221e+00,6.600000000000986189e-01,1.569999999999917240e+00,2.870000000000002274e+03,-2.174999999999954081e+00,-4.945000000000240092e+00,1.343613598050036373e+01,-2.159453180510148673e+00
2.000000000000090239e+01,2.999999998147025337e+00,1.000000000003030287e+01,6.599999999995446176e-01,1.570000000000191243e+00,2.870000000000002274e+03,-2.175000000000208988e+00,-4.944999999999442508e+00,1.337145845227079377e+01,-2.179001459624546388e+00
2.000000000000004619e+01,2.999999998500650911e+00,1.000000000004004086e+01,6.599999999997575584e-01,1.570000000000154161e+00,2.870000000000002274e+03,-2.175000000000098854e+00,-4.944999999999641460e+00,1.343270506693119515e+01,-2.184085554240918992e+00
1.999999999999894129e+01,2.999999997030420751e+00,9.999999999977132958e+00,6.600000000000800782e-01,1.569999999999871498e+00,2.870000000000002274e+03,-2.175000000000025135e+00,-4.945000000000179696e+00,1.340472109001683698e+01,-2.154406736771437458e+00
1.999999999999945643e+01,2.999999998784173005e+00,1.000000000000044764e+01,6.599999999999311973e-01,1.570000000000046469e+00,2.870000000000001819e+03,-2.174999999999999378e+00,-4.944999999999926565e+00,1.342154519231235099e+01,-2.155790399788397149e+00
1.999999999999971223e+01,2.999999996282936010e+00,1.000000000000292921e+01,6.599999999996880584e-01,1.570000000000200568e+00,2.870000000000002274e+03,-2.175000000000051781e+00,-4.944999999999447837e+00,1.343180159391942752e+01,-2.171934708529580149e+00
1.999999999999753086e+01,2.999999995702673061e+00,1.000000000002371081e+01,6.600000000002792522e-01,1.569999999999869722e+00,2.870000000000002274e+03,-2.174999999999836842e+00,-4.945000000000418616e+00,1.342645285883433637e+01,-2.168414616014088914e+00
1.999999999999939604e+01,2.999999999721972177e+00,1.000000000000342482e+01,6.599999999999802691e-01,1.570000000000000728e+00,2.870000000000002274e+03,-2.175000000000062883e+00,-4.944999999999983409e+00,1.339910010892009851e+01,-2.170553304289804863e+00
1.999999999999997868e+01,2.999999998562402848e+00,9.999999999958465224e+00,6.599999999998880096e-01,1.569999999999960538e+00,2.870000000000002274e+03,-2.175000000000138378e+00,-4.945000000000079332e+00,1.342558600772125033e+01,-2.160462797554989933e+00
1.999999999999749534e+01,2.999999996949054282e+00,1.000000000003385736e+01,6.600000000004249134e-01,1.569999999999627693e+00,2.870000000000002274e+03,-2.174999999999899458e+00,-4.945000000001014584e+00,1.341147368472796231e+01,-2.144414941800626195e+00
1.999999999999890932e+01,2.999999997197016821e+00,9.999999999987192467e+00,6.599999999999360822e-01,1.569999999999995843e+00,2.870000000000001819e+03,-2.175000000000033129e+00,-4.945000000000110418e+00,1.342865178172777263e+01,-2.173215512517757908e+00
2.000000000000083134e+01,2.999999998829304459e+00,1.000000000000481037e+01,6.599999999996805089e-01,1.570000000000139062e+00,2.870000000000002274e+03,-2.175000000000160583e+00,-4.944999999999678764e+00,1.342955988166455406e+01,-2.137999532079750242e+00
1.999999999999965539e+01,3.000000000203993711e+00,1.000000000001761613e+01,6.600000000000744160e-01,1.569999999999815987e+00,2.870000000000002274e+03,-2.175000000000067768e+00,-4.945000000000488782e+00,1.342619365460568126e+01,-2.182483777629638855e+00
2.000000000000022737e+01,2.999999999715794896e+00,1.000000000005179857e+01,6.600000000002641531e-01,1.569999999999684315e+00,2.870000000000002274e+03,-2.175000000000072209e+00,-4.945000000001052776e+00,1.341227418936769489e+01,-2.154010897810823000e+00
2.000000000000004619e+01,2.999999999146216290e+00,9.999999999978866683e+00,6.600000000004525580e-01,1.569999999999561302e+00,2.870000000000002274e+03,-2.175000000000074873e+00,-4.945000000001494200e+00,1.339214979500608393e+01,-2.177549454902882875e+00
1.999999999999963762e+01,3.000000000332021521e+00,1.000000000004853362e+01,6.599999999997628874e-01,1.570000000000126628e+00,2.870000000000002274e+03,-2.175000000000086420e+00,-4.944999999999690310e+00,1.339768073031352280e+01,-2.193569912891794704e+00
1.999999999999842615e+01,3.000000002343611527e+00,1.000000000001922018e+01,6.600000000005922240e-01,1.569999999999534879e+00,2.870000000000002274e+03,-2.174999999999822631e+00,-4.945000000001414264e+00,1.339902447014417319e+01,-2.160423625316162610e+00
1.999999999999911182e+01,2.999999999091172320e+00,9.999999999995187849e+00,6.599999999999367484e-01,1.569999999999906803e+00,2.870000000000002274e+03,-2.175000000000061107e+00,-4.945000000000307594e+00,1.344019345925757314e+01,-2.167006611852837050e+00
1.999999999999970512e+01,2.999999999139668638e+00,9.999999999986636467e+00,6.599999999998571454e-01,1.569999999999913021e+00,2.870000000000001819e+03,-2.175000000000101075e+00,-4.945000000000286278e+00,1.342486045940059647e+01,-2.176191253525286751e+00
1.999999999999863931e+01,2.999999999405414730e+00,1.000000000003705836e+01,6.600000000003511946e-01,1.569999999999851958e+00,2.870000000000002274e+03,-2.174999999999720046e+00,-4.945000000000460361e+00,1.341846516230470066e+01,-2.182339088375951253e+00
1.999999999999924682e+01,2.999999998324934136e+00,9.999999999968231634e+00,6.600000000001449152e-01,1.569999999999850848e+00,2.870000000000002274e+03,-2.174999999999882139e+00,-4.945000000000343121e+00,1.339492058799113039e+01,-2.156660943493116100e+00
1.999999999999999289e+01,2.999999999624523461e+00,1.000000000003050005e+01,6.600000000004129230e-01,1.569999999999771578e+00,2.870000000000001364e+03,-2.174999999999780886e+00,-4.945000000000717932e+00,1.340623516765868040e+01,-2.146611446343769991e+00
1.999999999999866418e+01,3.000000000403651779e+00,1.000000000001371170e+01,6.600000000002199663e-01,1.569999999999718066e+00,2.870000000000002274e+03,-2.175000000000060218e+00,-4.945000000000745466e+00,1.339602313948341639e+01,-2.190372898799477053e+00
1.999999999999960920e+01,2.999999998971371706e+00,1.000000000001383782e+01,6.600000000000865175e-01,1.569999999999891704e+00,2.870000000000002274e+03,-2.175000000000000711e+00,-4.945000000000416840e+00,1.340337452524352457e+01,-2.171053183038194057e+00
2.000000000000029843e+01,2.999999997408390850e+00,1.000000000002531486e+01,6.600000000000817435e-01,1.569999999999801110e+00,2.870000000000002274e+03,-2.175000000000094413e+00,-4.945000000000672635e+00,1.342774423740862133e+01,-2.172590015952074349e+00
1.999999999999916156e+01,2.999999996206629493e+00,9.999999999997671196e+00,6.600000000003291012e-01,1.569999999999856177e+00,2.870000000000002274e+03,-2.174999999999807532e+00,-4.945000000000427498e+00,1.342069612415308733e+01,-2.145014687640289353e+00
2.000000000000014921e+01,2.999999999572616538e+00,1.000000000005773337e+01,6.599999999998215072e-01,1.570000000000095097e+00,2.870000000000002274e+03,-2.175000000000014033e+00,-4.944999999999843965e+00,1.341704103525711922e+01,-2.175560841680369784e+00
1.999999999999921130e+01,2.999999999856147070e+00,1.000000000008076029e+01,6.600000000002170797e-01,1.570000000000016716e+00,2.870000000000002274e+03,-2.174999999999718270e+00,-4.945000000000063345e+00,1.342382642552413685e+01,-2.177876920448844178e+00
1.999999999999872102e+01,2.999999998999968831e+00,1.000000000001928058e+01,6.600000000003585221e-01,1.569999999999845075e+00,2.870000000000002274e+03,-2.174999999999823963e+00,-4.945000000000504770e+00,1.339997029053078847e+01,-2.200972729866113031e+00
1.999999999999850431e+01,2.999999999725267763e+00,1.000000000005250378e+01,6.600000000002357314e-01,1.570000000000113971e+00,2.870000000000002274e+03,-2.174999999999748468e+00,-4.944999999999587281e+00,1.341796567376509763e+01,-2.169993459118306323e+00
2.000000000000128608e+01,2.999999997271496355e+00,1.000000000007710277e+01,6.599999999996806199e-01,1.570000000000222329e+00,2.870000000000001819e+03,-2.175000000000201883e+00,-4.944999999999289741e+00,1.339488422925245636e+01,-2.158322487332720918e+00
2.000000000000060751e+01,3.000000000261127564e+00,1.000000000005388223e+01,6.599999999997134825e-01,1.570000000000169260e+00,2.870000000000002274e+03,-2.175000000000063327e+00,-4.944999999999556195e+00,1.341660871204310723e+01,-2.165823710895325327e+00
2.000000000000020606e+01,2.999999999935263784e+00,1.000000000002608758e+01,6.599999999997665512e-01,1.570000000000131957e+00,2.870000000000002274e+03,-2.175000000000021583e+00,-4.944999999999638796e+00,1.341825814767119596e+01,-2.180350496058845788e+00
1.999999999999829114e+01,2.999999999310201559e+00,1.000000000000393996e+01,6.600000000006109868e-01,1.569999999999556417e+00,2.870000000000002274e+03,-2.174999999999673417e+00,-4.945000000001240181e+00,1.341327561626978238e+01,-2.171225879718809981e+00
1.999999999999875655e+01,2.999999999237611181e+00,1.000000000003889156e+01,6.600000000004748735e-01,1.569999999999697859e+00,2.870000000000002274e+03,-2.174999999999793765e+00,-4.945000000000908003e+00,1.342537521098881470e+01,-2.161135831642817084e+00
2.000000000000004619e+01,2.999999999046398358e+00,1.000000000007267253e+01,6.600000000004224709e-01,1.569999999999857510e+00,2.870000000000002274e+03,-2.174999999999691180e+00,-4.945000000000498552e+00,1.341954699189108169e+01,-2.159342410497142151e+00
1.999999999999940314e+01,2.999999999130112283e+00,1.000000000000778400e+01,6.599999999998203970e-01,1.570000000000233653e+00,2.870000000000002274e+03,-2.174999999999799538e+00,-4.944999999999249773e+00,1.339848657535925192e+01,-2.198971327574013035e+00
2.000000000000057199e+01,2.999999997959291953e+00,9.999999999989732657e+00,6.600000000000038058e-01,1.570000000000013829e+00,2.870000000000002274e+03,-2.174999999999938982e+00,-4.945000000000010054e+00,1.339031706576319358e+01,-2.161313644127587086e+00
1.999999999999972644e+01,2.999999997330637491e+00,1.000000000004648903e+01,6.600000000001334799e-01,1.569999999999923013e+00,2.870000000000002274e+03,-2.174999999999979838e+00,-4.945000000000147722e+00,1.337096548607529556e+01,-2.168768965735777154e+00
1.999999999999905498e+01,2.999999999627105840e+00,1.000000000002911271e+01,6.600000000002546052e-01,1.569999999999980300e+00,2.870000000000001819e+03,-2.174999999999654321e+00,-4.945000000000072227e+00,1.341335996190779234e+01,-2.197943881792471910e+00
1.999999999999896261e+01,2.999999997651149997e+00,9.999999999962309261e+00,6.600000000006742695e-01,1.569999999999489138e+00,2.870000000000002274e+03,-2.174999999999895461e+00,-4.945000000001408935e+00,1.339784346073577304e+01,-2.137840875384978023e+00
1.999999999999903721e+01,2.999999999558856434e+00,1.000000000000729372e+01,6.600000000002508305e-01,1.569999999999733387e+00,2.870000000000002274e+03,-2.175000000000035794e+00,-4.945000000000581153e+00,1.340315299501565249e+01,-2.169292503196713628e+00
1.999999999999957012e+01,2.999999997505248039e+00,1.000000000004656719e+01,6.600000000000219025e-01,1.570000000000145279e+00,2.870000000000002274e+03,-2.174999999999762679e+00,-4.944999999999608598e+00,1.342454436499770054e+01,-2.173458474696723819e+00
1.999999999999966960e+01,2.999999999511380189e+00,1.000000000010095036e+01,6.600000000000237899e-01,1.570000000000277618e+00,2.870000000000002274e+03,-2.174999999999717382e+00,-4.944999999999280860e+00,1.344041140489893138e+01,-2.188322969997104295e+00
2.000000000000062172e+01,3.000000001265164862e+00,1.000000000008391510e+01,6.599999999998545919e-01,1.570000000000165707e+00,2.870000000000002274e+03,-2.175000000000009592e+00,-4.944999999999513562e+00,1.340269700156159871e+01,-2.188400825232092561e+00
2.000000000000066791e+01,2.999999999747907431e+00,1.000000000005049650e+01,6.599999999996066791e-01,1.570000000000149054e+00,2.870000000000002274e+03,-2.175000000000383960e+00,-4.944999999999649454e+00,1.342984920787703373e+01,-2.153798046141654599e+00
2.000000000000046185e+01,2.999999998187057315e+00,1.000000000000595790e+01,6.599999999998824585e-01,1.569999999999991180e+00,2.870000000000001819e+03,-2.175000000000191225e+00,-4.945000000000154827e+00,1.342534332424581578e+01,-2.145812636612196123e+00
1.999999999999982592e+01,2.999999999508017545e+00,1.000000000007259793e+01,6.599999999999111022e-01,1.570000000000005613e+00,2.870000000000002274e+03,-2.175000000000046008e+00,-4.944999999999938112e+00,1.341226761751123853e+01,-2.193748174144993346e+00
2.000000000000068567e+01,2.999999999125801509e+00,1.000000000006179057e+01,6.599999999995381783e-01,1.570000000000208562e+00,2.870000000000002274e+03,-2.175000000000341771e+00,-4.944999999999375007e+00,1.340400437662878552e+01,-2.189843910614694078e+00
2.000000000000226308e+01,2.999999999827733799e+00,9.999999999981460164e+00,6.599999999992287592e-01,1.570000000000416840e+00,2.870000000000002274e+03,-2.175000000000339551e+00,-4.944999999999001083e+00,1.343554350899334437e+01,-2.189206066681697482e+00
1.999999999999926814e+01,2.999999998277477431e+00,9.999999999963847586e+00,6.600000000002103073e-01,1.569999999999638574e+00,2.870000000000001819e+03,-2.175000000000121503e+00,-4.945000000001111395e+00,1.340485575602936663e+01,-2.171620979864000489e+00
1.999999999999955236e+01,3.000000000777013121e+00,9.999999999994971134e+00,6.599999999998076294e-01,1.570000000000127960e+00,2.870000000000002274e+03,-2.174999999999945643e+00,-4.944999999999568630e+00,1.342175713289061356e+01,-2.180855529041487273e+00
1.999999999999980105e+01,2.999999999096043535e+00,9.999999999976370901e+00,6.599999999995473932e-01,1.570000000000300044e+00,2.870000000000002274e+03,-2.175000000000050449e+00,-4.944999999999018847e+00,1.339755360456990196e+01,-2.186045478755958005e+00
1.999999999999976197e+01,2.999999999689149544e+00,1.000000000004153300e+01,6.600000000000831868e-01,1.569999999999892593e+00,2.870000000000002274e+03,-2.174999999999963407e+00,-4.945000000000285389e+00,1.340243099359573087e+01,-2.170232082463310785e+00
1.999999999999890221e+01,2.999999998864701034e+00,1.000000000004270007e+01,6.600000000002551603e-01,1.570000000000001172e+00,2.870000000000002274e+03,-2.174999999999665867e+00,-4.945000000000046469e+00,1.342876277926873563e+01,-2.148988840804101574e+00
1.999999999999991118e+01,2.999999998949109070e+00,1.000000000001230305e+01,6.600000000000081357e-01,1.569999999999922791e+00,2.870000000000002274e+03,-2.174999999999997602e+00,-4.945000000000293383e+00,1.343598078437475252e+01,-2.159566150856220279e+00
2.000000000000139977e+01,2.999999998020372427e+00,1.000000000001298872e+01,6.599999999996651878e-01,1.570000000000148388e+00,2.870000000000002274e+03,-2.175000000000137934e+00,-4.944999999999681428e+00,1.343678298495910006e+01,-2.152150283476772064e+00
2.000000000000051870e+01,2.999999998223716435e+00,1.000000000004587974e+01,6.600000000000939560e-01,1.569999999999888596e+00,2.870000000000002274e+03,-2.174999999999951861e+00,-4.945000000000368878e+00,1.342755375125799766e+01,-2.156634148473224322e+00
1.999999999999916866e+01,2.999999999140483542e+00,9.999999999981852739e+00,6.600000000001594591e-01,1.569999999999804663e+00,2.870000000000002274e+03,-2.175000000000068212e+00,-4.945000000000524309e+00,1.338575100445227228e+01,-2.173931895618756549e+00
2.000000000000081357e+01,2.999999997851594546e+00,9.999999999944934714e+00,6.599999999997749889e-01,1.569999999999943885e+00,2.870000000000001819e+03,-2.175000000000289369e+00,-4.945000000000254303e+00,1.342364799096998773e+01,-2.169242423978435141e+00
1.999999999999836220e+01,2.999999997128175000e+00,9.999999999934907180e+00,6.600000000004716538e-01,1.569999999999754259e+00,2.870000000000001819e+03,-2.174999999999696954e+00,-4.945000000000697504e+00,1.340364458442081208e+01,-2.161636177580330109e+00
1.999999999999867129e+01,2.999999997395859541e+00,1.000000000000331468e+01,6.600000000005821210e-01,1.569999999999482920e+00,2.870000000000002274e+03,-2.174999999999866152e+00,-4.945000000001499529e+00,1.340951017649713428e+01,-2.159694299293188013e+00
1.999999999999945643e+01,2.999999998878792429e+00,1.000000000000238209e+01,6.600000000001805534e-01,1.569999999999808438e+00,2.870000000000001819e+03,-2.175000000000059330e+00,-4.945000000000630003e+00,1.338336757123120258e+01,-2.183577468262718035e+00
2.000000000000001421e+01,2.999999999061965461e+00,9.999999999990498267e+00,6.600000000000116884e-01,1.569999999999820872e+00,2.870000000000002274e+03,-2.175000000000160139e+00,-4.945000000000485230e+00,1.340424785240406003e+01,-2.145331298703277323e+00
1.999999999999859668e+01,2.999999998424311531e+00,9.999999999960703434e+00,6.600000000005555867e-01,1.569999999999641904e+00,2.870000000000002274e+03,-2.174999999999653433e+00,-4.945000000001017249e+00,1.338820817909318350e+01,-2.175361598047237610e+00
1.999999999999699085e+01,2.999999997317930767e+00,9.999999999998850697e+00,6.600000000005692424e-01,1.569999999999768692e+00,2.870000000000002274e+03,-2.174999999999623679e+00,-4.945000000000630891e+00,1.339699614300082686e+01,-2.176077317396595934e+00
1.999999999999968381e+01,2.999999998133502821e+00,1.000000000001321965e+01,6.599999999999298650e-01,1.570000000000077778e+00,2.870000000000002274e+03,-2.174999999999913669e+00,-4.944999999999798668e+00,1.341067541033579325e+01,-2.156423389513471456e+00
1.999999999999885247e+01,2.999999995895678673e+00,9.999999999963597119e+00,6.600000000002358425e-01,1.569999999999967866e+00,2.870000000000002274e+03,-2.174999999999816858e+00,-4.944999999999987850e+00,1.341392314181847745e+01,-2.159984013564031802e+00
1.999999999999906208e+01,2.999999998715399574e+00,1.000000000011339552e+01,6.600000000003356515e-01,1.569999999999767581e+00,2.870000000000002274e+03,-2.174999999999893685e+00,-4.945000000000659313e+00,1.338572465514255505e+01,-2.151408772993365748e+00
1.999999999999822720e+01,2.999999998665903611e+00,1.000000000007125145e+01,6.600000000004995204e-01,1.569999999999764251e+00,2.870000000000002274e+03,-2.174999999999693401e+00,-4.945000000000645102e+00,1.339212039728077919e+01,-2.156544917803533856e+00
1.999999999999931077e+01,2.999999998779207644e+00,9.999999999990878408e+00,6.599999999997595568e-01,1.570000000000274065e+00,2.870000000000002274e+03,-2.174999999999907008e+00,-4.944999999999302176e+00,1.341063175091069581e+01,-2.178888327493003096e+00
1.999999999999882760e+01,2.999999998731049722e+00,1.000000000000398792e+01,6.600000000003074518e-01,1.570000000000034257e+00,2.870000000000002274e+03,-2.174999999999613021e+00,-4.944999999999929230e+00,1.342500962747364213e+01,-2.171155093903299971e+00
1.999999999999996092e+01,3.000000000241406894e+00,1.000000000002816058e+01,6.599999999997057110e-01,1.570000000000250973e+00,2.870000000000002274e+03,-2.175000000000025135e+00,-4.944999999999295071e+00,1.340302493317796007e+01,-2.181481243968830253e+00
1.999999999999795364e+01,2.999999999716256305e+00,1.000000000005126566e+01,6.599999999998344968e-01,1.569999999999948326e+00,2.870000000000002274e+03,-2.175000000000150369e+00,-4.945000000000030482e+00,1.338583556819101972e+01,-2.190136690635457128e+00
1.999999999999985434e+01,3.000000000192821759e+00,1.000000000001995915e+01,6.600000000005400436e-01,1.569999999999531770e+00,2.870000000000002274e+03,-2.174999999999859490e+00,-4.945000000001392948e+00,1.343443516559753803e+01,-2.178416817688543450e+00
2.000000000000152411e+01,2.999999999699730413e+00,9.999999999997404743e+00,6.599999999999073275e-01,1.569999999999770690e+00,2.870000000000002274e+03,-2.175000000000339107e+00,-4.945000000000734808e+00,1.343651411737017654e+01,-2.167862415639792761e+00
2.000000000000000355e+01,2.999999998953270630e+00,9.999999999962744468e+00,6.600000000002226308e-01,1.569999999999691198e+00,2.870000000000002274e+03,-2.175000000000063771e+00,-4.945000000000900009e+00,1.342154676343704089e+01,-2.171624002648701701e+00
2.000000000000038014e+01,2.999999997923163964e+00,1.000000000004515144e+01,6.599999999997301359e-01,1.570000000000309370e+00,2.870000000000001819e+03,-2.174999999999930544e+00,-4.944999999999167173e+00,1.340718757359582192e+01,-2.169109310250032507e+00
1.999999999999925748e+01,3.000000000062950090e+00,1.000000000005870149e+01,6.600000000002571587e-01,1.569999999999938112e+00,2.870000000000002274e+03,-2.174999999999804423e+00,-4.945000000000365326e+00,1.340297001005647815e+01,-2.191546738045962339e+00
1.999999999999842260e+01,2.999999999288494035e+00,9.999999999967277731e+00,6.599999999999273115e-01,1.570000000000015383e+00,2.870000000000002274e+03,-2.175000000000018474e+00,-4.944999999999966533e+00,1.340784037489503255e+01,-2.181332710138238706e+00
1.999999999999882050e+01,2.999999999993483879e+00,1.000000000004591527e+01,6.600000000004924150e-01,1.569999999999633911e+00,2.870000000000002274e+03,-2.174999999999750688e+00,-4.945000000001090967e+00,1.340166596099245311e+01,-2.177707874603138194e+00
1.999999999999889155e+01,2.999999999739891621e+00,1.000000000004217249e+01,6.600000000000406652e-01,1.569999999999975637e+00,2.870000000000002274e+03,-2.174999999999900346e+00,-4.945000000000105089e+00,1.342018100027021710e+01,-2.179847746845422485e+00
2.000000000000039080e+01,2.999999998603936291e+00,1.000000000000209432e+01,6.599999999998200639e-01,1.570000000000185914e+00,2.870000000000002274e+03,-2.174999999999924327e+00,-4.944999999999501128e+00,1.338410900723668817e+01,-2.165403597556750714e+00
2.000000000000014921e+01,2.999999999723908406e+00,1.000000000004409095e+01,6.599999999998459321e-01,1.570000000000134843e+00,2.870000000000002274e+03,-2.174999999999986056e+00,-4.944999999999528661e+00,1.337517031368529530e+01,-2.163350205201750143e+00
1.999999999999910827e+01,3.000000000074177997e+00,1.000000000004200906e+01,6.600000000001438050e-01,1.570000000000055573e+00,2.870000000000002274e+03,-2.174999999999682299e+00,-4.944999999999935447e+00,1.338615797943077013e+01,-2.175997903168333192e+00
1.999999999999912603e+01,2.999999998960668268e+00,1.000000000003470824e+01,6.600000000001078337e-01,1.569999999999919682e+00,2.870000000000002274e+03,-2.174999999999853273e+00,-4.945000000000290719e+00,1.339384561933581530e+01,-2.179911896242558988e+00
2.000000000000119726e+01,2.999999999186533373e+00,1.000000000001929656e+01,6.599999999998579225e-01,1.570000000000066231e+00,2.870000000000002274e+03,-2.174999999999975842e+00,-4.944999999999879492e+00,1.342321608919062292e+01,-2.174660132769429932e+00
1.999999999999963407e+01,2.999999998611016849e+00,1.000000000002657252e+01,6.600000000000320055e-01,1.570000000000103313e+00,2.870000000000002274e+03,-2.174999999999831513e+00,-4.944999999999804885e+00,1.342107425812017674e+01,-2.191069615909604362e+00
1.999999999999997868e+01,2.999999996413433401e+00,9.999999999988476773e+00,6.600000000003066747e-01,1.569999999999718510e+00,2.870000000000002274e+03,-2.174999999999922107e+00,-4.945000000000786322e+00,1.339697034917207574e+01,-2.166666256010839842e+00
1.999999999999960210e+01,2.999999998781794464e+00,1.000000000004389378e+01,6.599999999997849809e-01,1.570000000000139062e+00,2.870000000000002274e+03,-2.174999999999954525e+00,-4.944999999999572182e+00,1.337752115358162008e+01,-2.168524964551664880e+00
1.999999999999891287e+01,2.999999998868909667e+00,9.999999999962181363e+00,6.600000000001139400e-01,1.569999999999844853e+00,2.870000000000002274e+03,-2.175000000000069100e+00,-4.945000000000427498e+00,1.339678912782110309e+01,-2.169498796713170918e+00
2.000000000000140332e+01,3.000000000673341827e+00,1.000000000001427303e+01,6.600000000001865486e-01,1.569999999999765583e+00,2.870000000000002274e+03,-2.175000000000137046e+00,-4.945000000000728591e+00,1.340755549583222361e+01,-2.172809817044349501e+00
1.999999999999743139e+01,2.999999998222283804e+00,9.999999999974004794e+00,6.600000000005629142e-01,1.569999999999668550e+00,2.870000000000002274e+03,-2.174999999999676970e+00,-4.945000000000896456e+00,1.341363382710466290e+01,-2.201635035901865489e+00
2.000000000000029843e+01,2.999999997353899328e+00,9.999999999914276572e+00,6.599999999998403810e-01,1.570000000000030704e+00,2.870000000000002274e+03,-2.175000000000076650e+00,-4.944999999999916795e+00,1.340681259725786667e+01,-2.167568191836378499e+00
2.000000000000008527e+01,2.999999999183139643e+00,9.999999999980689225e+00,6.599999999997523403e-01,1.570000000000147500e+00,2.870000000000002274e+03,-2.174999999999994937e+00,-4.944999999999713403e+00,1.343059317392726015e+01,-2.183933687236935040e+00
2.000000000000020250e+01,3.000000000187539761e+00,1.000000000001827516e+01,6.599999999997718803e-01,1.570000000000200790e+00,2.870000000000002274e+03,-2.174999999999921219e+00,-4.944999999999509122e+00,1.343578741412371258e+01,-2.168191349287747816e+00
2.000000000000028777e+01,3.000000000168853820e+00,9.999999999991338484e+00,6.599999999998533706e-01,1.569999999999963647e+00,2.870000000000002274e+03,-2.175000000000101963e+00,-4.945000000000192131e+00,1.342082962190358586e+01,-2.184563328124524695e+00
1.999999999999909051e+01,2.999999999747301693e+00,1.000000000002153122e+01,6.600000000001859934e-01,1.569999999999922347e+00,2.870000000000001819e+03,-2.174999999999730260e+00,-4.945000000000115747e+00,1.338937117753588169e+01,-2.213447018417975087e+00
1.999999999999839773e+01,2.999999999030611431e+00,1.000000000002158629e+01,6.600000000006133183e-01,1.569999999999605045e+00,2.870000000000002274e+03,-2.174999999999768896e+00,-4.945000000001136264e+00,1.338255441682267666e+01,-2.166877781152511950e+00
2.000000000000020250e+01,2.999999999589012312e+00,1.000000000004917844e+01,6.599999999998170663e-01,1.569999999999976525e+00,2.870000000000002274e+03,-2.175000000000041567e+00,-4.945000000000042917e+00,1.340084519133140084e+01,-2.170535196079804052e+00
2.000000000000028066e+01,2.999999997833021403e+00,1.000000000004874501e+01,6.599999999998488187e-01,1.570000000000199902e+00,2.870000000000002274e+03,-2.174999999999799982e+00,-4.944999999999516227e+00,1.342546073922279781e+01,-2.183513759783211494e+00
2.000000000000073541e+01,2.999999997975335564e+00,9.999999999988467891e+00,6.599999999995810329e-01,1.570000000000265405e+00,2.870000000000002274e+03,-2.174999999999980727e+00,-4.944999999999214246e+00,1.340904235282867241e+01,-2.185380345530100854e+00
2.000000000000081357e+01,2.999999998278228386e+00,1.000000000000998668e+01,6.599999999999102140e-01,1.570000000000020268e+00,2.870000000000002274e+03,-2.175000000000137934e+00,-4.945000000000002061e+00,1.343077472988677457e+01,-2.175168553762361956e+00
2.000000000000277822e+01,3.000000000120021326e+00,9.999999999999371170e+00,6.599999999995274091e-01,1.570000000000155049e+00,2.870000000000002274e+03,-2.175000000000384848e+00,-4.944999999999636131e+00,1.343893828417830960e+01,-2.174149506326234604e+00
2.000000000000209255e+01,3.000000001067481659e+00,1.000000000005049650e+01,6.599999999998176214e-01,1.570000000000218554e+00,2.870000000000002274e+03,-2.174999999999978506e+00,-4.944999999999462936e+00,1.343943140694093863e+01,-2.161844286907796953e+00
1.999999999999959854e+01,2.999999997977827793e+00,9.999999999958109953e+00,6.600000000001182698e-01,1.569999999999842855e+00,2.870000000000002274e+03,-2.174999999999915001e+00,-4.945000000000408846e+00,1.341516292600833005e+01,-2.161779469596896153e+00
1.999999999999884182e+01,2.999999998822442393e+00,9.999999999940637707e+00,6.600000000000881828e-01,1.569999999999980300e+00,2.870000000000002274e+03,-2.174999999999847056e+00,-4.945000000000156604e+00,1.342002758555105224e+01,-2.166772692309635318e+00
1.999999999999944578e+01,3.000000001036095654e+00,1.000000000000821210e+01,6.599999999997683275e-01,1.570000000000169038e+00,2.870000000000002274e+03,-2.174999999999893241e+00,-4.944999999999524221e+00,1.342012900111214613e+01,-2.186745755731323904e+00
2.000000000000072120e+01,2.999999999883522950e+00,9.999999999995928590e+00,6.600000000001483569e-01,1.569999999999791340e+00,2.870000000000001819e+03,-2.175000000000047340e+00,-4.945000000000474571e+00,1.340725833007707912e+01,-2.162981579596182424e+00
1.999999999999897682e+01,2.999999998574221838e+00,9.999999999984650501e+00,6.600000000004621059e-01,1.569999999999778906e+00,2.870000000000002274e+03,-2.174999999999664979e+00,-4.945000000000630891e+00,1.341992700877261235e+01,-2.181470775835714804e+00
1.999999999999797495e+01,2.999999998952752822e+00,9.999999999970299314e+00,6.600000000003291012e-01,1.569999999999833307e+00,2.870000000000002274e+03,-2.174999999999734257e+00,-4.945000000000480789e+00,1.340705742391124566e+01,-2.191101138469504050e+00
2.000000000000126832e+01,3.000000001122384852e+00,9.999999999982978949e+00,6.599999999997452349e-01,1.570000000000021823e+00,2.870000000000002274e+03,-2.175000000000154809e+00,-4.944999999999990514e+00,1.340867312196600381e+01,-2.199169265769727044e+00
1.999999999999961631e+01,2.999999998010103752e+00,9.999999999966242115e+00,6.600000000001194911e-01,1.569999999999805329e+00,2.870000000000002274e+03,-2.174999999999993605e+00,-4.945000000000571383e+00,1.340233120664939470e+01,-2.165639710936924978e+00
1.999999999999855405e+01,2.999999997989829748e+00,1.000000000004907896e+01,6.600000000003546363e-01,1.570000000000005391e+00,2.870000000000002274e+03,-2.174999999999564171e+00,-4.945000000000083773e+00,1.339690144660009707e+01,-2.177748121229309497e+00
1.999999999999851497e+01,3.000000000897182773e+00,1.000000000000476064e+01,6.600000000002081979e-01,1.569999999999920570e+00,2.870000000000002274e+03,-2.174999999999793321e+00,-4.945000000000255191e+00,1.340609321350808791e+01,-2.179239212780835544e+00
2.000000000000012434e+01,2.999999999658179650e+00,1.000000000003162448e+01,6.600000000001381428e-01,1.569999999999940554e+00,2.870000000000002274e+03,-2.174999999999884359e+00,-4.945000000000152163e+00,1.338942439464040746e+01,-2.181634036424157763e+00
2.000000000000035527e+01,3.000000000572122794e+00,1.000000000004446044e+01,6.599999999996755129e-01,1.570000000000195906e+00,2.870000000000002274e+03,-2.175000000000177014e+00,-4.944999999999437179e+00,1.340535776247776667e+01,-2.153577386448997988e+00
1.999999999999850786e+01,2.999999999494343150e+00,1.000000000003943335e+01,6.600000000003835021e-01,1.569999999999900364e+00,2.870000000000002274e+03,-2.174999999999696954e+00,-4.945000000000236540e+00,1.340755077462603140e+01,-2.161517902301327787e+00
1.999999999999834799e+01,2.999999998372399279e+00,1.000000000005175060e+01,6.600000000005751266e-01,1.569999999999732498e+00,2.870000000000002274e+03,-2.174999999999711608e+00,-4.945000000000814744e+00,1.339358427631118609e+01,-2.160668940803918581e+00
1.999999999999856115e+01,2.999999998974515414e+00,1.000000000002292744e+01,6.600000000004180301e-01,1.569999999999712514e+00,2.870000000000002274e+03,-2.174999999999891021e+00,-4.945000000000849383e+00,1.339718142970829540e+01,-2.169385923499104862e+00
1.999999999999968026e+01,2.999999999435304598e+00,9.999999999995173638e+00,6.600000000003335421e-01,1.569999999999916351e+00,2.870000000000002274e+03,-2.174999999999778666e+00,-4.945000000000176144e+00,1.342938649516480787e+01,-2.174705351478965820e+00
1.999999999999880274e+01,2.999999999218627256e+00,1.000000000003460876e+01,6.600000000001242650e-01,1.569999999999938556e+00,2.870000000000002274e+03,-2.174999999999881695e+00,-4.945000000000150386e+00,1.340609503138164271e+01,-2.183306367445740914e+00
1.999999999999887379e+01,3.000000001413570594e+00,1.000000000002764544e+01,6.600000000003002354e-01,1.569999999999773355e+00,2.870000000000002274e+03,-2.174999999999832845e+00,-4.945000000000613127e+00,1.339593911111831481e+01,-2.184729620437558140e+00
2.000000000000168399e+01,2.999999997328735013e+00,9.999999999965531572e+00,6.599999999997055999e-01,1.570000000000120410e+00,2.870000000000002274e+03,-2.175000000000174349e+00,-4.944999999999713403e+00,1.339799507077034590e+01,-2.138405223141894851e+00
1.999999999999862155e+01,3.000000000178091319e+00,1.000000000001879918e+01,6.600000000008438006e-01,1.569999999999470264e+00,2.870000000000002274e+03,-2.174999999999611244e+00,-4.945000000001648743e+00,1.344862791019077086e+01,-2.165463536853406090e+00
1.999999999999848299e+01,3.000000000265964140e+00,9.999999999992697397e+00,6.600000000005084022e-01,1.569999999999659002e+00,2.870000000000002274e+03,-2.174999999999776445e+00,-4.945000000001009255e+00,1.343194234428814049e+01,-2.180251760946399386e+00
1.999999999999858602e+01,3.000000001625254153e+00,1.000000000004955325e+01,6.600000000006167600e-01,1.569999999999594165e+00,2.870000000000002274e+03,-2.174999999999708944e+00,-4.945000000001189555e+00,1.339133945007706394e+01,-2.180091470010065091e+00
1.999999999999912603e+01,3.000000000904572861e+00,1.000000000001473488e+01,6.600000000001149392e-01,1.569999999999956986e+00,2.870000000000002274e+03,-2.174999999999852385e+00,-4.945000000000102425e+00,1.340763473234468606e+01,-2.195779660982011272e+00
1.999999999999937117e+01,2.999999998764040665e+00,9.999999999985410781e+00,6.600000000003594103e-01,1.569999999999657003e+00,2.870000000000002274e+03,-2.174999999999909672e+00,-4.945000000001008367e+00,1.339559621839167036e+01,-2.177285846649886558e+00
1.999999999999749178e+01,2.999999999936211470e+00,1.000000000009107914e+01,6.600000000006835954e-01,1.569999999999866391e+00,2.870000000000002274e+03,-2.174999999999461142e+00,-4.945000000000403517e+00,1.339919503622356345e+01,-2.173405021208504984e+00
2.000000000000072120e+01,3.000000001544927297e+00,9.999999999993594457e+00,6.600000000001173817e-01,1.569999999999883045e+00,2.870000000000002274e+03,-2.175000000000006484e+00,-4.945000000000479901e+00,1.341853917771826055e+01,-2.156343849717179850e+00
1.999999999999959144e+01,3.000000000460828709e+00,1.000000000003373479e+01,6.600000000003800604e-01,1.569999999999903029e+00,2.870000000000002274e+03,-2.174999999999730704e+00,-4.945000000000284501e+00,1.339587655712363556e+01,-2.172507745721147465e+00
2.000000000000025580e+01,2.999999999076723878e+00,1.000000000005081802e+01,6.600000000004161427e-01,1.569999999999798890e+00,2.870000000000001819e+03,-2.174999999999831513e+00,-4.945000000000698392e+00,1.339112230753889854e+01,-2.157660018192639750e+00
2.000000000000101608e+01,2.999999999788731220e+00,1.000000000008162537e+01,6.600000000002954614e-01,1.569999999999843743e+00,2.870000000000002274e+03,-2.174999999999919442e+00,-4.945000000000574936e+00,1.339095682437102042e+01,-2.165456970872678077e+00
1.999999999999866063e+01,3.000000000339596795e+00,1.000000000006236256e+01,6.600000000001045031e-01,1.570000000000078888e+00,2.870000000000002274e+03,-2.174999999999711164e+00,-4.944999999999791562e+00,1.342061819673853407e+01,-2.168509242972231910e+00
1.999999999999906919e+01,3.000000000262301292e+00,1.000000000005478462e+01,6.600000000001530198e-01,1.569999999999807105e+00,2.870000000000001364e+03,-2.174999999999907452e+00,-4.945000000000609575e+00,1.338827263692993697e+01,-2.180320300945667977e+00
1.999999999999780087e+01,3.000000001534176342e+00,1.000000000009287682e+01,6.600000000003546363e-01,1.569999999999872164e+00,2.870000000000002274e+03,-2.174999999999729372e+00,-4.945000000000368878e+00,1.340992223806712502e+01,-2.213286322282040697e+00
1.999999999999891642e+01,2.999999997883918468e+00,9.999999999986387778e+00,6.600000000001688960e-01,1.569999999999814655e+00,2.870000000000002274e+03,-2.174999999999907008e+00,-4.945000000000566942e+00,1.340967489167278615e+01,-2.178005505377158979e+00
1.999999999999915445e+01,2.999999997260168527e+00,1.000000000002944134e+01,6.599999999998926725e-01,1.570000000000016716e+00,2.870000000000002274e+03,-2.175000000000048672e+00,-4.945000000000129070e+00,1.341496545353756709e+01,-2.183270621022629143e+00
1.999999999999829825e+01,2.999999998064793338e+00,9.999999999995862865e+00,6.600000000004430101e-01,1.569999999999713403e+00,2.870000000000002274e+03,-2.174999999999713385e+00,-4.945000000000780105e+00,1.340989514489590917e+01,-2.177706311333718947e+00
2.000000000000109424e+01,2.999999999376446347e+00,1.000000000000354738e+01,6.599999999996475353e-01,1.570000000000131068e+00,2.870000000000001819e+03,-2.175000000000226752e+00,-4.944999999999765805e+00,1.342478059568975901e+01,-2.165497943905055678e+00
1.999999999999910827e+01,2.999999999233455394e+00,1.000000000004831691e+01,6.600000000005151746e-01,1.569999999999657447e+00,2.870000000000002274e+03,-2.174999999999828848e+00,-4.945000000001032348e+00,1.340008133262976742e+01,-2.187571942907726719e+00
1.999999999999848299e+01,2.999999999143542428e+00,1.000000000004114220e+01,6.599999999999274225e-01,1.570000000000043805e+00,2.870000000000002274e+03,-2.174999999999922551e+00,-4.944999999999911466e+00,1.340860945922773872e+01,-2.159512975431969739e+00
2.000000000000063949e+01,2.999999999501405501e+00,1.000000000005296030e+01,6.600000000002157474e-01,1.569999999999888374e+00,2.870000000000002274e+03,-2.174999999999919886e+00,-4.945000000000479901e+00,1.343481487038497235e+01,-2.155566369621003453e+00
2.000000000000024514e+01,2.999999998603438911e+00,1.000000000005531398e+01,6.600000000003372058e-01,1.569999999999835527e+00,2.870000000000002274e+03,-2.174999999999859490e+00,-4.945000000000625562e+00,1.343085390681143032e+01,-2.155302079620316835e+00
1.999999999999850431e+01,3.000000001966140584e+00,1.000000000002414069e+01,6.600000000001193801e-01,1.569999999999940332e+00,2.870000000000002274e+03,-2.174999999999917222e+00,-4.945000000000132623e+00,1.338295479129478061e+01,-2.174021020767014978e+00
1.999999999999793587e+01,2.999999998826762937e+00,9.999999999991452171e+00,6.600000000005511458e-01,1.569999999999682982e+00,2.870000000000002274e+03,-2.174999999999675637e+00,-4.945000000000822737e+00,1.341283961304067951e+01,-2.166600812084769068e+00
1.999999999999854339e+01,2.999999999309443499e+00,9.999999999992567723e+00,6.600000000005075140e-01,1.569999999999650564e+00,2.870000000000002274e+03,-2.174999999999872369e+00,-4.945000000001064322e+00,1.342961882667442808e+01,-2.150839907366828729e+00
1.999999999999780442e+01,2.999999998317972594e+00,1.000000000001862333e+01,6.600000000006638334e-01,1.569999999999540874e+00,2.870000000000002274e+03,-2.174999999999787548e+00,-4.945000000001305906e+00,1.341182351846608078e+01,-2.152477357520320655e+00
1.999999999999934275e+01,2.999999999435022158e+00,9.999999999995159428e+00,6.600000000002721467e-01,1.569999999999874385e+00,2.870000000000002274e+03,-2.174999999999842615e+00,-4.945000000000320028e+00,1.341589093345069195e+01,-2.175831915779771197e+00
1.999999999999971934e+01,2.999999997982008448e+00,1.000000000003380407e+01,6.600000000001339240e-01,1.569999999999883489e+00,2.870000000000002274e+03,-2.174999999999929212e+00,-4.945000000000313811e+00,1.341409051327704738e+01,-2.184075461844791288e+00
1.999999999999906919e+01,3.000000000083181018e+00,1.000000000003456258e+01,6.600000000001433609e-01,1.569999999999971196e+00,2.870000000000001819e+03,-2.174999999999803091e+00,-4.945000000000128182e+00,1.342023864019417978e+01,-2.169177341184047147e+00
2.000000000000017053e+01,2.999999998735659368e+00,1.000000000002794032e+01,6.600000000000882938e-01,1.569999999999954543e+00,2.870000000000002274e+03,-2.174999999999935429e+00,-4.945000000000293383e+00,1.340966610658974112e+01,-2.150677190358456059e+00
2.000000000000122213e+01,2.999999999337686241e+00,1.000000000003248601e+01,6.599999999998714673e-01,1.570000000000042917e+00,2.870000000000002274e+03,-2.175000000000079758e+00,-4.945000000000070450e+00,1.343300532947763237e+01,-2.145051433884045622e+00
1.999999999999981881e+01,2.999999999300037690e+00,1.000000000003534950e+01,6.600000000000204592e-01,1.570000000000050910e+00,2.870000000000002274e+03,-2.174999999999905675e+00,-4.945000000000024265e+00,1.341829307070057808e+01,-2.151685767563484397e+00
2.000000000000018119e+01,2.999999998336106977e+00,1.000000000001576872e+01,6.600000000000841860e-01,1.569999999999983853e+00,2.870000000000002274e+03,-2.174999999999945643e+00,-4.945000000000240981e+00,1.343641916735655784e+01,-2.142134245950301885e+00
2.000000000000013145e+01,2.999999997340278668e+00,9.999999999984988008e+00,6.600000000001046141e-01,1.569999999999805773e+00,2.870000000000002274e+03,-2.175000000000092637e+00,-4.945000000000644214e+00,1.342773383049121350e+01,-2.148444308131536307e+00
1.999999999999822009e+01,2.999999997574460675e+00,9.999999999962977171e+00,6.600000000002701483e-01,1.569999999999898144e+00,2.870000000000002274e+03,-2.174999999999743139e+00,-4.945000000000190354e+00,1.342165454227369459e+01,-2.151313034522477796e+00
1.999999999999842615e+01,2.999999998486417407e+00,1.000000000004425438e+01,6.600000000004152545e-01,1.569999999999911244e+00,2.870000000000002274e+03,-2.174999999999584599e+00,-4.945000000000189466e+00,1.341506546080154472e+01,-2.171122831387835461e+00
1.999999999999806732e+01,3.000000000478354245e+00,1.000000000001501910e+01,6.600000000004980771e-01,1.569999999999797335e+00,2.870000000000002274e+03,-2.174999999999744471e+00,-4.945000000000612239e+00,1.340503616666615905e+01,-2.188312785547105399e+00
1.999999999999924682e+01,2.999999999948605556e+00,1.000000000004885869e+01,6.600000000004251355e-01,1.569999999999809104e+00,2.870000000000002274e+03,-2.174999999999785327e+00,-4.945000000000709939e+00,1.339646008844491476e+01,-2.160724171914389924e+00
2.000000000000095568e+01,2.999999998301326354e+00,9.999999999957408292e+00,6.599999999997042677e-01,1.570000000000161711e+00,2.870000000000002274e+03,-2.175000000000013589e+00,-4.944999999999535767e+00,1.343703126696101258e+01,-2.157517708907809251e+00
1.999999999999970512e+01,2.999999998169691651e+00,9.999999999954960472e+00,6.600000000000413314e-01,1.569999999999966978e+00,2.870000000000002274e+03,-2.174999999999893685e+00,-4.945000000000111307e+00,1.343916839107595607e+01,-2.161339021184098819e+00
2.000000000000056488e+01,2.999999999511839821e+00,1.000000000002411227e+01,6.599999999998141798e-01,1.570000000000146612e+00,2.870000000000002274e+03,-2.175000000000096190e+00,-4.944999999999531326e+00,1.340594007223167239e+01,-2.194395009193716994e+00
2.000000000000234479e+01,3.000000002030237756e+00,1.000000000000839151e+01,6.599999999998191758e-01,1.569999999999994511e+00,2.870000000000002274e+03,-2.175000000000181899e+00,-4.945000000000167262e+00,1.339535066939590457e+01,-2.175651342285230605e+00
1.999999999999986144e+01,2.999999999225086089e+00,1.000000000003645972e+01,6.600000000002926859e-01,1.569999999999757589e+00,2.870000000000001819e+03,-2.175000000000020695e+00,-4.945000000000627338e+00,1.339280932040278316e+01,-2.142680330688564894e+00
2.000000000000001421e+01,2.999999999207611179e+00,9.999999999998829381e+00,6.599999999998056310e-01,1.570000000000106866e+00,2.870000000000002274e+03,-2.175000000000041567e+00,-4.944999999999602380e+00,1.340520496039014553e+01,-2.180434073965880515e+00
2.000000000000042633e+01,2.999999999312004118e+00,9.999999999925149652e+00,6.599999999998557021e-01,1.570000000000064011e+00,2.870000000000002274e+03,-2.175000000000024691e+00,-4.944999999999821760e+00,1.340333350288867464e+01,-2.165138543160753493e+00
1.999999999999914380e+01,2.999999997785600225e+00,9.999999999945284657e+00,6.600000000003849454e-01,1.569999999999728502e+00,2.870000000000002274e+03,-2.174999999999834177e+00,-4.945000000000945306e+00,1.342634334006158170e+01,-2.157304829764657317e+00
1.999999999999917932e+01,2.999999998180568728e+00,9.999999999975365483e+00,6.600000000003579670e-01,1.569999999999655449e+00,2.870000000000002274e+03,-2.174999999999966516e+00,-4.945000000000836060e+00,1.339971200714862931e+01,-2.163836668617360459e+00
2.000000000000101252e+01,2.999999999858698363e+00,1.000000000001737988e+01,6.599999999995493916e-01,1.570000000000282725e+00,2.870000000000002274e+03,-2.175000000000222311e+00,-4.944999999999163620e+00,1.338662581936107543e+01,-2.165333733183293585e+00
1.999999999999923261e+01,2.999999998827319825e+00,1.000000000001829115e+01,6.600000000004928591e-01,1.569999999999821538e+00,2.870000000000002274e+03,-2.174999999999685851e+00,-4.945000000000506546e+00,1.340532461449932455e+01,-2.175257851498334283e+00
1.999999999999899813e+01,2.999999997579621880e+00,9.999999999988647303e+00,6.600000000001735589e-01,1.570000000000002949e+00,2.870000000000002274e+03,-2.174999999999731592e+00,-4.944999999999965645e+00,1.340220477511392616e+01,-2.187435936863424857e+00
2.000000000000226308e+01,2.999999999225825054e+00,1.000000000000106226e+01,6.599999999999177636e-01,1.570000000000128404e+00,2.870000000000002274e+03,-2.174999999999965627e+00,-4.944999999999841300e+00,1.341791447073848786e+01,-2.150148102178241594e+00
2.000000000000035882e+01,2.999999999090660729e+00,9.999999999998633982e+00,6.600000000001590150e-01,1.570000000000032925e+00,2.870000000000001819e+03,-2.174999999999826628e+00,-4.944999999999959428e+00,1.341954780001889347e+01,-2.188963350911481864e+00
2.000000000000203215e+01,2.999999998703745785e+00,9.999999999956003194e+00,6.599999999998416023e-01,1.570000000000074669e+00,2.870000000000001819e+03,-2.174999999999995826e+00,-4.944999999999827978e+00,1.341335150744462368e+01,-2.156339768542474999e+00
1.999999999999882760e+01,2.999999997003118590e+00,9.999999999971610265e+00,6.600000000000918465e-01,1.569999999999948548e+00,2.870000000000002274e+03,-2.174999999999872813e+00,-4.945000000000240092e+00,1.341731388329261598e+01,-2.174337392199294783e+00
2.000000000000012790e+01,2.999999997276070474e+00,9.999999999992327915e+00,6.599999999999188738e-01,1.570000000000025597e+00,2.870000000000002274e+03,-2.174999999999985612e+00,-4.945000000000013607e+00,1.342356277002093101e+01,-2.178040049500414632e+00
1.999999999999927880e+01,2.999999997930913320e+00,9.999999999965883291e+00,6.600000000003474199e-01,1.569999999999737161e+00,2.870000000000002274e+03,-2.174999999999870148e+00,-4.945000000000792539e+00,1.342946378125842344e+01,-2.176464157600405791e+00
1.999999999999949551e+01,2.999999998198979778e+00,9.999999999991993960e+00,6.599999999999335287e-01,1.570000000000046692e+00,2.870000000000002274e+03,-2.174999999999967848e+00,-4.944999999999932783e+00,1.343928500697045259e+01,-2.168494150035004786e+00
2.000000000000021672e+01,2.999999997411750385e+00,9.999999999944860107e+00,6.599999999999878186e-01,1.569999999999966755e+00,2.870000000000002274e+03,-2.174999999999978062e+00,-4.945000000000095319e+00,1.340618797818988206e+01,-2.167348581457479995e+00
2.000000000000067857e+01,3.000000001538428496e+00,1.000000000001521094e+01,6.599999999999814904e-01,1.569999999999992291e+00,2.870000000000002274e+03,-2.174999999999938538e+00,-4.944999999999962093e+00,1.339792577809873997e+01,-2.195448665452419235e+00
1.999999999999869260e+01,2.999999996110660483e+00,9.999999999959925390e+00,6.600000000003106715e-01,1.569999999999788454e+00,2.870000000000002274e+03,-2.174999999999743139e+00,-4.945000000000607798e+00,1.338216041011733104e+01,-2.178805466052824436e+00
1.999999999999782574e+01,2.999999997707899713e+00,9.999999999982282617e+00,6.600000000005142864e-01,1.569999999999783347e+00,2.870000000000002274e+03,-2.174999999999558842e+00,-4.945000000000653095e+00,1.339510843040613963e+01,-2.191375644891700336e+00
