1.999999999999847589e+01,2.999999999592378952e+00,9.999999999977413623e+00,6.600000000001206013e-01,1.569999999999786677e+00,2.870000000000002274e+03,-2.175000000000037126e+00,-4.945000000000613127e+00,1.339159111027946736e+01,-2.170767270123254100e+00
1.999999999999904432e+01,3.000000000258139288e+00,9.999999999976861176e+00,6.600000000000837419e-01,1.569999999999855955e+00,2.870000000000002274e+03,-2.175000000000004707e+00,-4.945000000000423057e+00,1.339703263571927927e+01,-2.177583402830327142e+00
1.999999999999957367e+01,3.000000000161300751e+00,9.999999999989460875e+00,6.600000000002417266e-01,1.569999999999868834e+00,2.870000000000002274e+03,-2.174999999999860378e+00,-4.945000000000131735e+00,1.339124759224400307e+01,-2.175537083688742879e+00
1.999999999999959854e+01,3.000000000133474121e+00,1.000000000001033307e+01,6.600000000002198552e-01,1.569999999999870832e+00,2.870000000000002274e+03,-2.174999999999851052e+00,-4.945000000000239204e+00,1.338732083401201223e+01,-2.174561003625834932e+00
1.999999999999896971e+01,2.999999998435664672e+00,9.999999999984700239e+00,6.599999999998661382e-01,1.570000000000078000e+00,2.870000000000002274e+03,-2.174999999999993605e+00,-4.944999999999708074e+00,1.339207245036018890e+01,-2.185819365625276234e+00
1.999999999999950617e+01,2.999999998547205227e+00,1.000000000001352518e+01,6.599999999998567013e-01,1.570000000000034035e+00,2.870000000000002274e+03,-2.175000000000073097e+00,-4.944999999999912355e+00,1.339950933042638148e+01,-2.182455128154645596e+00
1.999999999999992184e+01,2.999999997869374546e+00,1.000000000003993250e+01,6.600000000002954614e-01,1.569999999999823537e+00,2.870000000000002274e+03,-2.174999999999903011e+00,-4.945000000000656648e+00,1.340361151373717341e+01,-2.179393039872856708e+00
1.999999999999797140e+01,2.999999996977466221e+00,1.000000000003432987e+01,6.600000000001300382e-01,1.569999999999878382e+00,2.870000000000002274e+03,-2.174999999999921663e+00,-4.945000000000081108e+00,1.339974231771499369e+01,-2.181833975229958256e+00
1.999999999999876010e+01,2.999999997907167870e+00,1.000000000001861977e+01,6.600000000003815037e-01,1.569999999999637019e+00,2.870000000000002274e+03,-2.175000000000006040e+00,-4.945000000001105178e+00,1.339860349136614559e+01,-2.176431093846661557e+00
1.999999999999929301e+01,2.999999997914353678e+00,9.999999999997415401e+00,6.600000000002866907e-01,1.569999999999655893e+00,2.870000000000002274e+03,-2.175000000000121503e+00,-4.945000000001105178e+00,1.339264621405187050e+01,-2.175331268808191165e+00
2.000000000000038369e+01,2.999999999700751374e+00,9.999999999998571809e+00,6.599999999996745137e-01,1.570000000000263185e+00,2.870000000000002274e+03,-2.175000000000013589e+00,-4.944999999999217799e+00,1.339801776414538459e+01,-2.171744611807797209e+00
1.999999999999977263e+01,2.999999998472394847e+00,1.000000000000791367e+01,6.600000000000340039e-01,1.569999999999987628e+00,2.870000000000002274e+03,-2.174999999999917666e+00,-4.945000000000020712e+00,1.340501775043140853e+01,-2.165278448208236561e+00
1.999999999999932854e+01,2.999999996593292195e+00,1.000000000000908784e+01,6.600000000001887690e-01,1.570000000000015383e+00,2.870000000000002274e+03,-2.174999999999739142e+00,-4.945000000000007390e+00,1.341144855467135066e+01,-2.169569630192082599e+00
2.000000000000111200e+01,2.999999999061562672e+00,9.999999999995363709e+00,6.599999999996102318e-01,1.570000000000220997e+00,2.870000000000002274e+03,-2.175000000000209877e+00,-4.944999999999525109e+00,1.340424995178857337e+01,-2.172182603452383898e+00
2.000000000000019540e+01,2.999999999017589847e+00,1.000000000005099743e+01,6.599999999998347189e-01,1.570000000000137730e+00,2.870000000000002274e+03,-2.175000000000034017e+00,-4.944999999999751594e+00,1.341625063829970976e+01,-2.176612809487602718e+00
1.999999999999987921e+01,2.999999996715878581e+00,1.000000000000799538e+01,6.599999999999180966e-01,1.569999999999871498e+00,2.870000000000002274e+03,-2.175000000000255174e+00,-4.945000000000250751e+00,1.339384982046314398e+01,-2.162701432393204559e+00
1.999999999999797495e+01,2.999999997742647029e+00,9.999999999983602450e+00,6.600000000002577139e-01,1.569999999999808438e+00,2.870000000000002274e+03,-2.174999999999797318e+00,-4.945000000000600693e+00,1.341420850677464394e+01,-2.193623442906174947e+00
1.999999999999909051e+01,2.999999998635380472e+00,1.000000000001429257e+01,6.600000000001382539e-01,1.569999999999901030e+00,2.870000000000002274e+03,-2.174999999999863043e+00,-4.945000000000342233e+00,1.342465111766536978e+01,-2.180951117589095656e+00
2.000000000000007461e+01,2.999999998233632947e+00,1.000000000002069456e+01,6.599999999996762901e-01,1.570000000000155493e+00,2.870000000000002274e+03,-2.174999999999974953e+00,-4.944999999999418527e+00,1.341549309760998376e+01,-2.176209516626428364e+00
1.999999999999807088e+01,2.999999999413861751e+00,1.000000000004370193e+01,6.600000000002935741e-01,1.569999999999802665e+00,2.870000000000002274e+03,-2.174999999999810196e+00,-4.945000000000602469e+00,1.341048770671930690e+01,-2.171898511724456249e+00
1.999999999999926104e+01,3.000000000114331655e+00,1.000000000004182787e+01,6.600000000004436762e-01,1.569999999999599938e+00,2.870000000000002274e+03,-2.174999999999982503e+00,-4.945000000001237517e+00,1.339955816921229825e+01,-2.163841755732107686e+00
2.000000000000165912e+01,2.999999999590063027e+00,1.000000000001112710e+01,6.599999999996732925e-01,1.570000000000089768e+00,2.870000000000002274e+03,-2.175000000000212541e+00,-4.944999999999877716e+00,1.341074909792337166e+01,-2.183517302342892652e+00
1.999999999999835154e+01,2.999999998890884978e+00,1.000000000000004086e+01,6.600000000004611067e-01,1.569999999999687423e+00,2.870000000000002274e+03,-2.174999999999863487e+00,-4.945000000000959517e+00,1.341047838630223588e+01,-2.185599868338697238e+00
2.000000000000038725e+01,2.999999999465632339e+00,9.999999999993370636e+00,6.599999999996186695e-01,1.570000000000162599e+00,2.870000000000002274e+03,-2.175000000000142819e+00,-4.944999999999552642e+00,1.340000672941206972e+01,-2.185642858955748835e+00
1.999999999999900524e+01,3.000000001592574961e+00,1.000000000000899547e+01,6.600000000002450573e-01,1.569999999999954099e+00,2.870000000000002274e+03,-2.174999999999738254e+00,-4.945000000000053575e+00,1.341219392024803447e+01,-2.188949159745042561e+00
1.999999999999912603e+01,2.999999998272249169e+00,9.999999999954777508e+00,6.600000000002758105e-01,1.569999999999947882e+00,2.870000000000002274e+03,-2.174999999999755573e+00,-4.944999999999966533e+00,1.340616235305248871e+01,-2.173978987040559474e+00
1.999999999999962697e+01,3.000000001214577772e+00,1.000000000000459721e+01,6.600000000000694200e-01,1.569999999999936113e+00,2.870000000000002274e+03,-2.174999999999992717e+00,-4.945000000000424834e+00,1.339681172821399890e+01,-2.174405905654090088e+00
1.999999999999887024e+01,2.999999998401714496e+00,9.999999999980804688e+00,6.600000000002569367e-01,1.569999999999627693e+00,2.870000000000002274e+03,-2.175000000000018918e+00,-4.945000000001140705e+00,1.340852316227624819e+01,-2.181597953181307226e+00
1.999999999999903366e+01,3.000000000675068890e+00,1.000000000004676792e+01,6.599999999999225375e-01,1.570000000000108198e+00,2.870000000000002274e+03,-2.174999999999903011e+00,-4.944999999999865281e+00,1.341199980239201217e+01,-2.188683928185680028e+00
1.999999999999965539e+01,2.999999997152651421e+00,9.999999999960873964e+00,6.599999999997980815e-01,1.570000000000091545e+00,2.870000000000002274e+03,-2.174999999999970512e+00,-4.944999999999606821e+00,1.341090740450109564e+01,-2.166117415687625503e+00
2.000000000000074962e+01,2.999999998959245850e+00,9.999999999973798737e+00,6.599999999996759570e-01,1.570000000000071338e+00,2.870000000000002274e+03,-2.175000000000106404e+00,-4.944999999999978968e+00,1.339989241487035265e+01,-2.170753564743347575e+00
2.000000000000022737e+01,3.000000000665980604e+00,1.000000000006860645e+01,6.600000000000951772e-01,1.570000000000000728e+00,2.870000000000002274e+03,-2.174999999999803979e+00,-4.945000000000197460e+00,1.341126289224555990e+01,-2.170666770505291776e+00
2.000000000000095923e+01,2.999999999667787076e+00,9.999999999970603071e+00,6.599999999999751621e-01,1.569999999999733609e+00,2.870000000000002274e+03,-2.175000000000205436e+00,-4.945000000000955964e+00,1.340769005060634278e+01,-2.176125788385092630e+00
1.999999999999884182e+01,3.000000000109463993e+00,1.000000000005558576e+01,6.600000000002895773e-01,1.569999999999990292e+00,2.870000000000002274e+03,-2.174999999999664091e+00,-4.945000000000035811e+00,1.340422427781251358e+01,-2.175236171167147514e+00
1.999999999999781153e+01,2.999999997897134563e+00,1.000000000002137845e+01,6.600000000003284351e-01,1.569999999999955653e+00,2.870000000000002274e+03,-2.174999999999708056e+00,-4.945000000000024265e+00,1.339363038799452177e+01,-2.185711693241757736e+00
1.999999999999914024e+01,2.999999997845008703e+00,1.000000000003006306e+01,6.600000000003952705e-01,1.569999999999764029e+00,2.870000000000002274e+03,-2.174999999999826628e+00,-4.945000000000596252e+00,1.342383411569529628e+01,-2.166322430847270386e+00
2.000000000000071054e+01,2.999999999374629578e+00,1.000000000006790835e+01,6.599999999997487876e-01,1.570000000000175699e+00,2.870000000000002274e+03,-2.175000000000061551e+00,-4.944999999999525997e+00,1.340728314119040299e+01,-2.161045326549285495e+00
2.000000000000112266e+01,2.999999999112140436e+00,1.000000000006582646e+01,6.599999999998167333e-01,1.570000000000151719e+00,2.870000000000002274e+03,-2.175000000000046008e+00,-4.944999999999599716e+00,1.340053226035218259e+01,-2.152924715913240306e+00
2.000000000000114397e+01,2.999999999803476314e+00,1.000000000004455991e+01,6.599999999994534683e-01,1.570000000000170814e+00,2.870000000000002274e+03,-2.175000000000271605e+00,-4.944999999999524221e+00,1.340387881091630540e+01,-2.168491470634748453e+00
1.999999999999949551e+01,2.999999999493992320e+00,1.000000000001855049e+01,6.599999999997648858e-01,1.570000000000116636e+00,2.870000000000002274e+03,-2.175000000000074873e+00,-4.944999999999706297e+00,1.339627497772729825e+01,-2.181261983696571871e+00
1.999999999999765876e+01,2.999999998074545982e+00,9.999999999982101428e+00,6.600000000006304157e-01,1.569999999999600160e+00,2.870000000000002274e+03,-2.174999999999663203e+00,-4.945000000001004814e+00,1.339052357932774484e+01,-2.182694250277554371e+00
1.999999999999798916e+01,2.999999997332060353e+00,9.999999999948689933e+00,6.600000000004395684e-01,1.569999999999684315e+00,2.870000000000002274e+03,-2.174999999999718270e+00,-4.945000000000757012e+00,1.338232783371572943e+01,-2.187341279470566224e+00
1.999999999999778311e+01,2.999999997067972490e+00,9.999999999957672969e+00,6.600000000005390444e-01,1.569999999999724505e+00,2.870000000000002274e+03,-2.174999999999666755e+00,-4.945000000000696616e+00,1.338910033569012903e+01,-2.175940834888353770e+00
1.999999999999820588e+01,2.999999997632418758e+00,9.999999999961003638e+00,6.600000000006306378e-01,1.569999999999563745e+00,2.870000000000002274e+03,-2.174999999999724931e+00,-4.945000000001185114e+00,1.338827350354119083e+01,-2.178496412966923312e+00
2.000000000000049383e+01,2.999999998767603149e+00,1.000000000007285905e+01,6.600000000000745271e-01,1.569999999999900364e+00,2.870000000000002274e+03,-2.174999999999987388e+00,-4.945000000000472795e+00,1.341396236304608003e+01,-2.166672134230017921e+00
2.000000000000064304e+01,2.999999997326523005e+00,1.000000000006637890e+01,6.599999999999494049e-01,1.569999999999978968e+00,2.870000000000002274e+03,-2.174999999999963851e+00,-4.945000000000206342e+00,1.341530339338094713e+01,-2.162421371039586315e+00
1.999999999999896971e+01,2.999999999469472378e+00,1.000000000001492850e+01,6.600000000001173817e-01,1.570000000000060014e+00,2.870000000000002274e+03,-2.174999999999756017e+00,-4.944999999999703633e+00,1.340102776474631874e+01,-2.177408921354041738e+00
2.000000000000008527e+01,2.999999998914190336e+00,9.999999999982426502e+00,6.600000000000874056e-01,1.569999999999891260e+00,2.870000000000002274e+03,-2.175000000000047340e+00,-4.945000000000302265e+00,1.339587541301740181e+01,-2.171338335631486594e+00
1.999999999999932854e+01,2.999999999488423885e+00,9.999999999995958788e+00,6.600000000001912115e-01,1.569999999999882601e+00,2.870000000000002274e+03,-2.174999999999934097e+00,-4.945000000000333351e+00,1.340783688961052533e+01,-2.174319209628675864e+00
1.999999999999931077e+01,3.000000000218749907e+00,9.999999999984762411e+00,6.600000000001796652e-01,1.569999999999875495e+00,2.870000000000002274e+03,-2.174999999999900346e+00,-4.945000000000256080e+00,1.337864132064411216e+01,-2.171203256568041695e+00
1.999999999999975131e+01,3.000000000347050833e+00,9.999999999984233057e+00,6.600000000001329248e-01,1.569999999999912133e+00,2.870000000000002274e+03,-2.174999999999906564e+00,-4.945000000000167262e+00,1.338937656959491740e+01,-2.168406163517661689e+00
1.999999999999959854e+01,2.999999999853644184e+00,9.999999999952935426e+00,6.600000000002888001e-01,1.569999999999741158e+00,2.870000000000002274e+03,-2.174999999999964295e+00,-4.945000000000806750e+00,1.340115305351515218e+01,-2.182637643940112504e+00
1.999999999999979039e+01,2.999999999776377546e+00,9.999999999955450747e+00,6.600000000002651523e-01,1.569999999999708518e+00,2.870000000000002274e+03,-2.175000000000041567e+00,-4.945000000000951523e+00,1.339257130106127214e+01,-2.178067273920202940e+00
1.999999999999837996e+01,2.999999998583917638e+00,1.000000000001509903e+01,6.600000000003694023e-01,1.569999999999956986e+00,2.870000000000002274e+03,-2.174999999999621014e+00,-4.945000000000068674e+00,1.341281929400590833e+01,-2.157696774637456905e+00
1.999999999999969802e+01,2.999999999586491217e+00,1.000000000001045564e+01,6.600000000002538281e-01,1.569999999999787565e+00,2.870000000000002274e+03,-2.174999999999977174e+00,-4.945000000000686846e+00,1.339656044064832585e+01,-2.154323334739316032e+00
1.999999999999984013e+01,3.000000000405139033e+00,1.000000000002516209e+01,6.599999999999875966e-01,1.569999999999998508e+00,2.870000000000002274e+03,-2.175000000000010036e+00,-4.944999999999936335e+00,1.339184129815477853e+01,-2.164717987504122920e+00
2.000000000000040146e+01,3.000000000196485495e+00,1.000000000004578915e+01,6.599999999998032996e-01,1.570000000000113749e+00,2.870000000000002274e+03,-2.175000000000129052e+00,-4.944999999999645901e+00,1.339361800394323332e+01,-2.160193303488199934e+00
1.999999999999754152e+01,2.999999998693235082e+00,1.000000000003455192e+01,6.600000000004665468e-01,1.569999999999942331e+00,2.870000000000002274e+03,-2.174999999999569944e+00,-4.945000000000150386e+00,1.340861176249120845e+01,-2.181679035275565059e+00
2.000000000000022382e+01,3.000000000694246438e+00,1.000000000003629808e+01,6.600000000001620126e-01,1.569999999999888818e+00,2.870000000000002274e+03,-2.174999999999945199e+00,-4.945000000000373319e+00,1.342563583596463950e+01,-2.167868164717466239e+00
1.999999999999936051e+01,2.999999998881619057e+00,1.000000000006032330e+01,6.600000000001499112e-01,1.570000000000126628e+00,2.870000000000002274e+03,-2.174999999999792877e+00,-4.944999999999723173e+00,1.341418885732362831e+01,-2.187711573151077005e+00
2.000000000000049027e+01,2.999999998005300483e+00,1.000000000001651301e+01,6.599999999998464872e-01,1.570000000000000506e+00,2.870000000000002274e+03,-2.175000000000168132e+00,-4.945000000000089990e+00,1.341594777666483473e+01,-2.145519140593687091e+00
1.999999999999952394e+01,2.999999998248844779e+00,9.999999999994432898e+00,6.600000000002195222e-01,1.569999999999728946e+00,2.870000000000002274e+03,-2.175000000000131273e+00,-4.945000000000711715e+00,1.341126840081807181e+01,-2.146781691302287243e+00
1.999999999999993605e+01,2.999999999129492334e+00,1.000000000004958522e+01,6.599999999999259792e-01,1.570000000000028706e+00,2.870000000000002274e+03,-2.175000000000100187e+00,-4.945000000000068674e+00,1.340393036850705144e+01,-2.174861172442676960e+00
1.999999999999985079e+01,3.000000000054896088e+00,1.000000000002571809e+01,6.600000000000043610e-01,1.569999999999960316e+00,2.870000000000002274e+03,-2.174999999999987388e+00,-4.944999999999992291e+00,1.341518409034496351e+01,-2.188846750249164419e+00
1.999999999999962697e+01,2.999999998725173089e+00,1.000000000000163602e+01,6.599999999998361622e-01,1.570000000000152607e+00,2.870000000000002274e+03,-2.174999999999945199e+00,-4.944999999999607709e+00,1.341006244908921552e+01,-2.184766070796083426e+00
2.000000000000074962e+01,2.999999998909283594e+00,1.000000000000591172e+01,6.599999999997878675e-01,1.570000000000135065e+00,2.870000000000002274e+03,-2.175000000000001155e+00,-4.944999999999711626e+00,1.342255369136867138e+01,-2.175139445217131762e+00
2.000000000000036593e+01,2.999999999307107146e+00,1.000000000000370548e+01,6.599999999996433164e-01,1.570000000000135509e+00,2.870000000000002274e+03,-2.175000000000098854e+00,-4.944999999999658336e+00,1.340743301921615860e+01,-2.178664945746444648e+00
1.999999999999925393e+01,2.999999999356193214e+00,1.000000000000561151e+01,6.600000000002091971e-01,1.569999999999768470e+00,2.870000000000002274e+03,-2.175000000000155254e+00,-4.945000000000822737e+00,1.339554640562016985e+01,-2.191164540309184172e+00
1.999999999999953459e+01,3.000000000091125774e+00,1.000000000001826628e+01,6.599999999998849010e-01,1.570000000000058016e+00,2.870000000000002274e+03,-2.174999999999895017e+00,-4.944999999999743601e+00,1.342517862408746154e+01,-2.174363888062038619e+00
1.999999999999969091e+01,2.999999999730225575e+00,9.999999999960905939e+00,6.599999999997947508e-01,1.569999999999983853e+00,2.870000000000002274e+03,-2.175000000000036238e+00,-4.944999999999952323e+00,1.340385440895263969e+01,-2.191059567930671470e+00
1.999999999999864997e+01,2.999999999206325541e+00,1.000000000004867218e+01,6.600000000005079581e-01,1.569999999999707629e+00,2.870000000000002274e+03,-2.174999999999690736e+00,-4.945000000000929319e+00,1.340873536266151334e+01,-2.176331788478146123e+00
1.999999999999852918e+01,2.999999998623805730e+00,1.000000000002091838e+01,6.600000000003342082e-01,1.569999999999925677e+00,2.870000000000002274e+03,-2.174999999999800426e+00,-4.945000000000217888e+00,1.341104325974022338e+01,-2.159691946858465883e+00
2.000000000000036238e+01,2.999999998659983458e+00,1.000000000002114042e+01,6.600000000001310374e-01,1.569999999999937668e+00,2.870000000000002274e+03,-2.174999999999964739e+00,-4.945000000000167262e+00,1.341518711496955696e+01,-2.172025603960869411e+00
2.000000000000109068e+01,3.000000000318240101e+00,1.000000000007032774e+01,6.599999999997766542e-01,1.570000000000129958e+00,2.870000000000002274e+03,-2.175000000000143707e+00,-4.944999999999763141e+00,1.342126504388941122e+01,-2.170787585943056097e+00
2.000000000000062528e+01,2.999999997569301691e+00,9.999999999976239451e+00,6.599999999999682787e-01,1.570000000000004725e+00,2.870000000000002274e+03,-2.175000000000097966e+00,-4.944999999999956763e+00,1.339231311917142442e+01,-2.158919394053413487e+00
1.999999999999970512e+01,2.999999997734600576e+00,9.999999999985531574e+00,6.600000000000826317e-01,1.569999999999891260e+00,2.870000000000002274e+03,-2.175000000000070433e+00,-4.945000000000346674e+00,1.338572916364211629e+01,-2.162250609225116804e+00
2.000000000000099831e+01,2.999999998472149265e+00,1.000000000000815170e+01,6.599999999998512612e-01,1.569999999999968088e+00,2.870000000000002274e+03,-2.175000000000153921e+00,-4.945000000000222329e+00,1.341310445705899212e+01,-2.171859600557545456e+00
1.999999999999822009e+01,2.999999997217166925e+00,9.999999999987297272e+00,6.600000000005109557e-01,1.569999999999837526e+00,2.870000000000002274e+03,-2.174999999999596589e+00,-4.945000000000582929e+00,1.341122168748303345e+01,-2.155283199864159283e+00
2.000000000000108358e+01,2.999999997947611519e+00,1.000000000000820322e+01,6.600000000000607603e-01,1.569999999999917462e+00,2.870000000000002274e+03,-2.175000000000016698e+00,-4.945000000000197460e+00,1.341370743353827599e+01,-2.144675801141648908e+00
2.000000000000062172e+01,2.999999997035999844e+00,9.999999999995409894e+00,6.600000000001542411e-01,1.569999999999915241e+00,2.870000000000002274e+03,-2.174999999999895461e+00,-4.945000000000244533e+00,1.340750868520093064e+01,-2.147986685627438774e+00
1.999999999999903366e+01,2.999999998973342130e+00,1.000000000001015543e+01,6.599999999999487388e-01,1.569999999999967200e+00,2.870000000000002274e+03,-2.175000000000081535e+00,-4.945000000000211671e+00,1.339237388386405136e+01,-2.172880051943796076e+00
1.999999999999741718e+01,2.999999997807900165e+00,9.999999999934519934e+00,6.600000000004057066e-01,1.569999999999870610e+00,2.870000000000002274e+03,-2.174999999999540634e+00,-4.945000000000274731e+00,1.341498374763794033e+01,-2.178807922226289495e+00
2.000000000000069633e+01,2.999999998275683311e+00,9.999999999975043963e+00,6.600000000001515765e-01,1.569999999999796669e+00,2.870000000000002274e+03,-2.175000000000057110e+00,-4.945000000000715268e+00,1.342026074969745331e+01,-2.158730044788189861e+00
2.000000000000096634e+01,2.999999998135323587e+00,9.999999999978555820e+00,6.599999999998936717e-01,1.569999999999938334e+00,2.870000000000002274e+03,-2.175000000000149480e+00,-4.945000000000382201e+00,1.341378885637773166e+01,-2.157947536179501746e+00
1.999999999999914380e+01,2.999999995720555646e+00,9.999999999971926457e+00,6.600000000004315748e-01,1.569999999999777573e+00,2.870000000000002274e+03,-2.174999999999869260e+00,-4.945000000000614904e+00,1.339783360983147453e+01,-2.160891340847913344e+00
1.999999999999921485e+01,2.999999999103070802e+00,1.000000000006414425e+01,6.600000000005420420e-01,1.569999999999734053e+00,2.870000000000002274e+03,-2.174999999999887468e+00,-4.945000000000767670e+00,1.339405380705465554e+01,-2.149395443811154660e+00
1.999999999999960565e+01,2.999999999825535113e+00,1.000000000001172928e+01,6.600000000002603784e-01,1.569999999999825091e+00,2.870000000000002274e+03,-2.174999999999905231e+00,-4.945000000000569607e+00,1.341398446472318540e+01,-2.179164883663544217e+00
2.000000000000038014e+01,2.999999998373503285e+00,9.999999999994185984e+00,6.600000000000048050e-01,1.570000000000092877e+00,2.870000000000002274e+03,-2.174999999999825739e+00,-4.944999999999854623e+00,1.340699968690384480e+01,-2.169193426309568462e+00
1.999999999999986500e+01,3.000000001270354044e+00,1.000000000006420642e+01,6.599999999998361622e-01,1.570000000000136176e+00,2.870000000000002274e+03,-2.175000000000022027e+00,-4.944999999999599716e+00,1.340731459120937963e+01,-2.192472333415859342e+00
1.999999999999826983e+01,2.999999999855401889e+00,1.000000000003466560e+01,6.600000000000482148e-01,1.569999999999903473e+00,2.870000000000002274e+03,-2.174999999999950528e+00,-4.945000000000240981e+00,1.339984948857239466e+01,-2.171964482291154575e+00
1.999999999999830180e+01,2.999999999539652240e+00,1.000000000002448886e+01,6.600000000000081357e-01,1.569999999999869944e+00,2.870000000000002274e+03,-2.175000000000054001e+00,-4.945000000000337792e+00,1.339505405744043109e+01,-2.170462122890357115e+00
2.000000000000034461e+01,2.999999997424654286e+00,9.999999999996710187e+00,6.599999999996969402e-01,1.569999999999990514e+00,2.870000000000002274e+03,-2.175000000000316014e+00,-4.945000000000082885e+00,1.340049810002365938e+01,-2.166911443604626175e+00
1.999999999999915801e+01,3.000000000252318610e+00,1.000000000004522605e+01,6.600000000001476907e-01,1.569999999999762474e+00,2.870000000000002274e+03,-2.175000000000088640e+00,-4.945000000000677964e+00,1.339795550006519598e+01,-2.175317509655766202e+00
1.999999999999786127e+01,3.000000001207866251e+00,9.999999999998722799e+00,6.600000000008003909e-01,1.569999999999305507e+00,2.870000000000002274e+03,-2.174999999999707612e+00,-4.945000000001855689e+00,1.340635476308833240e+01,-2.186387601706714978e+00
2.000000000000110845e+01,3.000000000705798975e+00,9.999999999963891995e+00,6.599999999997491207e-01,1.569999999999978302e+00,2.870000000000002274e+03,-2.175000000000345324e+00,-4.945000000000151275e+00,1.341160208200339987e+01,-2.194129891410293798e+00
1.999999999999932854e+01,2.999999997990051348e+00,1.000000000001261213e+01,6.600000000000201261e-01,1.569999999999871720e+00,2.870000000000002274e+03,-2.175000000000059774e+00,-4.945000000000512763e+00,1.341509906703918276e+01,-2.189819595050104262e+00
1.999999999999960920e+01,3.000000000289972935e+00,1.000000000008756373e+01,6.599999999998091837e-01,1.570000000000172369e+00,2.870000000000002274e+03,-2.175000000000014033e+00,-4.944999999999639684e+00,1.340947054510455239e+01,-2.184699777365284312e+00
1.999999999999998224e+01,3.000000000263419508e+00,1.000000000001912248e+01,6.599999999997997469e-01,1.570000000000058238e+00,2.870000000000002274e+03,-2.175000000000010036e+00,-4.944999999999827089e+00,1.342206612114306274e+01,-2.184813193228554606e+00
1.999999999999900169e+01,2.999999999036816245e+00,1.000000000005557688e+01,6.600000000003510836e-01,1.569999999999823981e+00,2.870000000000002274e+03,-2.174999999999753797e+00,-4.945000000000577600e+00,1.341832863465512027e+01,-2.171152279377815741e+00
1.999999999999995737e+01,2.999999999734908052e+00,1.000000000009942447e+01,6.600000000002393952e-01,1.569999999999945439e+00,2.870000000000002274e+03,-2.174999999999782663e+00,-4.945000000000295159e+00,1.341808456328988797e+01,-2.155007153443741608e+00
2.000000000000071765e+01,2.999999998100292942e+00,9.999999999967393194e+00,6.599999999997809841e-01,1.570000000000087326e+00,2.870000000000002274e+03,-2.175000000000100631e+00,-4.944999999999915019e+00,1.339550302690657801e+01,-2.175428006256301838e+00
2.000000000000114753e+01,2.999999997474964264e+00,9.999999999936704853e+00,6.599999999995529443e-01,1.570000000000194573e+00,2.870000000000002274e+03,-2.175000000000206324e+00,-4.944999999999573959e+00,1.339329245656552558e+01,-2.170378143840530516e+00
2.000000000000000000e+01,3.000000000862751204e+00,1.000000000005673151e+01,6.599999999997750999e-01,1.570000000000138840e+00,2.870000000000002274e+03,-2.174999999999950084e+00,-4.944999999999566853e+00,1.340725720269308674e+01,-2.188471026763962879e+00
1.999999999999828759e+01,2.999999997275507368e+00,9.999999999942204454e+00,6.600000000003665157e-01,1.569999999999801332e+00,2.870000000000002274e+03,-2.174999999999720934e+00,-4.945000000000667306e+00,1.340537122295988226e+01,-2.171846803128325565e+00
2.000000000000074962e+01,2.999999998407477886e+00,9.999999999967807085e+00,6.600000000001996492e-01,1.569999999999710960e+00,2.870000000000002274e+03,-2.175000000000087308e+00,-4.945000000000955964e+00,1.340264857884865890e+01,-2.153366414465851975e+00
1.999999999999905143e+01,2.999999998843417170e+00,1.000000000010610535e+01,6.599999999999989209e-01,1.570000000000203233e+00,2.870000000000002274e+03,-2.174999999999712497e+00,-4.944999999999370566e+00,1.339802300291887427e+01,-2.163449498958887496e+00
1.999999999999907274e+01,2.999999999687564145e+00,9.999999999959245045e+00,6.600000000001864375e-01,1.569999999999772688e+00,2.870000000000002274e+03,-2.174999999999941647e+00,-4.945000000000597140e+00,1.339064414506034240e+01,-2.187315016784464383e+00
1.999999999999961631e+01,2.999999999272358941e+00,9.999999999966096453e+00,6.600000000000623146e-01,1.569999999999803997e+00,2.870000000000002274e+03,-2.175000000000059774e+00,-4.945000000000524309e+00,1.338915360655514952e+01,-2.170654798682005726e+00
1.999999999999909761e+01,2.999999998090217446e+00,1.000000000000298961e+01,6.600000000003612977e-01,1.569999999999696527e+00,2.870000000000002274e+03,-2.174999999999879030e+00,-4.945000000000892904e+00,1.341701330274765880e+01,-2.185912325878657470e+00
1.999999999999982592e+01,2.999999999448665911e+00,1.000000000006375345e+01,6.599999999997946398e-01,1.570000000000167262e+00,2.870000000000002274e+03,-2.175000000000059330e+00,-4.944999999999471818e+00,1.340653238898064004e+01,-2.165693358798329804e+00
1.999999999999984723e+01,2.999999999322560118e+00,9.999999999956063590e+00,6.599999999996254418e-01,1.570000000000338680e+00,2.870000000000002274e+03,-2.174999999999942091e+00,-4.944999999998932694e+00,1.340076724018252818e+01,-2.180378478304335399e+00
2.000000000000096989e+01,2.999999997839265298e+00,9.999999999974276577e+00,6.599999999995737054e-01,1.570000000000295381e+00,2.870000000000002274e+03,-2.175000000000013145e+00,-4.944999999999182272e+00,1.340749491216375233e+01,-2.179424525094153964e+00
2.000000000000009948e+01,2.999999999989300559e+00,1.000000000004844303e+01,6.599999999998276135e-01,1.570000000000071116e+00,2.870000000000002274e+03,-2.175000000000012701e+00,-4.944999999999788898e+00,1.339351411599970199e+01,-2.175821957986570077e+00
1.999999999999975486e+01,2.999999999563005115e+00,1.000000000003488765e+01,6.599999999999693889e-01,1.570000000000002505e+00,2.870000000000002274e+03,-2.174999999999941647e+00,-4.944999999999994955e+00,1.339661892462562420e+01,-2.174691448832320795e+00
1.999999999999888800e+01,2.999999998911844212e+00,1.000000000001790745e+01,6.600000000004021539e-01,1.569999999999784679e+00,2.870000000000002274e+03,-2.174999999999713385e+00,-4.945000000000747242e+00,1.341059961764751129e+01,-2.179191541652001352e+00
1.999999999999893063e+01,2.999999999278865292e+00,1.000000000002352607e+01,6.600000000004349054e-01,1.569999999999744267e+00,2.870000000000002274e+03,-2.174999999999725375e+00,-4.945000000000752571e+00,1.340380933493758597e+01,-2.156691698541598257e+00
1.999999999999946709e+01,2.999999999507612536e+00,1.000000000003454659e+01,6.600000000001531308e-01,1.569999999999911688e+00,2.870000000000002274e+03,-2.174999999999887468e+00,-4.945000000000189466e+00,1.340614078056700187e+01,-2.162153198110144725e+00
2.000000000000054001e+01,2.999999999007224361e+00,9.999999999991741717e+00,6.599999999997010480e-01,1.570000000000144391e+00,2.870000000000002274e+03,-2.175000000000093969e+00,-4.944999999999625473e+00,1.341781253725512180e+01,-2.181194936325602907e+00
2.000000000000047251e+01,2.999999998194966544e+00,9.999999999944281015e+00,6.600000000002574918e-01,1.569999999999664997e+00,2.870000000000002274e+03,-2.174999999999978950e+00,-4.945000000001010143e+00,1.341049646479706148e+01,-2.173453321994030407e+00
1.999999999999992184e+01,2.999999999464011857e+00,9.999999999980342835e+00,6.599999999997429034e-01,1.570000000000182139e+00,2.870000000000002274e+03,-2.175000000000040679e+00,-4.944999999999544649e+00,1.341321516958648630e+01,-2.164628051627385030e+00
1.999999999999894129e+01,3.000000000438331593e+00,1.000000000000886047e+01,6.600000000000166844e-01,1.570000000000098872e+00,2.870000000000002274e+03,-2.174999999999794209e+00,-4.944999999999792450e+00,1.341145112560344188e+01,-2.164057321803531497e+00
1.999999999999893419e+01,3.000000000807875100e+00,1.000000000002094858e+01,6.600000000000657563e-01,1.569999999999886597e+00,2.870000000000002274e+03,-2.174999999999957634e+00,-4.945000000000336016e+00,1.340927311614025719e+01,-2.187871450347757207e+00
2.000000000000019185e+01,2.999999996507683786e+00,9.999999999900195391e+00,6.600000000000734168e-01,1.569999999999986517e+00,2.870000000000002274e+03,-2.174999999999879474e+00,-4.944999999999865281e+00,1.341317409164595809e+01,-2.167255240345312917e+00
1.999999999999857536e+01,2.999999998580574978e+00,9.999999999978706811e+00,6.600000000005453726e-01,1.569999999999797557e+00,2.870000000000002274e+03,-2.174999999999497557e+00,-4.945000000000639773e+00,1.340174325232262298e+01,-2.189592965396793378e+00
1.999999999999901945e+01,2.999999998866841544e+00,9.999999999980351717e+00,6.599999999998907851e-01,1.570000000000114859e+00,2.870000000000002274e+03,-2.174999999999832845e+00,-4.944999999999715179e+00,1.342400797353314523e+01,-2.178660872239744695e+00
2.000000000000088107e+01,3.000000001661335514e+00,1.000000000003637091e+01,6.599999999997656630e-01,1.570000000000163043e+00,2.870000000000002274e+03,-2.175000000000091305e+00,-4.944999999999596163e+00,1.340916507934018398e+01,-2.189724259198861489e+00
1.999999999999989697e+01,3.000000000722641058e+00,9.999999999991446842e+00,6.600000000001650102e-01,1.569999999999889484e+00,2.870000000000002274e+03,-2.174999999999905231e+00,-4.945000000000189466e+00,1.341316390784220758e+01,-2.198926061448630787e+00
2.000000000000013145e+01,2.999999998386195799e+00,9.999999999988713029e+00,6.600000000000671996e-01,1.569999999999931894e+00,2.870000000000002274e+03,-2.174999999999951417e+00,-4.945000000000148610e+00,1.340562246248541989e+01,-2.160820856225003528e+00
1.999999999999880629e+01,2.999999999108742710e+00,1.000000000003270628e+01,6.600000000002521627e-01,1.569999999999842855e+00,2.870000000000002274e+03,-2.174999999999995381e+00,-4.945000000000458584e+00,1.341963838907665263e+01,-2.173542953276509149e+00
2.000000000000076383e+01,2.999999998755756181e+00,9.999999999930873074e+00,6.599999999997749889e-01,1.569999999999988738e+00,2.870000000000002274e+03,-2.175000000000140599e+00,-4.945000000000044693e+00,1.341123228795386524e+01,-2.189661896817709952e+00
2.000000000000174794e+01,2.999999998460132655e+00,9.999999999998056666e+00,6.599999999997103739e-01,1.570000000000115303e+00,2.870000000000002274e+03,-2.175000000000123723e+00,-4.944999999999806661e+00,1.340309288369313201e+01,-2.181356208716441980e+00
1.999999999999811706e+01,3.000000000693449298e+00,1.000000000010400925e+01,6.600000000001848832e-01,1.570000000000123297e+00,2.870000000000002274e+03,-2.174999999999729372e+00,-4.944999999999619256e+00,1.340398692896600785e+01,-2.180098387167761498e+00
1.999999999999908340e+01,2.999999999349918678e+00,1.000000000000046896e+01,6.600000000000511013e-01,1.569999999999813989e+00,2.870000000000002274e+03,-2.174999999999986500e+00,-4.945000000000423057e+00,1.340216003639041098e+01,-2.185149899389702277e+00
1.999999999999903721e+01,2.999999998837739046e+00,9.999999999988181898e+00,6.600000000002145262e-01,1.569999999999714513e+00,2.870000000000002274e+03,-2.174999999999956746e+00,-4.945000000000951523e+00,1.339205775993376690e+01,-2.182843971050998366e+00
1.999999999999995381e+01,2.999999999465147837e+00,1.000000000001700329e+01,6.600000000000932898e-01,1.569999999999957874e+00,2.870000000000002274e+03,-2.174999999999937206e+00,-4.945000000000106866e+00,1.340403960816038875e+01,-2.161375640984462443e+00
1.999999999999957723e+01,2.999999998325248551e+00,1.000000000004705036e+01,6.600000000002983480e-01,1.569999999999886153e+00,2.870000000000002274e+03,-2.174999999999878142e+00,-4.945000000000336016e+00,1.340639703323181564e+01,-2.151856421683764786e+00
1.999999999999967670e+01,2.999999999691865593e+00,9.999999999985071497e+00,6.600000000000764144e-01,1.570000000000022489e+00,2.870000000000002274e+03,-2.174999999999899902e+00,-4.944999999999931894e+00,1.341776777309498492e+01,-2.190858200458599025e+00
2.000000000000027711e+01,2.999999997119304762e+00,9.999999999966725284e+00,6.599999999998811262e-01,1.570000000000035589e+00,2.870000000000002274e+03,-2.174999999999994493e+00,-4.944999999999977192e+00,1.340973487469833181e+01,-2.158461553719858372e+00
2.000000000000123634e+01,2.999999997825029130e+00,9.999999999965240249e+00,6.599999999996135625e-01,1.570000000000201235e+00,2.870000000000002274e+03,-2.175000000000118394e+00,-4.944999999999628137e+00,1.340475666406810618e+01,-2.169940499812114343e+00
1.999999999999930012e+01,2.999999999663408801e+00,1.000000000004141931e+01,6.600000000001272626e-01,1.569999999999844187e+00,2.870000000000002274e+03,-2.175000000000030020e+00,-4.945000000000438156e+00,1.341169349890802032e+01,-2.186293747490909656e+00
1.999999999999970512e+01,2.999999999026345510e+00,1.000000000001113065e+01,6.600000000002723688e-01,1.569999999999855511e+00,2.870000000000002274e+03,-2.174999999999834177e+00,-4.945000000000556284e+00,1.341843683825809919e+01,-2.153706297150026927e+00
1.999999999999899458e+01,2.999999998808545509e+00,9.999999999992734701e+00,6.600000000004883072e-01,1.569999999999715179e+00,2.870000000000002274e+03,-2.174999999999760458e+00,-4.945000000000846718e+00,1.341947927348562253e+01,-2.157481182748453907e+00
1.999999999999891998e+01,2.999999999909738868e+00,1.000000000004759393e+01,6.600000000004822009e-01,1.569999999999609486e+00,2.870000000000002274e+03,-2.174999999999796874e+00,-4.945000000001201990e+00,1.342025919407709011e+01,-2.186486732382855180e+00
2.000000000000089528e+01,2.999999999580516885e+00,9.999999999978337328e+00,6.600000000000201261e-01,1.569999999999953877e+00,2.870000000000002274e+03,-2.175000000000009592e+00,-4.945000000000231211e+00,1.340830671381290351e+01,-2.162805375899802041e+00
1.999999999999972644e+01,2.999999999200782863e+00,1.000000000002257039e+01,6.600000000004586642e-01,1.569999999999688534e+00,2.870000000000002274e+03,-2.174999999999856382e+00,-4.945000000000997709e+00,1.341119531207943183e+01,-2.179315494648476292e+00
1.999999999999896616e+01,2.999999998625934250e+00,1.000000000008466650e+01,6.600000000005876721e-01,1.569999999999642348e+00,2.870000000000002274e+03,-2.174999999999749800e+00,-4.945000000001260609e+00,1.340485599377552539e+01,-2.176644168182034100e+00
1.999999999999711520e+01,2.999999999746029822e+00,9.999999999987732480e+00,6.600000000008999779e-01,1.569999999999578177e+00,2.870000000000002274e+03,-2.174999999999395417e+00,-4.945000000001246399e+00,1.340313260394526473e+01,-2.188258175021001062e+00
1.999999999999882050e+01,3.000000000307461168e+00,1.000000000008325074e+01,6.600000000003219958e-01,1.570000000000027152e+00,2.870000000000002274e+03,-2.174999999999663647e+00,-4.945000000000014495e+00,1.341549899484571817e+01,-2.167584125809024709e+00
1.999999999999814193e+01,2.999999998743708485e+00,9.999999999997131184e+00,6.600000000003259926e-01,1.569999999999958318e+00,2.870000000000002274e+03,-2.174999999999609468e+00,-4.945000000000126406e+00,1.341092921919603853e+01,-2.171428395645839338e+00
2.000000000000073186e+01,2.999999999226645730e+00,1.000000000005921130e+01,6.599999999998859002e-01,1.570000000000140172e+00,2.870000000000002274e+03,-2.175000000000068212e+00,-4.944999999999545537e+00,1.339200715083143933e+01,-2.177508311732595736e+00
2.000000000000119371e+01,2.999999998301363213e+00,1.000000000006432899e+01,6.599999999998211742e-01,1.570000000000144391e+00,2.870000000000002274e+03,-2.175000000000136158e+00,-4.944999999999454054e+00,1.339171929900276403e+01,-2.169961749902173054e+00
1.999999999999964118e+01,2.999999999482670265e+00,1.000000000000443379e+01,6.599999999998565903e-01,1.570000000000114859e+00,2.870000000000002274e+03,-2.175000000000013145e+00,-4.944999999999515339e+00,1.339228003010594570e+01,-2.180951110389071079e+00
2.000000000000044409e+01,2.999999998137632407e+00,9.999999999966172837e+00,6.600000000003112266e-01,1.569999999999613483e+00,2.870000000000002274e+03,-2.175000000000066436e+00,-4.945000000001196661e+00,1.338614599103689429e+01,-2.155905088783821366e+00
2.000000000000021316e+01,2.999999998147117708e+00,9.999999999972155607e+00,6.600000000003880540e-01,1.569999999999635687e+00,2.870000000000002274e+03,-2.174999999999982059e+00,-4.945000000001056328e+00,1.337963785958439722e+01,-2.159509387909414713e+00
2.000000000000033396e+01,2.999999998309942129e+00,9.999999999946522777e+00,6.600000000003719558e-01,1.569999999999635021e+00,2.870000000000002274e+03,-2.174999999999988276e+00,-4.945000000001074980e+00,1.337922227524704688e+01,-2.162796331079467116e+00
1.999999999999984013e+01,2.999999998309732518e+00,9.999999999940344608e+00,6.600000000004255796e-01,1.569999999999532214e+00,2.870000000000002274e+03,-2.174999999999994493e+00,-4.945000000001328111e+00,1.337968790960870358e+01,-2.162171894024215391e+00
2.000000000000062172e+01,3.000000001139042194e+00,1.000000000006660272e+01,6.600000000000780798e-01,1.569999999999963203e+00,2.870000000000002274e+03,-2.175000000000001155e+00,-4.945000000000100648e+00,1.340440103867778809e+01,-2.180041360287463537e+00
1.999999999999853628e+01,2.999999999554331609e+00,1.000000000000539657e+01,6.600000000006089884e-01,1.569999999999700968e+00,2.870000000000002274e+03,-2.174999999999716493e+00,-4.945000000000718821e+00,1.339834250993924059e+01,-2.184328745693124407e+00
1.999999999999914380e+01,2.999999998544977231e+00,1.000000000005675993e+01,6.599999999998722444e-01,1.570000000000138618e+00,2.870000000000002274e+03,-2.174999999999893685e+00,-4.944999999999525997e+00,1.340260623177890054e+01,-2.166377239629821982e+00
1.999999999999863221e+01,2.999999999629160641e+00,1.000000000000730260e+01,6.600000000003957146e-01,1.569999999999734497e+00,2.870000000000002274e+03,-2.174999999999879030e+00,-4.945000000000689511e+00,1.339773623105608458e+01,-2.170731081871284829e+00
1.999999999999887379e+01,3.000000000049539040e+00,9.999999999937902118e+00,6.600000000002111955e-01,1.569999999999716289e+00,2.870000000000002274e+03,-2.175000000000002487e+00,-4.945000000000818297e+00,1.341430162885441213e+01,-2.175131656890184839e+00
1.999999999999884892e+01,2.999999998597319806e+00,9.999999999941175943e+00,6.600000000004768719e-01,1.569999999999473150e+00,2.870000000000002274e+03,-2.175000000000049560e+00,-4.945000000001522622e+00,1.339907337135411503e+01,-2.156602878162659831e+00
2.000000000000035882e+01,2.999999998480856522e+00,1.000000000002620659e+01,6.599999999999557332e-01,1.569999999999916129e+00,2.870000000000002274e+03,-2.175000000000050893e+00,-4.945000000000225882e+00,1.341021827153051049e+01,-2.171100483283028737e+00
2.000000000000082423e+01,2.999999999384972860e+00,1.000000000001234746e+01,6.599999999995381783e-01,1.570000000000250084e+00,2.870000000000002274e+03,-2.175000000000179678e+00,-4.944999999999449614e+00,1.341560992847072775e+01,-2.173179131381345108e+00
2.000000000000042277e+01,2.999999999915917481e+00,1.000000000005630696e+01,6.599999999999975886e-01,1.569999999999967200e+00,2.870000000000002274e+03,-2.175000000000002487e+00,-4.945000000000147722e+00,1.340933799393069847e+01,-2.175900106679910628e+00
1.999999999999986855e+01,3.000000001531488714e+00,9.999999999988739674e+00,6.599999999998744649e-01,1.570000000000028262e+00,2.870000000000002274e+03,-2.175000000000022471e+00,-4.944999999999919460e+00,1.340253947985204164e+01,-2.172663580020059992e+00
2.000000000000003553e+01,3.000000001353630985e+00,9.999999999982232879e+00,6.599999999999170974e-01,1.569999999999897922e+00,2.870000000000002274e+03,-2.175000000000107736e+00,-4.945000000000240981e+00,1.339732901161871048e+01,-2.170103499530514846e+00
1.999999999999991473e+01,3.000000000244837928e+00,1.000000000001123901e+01,6.600000000000528777e-01,1.569999999999774243e+00,2.870000000000002274e+03,-2.175000000000125944e+00,-4.945000000000589147e+00,1.341042427484424771e+01,-2.172186633967996716e+00
1.999999999999744560e+01,2.999999999117311411e+00,9.999999999988901322e+00,6.600000000005502576e-01,1.569999999999691420e+00,2.870000000000002274e+03,-2.174999999999774225e+00,-4.945000000000842277e+00,1.339699103416026027e+01,-2.181659186000791006e+00
1.999999999999831246e+01,2.999999999332958467e+00,1.000000000001319478e+01,6.600000000006297496e-01,1.569999999999489138e+00,2.870000000000002274e+03,-2.174999999999839506e+00,-4.945000000001492424e+00,1.342251318149760131e+01,-2.167866433922801761e+00
1.999999999999912959e+01,2.999999998235046039e+00,1.000000000001406697e+01,6.600000000002498313e-01,1.569999999999695417e+00,2.870000000000002274e+03,-2.175000000000054001e+00,-4.945000000000789875e+00,1.342084254917830144e+01,-2.166250070739841771e+00
2.000000000000131450e+01,2.999999997480965686e+00,1.000000000004261835e+01,6.599999999995899147e-01,1.570000000000228102e+00,2.870000000000002274e+03,-2.175000000000199218e+00,-4.944999999999249773e+00,1.341818390441689957e+01,-2.165896988829619563e+00
2.000000000000038725e+01,2.999999997874788438e+00,9.999999999996724398e+00,6.600000000000285638e-01,1.569999999999931894e+00,2.870000000000002274e+03,-2.175000000000066436e+00,-4.945000000000118412e+00,1.340665052454832740e+01,-2.163348025961198573e+00
2.000000000000000355e+01,2.999999998111077648e+00,1.000000000001724132e+01,6.599999999998905631e-01,1.570000000000097096e+00,2.870000000000002274e+03,-2.174999999999991829e+00,-4.944999999999819096e+00,1.341387027386807951e+01,-2.162152681206004790e+00
1.999999999999888445e+01,2.999999999452426014e+00,1.000000000001178080e+01,6.600000000002081979e-01,1.569999999999890150e+00,2.870000000000002274e+03,-2.174999999999845279e+00,-4.945000000000415064e+00,1.340135596334134682e+01,-2.147303909932206434e+00
1.999999999999777955e+01,2.999999998746080365e+00,1.000000000004200373e+01,6.600000000004111467e-01,1.569999999999826645e+00,2.870000000000002274e+03,-2.174999999999697398e+00,-4.945000000000669083e+00,1.341261575948638907e+01,-2.163232553429372373e+00
1.999999999999998224e+01,2.999999999426564035e+00,9.999999999982899013e+00,6.599999999999410782e-01,1.569999999999969642e+00,2.870000000000002274e+03,-2.175000000000057110e+00,-4.945000000000001172e+00,1.340550990814047339e+01,-2.154186193492880985e+00
2.000000000000098765e+01,3.000000000607975448e+00,1.000000000003158718e+01,6.599999999996473132e-01,1.570000000000098428e+00,2.870000000000002274e+03,-2.175000000000244071e+00,-4.944999999999702744e+00,1.341321291576397101e+01,-2.158819476385328340e+00
2.000000000000030198e+01,2.999999999957261743e+00,1.000000000003878498e+01,6.599999999996604139e-01,1.570000000000234319e+00,2.870000000000002274e+03,-2.174999999999992717e+00,-4.944999999999537543e+00,1.341156030187186232e+01,-2.172551375027644394e+00
1.999999999999744205e+01,2.999999998257579126e+00,1.000000000001000267e+01,6.600000000002669287e-01,1.569999999999924345e+00,2.870000000000002274e+03,-2.174999999999744915e+00,-4.945000000000119300e+00,1.341150130110876049e+01,-2.175601626914505982e+00
1.999999999999869971e+01,2.999999999418569541e+00,9.999999999999882760e+00,6.600000000002561595e-01,1.569999999999986073e+00,2.870000000000002274e+03,-2.174999999999721378e+00,-4.945000000000074003e+00,1.341982437972617959e+01,-2.176485682075806505e+00
1.999999999999780798e+01,2.999999999109173920e+00,1.000000000001475797e+01,6.600000000002720357e-01,1.569999999999978302e+00,2.870000000000002274e+03,-2.174999999999668088e+00,-4.944999999999995843e+00,1.341844018130867511e+01,-2.165023657559593140e+00
1.999999999999792877e+01,2.999999999291915742e+00,9.999999999996196820e+00,6.600000000003661826e-01,1.569999999999806883e+00,2.870000000000002274e+03,-2.174999999999728484e+00,-4.945000000000399076e+00,1.341708101681505561e+01,-2.181714241019587330e+00
2.000000000000033396e+01,2.999999999128697414e+00,1.000000000004995648e+01,6.599999999998574784e-01,1.570000000000036033e+00,2.870000000000002274e+03,-2.175000000000039346e+00,-4.944999999999891038e+00,1.340755821158928285e+01,-2.187435191211343000e+00
2.000000000000086331e+01,3.000000001095099122e+00,1.000000000001725375e+01,6.599999999999179856e-01,1.570000000000028928e+00,2.870000000000002274e+03,-2.175000000000079758e+00,-4.944999999999929230e+00,1.340986212012428069e+01,-2.160851726983620047e+00
1.999999999999970868e+01,3.000000000158674407e+00,9.999999999975702991e+00,6.599999999998933387e-01,1.570000000000008500e+00,2.870000000000002274e+03,-2.175000000000025580e+00,-4.944999999999957652e+00,1.339444581272368318e+01,-2.162330779501202560e+00
2.000000000000099476e+01,2.999999998148192848e+00,1.000000000002547118e+01,6.599999999996395417e-01,1.570000000000073781e+00,2.870000000000002274e+03,-2.175000000000298694e+00,-4.944999999999738272e+00,1.339788638025178003e+01,-2.158642477564801876e+00
2.000000000000019540e+01,2.999999997696729537e+00,9.999999999929432448e+00,6.599999999999565103e-01,1.569999999999670770e+00,2.870000000000002274e+03,-2.175000000000326672e+00,-4.945000000000935536e+00,1.340822015336627615e+01,-2.184735539533853022e+00
1.999999999999973710e+01,2.999999998083825670e+00,9.999999999957905672e+00,6.600000000002219647e-01,1.569999999999780238e+00,2.870000000000002274e+03,-2.174999999999964739e+00,-4.945000000000691287e+00,1.338988232002823331e+01,-2.165304277560510027e+00
2.000000000000085976e+01,2.999999998336434270e+00,9.999999999986670218e+00,6.600000000003588552e-01,1.569999999999657225e+00,2.870000000000002274e+03,-2.174999999999993605e+00,-4.945000000001238405e+00,1.341429330411799192e+01,-2.143200729602661170e+00
1.999999999999829825e+01,2.999999999162701325e+00,9.999999999990116351e+00,6.600000000007447687e-01,1.569999999999589946e+00,2.870000000000002274e+03,-2.174999999999664535e+00,-4.945000000001154028e+00,1.341355621380644081e+01,-2.167120420574147666e+00
2.000000000000056843e+01,2.999999998572431270e+00,9.999999999989681143e+00,6.599999999998612532e-01,1.570000000000095097e+00,2.870000000000002274e+03,-2.175000000000059774e+00,-4.944999999999706297e+00,1.340717941001980584e+01,-2.171130642166026803e+00
2.000000000000055067e+01,2.999999999048125865e+00,1.000000000002963141e+01,6.599999999998802380e-01,1.570000000000111973e+00,2.870000000000002274e+03,-2.175000000000075762e+00,-4.944999999999692086e+00,1.339268333169356673e+01,-2.178627408006378108e+00
2.000000000000015277e+01,2.999999999836182152e+00,1.000000000003635847e+01,6.599999999999375255e-01,1.570000000000126850e+00,2.870000000000002274e+03,-2.175000000000014477e+00,-4.944999999999603268e+00,1.338630085941277592e+01,-2.191403230595426521e+00
1.999999999999814193e+01,2.999999998381842836e+00,1.000000000002243006e+01,6.600000000006343015e-01,1.569999999999634577e+00,2.870000000000002274e+03,-2.174999999999752021e+00,-4.945000000001035012e+00,1.340755336249103280e+01,-2.170932697733114480e+00
1.999999999999804245e+01,2.999999997387469364e+00,9.999999999968213871e+00,6.600000000002647083e-01,1.569999999999868834e+00,2.870000000000002274e+03,-2.174999999999762679e+00,-4.945000000000245421e+00,1.341398476513886884e+01,-2.188512898105804183e+00
2.000000000000005684e+01,2.999999999808181883e+00,1.000000000006373035e+01,6.600000000002433920e-01,1.570000000000041140e+00,2.870000000000002274e+03,-2.174999999999756461e+00,-4.944999999999919460e+00,1.341375631485177777e+01,-2.160470251169027467e+00
2.000000000000075318e+01,2.999999998961816683e+00,1.000000000001670131e+01,6.600000000002899103e-01,1.569999999999841966e+00,2.870000000000002274e+03,-2.174999999999841727e+00,-4.945000000000540297e+00,1.339305568468046914e+01,-2.163094482648077133e+00
1.999999999999943157e+01,3.000000000338446604e+00,1.000000000002103917e+01,6.600000000002917977e-01,1.569999999999862172e+00,2.870000000000002274e+03,-2.174999999999760014e+00,-4.945000000000555396e+00,1.340840617341782348e+01,-2.181564421829484957e+00
2.000000000000048317e+01,2.999999998056857908e+00,9.999999999921078242e+00,6.599999999999697220e-01,1.570000000000060236e+00,2.870000000000002274e+03,-2.174999999999887024e+00,-4.944999999999819984e+00,1.341232666784829597e+01,-2.157952516265611465e+00
2.000000000000159872e+01,2.999999997093597326e+00,9.999999999943391060e+00,6.599999999999468514e-01,1.569999999999953877e+00,2.870000000000002274e+03,-2.175000000000104183e+00,-4.945000000000138840e+00,1.341694163802240958e+01,-2.144391269961554158e+00
2.000000000000012079e+01,2.999999999184205457e+00,9.999999999981216803e+00,6.599999999998857891e-01,1.570000000000047580e+00,2.870000000000002274e+03,-2.175000000000050004e+00,-4.944999999999829754e+00,1.339925511294498151e+01,-2.185116982919441231e+00
1.999999999999965539e+01,2.999999997372544858e+00,9.999999999951967311e+00,6.600000000001313705e-01,1.569999999999864393e+00,2.870000000000002274e+03,-2.174999999999888356e+00,-4.945000000000309370e+00,1.340518592954736476e+01,-2.165913572359396078e+00
1.999999999999906208e+01,2.999999996578621264e+00,9.999999999912303039e+00,6.600000000001132738e-01,1.569999999999909690e+00,2.870000000000002274e+03,-2.174999999999819078e+00,-4.945000000000097984e+00,1.340895732024599418e+01,-2.171288485391972500e+00
1.999999999999783640e+01,2.999999996424955739e+00,9.999999999898346204e+00,6.600000000005087353e-01,1.569999999999565743e+00,2.870000000000002274e+03,-2.174999999999702727e+00,-4.945000000001018137e+00,1.337588800794654986e+01,-2.184157605966122517e+00
1.999999999999899813e+01,2.999999996589923335e+00,9.999999999919197080e+00,6.600000000003789502e-01,1.569999999999652784e+00,2.870000000000002274e+03,-2.174999999999825295e+00,-4.945000000000895568e+00,1.338526366779967702e+01,-2.185793034309155836e+00
1.999999999999887379e+01,2.999999995511210216e+00,9.999999999917088545e+00,6.600000000002639311e-01,1.569999999999778018e+00,2.870000000000002274e+03,-2.174999999999788436e+00,-4.945000000000495888e+00,1.339210883236713912e+01,-2.177073623045536088e+00
1.999999999999860378e+01,2.999999996444107975e+00,9.999999999921470817e+00,6.600000000005826761e-01,1.569999999999588836e+00,2.870000000000002274e+03,-2.174999999999690292e+00,-4.945000000001133600e+00,1.338637841622842473e+01,-2.174618735394096003e+00
1.999999999999796430e+01,2.999999996532097146e+00,9.999999999935603512e+00,6.600000000007364420e-01,1.569999999999593499e+00,2.870000000000002274e+03,-2.174999999999584155e+00,-4.945000000001279261e+00,1.340914664300215620e+01,-2.173809382085488018e+00
2.000000000000054712e+01,2.999999999306395271e+00,1.000000000003925749e+01,6.599999999998917843e-01,1.570000000000199458e+00,2.870000000000002274e+03,-2.174999999999923883e+00,-4.944999999999455831e+00,1.341838464081338955e+01,-2.179047096100769743e+00
