1.999999999999960565e+01,2.999999999755923241e+00,9.999999999995516475e+00,6.599999999999314193e-01,1.570000000000131291e+00,2.870000000000002274e+03,-2.174999999999906564e+00,-4.944999999999629914e+00,1.326495353634405205e+01,-2.086650395093315513e+00
1.999999999999855760e+01,2.999999999298772035e+00,9.999999999988016697e+00,6.600000000002799183e-01,1.569999999999848628e+00,2.870000000000001819e+03,-2.174999999999832845e+00,-4.945000000000457696e+00,1.325585845140418151e+01,-2.092492118942166357e+00
1.999999999999890221e+01,2.999999999550758023e+00,1.000000000001877254e+01,6.600000000001184919e-01,1.569999999999974971e+00,2.870000000000001819e+03,-2.174999999999883027e+00,-4.945000000000116636e+00,1.329351465659807019e+01,-2.143194233711979368e+00
1.999999999999872458e+01,2.999999998837290960e+00,1.000000000000589218e+01,6.600000000002146372e-01,1.569999999999883933e+00,2.870000000000002728e+03,-2.174999999999818190e+00,-4.945000000000352003e+00,1.329578204255394702e+01,-2.165442518823118778e+00
1.999999999999828404e+01,3.000000000669894806e+00,9.999999999991405986e+00,6.600000000004488943e-01,1.569999999999759810e+00,2.870000000000002274e+03,-2.174999999999836398e+00,-4.945000000000742801e+00,1.326893518198638944e+01,-2.077726905575884686e+00
1.999999999999842260e+01,3.000000000009605650e+00,9.999999999984231280e+00,6.600000000005479261e-01,1.569999999999600382e+00,2.870000000000001364e+03,-2.174999999999812417e+00,-4.945000000001154916e+00,1.327934760420259153e+01,-2.090214000006136885e+00
1.999999999999813127e+01,2.999999999306387721e+00,1.000000000001098854e+01,6.600000000006356338e-01,1.569999999999520668e+00,2.870000000000000455e+03,-2.174999999999746247e+00,-4.945000000001348539e+00,1.330390324686275960e+01,-2.099580793483583285e+00
1.999999999999865352e+01,2.999999998200472806e+00,1.000000000001905498e+01,6.600000000004720979e-01,1.569999999999642126e+00,2.870000000000001364e+03,-2.174999999999798650e+00,-4.945000000001001261e+00,1.331599246333316344e+01,-2.126621296988178145e+00
1.999999999999838352e+01,2.999999999405155826e+00,9.999999999951175056e+00,6.600000000002412825e-01,1.569999999999851070e+00,2.870000000000001364e+03,-2.174999999999820854e+00,-4.945000000000483453e+00,1.344828223405088430e+01,-2.206338168008453948e+00
2.000000000000009948e+01,3.000000002351665085e+00,1.000000000004523670e+01,6.599999999999643929e-01,1.570000000000006057e+00,2.870000000000002274e+03,-2.175000000000031353e+00,-4.945000000000023377e+00,1.327974227578536848e+01,-2.265641260007875690e+00
1.999999999999950617e+01,3.000000003458930475e+00,1.000000000003981526e+01,6.600000000001639000e-01,1.569999999999801776e+00,2.870000000000002274e+03,-2.174999999999967848e+00,-4.945000000000622009e+00,1.332465281165280224e+01,-2.392205005458508893e+00
2.000000000000015277e+01,3.000000000472238693e+00,1.000000000004968115e+01,6.599999999999194289e-01,1.570000000000025597e+00,2.870000000000002274e+03,-2.175000000000018918e+00,-4.944999999999977192e+00,1.327710052289319265e+01,-2.285840498417278877e+00
1.999999999999982947e+01,2.999999995741087222e+00,1.000000000000985168e+01,6.600000000002621547e-01,1.569999999999710294e+00,2.870000000000001364e+03,-2.175000000000074873e+00,-4.945000000000833396e+00,1.333367856569133814e+01,-2.159233638822198653e+00
2.000000000000021672e+01,2.999999995063536762e+00,9.999999999997841726e+00,6.600000000001021716e-01,1.569999999999842411e+00,2.870000000000001819e+03,-2.175000000000095302e+00,-4.945000000000456808e+00,1.335098106302105059e+01,-2.134282490665848631e+00
2.000000000000064304e+01,2.999999997201617141e+00,1.000000000000720135e+01,6.599999999999085487e-01,1.569999999999924345e+00,2.870000000000000909e+03,-2.175000000000087752e+00,-4.945000000000189466e+00,1.341732820466654452e+01,-2.275706493534299213e+00
2.000000000000040501e+01,2.999999998012766511e+00,9.999999999997351452e+00,6.600000000000038058e-01,1.569999999999824203e+00,2.870000000000002274e+03,-2.175000000000111733e+00,-4.945000000000488782e+00,1.338658553073429403e+01,-2.178002690340750558e+00
2.000000000000114753e+01,2.999999996358948984e+00,1.000000000001772804e+01,6.599999999997387956e-01,1.570000000000117524e+00,2.870000000000001364e+03,-2.175000000000165912e+00,-4.944999999999626361e+00,1.341157163805485375e+01,-2.210973455613839178e+00
2.000000000000079581e+01,2.999999997632118554e+00,1.000000000002254019e+01,6.599999999997522293e-01,1.570000000000066676e+00,2.870000000000003183e+03,-2.175000000000061995e+00,-4.944999999999733831e+00,1.336121448035583903e+01,-2.200019297388819961e+00
1.999999999999985434e+01,2.999999997629984705e+00,9.999999999996559197e+00,6.600000000003048983e-01,1.569999999999628137e+00,2.870000000000001819e+03,-2.174999999999982503e+00,-4.945000000001013696e+00,1.333563785132191803e+01,-2.194354566524699290e+00
1.999999999999965183e+01,2.999999995373333395e+00,1.000000000001537970e+01,6.600000000002219647e-01,1.569999999999758700e+00,2.870000000000002274e+03,-2.175000000000003819e+00,-4.945000000000689511e+00,1.337604708360313666e+01,-2.265905869126730643e+00
2.000000000000022737e+01,3.000000001068779731e+00,9.999999999966046715e+00,6.599999999999290878e-01,1.570000000000064011e+00,2.870000000000001364e+03,-2.175000000000092637e+00,-4.944999999999852847e+00,1.324641369022567083e+01,-2.269153233520812218e+00
2.000000000000038725e+01,3.000000000571267034e+00,9.999999999948901319e+00,6.599999999999442979e-01,1.569999999999984519e+00,2.870000000000000455e+03,-2.175000000000113509e+00,-4.945000000000057128e+00,1.320771512252650659e+01,-2.295756794184691696e+00
1.999999999999980460e+01,2.999999999043196919e+00,9.999999999947428719e+00,6.600000000000880718e-01,1.569999999999850182e+00,2.869999999999999545e+03,-2.175000000000010925e+00,-4.945000000000435492e+00,1.317778766865980522e+01,-2.268036355398002968e+00
1.999999999999945643e+01,2.999999999721321142e+00,9.999999999968251174e+00,6.600000000001420286e-01,1.569999999999943441e+00,2.870000000000001364e+03,-2.174999999999961631e+00,-4.945000000000198348e+00,1.326909476040328428e+01,-2.302555910225094760e+00
1.999999999999963052e+01,3.000000001409679928e+00,9.999999999943366191e+00,6.600000000001513545e-01,1.569999999999831530e+00,2.870000000000001364e+03,-2.174999999999987832e+00,-4.945000000000479012e+00,1.329705577208291878e+01,-2.272731171148648421e+00
2.000000000000063949e+01,3.000000000876374529e+00,9.999999999965135444e+00,6.599999999997020472e-01,1.570000000000199014e+00,2.870000000000001819e+03,-2.175000000000105516e+00,-4.944999999999463824e+00,1.328769425389221759e+01,-2.283919101553419928e+00
2.000000000000066791e+01,3.000000001304747865e+00,9.999999999956573404e+00,6.599999999998080735e-01,1.570000000000085327e+00,2.870000000000001364e+03,-2.175000000000133049e+00,-4.944999999999787121e+00,1.328150188371095730e+01,-2.310167249869479633e+00
2.000000000000057554e+01,3.000000001222012269e+00,9.999999999966830089e+00,6.599999999997578914e-01,1.570000000000162377e+00,2.870000000000001819e+03,-2.175000000000050449e+00,-4.944999999999537543e+00,1.330275460066068405e+01,-2.299859063974836637e+00
2.000000000000033040e+01,3.000000000399780209e+00,9.999999999971068476e+00,6.600000000000403322e-01,1.569999999999958762e+00,2.870000000000001819e+03,-2.174999999999996270e+00,-4.945000000000084661e+00,1.328136126192976540e+01,-2.261206993165563617e+00
2.000000000000041922e+01,2.999999999031591980e+00,9.999999999994305000e+00,6.600000000000230127e-01,1.569999999999962759e+00,2.870000000000000000e+03,-2.174999999999995381e+00,-4.945000000000072227e+00,1.332222730629606744e+01,-2.307932394754270700e+00
1.999999999999998224e+01,2.999999999523054850e+00,1.000000000001420553e+01,6.599999999998459321e-01,1.570000000000107754e+00,2.870000000000002274e+03,-2.175000000000100631e+00,-4.944999999999760476e+00,1.337754229499971359e+01,-2.147771618235694291e+00
2.000000000000077094e+01,2.999999999784386251e+00,1.000000000001168843e+01,6.599999999996143396e-01,1.570000000000286944e+00,2.870000000000001819e+03,-2.175000000000157918e+00,-4.944999999999232898e+00,1.334301608118256866e+01,-2.105536039648927549e+00
1.999999999999971934e+01,3.000000000578324499e+00,9.999999999994933830e+00,6.600000000001373657e-01,1.569999999999795115e+00,2.870000000000001364e+03,-2.175000000000043343e+00,-4.945000000000641549e+00,1.323330261095443561e+01,-2.001171084064564898e+00
2.000000000000023093e+01,2.999999999936530770e+00,1.000000000000414602e+01,6.599999999999477396e-01,1.569999999999956541e+00,2.870000000000001819e+03,-2.175000000000070877e+00,-4.945000000000166374e+00,1.321934405898029574e+01,-2.015713339900488510e+00
2.000000000000041211e+01,3.000000000983694903e+00,1.000000000000074607e+01,6.599999999998299449e-01,1.570000000000192353e+00,2.870000000000000909e+03,-2.175000000000007816e+00,-4.944999999999468265e+00,1.329292344381324575e+01,-2.075728690954072420e+00
1.999999999999991829e+01,3.000000000567838665e+00,9.999999999997154276e+00,6.600000000000397771e-01,1.569999999999976303e+00,2.870000000000001364e+03,-2.175000000000006928e+00,-4.945000000000109530e+00,1.329115226937585170e+01,-2.032573161423964603e+00
2.000000000000121858e+01,3.000000000917458109e+00,1.000000000000659561e+01,6.599999999994989874e-01,1.570000000000342455e+00,2.870000000000002274e+03,-2.175000000000166356e+00,-4.944999999999042828e+00,1.322221804139553214e+01,-2.063453860678550189e+00
2.000000000000150990e+01,3.000000000132121425e+00,1.000000000001735323e+01,6.599999999993856337e-01,1.570000000000433937e+00,2.870000000000002274e+03,-2.175000000000195222e+00,-4.944999999998781703e+00,1.323334337304837405e+01,-2.051466224125253479e+00
1.999999999999983302e+01,2.999999999684912488e+00,1.000000000001201350e+01,6.600000000002358425e-01,1.569999999999706741e+00,2.870000000000002274e+03,-2.174999999999990052e+00,-4.945000000000838725e+00,1.334649670751568529e+01,-2.127221747303925881e+00
2.000000000000015632e+01,2.999999999517532157e+00,9.999999999991119992e+00,6.600000000001363665e-01,1.569999999999781792e+00,2.870000000000000455e+03,-2.175000000000088640e+00,-4.945000000000641549e+00,1.333681736936288509e+01,-2.099948384310866611e+00
2.000000000000024158e+01,2.999999999425048358e+00,9.999999999988370192e+00,6.599999999999478506e-01,1.570000000000034479e+00,2.870000000000002728e+03,-2.175000000000116174e+00,-4.944999999999960316e+00,1.329503947017684240e+01,-2.055351086020361429e+00
2.000000000000050093e+01,2.999999999596606237e+00,9.999999999984847676e+00,6.600000000000089129e-01,1.569999999999931894e+00,2.870000000000001819e+03,-2.175000000000013145e+00,-4.945000000000177920e+00,1.328392122235158368e+01,-2.044187720807182362e+00
2.000000000000003553e+01,2.999999999569121556e+00,9.999999999970253128e+00,6.599999999999369704e-01,1.570000000000106422e+00,2.870000000000001819e+03,-2.175000000000002487e+00,-4.944999999999714291e+00,1.327264691285402520e+01,-2.094597807193531835e+00
2.000000000000031264e+01,2.999999999921874494e+00,9.999999999951906915e+00,6.599999999998928946e-01,1.570000000000099316e+00,2.870000000000001364e+03,-2.175000000000014033e+00,-4.944999999999731166e+00,1.329813841378577699e+01,-2.119532777442619587e+00
2.000000000000024158e+01,3.000000000808999090e+00,9.999999999989462651e+00,6.600000000000683098e-01,1.569999999999902585e+00,2.870000000000000909e+03,-2.175000000000027356e+00,-4.945000000000303153e+00,1.332654689516527391e+01,-2.087335890561149654e+00
1.999999999999994671e+01,3.000000000376203957e+00,1.000000000001192468e+01,6.600000000001776668e-01,1.569999999999814655e+00,2.870000000000000909e+03,-2.174999999999976286e+00,-4.945000000000556284e+00,1.332360684974850606e+01,-2.067281712465866672e+00
1.999999999999981881e+01,2.999999998138795920e+00,9.999999999963874231e+00,6.599999999998356071e-01,1.570000000000166596e+00,2.870000000000002274e+03,-2.175000000000127276e+00,-4.944999999999577511e+00,1.329114482978814848e+01,-2.057905530390366167e+00
1.999999999999923617e+01,2.999999997708557409e+00,9.999999999952938978e+00,6.600000000001189360e-01,1.569999999999911244e+00,2.870000000000001364e+03,-2.175000000000089528e+00,-4.945000000000294271e+00,1.328396515406026523e+01,-2.052560750807516765e+00
1.999999999999919709e+01,2.999999997922020878e+00,9.999999999971509013e+00,6.600000000000975087e-01,1.569999999999945439e+00,2.870000000000001364e+03,-2.175000000000077538e+00,-4.945000000000239204e+00,1.328112967086239493e+01,-2.082674979142706384e+00
1.999999999999897682e+01,2.999999997904530868e+00,9.999999999973008258e+00,6.600000000002174128e-01,1.569999999999845741e+00,2.870000000000001364e+03,-2.175000000000013589e+00,-4.945000000000510099e+00,1.332557427605647327e+01,-2.084255100058578503e+00
1.999999999999935341e+01,2.999999997215442082e+00,1.000000000000061284e+01,6.600000000001717826e-01,1.569999999999849294e+00,2.870000000000001364e+03,-2.174999999999981615e+00,-4.945000000000461249e+00,1.334085299898853982e+01,-2.175988051634513365e+00
1.999999999999893774e+01,2.999999997667543550e+00,9.999999999994184208e+00,6.600000000002195222e-01,1.569999999999839746e+00,2.870000000000000455e+03,-2.174999999999951417e+00,-4.945000000000519869e+00,1.338605795902909534e+01,-2.172600698079773629e+00
1.999999999999906564e+01,2.999999997727484935e+00,9.999999999980932586e+00,6.600000000002091971e-01,1.569999999999874163e+00,2.870000000000001364e+03,-2.174999999999930544e+00,-4.945000000000402629e+00,1.330915818390163530e+01,-2.172530271288596548e+00
1.999999999999939249e+01,2.999999998414573099e+00,9.999999999985819343e+00,6.600000000000486589e-01,1.569999999999997398e+00,2.870000000000001364e+03,-2.174999999999961631e+00,-4.945000000000047358e+00,1.328922011960600535e+01,-2.138193458762082333e+00
1.999999999999997868e+01,2.999999997925825390e+00,1.000000000000811973e+01,6.599999999999445199e-01,1.570000000000027818e+00,2.870000000000001364e+03,-2.174999999999974065e+00,-4.944999999999932783e+00,1.341496278912742923e+01,-2.184082662222059934e+00
2.000000000000224532e+01,3.000000000755318919e+00,1.000000000002168044e+01,6.599999999993291233e-01,1.570000000000552953e+00,2.870000000000000909e+03,-2.175000000000316902e+00,-4.944999999998427320e+00,1.325748876139567223e+01,-2.293230769005713210e+00
2.000000000000048317e+01,2.999999998984694827e+00,1.000000000001440092e+01,6.599999999993703126e-01,1.570000000000690843e+00,2.870000000000000909e+03,-2.174999999999971845e+00,-4.944999999998063167e+00,1.331709478660284773e+01,-2.245995107787957412e+00
1.999999999999981171e+01,2.999999998994435035e+00,1.000000000003263700e+01,6.599999999997371303e-01,1.570000000000312479e+00,2.870000000000001364e+03,-2.174999999999861267e+00,-4.944999999999128981e+00,1.333442449405430708e+01,-2.236978685140290413e+00
2.000000000000092726e+01,2.999999999989716226e+00,1.000000000005866951e+01,6.599999999998479305e-01,1.570000000000241647e+00,2.870000000000000909e+03,-2.175000000000116618e+00,-4.944999999999311058e+00,1.333044380733665157e+01,-2.296195559327193880e+00
2.000000000000199663e+01,2.999999999156917063e+00,1.000000000001925393e+01,6.599999999993984012e-01,1.570000000000531859e+00,2.870000000000002274e+03,-2.175000000000242295e+00,-4.944999999998491269e+00,1.323829339146227113e+01,-2.251576754889988319e+00
2.000000000000186162e+01,2.999999999431007147e+00,1.000000000002393996e+01,6.599999999994986544e-01,1.570000000000418394e+00,2.870000000000002274e+03,-2.175000000000267608e+00,-4.944999999998821671e+00,1.318739352567350132e+01,-2.211531703673334626e+00
2.000000000000217426e+01,3.000000000592052185e+00,1.000000000005988632e+01,6.599999999992083310e-01,1.570000000000705054e+00,2.870000000000001819e+03,-2.175000000000285816e+00,-4.944999999998025864e+00,1.328834030867268368e+01,-2.338759926350620688e+00
2.000000000000274269e+01,3.000000001598358779e+00,1.000000000004560974e+01,6.599999999990833199e-01,1.570000000000752793e+00,2.870000000000002274e+03,-2.175000000000223199e+00,-4.944999999997813589e+00,1.328544853561605699e+01,-2.322507838783621548e+00
2.000000000000095923e+01,3.000000000369410280e+00,1.000000000000297895e+01,6.599999999998611422e-01,1.570000000000161489e+00,2.869999999999999545e+03,-2.175000000000075318e+00,-4.944999999999504681e+00,1.332988983783586079e+01,-2.343625279920881432e+00
1.999999999999851852e+01,2.999999998191862360e+00,1.000000000000437161e+01,6.600000000002362865e-01,1.569999999999836859e+00,2.870000000000001364e+03,-2.174999999999829736e+00,-4.945000000000522533e+00,1.340149227198157789e+01,-2.098665250743974031e+00
1.999999999999757705e+01,2.999999998493000586e+00,9.999999999998165023e+00,6.600000000005217249e-01,1.569999999999606821e+00,2.870000000000001819e+03,-2.174999999999763567e+00,-4.945000000001225082e+00,1.341662621057616001e+01,-2.108117911051439641e+00
2.000000000000019540e+01,2.999999999372764847e+00,1.000000000001099565e+01,6.600000000000723066e-01,1.569999999999895479e+00,2.870000000000001364e+03,-2.174999999999935874e+00,-4.945000000000240981e+00,1.335129385043472183e+01,-2.156034259811949294e+00
2.000000000000018474e+01,2.999999998861844652e+00,9.999999999993470112e+00,6.599999999999891509e-01,1.570000000000058238e+00,2.870000000000002274e+03,-2.174999999999902567e+00,-4.944999999999825313e+00,1.338799738089221414e+01,-2.170893238673739400e+00
2.000000000000040501e+01,2.999999998344104579e+00,9.999999999985629273e+00,6.599999999998010791e-01,1.570000000000113527e+00,2.870000000000001819e+03,-2.175000000000013589e+00,-4.944999999999662776e+00,1.332137742458903773e+01,-2.106505382312160446e+00
2.000000000000065370e+01,2.999999999065071421e+00,9.999999999996493472e+00,6.599999999997171463e-01,1.570000000000209894e+00,2.870000000000002274e+03,-2.174999999999962519e+00,-4.944999999999352802e+00,1.333301705828326966e+01,-2.155123707795433052e+00
2.000000000000111200e+01,2.999999998557709713e+00,9.999999999997593036e+00,6.599999999996087885e-01,1.570000000000282725e+00,2.870000000000000455e+03,-2.175000000000101075e+00,-4.944999999999193818e+00,1.340364479447067048e+01,-2.149076519901987670e+00
1.999999999999989697e+01,2.999999999331837586e+00,1.000000000002640732e+01,6.599999999999480726e-01,1.570000000000080442e+00,2.870000000000002728e+03,-2.174999999999801314e+00,-4.944999999999715179e+00,1.344202980068982889e+01,-2.180843979139545308e+00
2.000000000000097700e+01,3.000000000023560709e+00,9.999999999988300914e+00,6.599999999995700417e-01,1.570000000000369766e+00,2.870000000000001819e+03,-2.175000000000006484e+00,-4.944999999998920259e+00,1.346724053402845556e+01,-2.275512692764659839e+00
1.999999999999966960e+01,2.999999998860463091e+00,9.999999999994516386e+00,6.599999999998052980e-01,1.570000000000284501e+00,2.870000000000002274e+03,-2.174999999999906564e+00,-4.944999999999198259e+00,1.342878697471787319e+01,-2.194679094014916565e+00
1.999999999999896971e+01,2.999999998517977051e+00,9.999999999988435917e+00,6.600000000002904654e-01,1.569999999999746487e+00,2.870000000000002274e+03,-2.174999999999820854e+00,-4.945000000000714380e+00,1.338928039948786264e+01,-2.164449819733117231e+00
2.000000000000101963e+01,2.999999997789814632e+00,9.999999999989716670e+00,6.599999999994147215e-01,1.570000000000532747e+00,2.870000000000002274e+03,-2.175000000000015365e+00,-4.944999999998440643e+00,1.334274419741380591e+01,-2.164074378810389554e+00
2.000000000000047606e+01,2.999999999190628319e+00,9.999999999975955234e+00,6.599999999996279954e-01,1.570000000000328022e+00,2.870000000000001819e+03,-2.174999999999930989e+00,-4.944999999999035722e+00,1.333337370366319341e+01,-2.140743894355285892e+00
2.000000000000013145e+01,2.999999998725185524e+00,9.999999999999356959e+00,6.599999999999974776e-01,1.569999999999951656e+00,2.870000000000000455e+03,-2.174999999999960298e+00,-4.945000000000118412e+00,1.335730899146120620e+01,-2.175537384536060603e+00
2.000000000000125411e+01,2.999999999757692937e+00,1.000000000001539213e+01,6.599999999997765432e-01,1.570000000000106644e+00,2.870000000000002274e+03,-2.175000000000009148e+00,-4.944999999999600604e+00,1.340367504949379551e+01,-2.195635865452085334e+00
2.000000000000080647e+01,2.999999999848413257e+00,1.000000000000540545e+01,6.599999999998761302e-01,1.570000000000083551e+00,2.870000000000001364e+03,-2.175000000000054889e+00,-4.944999999999713403e+00,1.342792991656988910e+01,-2.231152450154167077e+00
2.000000000000076739e+01,3.000000001126496230e+00,1.000000000001235989e+01,6.599999999999023315e-01,1.570000000000030926e+00,2.870000000000001364e+03,-2.175000000000107736e+00,-4.944999999999862617e+00,1.339967283620596206e+01,-2.211265502171407160e+00
2.000000000000114753e+01,2.999999999861317157e+00,1.000000000002165734e+01,6.599999999998703570e-01,1.569999999999989848e+00,2.870000000000001364e+03,-2.175000000000132161e+00,-4.945000000000008278e+00,1.338352806970859277e+01,-2.176068670601162491e+00
2.000000000000144240e+01,2.999999999750651458e+00,9.999999999979188203e+00,6.599999999995901367e-01,1.570000000000315810e+00,2.870000000000002728e+03,-2.175000000000041123e+00,-4.944999999999012630e+00,1.338654673699044650e+01,-2.165620919338994810e+00
2.000000000000093792e+01,2.999999998649569122e+00,1.000000000002477840e+01,6.599999999998021893e-01,1.570000000000162821e+00,2.870000000000002728e+03,-2.175000000000092637e+00,-4.944999999999490470e+00,1.340297719950336131e+01,-2.131344429052434375e+00
2.000000000000207123e+01,3.000000000150810919e+00,9.999999999989652721e+00,6.599999999993020339e-01,1.570000000000565166e+00,2.870000000000000455e+03,-2.175000000000165912e+00,-4.944999999998349161e+00,1.341540082700422154e+01,-2.159361368381657265e+00
2.000000000000058265e+01,2.999999999722051669e+00,9.999999999988762767e+00,6.600000000000414424e-01,1.569999999999842411e+00,2.870000000000001819e+03,-2.174999999999955413e+00,-4.945000000000364437e+00,1.340853672962802356e+01,-2.133424641705893077e+00
1.999999999999806022e+01,3.000000000431333635e+00,1.000000000009190693e+01,6.600000000006408518e-01,1.569999999999510232e+00,2.870000000000000455e+03,-2.174999999999806199e+00,-4.945000000001428475e+00,1.344098306556073474e+01,-2.153671066069565487e+00
1.999999999999969802e+01,3.000000004062759906e+00,1.000000000005108625e+01,6.600000000001122746e-01,1.569999999999813989e+00,2.870000000000002728e+03,-2.174999999999999822e+00,-4.945000000000546514e+00,1.349340061115764833e+01,-2.258988678070156464e+00
2.000000000000029843e+01,3.000000001520413129e+00,1.000000000003366729e+01,6.599999999997161471e-01,1.570000000000302487e+00,2.870000000000001819e+03,-2.175000000000030020e+00,-4.944999999999177831e+00,1.323222145499406643e+01,-1.978274384878640157e+00
1.999999999999947420e+01,3.000000000588131766e+00,9.999999999973423925e+00,6.599999999997525624e-01,1.570000000000312479e+00,2.870000000000001819e+03,-2.174999999999981171e+00,-4.944999999999187601e+00,1.359883879922528749e+01,-2.339407981422025884e+00
1.999999999999925748e+01,2.999999999628649938e+00,9.999999999976283860e+00,6.599999999999263123e-01,1.570000000000128182e+00,2.870000000000001819e+03,-2.174999999999949196e+00,-4.944999999999678764e+00,1.359739442483436989e+01,-2.321253775660480301e+00
1.999999999999831246e+01,2.999999999463996758e+00,9.999999999961193708e+00,6.600000000003114486e-01,1.569999999999796225e+00,2.870000000000001819e+03,-2.174999999999822187e+00,-4.945000000000645102e+00,1.348041791562137348e+01,-2.205678702568205196e+00
1.999999999999939249e+01,3.000000000014997781e+00,9.999999999990109245e+00,6.600000000000604272e-01,1.569999999999987850e+00,2.870000000000002274e+03,-2.174999999999948752e+00,-4.945000000000078444e+00,1.341525336373360489e+01,-2.186241403048074350e+00
1.999999999999890576e+01,2.999999999371711912e+00,9.999999999975470288e+00,6.600000000002788081e-01,1.569999999999783347e+00,2.870000000000000909e+03,-2.174999999999805755e+00,-4.945000000000596252e+00,1.346100456505678800e+01,-2.149888391385390118e+00
1.999999999999810996e+01,2.999999999308624155e+00,9.999999999987410959e+00,6.600000000004656586e-01,1.569999999999662332e+00,2.870000000000001364e+03,-2.174999999999760014e+00,-4.945000000001007479e+00,1.339002474975824164e+01,-2.101312538086345771e+00
1.999999999999990763e+01,2.999999999615362345e+00,9.999999999973676168e+00,6.599999999998431566e-01,1.570000000000188356e+00,2.870000000000002274e+03,-2.174999999999960743e+00,-4.944999999999444285e+00,1.341076506189376616e+01,-2.163871535568657301e+00
1.999999999999879563e+01,2.999999999598654821e+00,9.999999999960127894e+00,6.600000000001535749e-01,1.569999999999892148e+00,2.870000000000000909e+03,-2.174999999999928324e+00,-4.945000000000353779e+00,1.342619824480595270e+01,-2.167049918581998469e+00
1.999999999999867129e+01,2.999999995819181198e+00,1.000000000002468425e+01,6.600000000003823919e-01,1.569999999999751594e+00,2.870000000000001364e+03,-2.174999999999910560e+00,-4.945000000000775664e+00,1.337986651809648286e+01,-2.140591181549477806e+00
2.000000000000004974e+01,2.999999996173585703e+00,9.999999999995354827e+00,6.599999999998260591e-01,1.570000000000206786e+00,2.870000000000002274e+03,-2.175000000000078426e+00,-4.944999999999506457e+00,1.333968325046502557e+01,-2.142567175005621216e+00
1.999999999999928235e+01,2.999999996548324166e+00,1.000000000002829559e+01,6.600000000001479128e-01,1.569999999999937224e+00,2.870000000000002274e+03,-2.174999999999941647e+00,-4.945000000000269402e+00,1.338357607709976271e+01,-2.119686477757621201e+00
1.999999999999948841e+01,2.999999996479342013e+00,1.000000000001664091e+01,6.600000000001758904e-01,1.569999999999881490e+00,2.870000000000001364e+03,-2.175000000000017586e+00,-4.945000000000420393e+00,1.333455333049345803e+01,-2.117676261306474572e+00
1.999999999999849720e+01,2.999999995844654599e+00,1.000000000001984901e+01,6.600000000003329870e-01,1.569999999999827756e+00,2.870000000000000909e+03,-2.174999999999841283e+00,-4.945000000000563389e+00,1.341561475795076852e+01,-2.159682286058671075e+00
1.999999999999869615e+01,2.999999995411676945e+00,9.999999999979690912e+00,6.600000000000373346e-01,1.570000000000115525e+00,2.870000000000001819e+03,-2.174999999999872813e+00,-4.944999999999788010e+00,1.336230183220731327e+01,-2.187672660064867269e+00
1.999999999999919353e+01,2.999999995901983407e+00,1.000000000002030376e+01,6.600000000002135270e-01,1.569999999999841522e+00,2.869999999999999545e+03,-2.174999999999842171e+00,-4.945000000000479012e+00,1.341188473025393080e+01,-2.233900765322716087e+00
1.999999999999909761e+01,2.999999997524435802e+00,1.000000000001978506e+01,6.599999999999988098e-01,1.570000000000099316e+00,2.870000000000000909e+03,-2.174999999999941203e+00,-4.944999999999811990e+00,1.340493284286661435e+01,-2.208124511464275130e+00
1.999999999999927525e+01,2.999999995058008739e+00,1.000000000000239631e+01,6.599999999999374145e-01,1.570000000000104201e+00,2.870000000000000909e+03,-2.174999999999939426e+00,-4.944999999999772911e+00,1.332824910372475991e+01,-2.124595627299076472e+00
1.999999999999926104e+01,2.999999996711382177e+00,9.999999999994500399e+00,6.599999999999979217e-01,1.570000000000094431e+00,2.870000000000001819e+03,-2.174999999999966516e+00,-4.944999999999822649e+00,1.339008043992173036e+01,-2.225574577087269468e+00
2.000000000000127542e+01,3.000000001275383799e+00,9.999999999998498978e+00,6.599999999996842837e-01,1.570000000000247864e+00,2.870000000000000909e+03,-2.175000000000091749e+00,-4.944999999999258655e+00,1.348544420478531691e+01,-2.304608611276011132e+00
2.000000000000089528e+01,3.000000000948050971e+00,1.000000000005029754e+01,6.599999999999128786e-01,1.569999999999966533e+00,2.870000000000001364e+03,-2.174999999999990941e+00,-4.945000000000020712e+00,1.351261174858731096e+01,-2.299151113745586006e+00
1.999999999999921130e+01,3.000000000238187248e+00,1.000000000000870770e+01,6.600000000001541300e-01,1.569999999999941886e+00,2.870000000000001819e+03,-2.174999999999861267e+00,-4.945000000000185914e+00,1.337632151961614113e+01,-2.146034716685832677e+00
1.999999999999929301e+01,2.999999999354913349e+00,1.000000000001333333e+01,6.600000000001273737e-01,1.569999999999988294e+00,2.870000000000001364e+03,-2.174999999999962519e+00,-4.945000000000054463e+00,1.338012701333617649e+01,-2.175536590312438623e+00
1.999999999999995026e+01,2.999999999956459718e+00,1.000000000002398437e+01,6.599999999999731637e-01,1.570000000000054463e+00,2.870000000000000000e+03,-2.174999999999986944e+00,-4.944999999999862617e+00,1.335599021033051592e+01,-2.144281882816188922e+00
1.999999999999885603e+01,3.000000000654143406e+00,1.000000000005229595e+01,6.600000000002632650e-01,1.569999999999829976e+00,2.870000000000002274e+03,-2.174999999999874589e+00,-4.945000000000501217e+00,1.341054352772589198e+01,-2.120405887963408453e+00
1.999999999999928590e+01,2.999999999868559808e+00,1.000000000003438672e+01,6.600000000001372547e-01,1.569999999999855067e+00,2.870000000000002274e+03,-2.174999999999831957e+00,-4.945000000000412399e+00,1.341051034921223639e+01,-2.136262207841733041e+00
1.999999999999952749e+01,2.999999999627267044e+00,1.000000000003002931e+01,6.599999999998420463e-01,1.570000000000183027e+00,2.870000000000001819e+03,-2.174999999999964739e+00,-4.944999999999511786e+00,1.343395996118006686e+01,-2.152061132881540217e+00
1.999999999999974420e+01,3.000000000484665197e+00,1.000000000002895106e+01,6.599999999999236477e-01,1.570000000000183915e+00,2.870000000000001364e+03,-2.174999999999980282e+00,-4.944999999999513562e+00,1.342478162970613376e+01,-2.181400005014320964e+00
1.999999999999916511e+01,3.000000001727517240e+00,1.000000000002547829e+01,6.600000000000887379e-01,1.570000000000040696e+00,2.870000000000001819e+03,-2.174999999999977618e+00,-4.944999999999957652e+00,1.337950070716239992e+01,-2.194397329415628484e+00
1.999999999999946354e+01,2.999999999673077067e+00,1.000000000000634337e+01,6.599999999999851541e-01,1.570000000000112639e+00,2.870000000000001819e+03,-2.174999999999867484e+00,-4.944999999999683205e+00,1.347565098677156037e+01,-2.223010558914463974e+00
1.999999999999953459e+01,3.000000000253550070e+00,9.999999999973331555e+00,6.599999999998025224e-01,1.570000000000274953e+00,2.870000000000001364e+03,-2.174999999999998046e+00,-4.944999999999300400e+00,1.340999663057187696e+01,-2.179473158147625877e+00
1.999999999999923261e+01,3.000000000208510098e+00,1.000000000002107470e+01,6.599999999998253930e-01,1.570000000000308038e+00,2.870000000000001819e+03,-2.174999999999900790e+00,-4.944999999999199147e+00,1.341402923274024417e+01,-2.177367896018332694e+00
1.999999999999940314e+01,3.000000000479401852e+00,1.000000000001719691e+01,6.599999999999239808e-01,1.570000000000146834e+00,2.870000000000002274e+03,-2.174999999999926104e+00,-4.944999999999633467e+00,1.345418138557907284e+01,-2.251416605643628444e+00
1.999999999999866418e+01,2.999999999912960291e+00,1.000000000002924416e+01,6.600000000001123857e-01,1.570000000000104201e+00,2.870000000000001819e+03,-2.174999999999879918e+00,-4.944999999999804885e+00,1.343023867731101362e+01,-2.155369439621548810e+00
1.999999999999872813e+01,2.999999999615019064e+00,1.000000000002436629e+01,6.600000000000812994e-01,1.570000000000066231e+00,2.870000000000001819e+03,-2.174999999999770672e+00,-4.944999999999845741e+00,1.338850979856153423e+01,-2.162764385901337238e+00
2.000000000000085976e+01,3.000000002792229115e+00,9.999999999980573762e+00,6.599999999996943867e-01,1.570000000000375762e+00,2.869999999999998636e+03,-2.175000000000171241e+00,-4.944999999998995754e+00,1.328220411001353796e+01,-2.241029165179548421e+00
2.000000000000113687e+01,3.000000001554677276e+00,1.000000000000795275e+01,6.599999999995610489e-01,1.570000000000498774e+00,2.869999999999999091e+03,-2.175000000000092193e+00,-4.944999999998599627e+00,1.329141660793997737e+01,-2.228860295833991145e+00
2.000000000000148503e+01,3.000000001003100714e+00,9.999999999979113596e+00,6.599999999996480904e-01,1.570000000000260965e+00,2.869999999999998636e+03,-2.175000000000212097e+00,-4.944999999999233786e+00,1.333039007814768340e+01,-2.242255524827248880e+00
2.000000000000017053e+01,2.999999998523437128e+00,1.000000000002983036e+01,6.600000000002799183e-01,1.569999999999688756e+00,2.870000000000001364e+03,-2.174999999999899014e+00,-4.945000000000853824e+00,1.355310583270837199e+01,-2.345766526773244376e+00
2.000000000000211742e+01,2.999999998414378588e+00,1.000000000004118306e+01,6.599999999995840305e-01,1.570000000000338680e+00,2.870000000000001364e+03,-2.175000000000158362e+00,-4.944999999998983320e+00,1.348293040741365445e+01,-2.327163460961937602e+00
1.999999999999950262e+01,2.999999997713570732e+00,9.999999999942016160e+00,6.600000000000039169e-01,1.569999999999996732e+00,2.870000000000002274e+03,-2.174999999999974065e+00,-4.945000000000000284e+00,1.325091958699771943e+01,-2.212535209119656621e+00
1.999999999999957723e+01,2.999999998804701473e+00,9.999999999957616126e+00,6.600000000000117995e-01,1.570000000000008056e+00,2.870000000000001819e+03,-2.174999999999935874e+00,-4.944999999999954099e+00,1.333473750432697003e+01,-2.310307814085599709e+00
1.999999999999869260e+01,2.999999999578700116e+00,9.999999999951276308e+00,6.600000000001707834e-01,1.569999999999896589e+00,2.870000000000002274e+03,-2.174999999999905675e+00,-4.945000000000352003e+00,1.333692063951174056e+01,-2.201108122536600931e+00
1.999999999999871036e+01,2.999999999247620952e+00,9.999999999947567275e+00,6.600000000001621236e-01,1.569999999999887041e+00,2.870000000000001819e+03,-2.174999999999875477e+00,-4.945000000000367102e+00,1.327421298687665363e+01,-2.180493814460751967e+00
1.999999999999961275e+01,3.000000000057774230e+00,9.999999999975674569e+00,6.600000000000186828e-01,1.570000000000044471e+00,2.870000000000001364e+03,-2.174999999999932765e+00,-4.944999999999855511e+00,1.327982516224911080e+01,-2.301764264926591252e+00
2.000000000000081002e+01,2.999999999500736259e+00,1.000000000001993605e+01,6.599999999996715161e-01,1.570000000000252749e+00,2.870000000000000909e+03,-2.174999999999992273e+00,-4.944999999999249773e+00,1.352721069136711840e+01,-2.308320296188123066e+00
1.999999999999990763e+01,3.000000000012166268e+00,1.000000000005036505e+01,6.600000000002465006e-01,1.569999999999779128e+00,2.870000000000001819e+03,-2.174999999999864819e+00,-4.945000000000602469e+00,1.335873529036284779e+01,-2.215015227462546754e+00
2.000000000000028422e+01,2.999999998950502622e+00,9.999999999999321432e+00,6.600000000001139400e-01,1.569999999999885931e+00,2.870000000000000909e+03,-2.174999999999903899e+00,-4.945000000000288054e+00,1.339007677040629574e+01,-2.166511874892222522e+00
2.000000000000048672e+01,2.999999999896493019e+00,9.999999999986501464e+00,6.600000000001760014e-01,1.569999999999720508e+00,2.869999999999999545e+03,-2.174999999999994049e+00,-4.945000000000714380e+00,1.338966435889397388e+01,-2.227117440676624760e+00
2.000000000000106226e+01,2.999999997107285932e+00,1.000000000001987033e+01,6.599999999999577316e-01,1.569999999999966978e+00,2.869999999999998636e+03,-2.175000000000072209e+00,-4.945000000000060680e+00,1.341888183666252310e+01,-2.191607215946247855e+00
2.000000000000040501e+01,2.999999996808583980e+00,1.000000000000791722e+01,6.600000000002380629e-01,1.569999999999700524e+00,2.869999999999998181e+03,-2.175000000000055334e+00,-4.945000000000819185e+00,1.343896544492368861e+01,-2.246859729190455290e+00
2.000000000000159162e+01,2.999999998763541065e+00,1.000000000002748912e+01,6.599999999998413802e-01,1.570000000000000950e+00,2.869999999999999545e+03,-2.175000000000122835e+00,-4.944999999999934559e+00,1.337763647527728317e+01,-2.182125432065674442e+00
2.000000000000171241e+01,2.999999998731302853e+00,9.999999999986073362e+00,6.599999999997890887e-01,1.570000000000064455e+00,2.869999999999996817e+03,-2.175000000000076650e+00,-4.944999999999713403e+00,1.333049619569693256e+01,-2.159802061299740394e+00
2.000000000000117240e+01,2.999999998634851117e+00,1.000000000000306599e+01,6.599999999998983347e-01,1.569999999999997620e+00,2.869999999999998636e+03,-2.175000000000022471e+00,-4.944999999999931894e+00,1.338702071909684932e+01,-2.177600428190475057e+00
2.000000000000008882e+01,2.999999997267867702e+00,1.000000000002955325e+01,6.600000000004290213e-01,1.569999999999505791e+00,2.869999999999996362e+03,-2.174999999999919442e+00,-4.945000000001314788e+00,1.337316692782229843e+01,-2.194936651233216018e+00
2.000000000000133227e+01,2.999999999387291005e+00,9.999999999997678302e+00,6.599999999998549249e-01,1.569999999999971196e+00,2.869999999999997272e+03,-2.175000000000131717e+00,-4.945000000000049134e+00,1.337845213843173120e+01,-2.139174928354875327e+00
2.000000000000081357e+01,2.999999999512993565e+00,1.000000000001961276e+01,6.599999999999316413e-01,1.569999999999937224e+00,2.869999999999997726e+03,-2.175000000000025580e+00,-4.945000000000148610e+00,1.338718210744899295e+01,-2.142076908371682631e+00
1.999999999999954170e+01,2.999999997629402504e+00,1.000000000000546407e+01,6.600000000004953016e-01,1.569999999999450724e+00,2.869999999999998636e+03,-2.175000000000001599e+00,-4.945000000001557261e+00,1.335071902112059306e+01,-2.193362646502294844e+00
1.999999999999932498e+01,3.000000002324183512e+00,1.000000000001829470e+01,6.600000000001062794e-01,1.569999999999967422e+00,2.869999999999997272e+03,-2.174999999999901679e+00,-4.945000000000108642e+00,1.356980883600693133e+01,-2.351932282915048411e+00
1.999999999999977973e+01,2.999999998954974156e+00,1.000000000001242206e+01,6.600000000002189671e-01,1.569999999999760032e+00,2.869999999999995453e+03,-2.174999999999962075e+00,-4.945000000000675300e+00,1.356842429019809693e+01,-2.334814970958880131e+00
2.000000000000026645e+01,3.000000000468129091e+00,1.000000000001959322e+01,6.599999999999885958e-01,1.569999999999945883e+00,2.869999999999995453e+03,-2.175000000000038014e+00,-4.945000000000126406e+00,1.353012996466829598e+01,-2.260713307018236584e+00
1.999999999999962697e+01,2.999999999095267711e+00,9.999999999983513632e+00,6.600000000001876588e-01,1.569999999999878160e+00,2.869999999999994088e+03,-2.174999999999951417e+00,-4.945000000000361773e+00,1.358170498888443412e+01,-2.381893570284189465e+00
1.999999999999864642e+01,3.000000000148954626e+00,9.999999999980563103e+00,6.600000000003857226e-01,1.569999999999778462e+00,2.869999999999997272e+03,-2.174999999999851941e+00,-4.945000000000674412e+00,1.361851538281965546e+01,-2.314092476199301363e+00
1.999999999999980460e+01,2.999999998853434491e+00,9.999999999983380405e+00,6.599999999999762723e-01,1.570000000000091767e+00,2.869999999999996362e+03,-2.174999999999922995e+00,-4.944999999999717843e+00,1.359146228891421515e+01,-2.373910702294998565e+00
1.999999999999971223e+01,3.000000002872357019e+00,1.000000000003398171e+01,6.600000000000424416e-01,1.569999999999966089e+00,2.870000000000000455e+03,-2.174999999999964739e+00,-4.945000000000125517e+00,1.352488149782946891e+01,-2.299057673927101586e+00
1.999999999999986855e+01,2.999999996984057393e+00,1.000000000006137135e+01,6.600000000001368106e-01,1.569999999999924123e+00,2.870000000000002728e+03,-2.174999999999950528e+00,-4.945000000000193907e+00,1.338832949262482508e+01,-2.206380332157284574e+00
1.999999999999972999e+01,2.999999998016524838e+00,1.000000000001575629e+01,6.600000000001015055e-01,1.569999999999952323e+00,2.870000000000002274e+03,-2.174999999999941203e+00,-4.945000000000094431e+00,1.333818689428638926e+01,-2.223785185208114079e+00
1.999999999999971578e+01,2.999999996920119649e+00,1.000000000002383693e+01,6.600000000001144951e-01,1.569999999999973417e+00,2.870000000000001364e+03,-2.174999999999895905e+00,-4.945000000000040252e+00,1.338369941782047334e+01,-2.168804593563069538e+00
1.999999999999958433e+01,2.999999998499621956e+00,1.000000000000677147e+01,6.600000000000393330e-01,1.570000000000006057e+00,2.870000000000001364e+03,-2.174999999999985612e+00,-4.944999999999978080e+00,1.333676852034390414e+01,-2.128315257995518017e+00
1.999999999999954525e+01,2.999999996777582112e+00,1.000000000000838618e+01,6.600000000003483080e-01,1.569999999999712070e+00,2.869999999999999091e+03,-2.174999999999881695e+00,-4.945000000000770335e+00,1.336261406574221589e+01,-2.166076348935503493e+00
2.000000000000066791e+01,2.999999998153340730e+00,1.000000000002913580e+01,6.599999999997709921e-01,1.570000000000199014e+00,2.870000000000001819e+03,-2.174999999999975842e+00,-4.944999999999358131e+00,1.334586574706843720e+01,-2.214223848733488875e+00
2.000000000000005329e+01,2.999999997411693098e+00,1.000000000003781153e+01,6.600000000000086908e-01,1.570000000000060014e+00,2.870000000000000455e+03,-2.175000000000001155e+00,-4.944999999999798668e+00,1.334849601512655504e+01,-2.226027064314889170e+00
1.999999999999867484e+01,2.999999998201087870e+00,1.000000000001099210e+01,6.600000000003789502e-01,1.569999999999769802e+00,2.870000000000001364e+03,-2.174999999999917666e+00,-4.945000000000698392e+00,1.336521920612496395e+01,-2.182692226900148302e+00
1.999999999999991473e+01,3.000000000300982350e+00,9.999999999962474462e+00,6.599999999997311351e-01,1.570000000000397300e+00,2.870000000000000909e+03,-2.175000000000068656e+00,-4.944999999998926477e+00,1.347800656033783895e+01,-2.333037037918182399e+00
2.000000000000000000e+01,2.999999999565625686e+00,9.999999999965778485e+00,6.599999999996972733e-01,1.570000000000298712e+00,2.870000000000001364e+03,-2.175000000000026912e+00,-4.944999999999182272e+00,1.349033950723187303e+01,-2.296613252488358903e+00
1.999999999999881339e+01,2.999999999383866633e+00,9.999999999992322586e+00,6.599999999998121814e-01,1.570000000000459695e+00,2.870000000000001819e+03,-2.174999999999968736e+00,-4.944999999998814566e+00,1.349713230367563810e+01,-2.369772330273816952e+00
2.000000000000086331e+01,3.000000000350278473e+00,1.000000000001309708e+01,6.599999999998985567e-01,1.569999999999953655e+00,2.870000000000002274e+03,-2.175000000000082423e+00,-4.945000000000104201e+00,1.326364587293287478e+01,-2.255490930814775474e+00
1.999999999999950617e+01,2.999999998517024924e+00,9.999999999991809219e+00,6.600000000001285949e-01,1.569999999999919238e+00,2.870000000000001364e+03,-2.174999999999941203e+00,-4.945000000000269402e+00,1.326762566284032907e+01,-2.108070846994573699e+00
1.999999999999961631e+01,2.999999997981789068e+00,9.999999999989585220e+00,6.600000000000336708e-01,1.570000000000012941e+00,2.870000000000002274e+03,-2.174999999999966516e+00,-4.945000000000009166e+00,1.329442994100503483e+01,-2.122892758603114771e+00
2.000000000000000711e+01,2.999999996429245197e+00,9.999999999986933119e+00,6.600000000000307843e-01,1.569999999999944995e+00,2.870000000000001364e+03,-2.175000000000007372e+00,-4.945000000000195683e+00,1.325620170324562075e+01,-2.050207059962297684e+00
1.999999999999913314e+01,2.999999997315178746e+00,1.000000000001215561e+01,6.600000000003038991e-01,1.569999999999740048e+00,2.870000000000001364e+03,-2.174999999999938094e+00,-4.945000000000791651e+00,1.332540226462673871e+01,-2.099852546612997806e+00
2.000000000000001776e+01,2.999999996916532741e+00,1.000000000002892975e+01,6.600000000000585398e-01,1.569999999999935669e+00,2.870000000000000909e+03,-2.174999999999998934e+00,-4.945000000000240092e+00,1.328102718115558289e+01,-2.086667440759035763e+00
1.999999999999979039e+01,2.999999996930696078e+00,1.000000000003969625e+01,6.600000000001077227e-01,1.569999999999887708e+00,2.870000000000001364e+03,-2.175000000000027356e+00,-4.945000000000391971e+00,1.331953847339226904e+01,-2.124848821735536575e+00
1.999999999999995381e+01,3.000000001558459140e+00,1.000000000004026290e+01,6.600000000000690870e-01,1.569999999999873497e+00,2.870000000000001819e+03,-2.175000000000028688e+00,-4.945000000000344897e+00,1.338109661767060210e+01,-2.271295147677003357e+00
1.999999999999969091e+01,3.000000001429929952e+00,1.000000000003113065e+01,6.600000000002129719e-01,1.569999999999790674e+00,2.870000000000001819e+03,-2.174999999999969624e+00,-4.945000000000570495e+00,1.328948181761326275e+01,-2.253400566814878658e+00
1.999999999999975486e+01,3.000000002682339684e+00,9.999999999991590727e+00,6.599999999996959410e-01,1.570000000000396412e+00,2.870000000000001819e+03,-2.175000000000007816e+00,-4.944999999998953122e+00,1.338223152537039873e+01,-2.149771427447602079e+00
1.999999999999896261e+01,3.000000001088544366e+00,9.999999999978282261e+00,6.599999999999470734e-01,1.570000000000211893e+00,2.870000000000001819e+03,-2.174999999999964739e+00,-4.944999999999491358e+00,1.340347057407696774e+01,-2.183568149687851179e+00
1.999999999999960565e+01,3.000000002278446765e+00,9.999999999980461851e+00,6.599999999996054578e-01,1.570000000000453477e+00,2.870000000000001819e+03,-2.174999999999966072e+00,-4.944999999998785256e+00,1.345105393167930075e+01,-2.202316978968823058e+00
1.999999999999936762e+01,3.000000002094399321e+00,9.999999999947183582e+00,6.599999999999109912e-01,1.570000000000107976e+00,2.870000000000001819e+03,-2.175000000000023359e+00,-4.944999999999789786e+00,1.334810804405216444e+01,-2.149767532631348566e+00
1.999999999999961275e+01,3.000000002095486451e+00,9.999999999964293451e+00,6.599999999998643618e-01,1.570000000000253193e+00,2.870000000000002274e+03,-2.175000000000011813e+00,-4.944999999999318163e+00,1.340404691021146633e+01,-2.191300314298710639e+00
1.999999999999887379e+01,3.000000001135437522e+00,1.000000000000212452e+01,6.599999999999953681e-01,1.570000000000181917e+00,2.870000000000001819e+03,-2.174999999999866596e+00,-4.944999999999562412e+00,1.347127636454547961e+01,-2.221708484449584908e+00
1.999999999999845457e+01,3.000000004455896985e+00,9.999999999980177634e+00,6.600000000004224709e-01,1.569999999999643014e+00,2.870000000000001364e+03,-2.174999999999855049e+00,-4.945000000001047447e+00,1.347918278804263892e+01,-2.301192504789167703e+00
1.999999999999902300e+01,3.000000001706643715e+00,1.000000000000391331e+01,6.600000000002739231e-01,1.569999999999808882e+00,2.870000000000001819e+03,-2.174999999999966960e+00,-4.945000000000600693e+00,1.355101396658589863e+01,-2.269999928219537555e+00
1.999999999999925038e+01,2.999999997398803409e+00,9.999999999989579891e+00,6.599999999999273115e-01,1.570000000000080220e+00,2.870000000000001364e+03,-2.175000000000010481e+00,-4.944999999999774687e+00,1.354292276720014065e+01,-2.369639273738680885e+00
2.000000000000184741e+01,3.000000000651541043e+00,9.999999999909663373e+00,6.599999999993583222e-01,1.570000000000511431e+00,2.870000000000001364e+03,-2.175000000000156142e+00,-4.944999999998492157e+00,1.325081042316341673e+01,-2.068954300248318390e+00
2.000000000000108358e+01,3.000000000753229035e+00,9.999999999919626958e+00,6.599999999996244426e-01,1.570000000000294049e+00,2.870000000000000909e+03,-2.175000000000123279e+00,-4.944999999999149409e+00,1.323580674703635296e+01,-2.088510830735228474e+00
2.000000000000161648e+01,2.999999999677712470e+00,9.999999999920399674e+00,6.599999999994945465e-01,1.570000000000389528e+00,2.870000000000000909e+03,-2.175000000000114841e+00,-4.944999999998834106e+00,1.327549279482233047e+01,-2.134606707585789298e+00
2.000000000000214939e+01,3.000000000850181259e+00,9.999999999895022640e+00,6.599999999991806865e-01,1.570000000000678186e+00,2.870000000000002728e+03,-2.175000000000241407e+00,-4.944999999998040074e+00,1.327754090770835305e+01,-2.114219837538786173e+00
2.000000000000127187e+01,2.999999998751091024e+00,9.999999999934241046e+00,6.599999999996738476e-01,1.570000000000241647e+00,2.870000000000001364e+03,-2.175000000000152145e+00,-4.944999999999261320e+00,1.323494030963026091e+01,-2.044671231661137067e+00
2.000000000000014921e+01,2.999999999483837776e+00,9.999999999940046180e+00,6.600000000000491029e-01,1.569999999999911688e+00,2.870000000000000000e+03,-2.174999999999992717e+00,-4.945000000000200124e+00,1.324310842187388104e+01,-2.034633378213613231e+00
1.999999999999975842e+01,2.999999998755577213e+00,9.999999999872295930e+00,6.600000000003458656e-01,1.569999999999642348e+00,2.870000000000000909e+03,-2.175000000000004263e+00,-4.945000000000989715e+00,1.328676095548526703e+01,-2.087369880928146681e+00
1.999999999999991473e+01,2.999999998642250087e+00,9.999999999882097867e+00,6.600000000002375078e-01,1.569999999999754703e+00,2.870000000000001364e+03,-2.175000000000045564e+00,-4.945000000000681517e+00,1.329156696906760970e+01,-2.116691712023832217e+00
2.000000000000119371e+01,3.000000000745705275e+00,9.999999999891304725e+00,6.599999999998397149e-01,1.570000000000051132e+00,2.870000000000001819e+03,-2.175000000000040234e+00,-4.944999999999793339e+00,1.326626016082167503e+01,-2.131081145569591495e+00
1.999999999999980460e+01,3.000000001349310441e+00,9.999999999903712578e+00,6.600000000003061196e-01,1.569999999999686979e+00,2.870000000000001364e+03,-2.174999999999970957e+00,-4.945000000000861817e+00,1.333289013936260226e+01,-2.168668840562744116e+00
2.000000000000022737e+01,2.999999998300186821e+00,1.000000000000745892e+01,6.600000000000163514e-01,1.569999999999976970e+00,2.870000000000001819e+03,-2.174999999999963851e+00,-4.945000000000002949e+00,1.351574392270701175e+01,-2.301236237676238083e+00
2.000000000000169109e+01,2.999999999161043984e+00,9.999999999947098317e+00,6.599999999993086952e-01,1.570000000000537632e+00,2.870000000000001819e+03,-2.175000000000119726e+00,-4.944999999998428208e+00,1.358382029088949849e+01,-2.323371669561567820e+00
2.000000000000049738e+01,2.999999996574489902e+00,9.999999999994326316e+00,6.599999999999799360e-01,1.570000000000042695e+00,2.870000000000001364e+03,-2.175000000000129941e+00,-4.944999999999913243e+00,1.329447168852757599e+01,-2.129495475833446783e+00
2.000000000000048672e+01,2.999999995827320909e+00,1.000000000000030376e+01,6.599999999999293099e-01,1.570000000000105755e+00,2.870000000000001819e+03,-2.175000000000053557e+00,-4.944999999999710738e+00,1.328746351047084318e+01,-2.126341606783994642e+00
2.000000000000143174e+01,2.999999996540495761e+00,1.000000000001168132e+01,6.599999999995387334e-01,1.570000000000320917e+00,2.870000000000000455e+03,-2.175000000000132161e+00,-4.944999999999056151e+00,1.339249487645851922e+01,-2.158096044768178068e+00
2.000000000000153122e+01,2.999999996350148024e+00,1.000000000002095213e+01,6.599999999995270761e-01,1.570000000000331797e+00,2.870000000000001819e+03,-2.175000000000192113e+00,-4.944999999999054374e+00,1.333901764544185120e+01,-2.163444744747100579e+00
2.000000000000164135e+01,2.999999997265187623e+00,1.000000000000630607e+01,6.599999999995785904e-01,1.570000000000294715e+00,2.870000000000000455e+03,-2.175000000000169020e+00,-4.944999999999130758e+00,1.337510374552231696e+01,-2.213708787168093384e+00
2.000000000000206413e+01,2.999999995951748932e+00,9.999999999997795541e+00,6.599999999992612887e-01,1.570000000000659091e+00,2.870000000000002274e+03,-2.175000000000166800e+00,-4.944999999998097806e+00,1.335849543756228286e+01,-2.202844689847729853e+00
2.000000000000075318e+01,2.999999998296129178e+00,9.999999999998095745e+00,6.599999999993120259e-01,1.570000000000618678e+00,2.870000000000001819e+03,-2.175000000000100631e+00,-4.944999999998279883e+00,1.334418118859256452e+01,-2.231393332322678003e+00
2.000000000000045119e+01,2.999999998139423862e+00,1.000000000004272316e+01,6.599999999996940536e-01,1.570000000000286722e+00,2.870000000000000909e+03,-2.174999999999980282e+00,-4.944999999999167173e+00,1.343471283506952041e+01,-2.269312929364143638e+00
2.000000000000044409e+01,2.999999996835573501e+00,9.999999999949162444e+00,6.599999999997206990e-01,1.570000000000323359e+00,2.870000000000001819e+03,-2.175000000000087308e+00,-4.944999999999085460e+00,1.327277401374964505e+01,-2.195299104357514075e+00
1.999999999999918288e+01,3.000000000995498795e+00,1.000000000002532907e+01,6.600000000002673728e-01,1.569999999999767804e+00,2.870000000000001364e+03,-2.174999999999897238e+00,-4.945000000000653095e+00,1.340085266492701876e+01,-2.130257816880132715e+00
1.999999999999997513e+01,3.000000000521054311e+00,9.999999999995441868e+00,6.599999999999578426e-01,1.570000000000042917e+00,2.870000000000001819e+03,-2.175000000000057554e+00,-4.944999999999895479e+00,1.340100638346650008e+01,-2.108474305372641133e+00
1.999999999999944578e+01,2.999999999603728540e+00,9.999999999947688067e+00,6.600000000002764766e-01,1.569999999999738938e+00,2.870000000000000909e+03,-2.174999999999941647e+00,-4.945000000000723261e+00,1.327174300536121621e+01,-2.283015208138070129e+00
2.000000000000055422e+01,3.000000000839253111e+00,9.999999999901941550e+00,6.599999999998718003e-01,1.570000000000159268e+00,2.870000000000000000e+03,-2.174999999999995826e+00,-4.944999999999503792e+00,1.324951531600150467e+01,-2.305757049304811623e+00
2.000000000000031264e+01,2.999999997349218184e+00,1.000000000003140599e+01,6.599999999999234257e-01,1.570000000000067786e+00,2.870000000000001819e+03,-2.175000000000079758e+00,-4.944999999999859064e+00,1.325520683129301958e+01,-2.242603357397673580e+00
2.000000000000039790e+01,2.999999999182731969e+00,1.000000000002761347e+01,6.599999999997357980e-01,1.570000000000235874e+00,2.870000000000002274e+03,-2.175000000000014477e+00,-4.944999999999347473e+00,1.324195445119100789e+01,-2.343234042816099372e+00
2.000000000000083844e+01,2.999999998401522650e+00,1.000000000003109513e+01,6.599999999998027445e-01,1.570000000000153495e+00,2.870000000000001364e+03,-2.175000000000136158e+00,-4.944999999999560636e+00,1.324125443960145176e+01,-2.342109894674291759e+00
1.999999999999905498e+01,2.999999998220958197e+00,9.999999999944220619e+00,6.600000000001532419e-01,1.570000000000056239e+00,2.870000000000001819e+03,-2.174999999999936318e+00,-4.944999999999909690e+00,1.333249830176081652e+01,-2.277497067127855601e+00
2.000000000000116174e+01,2.999999998752975294e+00,9.999999999947512208e+00,6.599999999996274402e-01,1.570000000000240981e+00,2.870000000000000000e+03,-2.175000000000244516e+00,-4.944999999999303064e+00,1.336982200907859664e+01,-2.237493913873310092e+00
2.000000000000021316e+01,2.999999996761877341e+00,9.999999999924932936e+00,6.599999999997122613e-01,1.570000000000467910e+00,2.870000000000001819e+03,-2.174999999999950084e+00,-4.944999999998701767e+00,1.338183733689353261e+01,-2.227978157714978202e+00
2.000000000000005329e+01,2.999999996794305179e+00,9.999999999919365834e+00,6.599999999999254241e-01,1.570000000000177476e+00,2.869999999999999545e+03,-2.174999999999945643e+00,-4.944999999999524221e+00,1.335012695558935114e+01,-2.167604545613279754e+00
2.000000000000047251e+01,2.999999996629001853e+00,9.999999999925526240e+00,6.599999999994770050e-01,1.570000000000519425e+00,2.870000000000002274e+03,-2.175000000000075762e+00,-4.944999999998541895e+00,1.335210362424975550e+01,-2.326297304528075482e+00
1.999999999999937472e+01,2.999999999872241307e+00,1.000000000000432188e+01,6.600000000002145262e-01,1.569999999999757367e+00,2.870000000000001819e+03,-2.174999999999954969e+00,-4.945000000000738360e+00,1.341518364729987489e+01,-2.190965866032691167e+00
2.000000000000023803e+01,2.999999999593245370e+00,9.999999999993546496e+00,6.599999999997567812e-01,1.570000000000171481e+00,2.870000000000002274e+03,-2.175000000000026468e+00,-4.944999999999539320e+00,1.339544546082928633e+01,-2.196190418414908585e+00
1.999999999999946709e+01,3.000000000341380257e+00,9.999999999991979749e+00,6.600000000002818057e-01,1.569999999999721174e+00,2.870000000000002274e+03,-2.174999999999977618e+00,-4.945000000000853824e+00,1.336916474791171616e+01,-2.133922156188784225e+00
1.999999999999908695e+01,2.999999998692478798e+00,1.000000000001888623e+01,6.600000000004266898e-01,1.569999999999621920e+00,2.870000000000000909e+03,-2.174999999999906120e+00,-4.945000000001116724e+00,1.335597636896364548e+01,-2.187059363781410859e+00
2.000000000000134648e+01,2.999999999305890341e+00,9.999999999986085797e+00,6.599999999995638245e-01,1.570000000000321139e+00,2.870000000000002728e+03,-2.175000000000230749e+00,-4.944999999999132534e+00,1.334025697710793956e+01,-2.246508809930054085e+00
2.000000000000087752e+01,3.000000000675325129e+00,9.999999999977934095e+00,6.599999999998071853e-01,1.570000000000052021e+00,2.870000000000002274e+03,-2.175000000000248068e+00,-4.944999999999886597e+00,1.334077263859958506e+01,-2.156867662653934481e+00
1.999999999999904077e+01,3.000000001453374310e+00,9.999999999956740382e+00,6.600000000000680878e-01,1.569999999999913465e+00,2.870000000000001819e+03,-2.174999999999974509e+00,-4.945000000000329798e+00,1.339318833667364217e+01,-2.228032179561853621e+00
1.999999999999968736e+01,3.000000000261802136e+00,9.999999999943918638e+00,6.599999999999318634e-01,1.570000000000049356e+00,2.870000000000002274e+03,-2.174999999999972733e+00,-4.944999999999882156e+00,1.334668617697062842e+01,-2.219234088114901748e+00
1.999999999999793232e+01,3.000000000659358346e+00,9.999999999985998755e+00,6.600000000007458789e-01,1.569999999999343254e+00,2.869999999999999545e+03,-2.174999999999832401e+00,-4.945000000001922302e+00,1.340660644449202010e+01,-2.243498143402665068e+00
1.999999999999946709e+01,3.000000002625108575e+00,1.000000000005489476e+01,6.600000000002487210e-01,1.569999999999801554e+00,2.870000000000001364e+03,-2.174999999999950084e+00,-4.945000000000565166e+00,1.343196000108175170e+01,-2.266698693927286179e+00
1.999999999999983658e+01,3.000000002787427178e+00,1.000000000004213341e+01,6.600000000002841372e-01,1.569999999999751372e+00,2.870000000000000909e+03,-2.175000000000043343e+00,-4.945000000000696616e+00,1.340075776028048260e+01,-2.141604332593247673e+00
1.999999999999883471e+01,2.999999997649178241e+00,1.000000000000316547e+01,6.600000000005478151e-01,1.569999999999495133e+00,2.869999999999999091e+03,-2.174999999999958522e+00,-4.945000000001452456e+00,1.337004255426816535e+01,-2.158728285531752000e+00
1.999999999999917222e+01,2.999999998817864277e+00,9.999999999995562661e+00,6.600000000003410916e-01,1.569999999999646789e+00,2.870000000000001819e+03,-2.174999999999946088e+00,-4.945000000001002149e+00,1.336321933429639053e+01,-2.135406438889268621e+00
1.999999999999888800e+01,2.999999998995325878e+00,9.999999999990407673e+00,6.600000000004266898e-01,1.569999999999666329e+00,2.870000000000001364e+03,-2.174999999999923883e+00,-4.945000000000991491e+00,1.335507845752010958e+01,-2.141485017891776366e+00
1.999999999999966960e+01,2.999999998827021841e+00,9.999999999979433341e+00,6.600000000001160494e-01,1.569999999999920792e+00,2.870000000000000909e+03,-2.175000000000030465e+00,-4.945000000000261409e+00,1.332175308342103648e+01,-2.122958520108543912e+00
1.999999999999908340e+01,2.999999998387554268e+00,1.000000000000874856e+01,6.600000000004062617e-01,1.569999999999693641e+00,2.870000000000001364e+03,-2.174999999999950528e+00,-4.945000000000900009e+00,1.335670649945521582e+01,-2.160953481091892225e+00
1.999999999999893774e+01,2.999999997990823619e+00,9.999999999999424460e+00,6.600000000004151435e-01,1.569999999999700746e+00,2.870000000000000909e+03,-2.174999999999982059e+00,-4.945000000000899121e+00,1.331552623608901875e+01,-2.133934181810322794e+00
1.999999999999990408e+01,2.999999998526146960e+00,1.000000000000050449e+01,6.600000000001319256e-01,1.569999999999857510e+00,2.870000000000001819e+03,-2.174999999999958078e+00,-4.945000000000375984e+00,1.337173660699940747e+01,-2.149117367831201442e+00
1.999999999999850786e+01,2.999999997062115398e+00,9.999999999995967670e+00,6.600000000004732081e-01,1.569999999999561302e+00,2.870000000000001364e+03,-2.174999999999835953e+00,-4.945000000001240181e+00,1.342160835514740747e+01,-2.158901214599134644e+00
1.999999999999814904e+01,2.999999999410862817e+00,1.000000000001465494e+01,6.600000000005812328e-01,1.569999999999542872e+00,2.870000000000000909e+03,-2.174999999999850608e+00,-4.945000000001328111e+00,1.335998539233989213e+01,-2.129056012694112709e+00
1.999999999999958078e+01,2.999999998674463875e+00,1.000000000001459632e+01,6.600000000000357803e-01,1.569999999999955209e+00,2.870000000000001364e+03,-2.174999999999987832e+00,-4.945000000000163709e+00,1.335821702277888257e+01,-2.187511537084652957e+00
1.999999999999826628e+01,2.999999997810282704e+00,9.999999999981962873e+00,6.600000000004738743e-01,1.569999999999563745e+00,2.870000000000001364e+03,-2.174999999999905231e+00,-4.945000000001281926e+00,1.339892140980595059e+01,-2.083080317838280404e+00
1.999999999999888445e+01,2.999999997572682986e+00,9.999999999964265029e+00,6.600000000002730349e-01,1.569999999999740714e+00,2.870000000000001819e+03,-2.174999999999907896e+00,-4.945000000000737472e+00,1.337156832555940866e+01,-2.100790509078552137e+00
1.999999999999939604e+01,2.999999998225003850e+00,9.999999999998626876e+00,6.600000000000513234e-01,1.569999999999976970e+00,2.870000000000001819e+03,-2.174999999999959854e+00,-4.945000000000111307e+00,1.336416770953120192e+01,-2.140032675823283270e+00
1.999999999999883116e+01,2.999999999563470077e+00,1.000000000000866152e+01,6.600000000001763345e-01,1.569999999999960316e+00,2.870000000000001819e+03,-2.174999999999881251e+00,-4.945000000000161933e+00,1.331984687355614483e+01,-2.211684657271032695e+00
1.999999999999914024e+01,2.999999998676680768e+00,9.999999999978616216e+00,6.600000000001029488e-01,1.569999999999951656e+00,2.870000000000002274e+03,-2.174999999999950973e+00,-4.945000000000169038e+00,1.334587943116884645e+01,-2.159418927800053289e+00
1.999999999999901590e+01,2.999999999165737119e+00,9.999999999969604758e+00,6.600000000001868816e-01,1.569999999999844409e+00,2.870000000000001819e+03,-2.174999999999917222e+00,-4.945000000000470131e+00,1.334547623867673138e+01,-2.148493075382686079e+00
1.999999999999837996e+01,2.999999999533012218e+00,1.000000000001564082e+01,6.600000000003627409e-01,1.569999999999672546e+00,2.870000000000001364e+03,-2.174999999999846167e+00,-4.945000000000958629e+00,1.336612640169512645e+01,-2.180988837856374207e+00
1.999999999999834088e+01,3.000000000073959949e+00,9.999999999994363620e+00,6.600000000003756195e-01,1.569999999999683649e+00,2.870000000000001364e+03,-2.174999999999854161e+00,-4.945000000000932872e+00,1.332087980402997118e+01,-2.124714025397571593e+00
1.999999999999816325e+01,2.999999997963830101e+00,9.999999999967059239e+00,6.600000000004054845e-01,1.569999999999709850e+00,2.870000000000001819e+03,-2.174999999999836398e+00,-4.945000000000887574e+00,1.331253234210879910e+01,-2.044324889549872015e+00
1.999999999999823430e+01,2.999999997558684850e+00,9.999999999957889685e+00,6.600000000003318767e-01,1.569999999999781570e+00,2.870000000000001819e+03,-2.174999999999831957e+00,-4.945000000000663753e+00,1.336428363276555764e+01,-2.124029842737084728e+00
1.999999999999860023e+01,2.999999998779584232e+00,9.999999999994068745e+00,6.600000000004020428e-01,1.569999999999768914e+00,2.870000000000000909e+03,-2.174999999999841727e+00,-4.945000000000659313e+00,1.337316158337545957e+01,-2.212762917249542216e+00
1.999999999999753086e+01,3.000000000920775900e+00,9.999999999970457409e+00,6.600000000004470069e-01,1.569999999999796225e+00,2.870000000000001819e+03,-2.174999999999740030e+00,-4.945000000000615792e+00,1.340234616914882970e+01,-2.175534984015607520e+00
1.999999999999789679e+01,2.999999999808944384e+00,9.999999999994789945e+00,6.600000000003871659e-01,1.569999999999760920e+00,2.870000000000001364e+03,-2.174999999999788436e+00,-4.945000000000734808e+00,1.345657746290055101e+01,-2.196419397933624840e+00
1.999999999999816680e+01,2.999999998543894097e+00,9.999999999963032238e+00,6.600000000005150635e-01,1.569999999999625695e+00,2.870000000000001364e+03,-2.174999999999799094e+00,-4.945000000001066098e+00,1.342747157816878456e+01,-2.145639760037370003e+00
1.999999999999832667e+01,2.999999999317081389e+00,1.000000000000333600e+01,6.600000000002521627e-01,1.569999999999866391e+00,2.870000000000001819e+03,-2.174999999999927436e+00,-4.945000000000472795e+00,1.339150851977506207e+01,-2.221969464551941886e+00
1.999999999999776534e+01,2.999999997765534054e+00,9.999999999981035614e+00,6.600000000005759038e-01,1.569999999999559304e+00,2.870000000000001819e+03,-2.174999999999798206e+00,-4.945000000001311236e+00,1.340386276456163372e+01,-2.110877977068752465e+00
1.999999999999807798e+01,2.999999997946289021e+00,9.999999999990235366e+00,6.600000000004154765e-01,1.569999999999718066e+00,2.870000000000002728e+03,-2.174999999999704059e+00,-4.945000000000814744e+00,1.337138159894080935e+01,-2.084483050978512608e+00
2.000000000000099476e+01,3.000000000862225846e+00,1.000000000003071854e+01,6.599999999997422373e-01,1.570000000000227436e+00,2.870000000000002274e+03,-2.175000000000022915e+00,-4.944999999999346585e+00,1.339149925379964934e+01,-2.188650304466833951e+00
2.000000000000015277e+01,3.000000000909831321e+00,1.000000000003375611e+01,6.600000000000174616e-01,1.570000000000012053e+00,2.870000000000001819e+03,-2.175000000000011813e+00,-4.944999999999990514e+00,1.341819424039437081e+01,-2.151846123772619190e+00
2.000000000000099831e+01,2.999999998231596354e+00,9.999999999956717289e+00,6.599999999997456790e-01,1.570000000000186580e+00,2.870000000000001819e+03,-2.175000000000038458e+00,-4.944999999999418527e+00,1.345266754907734885e+01,-2.171884237416364716e+00
2.000000000000159517e+01,2.999999998244563759e+00,9.999999999946139084e+00,6.599999999994778932e-01,1.570000000000457030e+00,2.870000000000002274e+03,-2.175000000000117506e+00,-4.944999999998664464e+00,1.345982872240939088e+01,-2.217947736209624043e+00
2.000000000000090239e+01,3.000000000157499791e+00,9.999999999925117677e+00,6.599999999997280264e-01,1.570000000000302931e+00,2.870000000000001364e+03,-2.175000000000072209e+00,-4.944999999999143192e+00,1.345292332970733007e+01,-2.165714272678834096e+00
2.000000000000149214e+01,3.000000000356116026e+00,9.999999999943980811e+00,6.599999999997618882e-01,1.570000000000180584e+00,2.870000000000001819e+03,-2.175000000000082867e+00,-4.944999999999460272e+00,1.339185638710268478e+01,-2.205495713056724760e+00
2.000000000000076383e+01,2.999999999896600045e+00,9.999999999943309348e+00,6.599999999998759082e-01,1.569999999999987406e+00,2.870000000000000455e+03,-2.175000000000149480e+00,-4.944999999999991402e+00,1.340280475888254585e+01,-2.170321332811246062e+00
2.000000000000169464e+01,2.999999999923452787e+00,9.999999999928553152e+00,6.599999999996294386e-01,1.570000000000184581e+00,2.870000000000000000e+03,-2.175000000000173905e+00,-4.944999999999417639e+00,1.343875826805444618e+01,-2.233936686221156265e+00
2.000000000000128253e+01,2.999999999315339672e+00,9.999999999951260321e+00,6.599999999998019673e-01,1.570000000000070672e+00,2.870000000000000455e+03,-2.175000000000191669e+00,-4.944999999999790674e+00,1.337974254954134068e+01,-2.218694409180349325e+00
2.000000000000140687e+01,2.999999998751201158e+00,9.999999999962380315e+00,6.599999999998937827e-01,1.569999999999954987e+00,2.869999999999998636e+03,-2.175000000000166800e+00,-4.945000000000078444e+00,1.340988901470676353e+01,-2.186015575474321793e+00
2.000000000000122924e+01,2.999999999495348568e+00,9.999999999933336881e+00,6.599999999998261702e-01,1.570000000000064233e+00,2.870000000000000909e+03,-2.175000000000171685e+00,-4.944999999999785345e+00,1.340869257077645926e+01,-2.162702233802801910e+00
2.000000000000016342e+01,2.999999998653172018e+00,9.999999999952091656e+00,6.600000000001727818e-01,1.569999999999821094e+00,2.870000000000001364e+03,-2.175000000000062883e+00,-4.945000000000511875e+00,1.337859765026209402e+01,-2.172219148465413863e+00
2.000000000000132161e+01,2.999999998826974323e+00,9.999999999942003726e+00,6.599999999997857580e-01,1.570000000000138618e+00,2.870000000000001364e+03,-2.175000000000069100e+00,-4.944999999999529550e+00,1.332536528948720900e+01,-2.178692763328921700e+00
2.000000000000173728e+01,2.999999999962395858e+00,9.999999999925817562e+00,6.599999999996785105e-01,1.570000000000190576e+00,2.870000000000000455e+03,-2.175000000000230305e+00,-4.944999999999409646e+00,1.333791483106014297e+01,-2.115803313631558602e+00
2.000000000000193978e+01,2.999999997727264667e+00,9.999999999949251261e+00,6.599999999996529754e-01,1.570000000000194351e+00,2.870000000000000455e+03,-2.175000000000173461e+00,-4.944999999999405205e+00,1.343406563626949435e+01,-2.144453637260054002e+00
2.000000000000255795e+01,3.000000000375847353e+00,9.999999999920827776e+00,6.599999999992361976e-01,1.570000000000545848e+00,2.870000000000000455e+03,-2.175000000000315570e+00,-4.944999999998398899e+00,1.342401534301198751e+01,-2.173491371472219935e+00
2.000000000000232347e+01,2.999999999164850717e+00,9.999999999928244065e+00,6.599999999993761968e-01,1.570000000000425278e+00,2.870000000000000000e+03,-2.175000000000304468e+00,-4.944999999998746176e+00,1.339101358084519866e+01,-2.202102762271379799e+00
1.999999999999967315e+01,2.999999995391324337e+00,1.000000000003063860e+01,6.599999999999712763e-01,1.570000000000021378e+00,2.870000000000001364e+03,-2.174999999999942535e+00,-4.944999999999960316e+00,1.348059954798202220e+01,-2.205629623782596305e+00
1.999999999999984013e+01,2.999999995506676065e+00,1.000000000000223643e+01,6.599999999998358291e-01,1.570000000000116858e+00,2.870000000000001819e+03,-2.174999999999995381e+00,-4.944999999999713403e+00,1.346318603120904100e+01,-2.165346476899583816e+00
2.000000000000120437e+01,3.000000001066386091e+00,1.000000000002877520e+01,6.599999999995236344e-01,1.570000000000481677e+00,2.869999999999999545e+03,-2.175000000000105960e+00,-4.944999999998640483e+00,1.339337350585664943e+01,-2.305723891358541167e+00
2.000000000000147793e+01,2.999999998361384979e+00,1.000000000000405009e+01,6.599999999993836353e-01,1.570000000000572049e+00,2.870000000000000455e+03,-2.175000000000218758e+00,-4.944999999998394458e+00,1.326274365778924924e+01,-2.177853148000187478e+00
2.000000000000137845e+01,2.999999999239892912e+00,1.000000000000211386e+01,6.599999999993821920e-01,1.570000000000603135e+00,2.870000000000000909e+03,-2.175000000000272937e+00,-4.944999999998351825e+00,1.324636124541395077e+01,-2.191555066583617872e+00
2.000000000000035882e+01,3.000000002038658131e+00,1.000000000003640288e+01,6.599999999999326405e-01,1.570000000000104645e+00,2.869999999999997726e+03,-2.174999999999999378e+00,-4.944999999999677875e+00,1.336207686370227599e+01,-2.274248837456965155e+00
1.999999999999922196e+01,3.000000000617514928e+00,1.000000000001414335e+01,6.600000000003587441e-01,1.569999999999746043e+00,2.870000000000000909e+03,-2.174999999999980727e+00,-4.945000000000755236e+00,1.330014103386207047e+01,-2.250966199190774120e+00
1.999999999999990408e+01,2.999999999932255967e+00,1.000000000001197975e+01,6.599999999999238698e-01,1.570000000000144169e+00,2.870000000000001364e+03,-2.175000000000009148e+00,-4.944999999999638796e+00,1.330561548417973405e+01,-2.308969605218428978e+00
1.999999999999906208e+01,3.000000000433558522e+00,1.000000000001874234e+01,6.600000000001556844e-01,1.569999999999982299e+00,2.870000000000001819e+03,-2.174999999999859490e+00,-4.945000000000067786e+00,1.330644483625737529e+01,-2.283411393367341002e+00
1.999999999999842615e+01,2.999999997666280560e+00,1.000000000001009504e+01,6.600000000000938449e-01,1.570000000000041807e+00,2.870000000000002274e+03,-2.174999999999802647e+00,-4.945000000000010054e+00,1.335211888882254172e+01,-2.208531651016252706e+00
1.999999999999898392e+01,2.999999998671077694e+00,9.999999999994923172e+00,6.599999999999893729e-01,1.570000000000091545e+00,2.870000000000001364e+03,-2.174999999999924771e+00,-4.944999999999867057e+00,1.325052640270906856e+01,-2.195589677650734206e+00
1.999999999999948486e+01,2.999999999119924876e+00,9.999999999991830535e+00,6.599999999999951461e-01,1.570000000000065121e+00,2.870000000000000909e+03,-2.174999999999927880e+00,-4.944999999999903473e+00,1.328340636039623668e+01,-2.313648259872253643e+00
1.999999999999952394e+01,2.999999999960791808e+00,1.000000000000060574e+01,6.599999999998298339e-01,1.570000000000288498e+00,2.870000000000000909e+03,-2.174999999999927880e+00,-4.944999999999285301e+00,1.324008412242918098e+01,-2.284323593788823992e+00
2.000000000000025580e+01,3.000000000557725421e+00,1.000000000001027622e+01,6.599999999996838396e-01,1.570000000000255636e+00,2.870000000000001819e+03,-2.175000000000081979e+00,-4.944999999999307505e+00,1.333017525561010785e+01,-2.333154888786174386e+00
