2.000000000000040146e+01,3.000000001863113663e+00,1.000000000001694467e+01,6.599999999995485034e-01,1.570000000000167706e+00,2.870000000000001819e+03,-2.175000000000308020e+00,-4.944999999999502016e+00,1.341457509963640859e+01,-2.170562907766357963e+00
2.000000000000068923e+01,2.999999999324525213e+00,1.000000000003117506e+01,6.599999999999872635e-01,1.570000000000202789e+00,2.870000000000001819e+03,-2.174999999999787104e+00,-4.944999999999439844e+00,1.338733604414866640e+01,-2.149044835163773648e+00
2.000000000000048672e+01,2.999999998971079496e+00,1.000000000003113954e+01,6.599999999998992228e-01,1.570000000000264517e+00,2.870000000000001819e+03,-2.174999999999803091e+00,-4.944999999999186713e+00,1.338850274253685768e+01,-2.147162772228122574e+00
2.000000000000078515e+01,2.999999998846211824e+00,1.000000000003268141e+01,6.599999999997877564e-01,1.570000000000109308e+00,2.870000000000001819e+03,-2.175000000000123279e+00,-4.944999999999724061e+00,1.339882894847809958e+01,-2.166845036334970054e+00
1.999999999999844036e+01,2.999999998868262185e+00,9.999999999968792963e+00,6.599999999997760991e-01,1.570000000000001172e+00,2.870000000000001819e+03,-2.175000000000130829e+00,-4.945000000000037588e+00,1.343876842230579527e+01,-2.168473677367993346e+00
2.000000000000017053e+01,2.999999998468260376e+00,9.999999999961509900e+00,6.599999999995055378e-01,1.570000000000076223e+00,2.870000000000001819e+03,-2.175000000000345768e+00,-4.944999999999879492e+00,1.343549751533493719e+01,-2.170864325776084680e+00
1.999999999999944578e+01,2.999999998751485819e+00,9.999999999971290521e+00,6.600000000000939560e-01,1.569999999999933005e+00,2.870000000000001819e+03,-2.174999999999965627e+00,-4.945000000000224993e+00,1.343589558694049835e+01,-2.164654240872189828e+00
2.000000000000104805e+01,2.999999998761489373e+00,1.000000000002996003e+01,6.599999999997402389e-01,1.570000000000060902e+00,2.870000000000001819e+03,-2.175000000000151701e+00,-4.944999999999874163e+00,1.337415960135606419e+01,-2.186720808813393369e+00
1.999999999999888090e+01,2.999999998811980539e+00,1.000000000003121059e+01,6.600000000000207923e-01,1.570000000000007168e+00,2.870000000000001819e+03,-2.174999999999972733e+00,-4.945000000000027818e+00,1.341742554638765128e+01,-2.185324287893903428e+00
1.999999999999812772e+01,2.999999996455579687e+00,9.999999999971898035e+00,6.600000000001641220e-01,1.569999999999812879e+00,2.870000000000001819e+03,-2.174999999999983391e+00,-4.945000000000355556e+00,1.340578240026583678e+01,-2.158124520871912644e+00
1.999999999999953815e+01,2.999999999360297487e+00,1.000000000001947420e+01,6.599999999999228706e-01,1.570000000000026930e+00,2.870000000000001364e+03,-2.175000000000035794e+00,-4.944999999999952323e+00,1.341153096135381340e+01,-2.167914962371866316e+00
1.999999999999907274e+01,2.999999995895707094e+00,9.999999999990629718e+00,6.599999999999928146e-01,1.570000000000032037e+00,2.870000000000001819e+03,-2.174999999999947420e+00,-4.944999999999877716e+00,1.342674545678744202e+01,-2.168895510465654208e+00
1.999999999999715428e+01,2.999999995261467767e+00,1.000000000003857537e+01,6.600000000004413447e-01,1.569999999999774243e+00,2.870000000000001819e+03,-2.174999999999783551e+00,-4.945000000000687734e+00,1.341593245631112907e+01,-2.159995873038349057e+00
1.999999999999938183e+01,2.999999999931360684e+00,9.999999999995525357e+00,6.599999999999385247e-01,1.569999999999964091e+00,2.870000000000001819e+03,-2.175000000000131717e+00,-4.945000000000109530e+00,1.340563965844089545e+01,-2.177954789966062954e+00
1.999999999999948130e+01,2.999999998474496721e+00,9.999999999951844742e+00,6.599999999999126565e-01,1.569999999999968088e+00,2.870000000000001819e+03,-2.175000000000115730e+00,-4.945000000000042029e+00,1.342075900222681639e+01,-2.158150580226247506e+00
1.999999999999807088e+01,2.999999996590107187e+00,1.000000000002382095e+01,6.600000000002865796e-01,1.569999999999651896e+00,2.870000000000001819e+03,-2.175000000000014921e+00,-4.945000000000922213e+00,1.340911763925642042e+01,-2.144099511743153386e+00
1.999999999999871392e+01,2.999999996919490819e+00,9.999999999958737007e+00,6.600000000000266764e-01,1.569999999999920126e+00,2.870000000000001364e+03,-2.175000000000007816e+00,-4.945000000000300489e+00,1.342359665050664930e+01,-2.172618443388866893e+00
2.000000000000117240e+01,2.999999998694165004e+00,9.999999999998102851e+00,6.599999999996812861e-01,1.570000000000085327e+00,2.870000000000001819e+03,-2.175000000000244960e+00,-4.944999999999846629e+00,1.342665989623818490e+01,-2.146260412881975999e+00
1.999999999999914380e+01,3.000000000904941455e+00,1.000000000004569500e+01,6.600000000001862155e-01,1.569999999999789342e+00,2.870000000000001819e+03,-2.174999999999974509e+00,-4.945000000000563389e+00,1.342342032494702231e+01,-2.176912687491463050e+00
2.000000000000040856e+01,3.000000000252936783e+00,1.000000000006090062e+01,6.600000000000231237e-01,1.569999999999873275e+00,2.870000000000001819e+03,-2.175000000000112621e+00,-4.945000000000487006e+00,1.341280672892254522e+01,-2.160217958043465281e+00
2.000000000000044054e+01,2.999999999982407406e+00,9.999999999986957988e+00,6.600000000003514167e-01,1.569999999999612594e+00,2.870000000000001819e+03,-2.175000000000152589e+00,-4.945000000001369855e+00,1.339395714043669017e+01,-2.183169851684835017e+00
1.999999999999954525e+01,3.000000000542482503e+00,1.000000000004748024e+01,6.599999999996943867e-01,1.570000000000184803e+00,2.870000000000001819e+03,-2.175000000000086864e+00,-4.944999999999545537e+00,1.340721565463647025e+01,-2.194264075037147155e+00
1.999999999999934275e+01,3.000000001800177785e+00,1.000000000001664979e+01,6.600000000003884981e-01,1.569999999999583951e+00,2.870000000000001819e+03,-2.175000000000006040e+00,-4.945000000001292584e+00,1.340144887593031875e+01,-2.155062518117520476e+00
1.999999999999996803e+01,2.999999999662728456e+00,1.000000000001007017e+01,6.599999999997874234e-01,1.569999999999974527e+00,2.870000000000001819e+03,-2.175000000000189448e+00,-4.945000000000116636e+00,1.343236789929632380e+01,-2.170571223173183295e+00
1.999999999999945288e+01,2.999999998881177632e+00,9.999999999980882848e+00,6.599999999998872324e-01,1.569999999999890594e+00,2.870000000000001819e+03,-2.175000000000084199e+00,-4.945000000000320917e+00,1.342445435171054413e+01,-2.177248255507006292e+00
1.999999999999897327e+01,2.999999999486023139e+00,1.000000000001608313e+01,6.600000000002961276e-01,1.569999999999891260e+00,2.870000000000001819e+03,-2.174999999999714717e+00,-4.945000000000361773e+00,1.342563720262604221e+01,-2.175852139041922317e+00
2.000000000000021316e+01,2.999999997979462041e+00,9.999999999963586461e+00,6.599999999999581757e-01,1.569999999999902141e+00,2.870000000000001819e+03,-2.175000000000058886e+00,-4.945000000000215223e+00,1.340204020595061785e+01,-2.148001512379229094e+00
1.999999999999982236e+01,2.999999999526794969e+00,1.000000000002066969e+01,6.600000000003367617e-01,1.569999999999807772e+00,2.870000000000001364e+03,-2.174999999999810640e+00,-4.945000000000574047e+00,1.339652100250142475e+01,-2.147391278436823647e+00
1.999999999999895195e+01,2.999999999363766712e+00,1.000000000001137579e+01,6.600000000002133049e-01,1.569999999999698526e+00,2.870000000000001819e+03,-2.175000000000101519e+00,-4.945000000000832507e+00,1.339400929567800702e+01,-2.186346549999167888e+00
1.999999999999991473e+01,2.999999999089994596e+00,1.000000000001164580e+01,6.600000000000639799e-01,1.569999999999886597e+00,2.870000000000001819e+03,-2.175000000000038014e+00,-4.945000000000479012e+00,1.340074718948560673e+01,-2.172469805482916350e+00
2.000000000000027356e+01,2.999999997281195263e+00,1.000000000003858069e+01,6.600000000001537970e-01,1.569999999999793117e+00,2.870000000000001819e+03,-2.175000000000027800e+00,-4.945000000000700169e+00,1.342666640864028516e+01,-2.166176774001033589e+00
1.999999999999932143e+01,2.999999996451529594e+00,9.999999999997006839e+00,6.600000000003243272e-01,1.569999999999835527e+00,2.870000000000001819e+03,-2.174999999999858158e+00,-4.945000000000487894e+00,1.342165047251838317e+01,-2.148082742250466470e+00
1.999999999999976552e+01,2.999999999463472289e+00,1.000000000005009859e+01,6.599999999999285327e-01,1.570000000000046025e+00,2.870000000000001819e+03,-2.174999999999965627e+00,-4.944999999999960316e+00,1.342304481426818086e+01,-2.173723655164767177e+00
1.999999999999955591e+01,2.999999999559933794e+00,1.000000000007684520e+01,6.600000000001469136e-01,1.569999999999999618e+00,2.870000000000001819e+03,-2.174999999999812861e+00,-4.945000000000158380e+00,1.342414656820767505e+01,-2.172416932396580513e+00
1.999999999999876721e+01,2.999999998455578964e+00,1.000000000003304379e+01,6.600000000003699574e-01,1.569999999999880824e+00,2.870000000000001819e+03,-2.174999999999785327e+00,-4.945000000000437268e+00,1.339038471409782538e+01,-2.199477603541489579e+00
1.999999999999901590e+01,3.000000000241643150e+00,1.000000000007824852e+01,6.600000000000985079e-01,1.570000000000224105e+00,2.870000000000001819e+03,-2.174999999999774225e+00,-4.944999999999282636e+00,1.341711985562453080e+01,-2.174774018801373554e+00
2.000000000000030553e+01,2.999999997630342641e+00,1.000000000007414869e+01,6.599999999999796030e-01,1.570000000000025375e+00,2.870000000000001819e+03,-2.175000000000081091e+00,-4.944999999999860840e+00,1.339771341595097454e+01,-2.164862083721022401e+00
2.000000000000014566e+01,2.999999999779214832e+00,1.000000000003942802e+01,6.599999999997442357e-01,1.570000000000112861e+00,2.870000000000001819e+03,-2.175000000000071765e+00,-4.944999999999671658e+00,1.340963004990222984e+01,-2.166230674829443537e+00
2.000000000000049383e+01,2.999999999979239274e+00,1.000000000002895284e+01,6.599999999995779243e-01,1.570000000000217666e+00,2.870000000000001819e+03,-2.175000000000134825e+00,-4.944999999999402540e+00,1.341845376328516259e+01,-2.179005473499965984e+00
1.999999999999866063e+01,2.999999998744209417e+00,9.999999999990142996e+00,6.600000000005278311e-01,1.569999999999515783e+00,2.870000000000001819e+03,-2.174999999999798206e+00,-4.945000000001310347e+00,1.341786957742348108e+01,-2.170775567490299984e+00
1.999999999999830891e+01,2.999999999299343578e+00,1.000000000005173106e+01,6.600000000004515588e-01,1.569999999999749374e+00,2.870000000000001819e+03,-2.174999999999740030e+00,-4.945000000000693063e+00,1.341147523915457995e+01,-2.171390823358914535e+00
1.999999999999987210e+01,2.999999999336909973e+00,1.000000000004740208e+01,6.600000000004735412e-01,1.569999999999796891e+00,2.870000000000001819e+03,-2.174999999999693401e+00,-4.945000000000682405e+00,1.342093486107685330e+01,-2.163629536615279569e+00
1.999999999999971578e+01,2.999999998559535808e+00,1.000000000004949818e+01,6.600000000005632472e-01,1.569999999999654561e+00,2.870000000000001819e+03,-2.174999999999697398e+00,-4.945000000001074980e+00,1.344083812809732947e+01,-2.189047656200505454e+00
1.999999999999922906e+01,2.999999998829070869e+00,1.000000000000823341e+01,6.599999999999203171e-01,1.570000000000157048e+00,2.870000000000001819e+03,-2.174999999999797318e+00,-4.944999999999475371e+00,1.339700260618984906e+01,-2.198536115925505907e+00
2.000000000000075673e+01,2.999999997592077250e+00,1.000000000000992806e+01,6.600000000000438849e-01,1.569999999999994955e+00,2.870000000000001819e+03,-2.174999999999908340e+00,-4.945000000000114859e+00,1.339271747841433147e+01,-2.151726006672642910e+00
1.999999999999941380e+01,2.999999997257801976e+00,1.000000000004370548e+01,6.600000000002383960e-01,1.569999999999853069e+00,2.870000000000001819e+03,-2.174999999999918998e+00,-4.945000000000405294e+00,1.338257456098262743e+01,-2.170378571730769757e+00
1.999999999999893774e+01,2.999999999115095406e+00,1.000000000004098766e+01,6.600000000002497202e-01,1.569999999999997620e+00,2.870000000000001819e+03,-2.174999999999682299e+00,-4.945000000000022489e+00,1.341198098841296904e+01,-2.193978385419487864e+00
1.999999999999871036e+01,2.999999997686846775e+00,9.999999999983016252e+00,6.600000000006935874e-01,1.569999999999460938e+00,2.870000000000001819e+03,-2.174999999999879918e+00,-4.945000000001502194e+00,1.340276912479396820e+01,-2.140061990255011981e+00
2.000000000000047251e+01,2.999999999442146681e+00,1.000000000000560263e+01,6.599999999998900080e-01,1.569999999999966311e+00,2.870000000000001819e+03,-2.175000000000193445e+00,-4.944999999999939000e+00,1.340255921369325520e+01,-2.167222119504714328e+00
1.999999999999965894e+01,2.999999997757989423e+00,1.000000000004719958e+01,6.600000000001013944e-01,1.570000000000109752e+00,2.870000000000001819e+03,-2.174999999999763567e+00,-4.944999999999694751e+00,1.342804171644728228e+01,-2.178619648382163376e+00
1.999999999999902656e+01,2.999999998951469848e+00,1.000000000006170708e+01,6.600000000000988409e-01,1.570000000000189244e+00,2.870000000000001819e+03,-2.174999999999691180e+00,-4.944999999999457607e+00,1.343626491554682367e+01,-2.186812392957603546e+00
2.000000000000023448e+01,3.000000001397656657e+00,1.000000000007655565e+01,6.599999999998366063e-01,1.570000000000205009e+00,2.870000000000001819e+03,-2.174999999999976286e+00,-4.944999999999420304e+00,1.340639532146050250e+01,-2.193468042906890236e+00
2.000000000000116529e+01,2.999999999782662741e+00,1.000000000004885337e+01,6.599999999995299627e-01,1.570000000000205898e+00,2.870000000000001819e+03,-2.175000000000422595e+00,-4.944999999999533102e+00,1.343496119566768954e+01,-2.154871852090949780e+00
2.000000000000046541e+01,2.999999997845316901e+00,1.000000000001099387e+01,6.599999999998886757e-01,1.569999999999964535e+00,2.870000000000001819e+03,-2.175000000000216538e+00,-4.945000000000182361e+00,1.341332933390649984e+01,-2.144682741727813813e+00
2.000000000000106937e+01,3.000000000159187774e+00,1.000000000006473577e+01,6.599999999994808908e-01,1.570000000000222551e+00,2.870000000000001819e+03,-2.175000000000272493e+00,-4.944999999999308393e+00,1.341855532349367053e+01,-2.190270129511879826e+00
2.000000000000080291e+01,2.999999999423641039e+00,1.000000000005245937e+01,6.599999999994923261e-01,1.570000000000220997e+00,2.870000000000001819e+03,-2.175000000000375522e+00,-4.944999999999359019e+00,1.340997623309814379e+01,-2.188814783280406129e+00
2.000000000000151701e+01,2.999999999661585370e+00,9.999999999967249309e+00,6.599999999993630961e-01,1.570000000000340012e+00,2.870000000000001819e+03,-2.175000000000273825e+00,-4.944999999999143192e+00,1.342465380709196765e+01,-2.186364958381444623e+00
1.999999999999930722e+01,2.999999998094118325e+00,9.999999999961067587e+00,6.600000000001895462e-01,1.569999999999633022e+00,2.870000000000001819e+03,-2.175000000000136602e+00,-4.945000000001131824e+00,1.340770300504796175e+01,-2.178433296885457171e+00
2.000000000000039435e+01,3.000000000628328944e+00,9.999999999993772093e+00,6.599999999996437605e-01,1.570000000000139284e+00,2.870000000000001819e+03,-2.175000000000129941e+00,-4.944999999999591722e+00,1.342564128555908809e+01,-2.175292913771726511e+00
1.999999999999889155e+01,2.999999999597144473e+00,9.999999999983714360e+00,6.599999999998327205e-01,1.570000000000111529e+00,2.870000000000001819e+03,-2.174999999999993605e+00,-4.944999999999581952e+00,1.339405508418633062e+01,-2.182432100372693196e+00
1.999999999999909406e+01,2.999999999609129109e+00,1.000000000006527578e+01,6.600000000002637091e-01,1.569999999999828644e+00,2.870000000000001819e+03,-2.174999999999839950e+00,-4.945000000000476348e+00,1.339337503353137748e+01,-2.167464159985311056e+00
1.999999999999888090e+01,2.999999999073253765e+00,1.000000000006977530e+01,6.600000000002219647e-01,1.570000000000027596e+00,2.870000000000001819e+03,-2.174999999999705391e+00,-4.944999999999990514e+00,1.342781754855079157e+01,-2.152427982773033488e+00
1.999999999999957723e+01,2.999999999311616872e+00,1.000000000005300471e+01,6.600000000000239009e-01,1.569999999999973417e+00,2.870000000000001819e+03,-2.174999999999914557e+00,-4.945000000000181473e+00,1.343824515225242067e+01,-2.166221446933171979e+00
2.000000000000142109e+01,2.999999999012702201e+00,1.000000000003894662e+01,6.599999999996958300e-01,1.570000000000145501e+00,2.870000000000001819e+03,-2.175000000000132161e+00,-4.944999999999708962e+00,1.343666088568132899e+01,-2.150374714882955285e+00
2.000000000000045119e+01,2.999999998373779508e+00,1.000000000002678746e+01,6.599999999999276445e-01,1.570000000000005169e+00,2.870000000000001819e+03,-2.174999999999992273e+00,-4.945000000000075779e+00,1.343823537326396256e+01,-2.160443061642134399e+00
1.999999999999954170e+01,2.999999999637811499e+00,9.999999999978795628e+00,6.600000000000336708e-01,1.569999999999900586e+00,2.870000000000001819e+03,-2.175000000000088196e+00,-4.945000000000257856e+00,1.338994095287384312e+01,-2.178942066563270608e+00
1.999999999999969091e+01,2.999999998721684324e+00,9.999999999958957275e+00,6.600000000000426637e-01,1.569999999999872387e+00,2.870000000000001819e+03,-2.175000000000078870e+00,-4.945000000000434603e+00,1.341719746375372679e+01,-2.171926019184350132e+00
1.999999999999778666e+01,2.999999997366667781e+00,9.999999999959317876e+00,6.600000000005860068e-01,1.569999999999668328e+00,2.870000000000001819e+03,-2.174999999999630340e+00,-4.945000000000910667e+00,1.340342703056843199e+01,-2.169505390075660678e+00
1.999999999999852918e+01,2.999999997771214399e+00,1.000000000002083311e+01,6.600000000005227241e-01,1.569999999999609042e+00,2.870000000000001819e+03,-2.174999999999811084e+00,-4.945000000001112284e+00,1.340173460844138198e+01,-2.171564760237605807e+00
1.999999999999995026e+01,2.999999998420238345e+00,9.999999999980060394e+00,6.600000000000564304e-01,1.569999999999877494e+00,2.870000000000001364e+03,-2.175000000000123279e+00,-4.945000000000454143e+00,1.339893434964400853e+01,-2.181547440700678298e+00
2.000000000000011369e+01,2.999999998971576876e+00,9.999999999988474997e+00,6.599999999999673905e-01,1.569999999999870610e+00,2.870000000000001819e+03,-2.175000000000157030e+00,-4.945000000000319140e+00,1.340710294803851710e+01,-2.145461249304645879e+00
1.999999999999891642e+01,2.999999997915315575e+00,9.999999999966185271e+00,6.600000000004841993e-01,1.569999999999712736e+00,2.870000000000001819e+03,-2.174999999999676525e+00,-4.945000000000828955e+00,1.339827299816573714e+01,-2.172739072670017979e+00
1.999999999999717204e+01,2.999999996819732395e+00,9.999999999998323119e+00,6.600000000004941914e-01,1.569999999999793339e+00,2.870000000000001819e+03,-2.174999999999672973e+00,-4.945000000000562501e+00,1.339837974401670984e+01,-2.175824115972103012e+00
1.999999999999972644e+01,2.999999998443465543e+00,1.000000000000143530e+01,6.599999999999393019e-01,1.570000000000049578e+00,2.870000000000001819e+03,-2.174999999999909228e+00,-4.944999999999842188e+00,1.341904718655442252e+01,-2.157025269970511694e+00
1.999999999999888800e+01,2.999999996254353540e+00,9.999999999974711784e+00,6.600000000001199352e-01,1.570000000000093765e+00,2.870000000000001819e+03,-2.174999999999831957e+00,-4.944999999999698304e+00,1.341257907517928594e+01,-2.162074613988858474e+00
1.999999999999861444e+01,2.999999998560721526e+00,1.000000000007229595e+01,6.600000000003032330e-01,1.569999999999803331e+00,2.870000000000001819e+03,-2.174999999999847500e+00,-4.945000000000518980e+00,1.338946348886176985e+01,-2.150829414112314542e+00
1.999999999999831246e+01,2.999999998769856457e+00,1.000000000006649081e+01,6.600000000004817569e-01,1.569999999999678542e+00,2.870000000000001819e+03,-2.174999999999810196e+00,-4.945000000000909779e+00,1.338231552253855661e+01,-2.156757735950931121e+00
2.000000000000025935e+01,2.999999999476698598e+00,9.999999999984719778e+00,6.599999999996183364e-01,1.570000000000284279e+00,2.870000000000001819e+03,-2.175000000000013589e+00,-4.944999999999292406e+00,1.342218615487027833e+01,-2.189299586570878198e+00
1.999999999999874234e+01,2.999999999085487978e+00,1.000000000002083489e+01,6.600000000002705924e-01,1.570000000000072005e+00,2.870000000000001819e+03,-2.174999999999651656e+00,-4.944999999999855511e+00,1.343345143439380074e+01,-2.178815343721146824e+00
2.000000000000004619e+01,2.999999999430419617e+00,1.000000000005590906e+01,6.599999999998883426e-01,1.570000000000196128e+00,2.870000000000001819e+03,-2.174999999999943423e+00,-4.944999999999464713e+00,1.340752753570370714e+01,-2.177763235697409705e+00
1.999999999999830891e+01,3.000000000359068775e+00,1.000000000005889333e+01,6.599999999996848388e-01,1.570000000000062013e+00,2.870000000000001819e+03,-2.175000000000166800e+00,-4.944999999999691198e+00,1.338743001951964828e+01,-2.194375956106755510e+00
2.000000000000057909e+01,3.000000000679972079e+00,1.000000000000533795e+01,6.600000000002553824e-01,1.569999999999660556e+00,2.870000000000001819e+03,-2.175000000000029576e+00,-4.945000000001005702e+00,1.342703112023387746e+01,-2.176547497509441431e+00
2.000000000000098055e+01,3.000000000422390123e+00,9.999999999984614973e+00,6.600000000000332268e-01,1.569999999999702966e+00,2.870000000000001819e+03,-2.175000000000219647e+00,-4.945000000000901785e+00,1.343780747960856026e+01,-2.178918541253848318e+00
1.999999999999988276e+01,2.999999999194432387e+00,9.999999999995475619e+00,6.600000000002870237e-01,1.569999999999681206e+00,2.870000000000001819e+03,-2.175000000000020250e+00,-4.945000000000955964e+00,1.342132174706563497e+01,-2.171604496669476525e+00
2.000000000000069278e+01,2.999999997619942960e+00,1.000000000002995471e+01,6.599999999996574163e-01,1.570000000000272067e+00,2.870000000000001819e+03,-2.175000000000038458e+00,-4.944999999999249773e+00,1.340136818710454847e+01,-2.172223855771091561e+00
1.999999999999930012e+01,3.000000000127569511e+00,1.000000000006839862e+01,6.600000000001977618e-01,1.569999999999991847e+00,2.870000000000001819e+03,-2.174999999999799982e+00,-4.945000000000193907e+00,1.340771435613805629e+01,-2.192745831530688250e+00
1.999999999999907985e+01,2.999999999346893542e+00,9.999999999984188648e+00,6.599999999998122924e-01,1.570000000000080220e+00,2.870000000000001819e+03,-2.175000000000095302e+00,-4.944999999999814655e+00,1.341333516558290206e+01,-2.175538423409888455e+00
1.999999999999862510e+01,2.999999999847794196e+00,1.000000000005188383e+01,6.600000000004463407e-01,1.569999999999706963e+00,2.870000000000001819e+03,-2.174999999999718270e+00,-4.945000000000895568e+00,1.340515245444119152e+01,-2.177310254407501144e+00
1.999999999999914735e+01,2.999999999871881151e+00,1.000000000002764367e+01,6.599999999999700551e-01,1.569999999999972307e+00,2.870000000000001819e+03,-2.174999999999966960e+00,-4.945000000000166374e+00,1.341464034289769813e+01,-2.180175596668657789e+00
2.000000000000040501e+01,2.999999998879720131e+00,1.000000000001863754e+01,6.599999999998394928e-01,1.570000000000164375e+00,2.870000000000001819e+03,-2.174999999999939870e+00,-4.944999999999481588e+00,1.338476401074930244e+01,-2.160179758389106031e+00
2.000000000000045830e+01,2.999999999641017823e+00,1.000000000003206679e+01,6.599999999999174305e-01,1.570000000000113971e+00,2.870000000000001819e+03,-2.174999999999937650e+00,-4.944999999999616591e+00,1.338251080859641107e+01,-2.160221322462294147e+00
1.999999999999887379e+01,2.999999999070829482e+00,1.000000000003462119e+01,6.600000000002756995e-01,1.569999999999917462e+00,2.870000000000001819e+03,-2.174999999999669420e+00,-4.945000000000345786e+00,1.339507053119341329e+01,-2.166923353650817230e+00
1.999999999999866418e+01,2.999999998364904386e+00,1.000000000000743938e+01,6.600000000002395062e-01,1.569999999999862617e+00,2.870000000000001819e+03,-2.174999999999766231e+00,-4.945000000000473683e+00,1.340429010330826287e+01,-2.175201383801949717e+00
2.000000000000005329e+01,2.999999998663533951e+00,1.000000000002795097e+01,6.600000000001079448e-01,1.569999999999978302e+00,2.870000000000001819e+03,-2.174999999999755573e+00,-4.945000000000121076e+00,1.342335040034141258e+01,-2.181576052297951929e+00
1.999999999999925748e+01,2.999999998477427265e+00,1.000000000003780976e+01,6.600000000002737011e-01,1.570000000000007612e+00,2.870000000000001819e+03,-2.174999999999705391e+00,-4.945000000000113083e+00,1.341838077985069688e+01,-2.188499662064195661e+00
1.999999999999978328e+01,2.999999996433789118e+00,9.999999999990301092e+00,6.600000000002483880e-01,1.569999999999735385e+00,2.870000000000001819e+03,-2.174999999999938982e+00,-4.945000000000729479e+00,1.340433281888386752e+01,-2.165061150206072149e+00
1.999999999999949196e+01,2.999999999088478031e+00,1.000000000003551826e+01,6.599999999996941646e-01,1.570000000000195906e+00,2.870000000000001819e+03,-2.174999999999974509e+00,-4.944999999999381224e+00,1.338212943462704096e+01,-2.175520614718103207e+00
1.999999999999997158e+01,2.999999999430213560e+00,9.999999999938841810e+00,6.599999999999610623e-01,1.569999999999865281e+00,2.870000000000001819e+03,-2.175000000000182787e+00,-4.945000000000390195e+00,1.339339779859331969e+01,-2.168176231200319659e+00
2.000000000000110489e+01,3.000000001207324463e+00,1.000000000001744738e+01,6.600000000002737011e-01,1.569999999999789786e+00,2.870000000000001819e+03,-2.175000000000065548e+00,-4.945000000000675300e+00,1.339974963196896418e+01,-2.172266326432573891e+00
1.999999999999734968e+01,2.999999998122619083e+00,9.999999999975212717e+00,6.600000000005370460e-01,1.569999999999733609e+00,2.870000000000001819e+03,-2.174999999999682743e+00,-4.945000000000699281e+00,1.341068694152722962e+01,-2.199936627654746513e+00
2.000000000000008527e+01,2.999999997183874001e+00,9.999999999907169368e+00,6.599999999998384936e-01,1.570000000000012719e+00,2.870000000000001819e+03,-2.175000000000097078e+00,-4.944999999999946105e+00,1.340740842173933345e+01,-2.163326468482203779e+00
2.000000000000025224e+01,2.999999999806110207e+00,9.999999999987002397e+00,6.599999999997426814e-01,1.570000000000143503e+00,2.870000000000001819e+03,-2.175000000000006484e+00,-4.944999999999737383e+00,1.343593107234667983e+01,-2.187751238567337886e+00
2.000000000000073186e+01,2.999999999458837774e+00,1.000000000002037126e+01,6.599999999995864730e-01,1.570000000000310481e+00,2.870000000000001819e+03,-2.175000000000006484e+00,-4.944999999999176055e+00,1.343145248118419843e+01,-2.165240471773955733e+00
2.000000000000039790e+01,3.000000000239747333e+00,9.999999999992802202e+00,6.599999999997291367e-01,1.569999999999993401e+00,2.870000000000001819e+03,-2.175000000000200551e+00,-4.945000000000166374e+00,1.342131084298333832e+01,-2.184203166278780639e+00
1.999999999999820588e+01,2.999999999326863787e+00,1.000000000001316280e+01,6.600000000003581890e-01,1.569999999999916351e+00,2.870000000000001819e+03,-2.174999999999540190e+00,-4.945000000000150386e+00,1.340027301600866849e+01,-2.211118885958852864e+00
1.999999999999875655e+01,2.999999999364982628e+00,1.000000000005444534e+01,6.600000000004463407e-01,1.569999999999731610e+00,2.870000000000001819e+03,-2.174999999999801759e+00,-4.945000000000737472e+00,1.338523026868282173e+01,-2.171515331349533895e+00
2.000000000000033040e+01,2.999999999497764858e+00,1.000000000003034550e+01,6.599999999997561151e-01,1.569999999999990736e+00,2.870000000000001819e+03,-2.175000000000079758e+00,-4.944999999999999396e+00,1.340100647962913527e+01,-2.176766764138609922e+00
2.000000000000035172e+01,2.999999998347050667e+00,1.000000000006266454e+01,6.599999999998908962e-01,1.570000000000189022e+00,2.870000000000001819e+03,-2.174999999999770228e+00,-4.944999999999560636e+00,1.341880158590091554e+01,-2.182060528300663993e+00
2.000000000000071765e+01,2.999999998438577009e+00,9.999999999985167420e+00,6.599999999995111999e-01,1.570000000000304041e+00,2.870000000000001819e+03,-2.175000000000022915e+00,-4.944999999999094342e+00,1.341413940533718119e+01,-2.188969858860734696e+00
2.000000000000120437e+01,2.999999998715905392e+00,1.000000000000141576e+01,6.599999999998409361e-01,1.570000000000043139e+00,2.870000000000001819e+03,-2.175000000000162803e+00,-4.944999999999964757e+00,1.343247202617731517e+01,-2.185115506159881260e+00
2.000000000000179767e+01,2.999999999607844803e+00,9.999999999992770228e+00,6.599999999996100097e-01,1.570000000000165485e+00,2.870000000000001819e+03,-2.175000000000256062e+00,-4.944999999999572182e+00,1.344434044901260350e+01,-2.178145931676710223e+00
2.000000000000195755e+01,2.999999999988532728e+00,1.000000000004436806e+01,6.599999999998382716e-01,1.570000000000238538e+00,2.870000000000001819e+03,-2.174999999999918554e+00,-4.944999999999370566e+00,1.343514688845433902e+01,-2.161590248631267475e+00
1.999999999999997868e+01,2.999999999626056901e+00,9.999999999972860820e+00,6.600000000001174927e-01,1.569999999999893481e+00,2.870000000000001819e+03,-2.174999999999863487e+00,-4.945000000000340457e+00,1.342247440369587785e+01,-2.172728684290716306e+00
1.999999999999911182e+01,2.999999999185273936e+00,9.999999999964227726e+00,6.599999999999934808e-01,1.570000000000033369e+00,2.870000000000001819e+03,-2.174999999999889688e+00,-4.944999999999990514e+00,1.341507860380423800e+01,-2.172831742659508958e+00
1.999999999999960565e+01,3.000000000738706429e+00,9.999999999994646060e+00,6.599999999998195088e-01,1.570000000000150164e+00,2.870000000000001819e+03,-2.174999999999853717e+00,-4.944999999999613038e+00,1.342446207244423206e+01,-2.186401383824898570e+00
2.000000000000067502e+01,2.999999999577941612e+00,9.999999999997267963e+00,6.600000000000412204e-01,1.569999999999866613e+00,2.870000000000001819e+03,-2.175000000000047784e+00,-4.945000000000265850e+00,1.340147533381006539e+01,-2.165556682046060111e+00
1.999999999999856470e+01,2.999999998804341317e+00,9.999999999985108801e+00,6.600000000004662137e-01,1.569999999999798446e+00,2.870000000000001819e+03,-2.174999999999633449e+00,-4.945000000000530527e+00,1.341397653520079913e+01,-2.179887615462353434e+00
1.999999999999854694e+01,2.999999999239723714e+00,9.999999999983781862e+00,6.600000000001933209e-01,1.569999999999946327e+00,2.870000000000001819e+03,-2.174999999999789768e+00,-4.945000000000195683e+00,1.341493930464638140e+01,-2.195010154621138021e+00
2.000000000000113332e+01,3.000000001278805950e+00,9.999999999992459365e+00,6.599999999997679945e-01,1.570000000000031815e+00,2.870000000000001819e+03,-2.175000000000105516e+00,-4.944999999999946994e+00,1.340967078211208197e+01,-2.199912871259412483e+00
1.999999999999955236e+01,2.999999997299907406e+00,9.999999999956218133e+00,6.600000000000189049e-01,1.569999999999866391e+00,2.870000000000001819e+03,-2.175000000000020250e+00,-4.945000000000415952e+00,1.340822366542137623e+01,-2.162479085244056964e+00
1.999999999999838352e+01,2.999999997788775019e+00,1.000000000004531842e+01,6.600000000004169198e-01,1.569999999999939000e+00,2.870000000000001819e+03,-2.174999999999586819e+00,-4.945000000000272955e+00,1.339927821980668377e+01,-2.172329880169076688e+00
1.999999999999962341e+01,3.000000000566027669e+00,9.999999999999852562e+00,6.600000000000048050e-01,1.570000000000022267e+00,2.870000000000001819e+03,-2.174999999999914113e+00,-4.945000000000003837e+00,1.340553844583386223e+01,-2.183180177347769479e+00
1.999999999999940314e+01,2.999999999453911492e+00,1.000000000003210410e+01,6.600000000003938272e-01,1.569999999999811768e+00,2.870000000000001819e+03,-2.174999999999732925e+00,-4.945000000000520757e+00,1.338504997970520094e+01,-2.177917075968264449e+00
2.000000000000040146e+01,3.000000000493018071e+00,1.000000000006308909e+01,6.599999999997655520e-01,1.570000000000192353e+00,2.870000000000001819e+03,-2.175000000000101963e+00,-4.944999999999453166e+00,1.340159642966685993e+01,-2.153988635058285084e+00
1.999999999999893774e+01,2.999999999749288548e+00,1.000000000004174794e+01,6.600000000003258815e-01,1.569999999999934781e+00,2.870000000000001819e+03,-2.174999999999732925e+00,-4.945000000000141505e+00,1.341553065532843192e+01,-2.148574159063876721e+00
1.999999999999847233e+01,2.999999998680419999e+00,1.000000000006504486e+01,6.600000000005125100e-01,1.569999999999824425e+00,2.870000000000001819e+03,-2.174999999999683631e+00,-4.945000000000606910e+00,1.339191884766785456e+01,-2.164371987230123473e+00
1.999999999999906564e+01,2.999999998791123890e+00,1.000000000002895995e+01,6.600000000003791722e-01,1.569999999999697415e+00,2.870000000000001819e+03,-2.174999999999946088e+00,-4.945000000000910667e+00,1.339484104274306731e+01,-2.163906823835092030e+00
1.999999999999911537e+01,2.999999999815267770e+00,1.000000000001555556e+01,6.600000000003962697e-01,1.569999999999881268e+00,2.870000000000001819e+03,-2.174999999999715161e+00,-4.945000000000282725e+00,1.342928814027622053e+01,-2.182224073786514396e+00
1.999999999999824141e+01,2.999999999508176529e+00,1.000000000004156675e+01,6.600000000002550493e-01,1.569999999999904805e+00,2.870000000000001819e+03,-2.174999999999786660e+00,-4.945000000000221441e+00,1.339897525348568585e+01,-2.179353970559213760e+00
1.999999999999868905e+01,3.000000000824894819e+00,1.000000000002282263e+01,6.600000000002880229e-01,1.569999999999825313e+00,2.870000000000001819e+03,-2.174999999999834177e+00,-4.945000000000489671e+00,1.339828469798401223e+01,-2.180604745366222286e+00
2.000000000000155964e+01,2.999999997327379209e+00,9.999999999983225862e+00,6.599999999999422995e-01,1.569999999999963647e+00,2.870000000000001819e+03,-2.175000000000080647e+00,-4.945000000000228546e+00,1.340142381765612178e+01,-2.141358976008530757e+00
1.999999999999890576e+01,3.000000001222132173e+00,1.000000000002818545e+01,6.600000000006727152e-01,1.569999999999606377e+00,2.870000000000001819e+03,-2.174999999999660982e+00,-4.945000000001254392e+00,1.344688824762585000e+01,-2.180441077803240368e+00
1.999999999999890576e+01,3.000000000570362424e+00,1.000000000000960121e+01,6.600000000005948886e-01,1.569999999999592166e+00,2.870000000000001819e+03,-2.174999999999761346e+00,-4.945000000001259721e+00,1.344553930577983536e+01,-2.180164906777279921e+00
1.999999999999806377e+01,3.000000000960291402e+00,1.000000000003975309e+01,6.600000000007750778e-01,1.569999999999465157e+00,2.870000000000001819e+03,-2.174999999999672085e+00,-4.945000000001577689e+00,1.338899947927613887e+01,-2.181231142232070042e+00
1.999999999999959499e+01,3.000000001306584618e+00,1.000000000002001244e+01,6.600000000001218226e-01,1.569999999999934781e+00,2.870000000000001819e+03,-2.174999999999888800e+00,-4.945000000000222329e+00,1.340434360425167881e+01,-2.192974006329776238e+00
1.999999999999956302e+01,2.999999999818748098e+00,9.999999999997106315e+00,6.600000000002155254e-01,1.569999999999773133e+00,2.870000000000001819e+03,-2.174999999999963407e+00,-4.945000000000691287e+00,1.339870156787610611e+01,-2.182845393726195127e+00
1.999999999999718980e+01,2.999999999659535455e+00,1.000000000008899370e+01,6.600000000008109380e-01,1.569999999999760476e+00,2.870000000000001819e+03,-2.174999999999422506e+00,-4.945000000000730367e+00,1.340191889838240868e+01,-2.171344772155102909e+00
2.000000000000038369e+01,3.000000000461664929e+00,9.999999999975818454e+00,6.600000000000871836e-01,1.569999999999925233e+00,2.870000000000001819e+03,-2.174999999999967848e+00,-4.945000000000298712e+00,1.341833016269157852e+01,-2.156121115511583142e+00
1.999999999999917577e+01,3.000000000693078928e+00,1.000000000004219913e+01,6.600000000003887202e-01,1.569999999999905471e+00,2.870000000000001819e+03,-2.174999999999731592e+00,-4.945000000000207230e+00,1.337944208636340448e+01,-2.167958844124374451e+00
1.999999999999977973e+01,2.999999999720205590e+00,1.000000000007940670e+01,6.600000000005713519e-01,1.569999999999758700e+00,2.870000000000001364e+03,-2.174999999999735589e+00,-4.945000000000805862e+00,1.339216060656341689e+01,-2.153348692006302301e+00
2.000000000000072831e+01,2.999999999791700400e+00,1.000000000009325163e+01,6.600000000002106404e-01,1.569999999999913021e+00,2.870000000000001819e+03,-2.174999999999899014e+00,-4.945000000000360885e+00,1.339794324117946722e+01,-2.171566978940124848e+00
1.999999999999905498e+01,2.999999999961714181e+00,1.000000000003663914e+01,6.600000000002020917e-01,1.569999999999981188e+00,2.870000000000001819e+03,-2.174999999999698730e+00,-4.945000000000053575e+00,1.341833410907434398e+01,-2.162274721758520535e+00
1.999999999999923617e+01,3.000000000903340958e+00,1.000000000006895640e+01,6.600000000000895151e-01,1.569999999999843299e+00,2.870000000000001364e+03,-2.174999999999939870e+00,-4.945000000000558948e+00,1.339146449320563903e+01,-2.186253562474532508e+00
1.999999999999902300e+01,3.000000000834855740e+00,1.000000000003925571e+01,6.600000000003376499e-01,1.570000000000017160e+00,2.870000000000001819e+03,-2.174999999999608580e+00,-4.945000000000143281e+00,1.343576842937731008e+01,-2.193664881866046468e+00
1.999999999999774403e+01,3.000000001109485392e+00,1.000000000008418510e+01,6.600000000002732570e-01,1.569999999999945439e+00,2.870000000000001819e+03,-2.174999999999701839e+00,-4.945000000000179696e+00,1.341015860700638562e+01,-2.213444396530294789e+00
1.999999999999892708e+01,2.999999998069014406e+00,9.999999999976481035e+00,6.600000000001983169e-01,1.569999999999742935e+00,2.870000000000001819e+03,-2.174999999999941647e+00,-4.945000000000762341e+00,1.340700326546446064e+01,-2.174782181015411098e+00
1.999999999999955236e+01,2.999999997536855645e+00,1.000000000005391954e+01,6.599999999997792077e-01,1.570000000000108864e+00,2.870000000000001819e+03,-2.175000000000116174e+00,-4.944999999999854623e+00,1.342182581629833216e+01,-2.188790129489238012e+00
1.999999999999823430e+01,2.999999998464857320e+00,1.000000000000072831e+01,6.600000000004190293e-01,1.569999999999722951e+00,2.870000000000001819e+03,-2.174999999999720490e+00,-4.945000000000755236e+00,1.341143522588875570e+01,-2.181475840863448479e+00
2.000000000000132161e+01,2.999999999675988516e+00,9.999999999994281907e+00,6.599999999995858069e-01,1.570000000000214335e+00,2.870000000000001819e+03,-2.175000000000213429e+00,-4.944999999999530438e+00,1.342036642333851049e+01,-2.162034135372995269e+00
1.999999999999900879e+01,2.999999999277064511e+00,1.000000000002985701e+01,6.600000000005149525e-01,1.569999999999583506e+00,2.870000000000001819e+03,-2.174999999999902123e+00,-4.945000000001179785e+00,1.339469195078282659e+01,-2.181312486617467794e+00
1.999999999999878142e+01,2.999999999090072755e+00,1.000000000002872902e+01,6.599999999999691669e-01,1.570000000000043139e+00,2.870000000000001819e+03,-2.174999999999927436e+00,-4.944999999999943441e+00,1.340530083244334136e+01,-2.155622631294648706e+00
2.000000000000057199e+01,3.000000000557824897e+00,1.000000000008101608e+01,6.600000000002869127e-01,1.569999999999842855e+00,2.870000000000001819e+03,-2.174999999999900790e+00,-4.945000000000585594e+00,1.342941080348574978e+01,-2.163568681859353582e+00
1.999999999999960210e+01,2.999999998537286494e+00,1.000000000003303668e+01,6.600000000002437250e-01,1.569999999999901252e+00,2.870000000000001819e+03,-2.174999999999811973e+00,-4.945000000000375984e+00,1.342930280392939224e+01,-2.160403577231921446e+00
1.999999999999856470e+01,3.000000002212292571e+00,1.000000000001780798e+01,6.600000000000694200e-01,1.570000000000016938e+00,2.870000000000001819e+03,-2.174999999999874589e+00,-4.944999999999931894e+00,1.338603552386811835e+01,-2.175848601539495331e+00
1.999999999999752376e+01,2.999999999298727626e+00,1.000000000000456524e+01,6.600000000006758238e-01,1.569999999999612372e+00,2.870000000000001819e+03,-2.174999999999641886e+00,-4.945000000000998597e+00,1.340256252325544395e+01,-2.161631317642840333e+00
1.999999999999864997e+01,2.999999999302741305e+00,1.000000000001241496e+01,6.600000000005804557e-01,1.569999999999601714e+00,2.870000000000001819e+03,-2.174999999999867928e+00,-4.945000000001208207e+00,1.342906987722361478e+01,-2.149421377401737665e+00
1.999999999999796430e+01,2.999999998701026183e+00,1.000000000000567901e+01,6.600000000007975043e-01,1.569999999999450058e+00,2.870000000000001819e+03,-2.174999999999773781e+00,-4.945000000001594564e+00,1.342091996686239064e+01,-2.146509566132832614e+00
1.999999999999862865e+01,2.999999999930765160e+00,1.000000000000809841e+01,6.600000000004030420e-01,1.569999999999799778e+00,2.870000000000001819e+03,-2.174999999999802203e+00,-4.945000000000534079e+00,1.341368138398639331e+01,-2.184445975215547620e+00
2.000000000000010303e+01,2.999999997948751496e+00,1.000000000002264855e+01,6.600000000001707834e-01,1.569999999999859508e+00,2.870000000000001819e+03,-2.174999999999904343e+00,-4.945000000000358220e+00,1.341870256889870561e+01,-2.177466982547541896e+00
1.999999999999979039e+01,3.000000000308205017e+00,1.000000000003739764e+01,6.600000000000391109e-01,1.570000000000054907e+00,2.870000000000001819e+03,-2.174999999999825295e+00,-4.944999999999879492e+00,1.342508338005933055e+01,-2.162215875826288602e+00
2.000000000000044764e+01,2.999999999005184215e+00,1.000000000004251355e+01,6.599999999999808242e-01,1.570000000000103757e+00,2.870000000000001819e+03,-2.174999999999934985e+00,-4.944999999999904361e+00,1.341527822254701796e+01,-2.143246847572464642e+00
2.000000000000120437e+01,2.999999999244564286e+00,1.000000000003890577e+01,6.599999999998309441e-01,1.570000000000099538e+00,2.870000000000001819e+03,-2.175000000000072653e+00,-4.944999999999887486e+00,1.342942574574578529e+01,-2.146142723885218651e+00
2.000000000000040856e+01,2.999999999773796056e+00,1.000000000002690470e+01,6.599999999998592548e-01,1.570000000000135731e+00,2.870000000000001819e+03,-2.174999999999987832e+00,-4.944999999999795115e+00,1.342132202298629551e+01,-2.155216714016739310e+00
1.999999999999974065e+01,2.999999998121982259e+00,1.000000000001013412e+01,6.600000000000644240e-01,1.570000000000049578e+00,2.870000000000001819e+03,-2.174999999999868372e+00,-4.945000000000016271e+00,1.342596829155422888e+01,-2.136390713281993037e+00
2.000000000000032330e+01,2.999999996788237144e+00,9.999999999987938537e+00,6.599999999999974776e-01,1.569999999999929230e+00,2.870000000000001819e+03,-2.175000000000097078e+00,-4.945000000000282725e+00,1.342325580055124234e+01,-2.147242080308569445e+00
1.999999999999858602e+01,2.999999998579375937e+00,9.999999999951109331e+00,6.600000000001715605e-01,1.569999999999902141e+00,2.870000000000001819e+03,-2.174999999999814637e+00,-4.945000000000143281e+00,1.342146639273921593e+01,-2.155977239909391496e+00
1.999999999999803180e+01,2.999999998077090169e+00,1.000000000004562573e+01,6.600000000005449285e-01,1.569999999999834861e+00,2.870000000000001819e+03,-2.174999999999562839e+00,-4.945000000000413287e+00,1.341008588327377815e+01,-2.170852270872600354e+00
1.999999999999856470e+01,3.000000000334455574e+00,1.000000000001719513e+01,6.600000000004012657e-01,1.569999999999809326e+00,2.870000000000001819e+03,-2.174999999999809308e+00,-4.945000000000599805e+00,1.340079317619047572e+01,-2.189506488017329389e+00
1.999999999999935341e+01,2.999999999539801454e+00,1.000000000004689760e+01,6.600000000004104805e-01,1.569999999999816431e+00,2.870000000000001819e+03,-2.174999999999814193e+00,-4.945000000000693952e+00,1.340280699576153900e+01,-2.167662149969086016e+00
2.000000000000096989e+01,2.999999998339919483e+00,9.999999999961000086e+00,6.599999999996859490e-01,1.570000000000191021e+00,2.870000000000001819e+03,-2.175000000000037126e+00,-4.944999999999451390e+00,1.343377119832584476e+01,-2.160571953082319752e+00
2.000000000000030553e+01,2.999999998941116353e+00,9.999999999963451458e+00,6.599999999999226485e-01,1.570000000000059348e+00,2.870000000000001819e+03,-2.174999999999935429e+00,-4.944999999999902585e+00,1.344339501003034698e+01,-2.165455764287883778e+00
2.000000000000080647e+01,3.000000000296056513e+00,1.000000000001454481e+01,6.599999999997773203e-01,1.570000000000147056e+00,2.870000000000001819e+03,-2.175000000000127720e+00,-4.944999999999537543e+00,1.340676901371196195e+01,-2.195871852934444313e+00
2.000000000000203570e+01,3.000000001963092355e+00,1.000000000003080203e+01,6.599999999998403810e-01,1.569999999999960316e+00,2.870000000000001819e+03,-2.175000000000183675e+00,-4.945000000000333351e+00,1.339868809622488932e+01,-2.183847826551210680e+00
1.999999999999986144e+01,2.999999999187657806e+00,1.000000000004157741e+01,6.600000000002970157e-01,1.569999999999783347e+00,2.870000000000001819e+03,-2.174999999999990052e+00,-4.945000000000537632e+00,1.339494588662176433e+01,-2.146496099840685456e+00
2.000000000000055778e+01,2.999999999292457975e+00,9.999999999969102049e+00,6.599999999997422373e-01,1.570000000000135287e+00,2.870000000000001819e+03,-2.175000000000077982e+00,-4.944999999999511786e+00,1.340479648947393088e+01,-2.185239353699190534e+00
2.000000000000076028e+01,2.999999999875027079e+00,9.999999999928975924e+00,6.599999999996883915e-01,1.570000000000092655e+00,2.870000000000001819e+03,-2.175000000000196554e+00,-4.944999999999742712e+00,1.340068204956711995e+01,-2.166796134110944294e+00
1.999999999999992539e+01,2.999999998827433068e+00,9.999999999952743579e+00,6.600000000002183009e-01,1.569999999999739604e+00,2.870000000000001819e+03,-2.174999999999998934e+00,-4.945000000000866258e+00,1.341505626535132301e+01,-2.162599685160674134e+00
2.000000000000000711e+01,2.999999998118911382e+00,9.999999999967521092e+00,6.600000000000733058e-01,1.569999999999812879e+00,2.870000000000001819e+03,-2.175000000000097078e+00,-4.945000000000433715e+00,1.341275393650581371e+01,-2.170457682385096287e+00
2.000000000000114753e+01,3.000000000748118456e+00,1.000000000000607869e+01,6.599999999995077582e-01,1.570000000000266072e+00,2.870000000000001819e+03,-2.175000000000267608e+00,-4.944999999999195595e+00,1.337720823464743169e+01,-2.164154934600812208e+00
1.999999999999902656e+01,2.999999999510944981e+00,1.000000000003204903e+01,6.600000000004546674e-01,1.569999999999871498e+00,2.870000000000001819e+03,-2.174999999999652989e+00,-4.945000000000338680e+00,1.341039852807635668e+01,-2.179742337424926735e+00
1.999999999999885247e+01,2.999999997332816637e+00,9.999999999993070432e+00,6.600000000001429168e-01,1.570000000000009166e+00,2.870000000000001819e+03,-2.174999999999720046e+00,-4.944999999999936335e+00,1.340060402763987391e+01,-2.187778330663161963e+00
2.000000000000168043e+01,2.999999999159955522e+00,9.999999999996305178e+00,6.599999999999007771e-01,1.570000000000169926e+00,2.870000000000001819e+03,-2.174999999999906564e+00,-4.944999999999721396e+00,1.342130835858346494e+01,-2.153120696324414052e+00
1.999999999999964118e+01,2.999999999093248881e+00,1.000000000000306066e+01,6.600000000002832490e-01,1.569999999999959428e+00,2.870000000000002274e+03,-2.174999999999772005e+00,-4.945000000000169038e+00,1.341227741409312380e+01,-2.187516257099413330e+00
2.000000000000167688e+01,2.999999999158338593e+00,9.999999999979376497e+00,6.599999999999586198e-01,1.570000000000090212e+00,2.870000000000001364e+03,-2.174999999999867040e+00,-4.944999999999783569e+00,1.341595349300559548e+01,-2.154559918145575015e+00
1.999999999999895195e+01,2.999999997078268699e+00,9.999999999968537168e+00,6.600000000000267875e-01,1.569999999999959206e+00,2.870000000000001819e+03,-2.174999999999921219e+00,-4.945000000000209894e+00,1.341647627996585435e+01,-2.175420033875854475e+00
1.999999999999966604e+01,2.999999997198597335e+00,9.999999999987197796e+00,6.600000000000239009e-01,1.569999999999963647e+00,2.870000000000001819e+03,-2.174999999999928324e+00,-4.945000000000232099e+00,1.342943949779341928e+01,-2.178973555592823352e+00
1.999999999999866063e+01,2.999999997714892785e+00,9.999999999963216979e+00,6.600000000004568879e-01,1.569999999999674767e+00,2.870000000000001819e+03,-2.174999999999777334e+00,-4.945000000000962181e+00,1.342816640611969348e+01,-2.180125242191926827e+00
1.999999999999941025e+01,2.999999998763248410e+00,9.999999999982092547e+00,6.599999999999144329e-01,1.570000000000044027e+00,2.870000000000001819e+03,-2.174999999999953193e+00,-4.944999999999915907e+00,1.343952324796441999e+01,-2.180107932952313643e+00
2.000000000000009592e+01,2.999999998561512449e+00,1.000000000001054978e+01,6.599999999999078826e-01,1.570000000000128626e+00,2.870000000000001364e+03,-2.174999999999892797e+00,-4.944999999999757812e+00,1.344847661523306925e+01,-2.174181608628895646e+00
2.000000000000004263e+01,2.999999997071830293e+00,9.999999999941666218e+00,6.599999999999585087e-01,1.569999999999983187e+00,2.870000000000001819e+03,-2.174999999999992273e+00,-4.945000000000024265e+00,1.341237252212481046e+01,-2.157175973139253689e+00
2.000000000000077094e+01,3.000000000991353222e+00,1.000000000003429435e+01,6.599999999999029976e-01,1.569999999999980522e+00,2.870000000000001819e+03,-2.175000000000012257e+00,-4.944999999999985185e+00,1.339380797636143683e+01,-2.192800903562743819e+00
1.999999999999871392e+01,2.999999996468329932e+00,9.999999999961735497e+00,6.600000000002931300e-01,1.569999999999795337e+00,2.870000000000001819e+03,-2.174999999999754685e+00,-4.945000000000609575e+00,1.338288403411797489e+01,-2.174602860770500357e+00
1.999999999999790390e+01,2.999999997195458068e+00,9.999999999986561861e+00,6.600000000005216139e-01,1.569999999999797113e+00,2.870000000000001819e+03,-2.174999999999543743e+00,-4.945000000000601581e+00,1.339551075692778426e+01,-2.183609726334286627e+00
