1.999999999999966604e+01,2.999999998811995194e+00,9.999999999948496310e+00,6.599999999996956079e-01,1.570000000000206120e+00,2.870000000000001819e+03,-2.175000000000053557e+00,-4.944999999999392770e+00,1.339055347042006971e+01,-2.150297903039705361e+00
1.999999999999969802e+01,2.999999999438134779e+00,9.999999999980094145e+00,6.599999999995869171e-01,1.570000000000195683e+00,2.870000000000001819e+03,-2.175000000000104627e+00,-4.944999999999398987e+00,1.338829605372247222e+01,-2.150960218069678298e+00
2.000000000000001776e+01,2.999999999898355085e+00,9.999999999997640998e+00,6.599999999994760058e-01,1.570000000000388418e+00,2.870000000000001819e+03,-2.175000000000026024e+00,-4.944999999998944240e+00,1.338777399653883116e+01,-2.178325071798938861e+00
1.999999999999956657e+01,2.999999998718251515e+00,1.000000000000824585e+01,6.599999999996621902e-01,1.570000000000274509e+00,2.870000000000001819e+03,-2.174999999999895017e+00,-4.944999999999299511e+00,1.338582675236254360e+01,-2.162013025347088835e+00
1.999999999999971578e+01,2.999999999503750292e+00,9.999999999970071940e+00,6.599999999994922151e-01,1.570000000000322249e+00,2.870000000000001819e+03,-2.175000000000086864e+00,-4.944999999999152962e+00,1.341633398138893263e+01,-2.186131393673133694e+00
1.999999999999964828e+01,2.999999998475908480e+00,9.999999999993061550e+00,6.599999999997443467e-01,1.570000000000160822e+00,2.870000000000001819e+03,-2.175000000000017586e+00,-4.944999999999602380e+00,1.339726979466130352e+01,-2.180830984317059684e+00
1.999999999999892708e+01,2.999999996604282959e+00,1.000000000001013412e+01,6.600000000000958433e-01,1.569999999999866169e+00,2.870000000000001819e+03,-2.175000000000111289e+00,-4.945000000000319140e+00,1.339668143714516901e+01,-2.167687977153839540e+00
1.999999999999972289e+01,2.999999997227631443e+00,9.999999999996045830e+00,6.599999999998681366e-01,1.570000000000060014e+00,2.870000000000001819e+03,-2.175000000000101519e+00,-4.944999999999830642e+00,1.339893077157445944e+01,-2.171159033452779052e+00
1.999999999999943512e+01,2.999999996408844627e+00,9.999999999984481747e+00,6.599999999998354960e-01,1.570000000000006724e+00,2.870000000000001819e+03,-2.175000000000224532e+00,-4.944999999999844853e+00,1.338409266702368328e+01,-2.156760932653555063e+00
1.999999999999914735e+01,2.999999996084498299e+00,9.999999999986181720e+00,6.600000000000765255e-01,1.569999999999953211e+00,2.870000000000001819e+03,-2.175000000000071765e+00,-4.945000000000118412e+00,1.341472632020657230e+01,-2.149290334296969807e+00
1.999999999999883116e+01,2.999999997314695577e+00,1.000000000004878231e+01,6.600000000004971890e-01,1.569999999999598606e+00,2.870000000000001819e+03,-2.174999999999821743e+00,-4.945000000001278373e+00,1.338645158794902024e+01,-2.206508214934224110e+00
1.999999999999951683e+01,2.999999998651785571e+00,1.000000000002711786e+01,6.600000000000629807e-01,1.569999999999943663e+00,2.870000000000001819e+03,-2.175000000000009148e+00,-4.945000000000218776e+00,1.341163978941368207e+01,-2.153238268806846989e+00
1.999999999999942091e+01,2.999999998237666166e+00,1.000000000003090683e+01,6.599999999999973666e-01,1.569999999999966533e+00,2.870000000000001819e+03,-2.175000000000030465e+00,-4.945000000000147722e+00,1.341189425428735404e+01,-2.147904535510924529e+00
1.999999999999922196e+01,2.999999999074097978e+00,1.000000000001949552e+01,6.599999999999619504e-01,1.570000000000054019e+00,2.870000000000001364e+03,-2.175000000000038014e+00,-4.944999999999933671e+00,1.343016490572769861e+01,-2.185033523769242425e+00
1.999999999999987921e+01,2.999999998952421087e+00,1.000000000000667555e+01,6.599999999999432987e-01,1.570000000000068452e+00,2.870000000000001819e+03,-2.175000000000038458e+00,-4.944999999999883933e+00,1.342564963784181487e+01,-2.161136440896191946e+00
1.999999999999876721e+01,2.999999998581592831e+00,1.000000000003685408e+01,6.600000000001390310e-01,1.569999999999922791e+00,2.870000000000001819e+03,-2.174999999999985612e+00,-4.945000000000320028e+00,1.343875832244921220e+01,-2.181704190453708669e+00
1.999999999999964473e+01,2.999999997313841593e+00,1.000000000001855227e+01,6.600000000001144951e-01,1.569999999999906359e+00,2.870000000000001819e+03,-2.174999999999972733e+00,-4.945000000000388418e+00,1.340247173155943727e+01,-2.121228433875530950e+00
2.000000000000037659e+01,2.999999998251108302e+00,9.999999999975619502e+00,6.599999999998463762e-01,1.570000000000087104e+00,2.870000000000001819e+03,-2.175000000000022027e+00,-4.944999999999902585e+00,1.339295641668271308e+01,-2.169956950721989131e+00
1.999999999999889866e+01,2.999999997212497771e+00,9.999999999998943068e+00,6.600000000000794120e-01,1.569999999999962315e+00,2.870000000000001819e+03,-2.174999999999848388e+00,-4.945000000000233875e+00,1.341041759431775837e+01,-2.185470763670421590e+00
1.999999999999950262e+01,3.000000000232189379e+00,1.000000000001557510e+01,6.599999999999273115e-01,1.570000000000022711e+00,2.870000000000001819e+03,-2.174999999999994493e+00,-4.944999999999996732e+00,1.341014931446028768e+01,-2.195709374564658312e+00
2.000000000000005684e+01,2.999999999565972519e+00,9.999999999992319033e+00,6.599999999998404920e-01,1.570000000000074891e+00,2.870000000000001819e+03,-2.175000000000034905e+00,-4.944999999999865281e+00,1.342335818199113007e+01,-2.176825755177147048e+00
1.999999999999900879e+01,2.999999997972123023e+00,9.999999999975921483e+00,6.600000000000425526e-01,1.569999999999902141e+00,2.870000000000001819e+03,-2.174999999999914113e+00,-4.945000000000245421e+00,1.340424873901841174e+01,-2.167592192880483992e+00
1.999999999999941735e+01,2.999999999157403341e+00,9.999999999993393729e+00,6.600000000000305622e-01,1.569999999999958318e+00,2.870000000000001819e+03,-2.175000000000022471e+00,-4.945000000000191243e+00,1.340143268451613778e+01,-2.168618720007960743e+00
1.999999999999920774e+01,2.999999999070919632e+00,9.999999999985167420e+00,6.600000000000073586e-01,1.569999999999947882e+00,2.870000000000001819e+03,-2.174999999999994049e+00,-4.945000000000196572e+00,1.339445482754205408e+01,-2.169601861781797592e+00
1.999999999999938538e+01,2.999999997206855618e+00,1.000000000001177725e+01,6.600000000000768585e-01,1.569999999999978968e+00,2.870000000000001819e+03,-2.174999999999883471e+00,-4.945000000000151275e+00,1.341214524976630784e+01,-2.156572000101617093e+00
1.999999999999974420e+01,2.999999997521269446e+00,9.999999999984348520e+00,6.600000000001035039e-01,1.569999999999944995e+00,2.870000000000001819e+03,-2.174999999999944755e+00,-4.945000000000201013e+00,1.340496494386580650e+01,-2.137994415838516016e+00
2.000000000000052935e+01,2.999999997881834357e+00,9.999999999995630162e+00,6.599999999999399680e-01,1.570000000000078666e+00,2.870000000000001819e+03,-2.174999999999954969e+00,-4.944999999999901696e+00,1.341643988286518940e+01,-2.161066549953575500e+00
2.000000000000057199e+01,2.999999998366192688e+00,1.000000000000297895e+01,6.599999999999955902e-01,1.569999999999968976e+00,2.870000000000001819e+03,-2.175000000000083755e+00,-4.945000000000094431e+00,1.339489746114724866e+01,-2.154032166658871983e+00
1.999999999999879918e+01,2.999999999298636588e+00,1.000000000005851852e+01,6.600000000000707523e-01,1.570000000000187690e+00,2.870000000000001819e+03,-2.174999999999698730e+00,-4.944999999999567741e+00,1.340191993840902107e+01,-2.169632810421892266e+00
1.999999999999899103e+01,2.999999997982248257e+00,1.000000000005519141e+01,6.599999999999527356e-01,1.570000000000294715e+00,2.870000000000001819e+03,-2.174999999999780442e+00,-4.944999999999242668e+00,1.338877309995877063e+01,-2.171486178028707137e+00
1.999999999999917932e+01,3.000000000101587627e+00,1.000000000003540279e+01,6.599999999998347189e-01,1.570000000000337570e+00,2.870000000000001819e+03,-2.174999999999778222e+00,-4.944999999999123652e+00,1.339221206921852492e+01,-2.195350742446598780e+00
1.999999999999821299e+01,3.000000000881425599e+00,1.000000000004732748e+01,6.600000000000412204e-01,1.570000000000128848e+00,2.870000000000001819e+03,-2.174999999999892797e+00,-4.944999999999684981e+00,1.336871720891410575e+01,-2.189346106447261242e+00
1.999999999999944222e+01,2.999999999748040214e+00,1.000000000005786660e+01,6.600000000000734168e-01,1.570000000000087992e+00,2.870000000000001364e+03,-2.175000000000025135e+00,-4.944999999999632578e+00,1.339636934501589138e+01,-2.205011452505462266e+00
1.999999999999976197e+01,2.999999998895119813e+00,1.000000000007546497e+01,6.600000000000906253e-01,1.569999999999896367e+00,2.870000000000001819e+03,-2.175000000000177902e+00,-4.945000000000135287e+00,1.338219517576152384e+01,-2.199612085576020171e+00
2.000000000000036948e+01,2.999999999435105202e+00,1.000000000009630341e+01,6.600000000001896572e-01,1.569999999999891926e+00,2.870000000000001819e+03,-2.175000000000046896e+00,-4.945000000000243645e+00,1.339700515692180360e+01,-2.208090781177847184e+00
1.999999999999930722e+01,2.999999998067533813e+00,1.000000000004219203e+01,6.600000000002733680e-01,1.569999999999797780e+00,2.870000000000001819e+03,-2.174999999999885691e+00,-4.945000000000578488e+00,1.341688972077654363e+01,-2.189194526303407606e+00
2.000000000000028066e+01,2.999999998280979518e+00,1.000000000000553868e+01,6.600000000001289280e-01,1.569999999999830864e+00,2.870000000000001819e+03,-2.174999999999987388e+00,-4.945000000000491447e+00,1.341456985896595988e+01,-2.180811958964640418e+00
1.999999999999997158e+01,2.999999996895080567e+00,1.000000000000932943e+01,6.600000000003752865e-01,1.569999999999772244e+00,2.870000000000001364e+03,-2.174999999999843503e+00,-4.945000000000744578e+00,1.341387501290236628e+01,-2.190599587080659827e+00
2.000000000000036238e+01,2.999999997682074149e+00,1.000000000001478462e+01,6.600000000002756995e-01,1.569999999999822426e+00,2.870000000000001819e+03,-2.174999999999832845e+00,-4.945000000000523421e+00,1.341444909532999930e+01,-2.195158904753178764e+00
1.999999999999981881e+01,2.999999998131491541e+00,9.999999999979957366e+00,6.600000000001858824e-01,1.569999999999861950e+00,2.870000000000001819e+03,-2.174999999999884803e+00,-4.945000000000450591e+00,1.341066330821010233e+01,-2.183030715984125347e+00
1.999999999999984368e+01,2.999999997493566273e+00,1.000000000000823341e+01,6.600000000003274359e-01,1.569999999999856843e+00,2.870000000000001819e+03,-2.174999999999755573e+00,-4.945000000000515428e+00,1.341629419708789683e+01,-2.170644168023306619e+00
1.999999999999952394e+01,2.999999998262452117e+00,9.999999999984838794e+00,6.600000000004050404e-01,1.569999999999779128e+00,2.870000000000001819e+03,-2.174999999999799982e+00,-4.945000000000639773e+00,1.341912188200565659e+01,-2.171478420274386423e+00
1.999999999999887379e+01,2.999999996366930155e+00,1.000000000000935074e+01,6.600000000004377920e-01,1.569999999999755591e+00,2.870000000000001819e+03,-2.174999999999867484e+00,-4.945000000000649543e+00,1.341373293297460023e+01,-2.166826017330518717e+00
1.999999999999896616e+01,2.999999996271837777e+00,9.999999999982641441e+00,6.600000000004305756e-01,1.569999999999687201e+00,2.870000000000001819e+03,-2.174999999999895905e+00,-4.945000000000819185e+00,1.341194026743442436e+01,-2.151572206691625855e+00
2.000000000000077449e+01,2.999999999878662837e+00,1.000000000004961365e+01,6.599999999998534816e-01,1.570000000000151275e+00,2.870000000000001364e+03,-2.175000000000042011e+00,-4.944999999999448725e+00,1.341264576548176812e+01,-2.184045718074171916e+00
2.000000000000058620e+01,2.999999999585298838e+00,1.000000000003768008e+01,6.599999999998745759e-01,1.570000000000175255e+00,2.870000000000001819e+03,-2.174999999999934985e+00,-4.944999999999426521e+00,1.343794613300670804e+01,-2.170690255938064084e+00
2.000000000000011013e+01,2.999999999622253277e+00,1.000000000005791101e+01,6.599999999999184297e-01,1.570000000000127516e+00,2.870000000000001819e+03,-2.175000000000010036e+00,-4.944999999999495799e+00,1.341782146416092480e+01,-2.187603299725658701e+00
2.000000000000057909e+01,2.999999999778098836e+00,1.000000000000511413e+01,6.599999999996337685e-01,1.570000000000302043e+00,2.870000000000001819e+03,-2.175000000000115286e+00,-4.944999999999099671e+00,1.342180677527821686e+01,-2.164167967176191976e+00
1.999999999999973355e+01,2.999999998123410894e+00,1.000000000000235545e+01,6.599999999997427924e-01,1.570000000000154827e+00,2.870000000000001819e+03,-2.175000000000080203e+00,-4.944999999999516227e+00,1.341888991940795250e+01,-2.175804487710446544e+00
2.000000000000020961e+01,2.999999999107702653e+00,1.000000000003867129e+01,6.599999999996125633e-01,1.570000000000227214e+00,2.870000000000001364e+03,-2.175000000000237854e+00,-4.944999999999245333e+00,1.343678589148868063e+01,-2.162091576919402680e+00
1.999999999999977263e+01,2.999999999252809690e+00,1.000000000003300471e+01,6.599999999999937028e-01,1.570000000000030704e+00,2.870000000000001819e+03,-2.175000000000061107e+00,-4.944999999999867057e+00,1.342656136429127578e+01,-2.178739530892081611e+00
2.000000000000018474e+01,3.000000000267374567e+00,1.000000000000928502e+01,6.599999999997866462e-01,1.570000000000159046e+00,2.870000000000001819e+03,-2.175000000000056222e+00,-4.944999999999561524e+00,1.344006509024422691e+01,-2.162674209092654731e+00
1.999999999999970157e+01,2.999999998474240037e+00,1.000000000000054534e+01,6.599999999997711031e-01,1.570000000000076001e+00,2.870000000000001819e+03,-2.175000000000212985e+00,-4.944999999999654783e+00,1.342580418459279024e+01,-2.189468839848910608e+00
1.999999999999950262e+01,2.999999998335967977e+00,1.000000000000289191e+01,6.599999999999009992e-01,1.570000000000020268e+00,2.870000000000001819e+03,-2.175000000000107292e+00,-4.944999999999901696e+00,1.343256142167606626e+01,-2.151132664408180961e+00
1.999999999999903721e+01,2.999999997300119237e+00,9.999999999980554222e+00,6.600000000000598721e-01,1.569999999999950768e+00,2.870000000000001819e+03,-2.174999999999962519e+00,-4.945000000000117524e+00,1.338127543636974792e+01,-2.138738246341673310e+00
1.999999999999956657e+01,2.999999998182217631e+00,1.000000000000622613e+01,6.599999999998635847e-01,1.570000000000155271e+00,2.870000000000001819e+03,-2.174999999999969180e+00,-4.944999999999536655e+00,1.339671459348864602e+01,-2.147895241911436770e+00
1.999999999999916511e+01,2.999999998487409947e+00,9.999999999948643747e+00,6.600000000001265965e-01,1.569999999999973639e+00,2.870000000000001819e+03,-2.174999999999847944e+00,-4.945000000000157492e+00,1.339326215949268395e+01,-2.194854180742380478e+00
1.999999999999868905e+01,2.999999998464986994e+00,9.999999999957374541e+00,6.600000000003634071e-01,1.569999999999841744e+00,2.870000000000001819e+03,-2.174999999999766676e+00,-4.945000000000428386e+00,1.338550206935400411e+01,-2.196647483845195037e+00
1.999999999999886313e+01,2.999999997691639386e+00,9.999999999975965892e+00,6.600000000003263256e-01,1.569999999999646567e+00,2.870000000000001819e+03,-2.175000000000019806e+00,-4.945000000001066986e+00,1.339251290937888506e+01,-2.173315095864645663e+00
1.999999999999872102e+01,2.999999997951633190e+00,9.999999999960678565e+00,6.600000000003476419e-01,1.569999999999608375e+00,2.870000000000001819e+03,-2.175000000000044231e+00,-4.945000000001162022e+00,1.339744100381982150e+01,-2.180011470318023115e+00
1.999999999999928235e+01,2.999999998957288305e+00,1.000000000000080824e+01,6.600000000002650413e-01,1.569999999999727613e+00,2.870000000000001819e+03,-2.174999999999999378e+00,-4.945000000000842277e+00,1.339824833840585683e+01,-2.167168445960082401e+00
1.999999999999827693e+01,2.999999996310772410e+00,9.999999999958044228e+00,6.600000000004612177e-01,1.569999999999528661e+00,2.870000000000001819e+03,-2.175000000000024247e+00,-4.945000000001398277e+00,1.340572826779577120e+01,-2.169840781722403023e+00
1.999999999999837641e+01,2.999999997295163645e+00,1.000000000001684874e+01,6.600000000005358247e-01,1.569999999999500240e+00,2.870000000000001819e+03,-2.174999999999854605e+00,-4.945000000001522622e+00,1.340123421157079875e+01,-2.179785728437997339e+00
2.000000000000020250e+01,2.999999997140262220e+00,9.999999999993111288e+00,6.599999999999891509e-01,1.569999999999914131e+00,2.870000000000001819e+03,-2.175000000000162803e+00,-4.945000000000322693e+00,1.341445404929756613e+01,-2.174636584536594697e+00
1.999999999999923972e+01,2.999999996803699442e+00,9.999999999965842434e+00,6.600000000000622036e-01,1.569999999999816431e+00,2.870000000000001819e+03,-2.175000000000204547e+00,-4.945000000000523421e+00,1.339955663603015168e+01,-2.167823315026591313e+00
1.999999999999998934e+01,2.999999997644344329e+00,1.000000000003513456e+01,6.599999999998531486e-01,1.570000000000007612e+00,2.870000000000001819e+03,-2.175000000000049560e+00,-4.944999999999927454e+00,1.337418437553046857e+01,-2.182793544358775151e+00
2.000000000000009237e+01,2.999999997716694455e+00,1.000000000003496936e+01,6.599999999998398259e-01,1.570000000000046025e+00,2.870000000000001819e+03,-2.175000000000100631e+00,-4.944999999999858176e+00,1.338252107708745697e+01,-2.189874863490718582e+00
2.000000000000020961e+01,2.999999999837302145e+00,1.000000000003256062e+01,6.599999999997508970e-01,1.570000000000172813e+00,2.870000000000001819e+03,-2.175000000000031353e+00,-4.944999999999497575e+00,1.343153245340636381e+01,-2.184612711702138110e+00
1.999999999999947420e+01,3.000000000226318964e+00,1.000000000006301981e+01,6.599999999999088818e-01,1.570000000000158158e+00,2.870000000000001819e+03,-2.174999999999819966e+00,-4.944999999999586393e+00,1.343152886276717162e+01,-2.172306559163058814e+00
1.999999999999924327e+01,3.000000000058498095e+00,1.000000000003577938e+01,6.599999999999195399e-01,1.570000000000011831e+00,2.870000000000001819e+03,-2.174999999999997158e+00,-4.944999999999878604e+00,1.341020672339160136e+01,-2.188350047265311460e+00
1.999999999999923261e+01,2.999999999654730409e+00,1.000000000003628564e+01,6.600000000000482148e-01,1.569999999999924567e+00,2.870000000000001819e+03,-2.174999999999863931e+00,-4.945000000000211671e+00,1.341468459197515628e+01,-2.167812106276974848e+00
2.000000000000036593e+01,2.999999998181764216e+00,1.000000000000272493e+01,6.599999999998998890e-01,1.570000000000200346e+00,2.870000000000001819e+03,-2.174999999999977618e+00,-4.944999999999582840e+00,1.340164776845292849e+01,-2.189798385025883309e+00
1.999999999999987921e+01,2.999999997878356250e+00,9.999999999980335730e+00,6.599999999999618394e-01,1.570000000000232099e+00,2.870000000000001819e+03,-2.174999999999839506e+00,-4.944999999999504681e+00,1.341604506155537457e+01,-2.172650887640812378e+00
2.000000000000083489e+01,2.999999998298469528e+00,1.000000000001056399e+01,6.599999999997425704e-01,1.570000000000259410e+00,2.870000000000001819e+03,-2.175000000000006484e+00,-4.944999999999402540e+00,1.343160235053464469e+01,-2.170417596454803366e+00
1.999999999999920419e+01,2.999999999883568247e+00,1.000000000006695622e+01,6.600000000001871037e-01,1.569999999999954987e+00,2.870000000000001819e+03,-2.174999999999625899e+00,-4.945000000000169038e+00,1.340044716004008230e+01,-2.206475838698475744e+00
1.999999999999830180e+01,2.999999998778019261e+00,1.000000000002239453e+01,6.600000000002723688e-01,1.569999999999904139e+00,2.870000000000001819e+03,-2.174999999999663203e+00,-4.945000000000252527e+00,1.339676819888451220e+01,-2.166679685949104428e+00
1.999999999999769429e+01,2.999999998983108984e+00,1.000000000003699618e+01,6.600000000003795053e-01,1.569999999999840412e+00,2.870000000000001364e+03,-2.174999999999535749e+00,-4.945000000000462137e+00,1.339021884279507013e+01,-2.153965611818235093e+00
1.999999999999887734e+01,2.999999999376869564e+00,1.000000000006395062e+01,6.600000000001673417e-01,1.570000000000013829e+00,2.870000000000001819e+03,-2.174999999999658318e+00,-4.945000000000044693e+00,1.342090243320173570e+01,-2.196643911940166394e+00
1.999999999999905498e+01,2.999999998581359240e+00,1.000000000001184297e+01,6.600000000003208855e-01,1.569999999999861062e+00,2.870000000000001819e+03,-2.174999999999674749e+00,-4.945000000000379536e+00,1.340846740301996043e+01,-2.180473063199234840e+00
1.999999999999877076e+01,2.999999999104758341e+00,1.000000000007376144e+01,6.600000000001291500e-01,1.570000000000026041e+00,2.870000000000001819e+03,-2.174999999999736033e+00,-4.944999999999893703e+00,1.338296302892170608e+01,-2.200544394099937850e+00
2.000000000000010658e+01,3.000000000659811317e+00,1.000000000000332001e+01,6.599999999998353850e-01,1.570000000000126850e+00,2.870000000000001819e+03,-2.174999999999937206e+00,-4.944999999999735607e+00,1.339393971918947379e+01,-2.199569173818989753e+00
2.000000000000087041e+01,3.000000000387244459e+00,9.999999999960078156e+00,6.599999999996757349e-01,1.570000000000183249e+00,2.870000000000001364e+03,-2.175000000000094857e+00,-4.944999999999478923e+00,1.338068059198715787e+01,-2.192190499551954552e+00
2.000000000000063949e+01,3.000000001112047343e+00,9.999999999956505903e+00,6.599999999998901190e-01,1.570000000000026930e+00,2.870000000000001819e+03,-2.175000000000052669e+00,-4.944999999999987850e+00,1.337446976046418179e+01,-2.176179331287697138e+00
2.000000000000052580e+01,3.000000000228092656e+00,9.999999999977896792e+00,6.599999999998987787e-01,1.570000000000105755e+00,2.870000000000001819e+03,-2.175000000000003375e+00,-4.944999999999811102e+00,1.339320233275472383e+01,-2.167603524871656084e+00
2.000000000000181544e+01,3.000000001720181775e+00,1.000000000002853184e+01,6.599999999993115818e-01,1.570000000000427276e+00,2.870000000000001819e+03,-2.175000000000166356e+00,-4.944999999998871409e+00,1.338974174817852436e+01,-2.197812584170889760e+00
2.000000000000114753e+01,3.000000000727141014e+00,1.000000000000630074e+01,6.599999999995794786e-01,1.570000000000228990e+00,2.870000000000001819e+03,-2.175000000000043343e+00,-4.944999999999416751e+00,1.341221884578828849e+01,-2.173805122180582305e+00
2.000000000000057909e+01,3.000000000353909790e+00,1.000000000001058531e+01,6.599999999997716582e-01,1.570000000000072227e+00,2.870000000000001819e+03,-2.175000000000166356e+00,-4.944999999999735607e+00,1.338172255441805447e+01,-2.207353047366774845e+00
1.999999999999970868e+01,2.999999998186956951e+00,9.999999999991015187e+00,6.600000000000624256e-01,1.569999999999853069e+00,2.870000000000001819e+03,-2.174999999999902123e+00,-4.945000000000368878e+00,1.342095306707517111e+01,-2.120270744609639824e+00
2.000000000000084910e+01,2.999999997817251796e+00,9.999999999989132249e+00,6.599999999999182076e-01,1.569999999999933227e+00,2.870000000000001819e+03,-2.174999999999966072e+00,-4.945000000000183249e+00,1.342155480290623082e+01,-2.111850928858276077e+00
2.000000000000089528e+01,3.000000000334713146e+00,1.000000000005719514e+01,6.599999999998757971e-01,1.570000000000155715e+00,2.870000000000001819e+03,-2.174999999999877254e+00,-4.944999999999451390e+00,1.338631612639491486e+01,-2.207707917930273211e+00
2.000000000000091305e+01,3.000000000082050811e+00,1.000000000002745892e+01,6.599999999998654721e-01,1.570000000000026708e+00,2.870000000000001819e+03,-2.174999999999960298e+00,-4.944999999999780016e+00,1.337942876963910521e+01,-2.182288237760774408e+00
1.999999999999996803e+01,3.000000000448540316e+00,1.000000000007080914e+01,6.600000000002003153e-01,1.569999999999819318e+00,2.870000000000001819e+03,-2.174999999999938094e+00,-4.945000000000329798e+00,1.336111001284853472e+01,-2.180779103523535323e+00
2.000000000000051159e+01,3.000000000183531412e+00,1.000000000006778400e+01,6.600000000001163825e-01,1.569999999999903251e+00,2.870000000000001819e+03,-2.174999999999946532e+00,-4.945000000000054463e+00,1.337768352357162271e+01,-2.168123708214998224e+00
2.000000000000104450e+01,3.000000000142234224e+00,1.000000000006129319e+01,6.599999999998740208e-01,1.570000000000025597e+00,2.870000000000001819e+03,-2.175000000000018918e+00,-4.944999999999810214e+00,1.338219463112619323e+01,-2.196974424381620050e+00
2.000000000000075318e+01,2.999999999997225331e+00,1.000000000005754863e+01,6.600000000000105782e-01,1.569999999999962537e+00,2.870000000000001819e+03,-2.174999999999958966e+00,-4.944999999999979856e+00,1.337650978963372950e+01,-2.183057121309007975e+00
2.000000000000072475e+01,2.999999998444527805e+00,9.999999999987517540e+00,6.600000000000834088e-01,1.569999999999751816e+00,2.870000000000001819e+03,-2.175000000000132605e+00,-4.945000000000434603e+00,1.340649848050119530e+01,-2.124620529701371829e+00
1.999999999999971223e+01,2.999999998045941751e+00,9.999999999992345678e+00,6.600000000003675149e-01,1.569999999999670770e+00,2.870000000000001819e+03,-2.174999999999883471e+00,-4.945000000000769447e+00,1.341092478273056265e+01,-2.121688985232565550e+00
2.000000000000004974e+01,2.999999998280419966e+00,9.999999999997502442e+00,6.600000000002044231e-01,1.569999999999692974e+00,2.870000000000001819e+03,-2.174999999999980727e+00,-4.945000000000748130e+00,1.340830352929910418e+01,-2.127949692883156274e+00
2.000000000000011013e+01,2.999999998256430711e+00,1.000000000000613021e+01,6.600000000001270406e-01,1.569999999999757589e+00,2.870000000000001819e+03,-2.174999999999970068e+00,-4.945000000000610463e+00,1.340130205355576365e+01,-2.130754187443323566e+00
2.000000000000100187e+01,3.000000000451105375e+00,1.000000000001161204e+01,6.599999999999636158e-01,1.570000000000041585e+00,2.870000000000001819e+03,-2.174999999999911449e+00,-4.944999999999851958e+00,1.340466138658618078e+01,-2.159616529998854784e+00
2.000000000000136424e+01,2.999999999022117780e+00,1.000000000001345057e+01,6.599999999998210631e-01,1.570000000000247864e+00,2.870000000000001819e+03,-2.174999999999836842e+00,-4.944999999999236451e+00,1.342233017740066003e+01,-2.159097310528538483e+00
2.000000000000076028e+01,2.999999999614920920e+00,9.999999999997239541e+00,6.599999999998535927e-01,1.570000000000201457e+00,2.870000000000001364e+03,-2.174999999999913669e+00,-4.944999999999473594e+00,1.342774103079522696e+01,-2.167696400968031956e+00
2.000000000000096279e+01,2.999999998940349855e+00,9.999999999995166533e+00,6.599999999998157341e-01,1.570000000000149498e+00,2.870000000000001819e+03,-2.174999999999982059e+00,-4.944999999999517115e+00,1.342625573088907664e+01,-2.147911579608979160e+00
2.000000000000042277e+01,2.999999998153694225e+00,9.999999999957497110e+00,6.599999999998790168e-01,1.570000000000063567e+00,2.870000000000001819e+03,-2.175000000000045564e+00,-4.944999999999796003e+00,1.341869775664527076e+01,-2.151339370490265246e+00
2.000000000000121858e+01,2.999999999330888123e+00,9.999999999980655474e+00,6.599999999996900568e-01,1.570000000000248752e+00,2.870000000000001819e+03,-2.174999999999925215e+00,-4.944999999999315499e+00,1.343710413278121507e+01,-2.172851302243374416e+00
2.000000000000097344e+01,2.999999999096083947e+00,9.999999999995914379e+00,6.599999999998246158e-01,1.570000000000186580e+00,2.870000000000001819e+03,-2.174999999999851052e+00,-4.944999999999551754e+00,1.343640805571437724e+01,-2.153083752999591205e+00
2.000000000000022737e+01,2.999999999409431961e+00,9.999999999999758415e+00,6.599999999998051869e-01,1.570000000000156826e+00,2.870000000000001819e+03,-2.174999999999938538e+00,-4.944999999999466489e+00,1.340219247650236767e+01,-2.158417997871837191e+00
2.000000000000106226e+01,2.999999999535319706e+00,1.000000000000360600e+01,6.599999999998469313e-01,1.570000000000132845e+00,2.870000000000001819e+03,-2.174999999999878586e+00,-4.944999999999581064e+00,1.341764701616450850e+01,-2.147155270374123681e+00
2.000000000000080291e+01,2.999999999449520782e+00,9.999999999983781862e+00,6.599999999999864864e-01,1.570000000000006501e+00,2.870000000000001819e+03,-2.174999999999957634e+00,-4.945000000000167262e+00,1.341729108473222354e+01,-2.195536564215887942e+00
1.999999999999998224e+01,2.999999999012353591e+00,9.999999999969531927e+00,6.599999999998927835e-01,1.570000000000030704e+00,2.870000000000001819e+03,-2.175000000000060218e+00,-4.944999999999886597e+00,1.340685407120982298e+01,-2.178175063808799994e+00
2.000000000000125411e+01,2.999999999771902015e+00,9.999999999972574827e+00,6.599999999998185096e-01,1.570000000000044693e+00,2.870000000000001819e+03,-2.175000000000042011e+00,-4.944999999999971863e+00,1.340309483799569357e+01,-2.162094843863145766e+00
2.000000000000035882e+01,2.999999999466321121e+00,9.999999999985336174e+00,6.600000000000930678e-01,1.569999999999966089e+00,2.870000000000001819e+03,-2.174999999999839950e+00,-4.945000000000214335e+00,1.339098125504921910e+01,-2.157597305210348537e+00
1.999999999999921840e+01,2.999999999465032374e+00,1.000000000003419132e+01,6.600000000001775557e-01,1.569999999999995177e+00,2.870000000000001819e+03,-2.174999999999792877e+00,-4.945000000000073115e+00,1.339587802155505614e+01,-2.194680442512476404e+00
1.999999999999997158e+01,2.999999998706387228e+00,1.000000000004555645e+01,6.600000000002356204e-01,1.569999999999982965e+00,2.870000000000001819e+03,-2.174999999999746247e+00,-4.945000000000099760e+00,1.339294523224765854e+01,-2.176470238776067490e+00
1.999999999999935696e+01,2.999999999001550233e+00,1.000000000006958345e+01,6.600000000003465317e-01,1.569999999999894369e+00,2.870000000000001819e+03,-2.174999999999795541e+00,-4.945000000000290719e+00,1.338081253274561533e+01,-2.170149405188962710e+00
1.999999999999981881e+01,2.999999999464951106e+00,1.000000000005895018e+01,6.600000000002057554e-01,1.569999999999923457e+00,2.870000000000001819e+03,-2.174999999999818190e+00,-4.945000000000330687e+00,1.338844731800205068e+01,-2.168406034870273835e+00
2.000000000000004263e+01,2.999999999430009279e+00,1.000000000004308021e+01,6.600000000000960654e-01,1.570000000000056462e+00,2.870000000000001364e+03,-2.174999999999813305e+00,-4.944999999999931894e+00,1.338754932784019935e+01,-2.155805269898030119e+00
2.000000000000003197e+01,2.999999998257245171e+00,1.000000000006795986e+01,6.600000000001231548e-01,1.570000000000038476e+00,2.870000000000001819e+03,-2.174999999999855937e+00,-4.944999999999998508e+00,1.341646484333148592e+01,-2.188918635452862915e+00
2.000000000000060041e+01,3.000000001273055883e+00,9.999999999900815340e+00,6.599999999999683897e-01,1.569999999999889262e+00,2.870000000000001819e+03,-2.175000000000106404e+00,-4.945000000000306706e+00,1.337297714008077776e+01,-2.139564958922430815e+00
1.999999999999944222e+01,3.000000001254327309e+00,9.999999999899921832e+00,6.600000000001243761e-01,1.569999999999840856e+00,2.870000000000001819e+03,-2.174999999999946088e+00,-4.945000000000500329e+00,1.337705091782999745e+01,-2.132274791032413574e+00
1.999999999999988631e+01,2.999999997620335979e+00,9.999999999985279331e+00,6.600000000003359846e-01,1.569999999999712958e+00,2.870000000000001819e+03,-2.174999999999969624e+00,-4.945000000000793428e+00,1.336211137110021951e+01,-2.161672085478470340e+00
1.999999999999978684e+01,3.000000002209282979e+00,1.000000000005066703e+01,6.600000000002528289e-01,1.569999999999797113e+00,2.870000000000001819e+03,-2.175000000000026468e+00,-4.945000000000540297e+00,1.340889049445341286e+01,-2.208602023166116535e+00
2.000000000000007461e+01,3.000000001239142122e+00,1.000000000005143974e+01,6.600000000001799982e-01,1.569999999999829754e+00,2.870000000000001819e+03,-2.175000000000064659e+00,-4.945000000000527862e+00,1.338181206730320838e+01,-2.209500610847686008e+00
1.999999999999954881e+01,3.000000000996631666e+00,9.999999999965726971e+00,6.600000000003745093e-01,1.569999999999751594e+00,2.870000000000001819e+03,-2.174999999999812417e+00,-4.945000000000927542e+00,1.341477903954718087e+01,-2.197605902237065312e+00
1.999999999999906564e+01,3.000000001337053135e+00,1.000000000000389200e+01,6.600000000006650547e-01,1.569999999999555085e+00,2.870000000000001819e+03,-2.174999999999757794e+00,-4.945000000001468443e+00,1.343114560190637796e+01,-2.172194459091984609e+00
1.999999999999993605e+01,3.000000000508019404e+00,9.999999999982398080e+00,6.600000000003587441e-01,1.569999999999732276e+00,2.870000000000001819e+03,-2.174999999999876810e+00,-4.945000000000987050e+00,1.343181221478026011e+01,-2.175756217743726406e+00
1.999999999999886668e+01,3.000000001166019281e+00,1.000000000002714451e+01,6.600000000004275780e-01,1.569999999999728502e+00,2.870000000000001819e+03,-2.174999999999839062e+00,-4.945000000000776552e+00,1.338547825680540626e+01,-2.195388346505594335e+00
1.999999999999841549e+01,3.000000000995975302e+00,1.000000000003152856e+01,6.600000000004686562e-01,1.569999999999667439e+00,2.870000000000001819e+03,-2.174999999999895905e+00,-4.945000000000981721e+00,1.338745542890374196e+01,-2.208154332337624925e+00
1.999999999999875300e+01,3.000000000756420704e+00,1.000000000001778488e+01,6.600000000006340795e-01,1.569999999999480478e+00,2.870000000000001819e+03,-2.174999999999966960e+00,-4.945000000001429363e+00,1.337934576709992562e+01,-2.216265370332546336e+00
1.999999999999872102e+01,2.999999999789871197e+00,1.000000000002718714e+01,6.600000000002874678e-01,1.569999999999892593e+00,2.870000000000001819e+03,-2.174999999999776445e+00,-4.945000000000415952e+00,1.336279030966996828e+01,-2.182230630425963103e+00
1.999999999999847944e+01,3.000000000133419498e+00,1.000000000004506973e+01,6.600000000002450573e-01,1.569999999999953877e+00,2.870000000000001819e+03,-2.174999999999754241e+00,-4.945000000000250751e+00,1.334897440643630695e+01,-2.177059485852137932e+00
2.000000000000094857e+01,2.999999999621796754e+00,9.999999999983959498e+00,6.600000000000280087e-01,1.569999999999978080e+00,2.870000000000001819e+03,-2.174999999999839062e+00,-4.945000000000058904e+00,1.341476406849661451e+01,-2.120092149100187395e+00
2.000000000000089528e+01,2.999999999675778017e+00,9.999999999990098587e+00,6.600000000000622036e-01,1.570000000000079332e+00,2.870000000000001819e+03,-2.174999999999729372e+00,-4.944999999999851070e+00,1.342691600315616363e+01,-2.127828764262649219e+00
1.999999999999959499e+01,3.000000001203063427e+00,1.000000000002581579e+01,6.600000000004667688e-01,1.569999999999769136e+00,2.870000000000001819e+03,-2.174999999999870148e+00,-4.945000000000602469e+00,1.338794742105017122e+01,-2.186031349618662301e+00
1.999999999999932498e+01,3.000000000282906587e+00,1.000000000002524558e+01,6.600000000005979972e-01,1.569999999999676321e+00,2.870000000000001819e+03,-2.174999999999794209e+00,-4.945000000000944418e+00,1.337508342647033288e+01,-2.177601701608657514e+00
1.999999999999893063e+01,3.000000000489060792e+00,1.000000000004008527e+01,6.600000000006686074e-01,1.569999999999674989e+00,2.870000000000001819e+03,-2.174999999999683631e+00,-4.945000000000947082e+00,1.340399970316314437e+01,-2.182397060321852766e+00
1.999999999999885247e+01,2.999999999025909858e+00,1.000000000005202949e+01,6.600000000007421042e-01,1.569999999999567963e+00,2.870000000000001819e+03,-2.174999999999711608e+00,-4.945000000001209095e+00,1.339649909218254997e+01,-2.122946419154563280e+00
1.999999999999860734e+01,3.000000000313291171e+00,1.000000000009996803e+01,6.600000000008736656e-01,1.569999999999577289e+00,2.870000000000001819e+03,-2.174999999999566835e+00,-4.945000000001284590e+00,1.338847314637625097e+01,-2.143069525388280994e+00
1.999999999999692335e+01,2.999999999974188203e+00,9.999999999972880360e+00,6.600000000004194733e-01,1.569999999999789786e+00,2.870000000000001819e+03,-2.174999999999816414e+00,-4.945000000000504770e+00,1.338400768177456968e+01,-2.156280924294853740e+00
1.999999999999751310e+01,3.000000000803745515e+00,9.999999999963671726e+00,6.600000000003097833e-01,1.569999999999843521e+00,2.870000000000001819e+03,-2.174999999999863487e+00,-4.945000000000391971e+00,1.340031536354895003e+01,-2.159472404635251586e+00
1.999999999999861089e+01,3.000000000315751425e+00,9.999999999975539566e+00,6.600000000000953992e-01,1.570000000000008500e+00,2.870000000000001819e+03,-2.174999999999872369e+00,-4.945000000000050022e+00,1.340945969970700524e+01,-2.186434539133220945e+00
1.999999999999852207e+01,3.000000000694400981e+00,9.999999999999937828e+00,6.600000000001323697e-01,1.569999999999998286e+00,2.870000000000001819e+03,-2.174999999999875477e+00,-4.945000000000054463e+00,1.341385996035698724e+01,-2.189161816643564240e+00
1.999999999999765876e+01,3.000000000101336717e+00,9.999999999995919708e+00,6.600000000003106715e-01,1.569999999999929230e+00,2.870000000000001819e+03,-2.174999999999748912e+00,-4.945000000000170814e+00,1.341822093464198851e+01,-2.198788077937395169e+00
1.999999999999840483e+01,2.999999999645897475e+00,1.000000000000967759e+01,6.600000000001293721e-01,1.569999999999906359e+00,2.870000000000001819e+03,-2.174999999999832401e+00,-4.945000000000267626e+00,1.340646928375904956e+01,-2.165214082874327595e+00
1.999999999999901590e+01,2.999999999780782911e+00,1.000000000004166090e+01,6.599999999999935918e-01,1.570000000000016271e+00,2.870000000000001819e+03,-2.174999999999943423e+00,-4.945000000000038476e+00,1.340088615033103281e+01,-2.178068524038364817e+00
1.999999999999886668e+01,2.999999999535082118e+00,1.000000000001471001e+01,6.599999999999679456e-01,1.569999999999965423e+00,2.870000000000001819e+03,-2.175000000000039790e+00,-4.945000000000117524e+00,1.340937071840801664e+01,-2.178418360192770908e+00
1.999999999999885247e+01,2.999999999002655571e+00,1.000000000002660627e+01,6.600000000002206324e-01,1.569999999999824425e+00,2.870000000000001819e+03,-2.174999999999912781e+00,-4.945000000000606910e+00,1.340675431407396268e+01,-2.157890713261672477e+00
1.999999999999841549e+01,2.999999999102351378e+00,1.000000000001059952e+01,6.600000000003017897e-01,1.569999999999749818e+00,2.870000000000001819e+03,-2.174999999999897238e+00,-4.945000000000785434e+00,1.338051827944853933e+01,-2.146266559631814896e+00
1.999999999999812061e+01,2.999999998093954012e+00,1.000000000002390976e+01,6.600000000000774136e-01,1.569999999999924123e+00,2.870000000000001819e+03,-2.174999999999899902e+00,-4.945000000000190354e+00,1.339368717509148965e+01,-2.140489094609424381e+00
1.999999999999828049e+01,2.999999998462689277e+00,1.000000000003775824e+01,6.600000000000896261e-01,1.569999999999998730e+00,2.870000000000001819e+03,-2.174999999999828848e+00,-4.945000000000023377e+00,1.339944312436563578e+01,-2.148909815959874514e+00
1.999999999999886313e+01,2.999999999596210998e+00,1.000000000000982858e+01,6.600000000003219958e-01,1.569999999999868612e+00,2.870000000000001819e+03,-2.174999999999745803e+00,-4.945000000000392859e+00,1.343052990041860895e+01,-2.157397891600882467e+00
1.999999999999902300e+01,2.999999998336697171e+00,1.000000000000162714e+01,6.600000000004002665e-01,1.569999999999713847e+00,2.870000000000001819e+03,-2.174999999999831957e+00,-4.945000000000729479e+00,1.340014406238691969e+01,-2.144099800036603831e+00
1.999999999999774403e+01,2.999999997684853259e+00,1.000000000002324185e+01,6.600000000006608358e-01,1.569999999999599716e+00,2.870000000000001819e+03,-2.174999999999667644e+00,-4.945000000001085638e+00,1.340664835858848924e+01,-2.150329967510826723e+00
1.999999999999891287e+01,2.999999999124582040e+00,1.000000000003126033e+01,6.600000000004799805e-01,1.569999999999756257e+00,2.870000000000001819e+03,-2.174999999999730260e+00,-4.945000000000727702e+00,1.341036862297154997e+01,-2.161656662903232995e+00
1.999999999999901235e+01,2.999999999052393562e+00,1.000000000002305534e+01,6.600000000003402034e-01,1.569999999999855733e+00,2.870000000000001819e+03,-2.174999999999749800e+00,-4.945000000000383977e+00,1.343664080520765047e+01,-2.165561595770408410e+00
1.999999999999858957e+01,2.999999999300712705e+00,1.000000000004208545e+01,6.600000000004557776e-01,1.569999999999724949e+00,2.870000000000001819e+03,-2.174999999999734257e+00,-4.945000000000731255e+00,1.341175207950511528e+01,-2.156018497843123161e+00
1.999999999999817391e+01,2.999999999276104390e+00,1.000000000001061018e+01,6.600000000004944134e-01,1.569999999999710516e+00,2.870000000000001819e+03,-2.174999999999649880e+00,-4.945000000000845830e+00,1.341787810526034619e+01,-2.125910543588838575e+00
1.999999999999801759e+01,2.999999999107305637e+00,1.000000000000560973e+01,6.600000000004968559e-01,1.569999999999613927e+00,2.870000000000001819e+03,-2.174999999999772893e+00,-4.945000000001041229e+00,1.342473794452723546e+01,-2.137520947673152705e+00
1.999999999999847944e+01,2.999999998782625354e+00,1.000000000001419842e+01,6.600000000004014877e-01,1.569999999999788232e+00,2.870000000000001819e+03,-2.174999999999707168e+00,-4.945000000000658424e+00,1.342375263798138540e+01,-2.116680485267545819e+00
1.999999999999840483e+01,2.999999997433143939e+00,9.999999999998411937e+00,6.600000000004379030e-01,1.569999999999719398e+00,2.870000000000001819e+03,-2.174999999999811973e+00,-4.945000000000851159e+00,1.342360678088387616e+01,-2.124724336026770022e+00
1.999999999999893774e+01,2.999999999474836976e+00,1.000000000000854961e+01,6.600000000004193623e-01,1.569999999999762252e+00,2.870000000000001819e+03,-2.174999999999772005e+00,-4.945000000000693952e+00,1.343166930341710952e+01,-2.148497825905602454e+00
1.999999999999896971e+01,2.999999998057914841e+00,9.999999999948805396e+00,6.600000000003676259e-01,1.569999999999653451e+00,2.870000000000001819e+03,-2.174999999999953193e+00,-4.945000000000962181e+00,1.342140144843319405e+01,-2.114312318949442826e+00
1.999999999999917222e+01,2.999999998261777989e+00,9.999999999974805931e+00,6.600000000001969847e-01,1.569999999999821538e+00,2.870000000000001819e+03,-2.174999999999892797e+00,-4.945000000000623785e+00,1.342635765591703745e+01,-2.121080602340914112e+00
1.999999999999939604e+01,2.999999998832054704e+00,9.999999999972530418e+00,6.600000000001213785e-01,1.569999999999857732e+00,2.870000000000001819e+03,-2.174999999999976730e+00,-4.945000000000464802e+00,1.340898567560542887e+01,-2.139162677267454793e+00
1.999999999999819877e+01,2.999999997944168495e+00,9.999999999985160315e+00,6.600000000004480061e-01,1.569999999999713625e+00,2.870000000000001819e+03,-2.174999999999791100e+00,-4.945000000000772999e+00,1.340230325122786859e+01,-2.198085207215500603e+00
1.999999999999901235e+01,2.999999998837622694e+00,9.999999999966048492e+00,6.600000000002314016e-01,1.569999999999840412e+00,2.870000000000001819e+03,-2.174999999999916778e+00,-4.945000000000415064e+00,1.340824748113760734e+01,-2.201093561872466076e+00
1.999999999999880984e+01,2.999999999457501065e+00,9.999999999976353138e+00,6.600000000004151435e-01,1.569999999999686091e+00,2.870000000000001819e+03,-2.174999999999845723e+00,-4.945000000000911555e+00,1.341500739815523247e+01,-2.189210995694176098e+00
2.000000000000058975e+01,2.999999997920955952e+00,9.999999999916306948e+00,6.599999999998932276e-01,1.570000000000059348e+00,2.870000000000001819e+03,-2.175000000000132161e+00,-4.944999999999753371e+00,1.340887157239968097e+01,-2.138192646655068696e+00
2.000000000000031264e+01,2.999999998156989367e+00,9.999999999947442930e+00,6.599999999999651701e-01,1.570000000000025819e+00,2.870000000000001819e+03,-2.175000000000052669e+00,-4.944999999999827089e+00,1.341213190198598326e+01,-2.147634328240299428e+00
1.999999999999922196e+01,2.999999997050958100e+00,9.999999999906572512e+00,6.600000000003005685e-01,1.569999999999815099e+00,2.870000000000001819e+03,-2.174999999999895017e+00,-4.945000000000511875e+00,1.340750587188641063e+01,-2.147171263289519683e+00
1.999999999999966249e+01,2.999999996451228501e+00,9.999999999917744020e+00,6.600000000001057243e-01,1.569999999999959428e+00,2.870000000000001819e+03,-2.174999999999922107e+00,-4.945000000000129958e+00,1.341070670968828082e+01,-2.128960176926062431e+00
2.000000000000047251e+01,2.999999997903918469e+00,9.999999999924812144e+00,6.600000000000011413e-01,1.570000000000019158e+00,2.870000000000001819e+03,-2.174999999999983391e+00,-4.944999999999969198e+00,1.341537733796697118e+01,-2.145669838990303724e+00
1.999999999999991118e+01,2.999999996914152867e+00,9.999999999904716219e+00,6.599999999999679456e-01,1.569999999999991624e+00,2.870000000000001819e+03,-2.175000000000055334e+00,-4.944999999999982521e+00,1.342279397802385610e+01,-2.128697146343478508e+00
2.000000000000025224e+01,3.000000000349108298e+00,9.999999999964503061e+00,6.600000000001191580e-01,1.569999999999798446e+00,2.870000000000001819e+03,-2.175000000000121503e+00,-4.945000000000409734e+00,1.337372798469505675e+01,-2.199677749499758139e+00
2.000000000000012434e+01,3.000000001815216866e+00,1.000000000001275247e+01,6.600000000000352252e-01,1.570000000000009610e+00,2.870000000000001819e+03,-2.175000000000021139e+00,-4.944999999999827978e+00,1.337503244333729135e+01,-2.211582907179790780e+00
2.000000000000001776e+01,2.999999998426965853e+00,9.999999999977930543e+00,6.600000000001631228e-01,1.569999999999795115e+00,2.870000000000001819e+03,-2.174999999999990941e+00,-4.945000000000437268e+00,1.340064627867036506e+01,-2.191310340653117361e+00
1.999999999999984013e+01,2.999999998193183970e+00,9.999999999945409002e+00,6.600000000001048361e-01,1.569999999999758256e+00,2.870000000000001819e+03,-2.175000000000057554e+00,-4.945000000000558060e+00,1.338947222165285034e+01,-2.166025403295686935e+00
1.999999999999930012e+01,2.999999997977661703e+00,9.999999999955624830e+00,6.600000000002074207e-01,1.569999999999694085e+00,2.870000000000001819e+03,-2.175000000000067324e+00,-4.945000000000664642e+00,1.338176496052803621e+01,-2.159157911655873452e+00
1.999999999999969447e+01,2.999999998300473258e+00,9.999999999960383690e+00,6.600000000001361444e-01,1.569999999999720064e+00,2.870000000000001819e+03,-2.175000000000096190e+00,-4.945000000000549178e+00,1.338304386783852884e+01,-2.202222733948540512e+00
2.000000000000022382e+01,2.999999998611070140e+00,9.999999999953994134e+00,6.599999999999740519e-01,1.569999999999875051e+00,2.870000000000001819e+03,-2.175000000000156586e+00,-4.945000000000164597e+00,1.340761789083666145e+01,-2.192005420861115716e+00
2.000000000000056488e+01,2.999999999005508844e+00,9.999999999951182161e+00,6.599999999999324185e-01,1.569999999999849738e+00,2.870000000000001364e+03,-2.175000000000314238e+00,-4.945000000000314699e+00,1.337490981239429289e+01,-2.150319547698177569e+00
2.000000000000055067e+01,2.999999999536440143e+00,9.999999999983442578e+00,6.599999999998635847e-01,1.569999999999914353e+00,2.870000000000001819e+03,-2.175000000000291145e+00,-4.945000000000198348e+00,1.337787631874454064e+01,-2.167732836135498609e+00
2.000000000000116884e+01,2.999999998399370593e+00,9.999999999893280034e+00,6.599999999997946398e-01,1.569999999999835749e+00,2.870000000000001819e+03,-2.175000000000360423e+00,-4.945000000000410623e+00,1.339609867107034091e+01,-2.146408353190634610e+00
2.000000000000068567e+01,2.999999998332703921e+00,9.999999999947908336e+00,6.599999999998017453e-01,1.569999999999867057e+00,2.870000000000001819e+03,-2.175000000000321787e+00,-4.945000000000339568e+00,1.339851639551364215e+01,-2.153345759728746867e+00
2.000000000000105871e+01,3.000000000467055283e+00,9.999999999955969443e+00,6.599999999999039968e-01,1.569999999999819984e+00,2.870000000000001819e+03,-2.175000000000294698e+00,-4.945000000000416840e+00,1.338209147859290127e+01,-2.161288095383054664e+00
2.000000000000089884e+01,2.999999999721266519e+00,9.999999999945766049e+00,6.599999999997887556e-01,1.569999999999935225e+00,2.870000000000001819e+03,-2.175000000000232969e+00,-4.945000000000105089e+00,1.339025592460538405e+01,-2.155832913951321039e+00
2.000000000000059686e+01,2.999999998239523347e+00,9.999999999969872988e+00,6.599999999999729416e-01,1.570000000000175477e+00,2.870000000000001819e+03,-2.174999999999804423e+00,-4.944999999999499352e+00,1.340430587497736958e+01,-2.146836794064919118e+00
2.000000000000045119e+01,2.999999998016811276e+00,9.999999999948794738e+00,6.599999999999885958e-01,1.570000000000101981e+00,2.870000000000001819e+03,-2.174999999999890132e+00,-4.944999999999678764e+00,1.339680764820037773e+01,-2.154026728151978265e+00
2.000000000000095568e+01,2.999999998794349754e+00,9.999999999975734966e+00,6.599999999998075184e-01,1.570000000000267182e+00,2.870000000000001819e+03,-2.174999999999937206e+00,-4.944999999999234674e+00,1.340839598716393688e+01,-2.136997945111538399e+00
2.000000000000094147e+01,2.999999998702769233e+00,9.999999999971816322e+00,6.599999999998398259e-01,1.570000000000192353e+00,2.870000000000001819e+03,-2.174999999999942535e+00,-4.944999999999441620e+00,1.340006233311736494e+01,-2.147074724371027532e+00
2.000000000000143885e+01,2.999999997955070885e+00,9.999999999937848827e+00,6.599999999996377653e-01,1.570000000000270735e+00,2.870000000000001819e+03,-2.175000000000069988e+00,-4.944999999999184048e+00,1.338322690988875863e+01,-2.151299460290992283e+00
2.000000000000081002e+01,2.999999998690239700e+00,9.999999999966989961e+00,6.599999999996865041e-01,1.570000000000330909e+00,2.870000000000001819e+03,-2.174999999999943423e+00,-4.944999999999008189e+00,1.338793758755607932e+01,-2.144148552357076909e+00
1.999999999999934630e+01,2.999999996070178643e+00,9.999999999999785061e+00,6.600000000003030109e-01,1.569999999999787788e+00,2.870000000000001819e+03,-2.174999999999781775e+00,-4.945000000000643325e+00,1.343082565823808494e+01,-2.167264250316106367e+00
1.999999999999902300e+01,2.999999995591816404e+00,9.999999999985492494e+00,6.600000000003242162e-01,1.569999999999809326e+00,2.870000000000001819e+03,-2.174999999999749800e+00,-4.945000000000529639e+00,1.344088715835579784e+01,-2.166012208301632658e+00
1.999999999999848654e+01,2.999999995389563967e+00,9.999999999988785859e+00,6.600000000001861045e-01,1.569999999999883267e+00,2.870000000000001819e+03,-2.174999999999732037e+00,-4.945000000000314699e+00,1.342775877197239609e+01,-2.179120214469369543e+00
1.999999999999842970e+01,2.999999996575455796e+00,1.000000000001919886e+01,6.600000000004228040e-01,1.569999999999767359e+00,2.870000000000001819e+03,-2.174999999999689404e+00,-4.945000000000527862e+00,1.341771118502430404e+01,-2.185700290482517794e+00
1.999999999999933920e+01,2.999999996274584024e+00,9.999999999959044317e+00,6.600000000001245981e-01,1.569999999999982965e+00,2.870000000000001819e+03,-2.174999999999744027e+00,-4.945000000000121076e+00,1.337351695140988639e+01,-2.160766141666652373e+00
1.999999999999987566e+01,2.999999996874720853e+00,9.999999999974621190e+00,6.600000000000156852e-01,1.570000000000007168e+00,2.870000000000001819e+03,-2.174999999999792433e+00,-4.945000000000040252e+00,1.337138547538687483e+01,-2.162117288640323487e+00
1.999999999999966249e+01,2.999999996786153034e+00,9.999999999963307573e+00,6.599999999999285327e-01,1.570000000000042917e+00,2.870000000000001819e+03,-2.174999999999891909e+00,-4.944999999999903473e+00,1.339043034129683996e+01,-2.170370903224053016e+00
1.999999999999931433e+01,2.999999996157105997e+00,9.999999999986792787e+00,6.600000000000626477e-01,1.570000000000018714e+00,2.870000000000001819e+03,-2.174999999999746692e+00,-4.944999999999987850e+00,1.338866443775079951e+01,-2.179312305691564422e+00
1.999999999999938183e+01,3.000000002537754451e+00,1.000000000004485656e+01,6.600000000004284662e-01,1.569999999999677209e+00,2.870000000000001819e+03,-2.174999999999900346e+00,-4.945000000001143370e+00,1.335690673395343708e+01,-2.197019415080138760e+00
