1.999999999999845102e+01,2.999999999776417070e+00,9.999999999966565412e+00,6.600000000002664846e-01,1.569999999999684981e+00,2.870000000000001819e+03,-2.174999999999998046e+00,-4.945000000000900009e+00,1.339378670272984095e+01,-2.169439381436504277e+00
1.999999999999882050e+01,2.999999999970090592e+00,9.999999999971345588e+00,6.600000000001604583e-01,1.569999999999800222e+00,2.870000000000002728e+03,-2.175000000000002043e+00,-4.945000000000575824e+00,1.339488829294348449e+01,-2.175775865232320250e+00
1.999999999999938183e+01,2.999999999809620732e+00,9.999999999994615862e+00,6.600000000001758904e-01,1.569999999999939666e+00,2.870000000000002274e+03,-2.174999999999831957e+00,-4.944999999999912355e+00,1.339004691424551829e+01,-2.174338341099518512e+00
1.999999999999944578e+01,3.000000000440051995e+00,1.000000000000760458e+01,6.600000000001554623e-01,1.569999999999896589e+00,2.870000000000002274e+03,-2.174999999999869260e+00,-4.945000000000104201e+00,1.338709319466079606e+01,-2.176834908471967811e+00
1.999999999999889866e+01,2.999999998681572411e+00,1.000000000000022737e+01,6.599999999998777955e-01,1.570000000000099316e+00,2.870000000000002274e+03,-2.174999999999960743e+00,-4.944999999999676987e+00,1.339267548206575320e+01,-2.187241140771091885e+00
1.999999999999933920e+01,2.999999998505179288e+00,9.999999999997925215e+00,6.599999999998569233e-01,1.570000000000059570e+00,2.870000000000002274e+03,-2.175000000000033129e+00,-4.944999999999788898e+00,1.339741755421581892e+01,-2.182067683993239360e+00
1.999999999999967315e+01,2.999999998025519865e+00,1.000000000003100808e+01,6.600000000002282929e-01,1.569999999999856621e+00,2.870000000000002274e+03,-2.174999999999889688e+00,-4.945000000000543849e+00,1.340325374619267329e+01,-2.183193134512672717e+00
1.999999999999776890e+01,2.999999997123588003e+00,1.000000000001775469e+01,6.600000000001828848e-01,1.569999999999828866e+00,2.870000000000001819e+03,-2.174999999999916334e+00,-4.945000000000213447e+00,1.339921810548629288e+01,-2.182318167433107359e+00
1.999999999999888800e+01,2.999999997769427384e+00,9.999999999994601652e+00,6.600000000003708456e-01,1.569999999999620366e+00,2.870000000000002274e+03,-2.175000000000034905e+00,-4.945000000001153140e+00,1.339765583614799205e+01,-2.174788087284293070e+00
1.999999999999887734e+01,2.999999997666074947e+00,9.999999999993361754e+00,6.600000000003667378e-01,1.569999999999605711e+00,2.870000000000002274e+03,-2.175000000000069988e+00,-4.945000000001197549e+00,1.339025988698305447e+01,-2.177056231284085541e+00
1.999999999999979750e+01,2.999999999876491241e+00,9.999999999996003197e+00,6.599999999998503730e-01,1.570000000000157936e+00,2.870000000000002274e+03,-2.174999999999930100e+00,-4.944999999999517115e+00,1.340123051166622936e+01,-2.174711316348306056e+00
1.999999999999963762e+01,2.999999998452379302e+00,1.000000000001200284e+01,6.599999999999582867e-01,1.570000000000036033e+00,2.870000000000002274e+03,-2.174999999999928768e+00,-4.944999999999886597e+00,1.340667154130153094e+01,-2.167293755777730091e+00
1.999999999999944578e+01,2.999999996347580744e+00,1.000000000001102585e+01,6.600000000001327027e-01,1.570000000000031815e+00,2.870000000000001819e+03,-2.174999999999773337e+00,-4.944999999999964757e+00,1.341485491336704072e+01,-2.169130602022311116e+00
2.000000000000074252e+01,2.999999998881546226e+00,9.999999999991583621e+00,6.599999999996254418e-01,1.570000000000223217e+00,2.870000000000002274e+03,-2.175000000000173461e+00,-4.944999999999521556e+00,1.340921446811433171e+01,-2.174022308609781184e+00
1.999999999999990763e+01,2.999999998798007717e+00,1.000000000004417622e+01,6.599999999999058842e-01,1.570000000000130624e+00,2.870000000000002274e+03,-2.174999999999996270e+00,-4.944999999999763141e+00,1.341480258445805518e+01,-2.177893312022154859e+00
2.000000000000016698e+01,2.999999996461326646e+00,1.000000000000749623e+01,6.599999999997372413e-01,1.569999999999993401e+00,2.870000000000002728e+03,-2.175000000000317346e+00,-4.944999999999915907e+00,1.339496491226612385e+01,-2.161913373188703247e+00
1.999999999999783284e+01,2.999999998067291340e+00,9.999999999988192556e+00,6.600000000003317657e-01,1.569999999999753815e+00,2.870000000000002274e+03,-2.174999999999764011e+00,-4.945000000000775664e+00,1.341709607366437318e+01,-2.194940599677417836e+00
1.999999999999904787e+01,2.999999998429546455e+00,1.000000000001497114e+01,6.600000000001903233e-01,1.569999999999872164e+00,2.870000000000002274e+03,-2.174999999999844835e+00,-4.945000000000444373e+00,1.342857457946567123e+01,-2.178489604679342939e+00
1.999999999999964473e+01,2.999999998079565966e+00,1.000000000002005862e+01,6.599999999997961941e-01,1.570000000000100870e+00,2.870000000000002728e+03,-2.174999999999908340e+00,-4.944999999999596163e+00,1.341398478420248352e+01,-2.174610181677400167e+00
1.999999999999806377e+01,2.999999999586306476e+00,1.000000000004696155e+01,6.600000000002840261e-01,1.569999999999797557e+00,2.870000000000002728e+03,-2.174999999999819078e+00,-4.945000000000623785e+00,1.340924761980219238e+01,-2.175448089268879226e+00
1.999999999999892353e+01,2.999999999855822441e+00,1.000000000003754330e+01,6.600000000004634382e-01,1.569999999999583284e+00,2.870000000000002274e+03,-2.174999999999951417e+00,-4.945000000001232188e+00,1.339588791931839395e+01,-2.165714837546611982e+00
2.000000000000150635e+01,2.999999999630558634e+00,1.000000000000187406e+01,6.599999999997400169e-01,1.570000000000024043e+00,2.870000000000002274e+03,-2.175000000000196554e+00,-4.945000000000064233e+00,1.340859246921175973e+01,-2.184377958580124623e+00
1.999999999999840128e+01,2.999999998924596678e+00,9.999999999991183941e+00,6.600000000004024869e-01,1.569999999999719176e+00,2.870000000000002274e+03,-2.174999999999888356e+00,-4.945000000000894680e+00,1.341265602018229863e+01,-2.189051580767456429e+00
2.000000000000054001e+01,2.999999999332960687e+00,9.999999999979628740e+00,6.599999999995856959e-01,1.570000000000154383e+00,2.870000000000002274e+03,-2.175000000000175682e+00,-4.944999999999553530e+00,1.339904625462936671e+01,-2.189233148762572245e+00
1.999999999999909406e+01,3.000000001465522370e+00,1.000000000000494360e+01,6.600000000002117506e-01,1.569999999999939000e+00,2.870000000000002274e+03,-2.174999999999783107e+00,-4.945000000000085549e+00,1.341039525504527141e+01,-2.190304434053429894e+00
1.999999999999888445e+01,2.999999998460365358e+00,9.999999999947590368e+00,6.600000000002721467e-01,1.569999999999982521e+00,2.870000000000002274e+03,-2.174999999999724931e+00,-4.944999999999851958e+00,1.340989946266715016e+01,-2.176928168406022213e+00
1.999999999999933920e+01,3.000000000963341851e+00,9.999999999995401012e+00,6.600000000001411404e-01,1.569999999999876827e+00,2.870000000000002274e+03,-2.174999999999969624e+00,-4.945000000000592699e+00,1.339875405209123116e+01,-2.173898801575826933e+00
1.999999999999897682e+01,2.999999998299649473e+00,9.999999999980259346e+00,6.600000000002390621e-01,1.569999999999646567e+00,2.870000000000002274e+03,-2.175000000000033573e+00,-4.945000000001079421e+00,1.341436310592636261e+01,-2.177577097102333603e+00
1.999999999999884537e+01,3.000000000859300631e+00,1.000000000007102052e+01,6.599999999999026645e-01,1.570000000000165041e+00,2.870000000000002274e+03,-2.174999999999868816e+00,-4.944999999999750706e+00,1.341546853459511723e+01,-2.187847402544164321e+00
1.999999999999976197e+01,2.999999996669333591e+00,9.999999999962607689e+00,6.599999999997943068e-01,1.570000000000086660e+00,2.870000000000002274e+03,-2.174999999999988720e+00,-4.944999999999653006e+00,1.341234106335059728e+01,-2.160807842379710131e+00
2.000000000000063594e+01,2.999999999092890057e+00,9.999999999971555198e+00,6.599999999997738787e-01,1.570000000000023155e+00,2.870000000000002728e+03,-2.175000000000046452e+00,-4.945000000000124629e+00,1.339820496463890009e+01,-2.173100555992056648e+00
2.000000000000068923e+01,3.000000000560098634e+00,1.000000000007164935e+01,6.600000000000858513e-01,1.569999999999990070e+00,2.870000000000002274e+03,-2.174999999999839950e+00,-4.945000000000278284e+00,1.341091531271691473e+01,-2.171642545465441554e+00
2.000000000000120082e+01,2.999999999738520717e+00,9.999999999992020605e+00,6.599999999998189537e-01,1.569999999999873941e+00,2.870000000000002274e+03,-2.175000000000210765e+00,-4.945000000000535856e+00,1.341068899620802135e+01,-2.178405748382439278e+00
1.999999999999889866e+01,3.000000000014522605e+00,1.000000000003250733e+01,6.600000000003732881e-01,1.569999999999870610e+00,2.870000000000002274e+03,-2.174999999999670752e+00,-4.945000000000380425e+00,1.339906444362374316e+01,-2.174061174425295118e+00
1.999999999999803180e+01,2.999999997678288732e+00,1.000000000001461409e+01,6.600000000002961276e-01,1.569999999999962315e+00,2.870000000000002274e+03,-2.174999999999743583e+00,-4.944999999999983409e+00,1.339236846695115624e+01,-2.183819662597991762e+00
1.999999999999846523e+01,2.999999997868095569e+00,1.000000000001822009e+01,6.600000000004654366e-01,1.569999999999776241e+00,2.870000000000002274e+03,-2.174999999999731148e+00,-4.945000000000517204e+00,1.342412914395159973e+01,-2.172118846723862351e+00
2.000000000000070699e+01,2.999999999417577889e+00,1.000000000006720313e+01,6.599999999996821742e-01,1.570000000000203233e+00,2.870000000000002274e+03,-2.175000000000107292e+00,-4.944999999999437179e+00,1.340654937553088111e+01,-2.166551257956116139e+00
2.000000000000104095e+01,2.999999999198124545e+00,1.000000000008704504e+01,6.599999999998157341e-01,1.570000000000164597e+00,2.870000000000002274e+03,-2.175000000000017142e+00,-4.944999999999597939e+00,1.340297693557628023e+01,-2.155895703838225153e+00
2.000000000000100187e+01,2.999999999257421557e+00,1.000000000002636114e+01,6.599999999994808908e-01,1.570000000000146390e+00,2.870000000000002274e+03,-2.175000000000276490e+00,-4.944999999999546425e+00,1.339824541345315012e+01,-2.165698747696402915e+00
1.999999999999960210e+01,2.999999999168531772e+00,1.000000000002594547e+01,6.599999999997318012e-01,1.570000000000130180e+00,2.870000000000002274e+03,-2.175000000000105960e+00,-4.944999999999629914e+00,1.339885872989480475e+01,-2.178557571760241451e+00
1.999999999999739586e+01,2.999999997883609826e+00,9.999999999973068654e+00,6.600000000005504797e-01,1.569999999999658336e+00,2.870000000000002274e+03,-2.174999999999676525e+00,-4.945000000000829843e+00,1.338869552495747861e+01,-2.185168920668703052e+00
1.999999999999788969e+01,2.999999997660431461e+00,9.999999999954294339e+00,6.600000000004437872e-01,1.569999999999690310e+00,2.870000000000002274e+03,-2.174999999999704059e+00,-4.945000000000746354e+00,1.338304647990502083e+01,-2.186439660879194058e+00
1.999999999999808864e+01,2.999999997261867613e+00,9.999999999955473839e+00,6.600000000005109557e-01,1.569999999999720508e+00,2.870000000000002728e+03,-2.174999999999680522e+00,-4.945000000000734808e+00,1.338744300213586769e+01,-2.177996717142134830e+00
1.999999999999795008e+01,2.999999997568005394e+00,9.999999999955832664e+00,6.600000000006046585e-01,1.569999999999607487e+00,2.870000000000002274e+03,-2.174999999999692513e+00,-4.945000000001016360e+00,1.338822522209627586e+01,-2.178868500893737181e+00
2.000000000000099831e+01,2.999999998684115710e+00,1.000000000007761436e+01,6.599999999999076605e-01,1.569999999999997620e+00,2.870000000000002274e+03,-2.175000000000048228e+00,-4.945000000000216112e+00,1.341597211316844529e+01,-2.164141591425363220e+00
2.000000000000094857e+01,2.999999997862976553e+00,1.000000000008511414e+01,6.599999999999350830e-01,1.569999999999985407e+00,2.870000000000002728e+03,-2.174999999999999822e+00,-4.945000000000182361e+00,1.341560903351333778e+01,-2.161956964748012133e+00
1.999999999999862155e+01,2.999999999467355849e+00,1.000000000001701395e+01,6.600000000002226308e-01,1.570000000000009166e+00,2.870000000000002274e+03,-2.174999999999697842e+00,-4.944999999999861728e+00,1.340071642463654378e+01,-2.176425889071145647e+00
1.999999999999989697e+01,2.999999998973936766e+00,9.999999999983243626e+00,6.600000000001129408e-01,1.569999999999885043e+00,2.870000000000002274e+03,-2.175000000000039346e+00,-4.945000000000312035e+00,1.339381862621712038e+01,-2.167689261938929413e+00
1.999999999999915090e+01,2.999999999384158400e+00,9.999999999984233057e+00,6.600000000001965406e-01,1.569999999999860840e+00,2.870000000000002274e+03,-2.174999999999932765e+00,-4.945000000000387530e+00,1.339958827640185746e+01,-2.175512725358180521e+00
1.999999999999942801e+01,2.999999999978043341e+00,9.999999999977156051e+00,6.600000000001707834e-01,1.569999999999843521e+00,2.870000000000002274e+03,-2.174999999999934541e+00,-4.945000000000343121e+00,1.338151662361299010e+01,-2.166719107202313310e+00
1.999999999999944222e+01,3.000000000267401212e+00,9.999999999976523668e+00,6.600000000001965406e-01,1.569999999999833751e+00,2.870000000000002274e+03,-2.174999999999896794e+00,-4.945000000000388418e+00,1.338877750958014978e+01,-2.167999221515507724e+00
1.999999999999997158e+01,2.999999999903926184e+00,9.999999999964822806e+00,6.600000000002245182e-01,1.569999999999803997e+00,2.870000000000002274e+03,-2.174999999999974953e+00,-4.945000000000667306e+00,1.340148440398733065e+01,-2.179986905103788342e+00
1.999999999999968026e+01,3.000000000062807093e+00,9.999999999961676878e+00,6.600000000003192202e-01,1.569999999999727391e+00,2.870000000000002274e+03,-2.174999999999966960e+00,-4.945000000000895568e+00,1.339624006799325606e+01,-2.178515397704027912e+00
1.999999999999854694e+01,2.999999998898176035e+00,1.000000000001871037e+01,6.600000000003541922e-01,1.569999999999981632e+00,2.870000000000002274e+03,-2.174999999999632561e+00,-4.944999999999979856e+00,1.341120910424804258e+01,-2.156240676036991211e+00
1.999999999999988987e+01,2.999999998946944135e+00,1.000000000000432543e+01,6.600000000002070877e-01,1.569999999999834195e+00,2.870000000000002274e+03,-2.174999999999993605e+00,-4.945000000000550955e+00,1.339622138663636797e+01,-2.152230843944692662e+00
1.999999999999993960e+01,3.000000000638225917e+00,1.000000000004577316e+01,6.599999999998954481e-01,1.570000000000089768e+00,2.870000000000002274e+03,-2.175000000000003375e+00,-4.944999999999616591e+00,1.339527345320724905e+01,-2.163323657279834222e+00
1.999999999999990763e+01,3.000000000020276225e+00,1.000000000003598899e+01,6.599999999999063283e-01,1.570000000000046692e+00,2.870000000000002274e+03,-2.175000000000059774e+00,-4.944999999999781792e+00,1.339162034016843528e+01,-2.163505266159204687e+00
1.999999999999748113e+01,2.999999998662407741e+00,1.000000000002926193e+01,6.600000000004492273e-01,1.569999999999979412e+00,2.870000000000002274e+03,-2.174999999999518874e+00,-4.945000000000017160e+00,1.340682353317013664e+01,-2.178991232584457372e+00
2.000000000000014921e+01,3.000000000706692926e+00,1.000000000003720402e+01,6.600000000002195222e-01,1.569999999999837081e+00,2.870000000000002274e+03,-2.174999999999951417e+00,-4.945000000000523421e+00,1.342296995672598392e+01,-2.168866981857508147e+00
1.999999999999920774e+01,2.999999998711243787e+00,1.000000000004408918e+01,6.600000000002224088e-01,1.570000000000056684e+00,2.870000000000002274e+03,-2.174999999999784883e+00,-4.944999999999907025e+00,1.341165036905301555e+01,-2.185474703962563936e+00
2.000000000000044409e+01,2.999999998048198613e+00,1.000000000001998401e+01,6.599999999999339728e-01,1.569999999999953877e+00,2.870000000000002274e+03,-2.175000000000139710e+00,-4.945000000000216112e+00,1.341482654727924029e+01,-2.147703866592526101e+00
1.999999999999955946e+01,2.999999998076805063e+00,9.999999999988713029e+00,6.600000000002960165e-01,1.569999999999666551e+00,2.870000000000001819e+03,-2.175000000000116618e+00,-4.945000000000925766e+00,1.341363101218869858e+01,-2.144975718971966039e+00
2.000000000000016342e+01,2.999999998692322478e+00,1.000000000003737100e+01,6.599999999998613642e-01,1.570000000000017604e+00,2.870000000000002274e+03,-2.175000000000182343e+00,-4.945000000000114859e+00,1.340972054209106723e+01,-2.172209411505184207e+00
2.000000000000004619e+01,2.999999999994386712e+00,1.000000000003021050e+01,6.599999999999575095e-01,1.569999999999961204e+00,2.870000000000002274e+03,-2.175000000000057554e+00,-4.944999999999967422e+00,1.341350562307541239e+01,-2.187367737053825145e+00
2.000000000000022382e+01,2.999999999011057294e+00,1.000000000000563283e+01,6.599999999997360201e-01,1.570000000000235429e+00,2.870000000000002274e+03,-2.174999999999960298e+00,-4.944999999999411422e+00,1.341079922185339157e+01,-2.184170605050705483e+00
2.000000000000100542e+01,2.999999998683474445e+00,1.000000000000482281e+01,6.599999999997409050e-01,1.570000000000173035e+00,2.870000000000002728e+03,-2.175000000000036238e+00,-4.944999999999581064e+00,1.341989126367313467e+01,-2.174897347356221644e+00
2.000000000000024158e+01,2.999999999312389587e+00,1.000000000001062261e+01,6.599999999997779865e-01,1.570000000000061791e+00,2.870000000000002274e+03,-2.175000000000073097e+00,-4.944999999999867057e+00,1.341226954036881480e+01,-2.176602448330969608e+00
1.999999999999936406e+01,2.999999999204416401e+00,1.000000000001117506e+01,6.600000000002048672e-01,1.569999999999755591e+00,2.870000000000002274e+03,-2.175000000000167688e+00,-4.945000000000870699e+00,1.339732925052869916e+01,-2.188979479055238375e+00
1.999999999999966604e+01,3.000000000240852671e+00,1.000000000002718004e+01,6.599999999998109601e-01,1.570000000000104645e+00,2.870000000000002274e+03,-2.174999999999927436e+00,-4.944999999999616591e+00,1.342428779542713357e+01,-2.175999459274775560e+00
1.999999999999993250e+01,3.000000000194736671e+00,9.999999999966494357e+00,6.599999999998376055e-01,1.569999999999946327e+00,2.870000000000002274e+03,-2.175000000000054889e+00,-4.945000000000034035e+00,1.340248347533150053e+01,-2.189439038868692400e+00
1.999999999999874944e+01,2.999999999284229002e+00,1.000000000005097434e+01,6.600000000004168088e-01,1.569999999999757589e+00,2.870000000000002274e+03,-2.174999999999705391e+00,-4.945000000000757900e+00,1.340693543846372826e+01,-2.179803039171695378e+00
1.999999999999856470e+01,2.999999999031889075e+00,1.000000000004238743e+01,6.600000000003474199e-01,1.569999999999921236e+00,2.870000000000002274e+03,-2.174999999999788436e+00,-4.945000000000232987e+00,1.341338269412467810e+01,-2.160296911188072322e+00
2.000000000000029843e+01,2.999999999095961378e+00,1.000000000000692779e+01,6.600000000001063905e-01,1.569999999999921680e+00,2.870000000000002728e+03,-2.174999999999985612e+00,-4.945000000000208118e+00,1.341706597667809220e+01,-2.176307417842723968e+00
2.000000000000109779e+01,3.000000000044923620e+00,1.000000000005522871e+01,6.599999999998356071e-01,1.570000000000064233e+00,2.870000000000002274e+03,-2.175000000000134825e+00,-4.944999999999932783e+00,1.341960459671725658e+01,-2.168926237837284443e+00
2.000000000000047606e+01,2.999999997482858394e+00,9.999999999976081355e+00,6.600000000000213474e-01,1.569999999999971640e+00,2.870000000000002274e+03,-2.175000000000084199e+00,-4.945000000000070450e+00,1.339211692593684866e+01,-2.160489475724134412e+00
1.999999999999971934e+01,2.999999997503756788e+00,9.999999999968215647e+00,6.600000000002105294e-01,1.569999999999832641e+00,2.870000000000002274e+03,-2.175000000000010481e+00,-4.945000000000515428e+00,1.338546357873079096e+01,-2.163276666376657165e+00
2.000000000000093081e+01,2.999999998444216498e+00,1.000000000000085798e+01,6.599999999998623634e-01,1.569999999999993401e+00,2.870000000000002274e+03,-2.175000000000130829e+00,-4.945000000000160156e+00,1.341064727676620016e+01,-2.174229119235701724e+00
1.999999999999893774e+01,2.999999997214775060e+00,9.999999999977895015e+00,6.600000000002674838e-01,1.569999999999945439e+00,2.870000000000002274e+03,-2.174999999999749800e+00,-4.945000000000242757e+00,1.340937705771834842e+01,-2.154872579360977980e+00
2.000000000000066791e+01,2.999999997517520889e+00,1.000000000000428102e+01,6.600000000001624567e-01,1.569999999999870832e+00,2.870000000000002274e+03,-2.174999999999940314e+00,-4.945000000000343121e+00,1.341463753794349323e+01,-2.147557439307134164e+00
2.000000000000019895e+01,2.999999996869109786e+00,9.999999999997626787e+00,6.600000000003060086e-01,1.569999999999796225e+00,2.870000000000002274e+03,-2.174999999999875033e+00,-4.945000000000579377e+00,1.340806398405842970e+01,-2.150510223671886045e+00
1.999999999999917577e+01,2.999999999074089985e+00,1.000000000001199396e+01,6.599999999999245359e-01,1.569999999999988516e+00,2.870000000000002274e+03,-2.175000000000100631e+00,-4.945000000000212559e+00,1.339414737785238962e+01,-2.174431557478871291e+00
1.999999999999776534e+01,2.999999998097103493e+00,9.999999999950416552e+00,6.600000000002924638e-01,1.569999999999943663e+00,2.870000000000002728e+03,-2.174999999999589040e+00,-4.945000000000096207e+00,1.341752321984315621e+01,-2.179516837499289483e+00
2.000000000000100542e+01,2.999999998610594076e+00,9.999999999973217868e+00,6.600000000000987299e-01,1.569999999999798224e+00,2.870000000000002274e+03,-2.175000000000124611e+00,-4.945000000000704610e+00,1.341906270255197242e+01,-2.159338628389975145e+00
2.000000000000115818e+01,2.999999998534840895e+00,9.999999999975260678e+00,6.599999999998532596e-01,1.569999999999933227e+00,2.870000000000002274e+03,-2.175000000000193889e+00,-4.945000000000402629e+00,1.341409062839925426e+01,-2.158131150771920304e+00
1.999999999999959854e+01,2.999999995597368851e+00,9.999999999974132692e+00,6.600000000002804734e-01,1.569999999999849960e+00,2.870000000000002274e+03,-2.174999999999950528e+00,-4.945000000000406182e+00,1.339777540261858846e+01,-2.162558221763674293e+00
1.999999999999911893e+01,2.999999998877744822e+00,1.000000000006940049e+01,6.600000000005674661e-01,1.569999999999726725e+00,2.870000000000002274e+03,-2.174999999999859490e+00,-4.945000000000788098e+00,1.339461315459472246e+01,-2.144601513139444027e+00
1.999999999999979394e+01,2.999999999526831829e+00,1.000000000002069278e+01,6.600000000001727818e-01,1.569999999999909024e+00,2.870000000000002274e+03,-2.174999999999903455e+00,-4.945000000000325358e+00,1.341169354106165024e+01,-2.172162015299780258e+00
2.000000000000008527e+01,2.999999998385962208e+00,9.999999999983485210e+00,6.599999999999679456e-01,1.570000000000126628e+00,2.870000000000002274e+03,-2.174999999999818190e+00,-4.944999999999671658e+00,1.340793618460181946e+01,-2.175199906670730154e+00
1.999999999999990408e+01,3.000000001738827748e+00,1.000000000007109691e+01,6.599999999997931965e-01,1.570000000000126850e+00,2.870000000000002274e+03,-2.175000000000085532e+00,-4.944999999999663665e+00,1.340495597875952782e+01,-2.192083187260781774e+00
1.999999999999832312e+01,2.999999999743573120e+00,1.000000000003401190e+01,6.600000000000938449e-01,1.569999999999838858e+00,2.870000000000002274e+03,-2.174999999999970957e+00,-4.945000000000447038e+00,1.339960925227929245e+01,-2.172853807302258744e+00
1.999999999999832312e+01,2.999999999852186683e+00,1.000000000003503509e+01,6.600000000000497691e-01,1.569999999999882156e+00,2.870000000000002274e+03,-2.175000000000003375e+00,-4.945000000000322693e+00,1.339208381652379920e+01,-2.173138871158505125e+00
2.000000000000049027e+01,2.999999997277229102e+00,9.999999999995461408e+00,6.599999999997465672e-01,1.569999999999933227e+00,2.870000000000002274e+03,-2.175000000000324007e+00,-4.945000000000270290e+00,1.340031860779318151e+01,-2.168392411265322117e+00
1.999999999999903721e+01,3.000000000124497301e+00,1.000000000005231549e+01,6.600000000001886580e-01,1.569999999999766027e+00,2.870000000000002274e+03,-2.175000000000058886e+00,-4.945000000000670859e+00,1.339680527522114240e+01,-2.176035326000381964e+00
1.999999999999785416e+01,3.000000000894015528e+00,1.000000000000760281e+01,6.600000000008307000e-01,1.569999999999285967e+00,2.870000000000002274e+03,-2.174999999999709832e+00,-4.945000000001908980e+00,1.340528076732771012e+01,-2.185872284393086229e+00
2.000000000000120792e+01,3.000000000373734377e+00,9.999999999959296559e+00,6.599999999998495959e-01,1.569999999999917240e+00,2.870000000000002274e+03,-2.175000000000329781e+00,-4.945000000000355556e+00,1.341260885638602041e+01,-2.192258556393167357e+00
1.999999999999961631e+01,2.999999997788656003e+00,1.000000000000570033e+01,6.600000000000002531e-01,1.569999999999934337e+00,2.870000000000002274e+03,-2.175000000000031353e+00,-4.945000000000331575e+00,1.341647697143270079e+01,-2.189593704147196451e+00
1.999999999999937117e+01,3.000000000263036259e+00,1.000000000010110490e+01,6.599999999998276135e-01,1.570000000000127072e+00,2.870000000000002274e+03,-2.175000000000027800e+00,-4.944999999999770246e+00,1.341167061862398846e+01,-2.186378063391355209e+00
2.000000000000018829e+01,3.000000000339392514e+00,1.000000000001573497e+01,6.599999999996816191e-01,1.570000000000095763e+00,2.870000000000002274e+03,-2.175000000000089972e+00,-4.944999999999732054e+00,1.342564220432533340e+01,-2.182978510766568014e+00
1.999999999999921840e+01,2.999999999203454504e+00,1.000000000006226841e+01,6.600000000003263256e-01,1.569999999999849516e+00,2.870000000000002274e+03,-2.174999999999787104e+00,-4.945000000000502993e+00,1.342245391240057195e+01,-2.171167355937375643e+00
1.999999999999987210e+01,2.999999999859010558e+00,1.000000000009898748e+01,6.600000000003429790e-01,1.569999999999857954e+00,2.870000000000002274e+03,-2.174999999999783995e+00,-4.945000000000551843e+00,1.341757787397373747e+01,-2.157097884628935702e+00
2.000000000000068212e+01,2.999999997869359003e+00,9.999999999958134822e+00,6.599999999997633315e-01,1.570000000000080220e+00,2.870000000000002274e+03,-2.175000000000097078e+00,-4.944999999999918572e+00,1.339274325565989621e+01,-2.175348282961255819e+00
2.000000000000120792e+01,2.999999997699489107e+00,9.999999999950818008e+00,6.599999999996181144e-01,1.570000000000141727e+00,2.870000000000002274e+03,-2.175000000000205880e+00,-4.944999999999740936e+00,1.339543201834869635e+01,-2.169183377514501299e+00
1.999999999999992184e+01,3.000000001042667730e+00,1.000000000004880540e+01,6.599999999997649969e-01,1.570000000000145279e+00,2.870000000000002274e+03,-2.174999999999918554e+00,-4.944999999999525109e+00,1.340992851237724892e+01,-2.190999597047943670e+00
1.999999999999805667e+01,2.999999996946910219e+00,9.999999999954575003e+00,6.600000000003723999e-01,1.569999999999804885e+00,2.870000000000002274e+03,-2.174999999999711608e+00,-4.945000000000670859e+00,1.340727325959147720e+01,-2.171339111761443341e+00
2.000000000000039790e+01,2.999999998112634181e+00,9.999999999989276134e+00,6.600000000001793321e-01,1.569999999999748708e+00,2.870000000000002274e+03,-2.175000000000070877e+00,-4.945000000000848495e+00,1.340605818336614341e+01,-2.153087877972631681e+00
1.999999999999864997e+01,2.999999999508856874e+00,1.000000000011318235e+01,6.599999999999770495e-01,1.570000000000253859e+00,2.870000000000002274e+03,-2.174999999999657430e+00,-4.944999999999240003e+00,1.339907979649724545e+01,-2.166079713990061606e+00
1.999999999999929656e+01,2.999999999822839492e+00,9.999999999964757080e+00,6.600000000001614575e-01,1.569999999999790896e+00,2.870000000000002728e+03,-2.174999999999970957e+00,-4.945000000000573159e+00,1.338802327587317365e+01,-2.181333236980140811e+00
1.999999999999927880e+01,2.999999999563144559e+00,9.999999999961694641e+00,6.600000000001144951e-01,1.569999999999806883e+00,2.870000000000002274e+03,-2.174999999999983835e+00,-4.945000000000485230e+00,1.338870082566032238e+01,-2.172596495644095516e+00
1.999999999999868905e+01,2.999999998413683588e+00,9.999999999997152500e+00,6.600000000004399014e-01,1.569999999999652118e+00,2.870000000000002274e+03,-2.174999999999841283e+00,-4.945000000001004814e+00,1.341727701995622013e+01,-2.187754856079061838e+00
1.999999999999960920e+01,2.999999999538108142e+00,1.000000000006429524e+01,6.599999999998202860e-01,1.570000000000159046e+00,2.870000000000002274e+03,-2.175000000000048228e+00,-4.944999999999462048e+00,1.340505783521629901e+01,-2.165157869815152125e+00
1.999999999999982236e+01,2.999999999212815904e+00,9.999999999959454655e+00,6.599999999996587485e-01,1.570000000000336904e+00,2.870000000000002274e+03,-2.174999999999916778e+00,-4.944999999998927365e+00,1.340212921298447313e+01,-2.183078087071003814e+00
2.000000000000088463e+01,2.999999998381791766e+00,9.999999999984693133e+00,6.599999999996024602e-01,1.570000000000294937e+00,2.870000000000002274e+03,-2.174999999999988276e+00,-4.944999999999208917e+00,1.340973398154478957e+01,-2.178218598575334841e+00
1.999999999999998579e+01,2.999999999531995254e+00,1.000000000004494716e+01,6.599999999998139577e-01,1.570000000000064455e+00,2.870000000000002274e+03,-2.175000000000027356e+00,-4.944999999999803109e+00,1.339270659743197989e+01,-2.177234554916243070e+00
1.999999999999981526e+01,2.999999999410879248e+00,1.000000000003171863e+01,6.599999999999185407e-01,1.570000000000020712e+00,2.870000000000002274e+03,-2.174999999999978950e+00,-4.944999999999931006e+00,1.339326973362450524e+01,-2.175037781993145458e+00
1.999999999999915090e+01,2.999999998653062772e+00,1.000000000000590994e+01,6.600000000004184741e-01,1.569999999999796225e+00,2.870000000000002274e+03,-2.174999999999700062e+00,-4.945000000000706386e+00,1.341007361347194582e+01,-2.178027374064220645e+00
1.999999999999867129e+01,2.999999999074184576e+00,1.000000000000856382e+01,6.600000000005185052e-01,1.569999999999678320e+00,2.870000000000002274e+03,-2.174999999999690292e+00,-4.945000000000957741e+00,1.339925658437121747e+01,-2.162221958196381077e+00
1.999999999999934275e+01,2.999999999223553981e+00,1.000000000002450662e+01,6.600000000001547962e-01,1.569999999999938556e+00,2.870000000000002274e+03,-2.174999999999839062e+00,-4.945000000000084661e+00,1.340461824928374135e+01,-2.160112063836014951e+00
2.000000000000111200e+01,2.999999998872192375e+00,9.999999999985666577e+00,6.599999999995953548e-01,1.570000000000170592e+00,2.870000000000002274e+03,-2.175000000000181011e+00,-4.944999999999581952e+00,1.341473699547173126e+01,-2.177424405269765995e+00
2.000000000000028066e+01,2.999999998216479558e+00,9.999999999940284212e+00,6.600000000002665956e-01,1.569999999999660556e+00,2.870000000000002274e+03,-2.174999999999952305e+00,-4.945000000001025242e+00,1.340886763390703784e+01,-2.178918080358847931e+00
1.999999999999948486e+01,2.999999999454810329e+00,9.999999999979680254e+00,6.599999999999044409e-01,1.570000000000092655e+00,2.870000000000002274e+03,-2.174999999999963407e+00,-4.944999999999807550e+00,1.341196219953194024e+01,-2.162601279942482524e+00
1.999999999999876721e+01,3.000000000262011746e+00,1.000000000000075850e+01,6.599999999999917044e-01,1.570000000000121743e+00,2.870000000000002274e+03,-2.174999999999786215e+00,-4.944999999999730278e+00,1.341105279413819495e+01,-2.164194667504725444e+00
1.999999999999903721e+01,3.000000000569393421e+00,1.000000000001804779e+01,6.600000000000012523e-01,1.569999999999929674e+00,2.870000000000002274e+03,-2.174999999999981171e+00,-4.945000000000208118e+00,1.341015870741059146e+01,-2.191051394905717320e+00
2.000000000000011369e+01,2.999999996684417969e+00,9.999999999933226746e+00,6.599999999999891509e-01,1.570000000000088436e+00,2.870000000000002274e+03,-2.174999999999872369e+00,-4.944999999999586393e+00,1.341837638816082467e+01,-2.172355845867488089e+00
1.999999999999856470e+01,2.999999998466796214e+00,9.999999999980559551e+00,6.600000000005432632e-01,1.569999999999809548e+00,2.870000000000002274e+03,-2.174999999999504663e+00,-4.945000000000610463e+00,1.340135830276153683e+01,-2.190602958167026326e+00
1.999999999999876366e+01,2.999999999346155022e+00,9.999999999986572519e+00,6.599999999999346390e-01,1.570000000000127738e+00,2.870000000000002274e+03,-2.174999999999778222e+00,-4.944999999999724061e+00,1.342604589700049722e+01,-2.178830708206550781e+00
2.000000000000099121e+01,3.000000001958711859e+00,1.000000000003445777e+01,6.599999999998296119e-01,1.570000000000077334e+00,2.870000000000002728e+03,-2.175000000000148148e+00,-4.944999999999834195e+00,1.341089446115186945e+01,-2.186878227201380476e+00
1.999999999999967670e+01,3.000000000554168267e+00,9.999999999981785237e+00,6.600000000001802203e-01,1.569999999999861950e+00,2.870000000000002274e+03,-2.174999999999928324e+00,-4.945000000000286278e+00,1.341167040671620647e+01,-2.201931964685508003e+00
1.999999999999970868e+01,2.999999998526575506e+00,9.999999999987325694e+00,6.600000000001386979e-01,1.569999999999917906e+00,2.870000000000002274e+03,-2.174999999999887024e+00,-4.945000000000183249e+00,1.340766035802715272e+01,-2.166849076733387669e+00
1.999999999999866418e+01,2.999999999147477503e+00,1.000000000002137668e+01,6.600000000003172218e-01,1.569999999999773355e+00,2.870000000000002274e+03,-2.175000000000009148e+00,-4.945000000000645102e+00,1.341633782116810636e+01,-2.171782972284647784e+00
2.000000000000120082e+01,2.999999998888704500e+00,9.999999999937621453e+00,6.599999999997737676e-01,1.570000000000023155e+00,2.870000000000002274e+03,-2.175000000000112621e+00,-4.944999999999943441e+00,1.341069205693246325e+01,-2.189258215119093798e+00
2.000000000000186162e+01,2.999999998457003159e+00,9.999999999995456079e+00,6.599999999997183675e-01,1.570000000000085771e+00,2.870000000000002274e+03,-2.175000000000137934e+00,-4.944999999999886597e+00,1.339793851906374833e+01,-2.178461745353143186e+00
1.999999999999865707e+01,3.000000000860858940e+00,1.000000000009346834e+01,6.600000000000174616e-01,1.570000000000183915e+00,2.870000000000002274e+03,-2.174999999999848832e+00,-4.944999999999477147e+00,1.340446691172327043e+01,-2.178786892608432613e+00
1.999999999999932854e+01,2.999999999208518009e+00,1.000000000000369127e+01,6.600000000000009193e-01,1.569999999999853069e+00,2.870000000000002274e+03,-2.175000000000004263e+00,-4.945000000000305818e+00,1.340367591715433448e+01,-2.179434010095289143e+00
1.999999999999894484e+01,2.999999998763901665e+00,9.999999999989698907e+00,6.600000000001788880e-01,1.569999999999751816e+00,2.870000000000002274e+03,-2.174999999999944755e+00,-4.945000000000790763e+00,1.339256339845681865e+01,-2.185485038985623518e+00
2.000000000000013145e+01,2.999999999518083271e+00,1.000000000002356870e+01,6.600000000000795231e-01,1.569999999999931450e+00,2.870000000000002274e+03,-2.175000000000014033e+00,-4.945000000000242757e+00,1.340596520376756473e+01,-2.160945438054070689e+00
1.999999999999935341e+01,2.999999998459703221e+00,1.000000000003886136e+01,6.600000000004104805e-01,1.569999999999843521e+00,2.870000000000002274e+03,-2.174999999999811529e+00,-4.945000000000444373e+00,1.340505342432712865e+01,-2.155206835528032272e+00
1.999999999999934630e+01,3.000000000058015370e+00,9.999999999994129141e+00,6.600000000000920686e-01,1.570000000000052909e+00,2.870000000000002274e+03,-2.174999999999843947e+00,-4.944999999999837748e+00,1.342237317118911299e+01,-2.190546123793527311e+00
2.000000000000022027e+01,2.999999997485388370e+00,9.999999999960040853e+00,6.599999999999013323e-01,1.570000000000002505e+00,2.870000000000002274e+03,-2.174999999999998490e+00,-4.945000000000084661e+00,1.340857913528733292e+01,-2.162706243785933680e+00
2.000000000000147082e+01,2.999999997962556009e+00,9.999999999975536014e+00,6.599999999995929123e-01,1.570000000000210560e+00,2.870000000000002274e+03,-2.175000000000138822e+00,-4.944999999999584617e+00,1.340641074605934868e+01,-2.169048467048749096e+00
1.999999999999962697e+01,3.000000000200349071e+00,1.000000000005203660e+01,6.600000000000532108e-01,1.569999999999894591e+00,2.870000000000002728e+03,-2.175000000000049560e+00,-4.945000000000311147e+00,1.341281398011719084e+01,-2.187449406815181963e+00
1.999999999999925748e+01,2.999999998672150614e+00,9.999999999996708411e+00,6.600000000003970468e-01,1.569999999999785345e+00,2.870000000000002274e+03,-2.174999999999763123e+00,-4.945000000000733920e+00,1.341658211697954073e+01,-2.154451601977351860e+00
1.999999999999901235e+01,2.999999998770918719e+00,9.999999999993429256e+00,6.600000000004977441e-01,1.569999999999697859e+00,2.870000000000002274e+03,-2.174999999999749356e+00,-4.945000000000883134e+00,1.341846272884789038e+01,-2.157353394539835989e+00
1.999999999999909761e+01,3.000000000413779677e+00,1.000000000006292211e+01,6.600000000004869749e-01,1.569999999999607931e+00,2.870000000000002274e+03,-2.174999999999799982e+00,-4.945000000001265050e+00,1.342398465508641436e+01,-2.186062962071467108e+00
2.000000000000089884e+01,2.999999999474428858e+00,9.999999999982064125e+00,6.599999999999804912e-01,1.569999999999973861e+00,2.870000000000002274e+03,-2.175000000000021583e+00,-4.945000000000191243e+00,1.341182038109061381e+01,-2.165258873580566679e+00
1.999999999999976197e+01,2.999999999110985360e+00,1.000000000002439826e+01,6.600000000003294343e-01,1.569999999999770912e+00,2.870000000000001819e+03,-2.174999999999873257e+00,-4.945000000000749019e+00,1.341229395554406523e+01,-2.182279042940686864e+00
1.999999999999877787e+01,2.999999998816811786e+00,1.000000000007103296e+01,6.600000000006326362e-01,1.569999999999632578e+00,2.870000000000002274e+03,-2.174999999999696954e+00,-4.945000000001264162e+00,1.340639843027240907e+01,-2.181382439073505708e+00
1.999999999999688782e+01,2.999999999860408106e+00,9.999999999976868281e+00,6.600000000008997558e-01,1.569999999999581952e+00,2.870000000000002274e+03,-2.174999999999369660e+00,-4.945000000001194884e+00,1.339997469400673680e+01,-2.188966950959828850e+00
1.999999999999884182e+01,3.000000000258410626e+00,1.000000000007994672e+01,6.600000000002539391e-01,1.570000000000095541e+00,2.870000000000002274e+03,-2.174999999999670752e+00,-4.944999999999782681e+00,1.341621709267602292e+01,-2.166866146466194909e+00
1.999999999999816680e+01,2.999999998785312982e+00,9.999999999995614175e+00,6.600000000003224399e-01,1.569999999999970086e+00,2.870000000000002274e+03,-2.174999999999594813e+00,-4.945000000000068674e+00,1.341103661851453310e+01,-2.171525506016413143e+00
2.000000000000070699e+01,2.999999998826718972e+00,1.000000000006241230e+01,6.599999999998561462e-01,1.570000000000188800e+00,2.870000000000002274e+03,-2.175000000000054445e+00,-4.944999999999390106e+00,1.339230828117296923e+01,-2.176481267413656440e+00
2.000000000000030909e+01,2.999999998664006462e+00,1.000000000006821388e+01,6.599999999999597300e-01,1.570000000000135065e+00,2.870000000000002274e+03,-2.174999999999997158e+00,-4.944999999999454054e+00,1.339535882596649685e+01,-2.174214896649605322e+00
1.999999999999972289e+01,2.999999999562818598e+00,1.000000000001157652e+01,6.599999999998209521e-01,1.570000000000162599e+00,2.870000000000002274e+03,-2.175000000000018918e+00,-4.944999999999398099e+00,1.339731889364909989e+01,-2.179802480957234057e+00
2.000000000000041567e+01,2.999999998246507982e+00,9.999999999965215380e+00,6.600000000003343192e-01,1.569999999999623919e+00,2.870000000000002274e+03,-2.175000000000035350e+00,-4.945000000001138929e+00,1.338221911474706260e+01,-2.155566392225776617e+00
2.000000000000006040e+01,2.999999997743266977e+00,9.999999999963563369e+00,6.600000000004649925e-01,1.569999999999613260e+00,2.870000000000002274e+03,-2.174999999999928768e+00,-4.945000000001141593e+00,1.338044572933960730e+01,-2.158929621310551550e+00
2.000000000000000711e+01,2.999999998461018169e+00,9.999999999944813922e+00,6.600000000004523359e-01,1.569999999999515561e+00,2.870000000000001819e+03,-2.175000000000002931e+00,-4.945000000001409823e+00,1.337685154364075757e+01,-2.162963627929083810e+00
2.000000000000006395e+01,2.999999998482536068e+00,9.999999999930013317e+00,6.600000000003808376e-01,1.569999999999520446e+00,2.870000000000002274e+03,-2.175000000000063771e+00,-4.945000000001361862e+00,1.337601436398176524e+01,-2.165353806743828269e+00
2.000000000000055778e+01,3.000000001394123483e+00,1.000000000008713208e+01,6.600000000000948441e-01,1.569999999999983409e+00,2.870000000000002274e+03,-2.174999999999986500e+00,-4.945000000000032259e+00,1.340757781043120289e+01,-2.175602586562299212e+00
1.999999999999836575e+01,2.999999999914870763e+00,1.000000000001882583e+01,6.600000000005784573e-01,1.569999999999697415e+00,2.870000000000002728e+03,-2.174999999999749356e+00,-4.945000000000703722e+00,1.339771202928518079e+01,-2.184985991978434683e+00
1.999999999999891287e+01,2.999999998630645148e+00,1.000000000004644995e+01,6.599999999999692779e-01,1.570000000000084217e+00,2.870000000000002274e+03,-2.174999999999842171e+00,-4.944999999999655671e+00,1.340474346675041417e+01,-2.164583221856716033e+00
1.999999999999835509e+01,2.999999999851986843e+00,1.000000000002527756e+01,6.600000000003899414e-01,1.569999999999798890e+00,2.870000000000002274e+03,-2.174999999999819078e+00,-4.945000000000496776e+00,1.339874435800802921e+01,-2.173363303972386973e+00
1.999999999999841194e+01,2.999999999369027837e+00,9.999999999934361838e+00,6.600000000002921308e-01,1.569999999999680096e+00,2.870000000000002274e+03,-2.174999999999970068e+00,-4.945000000000916884e+00,1.341234493863934851e+01,-2.174051109173185559e+00
1.999999999999899458e+01,2.999999998527543621e+00,9.999999999925508476e+00,6.600000000003715117e-01,1.569999999999542650e+00,2.870000000000002274e+03,-2.175000000000071765e+00,-4.945000000001300577e+00,1.340157491676297141e+01,-2.155887106169702694e+00
2.000000000000035527e+01,2.999999998832445058e+00,1.000000000003843681e+01,6.599999999999494049e-01,1.569999999999944773e+00,2.870000000000002274e+03,-2.175000000000025580e+00,-4.945000000000116636e+00,1.341134827605818636e+01,-2.170936062601793282e+00
2.000000000000084910e+01,2.999999999821944208e+00,1.000000000001839773e+01,6.599999999995743716e-01,1.570000000000233431e+00,2.870000000000002274e+03,-2.175000000000155698e+00,-4.944999999999492246e+00,1.341398722545998190e+01,-2.172389740517151946e+00
2.000000000000017053e+01,2.999999999441879783e+00,1.000000000005601564e+01,6.600000000001214895e-01,1.569999999999937446e+00,2.870000000000002728e+03,-2.174999999999900790e+00,-4.945000000000228546e+00,1.340755022838113852e+01,-2.173353643921930534e+00
1.999999999999970868e+01,3.000000001511066383e+00,9.999999999987966959e+00,6.599999999999563993e-01,1.569999999999926565e+00,2.870000000000002274e+03,-2.175000000000040234e+00,-4.945000000000248974e+00,1.339977897077537072e+01,-2.172536339281305295e+00
1.999999999999977973e+01,3.000000001391100124e+00,9.999999999972258635e+00,6.599999999999708322e-01,1.569999999999875051e+00,2.870000000000002274e+03,-2.175000000000069544e+00,-4.945000000000312923e+00,1.339560694627406612e+01,-2.177081748258845817e+00
2.000000000000017408e+01,3.000000000378506559e+00,1.000000000002300737e+01,6.600000000000547651e-01,1.569999999999800888e+00,2.870000000000002274e+03,-2.175000000000112621e+00,-4.945000000000534079e+00,1.341217833239468682e+01,-2.170589538200061952e+00
1.999999999999712941e+01,2.999999999144795648e+00,9.999999999995081268e+00,6.600000000006627232e-01,1.569999999999677653e+00,2.870000000000001819e+03,-2.174999999999684519e+00,-4.945000000000847606e+00,1.339814103323609551e+01,-2.179328163423233100e+00
1.999999999999858602e+01,2.999999999602806167e+00,1.000000000001940847e+01,6.600000000004916378e-01,1.569999999999567741e+00,2.870000000000002274e+03,-2.174999999999894129e+00,-4.945000000001226859e+00,1.342085483639118770e+01,-2.168744694645967641e+00
1.999999999999931433e+01,2.999999998739656171e+00,1.000000000001764100e+01,6.600000000002114176e-01,1.569999999999719176e+00,2.870000000000002274e+03,-2.175000000000065548e+00,-4.945000000000749019e+00,1.342340185357386417e+01,-2.166869479199203585e+00
2.000000000000163070e+01,2.999999998336861928e+00,1.000000000005577583e+01,6.599999999994599076e-01,1.570000000000300711e+00,2.870000000000002274e+03,-2.175000000000269829e+00,-4.944999999999010853e+00,1.341722433858438812e+01,-2.168976301361923209e+00
2.000000000000054712e+01,2.999999998087264697e+00,9.999999999997887912e+00,6.599999999999879297e-01,1.569999999999971418e+00,2.870000000000002728e+03,-2.175000000000069988e+00,-4.945000000000018048e+00,1.340941389534365591e+01,-2.160952170676501805e+00
1.999999999999975842e+01,2.999999997873272761e+00,1.000000000001035261e+01,6.599999999999592859e-01,1.570000000000077556e+00,2.870000000000002274e+03,-2.174999999999946532e+00,-4.944999999999819096e+00,1.341280965385780455e+01,-2.160147243070660750e+00
1.999999999999860023e+01,2.999999998959584246e+00,1.000000000001443468e+01,6.600000000002050893e-01,1.569999999999878382e+00,2.870000000000002274e+03,-2.174999999999846167e+00,-4.945000000000420393e+00,1.339811164238946262e+01,-2.153063064371671054e+00
1.999999999999760902e+01,2.999999998795503942e+00,1.000000000003410072e+01,6.600000000003755085e-01,1.569999999999876383e+00,2.870000000000002274e+03,-2.174999999999693401e+00,-4.945000000000413287e+00,1.341116137214129012e+01,-2.163833142786518504e+00
2.000000000000025224e+01,2.999999999203278200e+00,9.999999999974063414e+00,6.599999999998867883e-01,1.570000000000006057e+00,2.870000000000002274e+03,-2.175000000000097522e+00,-4.944999999999918572e+00,1.341073407111902860e+01,-2.151225884112303088e+00
2.000000000000108713e+01,3.000000000062893690e+00,1.000000000000899192e+01,6.599999999996988276e-01,1.570000000000054463e+00,2.870000000000002274e+03,-2.175000000000237854e+00,-4.944999999999835971e+00,1.341680948268980167e+01,-2.152915147042198551e+00
2.000000000000008527e+01,3.000000000124409816e+00,1.000000000004787992e+01,6.599999999997022693e-01,1.570000000000242979e+00,2.870000000000002274e+03,-2.174999999999972289e+00,-4.944999999999500240e+00,1.340939416916785909e+01,-2.175245901023528106e+00
1.999999999999729283e+01,2.999999998188466854e+00,9.999999999995660360e+00,6.600000000003131140e-01,1.569999999999867502e+00,2.870000000000002274e+03,-2.174999999999764011e+00,-4.945000000000297824e+00,1.340812901696565262e+01,-2.177077817512258928e+00
1.999999999999886668e+01,2.999999999412771956e+00,9.999999999994079403e+00,6.600000000002254064e-01,1.570000000000014717e+00,2.870000000000002274e+03,-2.174999999999722267e+00,-4.945000000000007390e+00,1.341884309514045626e+01,-2.174181127386020318e+00
1.999999999999778666e+01,2.999999999454468824e+00,1.000000000001160139e+01,6.600000000003070078e-01,1.569999999999941886e+00,2.870000000000001819e+03,-2.174999999999657874e+00,-4.945000000000078444e+00,1.341704204430057068e+01,-2.166123765455005845e+00
1.999999999999778666e+01,2.999999999474632251e+00,1.000000000000049738e+01,6.600000000003952705e-01,1.569999999999818430e+00,2.870000000000002274e+03,-2.174999999999664091e+00,-4.945000000000360885e+00,1.341758669726766584e+01,-2.183079373766422027e+00
2.000000000000016698e+01,2.999999999193492695e+00,1.000000000003885781e+01,6.599999999999088818e-01,1.569999999999991180e+00,2.870000000000002274e+03,-2.175000000000026912e+00,-4.944999999999999396e+00,1.340594694989953517e+01,-2.182487000539733657e+00
2.000000000000090949e+01,3.000000000645443254e+00,1.000000000001291411e+01,6.599999999999546230e-01,1.570000000000002949e+00,2.870000000000002274e+03,-2.175000000000047784e+00,-4.945000000000010054e+00,1.340882731541316275e+01,-2.163185333115402287e+00
1.999999999999986500e+01,2.999999999623296443e+00,9.999999999972764897e+00,6.599999999999699440e-01,1.569999999999936557e+00,2.870000000000002274e+03,-2.175000000000029576e+00,-4.945000000000113971e+00,1.339623778453076497e+01,-2.156938115089833907e+00
2.000000000000066080e+01,2.999999998189697425e+00,1.000000000003059952e+01,6.599999999996668532e-01,1.570000000000047358e+00,2.870000000000002274e+03,-2.175000000000299138e+00,-4.944999999999811990e+00,1.339974245307940670e+01,-2.157579899683117475e+00
1.999999999999976907e+01,2.999999997290538012e+00,9.999999999935635486e+00,6.600000000001472467e-01,1.569999999999590612e+00,2.870000000000002274e+03,-2.175000000000230749e+00,-4.945000000001171792e+00,1.340572046765258740e+01,-2.181834673034309890e+00
1.999999999999969447e+01,2.999999997874464253e+00,9.999999999957520203e+00,6.600000000002179679e-01,1.569999999999778240e+00,2.870000000000002274e+03,-2.174999999999957190e+00,-4.945000000000692175e+00,1.339187056100538875e+01,-2.163404762500173550e+00
2.000000000000076383e+01,2.999999998032492954e+00,9.999999999974157561e+00,6.600000000003233280e-01,1.569999999999631246e+00,2.870000000000002274e+03,-2.175000000000058442e+00,-4.945000000001251728e+00,1.341170033498820935e+01,-2.143188526879725497e+00
1.999999999999818101e+01,2.999999998664576228e+00,9.999999999984321875e+00,6.600000000007147927e-01,1.569999999999594387e+00,2.870000000000002728e+03,-2.174999999999662315e+00,-4.945000000001161133e+00,1.341948704907604295e+01,-2.169886053530096337e+00
2.000000000000058975e+01,2.999999998488902531e+00,9.999999999982415844e+00,6.599999999998311662e-01,1.570000000000120188e+00,2.870000000000002274e+03,-2.175000000000054889e+00,-4.944999999999638796e+00,1.340578204115520222e+01,-2.171686837081688637e+00
2.000000000000046541e+01,2.999999999603860434e+00,1.000000000003771916e+01,6.599999999999294209e-01,1.570000000000132623e+00,2.870000000000002274e+03,-2.175000000000031797e+00,-4.944999999999616591e+00,1.338673159506252652e+01,-2.181880557232660500e+00
2.000000000000060396e+01,2.999999999580004406e+00,1.000000000003544898e+01,6.599999999998739098e-01,1.570000000000153717e+00,2.870000000000002274e+03,-2.175000000000075762e+00,-4.944999999999539320e+00,1.338515268432509586e+01,-2.185729131685713256e+00
1.999999999999819167e+01,2.999999998557297154e+00,1.000000000002651568e+01,6.600000000006597256e-01,1.569999999999639462e+00,2.870000000000002274e+03,-2.174999999999728040e+00,-4.945000000001009255e+00,1.340425462815959534e+01,-2.176474668544783331e+00
1.999999999999839773e+01,2.999999997617916137e+00,9.999999999974907183e+00,6.600000000001695621e-01,1.569999999999964091e+00,2.870000000000002274e+03,-2.174999999999797318e+00,-4.944999999999988738e+00,1.341371145952807709e+01,-2.184426778802419200e+00
2.000000000000012790e+01,2.999999999534944006e+00,1.000000000004578915e+01,6.600000000003489742e-01,1.569999999999909024e+00,2.870000000000002274e+03,-2.174999999999765787e+00,-4.945000000000334239e+00,1.341273501185373362e+01,-2.159909856891641500e+00
2.000000000000051870e+01,2.999999998643020582e+00,1.000000000001309708e+01,6.600000000004087042e-01,1.569999999999760476e+00,2.870000000000002274e+03,-2.174999999999798206e+00,-4.945000000000761453e+00,1.339578922866370547e+01,-2.164993162144953853e+00
1.999999999999923617e+01,3.000000000261855870e+00,1.000000000001154277e+01,6.600000000003172218e-01,1.569999999999855955e+00,2.870000000000002274e+03,-2.174999999999728928e+00,-4.945000000000529639e+00,1.341354801063994096e+01,-2.180379516272564544e+00
2.000000000000042633e+01,2.999999997874879920e+00,9.999999999924996885e+00,6.599999999999691669e-01,1.570000000000076223e+00,2.870000000000002728e+03,-2.174999999999872813e+00,-4.944999999999790674e+00,1.341139208718651332e+01,-2.157659521062877950e+00
2.000000000000164846e+01,2.999999997375358163e+00,9.999999999943995022e+00,6.599999999999497380e-01,1.569999999999965201e+00,2.870000000000002274e+03,-2.175000000000077982e+00,-4.945000000000105089e+00,1.341901474828814145e+01,-2.147619013788592213e+00
1.999999999999996447e+01,2.999999999341477430e+00,9.999999999987400301e+00,6.599999999998442668e-01,1.570000000000089324e+00,2.870000000000002274e+03,-2.175000000000038014e+00,-4.944999999999695639e+00,1.339809472705719884e+01,-2.186114519146231672e+00
1.999999999999981526e+01,2.999999997341890268e+00,9.999999999956939334e+00,6.600000000001443601e-01,1.569999999999900142e+00,2.870000000000002274e+03,-2.174999999999847944e+00,-4.945000000000200124e+00,1.340729670402803819e+01,-2.161459077436137743e+00
1.999999999999862865e+01,2.999999996478713182e+00,9.999999999904204628e+00,6.600000000001526868e-01,1.569999999999876827e+00,2.870000000000002274e+03,-2.174999999999787548e+00,-4.945000000000165485e+00,1.340853288074279348e+01,-2.173408872821429583e+00
1.999999999999821299e+01,2.999999996349019593e+00,9.999999999901177716e+00,6.600000000004558887e-01,1.569999999999609042e+00,2.870000000000002274e+03,-2.174999999999739586e+00,-4.945000000000913332e+00,1.338289925700678040e+01,-2.186878843826097540e+00
1.999999999999875655e+01,2.999999996313433837e+00,9.999999999915806015e+00,6.600000000004281331e-01,1.569999999999627471e+00,2.870000000000002728e+03,-2.174999999999792877e+00,-4.945000000000926654e+00,1.338383001926003146e+01,-2.183560005797544168e+00
1.999999999999856826e+01,2.999999995993895219e+00,9.999999999932716932e+00,6.600000000004264678e-01,1.569999999999738272e+00,2.870000000000002274e+03,-2.174999999999660982e+00,-4.945000000000622009e+00,1.339072079432261120e+01,-2.180809816688316083e+00
1.999999999999869971e+01,2.999999996040901618e+00,9.999999999917807969e+00,6.600000000005118439e-01,1.569999999999615703e+00,2.870000000000002274e+03,-2.174999999999725819e+00,-4.945000000001033236e+00,1.338699834062267691e+01,-2.180043661771556618e+00
1.999999999999810996e+01,2.999999996527639379e+00,9.999999999938649964e+00,6.600000000007321121e-01,1.569999999999636131e+00,2.870000000000002274e+03,-2.174999999999576605e+00,-4.945000000001154916e+00,1.341120626711563446e+01,-2.171767492125259214e+00
2.000000000000054357e+01,2.999999999203175172e+00,1.000000000004782663e+01,6.599999999998699129e-01,1.570000000000216112e+00,2.870000000000002274e+03,-2.174999999999934097e+00,-4.944999999999422968e+00,1.342178449396568141e+01,-2.177427857751439877e+00
