1.999999999999890221e+01,2.999999999116542693e+00,1.000000000001755218e+01,6.600000000002537170e-01,1.569999999999843299e+00,2.870000000000002274e+03,-2.174999999999865263e+00,-4.945000000000460361e+00,1.324451890025748746e+01,-2.069670885463684495e+00
1.999999999999930012e+01,2.999999999392899852e+00,1.000000000001229061e+01,6.600000000000721956e-01,1.569999999999919460e+00,2.870000000000002728e+03,-2.174999999999963407e+00,-4.945000000000240981e+00,1.325038127073468175e+01,-2.066019507153944001e+00
1.999999999999840838e+01,2.999999999427190200e+00,1.000000000000538058e+01,6.600000000004705436e-01,1.569999999999684981e+00,2.870000000000002274e+03,-2.174999999999803979e+00,-4.945000000000914220e+00,1.326552226154002767e+01,-2.080076915325260956e+00
1.999999999999846878e+01,2.999999999168233344e+00,1.000000000001399592e+01,6.600000000004457856e-01,1.569999999999672324e+00,2.870000000000002274e+03,-2.174999999999852829e+00,-4.945000000000959517e+00,1.324880602019044318e+01,-2.077563851938963424e+00
1.999999999999894129e+01,3.000000000302716963e+00,9.999999999969690023e+00,6.600000000001212674e-01,1.569999999999930118e+00,2.870000000000001819e+03,-2.174999999999848388e+00,-4.945000000000254303e+00,1.339870613486715989e+01,-2.218773446506582481e+00
1.999999999999961275e+01,3.000000001335957567e+00,1.000000000002207656e+01,6.600000000002514966e-01,1.569999999999679874e+00,2.870000000000002274e+03,-2.174999999999976286e+00,-4.945000000000922213e+00,1.330097450388922198e+01,-2.277827786771122298e+00
1.999999999999979750e+01,3.000000001294391261e+00,1.000000000003158895e+01,6.600000000001873257e-01,1.569999999999732720e+00,2.870000000000002274e+03,-2.175000000000003819e+00,-4.945000000000777440e+00,1.328177126846787282e+01,-2.308779541794714785e+00
1.999999999999963407e+01,3.000000000744497353e+00,1.000000000003198863e+01,6.600000000002056444e-01,1.569999999999689422e+00,2.870000000000002728e+03,-2.174999999999996270e+00,-4.945000000000913332e+00,1.330157370919782345e+01,-2.321234087102326704e+00
2.000000000000043343e+01,2.999999995834674582e+00,1.000000000001330669e+01,6.600000000000135758e-01,1.569999999999883045e+00,2.870000000000002728e+03,-2.175000000000080203e+00,-4.945000000000291607e+00,1.338676709564359157e+01,-2.208954993398652977e+00
2.000000000000031264e+01,2.999999996744686648e+00,1.000000000001104539e+01,6.600000000000584288e-01,1.569999999999829532e+00,2.870000000000001819e+03,-2.175000000000053557e+00,-4.945000000000445262e+00,1.339906820204195093e+01,-2.198550346941550160e+00
2.000000000000061107e+01,2.999999996048896556e+00,1.000000000002420641e+01,6.599999999999091038e-01,1.569999999999945439e+00,2.870000000000002274e+03,-2.175000000000101519e+00,-4.945000000000111307e+00,1.339023245362408687e+01,-2.183131129229234357e+00
2.000000000000046896e+01,2.999999996114977474e+00,1.000000000002084910e+01,6.599999999999670575e-01,1.569999999999919238e+00,2.870000000000002274e+03,-2.175000000000060663e+00,-4.945000000000187690e+00,1.337018296908378545e+01,-2.178713360716420855e+00
1.999999999999998224e+01,2.999999997273869567e+00,1.000000000001098677e+01,6.600000000002069767e-01,1.569999999999776685e+00,2.870000000000002274e+03,-2.174999999999990496e+00,-4.945000000000603357e+00,1.336870207586235715e+01,-2.224388551577127338e+00
2.000000000000007105e+01,2.999999996861887119e+00,9.999999999999561240e+00,6.600000000001693401e-01,1.569999999999811102e+00,2.870000000000002274e+03,-2.175000000000002043e+00,-4.945000000000498552e+00,1.336372958706165015e+01,-2.212384586403560061e+00
1.999999999999981526e+01,3.000000004179446123e+00,1.000000000001321077e+01,6.600000000000081357e-01,1.570000000000066676e+00,2.870000000000001364e+03,-2.174999999999994049e+00,-4.944999999999838636e+00,1.329925549134959084e+01,-2.165998946711958251e+00
2.000000000000002132e+01,3.000000003943214200e+00,1.000000000001984191e+01,6.599999999999330846e-01,1.570000000000112639e+00,2.870000000000001819e+03,-2.175000000000028244e+00,-4.944999999999695639e+00,1.327126332338722925e+01,-2.139064377810401929e+00
1.999999999999910116e+01,3.000000003146703786e+00,1.000000000001168310e+01,6.600000000003350964e-01,1.569999999999834639e+00,2.870000000000000909e+03,-2.174999999999886136e+00,-4.945000000000499440e+00,1.333989141914272025e+01,-2.176994273223470611e+00
1.999999999999933209e+01,3.000000003113224789e+00,1.000000000000844125e+01,6.600000000002161915e-01,1.569999999999856399e+00,2.870000000000001364e+03,-2.174999999999962963e+00,-4.945000000000432827e+00,1.333706735742098104e+01,-2.157669812261181264e+00
2.000000000000036948e+01,3.000000000511495291e+00,9.999999999967476683e+00,6.599999999998568123e-01,1.570000000000122409e+00,2.870000000000001819e+03,-2.175000000000043787e+00,-4.944999999999666329e+00,1.327973440377189185e+01,-2.327261391459092277e+00
2.000000000000009237e+01,3.000000000003602008e+00,9.999999999972430942e+00,6.599999999999766054e-01,1.570000000000023599e+00,2.870000000000001364e+03,-2.175000000000028244e+00,-4.944999999999956763e+00,1.324854425907387778e+01,-2.286053933326637644e+00
2.000000000000004974e+01,3.000000000029468428e+00,9.999999999966190600e+00,6.599999999999982547e-01,1.570000000000028706e+00,2.870000000000001364e+03,-2.175000000000012257e+00,-4.944999999999943441e+00,1.325814202557273092e+01,-2.283939247510831549e+00
2.000000000000068923e+01,3.000000000973316983e+00,9.999999999967446485e+00,6.599999999997037126e-01,1.570000000000225659e+00,2.870000000000002274e+03,-2.175000000000076650e+00,-4.944999999999359908e+00,1.327471531553935513e+01,-2.274819758471831488e+00
2.000000000000069988e+01,3.000000001109969894e+00,9.999999999973127274e+00,6.599999999997003819e-01,1.570000000000214335e+00,2.870000000000002274e+03,-2.175000000000092637e+00,-4.944999999999391882e+00,1.328618436440653738e+01,-2.280753804572332122e+00
2.000000000000054357e+01,3.000000000470150585e+00,9.999999999976113330e+00,6.599999999998219513e-01,1.570000000000091100e+00,2.870000000000001364e+03,-2.175000000000082423e+00,-4.944999999999739160e+00,1.331776554204244789e+01,-2.308706723572890862e+00
2.000000000000055422e+01,3.000000000883282780e+00,9.999999999972542852e+00,6.599999999998360511e-01,1.570000000000119966e+00,2.870000000000001364e+03,-2.175000000000058442e+00,-4.944999999999651230e+00,1.329151957608490164e+01,-2.295536537811797118e+00
1.999999999999869615e+01,3.000000001360681789e+00,9.999999999956974861e+00,6.600000000002036460e-01,1.569999999999919016e+00,2.870000000000001364e+03,-2.174999999999841727e+00,-4.945000000000245421e+00,1.330409008949356853e+01,-2.313902667354242215e+00
1.999999999999884182e+01,3.000000001700610763e+00,9.999999999974354736e+00,6.600000000001718936e-01,1.569999999999951434e+00,2.870000000000001364e+03,-2.174999999999850164e+00,-4.945000000000153051e+00,1.326806864355137883e+01,-2.256375682914947944e+00
1.999999999999893063e+01,3.000000001866000687e+00,9.999999999971151965e+00,6.600000000001262634e-01,1.569999999999967644e+00,2.870000000000001819e+03,-2.174999999999868816e+00,-4.945000000000103313e+00,1.328484978699864172e+01,-2.244187623122760211e+00
2.000000000000058620e+01,3.000000000193428384e+00,1.000000000001686473e+01,6.599999999998281686e-01,1.570000000000053131e+00,2.870000000000001364e+03,-2.175000000000124167e+00,-4.944999999999880380e+00,1.333264865048897008e+01,-2.108617586196652294e+00
2.000000000000030198e+01,3.000000000529569277e+00,1.000000000000677680e+01,6.599999999999608402e-01,1.570000000000028040e+00,2.870000000000000909e+03,-2.175000000000032241e+00,-4.944999999999953211e+00,1.334540135104538550e+01,-2.118752821298994338e+00
2.000000000000086686e+01,3.000000000755886909e+00,9.999999999998381739e+00,6.599999999996839506e-01,1.570000000000169038e+00,2.870000000000001364e+03,-2.175000000000160139e+00,-4.944999999999568630e+00,1.323557887327237914e+01,-2.075381975089318765e+00
2.000000000000066791e+01,3.000000000757200525e+00,9.999999999993949729e+00,6.599999999997568922e-01,1.570000000000126628e+00,2.870000000000001364e+03,-2.175000000000101963e+00,-4.944999999999680540e+00,1.324287632223830613e+01,-2.061981200646310963e+00
2.000000000000024869e+01,3.000000000640226983e+00,1.000000000000806111e+01,6.600000000000321165e-01,1.569999999999969642e+00,2.870000000000000909e+03,-2.175000000000041123e+00,-4.945000000000121076e+00,1.325729855957681380e+01,-2.109071027598714121e+00
2.000000000000038369e+01,3.000000000818025647e+00,1.000000000000116884e+01,6.599999999999621725e-01,1.569999999999991624e+00,2.870000000000000909e+03,-2.175000000000078870e+00,-4.945000000000058904e+00,1.323008181831800201e+01,-2.107256962281732982e+00
2.000000000000089528e+01,3.000000000675775880e+00,9.999999999994942712e+00,6.599999999997218092e-01,1.570000000000176366e+00,2.870000000000000909e+03,-2.175000000000106848e+00,-4.944999999999514451e+00,1.326458494832098189e+01,-2.075022915416564029e+00
2.000000000000094147e+01,3.000000000341286110e+00,9.999999999997099209e+00,6.599999999997007150e-01,1.570000000000159934e+00,2.870000000000000909e+03,-2.175000000000160583e+00,-4.944999999999566853e+00,1.324948995265054563e+01,-2.054865186101804575e+00
2.000000000000051870e+01,3.000000000277950551e+00,9.999999999995205613e+00,6.599999999998499289e-01,1.570000000000053797e+00,2.870000000000001364e+03,-2.175000000000099742e+00,-4.944999999999876827e+00,1.328062201497192341e+01,-2.066791091388340718e+00
2.000000000000028777e+01,3.000000000277097012e+00,9.999999999986309618e+00,6.599999999999504041e-01,1.570000000000020046e+00,2.870000000000001364e+03,-2.175000000000047340e+00,-4.944999999999985185e+00,1.328214250433718036e+01,-2.060309688210076207e+00
1.999999999999940314e+01,2.999999997752875736e+00,9.999999999957692509e+00,6.600000000000776357e-01,1.569999999999924567e+00,2.870000000000002274e+03,-2.175000000000068656e+00,-4.945000000000243645e+00,1.329151574383169354e+01,-2.065477344364034185e+00
1.999999999999932143e+01,2.999999997850309352e+00,9.999999999965243802e+00,6.600000000001152722e-01,1.569999999999905693e+00,2.870000000000002274e+03,-2.175000000000044231e+00,-4.945000000000301377e+00,1.333755682888510918e+01,-2.070778634645761063e+00
1.999999999999935341e+01,2.999999997172971167e+00,9.999999999967386088e+00,6.600000000000677547e-01,1.570000000000002727e+00,2.870000000000001819e+03,-2.174999999999954525e+00,-4.945000000000027818e+00,1.339528324856643060e+01,-2.253609918466576989e+00
1.999999999999895905e+01,2.999999998877481033e+00,9.999999999991574740e+00,6.600000000001896572e-01,1.569999999999900364e+00,2.870000000000001819e+03,-2.174999999999909228e+00,-4.945000000000323581e+00,1.338959530239600149e+01,-2.237477741429411804e+00
1.999999999999931077e+01,2.999999998350326713e+00,9.999999999997349676e+00,6.600000000000255662e-01,1.569999999999993623e+00,2.870000000000001819e+03,-2.174999999999971401e+00,-4.945000000000058904e+00,1.337932378890549145e+01,-2.175052092061242170e+00
1.999999999999893774e+01,2.999999997772750504e+00,9.999999999993745448e+00,6.600000000001793321e-01,1.569999999999909690e+00,2.870000000000001364e+03,-2.174999999999896794e+00,-4.945000000000302265e+00,1.338703690834725180e+01,-2.167013983974127367e+00
2.000000000000150635e+01,3.000000000277316836e+00,1.000000000001550582e+01,6.599999999996880584e-01,1.570000000000183471e+00,2.870000000000002728e+03,-2.175000000000274269e+00,-4.944999999999470042e+00,1.326470893952458674e+01,-2.265930038577971928e+00
2.000000000000142819e+01,3.000000000842919956e+00,1.000000000002350120e+01,6.599999999997252509e-01,1.570000000000155271e+00,2.870000000000002274e+03,-2.175000000000262279e+00,-4.944999999999555307e+00,1.326288630426238235e+01,-2.256595729663930516e+00
1.999999999999985434e+01,2.999999999772427817e+00,1.000000000002053469e+01,6.599999999996234434e-01,1.570000000000457696e+00,2.870000000000001819e+03,-2.174999999999916778e+00,-4.944999999998742624e+00,1.330905873127013272e+01,-2.249016159014092242e+00
1.999999999999972999e+01,2.999999999708471421e+00,1.000000000003370815e+01,6.599999999996754019e-01,1.570000000000412843e+00,2.870000000000001364e+03,-2.174999999999892797e+00,-4.944999999998867857e+00,1.332040090348385242e+01,-2.269796841078471683e+00
2.000000000000189360e+01,3.000000000638860076e+00,1.000000000004210676e+01,6.599999999994249356e-01,1.570000000000515872e+00,2.870000000000001364e+03,-2.175000000000204103e+00,-4.944999999998532125e+00,1.327820079598315495e+01,-2.272463912457002078e+00
2.000000000000190070e+01,3.000000000252023291e+00,1.000000000004190781e+01,6.599999999994239364e-01,1.570000000000516316e+00,2.870000000000001364e+03,-2.175000000000214317e+00,-4.944999999998528573e+00,1.327597913915028727e+01,-2.284557222973007562e+00
2.000000000000196465e+01,3.000000000698427538e+00,1.000000000003563727e+01,6.599999999993645394e-01,1.570000000000556950e+00,2.870000000000001364e+03,-2.175000000000209432e+00,-4.944999999998412221e+00,1.327909453700351605e+01,-2.290548346852790296e+00
2.000000000000171596e+01,3.000000000346656925e+00,1.000000000002925660e+01,6.599999999994613509e-01,1.570000000000500551e+00,2.870000000000000909e+03,-2.175000000000158362e+00,-4.944999999998569429e+00,1.329962506461015792e+01,-2.294059814885214266e+00
1.999999999999867484e+01,2.999999998996877970e+00,1.000000000000918021e+01,6.600000000002008704e-01,1.569999999999855067e+00,2.870000000000001819e+03,-2.174999999999827072e+00,-4.945000000000450591e+00,1.342426668157682457e+01,-2.135471593603596396e+00
2.000000000000089528e+01,2.999999997523136841e+00,1.000000000000437872e+01,6.599999999998563682e-01,1.570000000000009166e+00,2.870000000000000455e+03,-2.175000000000073985e+00,-4.944999999999933671e+00,1.351598573114682722e+01,-2.327228399860227892e+00
1.999999999999881339e+01,3.000000001055243892e+00,9.999999999962051689e+00,6.600000000001241540e-01,1.569999999999894813e+00,2.870000000000002274e+03,-2.174999999999934985e+00,-4.945000000000338680e+00,1.350490994188611182e+01,-2.306609149515576718e+00
2.000000000000024514e+01,2.999999999238562420e+00,1.000000000000328626e+01,6.599999999999093259e-01,1.570000000000086438e+00,2.870000000000001819e+03,-2.174999999999908784e+00,-4.944999999999710738e+00,1.336726007246153181e+01,-2.151778581183038774e+00
2.000000000000020250e+01,2.999999999023064579e+00,9.999999999987947419e+00,6.599999999999099920e-01,1.570000000000075335e+00,2.870000000000001364e+03,-2.174999999999926992e+00,-4.944999999999759588e+00,1.337509723777046311e+01,-2.159548080923129554e+00
2.000000000000074607e+01,2.999999998909654408e+00,1.000000000000008882e+01,6.599999999997177014e-01,1.570000000000185914e+00,2.870000000000001819e+03,-2.174999999999998490e+00,-4.944999999999431850e+00,1.336516586525240058e+01,-2.168365139233923156e+00
2.000000000000065015e+01,2.999999999090385838e+00,9.999999999995999644e+00,6.599999999997548938e-01,1.570000000000147500e+00,2.870000000000001364e+03,-2.175000000000013589e+00,-4.944999999999552642e+00,1.335527845413511905e+01,-2.144474441541214027e+00
2.000000000000005329e+01,2.999999998831268666e+00,1.000000000001284661e+01,6.599999999999877076e-01,1.570000000000004725e+00,2.870000000000002274e+03,-2.174999999999898570e+00,-4.944999999999953211e+00,1.341137727549937075e+01,-2.178682129561113179e+00
1.999999999999997868e+01,2.999999998921811795e+00,1.000000000000418687e+01,6.599999999999958122e-01,1.569999999999968088e+00,2.870000000000001819e+03,-2.174999999999899902e+00,-4.945000000000051799e+00,1.340351824403149905e+01,-2.169478738369164716e+00
2.000000000000018474e+01,2.999999998840539028e+00,1.000000000000250111e+01,6.599999999998829026e-01,1.570000000000070450e+00,2.870000000000001819e+03,-2.174999999999903011e+00,-4.944999999999759588e+00,1.338144145806814578e+01,-2.158760536897675220e+00
2.000000000000040501e+01,2.999999999201605316e+00,1.000000000000349765e+01,6.599999999997909761e-01,1.570000000000120410e+00,2.870000000000002274e+03,-2.174999999999941203e+00,-4.944999999999616591e+00,1.336059400655396523e+01,-2.159043579814254432e+00
2.000000000000084199e+01,2.999999999380200677e+00,1.000000000000368061e+01,6.599999999999360822e-01,1.569999999999977858e+00,2.870000000000001819e+03,-2.175000000000042011e+00,-4.945000000000000284e+00,1.338477770745170936e+01,-2.181063919934348228e+00
2.000000000000087397e+01,3.000000000107073461e+00,1.000000000000562217e+01,6.599999999999248690e-01,1.569999999999986739e+00,2.870000000000001364e+03,-2.175000000000044675e+00,-4.944999999999973639e+00,1.337208789865087688e+01,-2.197335098276498755e+00
2.000000000000068567e+01,3.000000000372932796e+00,1.000000000002045475e+01,6.599999999999778266e-01,1.569999999999952545e+00,2.870000000000002274e+03,-2.175000000000035350e+00,-4.945000000000080220e+00,1.341634604788118601e+01,-2.180199281411293377e+00
2.000000000000105516e+01,2.999999999056442768e+00,1.000000000001675104e+01,6.599999999998195088e-01,1.570000000000058904e+00,2.870000000000002274e+03,-2.175000000000072653e+00,-4.944999999999769358e+00,1.341154941978193982e+01,-2.163154118787216529e+00
2.000000000000078515e+01,2.999999998971626614e+00,1.000000000000224887e+01,6.599999999998964473e-01,1.570000000000014495e+00,2.870000000000002274e+03,-2.175000000000027800e+00,-4.944999999999897256e+00,1.339488861365403238e+01,-2.136556602355021983e+00
2.000000000000113332e+01,2.999999998668366974e+00,9.999999999978692600e+00,6.599999999997614442e-01,1.570000000000170148e+00,2.869999999999998636e+03,-2.175000000000177014e+00,-4.944999999999490470e+00,1.338870990559464680e+01,-2.491101601367971874e+00
1.999999999999985434e+01,2.999999999930585748e+00,9.999999999982255972e+00,6.600000000000298961e-01,1.570000000000148166e+00,2.869999999999995907e+03,-2.174999999999946976e+00,-4.944999999999624585e+00,1.335469131491874073e+01,-2.471939994659372974e+00
1.999999999999860378e+01,3.000000001533192240e+00,1.000000000007967671e+01,6.600000000002961276e-01,1.569999999999791562e+00,2.870000000000001819e+03,-2.174999999999876366e+00,-4.945000000000636220e+00,1.337829325258820568e+01,-2.248247379918163258e+00
1.999999999999833378e+01,3.000000000889639029e+00,1.000000000009065104e+01,6.600000000004647704e-01,1.569999999999662554e+00,2.870000000000002274e+03,-2.174999999999844391e+00,-4.945000000000993268e+00,1.341897726597529150e+01,-2.240972403995819207e+00
1.999999999999887024e+01,3.000000000490393504e+00,1.000000000007616130e+01,6.600000000002401723e-01,1.569999999999815987e+00,2.870000000000002274e+03,-2.174999999999941203e+00,-4.945000000000564278e+00,1.344209057045642020e+01,-2.235268171767767154e+00
2.000000000000021672e+01,3.000000004449140611e+00,1.000000000006980549e+01,6.600000000000575406e-01,1.569999999999848850e+00,2.870000000000002728e+03,-2.175000000000049560e+00,-4.945000000000432827e+00,1.356205190372589797e+01,-2.358757690001060503e+00
2.000000000000012790e+01,3.000000003813554805e+00,1.000000000001052136e+01,6.600000000000249001e-01,1.569999999999924789e+00,2.870000000000002274e+03,-2.175000000000046008e+00,-4.945000000000242757e+00,1.328482360793549688e+01,-2.184134913631365027e+00
2.000000000000028777e+01,3.000000003625037159e+00,1.000000000002126299e+01,6.599999999999681677e-01,1.569999999999963425e+00,2.870000000000002274e+03,-2.175000000000069544e+00,-4.945000000000126406e+00,1.331005896907549868e+01,-2.202571265072689854e+00
2.000000000000017408e+01,3.000000001340133782e+00,1.000000000004452261e+01,6.599999999998500400e-01,1.570000000000163709e+00,2.870000000000001364e+03,-2.174999999999999378e+00,-4.944999999999563300e+00,1.317390027292641186e+01,-1.928283151723936939e+00
1.999999999999912603e+01,3.000000000806102296e+00,9.999999999982579268e+00,6.599999999999898170e-01,1.570000000000082885e+00,2.870000000000002274e+03,-2.174999999999971845e+00,-4.944999999999832418e+00,1.358887564039784834e+01,-2.354217377433060587e+00
1.999999999999883826e+01,2.999999998134839085e+00,9.999999999932619232e+00,6.599999999999727196e-01,1.570000000000110862e+00,2.870000000000001819e+03,-2.174999999999864819e+00,-4.944999999999688534e+00,1.340591439670789597e+01,-2.271785518626928013e+00
1.999999999999907985e+01,2.999999998175429727e+00,9.999999999926021843e+00,6.599999999997983036e-01,1.570000000000155715e+00,2.870000000000002728e+03,-2.174999999999950973e+00,-4.944999999999566853e+00,1.342967323093908405e+01,-2.235520995610646544e+00
1.999999999999880274e+01,2.999999999767428704e+00,9.999999999981040943e+00,6.600000000002007594e-01,1.569999999999894369e+00,2.870000000000002728e+03,-2.174999999999859046e+00,-4.945000000000346674e+00,1.341503737704962873e+01,-2.143160735638046877e+00
1.999999999999899813e+01,2.999999999841981069e+00,9.999999999980438758e+00,6.600000000000995071e-01,1.569999999999966089e+00,2.870000000000002274e+03,-2.174999999999885691e+00,-4.945000000000138840e+00,1.344561873611303859e+01,-2.164186041318362896e+00
1.999999999999933920e+01,3.000000000032479353e+00,9.999999999965258013e+00,6.600000000000376676e-01,1.570000000000028040e+00,2.870000000000002274e+03,-2.174999999999915890e+00,-4.944999999999933671e+00,1.343715726243140907e+01,-2.176934347695914873e+00
1.999999999999986500e+01,2.999999996499285615e+00,1.000000000001248424e+01,6.599999999999585087e-01,1.570000000000069784e+00,2.870000000000001364e+03,-2.175000000000034017e+00,-4.944999999999871498e+00,1.339389073811556941e+01,-2.137690855433755477e+00
1.999999999999960210e+01,2.999999996436000682e+00,1.000000000001760014e+01,6.600000000000515454e-01,1.570000000000013829e+00,2.870000000000002728e+03,-2.175000000000007816e+00,-4.945000000000038476e+00,1.335724263818696578e+01,-2.095864945480185426e+00
1.999999999999883116e+01,2.999999996321297768e+00,1.000000000001523226e+01,6.600000000001445821e-01,1.569999999999977858e+00,2.870000000000001364e+03,-2.174999999999856382e+00,-4.945000000000153051e+00,1.340771536071541981e+01,-2.187003040223527428e+00
1.999999999999874944e+01,2.999999996351997211e+00,1.000000000000218847e+01,6.600000000001763345e-01,1.569999999999967644e+00,2.870000000000001364e+03,-2.174999999999863931e+00,-4.945000000000189466e+00,1.336129009155913927e+01,-2.182954540615741568e+00
1.999999999999887734e+01,2.999999995885892723e+00,1.000000000000752465e+01,6.600000000001116085e-01,1.569999999999982077e+00,2.870000000000001364e+03,-2.174999999999897682e+00,-4.945000000000143281e+00,1.338278312939686288e+01,-2.204415985037328607e+00
1.999999999999871036e+01,2.999999996659735935e+00,1.000000000001569411e+01,6.600000000001970957e-01,1.569999999999937446e+00,2.870000000000002728e+03,-2.174999999999869704e+00,-4.945000000000268514e+00,1.341983114060151117e+01,-2.205662762475165906e+00
1.999999999999909406e+01,2.999999996135745306e+00,1.000000000002055245e+01,6.599999999999843769e-01,1.570000000000053353e+00,2.870000000000002728e+03,-2.174999999999946088e+00,-4.944999999999943441e+00,1.336398757333587817e+01,-2.161470771164749838e+00
1.999999999999894129e+01,2.999999996311304429e+00,1.000000000001783995e+01,6.600000000000628697e-01,1.570000000000053797e+00,2.870000000000002274e+03,-2.174999999999878142e+00,-4.944999999999934559e+00,1.336890666618968737e+01,-2.196375626154316585e+00
2.000000000000146727e+01,3.000000001051650322e+00,1.000000000000706635e+01,6.599999999995587174e-01,1.570000000000363105e+00,2.870000000000000909e+03,-2.175000000000091749e+00,-4.944999999998913154e+00,1.352366485159304332e+01,-2.314352257978100180e+00
2.000000000000147793e+01,3.000000001303732233e+00,1.000000000002794032e+01,6.599999999995564970e-01,1.570000000000291385e+00,2.870000000000000909e+03,-2.175000000000132605e+00,-4.944999999999118323e+00,1.355106776632995746e+01,-2.315766822722185481e+00
1.999999999999955946e+01,3.000000002278000899e+00,1.000000000000575184e+01,6.600000000001076117e-01,1.569999999999837303e+00,2.870000000000002274e+03,-2.175000000000023803e+00,-4.945000000000443485e+00,1.344439367814776531e+01,-2.386367619791356809e+00
2.000000000000023448e+01,3.000000001604508970e+00,9.999999999947682738e+00,6.600000000000699751e-01,1.569999999999809992e+00,2.870000000000001364e+03,-2.175000000000070433e+00,-4.945000000000518092e+00,1.349101667528896797e+01,-2.350010156789430926e+00
1.999999999999920774e+01,3.000000001722050502e+00,9.999999999962161823e+00,6.600000000003242162e-01,1.569999999999723395e+00,2.870000000000002274e+03,-2.174999999999893685e+00,-4.945000000000787210e+00,1.349551225237305196e+01,-2.347074727468372313e+00
1.999999999999920064e+01,2.999999999897412284e+00,1.000000000002286704e+01,6.600000000001563505e-01,1.569999999999954543e+00,2.870000000000000909e+03,-2.174999999999937206e+00,-4.945000000000157492e+00,1.340717228588132315e+01,-2.164477853667246876e+00
1.999999999999954881e+01,3.000000000384792198e+00,1.000000000002961897e+01,6.599999999999469624e-01,1.570000000000137952e+00,2.870000000000001819e+03,-2.174999999999940314e+00,-4.944999999999626361e+00,1.339577992165271958e+01,-2.142649397082130314e+00
1.999999999999923617e+01,3.000000000133088207e+00,1.000000000002685319e+01,6.600000000000582068e-01,1.569999999999987628e+00,2.870000000000001364e+03,-2.174999999999923883e+00,-4.945000000000061569e+00,1.341266129214004188e+01,-2.158839967378340940e+00
1.999999999999926814e+01,3.000000000815365997e+00,1.000000000002468603e+01,6.600000000000874056e-01,1.570000000000015827e+00,2.870000000000001364e+03,-2.174999999999918554e+00,-4.944999999999983409e+00,1.340835000314006464e+01,-2.165351706684705668e+00
1.999999999999891287e+01,2.999999999982604137e+00,1.000000000001170442e+01,6.600000000000761924e-01,1.570000000000037810e+00,2.870000000000003183e+03,-2.174999999999855937e+00,-4.944999999999931006e+00,1.342569297911983206e+01,-2.186446843702721132e+00
1.999999999999906564e+01,3.000000000574156722e+00,1.000000000002616574e+01,6.600000000000124656e-01,1.570000000000091323e+00,2.870000000000002728e+03,-2.174999999999865263e+00,-4.944999999999769358e+00,1.341098009127094848e+01,-2.195107878909698496e+00
1.999999999999890576e+01,3.000000000291749291e+00,1.000000000000606448e+01,6.600000000000514344e-01,1.570000000000102425e+00,2.870000000000003638e+03,-2.174999999999837286e+00,-4.944999999999758700e+00,1.341136577755081127e+01,-2.181207461048490170e+00
2.000000000000114042e+01,3.000000002879905203e+00,9.999999999989418242e+00,6.599999999995628253e-01,1.570000000000411733e+00,2.870000000000000000e+03,-2.175000000000178346e+00,-4.944999999998850981e+00,1.328729629476917573e+01,-2.238030708173514238e+00
2.000000000000126121e+01,3.000000002562950296e+00,9.999999999988665067e+00,6.599999999995033173e-01,1.570000000000418616e+00,2.870000000000000000e+03,-2.175000000000238298e+00,-4.944999999998835882e+00,1.328211294945815979e+01,-2.243937624428336441e+00
2.000000000000094502e+01,3.000000001770047664e+00,9.999999999995088373e+00,6.599999999997416822e-01,1.570000000000281393e+00,2.869999999999999091e+03,-2.175000000000144151e+00,-4.944999999999209805e+00,1.332330035800906387e+01,-2.258566876341009610e+00
2.000000000000114042e+01,3.000000002302692703e+00,9.999999999996884270e+00,6.599999999996666311e-01,1.570000000000333795e+00,2.869999999999999091e+03,-2.175000000000173461e+00,-4.944999999999052598e+00,1.331160795671563690e+01,-2.276098483858390864e+00
2.000000000000090594e+01,2.999999998776218924e+00,1.000000000004364686e+01,6.599999999998309441e-01,1.570000000000133733e+00,2.870000000000002728e+03,-2.175000000000026024e+00,-4.944999999999613038e+00,1.356939119633542212e+01,-2.378961184897392389e+00
2.000000000000224176e+01,2.999999999221389935e+00,1.000000000002873257e+01,6.599999999995203037e-01,1.570000000000281171e+00,2.870000000000001364e+03,-2.175000000000219202e+00,-4.944999999999151186e+00,1.348338383963133147e+01,-2.329803790437644739e+00
2.000000000000203926e+01,2.999999998739524276e+00,1.000000000003395328e+01,6.599999999996262190e-01,1.570000000000223661e+00,2.870000000000001364e+03,-2.175000000000184119e+00,-4.944999999999311946e+00,1.347237311175030072e+01,-2.322956283241096820e+00
2.000000000000151701e+01,2.999999999042433529e+00,1.000000000003925926e+01,6.599999999998925615e-01,1.570000000000068008e+00,2.870000000000000909e+03,-2.175000000000111733e+00,-4.944999999999772911e+00,1.351002924903605518e+01,-2.330762401253543725e+00
2.000000000000136779e+01,2.999999997572763366e+00,1.000000000009845991e+01,6.599999999998178435e-01,1.570000000000088436e+00,2.870000000000001819e+03,-2.175000000000098854e+00,-4.944999999999664553e+00,1.343920339047057588e+01,-2.372076262968040083e+00
1.999999999999899813e+01,2.999999999166068410e+00,9.999999999955633712e+00,6.600000000001350342e-01,1.569999999999868834e+00,2.870000000000002274e+03,-2.174999999999923439e+00,-4.945000000000376872e+00,1.331266067141416443e+01,-2.294761552114570335e+00
1.999999999999873879e+01,2.999999998834927961e+00,9.999999999952343899e+00,6.600000000002441691e-01,1.569999999999814433e+00,2.870000000000002274e+03,-2.174999999999857714e+00,-4.945000000000535856e+00,1.330567415650501140e+01,-2.245260393687849021e+00
1.999999999999882405e+01,2.999999999658146788e+00,9.999999999954940932e+00,6.600000000002693712e-01,1.569999999999848628e+00,2.870000000000001819e+03,-2.174999999999874145e+00,-4.945000000000439933e+00,1.335558160311409637e+01,-2.297081281491812454e+00
2.000000000000106937e+01,2.999999998644932386e+00,1.000000000003492850e+01,6.599999999998087397e-01,1.570000000000096207e+00,2.869999999999998636e+03,-2.175000000000006040e+00,-4.944999999999670770e+00,1.351011541281691208e+01,-2.315948852153455029e+00
2.000000000000100187e+01,2.999999999092239467e+00,1.000000000001899814e+01,6.599999999998421574e-01,1.570000000000088214e+00,2.869999999999998181e+03,-2.175000000000006928e+00,-4.944999999999699192e+00,1.353421867259903522e+01,-2.336057388692807990e+00
2.000000000000066080e+01,2.999999998876715424e+00,1.000000000001834799e+01,6.599999999999611733e-01,1.570000000000000950e+00,2.869999999999999545e+03,-2.174999999999975397e+00,-4.944999999999969198e+00,1.348221520071883006e+01,-2.298045240434098080e+00
2.000000000000051870e+01,2.999999999662169792e+00,1.000000000005187140e+01,6.599999999999636158e-01,1.570000000000019380e+00,2.870000000000002274e+03,-2.174999999999912781e+00,-4.944999999999902585e+00,1.337780490451018167e+01,-2.218038393471346126e+00
2.000000000000056843e+01,2.999999999300366316e+00,9.999999999983177901e+00,6.599999999999599520e-01,1.570000000000036255e+00,2.870000000000002274e+03,-2.174999999999965627e+00,-4.944999999999848406e+00,1.336708594067199662e+01,-2.187788000393423804e+00
2.000000000000082423e+01,2.999999999752719582e+00,9.999999999981701748e+00,6.599999999998532596e-01,1.570000000000089990e+00,2.870000000000002728e+03,-2.175000000000034461e+00,-4.944999999999686757e+00,1.336791919620434399e+01,-2.227371813605600437e+00
2.000000000000109068e+01,2.999999999866442835e+00,9.999999999984867216e+00,6.599999999997543387e-01,1.570000000000154605e+00,2.870000000000002274e+03,-2.175000000000049560e+00,-4.944999999999496687e+00,1.330176045594214429e+01,-2.185855253881469284e+00
2.000000000000065370e+01,3.000000000153910218e+00,9.999999999986419752e+00,6.599999999999317524e-01,1.570000000000041140e+00,2.870000000000001819e+03,-2.174999999999962963e+00,-4.944999999999808438e+00,1.331026568108105224e+01,-2.183347734452234512e+00
2.000000000000049027e+01,3.000000001977246811e+00,9.999999999957585928e+00,6.600000000000025846e-01,1.569999999999927454e+00,2.869999999999996817e+03,-2.175000000000034905e+00,-4.945000000000162821e+00,1.310630077065429333e+01,-2.188418753693627039e+00
2.000000000000064659e+01,3.000000002461764126e+00,9.999999999966677322e+00,6.599999999999371925e-01,1.569999999999944995e+00,2.869999999999996817e+03,-2.175000000000076206e+00,-4.945000000000116636e+00,1.308813362945864789e+01,-2.186693223475380865e+00
2.000000000000156675e+01,2.999999997679336783e+00,1.000000000000393108e+01,6.599999999997503419e-01,1.570000000000034701e+00,2.869999999999997272e+03,-2.175000000000161915e+00,-4.944999999999833307e+00,1.345025262127287924e+01,-2.246223959976718199e+00
2.000000000000093436e+01,2.999999998300616255e+00,1.000000000001601741e+01,6.600000000000839639e-01,1.569999999999822871e+00,2.869999999999997726e+03,-2.175000000000050449e+00,-4.945000000000436380e+00,1.342195553204151182e+01,-2.207752693634058350e+00
2.000000000000115108e+01,2.999999998258827016e+00,1.000000000002504663e+01,6.599999999999934808e-01,1.569999999999876383e+00,2.869999999999996817e+03,-2.175000000000077982e+00,-4.945000000000291607e+00,1.337819936311589508e+01,-2.154050322443235022e+00
2.000000000000122924e+01,2.999999998430527448e+00,1.000000000001613287e+01,6.599999999999787148e-01,1.569999999999929896e+00,2.869999999999996817e+03,-2.175000000000070877e+00,-4.945000000000136176e+00,1.336073049698107695e+01,-2.145534097782658911e+00
2.000000000000110134e+01,2.999999997912193628e+00,1.000000000001074696e+01,6.599999999999649480e-01,1.569999999999883933e+00,2.869999999999997272e+03,-2.175000000000085532e+00,-4.945000000000272067e+00,1.338960232022062691e+01,-2.194097852550016547e+00
2.000000000000100542e+01,2.999999997973314070e+00,1.000000000001492673e+01,6.600000000000021405e-01,1.569999999999856399e+00,2.869999999999997272e+03,-2.175000000000058442e+00,-4.945000000000354667e+00,1.339904614001755512e+01,-2.166867292342265827e+00
2.000000000000084555e+01,2.999999998061505302e+00,1.000000000000541256e+01,6.599999999999505151e-01,1.569999999999912799e+00,2.869999999999998636e+03,-2.175000000000040679e+00,-4.945000000000221441e+00,1.334659200996563655e+01,-2.213696668073386054e+00
2.000000000000095923e+01,2.999999997686777942e+00,9.999999999998676614e+00,6.599999999999059952e-01,1.569999999999948992e+00,2.869999999999998636e+03,-2.175000000000073097e+00,-4.945000000000119300e+00,1.335271875091792637e+01,-2.220012002807906004e+00
2.000000000000024514e+01,2.999999998447727023e+00,9.999999999998884448e+00,6.600000000002215206e-01,1.569999999999727613e+00,2.869999999999999091e+03,-2.174999999999984279e+00,-4.945000000000756124e+00,1.334005576039753471e+01,-2.198973773443541724e+00
2.000000000000020250e+01,2.999999998087240716e+00,9.999999999998840039e+00,6.600000000002400613e-01,1.569999999999719398e+00,2.869999999999999091e+03,-2.174999999999973177e+00,-4.945000000000778329e+00,1.332401412125019924e+01,-2.189649567618504378e+00
2.000000000000001776e+01,3.000000000204291695e+00,1.000000000002540190e+01,6.600000000000710854e-01,1.569999999999902807e+00,2.869999999999994543e+03,-2.174999999999949196e+00,-4.945000000000266738e+00,1.357993571938708044e+01,-2.365135331571036836e+00
2.000000000000063594e+01,3.000000000538094014e+00,1.000000000004143708e+01,6.599999999998692468e-01,1.570000000000049134e+00,2.869999999999994088e+03,-2.175000000000013145e+00,-4.944999999999832418e+00,1.358693925737440722e+01,-2.347765076324077604e+00
1.999999999999933564e+01,2.999999999742033463e+00,1.000000000000045652e+01,6.600000000001199352e-01,1.569999999999987850e+00,2.869999999999996817e+03,-2.174999999999918110e+00,-4.945000000000064233e+00,1.358089537318679874e+01,-2.364289387897821282e+00
1.999999999999948130e+01,3.000000000096541442e+00,9.999999999980701659e+00,6.600000000000585398e-01,1.570000000000050244e+00,2.869999999999995907e+03,-2.174999999999921663e+00,-4.944999999999871498e+00,1.360919199085079256e+01,-2.404786805486792023e+00
1.999999999999937828e+01,3.000000002453960146e+00,1.000000000002471978e+01,6.600000000002258504e-01,1.569999999999835527e+00,2.870000000000001364e+03,-2.174999999999933209e+00,-4.945000000000500329e+00,1.353174130581653856e+01,-2.315387904537534958e+00
1.999999999999967670e+01,3.000000001141574835e+00,1.000000000001545253e+01,6.600000000000791900e-01,1.569999999999956097e+00,2.870000000000001819e+03,-2.174999999999989164e+00,-4.945000000000161933e+00,1.338641761763011573e+01,-2.438060252059763844e+00
1.999999999999969091e+01,2.999999997332574608e+00,1.000000000003327827e+01,6.600000000001096101e-01,1.569999999999981855e+00,2.870000000000001819e+03,-2.174999999999953637e+00,-4.945000000000042029e+00,1.333070991360659718e+01,-2.191288311396412780e+00
1.999999999999970868e+01,2.999999997066094437e+00,1.000000000002436806e+01,6.600000000000748601e-01,1.569999999999967866e+00,2.870000000000001819e+03,-2.174999999999979394e+00,-4.945000000000087326e+00,1.335718375932134805e+01,-2.188830127579541873e+00
1.999999999999996092e+01,2.999999997346634473e+00,1.000000000002531664e+01,6.599999999999752731e-01,1.570000000000052465e+00,2.870000000000001819e+03,-2.174999999999994937e+00,-4.944999999999825313e+00,1.337069000109735661e+01,-2.197128752306792610e+00
1.999999999999973710e+01,2.999999997407433838e+00,1.000000000002049028e+01,6.600000000000822986e-01,1.570000000000024709e+00,2.870000000000001364e+03,-2.174999999999937650e+00,-4.944999999999909690e+00,1.338476506836155089e+01,-2.199365354176415543e+00
1.999999999999952038e+01,2.999999997277093211e+00,1.000000000003042544e+01,6.600000000001412515e-01,1.569999999999903251e+00,2.870000000000002274e+03,-2.174999999999963407e+00,-4.945000000000257856e+00,1.338296431099810846e+01,-2.193067353568701527e+00
1.999999999999944578e+01,2.999999997031081111e+00,1.000000000002616218e+01,6.600000000001686740e-01,1.569999999999887708e+00,2.870000000000002274e+03,-2.174999999999952749e+00,-4.945000000000291607e+00,1.339773815802996282e+01,-2.229098423190527978e+00
1.999999999999969091e+01,2.999999997467495572e+00,1.000000000003650413e+01,6.600000000001116085e-01,1.569999999999981855e+00,2.870000000000001819e+03,-2.174999999999935429e+00,-4.945000000000020712e+00,1.335033221544612303e+01,-2.205332574013668889e+00
1.999999999999980105e+01,2.999999997905664628e+00,1.000000000004746425e+01,6.600000000000811884e-01,1.570000000000009388e+00,2.870000000000002274e+03,-2.174999999999951861e+00,-4.944999999999944329e+00,1.334543407175813279e+01,-2.208853763740138199e+00
1.999999999999890576e+01,2.999999998225433284e+00,1.000000000000923528e+01,6.600000000002415046e-01,1.569999999999840634e+00,2.870000000000002274e+03,-2.174999999999901235e+00,-4.945000000000457696e+00,1.334193974683412698e+01,-2.195437066726216635e+00
1.999999999999885247e+01,2.999999997967972121e+00,1.000000000002568434e+01,6.600000000002903544e-01,1.569999999999854179e+00,2.870000000000002274e+03,-2.174999999999837730e+00,-4.945000000000407958e+00,1.335720408805655168e+01,-2.187455763019377386e+00
1.999999999999932143e+01,2.999999997968715970e+00,1.000000000003023537e+01,6.600000000000971756e-01,1.569999999999943663e+00,2.870000000000002728e+03,-2.174999999999939870e+00,-4.945000000000156604e+00,1.328940733477497460e+01,-2.162639975739618858e+00
1.999999999999942446e+01,2.999999997762076820e+00,1.000000000002298250e+01,6.600000000000428857e-01,1.569999999999967422e+00,2.870000000000002728e+03,-2.174999999999965627e+00,-4.945000000000083773e+00,1.329733396686397739e+01,-2.176998187889697789e+00
1.999999999999949551e+01,2.999999999928684602e+00,9.999999999973399056e+00,6.599999999998878986e-01,1.570000000000200124e+00,2.870000000000002274e+03,-2.175000000000021583e+00,-4.944999999999495799e+00,1.352238945574184292e+01,-2.321665879590114390e+00
1.999999999999997513e+01,2.999999999509378235e+00,9.999999999980573762e+00,6.599999999997266942e-01,1.570000000000314033e+00,2.870000000000001364e+03,-2.175000000000075318e+00,-4.944999999999168061e+00,1.352337307795702337e+01,-2.307667789524338708e+00
1.999999999999892708e+01,2.999999998239979426e+00,9.999999999988085975e+00,6.600000000000386668e-01,1.570000000000159490e+00,2.870000000000002274e+03,-2.174999999999909672e+00,-4.944999999999630802e+00,1.352395461158899437e+01,-2.348286463098472776e+00
2.000000000000119371e+01,3.000000002159167067e+00,1.000000000002712142e+01,6.599999999997616662e-01,1.570000000000091767e+00,2.870000000000000455e+03,-2.175000000000179678e+00,-4.944999999999724061e+00,1.327609340422435835e+01,-2.265915922377408798e+00
2.000000000000105160e+01,3.000000001403935190e+00,1.000000000002879119e+01,6.599999999998341638e-01,1.570000000000086438e+00,2.870000000000000455e+03,-2.175000000000108180e+00,-4.944999999999735607e+00,1.325349215223715049e+01,-2.259156707130552277e+00
1.999999999999914024e+01,3.000000001408534178e+00,9.999999999998317790e+00,6.600000000002054223e-01,1.569999999999854845e+00,2.870000000000002274e+03,-2.174999999999932321e+00,-4.945000000000468354e+00,1.352099689080148792e+01,-2.347674016803794839e+00
1.999999999999936406e+01,2.999999997204991775e+00,1.000000000000332001e+01,6.600000000002225198e-01,1.569999999999807772e+00,2.870000000000001364e+03,-2.174999999999942091e+00,-4.945000000000601581e+00,1.328371628486422473e+01,-2.090482439247129509e+00
1.999999999999952394e+01,2.999999997561994203e+00,1.000000000001656630e+01,6.600000000001691181e-01,1.569999999999838192e+00,2.870000000000001364e+03,-2.174999999999974065e+00,-4.945000000000518980e+00,1.326943328937793432e+01,-2.093906845957790974e+00
1.999999999999963407e+01,2.999999996366627730e+00,1.000000000002522249e+01,6.600000000001229328e-01,1.569999999999862617e+00,2.870000000000002274e+03,-2.174999999999995826e+00,-4.945000000000454143e+00,1.327159573878143028e+01,-2.084410149018485647e+00
1.999999999999963407e+01,2.999999997296533216e+00,1.000000000002628298e+01,6.600000000001254863e-01,1.569999999999865725e+00,2.870000000000001819e+03,-2.174999999999993605e+00,-4.945000000000446150e+00,1.325368895165232352e+01,-2.110564081077441312e+00
1.999999999999962341e+01,2.999999998591535988e+00,9.999999999988924415e+00,6.599999999999329736e-01,1.570000000000113305e+00,2.870000000000001819e+03,-2.174999999999949640e+00,-4.944999999999706297e+00,1.349198731865656953e+01,-2.338546701678043238e+00
1.999999999999984723e+01,3.000000000922608212e+00,1.000000000003966782e+01,6.600000000000408873e-01,1.569999999999915019e+00,2.870000000000002274e+03,-2.175000000000032685e+00,-4.945000000000229434e+00,1.333312169499326671e+01,-2.261781700764726732e+00
1.999999999999978328e+01,3.000000000293344016e+00,1.000000000003967493e+01,6.600000000000690870e-01,1.569999999999903029e+00,2.870000000000002274e+03,-2.175000000000022915e+00,-4.945000000000271179e+00,1.333961408982628072e+01,-2.241028514653009562e+00
1.999999999999900169e+01,3.000000002382850361e+00,9.999999999976891374e+00,6.600000000000669775e-01,1.570000000000046914e+00,2.870000000000001819e+03,-2.174999999999911449e+00,-4.944999999999931006e+00,1.340889059503278702e+01,-2.168900158025957481e+00
1.999999999999931077e+01,3.000000002406391086e+00,9.999999999971205256e+00,6.599999999999305311e-01,1.570000000000117746e+00,2.870000000000002728e+03,-2.174999999999982059e+00,-4.944999999999739160e+00,1.339263325592400733e+01,-2.158009960217226020e+00
1.999999999999893063e+01,3.000000001999113763e+00,9.999999999969793052e+00,6.600000000001250422e-01,1.570000000000021600e+00,2.870000000000002274e+03,-2.174999999999913225e+00,-4.945000000000010054e+00,1.343418328342137791e+01,-2.179705830775902076e+00
1.999999999999915090e+01,3.000000004846649304e+00,9.999999999991791455e+00,6.600000000000689759e-01,1.570000000000025153e+00,2.869999999999999545e+03,-2.174999999999877254e+00,-4.944999999999946994e+00,1.354229446686365712e+01,-2.336334210220552876e+00
2.000000000000004619e+01,3.000000001170377573e+00,1.000000000000627587e+01,6.599999999999163203e-01,1.570000000000128848e+00,2.870000000000001364e+03,-2.175000000000017142e+00,-4.944999999999662776e+00,1.356041603078404911e+01,-2.303589755203289791e+00
1.999999999999929301e+01,2.999999997892541348e+00,9.999999999977319476e+00,6.599999999999399680e-01,1.570000000000032481e+00,2.870000000000001819e+03,-2.174999999999998046e+00,-4.944999999999933671e+00,1.352519182430459566e+01,-2.352918161843974509e+00
1.999999999999830536e+01,2.999999997653469919e+00,9.999999999957909225e+00,6.600000000004064837e-01,1.569999999999721840e+00,2.870000000000002274e+03,-2.174999999999871036e+00,-4.945000000000820073e+00,1.346515659544439814e+01,-2.336711160504644003e+00
2.000000000000072831e+01,3.000000000233058017e+00,9.999999999904572334e+00,6.599999999998863442e-01,1.570000000000026930e+00,2.869999999999999545e+03,-2.175000000000085087e+00,-4.944999999999891926e+00,1.323747716424250243e+01,-2.058215692626936821e+00
2.000000000000076028e+01,3.000000000015829560e+00,9.999999999902055237e+00,6.599999999998599209e-01,1.570000000000021600e+00,2.869999999999999545e+03,-2.175000000000105072e+00,-4.944999999999903473e+00,1.326526576817758496e+01,-2.068468940631663866e+00
2.000000000000103029e+01,2.999999999360285052e+00,9.999999999903749881e+00,6.599999999997588906e-01,1.570000000000149720e+00,2.869999999999999545e+03,-2.175000000000117062e+00,-4.944999999999539320e+00,1.324222684255311400e+01,-2.033298624763265394e+00
2.000000000000087397e+01,2.999999999565633235e+00,9.999999999893059766e+00,6.599999999998079625e-01,1.570000000000107088e+00,2.869999999999999091e+03,-2.175000000000092193e+00,-4.944999999999651230e+00,1.324874963772043479e+01,-2.025207034552755747e+00
2.000000000000056843e+01,2.999999999561068886e+00,9.999999999891029390e+00,6.599999999998981126e-01,1.570000000000025597e+00,2.870000000000000000e+03,-2.175000000000089528e+00,-4.944999999999909690e+00,1.328629340180781249e+01,-2.099776127313940144e+00
2.000000000000066080e+01,2.999999999231636405e+00,9.999999999894344072e+00,6.599999999998509281e-01,1.570000000000035145e+00,2.870000000000000000e+03,-2.175000000000110401e+00,-4.944999999999878604e+00,1.329624299045967817e+01,-2.105858586843160740e+00
2.000000000000062172e+01,2.999999999320425381e+00,9.999999999970432540e+00,6.599999999999333067e-01,1.570000000000047802e+00,2.870000000000002274e+03,-2.174999999999948308e+00,-4.944999999999796891e+00,1.353652307168974289e+01,-2.315626483062810603e+00
2.000000000000105871e+01,2.999999999968613995e+00,9.999999999958822272e+00,6.599999999997500089e-01,1.570000000000139728e+00,2.870000000000000909e+03,-2.175000000000037570e+00,-4.944999999999537543e+00,1.354051339403865839e+01,-2.343144645045375896e+00
2.000000000000040501e+01,2.999999996857120710e+00,1.000000000000730083e+01,6.599999999999838218e-01,1.570000000000017382e+00,2.870000000000000909e+03,-2.175000000000033573e+00,-4.944999999999956763e+00,1.336302300004694210e+01,-2.182426331343640058e+00
2.000000000000038014e+01,2.999999996685282611e+00,9.999999999997903899e+00,6.599999999999885958e-01,1.570000000000007612e+00,2.870000000000000909e+03,-2.175000000000051337e+00,-4.944999999999994067e+00,1.332966977096173977e+01,-2.179480592148483886e+00
2.000000000000052935e+01,2.999999995622613991e+00,9.999999999994013677e+00,6.599999999999235367e-01,1.570000000000067786e+00,2.870000000000000455e+03,-2.175000000000056666e+00,-4.944999999999817319e+00,1.334628357907984686e+01,-2.146210081659370328e+00
2.000000000000056133e+01,2.999999995637403050e+00,9.999999999990121680e+00,6.599999999999103251e-01,1.570000000000100204e+00,2.870000000000000000e+03,-2.175000000000031353e+00,-4.944999999999723173e+00,1.333144204372783470e+01,-2.173859138978288641e+00
2.000000000000115108e+01,2.999999996007031822e+00,1.000000000001314859e+01,6.599999999997065991e-01,1.570000000000169482e+00,2.870000000000000455e+03,-2.175000000000141487e+00,-4.944999999999514451e+00,1.336381065515654498e+01,-2.156559986701961584e+00
2.000000000000094502e+01,2.999999995446755552e+00,1.000000000001131895e+01,6.599999999997877564e-01,1.570000000000118856e+00,2.870000000000000455e+03,-2.175000000000115286e+00,-4.944999999999676099e+00,1.335761523062916467e+01,-2.147471632493845206e+00
2.000000000000131806e+01,2.999999996174656847e+00,9.999999999996456168e+00,6.599999999996319922e-01,1.570000000000241647e+00,2.870000000000000455e+03,-2.175000000000176570e+00,-4.944999999999314610e+00,1.336061838298583915e+01,-2.166414912403265447e+00
2.000000000000106937e+01,2.999999995496044125e+00,9.999999999995520028e+00,6.599999999997392397e-01,1.570000000000204343e+00,2.870000000000000000e+03,-2.175000000000089972e+00,-4.944999999999411422e+00,1.334612050922952875e+01,-2.157537281835293363e+00
2.000000000000046185e+01,2.999999998641250887e+00,9.999999999997287503e+00,6.599999999996515321e-01,1.570000000000291385e+00,2.869999999999999545e+03,-2.175000000000042011e+00,-4.944999999999176943e+00,1.332485999435589896e+01,-2.244823818060655896e+00
2.000000000000027356e+01,2.999999998656597278e+00,1.000000000000847855e+01,6.599999999997334665e-01,1.570000000000232765e+00,2.869999999999999545e+03,-2.175000000000008260e+00,-4.944999999999343032e+00,1.334881874209405161e+01,-2.245505254665854711e+00
1.999999999999960210e+01,2.999999998297333104e+00,1.000000000004806822e+01,6.599999999999323075e-01,1.570000000000120410e+00,2.870000000000001819e+03,-2.174999999999938538e+00,-4.944999999999700968e+00,1.329147681990472485e+01,-2.216490992755923539e+00
1.999999999999921130e+01,2.999999998482651975e+00,1.000000000003317702e+01,6.600000000000955103e-01,1.570000000000053797e+00,2.870000000000000909e+03,-2.174999999999839950e+00,-4.944999999999887486e+00,1.327324271903041186e+01,-2.205407192826787988e+00
2.000000000000140332e+01,2.999999998380722843e+00,1.000000000001200640e+01,6.599999999994977662e-01,1.570000000000333351e+00,2.870000000000000909e+03,-2.175000000000245848e+00,-4.944999999999061480e+00,1.326677163743619481e+01,-2.230376008609142424e+00
2.000000000000125411e+01,2.999999998192264705e+00,1.000000000001082157e+01,6.599999999995734834e-01,1.570000000000315143e+00,2.870000000000000455e+03,-2.175000000000206324e+00,-4.944999999999112106e+00,1.326774118111246104e+01,-2.226607604810478147e+00
1.999999999999945999e+01,2.999999997052684719e+00,9.999999999935459627e+00,6.600000000000513234e-01,1.570000000000044027e+00,2.870000000000001819e+03,-2.175000000000027356e+00,-4.944999999999903473e+00,1.331936804620115922e+01,-2.224730900021997915e+00
1.999999999999932854e+01,2.999999997522952544e+00,9.999999999936576955e+00,6.600000000000940670e-01,1.569999999999994289e+00,2.870000000000001819e+03,-2.175000000000012701e+00,-4.945000000000048246e+00,1.334069567329967576e+01,-2.210782833730601915e+00
1.999999999999964828e+01,2.999999996778000888e+00,9.999999999949256591e+00,6.599999999999047740e-01,1.570000000000159268e+00,2.870000000000002274e+03,-2.175000000000026468e+00,-4.944999999999588169e+00,1.332559499537335235e+01,-2.241472442736073489e+00
1.999999999999963052e+01,2.999999996449313144e+00,9.999999999935390349e+00,6.599999999999071054e-01,1.570000000000170148e+00,2.870000000000002274e+03,-2.175000000000010036e+00,-4.944999999999548201e+00,1.330152201228979436e+01,-2.220098622130202592e+00
2.000000000000001421e+01,3.000000001560301222e+00,1.000000000000916422e+01,6.599999999999338618e-01,1.570000000000089324e+00,2.870000000000002274e+03,-2.175000000000041567e+00,-4.944999999999757812e+00,1.337606494505771337e+01,-2.088717152295552548e+00
2.000000000000066791e+01,3.000000000604657657e+00,9.999999999936617812e+00,6.599999999997254729e-01,1.570000000000215667e+00,2.870000000000000455e+03,-2.175000000000090861e+00,-4.944999999999397211e+00,1.329281237703651719e+01,-2.318684315131469997e+00
2.000000000000006040e+01,3.000000000226860752e+00,9.999999999914871651e+00,6.599999999999744960e-01,1.570000000000065343e+00,2.870000000000000455e+03,-2.175000000000029576e+00,-4.944999999999828866e+00,1.331720224012137699e+01,-2.325607326039245137e+00
2.000000000000033751e+01,2.999999998644098387e+00,1.000000000003441158e+01,6.599999999999445199e-01,1.570000000000048912e+00,2.870000000000001364e+03,-2.175000000000022027e+00,-4.944999999999865281e+00,1.324293333709200127e+01,-2.306999721870154119e+00
2.000000000000031264e+01,2.999999999170709586e+00,1.000000000003912071e+01,6.599999999999500711e-01,1.570000000000024709e+00,2.870000000000001364e+03,-2.175000000000030020e+00,-4.944999999999918572e+00,1.325373194852671332e+01,-2.337223413962306484e+00
2.000000000000053291e+01,2.999999998974687720e+00,1.000000000003599609e+01,6.599999999998383826e-01,1.570000000000114859e+00,2.870000000000002274e+03,-2.175000000000076206e+00,-4.944999999999664553e+00,1.327255418334262593e+01,-2.346934681500477904e+00
1.999999999999885958e+01,2.999999996790495338e+00,9.999999999932269290e+00,6.600000000003124478e-01,1.569999999999860618e+00,2.870000000000000909e+03,-2.174999999999884359e+00,-4.945000000000453255e+00,1.336440364593616792e+01,-2.222367615793160667e+00
1.999999999999866063e+01,2.999999997315227152e+00,9.999999999922767557e+00,6.600000000003803935e-01,1.569999999999803775e+00,2.870000000000000455e+03,-2.174999999999861711e+00,-4.945000000000620233e+00,1.336700945951669794e+01,-2.218910716640239311e+00
1.999999999999969091e+01,2.999999996967238403e+00,9.999999999925808680e+00,6.599999999999455191e-01,1.570000000000139506e+00,2.870000000000000909e+03,-2.174999999999958078e+00,-4.944999999999645901e+00,1.333211903636379780e+01,-2.210443194098301589e+00
1.999999999999966604e+01,2.999999997612442737e+00,9.999999999918163240e+00,6.599999999999398570e-01,1.570000000000111084e+00,2.870000000000000909e+03,-2.174999999999980282e+00,-4.944999999999722284e+00,1.332935222384348606e+01,-2.204091993091292334e+00
2.000000000000117595e+01,2.999999998033282100e+00,9.999999999945639928e+00,6.599999999996670752e-01,1.570000000000205453e+00,2.869999999999999545e+03,-2.175000000000202771e+00,-4.944999999999406981e+00,1.339146016848438059e+01,-2.227852740652514374e+00
1.999999999999955236e+01,2.999999997788858064e+00,9.999999999933917749e+00,6.600000000000287859e-01,1.570000000000143281e+00,2.869999999999999091e+03,-2.174999999999904787e+00,-4.944999999999628137e+00,1.335919958418717535e+01,-2.235494099456961870e+00
1.999999999999959144e+01,2.999999997841934718e+00,9.999999999937172035e+00,6.600000000000016964e-01,1.570000000000121965e+00,2.869999999999999091e+03,-2.174999999999939870e+00,-4.944999999999685869e+00,1.338082865732726745e+01,-2.225333105746074125e+00
1.999999999999978684e+01,2.999999996839220362e+00,9.999999999938602002e+00,6.599999999999158762e-01,1.570000000000117080e+00,2.870000000000002274e+03,-2.174999999999987388e+00,-4.944999999999676099e+00,1.333410634496093650e+01,-2.293101015565517375e+00
1.999999999999988987e+01,3.000000000012042811e+00,1.000000000000238920e+01,6.600000000000797451e-01,1.569999999999892148e+00,2.870000000000001364e+03,-2.175000000000010925e+00,-4.945000000000342233e+00,1.340477826701870079e+01,-2.190289219221574601e+00
1.999999999999936051e+01,2.999999999628995884e+00,1.000000000000950173e+01,6.600000000003291012e-01,1.569999999999710738e+00,2.870000000000001819e+03,-2.174999999999937206e+00,-4.945000000000864482e+00,1.341972772074468523e+01,-2.176934217310848574e+00
2.000000000000046896e+01,2.999999999230435144e+00,9.999999999969432452e+00,6.600000000000298961e-01,1.569999999999860618e+00,2.870000000000001819e+03,-2.175000000000122391e+00,-4.945000000000394635e+00,1.337651241383880318e+01,-2.211747202997198070e+00
2.000000000000030909e+01,2.999999999420710051e+00,9.999999999979147347e+00,6.600000000001039480e-01,1.569999999999806883e+00,2.870000000000001364e+03,-2.175000000000102407e+00,-4.945000000000561613e+00,1.335614972569180203e+01,-2.175424535926652414e+00
2.000000000000041922e+01,3.000000000173983938e+00,9.999999999975162979e+00,6.600000000000308953e-01,1.569999999999829754e+00,2.870000000000001819e+03,-2.175000000000141043e+00,-4.945000000000495000e+00,1.341910350515166428e+01,-2.225994514326274487e+00
1.999999999999918288e+01,3.000000000966720481e+00,9.999999999960598629e+00,6.600000000000170175e-01,1.569999999999946549e+00,2.870000000000001364e+03,-2.174999999999938094e+00,-4.945000000000214335e+00,1.335982003392699191e+01,-2.203488027004833594e+00
1.999999999999888445e+01,3.000000001615166667e+00,9.999999999947593921e+00,6.600000000001414735e-01,1.569999999999911910e+00,2.870000000000000909e+03,-2.174999999999849276e+00,-4.945000000000317364e+00,1.338591620593617648e+01,-2.240353670678326470e+00
1.999999999999896971e+01,3.000000000982376847e+00,9.999999999953372409e+00,6.600000000001352563e-01,1.569999999999888818e+00,2.870000000000001364e+03,-2.174999999999903455e+00,-4.945000000000380425e+00,1.333499387732351948e+01,-2.219717341819200218e+00
1.999999999999888445e+01,3.000000000985906468e+00,9.999999999960699881e+00,6.600000000001630118e-01,1.569999999999834861e+00,2.870000000000000909e+03,-2.174999999999923439e+00,-4.945000000000540297e+00,1.333601726006449262e+01,-2.198641209166553256e+00
2.000000000000008527e+01,3.000000002890559347e+00,1.000000000007193535e+01,6.600000000000740830e-01,1.569999999999951878e+00,2.870000000000001819e+03,-2.174999999999981171e+00,-4.945000000000113971e+00,1.341783734605187028e+01,-2.226652056869604657e+00
1.999999999999943512e+01,2.999999998607597806e+00,9.999999999992807531e+00,6.600000000002004263e-01,1.569999999999801776e+00,2.870000000000000455e+03,-2.175000000000028244e+00,-4.945000000000597140e+00,1.336602765724367714e+01,-2.138678993873704748e+00
1.999999999999921130e+01,2.999999998490686881e+00,9.999999999994278355e+00,6.600000000003115597e-01,1.569999999999785567e+00,2.870000000000000000e+03,-2.174999999999945643e+00,-4.945000000000641549e+00,1.337153155070190635e+01,-2.168824944611104755e+00
1.999999999999902656e+01,2.999999998300602488e+00,1.000000000000540901e+01,6.600000000003785061e-01,1.569999999999708074e+00,2.870000000000000455e+03,-2.174999999999937206e+00,-4.945000000000867146e+00,1.336766201195159809e+01,-2.110009452611043557e+00
1.999999999999896616e+01,2.999999998145328473e+00,1.000000000000292388e+01,6.600000000003884981e-01,1.569999999999674767e+00,2.870000000000000455e+03,-2.174999999999950084e+00,-4.945000000000963958e+00,1.337015474775625634e+01,-2.126119256052122264e+00
1.999999999999901590e+01,2.999999998392628875e+00,1.000000000000617817e+01,6.600000000002153033e-01,1.569999999999840856e+00,2.870000000000002274e+03,-2.174999999999930100e+00,-4.945000000000492335e+00,1.336598433803553121e+01,-2.135869504296548538e+00
1.999999999999903721e+01,2.999999998611946772e+00,9.999999999996319389e+00,6.600000000002030909e-01,1.569999999999865281e+00,2.870000000000002274e+03,-2.174999999999926104e+00,-4.945000000000422169e+00,1.339639240654701879e+01,-2.167238222202994891e+00
1.999999999999894840e+01,2.999999998279909263e+00,9.999999999997989164e+00,6.600000000002351763e-01,1.569999999999857954e+00,2.870000000000002274e+03,-2.174999999999931433e+00,-4.945000000000450591e+00,1.335208186849285994e+01,-2.111328726869184269e+00
1.999999999999916511e+01,2.999999998649736099e+00,1.000000000000672884e+01,6.600000000001398082e-01,1.569999999999899920e+00,2.870000000000002728e+03,-2.174999999999967404e+00,-4.945000000000330687e+00,1.338073928593335005e+01,-2.131913690036380427e+00
1.999999999999834088e+01,2.999999998966455195e+00,9.999999999990210497e+00,6.600000000003680700e-01,1.569999999999787565e+00,2.870000000000002274e+03,-2.174999999999811973e+00,-4.945000000000636220e+00,1.337496968933369956e+01,-2.154839717815749456e+00
1.999999999999855049e+01,2.999999999102784809e+00,9.999999999994152233e+00,6.600000000002685940e-01,1.569999999999816209e+00,2.870000000000002728e+03,-2.174999999999863487e+00,-4.945000000000549178e+00,1.339019286007889598e+01,-2.153219118644656316e+00
1.999999999999844391e+01,2.999999998768283493e+00,9.999999999982406962e+00,6.600000000003246603e-01,1.569999999999806439e+00,2.870000000000001819e+03,-2.174999999999825295e+00,-4.945000000000582041e+00,1.336936738288077109e+01,-2.139371840891386878e+00
1.999999999999836930e+01,2.999999998770485288e+00,9.999999999983090859e+00,6.600000000003604095e-01,1.569999999999771134e+00,2.870000000000001819e+03,-2.174999999999848388e+00,-4.945000000000681517e+00,1.338891295658214808e+01,-2.140128786530421490e+00
1.999999999999783995e+01,2.999999999818883545e+00,9.999999999992374100e+00,6.600000000005283862e-01,1.569999999999677209e+00,2.870000000000002274e+03,-2.174999999999756461e+00,-4.945000000000960405e+00,1.338944763820690120e+01,-2.175720700658704043e+00
1.999999999999771561e+01,2.999999998791680778e+00,9.999999999992533972e+00,6.600000000005749046e-01,1.569999999999633244e+00,2.870000000000001819e+03,-2.174999999999756017e+00,-4.945000000001093632e+00,1.338172094709788951e+01,-2.148142175810650034e+00
1.999999999999806377e+01,2.999999999080111834e+00,9.999999999989007904e+00,6.600000000004119238e-01,1.569999999999728280e+00,2.870000000000002274e+03,-2.174999999999802647e+00,-4.945000000000820073e+00,1.336018962195296567e+01,-2.150227658532749775e+00
1.999999999999792522e+01,2.999999998837760362e+00,9.999999999984638066e+00,6.600000000004621059e-01,1.569999999999694307e+00,2.870000000000002274e+03,-2.174999999999779554e+00,-4.945000000000911555e+00,1.338575743979383503e+01,-2.153095799923751219e+00
2.000000000000035882e+01,3.000000001070796340e+00,1.000000000003106670e+01,6.599999999999712763e-01,1.570000000000013607e+00,2.870000000000001364e+03,-2.175000000000005596e+00,-4.944999999999975415e+00,1.342501028919219053e+01,-2.156622569852610027e+00
2.000000000000113687e+01,2.999999999201726553e+00,9.999999999949208629e+00,6.599999999997203659e-01,1.570000000000231211e+00,2.870000000000001364e+03,-2.175000000000071321e+00,-4.944999999999305729e+00,1.345158932951233233e+01,-2.213642915804980849e+00
2.000000000000083489e+01,2.999999999719471067e+00,9.999999999916934001e+00,6.599999999998581446e-01,1.570000000000154161e+00,2.870000000000000909e+03,-2.175000000000028244e+00,-4.944999999999537543e+00,1.344416157954817415e+01,-2.185436623643867815e+00
2.000000000000190781e+01,2.999999999456950395e+00,9.999999999922595251e+00,6.599999999995858069e-01,1.570000000000242979e+00,2.870000000000000455e+03,-2.175000000000235190e+00,-4.944999999999260432e+00,1.339726026453401886e+01,-2.187098046793968908e+00
2.000000000000201439e+01,2.999999999675889928e+00,9.999999999931299399e+00,6.599999999995450617e-01,1.570000000000260298e+00,2.870000000000000455e+03,-2.175000000000257394e+00,-4.944999999999216023e+00,1.336784085288604373e+01,-2.196647432159594349e+00
2.000000000000131806e+01,2.999999999219202351e+00,9.999999999940241580e+00,6.599999999998368283e-01,1.570000000000061569e+00,2.870000000000000455e+03,-2.175000000000195666e+00,-4.944999999999789786e+00,1.340260063930877443e+01,-2.174727736718542914e+00
2.000000000000145661e+01,2.999999999122492156e+00,9.999999999943478102e+00,6.599999999997888667e-01,1.570000000000124407e+00,2.870000000000000909e+03,-2.175000000000173017e+00,-4.944999999999603268e+00,1.340471444902086873e+01,-2.185545967131390377e+00
2.000000000000175504e+01,2.999999999519897376e+00,9.999999999929306327e+00,6.599999999996454259e-01,1.570000000000242757e+00,2.870000000000000000e+03,-2.175000000000192557e+00,-4.944999999999266649e+00,1.339552637323367179e+01,-2.172901247255615509e+00
2.000000000000186162e+01,2.999999999666783435e+00,9.999999999927011274e+00,6.599999999995733724e-01,1.570000000000244311e+00,2.870000000000000000e+03,-2.175000000000240075e+00,-4.944999999999266649e+00,1.342006634761121298e+01,-2.208966616135202621e+00
1.999999999999938893e+01,2.999999995987425283e+00,1.000000000002086509e+01,6.600000000000388889e-01,1.569999999999999840e+00,2.870000000000002728e+03,-2.174999999999968292e+00,-4.945000000000062457e+00,1.345312350098559051e+01,-2.201765817281553961e+00
2.000000000000095213e+01,3.000000000471028994e+00,9.999999999998287592e+00,6.599999999996470912e-01,1.570000000000395746e+00,2.869999999999999091e+03,-2.175000000000143263e+00,-4.944999999998907825e+00,1.330770307445842349e+01,-2.250047508713559630e+00
2.000000000000101963e+01,3.000000000001656009e+00,9.999999999988130384e+00,6.599999999996012390e-01,1.570000000000393081e+00,2.869999999999999091e+03,-2.175000000000196998e+00,-4.944999999998923812e+00,1.329696618295343491e+01,-2.253176834279183804e+00
2.000000000000033751e+01,3.000000001048273024e+00,1.000000000001777423e+01,6.599999999998451550e-01,1.570000000000199680e+00,2.870000000000000000e+03,-2.175000000000091305e+00,-4.944999999999455831e+00,1.330195887582750558e+01,-2.239695523690188317e+00
2.000000000000009237e+01,3.000000001500487734e+00,1.000000000002696687e+01,6.599999999999579536e-01,1.570000000000153495e+00,2.869999999999999091e+03,-2.175000000000018474e+00,-4.944999999999589946e+00,1.331623652258177515e+01,-2.252467855262850982e+00
1.999999999999976552e+01,3.000000000637544684e+00,1.000000000000045297e+01,6.599999999999887068e-01,1.570000000000102203e+00,2.870000000000000909e+03,-2.175000000000029132e+00,-4.944999999999745377e+00,1.333105711465852039e+01,-2.275566004149904842e+00
1.999999999999964828e+01,3.000000000833658920e+00,1.000000000000336620e+01,6.600000000000528777e-01,1.570000000000084439e+00,2.870000000000000455e+03,-2.175000000000003819e+00,-4.944999999999801332e+00,1.331591627208454121e+01,-2.281627677339006066e+00
2.000000000000065725e+01,3.000000000699845959e+00,9.999999999994056310e+00,6.599999999997289146e-01,1.570000000000234763e+00,2.870000000000001819e+03,-2.175000000000022915e+00,-4.944999999999296847e+00,1.341169112531639129e+01,-2.391262159041474433e+00
1.999999999999898748e+01,2.999999998661819767e+00,9.999999999966167508e+00,6.600000000001072786e-01,1.569999999999948326e+00,2.870000000000002728e+03,-2.174999999999899014e+00,-4.945000000000169038e+00,1.342153902990164127e+01,-2.373815295331446862e+00
1.999999999999860023e+01,2.999999998760614961e+00,9.999999999969874764e+00,6.600000000003196643e-01,1.569999999999884377e+00,2.870000000000000909e+03,-2.174999999999822187e+00,-4.945000000000399965e+00,1.339917795821879309e+01,-2.409255291780615593e+00
1.999999999999874234e+01,3.000000000035932146e+00,9.999999999999690914e+00,6.600000000001563505e-01,1.569999999999976970e+00,2.870000000000000909e+03,-2.174999999999899458e+00,-4.945000000000170814e+00,1.332657880755671087e+01,-2.286040982187755866e+00
1.999999999999903721e+01,2.999999999768958592e+00,9.999999999986945554e+00,6.599999999999528466e-01,1.570000000000151275e+00,2.870000000000001364e+03,-2.174999999999932321e+00,-4.944999999999692086e+00,1.329510872231067431e+01,-2.285602622691949470e+00
1.999999999999879208e+01,2.999999999487124924e+00,9.999999999993697486e+00,6.600000000000649791e-01,1.570000000000101537e+00,2.870000000000000909e+03,-2.174999999999874589e+00,-4.944999999999835083e+00,1.329706432488244872e+01,-2.313851015122483368e+00
1.999999999999979394e+01,2.999999999482165336e+00,1.000000000002685852e+01,6.599999999998639177e-01,1.570000000000091989e+00,2.870000000000002274e+03,-2.175000000000065103e+00,-4.944999999999804885e+00,1.332224597142750433e+01,-2.300383206979756068e+00
1.999999999999965183e+01,2.999999999454102895e+00,1.000000000001074518e+01,6.599999999999236477e-01,1.570000000000046692e+00,2.870000000000002274e+03,-2.175000000000083755e+00,-4.944999999999951434e+00,1.328418199843245517e+01,-2.250591400756116744e+00
1.999999999999947775e+01,2.999999999812589468e+00,1.000000000000445333e+01,6.599999999999983658e-01,1.570000000000022711e+00,2.870000000000002274e+03,-2.175000000000034017e+00,-4.945000000000015383e+00,1.328814647097803103e+01,-2.252192767436982823e+00
1.999999999999983302e+01,3.000000002532226429e+00,1.000000000000363443e+01,6.599999999999422995e-01,1.570000000000025375e+00,2.870000000000000000e+03,-2.175000000000017142e+00,-4.944999999999951434e+00,1.349770784283241909e+01,-2.358697981118377029e+00
2.000000000000058975e+01,3.000000001110854964e+00,1.000000000003679546e+01,6.599999999998878986e-01,1.570000000000161711e+00,2.870000000000000455e+03,-2.175000000000006928e+00,-4.944999999999525109e+00,1.330920892275651468e+01,-2.199948613889246563e+00
2.000000000000074252e+01,3.000000001087963941e+00,1.000000000003639578e+01,6.599999999998132916e-01,1.570000000000173701e+00,2.870000000000000909e+03,-2.175000000000064659e+00,-4.944999999999493134e+00,1.327933224861772743e+01,-2.199255965014145886e+00
