1.999999999999981881e+01,2.999999998847781679e+00,9.999999999917932314e+00,6.599999999996439826e-01,1.570000000000302043e+00,2.870000000000002274e+03,-2.175000000000043787e+00,-4.944999999999068585e+00,1.340595754810676787e+01,-2.136790567431986698e+00
2.000000000000045119e+01,3.000000001041883912e+00,1.000000000000286171e+01,6.599999999993740873e-01,1.570000000000360885e+00,2.870000000000002274e+03,-2.175000000000227640e+00,-4.944999999998964668e+00,1.338392435547050496e+01,-2.168190669829651362e+00
2.000000000000035882e+01,2.999999999133360795e+00,9.999999999981618259e+00,6.599999999994502486e-01,1.570000000000485230e+00,2.870000000000002274e+03,-2.174999999999957634e+00,-4.944999999998707985e+00,1.340640711615272451e+01,-2.164738042747609281e+00
1.999999999999979039e+01,2.999999998809728119e+00,9.999999999999680256e+00,6.599999999997289146e-01,1.570000000000104645e+00,2.870000000000002274e+03,-2.175000000000064215e+00,-4.944999999999716067e+00,1.338955121246117663e+01,-2.162217255134670779e+00
1.999999999999947775e+01,2.999999999972151166e+00,9.999999999978617993e+00,6.599999999993741984e-01,1.570000000000321139e+00,2.870000000000002274e+03,-2.175000000000169020e+00,-4.944999999999016183e+00,1.342452939323063177e+01,-2.192519052011539848e+00
2.000000000000064304e+01,2.999999998977104898e+00,9.999999999991098676e+00,6.599999999994767830e-01,1.570000000000313589e+00,2.870000000000002274e+03,-2.175000000000171241e+00,-4.944999999999128981e+00,1.339540267203707558e+01,-2.169832494209080753e+00
1.999999999999813127e+01,2.999999996499220334e+00,9.999999999990889066e+00,6.600000000001523537e-01,1.569999999999833751e+00,2.870000000000002274e+03,-2.175000000000050893e+00,-4.945000000000387530e+00,1.340393644778107962e+01,-2.163848760787321801e+00
2.000000000000012079e+01,2.999999997850585132e+00,1.000000000000335021e+01,6.599999999998427125e-01,1.570000000000077778e+00,2.870000000000002274e+03,-2.175000000000122391e+00,-4.944999999999753371e+00,1.339155966417936483e+01,-2.165467636331427581e+00
1.999999999999913314e+01,2.999999996620136500e+00,9.999999999967712938e+00,6.599999999998865663e-01,1.569999999999990514e+00,2.870000000000002274e+03,-2.175000000000093969e+00,-4.944999999999942553e+00,1.341397041093226861e+01,-2.140582515590020662e+00
1.999999999999857181e+01,2.999999996561160120e+00,9.999999999991626254e+00,6.600000000002586020e-01,1.569999999999869056e+00,2.870000000000002274e+03,-2.174999999999950973e+00,-4.945000000000359108e+00,1.340920650910891609e+01,-2.153095856030439847e+00
1.999999999999960210e+01,2.999999997689240860e+00,1.000000000004806822e+01,6.600000000003095613e-01,1.569999999999692086e+00,2.870000000000002274e+03,-2.174999999999941203e+00,-4.945000000000957741e+00,1.337819669031230596e+01,-2.212457330026623481e+00
1.999999999999949196e+01,2.999999999772306136e+00,9.999999999972516207e+00,6.600000000001158273e-01,1.569999999999900142e+00,2.870000000000002274e+03,-2.175000000000000266e+00,-4.945000000000305818e+00,1.341623897624067929e+01,-2.169759734365605652e+00
1.999999999999808864e+01,2.999999998011502633e+00,1.000000000003237943e+01,6.600000000004413447e-01,1.569999999999722506e+00,2.870000000000002274e+03,-2.174999999999780442e+00,-4.945000000000804974e+00,1.341194780908080197e+01,-2.130841654029183019e+00
1.999999999999946354e+01,2.999999998858899897e+00,1.000000000001132605e+01,6.599999999999155431e-01,1.570000000000174367e+00,2.870000000000002274e+03,-2.174999999999970957e+00,-4.944999999999624585e+00,1.343840333765355766e+01,-2.200741873016292871e+00
1.999999999999905498e+01,3.000000000116664012e+00,1.000000000004025935e+01,6.600000000000634248e-01,1.569999999999993623e+00,2.870000000000002274e+03,-2.174999999999961631e+00,-4.945000000000153051e+00,1.341882606074164919e+01,-2.179478759745812511e+00
1.999999999999888090e+01,3.000000000214028351e+00,1.000000000006982326e+01,6.600000000002169687e-01,1.569999999999885265e+00,2.870000000000002274e+03,-2.174999999999913669e+00,-4.945000000000461249e+00,1.342530015246476083e+01,-2.166331976170464024e+00
1.999999999999883471e+01,2.999999997501577198e+00,1.000000000003331913e+01,6.600000000003801714e-01,1.569999999999754481e+00,2.870000000000002274e+03,-2.174999999999879030e+00,-4.945000000000900009e+00,1.339436964050661238e+01,-2.130969361398826312e+00
2.000000000000015987e+01,2.999999999828159680e+00,9.999999999968817832e+00,6.600000000000143530e-01,1.570000000000020268e+00,2.870000000000002274e+03,-2.174999999999967848e+00,-4.945000000000189466e+00,1.340455214967612996e+01,-2.178835782839627200e+00
1.999999999999833022e+01,2.999999999865099909e+00,1.000000000001748823e+01,6.599999999999126565e-01,1.570000000000097984e+00,2.870000000000002274e+03,-2.174999999999894129e+00,-4.944999999999799556e+00,1.339971111456871355e+01,-2.181945276719404969e+00
1.999999999999948130e+01,3.000000000698924918e+00,1.000000000001645439e+01,6.599999999999639488e-01,1.570000000000004725e+00,2.870000000000002274e+03,-2.174999999999917666e+00,-4.945000000000118412e+00,1.342384807048019191e+01,-2.182221984809422199e+00
1.999999999999972289e+01,2.999999998971623505e+00,9.999999999991366906e+00,6.600000000000121325e-01,1.569999999999993845e+00,2.870000000000002274e+03,-2.174999999999952305e+00,-4.945000000000034035e+00,1.342446263967887710e+01,-2.163766271942787700e+00
1.999999999999953459e+01,2.999999998210728158e+00,9.999999999957935870e+00,6.599999999999405231e-01,1.569999999999910578e+00,2.870000000000002274e+03,-2.175000000000062439e+00,-4.945000000000207230e+00,1.341308962745946687e+01,-2.178083109184872246e+00
2.000000000000015632e+01,3.000000000379671405e+00,1.000000000001056222e+01,6.600000000000135758e-01,1.569999999999930340e+00,2.870000000000002274e+03,-2.175000000000029132e+00,-4.945000000000273843e+00,1.338859067516804835e+01,-2.172676040378143547e+00
1.999999999999900524e+01,3.000000000610202555e+00,9.999999999992743582e+00,6.600000000000916245e-01,1.569999999999838414e+00,2.870000000000002274e+03,-2.175000000000077094e+00,-4.945000000000463913e+00,1.339471535591856544e+01,-2.181526690181512240e+00
1.999999999999948841e+01,2.999999997644816396e+00,1.000000000001725553e+01,6.600000000001844391e-01,1.569999999999929452e+00,2.870000000000002274e+03,-2.174999999999849276e+00,-4.945000000000241869e+00,1.341311044428879384e+01,-2.137009201366802724e+00
1.999999999999917222e+01,2.999999998889872010e+00,9.999999999991485922e+00,6.600000000001111644e-01,1.569999999999940332e+00,2.870000000000002274e+03,-2.174999999999934097e+00,-4.945000000000256968e+00,1.338565929423134548e+01,-2.148730410191983076e+00
1.999999999999884892e+01,2.999999998732515660e+00,1.000000000003547207e+01,6.600000000003902745e-01,1.569999999999786011e+00,2.870000000000002274e+03,-2.174999999999718714e+00,-4.945000000000800533e+00,1.341146629939389712e+01,-2.176570633274807154e+00
1.999999999999932143e+01,2.999999998038787474e+00,1.000000000002275868e+01,6.600000000004343503e-01,1.569999999999821094e+00,2.870000000000002274e+03,-2.174999999999672529e+00,-4.945000000000629115e+00,1.340523581195735758e+01,-2.143956817602008957e+00
1.999999999999871392e+01,2.999999997906266369e+00,1.000000000005914558e+01,6.600000000002920197e-01,1.570000000000020046e+00,2.870000000000002274e+03,-2.174999999999617462e+00,-4.945000000000074891e+00,1.342262680858534019e+01,-2.175518532924847204e+00
1.999999999999947065e+01,2.999999997629270609e+00,1.000000000001235989e+01,6.599999999998789058e-01,1.570000000000202345e+00,2.870000000000002274e+03,-2.175000000000015810e+00,-4.944999999999352802e+00,1.337576000198242276e+01,-2.169203588493077817e+00
1.999999999999871747e+01,2.999999998868434936e+00,1.000000000002923528e+01,6.600000000003222178e-01,1.569999999999984519e+00,2.870000000000002274e+03,-2.174999999999652545e+00,-4.945000000000256968e+00,1.339687032140918888e+01,-2.201647238684248276e+00
1.999999999999907985e+01,3.000000000772719222e+00,1.000000000005463008e+01,6.600000000000332268e-01,1.570000000000117746e+00,2.870000000000002274e+03,-2.174999999999917666e+00,-4.944999999999723173e+00,1.337976892979456345e+01,-2.189615066614109651e+00
1.999999999999912603e+01,2.999999999715332155e+00,1.000000000006478906e+01,6.599999999999300870e-01,1.570000000000146168e+00,2.870000000000002274e+03,-2.175000000000137046e+00,-4.944999999999426521e+00,1.340161804773781107e+01,-2.207863764083703106e+00
2.000000000000018474e+01,2.999999998885817920e+00,1.000000000006630607e+01,6.600000000000684208e-01,1.569999999999918794e+00,2.870000000000002274e+03,-2.175000000000148592e+00,-4.945000000000034035e+00,1.337846086171190407e+01,-2.194281291282916602e+00
2.000000000000024514e+01,2.999999999063577949e+00,1.000000000009503331e+01,6.600000000001596812e-01,1.569999999999844631e+00,2.870000000000002274e+03,-2.175000000000136602e+00,-4.945000000000294271e+00,1.339204592285692108e+01,-2.189200469199300336e+00
1.999999999999941735e+01,2.999999998731514239e+00,1.000000000004632206e+01,6.600000000001700062e-01,1.569999999999878826e+00,2.870000000000002274e+03,-2.174999999999932765e+00,-4.945000000000347562e+00,1.342623231063561740e+01,-2.172323547820072420e+00
1.999999999999961275e+01,2.999999998369160981e+00,1.000000000006077094e+01,6.600000000002064215e-01,1.569999999999815099e+00,2.870000000000002274e+03,-2.174999999999834621e+00,-4.945000000000420393e+00,1.341614439218304611e+01,-2.168619242940279523e+00
2.000000000000011724e+01,2.999999997734650314e+00,1.000000000002633449e+01,6.600000000003518608e-01,1.569999999999820206e+00,2.870000000000002274e+03,-2.174999999999848388e+00,-4.945000000000589147e+00,1.341801766097387549e+01,-2.200912897341164687e+00
2.000000000000037659e+01,2.999999998627817632e+00,1.000000000003318590e+01,6.600000000002190781e-01,1.569999999999861062e+00,2.870000000000002274e+03,-2.174999999999922995e+00,-4.945000000000411511e+00,1.341435662448236066e+01,-2.205633807049430573e+00
1.999999999999958789e+01,2.999999998194981643e+00,9.999999999970135889e+00,6.599999999998455991e-01,1.570000000000061791e+00,2.870000000000002274e+03,-2.174999999999930544e+00,-4.944999999999812879e+00,1.339898917610799778e+01,-2.198980320636946928e+00
2.000000000000089173e+01,2.999999997688380660e+00,9.999999999981502796e+00,6.599999999999937028e-01,1.570000000000073337e+00,2.870000000000002274e+03,-2.174999999999907008e+00,-4.944999999999948770e+00,1.340852771759337614e+01,-2.168094320131578545e+00
1.999999999999965894e+01,2.999999997024159537e+00,9.999999999987837285e+00,6.600000000001636780e-01,1.569999999999887486e+00,2.870000000000002274e+03,-2.174999999999831513e+00,-4.945000000000238316e+00,1.341267600594086673e+01,-2.180358490727113185e+00
1.999999999999893419e+01,2.999999997369802607e+00,1.000000000004707168e+01,6.600000000003387601e-01,1.569999999999928564e+00,2.870000000000002274e+03,-2.174999999999742251e+00,-4.945000000000182361e+00,1.340664018223797171e+01,-2.194247792836191646e+00
1.999999999999878142e+01,2.999999996638949007e+00,9.999999999978182785e+00,6.600000000004294654e-01,1.569999999999698082e+00,2.870000000000002274e+03,-2.174999999999944311e+00,-4.945000000000749019e+00,1.341813412803855421e+01,-2.135657219474629720e+00
2.000000000000090239e+01,2.999999998802602263e+00,1.000000000001862510e+01,6.599999999999456302e-01,1.569999999999972529e+00,2.870000000000002274e+03,-2.175000000000225864e+00,-4.944999999999945217e+00,1.340810661580445995e+01,-2.201043942411297749e+00
1.999999999999898748e+01,2.999999998663755552e+00,1.000000000004336620e+01,6.600000000000331157e-01,1.570000000000019602e+00,2.870000000000002274e+03,-2.174999999999922551e+00,-4.944999999999787121e+00,1.344160602256045678e+01,-2.187721404214287180e+00
1.999999999999951683e+01,3.000000000372278652e+00,1.000000000007264234e+01,6.600000000000108002e-01,1.570000000000079776e+00,2.870000000000002274e+03,-2.174999999999947864e+00,-4.944999999999740936e+00,1.340183690794583882e+01,-2.208844789324047042e+00
2.000000000000039080e+01,2.999999999754367597e+00,1.000000000002358647e+01,6.599999999997285816e-01,1.570000000000194795e+00,2.870000000000002274e+03,-2.175000000000207212e+00,-4.944999999999455831e+00,1.341418359277813188e+01,-2.167721501029351128e+00
1.999999999999874944e+01,2.999999998659413691e+00,1.000000000006479084e+01,6.600000000001776668e-01,1.569999999999870610e+00,2.870000000000002274e+03,-2.174999999999899014e+00,-4.945000000000329798e+00,1.341471429359063805e+01,-2.187729457916782305e+00
1.999999999999947420e+01,2.999999999148439844e+00,1.000000000004478196e+01,6.599999999999850431e-01,1.570000000000013385e+00,2.870000000000002274e+03,-2.175000000000030465e+00,-4.944999999999913243e+00,1.343127366334160655e+01,-2.174878985546286447e+00
1.999999999999954170e+01,2.999999997692376574e+00,9.999999999988391508e+00,6.600000000000877387e-01,1.570000000000035145e+00,2.870000000000002274e+03,-2.174999999999901235e+00,-4.944999999999962093e+00,1.341343497083391689e+01,-2.154960597584369530e+00
2.000000000000042988e+01,3.000000001232059343e+00,1.000000000000872191e+01,6.599999999997171463e-01,1.570000000000145723e+00,2.870000000000002274e+03,-2.175000000000128608e+00,-4.944999999999524221e+00,1.343450415563080291e+01,-2.172424160004478466e+00
1.999999999999881339e+01,2.999999998404276003e+00,1.000000000001574918e+01,6.599999999999662803e-01,1.569999999999928120e+00,2.870000000000002274e+03,-2.175000000000077094e+00,-4.945000000000072227e+00,1.341168384967414262e+01,-2.169993433689877183e+00
1.999999999999952394e+01,2.999999998178390914e+00,1.000000000003142731e+01,6.600000000000485478e-01,1.570000000000008500e+00,2.870000000000002274e+03,-2.174999999999921663e+00,-4.944999999999951434e+00,1.343866576867726437e+01,-2.150727089823329941e+00
1.999999999999909406e+01,2.999999996929136437e+00,9.999999999929034544e+00,6.599999999999799360e-01,1.569999999999896367e+00,2.870000000000002274e+03,-2.175000000000119726e+00,-4.945000000000252527e+00,1.337775313718000803e+01,-2.168235892925007846e+00
1.999999999999913314e+01,2.999999998344069940e+00,9.999999999996646238e+00,6.599999999999899281e-01,1.570000000000115525e+00,2.870000000000002274e+03,-2.174999999999861267e+00,-4.944999999999597051e+00,1.340491271690016184e+01,-2.141534544064982892e+00
1.999999999999978684e+01,2.999999998355729502e+00,9.999999999918196991e+00,6.600000000000875167e-01,1.569999999999961871e+00,2.870000000000002274e+03,-2.174999999999954969e+00,-4.945000000000121965e+00,1.339507028088867635e+01,-2.189619082786708582e+00
1.999999999999781508e+01,2.999999998881605290e+00,9.999999999979944931e+00,6.600000000004406786e-01,1.569999999999778240e+00,2.870000000000002274e+03,-2.174999999999650324e+00,-4.945000000000566054e+00,1.340501576022453456e+01,-2.171804999427800809e+00
1.999999999999922551e+01,2.999999999056131905e+00,9.999999999964535036e+00,6.600000000001902123e-01,1.569999999999846629e+00,2.870000000000002274e+03,-2.174999999999917666e+00,-4.945000000000582041e+00,1.339359247775893458e+01,-2.171945741877371550e+00
1.999999999999918643e+01,2.999999998531253542e+00,9.999999999992578381e+00,6.600000000000815215e-01,1.569999999999859952e+00,2.870000000000002274e+03,-2.175000000000084643e+00,-4.945000000000451479e+00,1.340085185251490607e+01,-2.192870988805788457e+00
1.999999999999975842e+01,3.000000000555414825e+00,9.999999999995575095e+00,6.599999999999981437e-01,1.569999999999806217e+00,2.870000000000002274e+03,-2.175000000000181899e+00,-4.945000000000482565e+00,1.339995487569143329e+01,-2.159580802204115635e+00
1.999999999999870681e+01,2.999999996481064191e+00,9.999999999931075578e+00,6.600000000003969358e-01,1.569999999999466933e+00,2.870000000000002274e+03,-2.175000000000133937e+00,-4.945000000001560814e+00,1.339402969986173986e+01,-2.171045477557797199e+00
1.999999999999812061e+01,2.999999998392270051e+00,1.000000000003064926e+01,6.600000000005749046e-01,1.569999999999560414e+00,2.870000000000002274e+03,-2.174999999999834177e+00,-4.945000000001397389e+00,1.340734348396547837e+01,-2.187250707094723801e+00
2.000000000000036948e+01,2.999999998265342249e+00,9.999999999971423748e+00,6.599999999998538147e-01,1.570000000000004503e+00,2.870000000000002274e+03,-2.175000000000201883e+00,-4.945000000000079332e+00,1.341565339255584277e+01,-2.172835992537775596e+00
1.999999999999922551e+01,2.999999995803340092e+00,9.999999999969249487e+00,6.600000000000683098e-01,1.569999999999896811e+00,2.870000000000002274e+03,-2.175000000000102407e+00,-4.945000000000331575e+00,1.340912630532184657e+01,-2.164574253432674400e+00
2.000000000000013145e+01,2.999999997592608825e+00,1.000000000004692424e+01,6.599999999997770983e-01,1.570000000000152829e+00,2.870000000000002274e+03,-2.174999999999997602e+00,-4.944999999999539320e+00,1.337473203245435549e+01,-2.158914530313817970e+00
1.999999999999954525e+01,2.999999997105141425e+00,1.000000000004895995e+01,6.600000000000841860e-01,1.569999999999867057e+00,2.870000000000002274e+03,-2.174999999999999378e+00,-4.945000000000270290e+00,1.337842080055115979e+01,-2.178313250761152897e+00
1.999999999999920419e+01,2.999999998241510202e+00,9.999999999998188116e+00,6.599999999999859313e-01,1.570000000000122187e+00,2.870000000000002274e+03,-2.174999999999875477e+00,-4.944999999999792450e+00,1.342790406596360953e+01,-2.188822583191705196e+00
1.999999999999896616e+01,3.000000000321746629e+00,1.000000000002483347e+01,6.599999999999280886e-01,1.570000000000204343e+00,2.870000000000002274e+03,-2.174999999999748468e+00,-4.944999999999468265e+00,1.340817535627525459e+01,-2.184048712972908479e+00
1.999999999999779376e+01,2.999999999429909359e+00,1.000000000006001244e+01,6.600000000000557643e-01,1.569999999999948992e+00,2.870000000000002274e+03,-2.174999999999950973e+00,-4.944999999999992291e+00,1.340315958530072926e+01,-2.181970862552520707e+00
1.999999999999956302e+01,3.000000000898994212e+00,1.000000000005013767e+01,6.600000000000391109e-01,1.569999999999888818e+00,2.870000000000002274e+03,-2.174999999999944755e+00,-4.945000000000318252e+00,1.342376845703508614e+01,-2.190422569960438715e+00
2.000000000000057909e+01,2.999999999340936085e+00,1.000000000003203127e+01,6.599999999999393019e-01,1.570000000000108864e+00,2.870000000000002274e+03,-2.174999999999972733e+00,-4.944999999999787121e+00,1.340300214570889992e+01,-2.178756291239603460e+00
1.999999999999980815e+01,2.999999998952334046e+00,1.000000000001447731e+01,6.600000000000707523e-01,1.570000000000130846e+00,2.870000000000002274e+03,-2.174999999999873257e+00,-4.944999999999810214e+00,1.341374866285618950e+01,-2.182622920546444689e+00
2.000000000000008882e+01,2.999999998665149992e+00,1.000000000000401279e+01,6.599999999999406342e-01,1.570000000000082885e+00,2.870000000000002274e+03,-2.174999999999947864e+00,-4.944999999999885709e+00,1.343699290972595151e+01,-2.165293999513808298e+00
1.999999999999938183e+01,2.999999998795133571e+00,1.000000000003402789e+01,6.600000000000195710e-01,1.569999999999988738e+00,2.870000000000002274e+03,-2.174999999999722267e+00,-4.945000000000058904e+00,1.341321030705999284e+01,-2.197910685736628622e+00
1.999999999999853273e+01,2.999999999254320926e+00,1.000000000005858070e+01,6.600000000001157163e-01,1.570000000000061346e+00,2.870000000000002274e+03,-2.174999999999670752e+00,-4.944999999999817319e+00,1.340746948108292003e+01,-2.188581492335130552e+00
1.999999999999788969e+01,2.999999997907663474e+00,1.000000000002809841e+01,6.600000000005404877e-01,1.569999999999618812e+00,2.870000000000002274e+03,-2.174999999999662315e+00,-4.945000000001108731e+00,1.339057214696187437e+01,-2.171067683706840334e+00
1.999999999999890221e+01,2.999999999366102177e+00,1.000000000001693934e+01,6.600000000000245670e-01,1.570000000000035367e+00,2.870000000000002274e+03,-2.174999999999763567e+00,-4.944999999999978968e+00,1.341351153559026876e+01,-2.203037555537955772e+00
1.999999999999871747e+01,2.999999997186337364e+00,9.999999999976065368e+00,6.600000000002950173e-01,1.569999999999830198e+00,2.870000000000002274e+03,-2.174999999999704947e+00,-4.945000000000463025e+00,1.340040279959677605e+01,-2.169506758472576013e+00
1.999999999999788614e+01,2.999999998515283650e+00,1.000000000007028156e+01,6.600000000002221867e-01,1.569999999999951212e+00,2.870000000000002274e+03,-2.174999999999652545e+00,-4.945000000000089102e+00,1.339816764959440221e+01,-2.187840860761093520e+00
2.000000000000057909e+01,3.000000001888898371e+00,1.000000000006604317e+01,6.600000000000577627e-01,1.569999999999983853e+00,2.870000000000002274e+03,-2.174999999999863931e+00,-4.945000000000101537e+00,1.338964772528800573e+01,-2.216426712495908280e+00
2.000000000000002487e+01,2.999999997859118306e+00,9.999999999944051865e+00,6.599999999999714984e-01,1.569999999999936113e+00,2.870000000000002274e+03,-2.175000000000086864e+00,-4.945000000000209894e+00,1.338014285280044113e+01,-2.170493763924055131e+00
2.000000000000139266e+01,3.000000001263957383e+00,9.999999999962664532e+00,6.599999999996879474e-01,1.570000000000213447e+00,2.870000000000002274e+03,-2.175000000000144595e+00,-4.944999999999428297e+00,1.338440494909369782e+01,-2.163524440713286090e+00
1.999999999999921485e+01,2.999999996888758957e+00,9.999999999961934449e+00,6.600000000002511635e-01,1.569999999999860396e+00,2.870000000000002274e+03,-2.174999999999943867e+00,-4.945000000000400853e+00,1.341096567975364096e+01,-2.171430082881813384e+00
2.000000000000189715e+01,3.000000000715971726e+00,9.999999999988920862e+00,6.599999999990781019e-01,1.570000000000615792e+00,2.870000000000002274e+03,-2.175000000000272049e+00,-4.944999999998343831e+00,1.341745443660071224e+01,-2.189717465396668228e+00
2.000000000000129319e+01,3.000000000746987805e+00,1.000000000003493916e+01,6.599999999994770050e-01,1.570000000000264739e+00,2.870000000000002274e+03,-2.175000000000158806e+00,-4.944999999999347473e+00,1.341850266075693554e+01,-2.192860431623662176e+00
1.999999999999938893e+01,2.999999999661873140e+00,9.999999999975647924e+00,6.600000000000092459e-01,1.569999999999932117e+00,2.870000000000002274e+03,-2.175000000000037570e+00,-4.945000000000107754e+00,1.337387190149746097e+01,-2.200880838955355134e+00
1.999999999999891642e+01,2.999999998833247083e+00,1.000000000000005684e+01,6.600000000000054712e-01,1.569999999999850182e+00,2.870000000000002274e+03,-2.175000000000039346e+00,-4.945000000000368878e+00,1.341836415797315141e+01,-2.131073772747805073e+00
1.999999999999971223e+01,2.999999999898494085e+00,1.000000000008195222e+01,6.600000000001856604e-01,1.570000000000002505e+00,2.870000000000002274e+03,-2.174999999999664979e+00,-4.944999999999913243e+00,1.340407498581881818e+01,-2.200431445252311935e+00
2.000000000000113332e+01,3.000000000555282931e+00,9.999999999982279064e+00,6.599999999995527222e-01,1.570000000000194795e+00,2.870000000000002274e+03,-2.175000000000129941e+00,-4.944999999999371454e+00,1.337611360697613527e+01,-2.171920115580070476e+00
2.000000000000043698e+01,2.999999999998447908e+00,1.000000000003884004e+01,6.600000000000398881e-01,1.569999999999980744e+00,2.870000000000002274e+03,-2.174999999999963851e+00,-4.944999999999920348e+00,1.337675194730844730e+01,-2.168842920839169519e+00
2.000000000000048672e+01,3.000000000691345647e+00,1.000000000009235279e+01,6.600000000001049472e-01,1.569999999999941886e+00,2.870000000000002274e+03,-2.174999999999929212e+00,-4.944999999999946105e+00,1.337337092824432006e+01,-2.178763795034413420e+00
2.000000000000103739e+01,3.000000000785499221e+00,1.000000000004293632e+01,6.599999999998805711e-01,1.570000000000083107e+00,2.870000000000002274e+03,-2.175000000000044231e+00,-4.944999999999767581e+00,1.338411863487467457e+01,-2.215483373057757444e+00
1.999999999999894129e+01,2.999999999338557100e+00,1.000000000005397105e+01,6.600000000002729239e-01,1.569999999999727835e+00,2.870000000000002274e+03,-2.174999999999854605e+00,-4.945000000000685958e+00,1.337627785066290542e+01,-2.184137070894268451e+00
1.999999999999981881e+01,2.999999997900886228e+00,9.999999999974237497e+00,6.600000000000860734e-01,1.569999999999747820e+00,2.870000000000002274e+03,-2.175000000000093525e+00,-4.945000000000532303e+00,1.340483161794351297e+01,-2.125296030793898172e+00
1.999999999999867484e+01,2.999999998548003255e+00,9.999999999994683364e+00,6.600000000004153655e-01,1.569999999999656337e+00,2.870000000000002274e+03,-2.174999999999847500e+00,-4.945000000000812079e+00,1.339830302968395515e+01,-2.133007490863702227e+00
2.000000000000013145e+01,2.999999997577570188e+00,9.999999999968213871e+00,6.600000000000846301e-01,1.569999999999915685e+00,2.870000000000002274e+03,-2.174999999999831513e+00,-4.945000000000213447e+00,1.341175396928156260e+01,-2.114370370575712865e+00
2.000000000000012434e+01,2.999999997321358247e+00,9.999999999985098142e+00,6.600000000000031397e-01,1.569999999999799778e+00,2.870000000000002274e+03,-2.175000000000061995e+00,-4.945000000000503881e+00,1.338414011140302051e+01,-2.147071519410646889e+00
2.000000000000110845e+01,2.999999999710234455e+00,1.000000000002865619e+01,6.600000000001199352e-01,1.569999999999869056e+00,2.870000000000002274e+03,-2.174999999999862155e+00,-4.945000000000341345e+00,1.339154615107603874e+01,-2.158269169445216296e+00
2.000000000000114042e+01,2.999999998002267798e+00,9.999999999996791900e+00,6.599999999996833955e-01,1.570000000000334905e+00,2.870000000000002274e+03,-2.174999999999841727e+00,-4.944999999999019735e+00,1.344229515595132796e+01,-2.171417284739787235e+00
2.000000000000039080e+01,2.999999998959539838e+00,1.000000000002302691e+01,6.599999999999491829e-01,1.570000000000121965e+00,2.870000000000002274e+03,-2.174999999999877254e+00,-4.944999999999630802e+00,1.343273628012701160e+01,-2.169343550757454775e+00
2.000000000000130029e+01,2.999999998438838578e+00,9.999999999970137665e+00,6.599999999998670264e-01,1.570000000000154161e+00,2.870000000000002274e+03,-2.174999999999841727e+00,-4.944999999999489582e+00,1.342426806651487681e+01,-2.134082833022789671e+00
2.000000000000017408e+01,2.999999997530323093e+00,9.999999999950709650e+00,6.599999999996739586e-01,1.570000000000159712e+00,2.870000000000002274e+03,-2.175000000000105072e+00,-4.944999999999471818e+00,1.341919930931340055e+01,-2.138937048590294765e+00
2.000000000000261480e+01,2.999999999118778238e+00,9.999999999983755217e+00,6.599999999995953548e-01,1.570000000000408846e+00,2.870000000000002274e+03,-2.174999999999892797e+00,-4.944999999998977103e+00,1.344838498542712379e+01,-2.169916437051362390e+00
2.000000000000109779e+01,2.999999999322627620e+00,9.999999999981993071e+00,6.600000000000326716e-01,1.570000000000050022e+00,2.870000000000002274e+03,-2.174999999999852385e+00,-4.944999999999953211e+00,1.343505798770880943e+01,-2.143814123299942587e+00
1.999999999999955236e+01,2.999999999474554091e+00,1.000000000001239187e+01,6.599999999997733235e-01,1.570000000000262963e+00,2.870000000000002274e+03,-2.174999999999756017e+00,-4.944999999999274642e+00,1.340849979380397983e+01,-2.168923548847070837e+00
2.000000000000071765e+01,3.000000000376588094e+00,1.000000000004878054e+01,6.600000000000481037e-01,1.569999999999999174e+00,2.870000000000002274e+03,-2.174999999999882139e+00,-4.945000000000002061e+00,1.341040708658313640e+01,-2.156453770562436034e+00
1.999999999999930367e+01,2.999999998972189719e+00,9.999999999958776087e+00,6.600000000001138289e-01,1.569999999999884155e+00,2.870000000000002274e+03,-2.174999999999877698e+00,-4.945000000000338680e+00,1.342097719334733696e+01,-2.199387817394179656e+00
2.000000000000000355e+01,2.999999999959229502e+00,1.000000000000597034e+01,6.600000000001798872e-01,1.569999999999869722e+00,2.870000000000002274e+03,-2.174999999999967404e+00,-4.945000000000350227e+00,1.340125037688817500e+01,-2.177419794401104003e+00
2.000000000000071054e+01,2.999999999610729606e+00,9.999999999954296115e+00,6.599999999999376366e-01,1.569999999999946327e+00,2.870000000000002274e+03,-2.175000000000033573e+00,-4.945000000000255191e+00,1.341486612474919404e+01,-2.172635095291047147e+00
2.000000000000025580e+01,2.999999999061742528e+00,1.000000000001739942e+01,6.600000000000997291e-01,1.570000000000046692e+00,2.870000000000002274e+03,-2.174999999999811973e+00,-4.945000000000022489e+00,1.339188117763339925e+01,-2.160393410112535051e+00
1.999999999999852918e+01,2.999999998716777583e+00,1.000000000003263878e+01,6.600000000002090861e-01,1.569999999999938334e+00,2.870000000000002274e+03,-2.174999999999831513e+00,-4.945000000000232987e+00,1.340013512403623253e+01,-2.182943523704155897e+00
2.000000000000020250e+01,2.999999999187127120e+00,1.000000000005805312e+01,6.600000000000963984e-01,1.570000000000023155e+00,2.870000000000002274e+03,-2.174999999999797762e+00,-4.944999999999972751e+00,1.339846773423211168e+01,-2.174823930482052248e+00
1.999999999999929301e+01,2.999999999561795860e+00,1.000000000005166534e+01,6.600000000000253442e-01,1.570000000000080664e+00,2.870000000000002274e+03,-2.174999999999899902e+00,-4.944999999999752482e+00,1.338616787857539414e+01,-2.180796647178071535e+00
2.000000000000046896e+01,3.000000000340406370e+00,1.000000000005959322e+01,6.600000000002719247e-01,1.569999999999915463e+00,2.870000000000002274e+03,-2.174999999999790656e+00,-4.945000000000457696e+00,1.339421128154120133e+01,-2.158310219807261010e+00
2.000000000000007816e+01,2.999999999375934312e+00,9.999999999990372146e+00,6.599999999999711653e-01,1.570000000000060014e+00,2.870000000000002274e+03,-2.174999999999946976e+00,-4.944999999999763141e+00,1.340084358751750138e+01,-2.139202044607430686e+00
1.999999999999991118e+01,2.999999998658505085e+00,1.000000000006094147e+01,6.600000000001571276e-01,1.569999999999948770e+00,2.870000000000002274e+03,-2.174999999999917666e+00,-4.945000000000254303e+00,1.341070263297333298e+01,-2.167725328505178517e+00
1.999999999999997158e+01,3.000000000614534645e+00,9.999999999902962955e+00,6.599999999999544009e-01,1.569999999999915463e+00,2.870000000000002274e+03,-2.175000000000055334e+00,-4.945000000000184137e+00,1.336579635023263002e+01,-2.150605341842025897e+00
1.999999999999989697e+01,3.000000001853189602e+00,9.999999999971331377e+00,6.600000000000135758e-01,1.569999999999966311e+00,2.870000000000002274e+03,-2.174999999999965183e+00,-4.945000000000185025e+00,1.338236214879519714e+01,-2.150203982060324481e+00
2.000000000000015632e+01,2.999999997971471988e+00,9.999999999983900878e+00,6.600000000001020606e-01,1.569999999999918350e+00,2.870000000000002274e+03,-2.174999999999980282e+00,-4.945000000000131735e+00,1.335916371348871756e+01,-2.163690179052462526e+00
1.999999999999929656e+01,3.000000001576458963e+00,1.000000000000835598e+01,6.600000000001532419e-01,1.569999999999845075e+00,2.870000000000002274e+03,-2.175000000000050449e+00,-4.945000000000399076e+00,1.341030138137009331e+01,-2.182679508552010539e+00
1.999999999999937117e+01,3.000000000007847500e+00,1.000000000002557599e+01,6.600000000001139400e-01,1.569999999999829754e+00,2.870000000000002274e+03,-2.175000000000083311e+00,-4.945000000000437268e+00,1.339892843489645635e+01,-2.193456654703067166e+00
1.999999999999892708e+01,2.999999999796554295e+00,9.999999999983163690e+00,6.600000000005634693e-01,1.569999999999649898e+00,2.870000000000002274e+03,-2.174999999999716938e+00,-4.945000000001130047e+00,1.341727536179129565e+01,-2.163414558123315956e+00
1.999999999999812061e+01,3.000000000465326888e+00,9.999999999994351185e+00,6.600000000006530643e-01,1.569999999999575513e+00,2.870000000000002274e+03,-2.174999999999797762e+00,-4.945000000001357421e+00,1.342625531801077621e+01,-2.199497236808320100e+00
1.999999999999932143e+01,3.000000000825615576e+00,1.000000000002543388e+01,6.600000000004797585e-01,1.569999999999748930e+00,2.870000000000002274e+03,-2.174999999999713829e+00,-4.945000000000889351e+00,1.342427669055678940e+01,-2.189628591296558291e+00
1.999999999999986500e+01,3.000000000942808498e+00,9.999999999983735677e+00,6.600000000003258815e-01,1.569999999999757367e+00,2.870000000000002274e+03,-2.174999999999909672e+00,-4.945000000000753460e+00,1.340228123128819071e+01,-2.201631970224318113e+00
1.999999999999813127e+01,2.999999999672825712e+00,9.999999999997704947e+00,6.600000000003789502e-01,1.569999999999702078e+00,2.870000000000002274e+03,-2.174999999999898126e+00,-4.945000000000885798e+00,1.339030608233729502e+01,-2.185837864157845534e+00
1.999999999999985434e+01,3.000000000007267964e+00,9.999999999972432718e+00,6.600000000004017098e-01,1.569999999999479812e+00,2.870000000000002274e+03,-2.175000000000147260e+00,-4.945000000001445351e+00,1.338413401607594544e+01,-2.210830049484810544e+00
1.999999999999868905e+01,3.000000000039520831e+00,1.000000000002980904e+01,6.600000000004391243e-01,1.569999999999811990e+00,2.870000000000002274e+03,-2.174999999999706279e+00,-4.945000000000661977e+00,1.337532912968187127e+01,-2.159055145544857890e+00
1.999999999999768718e+01,2.999999999167050735e+00,1.000000000002975575e+01,6.600000000004426770e-01,1.569999999999824203e+00,2.870000000000002274e+03,-2.174999999999688072e+00,-4.945000000000651319e+00,1.337099825928233976e+01,-2.173614197468989317e+00
2.000000000000010658e+01,2.999999999289837849e+00,9.999999999964062525e+00,6.599999999998726885e-01,1.570000000000023155e+00,2.870000000000002274e+03,-2.174999999999974065e+00,-4.944999999999879492e+00,1.339771015684152289e+01,-2.116732468970522252e+00
2.000000000000106937e+01,3.000000001372675307e+00,1.000000000000606448e+01,6.600000000000585398e-01,1.570000000000073559e+00,2.870000000000002274e+03,-2.174999999999826183e+00,-4.944999999999830642e+00,1.342769355099179585e+01,-2.163421606852427903e+00
1.999999999999984368e+01,3.000000001295733743e+00,1.000000000003385026e+01,6.600000000001802203e-01,1.569999999999907470e+00,2.870000000000002274e+03,-2.174999999999953637e+00,-4.945000000000178808e+00,1.338150586393718378e+01,-2.173541998409862064e+00
1.999999999999985079e+01,3.000000000289636759e+00,1.000000000003464784e+01,6.600000000003063416e-01,1.569999999999903029e+00,2.870000000000002274e+03,-2.174999999999748468e+00,-4.945000000000286278e+00,1.338285992205449659e+01,-2.159394060045313424e+00
1.999999999999938893e+01,2.999999999421477881e+00,9.999999999999012346e+00,6.600000000006066569e-01,1.569999999999605933e+00,2.870000000000002274e+03,-2.174999999999878586e+00,-4.945000000001258833e+00,1.340636670241612372e+01,-2.177910829478851173e+00
1.999999999999902656e+01,2.999999999267801698e+00,1.000000000002099654e+01,6.600000000006649437e-01,1.569999999999574625e+00,2.870000000000002274e+03,-2.174999999999752909e+00,-4.945000000001274820e+00,1.338784886556890896e+01,-2.145634613925283762e+00
1.999999999999888445e+01,2.999999999144302265e+00,1.000000000008793144e+01,6.600000000007967271e-01,1.569999999999553308e+00,2.870000000000002274e+03,-2.174999999999711164e+00,-4.945000000001315676e+00,1.340364361286280825e+01,-2.140383288866434253e+00
1.999999999999795719e+01,2.999999998421407632e+00,9.999999999944950702e+00,6.600000000003746203e-01,1.569999999999892815e+00,2.870000000000002274e+03,-2.174999999999748468e+00,-4.945000000000333351e+00,1.339208986478923968e+01,-2.139353979215844248e+00
1.999999999999769784e+01,3.000000000721525506e+00,9.999999999991258548e+00,6.600000000003208855e-01,1.569999999999752704e+00,2.870000000000002274e+03,-2.174999999999949640e+00,-4.945000000000632667e+00,1.340654219429814376e+01,-2.169877772543133521e+00
1.999999999999862865e+01,3.000000000054736216e+00,1.000000000000445866e+01,6.600000000003315437e-01,1.569999999999796669e+00,2.870000000000002274e+03,-2.174999999999819966e+00,-4.945000000000685070e+00,1.340722323333175225e+01,-2.173570752860723321e+00
1.999999999999877076e+01,3.000000000180432558e+00,1.000000000000381739e+01,6.600000000002289591e-01,1.570000000000013385e+00,2.870000000000002274e+03,-2.174999999999740030e+00,-4.945000000000019824e+00,1.343010055293006033e+01,-2.194552977760547918e+00
1.999999999999796430e+01,3.000000000417764934e+00,1.000000000002140510e+01,6.600000000003025669e-01,1.569999999999961204e+00,2.870000000000002274e+03,-2.174999999999750244e+00,-4.945000000000140616e+00,1.341482593062984030e+01,-2.200288965843344435e+00
1.999999999999864997e+01,2.999999999474783685e+00,1.000000000004068390e+01,6.600000000003796163e-01,1.569999999999793561e+00,2.870000000000002274e+03,-2.174999999999742695e+00,-4.945000000000670859e+00,1.339978611900785666e+01,-2.180705310954767828e+00
1.999999999999872458e+01,2.999999999208562418e+00,1.000000000004160405e+01,6.600000000002593792e-01,1.569999999999869722e+00,2.870000000000002274e+03,-2.174999999999850608e+00,-4.945000000000418616e+00,1.340457826539440234e+01,-2.169781472300216674e+00
1.999999999999944578e+01,2.999999999655081684e+00,9.999999999985886845e+00,6.599999999997017142e-01,1.570000000000074891e+00,2.870000000000002274e+03,-2.175000000000219202e+00,-4.944999999999696527e+00,1.342707777761289556e+01,-2.159573820787377141e+00
2.000000000000067146e+01,2.999999999121992111e+00,1.000000000000755485e+01,6.599999999998964473e-01,1.569999999999973417e+00,2.870000000000002274e+03,-2.175000000000136602e+00,-4.945000000000116636e+00,1.339729376843432362e+01,-2.154162218242661186e+00
1.999999999999858247e+01,2.999999998395819656e+00,1.000000000000391864e+01,6.600000000002508305e-01,1.569999999999709184e+00,2.870000000000002274e+03,-2.174999999999951417e+00,-4.945000000000738360e+00,1.339484655791604339e+01,-2.136692229534133070e+00
1.999999999999884537e+01,2.999999996344306918e+00,1.000000000003533707e+01,6.599999999999127676e-01,1.570000000000005613e+00,2.870000000000002274e+03,-2.175000000000050004e+00,-4.945000000000039364e+00,1.338937539663814924e+01,-2.143054664096673001e+00
1.999999999999756994e+01,2.999999998045268956e+00,1.000000000002488854e+01,6.600000000003808376e-01,1.569999999999883267e+00,2.870000000000002274e+03,-2.174999999999650324e+00,-4.945000000000450591e+00,1.341735903964041476e+01,-2.136923327956051111e+00
1.999999999999959499e+01,3.000000001186756027e+00,1.000000000002836487e+01,6.600000000001474687e-01,1.569999999999962981e+00,2.870000000000002274e+03,-2.174999999999796874e+00,-4.945000000000233875e+00,1.342424754368584949e+01,-2.172515772582500393e+00
1.999999999999853628e+01,2.999999998584160110e+00,9.999999999978443910e+00,6.600000000002494982e-01,1.569999999999887708e+00,2.870000000000002274e+03,-2.174999999999738254e+00,-4.945000000000219664e+00,1.341922602587052715e+01,-2.148937480550869861e+00
1.999999999999876010e+01,2.999999997188757206e+00,9.999999999999248601e+00,6.600000000003793943e-01,1.569999999999735385e+00,2.870000000000002274e+03,-2.174999999999854161e+00,-4.945000000000783658e+00,1.340666731528758859e+01,-2.144171429989368605e+00
1.999999999999812061e+01,2.999999998078727081e+00,1.000000000001467093e+01,6.600000000005741274e-01,1.569999999999637685e+00,2.870000000000002274e+03,-2.174999999999724487e+00,-4.945000000001119389e+00,1.342030031565393777e+01,-2.149593939269421661e+00
1.999999999999961986e+01,2.999999998887527219e+00,1.000000000001471001e+01,6.600000000002157474e-01,1.569999999999890594e+00,2.870000000000002274e+03,-2.174999999999915890e+00,-4.945000000000369766e+00,1.341107440750938551e+01,-2.175797588079269040e+00
1.999999999999898748e+01,2.999999998139216917e+00,9.999999999996640909e+00,6.600000000003812817e-01,1.569999999999755813e+00,2.870000000000002274e+03,-2.174999999999760902e+00,-4.945000000000671747e+00,1.341625290416020633e+01,-2.132967470588018166e+00
1.999999999999863931e+01,3.000000000410592449e+00,1.000000000005775291e+01,6.600000000005651346e-01,1.569999999999706741e+00,2.870000000000002274e+03,-2.174999999999654321e+00,-4.945000000000919549e+00,1.342075548209041180e+01,-2.149137239909904906e+00
1.999999999999797140e+01,2.999999999509544768e+00,1.000000000002337153e+01,6.600000000007363310e-01,1.569999999999560414e+00,2.870000000000002274e+03,-2.174999999999639222e+00,-4.945000000001298801e+00,1.340411098908207244e+01,-2.145050599264942015e+00
1.999999999999842615e+01,2.999999997852933475e+00,1.000000000001318057e+01,6.600000000006061018e-01,1.569999999999664553e+00,2.870000000000002274e+03,-2.174999999999666311e+00,-4.945000000001053664e+00,1.342940396709219186e+01,-2.131140614352432738e+00
1.999999999999838352e+01,2.999999996542752179e+00,9.999999999974971132e+00,6.600000000004945244e-01,1.569999999999720952e+00,2.870000000000002274e+03,-2.174999999999778222e+00,-4.945000000000939089e+00,1.343326557860500436e+01,-2.139582868282878358e+00
1.999999999999945643e+01,2.999999999041972121e+00,9.999999999983479881e+00,6.600000000001062794e-01,1.570000000000015827e+00,2.870000000000002274e+03,-2.174999999999805311e+00,-4.944999999999983409e+00,1.344667420952855252e+01,-2.152264071337291806e+00
1.999999999999955946e+01,2.999999998370638465e+00,1.000000000001579359e+01,6.600000000001505773e-01,1.569999999999883489e+00,2.870000000000002274e+03,-2.174999999999982503e+00,-4.945000000000498552e+00,1.340928083916479530e+01,-2.139898921217469052e+00
1.999999999999934630e+01,2.999999997990587364e+00,9.999999999963463893e+00,6.600000000001032818e-01,1.569999999999855289e+00,2.870000000000002274e+03,-2.175000000000018030e+00,-4.945000000000407958e+00,1.340474490810828989e+01,-2.135657892250592216e+00
1.999999999999800693e+01,2.999999996941588698e+00,9.999999999982408738e+00,6.600000000003608536e-01,1.569999999999756035e+00,2.870000000000002274e+03,-2.174999999999774669e+00,-4.945000000000629115e+00,1.341222690296355680e+01,-2.163994203737627409e+00
1.999999999999917932e+01,2.999999998954726799e+00,9.999999999969675812e+00,6.599999999999006661e-01,1.570000000000010498e+00,2.870000000000002274e+03,-2.175000000000116618e+00,-4.944999999999928342e+00,1.340932304850507784e+01,-2.219229031902665294e+00
1.999999999999966249e+01,2.999999999357785718e+00,9.999999999987855048e+00,6.600000000002783640e-01,1.569999999999835749e+00,2.870000000000002274e+03,-2.174999999999905675e+00,-4.945000000000548290e+00,1.341249241604529630e+01,-2.196981803092107555e+00
1.999999999999867484e+01,2.999999999201049317e+00,9.999999999930221151e+00,6.600000000001802203e-01,1.569999999999886375e+00,2.870000000000002274e+03,-2.174999999999970957e+00,-4.945000000000251639e+00,1.341176662294512134e+01,-2.154885118682101641e+00
2.000000000000132161e+01,2.999999998413149793e+00,9.999999999928952832e+00,6.599999999997798739e-01,1.570000000000040030e+00,2.870000000000002274e+03,-2.175000000000179678e+00,-4.944999999999731166e+00,1.340237206953464799e+01,-2.133400967457959485e+00
2.000000000000017053e+01,2.999999998843555282e+00,9.999999999965190511e+00,6.600000000000816325e-01,1.569999999999922125e+00,2.870000000000002274e+03,-2.175000000000028244e+00,-4.945000000000214335e+00,1.342270879353287505e+01,-2.170268034800139301e+00
2.000000000000046896e+01,2.999999996696911975e+00,9.999999999901090675e+00,6.599999999998609201e-01,1.569999999999984741e+00,2.870000000000002274e+03,-2.175000000000235634e+00,-4.944999999999957652e+00,1.339702624437166278e+01,-2.110149843534865344e+00
1.999999999999974420e+01,2.999999997334706681e+00,9.999999999958708585e+00,6.600000000000817435e-01,1.569999999999949214e+00,2.870000000000002274e+03,-2.174999999999970957e+00,-4.945000000000231211e+00,1.342655777691692265e+01,-2.137989917190103561e+00
2.000000000000064304e+01,2.999999997290286213e+00,9.999999999894010116e+00,6.599999999997379074e-01,1.570000000000075113e+00,2.870000000000002274e+03,-2.175000000000131273e+00,-4.944999999999650342e+00,1.341323238860766232e+01,-2.130732815210600872e+00
2.000000000000090594e+01,3.000000000994070604e+00,9.999999999951189267e+00,6.599999999999428546e-01,1.569999999999911688e+00,2.870000000000002274e+03,-2.175000000000184563e+00,-4.945000000000042029e+00,1.337144696510091890e+01,-2.201480079885604013e+00
1.999999999999961631e+01,2.999999999380974725e+00,9.999999999976452614e+00,6.600000000001045031e-01,1.569999999999923235e+00,2.870000000000002274e+03,-2.174999999999973621e+00,-4.944999999999946105e+00,1.337375711166142622e+01,-2.195803118371109974e+00
2.000000000000078515e+01,2.999999998601698525e+00,1.000000000001612044e+01,6.599999999999998090e-01,1.570000000000014939e+00,2.870000000000002274e+03,-2.175000000000038458e+00,-4.944999999999857287e+00,1.340142289941563014e+01,-2.198116972713871853e+00
2.000000000000047251e+01,2.999999998725831230e+00,9.999999999960268227e+00,6.599999999999536238e-01,1.569999999999934337e+00,2.870000000000002274e+03,-2.175000000000083311e+00,-4.945000000000166374e+00,1.340722973632012582e+01,-2.171116371395303890e+00
2.000000000000024869e+01,2.999999998464708106e+00,9.999999999940724749e+00,6.600000000000377787e-01,1.569999999999817097e+00,2.870000000000002274e+03,-2.175000000000172129e+00,-4.945000000000326246e+00,1.338166070876554059e+01,-2.160250584690108777e+00
1.999999999999984723e+01,2.999999999342186197e+00,9.999999999965918818e+00,6.600000000000433298e-01,1.569999999999799112e+00,2.870000000000002274e+03,-2.175000000000129941e+00,-4.945000000000328910e+00,1.338848855871996335e+01,-2.212187045284162323e+00
2.000000000000108002e+01,2.999999999803185879e+00,9.999999999946318496e+00,6.599999999997928635e-01,1.569999999999991847e+00,2.870000000000002274e+03,-2.175000000000217426e+00,-4.944999999999861728e+00,1.338892096651648345e+01,-2.190502144393116080e+00
2.000000000000117240e+01,2.999999999070797507e+00,9.999999999960904162e+00,6.599999999996516431e-01,1.570000000000054685e+00,2.870000000000002274e+03,-2.175000000000310241e+00,-4.944999999999716067e+00,1.334617833211009064e+01,-2.152434309952461433e+00
2.000000000000127898e+01,3.000000000303621572e+00,9.999999999955116792e+00,6.599999999998510392e-01,1.569999999999955875e+00,2.870000000000002274e+03,-2.175000000000261391e+00,-4.945000000000099760e+00,1.338524203494804254e+01,-2.178777175469069682e+00
1.999999999999989342e+01,2.999999997971162458e+00,9.999999999935681672e+00,6.599999999999827116e-01,1.569999999999747375e+00,2.870000000000002274e+03,-2.175000000000263167e+00,-4.945000000000701945e+00,1.341806721579774297e+01,-2.150382879769229483e+00
2.000000000000098765e+01,2.999999998255511890e+00,9.999999999930937022e+00,6.599999999997580025e-01,1.569999999999883489e+00,2.870000000000002274e+03,-2.175000000000329337e+00,-4.945000000000249862e+00,1.339138476165326885e+01,-2.162047869458962879e+00
2.000000000000115818e+01,3.000000001712622488e+00,9.999999999987778665e+00,6.599999999996358779e-01,1.570000000000101092e+00,2.870000000000002274e+03,-2.175000000000316014e+00,-4.944999999999634355e+00,1.338426008052562111e+01,-2.173458077699108149e+00
2.000000000000124700e+01,2.999999999117629379e+00,9.999999999946931339e+00,6.599999999994737854e-01,1.570000000000188578e+00,2.870000000000002274e+03,-2.175000000000275602e+00,-4.944999999999302176e+00,1.337640027139183196e+01,-2.177831317222920227e+00
2.000000000000015277e+01,2.999999998258437106e+00,9.999999999984954258e+00,6.599999999999663913e-01,1.570000000000212337e+00,2.870000000000002274e+03,-2.174999999999771561e+00,-4.944999999999303064e+00,1.340804256948939077e+01,-2.158237032638164798e+00
1.999999999999993605e+01,2.999999997244662708e+00,9.999999999973420373e+00,6.599999999999974776e-01,1.570000000000068674e+00,2.870000000000002274e+03,-2.174999999999896350e+00,-4.944999999999858176e+00,1.339967614677305896e+01,-2.159213246495878202e+00
2.000000000000089173e+01,3.000000000017140067e+00,9.999999999975077714e+00,6.599999999998692468e-01,1.570000000000213891e+00,2.870000000000002274e+03,-2.174999999999832845e+00,-4.944999999999562412e+00,1.342089774286897352e+01,-2.149549263593366177e+00
2.000000000000022737e+01,2.999999999665598605e+00,9.999999999980198950e+00,6.599999999996699618e-01,1.570000000000340457e+00,2.870000000000002274e+03,-2.174999999999892797e+00,-4.944999999998912266e+00,1.338871898086371637e+01,-2.126669635333737762e+00
2.000000000000080647e+01,2.999999998452159922e+00,9.999999999974489739e+00,6.600000000000207923e-01,1.570000000000017604e+00,2.870000000000002274e+03,-2.174999999999960298e+00,-4.944999999999899032e+00,1.340322627123670252e+01,-2.161397609127255315e+00
1.999999999999995381e+01,2.999999998754049102e+00,9.999999999997976730e+00,6.599999999998529265e-01,1.570000000000277840e+00,2.870000000000002274e+03,-2.174999999999831068e+00,-4.944999999999229345e+00,1.339859479496706207e+01,-2.146250875677123471e+00
1.999999999999937828e+01,2.999999994991822128e+00,1.000000000002665068e+01,6.600000000003590772e-01,1.569999999999788232e+00,2.870000000000002274e+03,-2.174999999999771561e+00,-4.945000000000742801e+00,1.341493900991369692e+01,-2.163963646442540689e+00
1.999999999999906208e+01,2.999999996977670946e+00,9.999999999967693398e+00,6.600000000004002665e-01,1.569999999999762030e+00,2.870000000000002274e+03,-2.174999999999688072e+00,-4.945000000000753460e+00,1.343783517842394382e+01,-2.170420287243670643e+00
1.999999999999864286e+01,2.999999996014080406e+00,9.999999999964041209e+00,6.600000000003162226e-01,1.569999999999772911e+00,2.870000000000002274e+03,-2.174999999999787548e+00,-4.945000000000695728e+00,1.343006072528023509e+01,-2.176277422393225969e+00
1.999999999999982947e+01,2.999999997509407379e+00,1.000000000002454925e+01,6.599999999999700551e-01,1.570000000000151719e+00,2.870000000000002274e+03,-2.174999999999769784e+00,-4.944999999999414975e+00,1.340311516649462220e+01,-2.159255826091829977e+00
1.999999999999970157e+01,2.999999996205276354e+00,9.999999999953530505e+00,6.600000000000101341e-01,1.570000000000049356e+00,2.870000000000002274e+03,-2.174999999999797318e+00,-4.944999999999906137e+00,1.336788056018878201e+01,-2.165399737561604532e+00
1.999999999999930012e+01,2.999999996561471871e+00,9.999999999989851673e+00,6.600000000000226796e-01,1.570000000000060236e+00,2.870000000000002274e+03,-2.174999999999768452e+00,-4.944999999999912355e+00,1.336885518812934492e+01,-2.173673346047201971e+00
1.999999999999844036e+01,2.999999996611976805e+00,9.999999999977157827e+00,6.600000000001753353e-01,1.569999999999923013e+00,2.870000000000002274e+03,-2.174999999999784883e+00,-4.945000000000222329e+00,1.339923862076874350e+01,-2.161687603323566798e+00
2.000000000000013500e+01,2.999999996438324601e+00,9.999999999993361754e+00,6.599999999999424105e-01,1.570000000000032703e+00,2.870000000000002274e+03,-2.174999999999908340e+00,-4.944999999999926565e+00,1.338721902124316721e+01,-2.178796828172912647e+00
2.000000000000075318e+01,3.000000002317828152e+00,1.000000000003085887e+01,6.600000000002168576e-01,1.569999999999653895e+00,2.870000000000002274e+03,-2.175000000000186784e+00,-4.945000000001194884e+00,1.336655344612275087e+01,-2.174574663881610803e+00
