1.999999999999915445e+01,3.000000000191034299e+00,9.999999999974829024e+00,6.600000000001231548e-01,1.569999999999810658e+00,2.870000000000001819e+03,-2.175000000000005151e+00,-4.945000000000562501e+00,1.339591149364786737e+01,-2.179759420824389338e+00
1.999999999999976907e+01,2.999999999953670393e+00,9.999999999976278531e+00,6.599999999998028555e-01,1.569999999999984741e+00,2.870000000000002274e+03,-2.175000000000110845e+00,-4.945000000000006501e+00,1.340379438869688045e+01,-2.174370073840913520e+00
1.999999999999903366e+01,2.999999999125235295e+00,9.999999999981628918e+00,6.600000000003094502e-01,1.569999999999840856e+00,2.870000000000002274e+03,-2.174999999999755573e+00,-4.945000000000255191e+00,1.339365605879982368e+01,-2.175846239493188783e+00
2.000000000000056488e+01,3.000000000106388676e+00,1.000000000000838440e+01,6.599999999999452971e-01,1.569999999999991402e+00,2.870000000000002274e+03,-2.174999999999972733e+00,-4.945000000000010942e+00,1.339069152608417568e+01,-2.173194132485731345e+00
1.999999999999942801e+01,2.999999998350455055e+00,9.999999999941421081e+00,6.599999999997618882e-01,1.570000000000039364e+00,2.870000000000002274e+03,-2.175000000000128164e+00,-4.944999999999798668e+00,1.338029255512209126e+01,-2.189765062521028316e+00
1.999999999999947420e+01,2.999999998253144007e+00,9.999999999945698548e+00,6.599999999998164002e-01,1.570000000000030482e+00,2.870000000000002274e+03,-2.175000000000089528e+00,-4.944999999999841300e+00,1.337978380792410782e+01,-2.188353651647647169e+00
1.999999999999822720e+01,2.999999999376321558e+00,1.000000000006471801e+01,6.600000000000905143e-01,1.570000000000060236e+00,2.870000000000001819e+03,-2.174999999999793321e+00,-4.944999999999831530e+00,1.340172547404212189e+01,-2.178935793978827196e+00
2.000000000000023803e+01,2.999999998785733091e+00,1.000000000003412381e+01,6.600000000000533218e-01,1.570000000000093987e+00,2.870000000000002274e+03,-2.174999999999863931e+00,-4.944999999999817319e+00,1.340592634584558951e+01,-2.174490245945378319e+00
1.999999999999829470e+01,2.999999997628360671e+00,1.000000000005631762e+01,6.600000000003205525e-01,1.569999999999746265e+00,2.870000000000002274e+03,-2.174999999999921663e+00,-4.945000000000566054e+00,1.341052083844610365e+01,-2.170639345846292478e+00
1.999999999999826983e+01,2.999999997537803775e+00,1.000000000002589040e+01,6.600000000003664047e-01,1.569999999999702522e+00,2.870000000000002274e+03,-2.174999999999943423e+00,-4.945000000000902673e+00,1.339814893944504526e+01,-2.172884136279081613e+00
1.999999999999941380e+01,2.999999998108581867e+00,1.000000000000407852e+01,6.600000000002143041e-01,1.569999999999787343e+00,2.870000000000002274e+03,-2.175000000000046452e+00,-4.945000000000657536e+00,1.339291024384837314e+01,-2.173070697797949258e+00
2.000000000000041211e+01,3.000000000581108495e+00,1.000000000002970069e+01,6.599999999994852207e-01,1.570000000000300933e+00,2.870000000000002274e+03,-2.175000000000128608e+00,-4.944999999999172502e+00,1.341155740951326436e+01,-2.184391994247126156e+00
1.999999999999854339e+01,2.999999998839796511e+00,1.000000000002608225e+01,6.600000000002204104e-01,1.569999999999913687e+00,2.870000000000002274e+03,-2.174999999999783995e+00,-4.945000000000121076e+00,1.340053149094936558e+01,-2.164406037199722022e+00
1.999999999999968381e+01,2.999999998508954935e+00,9.999999999991681321e+00,6.600000000002939071e-01,1.569999999999911688e+00,2.870000000000001819e+03,-2.174999999999720490e+00,-4.945000000000296048e+00,1.342048002957907471e+01,-2.160823103224708497e+00
2.000000000000073541e+01,2.999999999582992682e+00,1.000000000001285727e+01,6.599999999994664579e-01,1.570000000000376872e+00,2.870000000000002274e+03,-2.175000000000139266e+00,-4.944999999999047269e+00,1.341249017855273706e+01,-2.190807417168082694e+00
2.000000000000059686e+01,2.999999998626269093e+00,1.000000000000580336e+01,6.599999999996968292e-01,1.570000000000092877e+00,2.870000000000001819e+03,-2.175000000000140155e+00,-4.944999999999772022e+00,1.341103521277816846e+01,-2.169229832064622165e+00
2.000000000000002487e+01,2.999999997087904546e+00,1.000000000001482725e+01,6.599999999999239808e-01,1.569999999999918128e+00,2.870000000000002274e+03,-2.175000000000168576e+00,-4.945000000000296048e+00,1.340537938180617417e+01,-2.158805488180144838e+00
1.999999999999753442e+01,2.999999998321171812e+00,9.999999999999038991e+00,6.600000000005333822e-01,1.569999999999594609e+00,2.870000000000001819e+03,-2.174999999999806644e+00,-4.945000000001159357e+00,1.340640269224329195e+01,-2.201742876575887298e+00
1.999999999999919353e+01,2.999999998524962130e+00,1.000000000001310596e+01,6.600000000001255973e-01,1.570000000000029594e+00,2.870000000000002274e+03,-2.174999999999793765e+00,-4.944999999999859064e+00,1.342438943667554874e+01,-2.185109539040457793e+00
1.999999999999895550e+01,2.999999998470281870e+00,1.000000000001551115e+01,6.600000000000197931e-01,1.569999999999877494e+00,2.870000000000002274e+03,-2.174999999999949196e+00,-4.945000000000242757e+00,1.341409402152729236e+01,-2.173557937965003628e+00
1.999999999999850431e+01,2.999999999880360146e+00,1.000000000000214229e+01,6.600000000003707346e-01,1.569999999999695639e+00,2.870000000000002274e+03,-2.174999999999851052e+00,-4.945000000000824514e+00,1.340466257773448611e+01,-2.176114374454777511e+00
1.999999999999912959e+01,2.999999999377740423e+00,1.000000000003877432e+01,6.600000000001946532e-01,1.569999999999848628e+00,2.870000000000002274e+03,-2.174999999999948308e+00,-4.945000000000555396e+00,1.340111823167496397e+01,-2.166641438704390854e+00
2.000000000000131806e+01,3.000000000428504787e+00,1.000000000002374101e+01,6.599999999998129585e-01,1.570000000000106644e+00,2.870000000000002274e+03,-2.175000000000067768e+00,-4.944999999999812879e+00,1.342372489702135852e+01,-2.185462800516054127e+00
1.999999999999873879e+01,2.999999999467557021e+00,9.999999999992143174e+00,6.600000000006904788e-01,1.569999999999556195e+00,2.870000000000002274e+03,-2.174999999999779554e+00,-4.945000000001383178e+00,1.341034466514838996e+01,-2.181816098360473966e+00
1.999999999999953459e+01,2.999999997936053653e+00,9.999999999989183763e+00,6.599999999999763833e-01,1.569999999999921236e+00,2.870000000000002274e+03,-2.175000000000055334e+00,-4.945000000000224993e+00,1.340062058317282379e+01,-2.175071721478393894e+00
1.999999999999881695e+01,3.000000000053243188e+00,9.999999999977147169e+00,6.600000000000713074e-01,1.570000000000021156e+00,2.870000000000002274e+03,-2.174999999999820854e+00,-4.944999999999830642e+00,1.341243273126032598e+01,-2.189684930906939719e+00
2.000000000000019185e+01,2.999999999409007412e+00,9.999999999955674568e+00,6.600000000000166844e-01,1.570000000000006279e+00,2.870000000000001819e+03,-2.174999999999922107e+00,-4.944999999999886597e+00,1.339732008389149520e+01,-2.160435215559834532e+00
1.999999999999947775e+01,2.999999999856196364e+00,9.999999999984204635e+00,6.600000000001823297e-01,1.569999999999987406e+00,2.870000000000002274e+03,-2.174999999999878586e+00,-4.945000000000206342e+00,1.339705194631789986e+01,-2.166296305729200178e+00
1.999999999999836930e+01,2.999999998766460507e+00,1.000000000001698908e+01,6.600000000006008838e-01,1.569999999999471818e+00,2.870000000000002728e+03,-2.174999999999893241e+00,-4.945000000001615881e+00,1.341169347214190388e+01,-2.177403834187173093e+00
2.000000000000022737e+01,3.000000000947533607e+00,1.000000000007536372e+01,6.599999999994001776e-01,1.570000000000355111e+00,2.870000000000002274e+03,-2.175000000000148148e+00,-4.944999999999132534e+00,1.341681768574081524e+01,-2.188498128731615200e+00
2.000000000000005329e+01,2.999999995871772462e+00,9.999999999945591966e+00,6.599999999997022693e-01,1.570000000000185247e+00,2.870000000000002274e+03,-2.175000000000032685e+00,-4.944999999999431850e+00,1.341181194342549965e+01,-2.158368527241780743e+00
2.000000000000062172e+01,2.999999997272555063e+00,9.999999999925069716e+00,6.599999999998041877e-01,1.570000000000018492e+00,2.870000000000001819e+03,-2.175000000000070877e+00,-4.944999999999898144e+00,1.339959826320437841e+01,-2.158388862463594737e+00
1.999999999999953815e+01,3.000000001438600794e+00,1.000000000007680789e+01,6.600000000000444400e-01,1.570000000000029594e+00,2.870000000000002728e+03,-2.174999999999840838e+00,-4.945000000000093543e+00,1.341439114972129687e+01,-2.186388481593027677e+00
2.000000000000103739e+01,2.999999998615384467e+00,9.999999999954173546e+00,6.599999999998217293e-01,1.569999999999882823e+00,2.870000000000002274e+03,-2.175000000000208544e+00,-4.945000000000431051e+00,1.340742481463705715e+01,-2.167176457681615709e+00
1.999999999999887379e+01,2.999999999572242615e+00,1.000000000005794831e+01,6.600000000004611067e-01,1.569999999999979856e+00,2.870000000000002274e+03,-2.174999999999580158e+00,-4.945000000000098872e+00,1.340397357541916001e+01,-2.163687442462904453e+00
1.999999999999876721e+01,2.999999996900649890e+00,9.999999999976996179e+00,6.600000000001872147e-01,1.569999999999929896e+00,2.870000000000002274e+03,-2.174999999999832845e+00,-4.945000000000143281e+00,1.339387760004061079e+01,-2.184587386232480721e+00
1.999999999999827693e+01,2.999999999600974743e+00,1.000000000004897238e+01,6.600000000004223599e-01,1.569999999999760032e+00,2.870000000000002274e+03,-2.174999999999830624e+00,-4.945000000000635332e+00,1.341004476804571510e+01,-2.167332680343856843e+00
2.000000000000031619e+01,2.999999997951653175e+00,1.000000000002865796e+01,6.600000000000442180e-01,1.570000000000033369e+00,2.870000000000001819e+03,-2.174999999999945199e+00,-4.944999999999987850e+00,1.339638645773171177e+01,-2.166513251511716920e+00
2.000000000000065370e+01,2.999999998241491550e+00,1.000000000002886580e+01,6.599999999998140687e-01,1.570000000000187468e+00,2.870000000000001819e+03,-2.174999999999974953e+00,-4.944999999999486029e+00,1.340406037183150190e+01,-2.154157263680840373e+00
1.999999999999942801e+01,2.999999999873017575e+00,1.000000000004694556e+01,6.599999999997651079e-01,1.570000000000077778e+00,2.870000000000002274e+03,-2.175000000000022471e+00,-4.944999999999741824e+00,1.340948186299922362e+01,-2.183715888805346950e+00
1.999999999999809219e+01,2.999999999238577075e+00,9.999999999993850253e+00,6.600000000000505462e-01,1.570000000000025597e+00,2.870000000000002274e+03,-2.174999999999905675e+00,-4.944999999999890150e+00,1.339879862547523004e+01,-2.179782026620129098e+00
1.999999999999827693e+01,2.999999997350059289e+00,9.999999999967503328e+00,6.600000000007250067e-01,1.569999999999693419e+00,2.870000000000002274e+03,-2.174999999999565503e+00,-4.945000000000807638e+00,1.338963490786467503e+01,-2.170724737572373275e+00
1.999999999999784350e+01,2.999999998858975392e+00,9.999999999982760457e+00,6.600000000008275913e-01,1.569999999999495355e+00,2.870000000000002274e+03,-2.174999999999598366e+00,-4.945000000001470220e+00,1.338004443177016611e+01,-2.185630144478028836e+00
1.999999999999866063e+01,2.999999997408130614e+00,9.999999999988464339e+00,6.600000000002257394e-01,1.569999999999940110e+00,2.870000000000002274e+03,-2.174999999999838174e+00,-4.945000000000171703e+00,1.338557371500154858e+01,-2.176998444731650384e+00
1.999999999999843681e+01,2.999999997436706423e+00,9.999999999978248511e+00,6.600000000005169509e-01,1.569999999999684537e+00,2.870000000000002274e+03,-2.174999999999775113e+00,-4.945000000000795204e+00,1.338625036352431863e+01,-2.184428391895075094e+00
2.000000000000099476e+01,2.999999998884694818e+00,1.000000000004472511e+01,6.599999999998399369e-01,1.570000000000110640e+00,2.870000000000002274e+03,-2.175000000000015810e+00,-4.944999999999852847e+00,1.340641508169467855e+01,-2.165011799318255825e+00
2.000000000000010658e+01,2.999999996318839290e+00,1.000000000003806910e+01,6.599999999999192069e-01,1.570000000000026485e+00,2.870000000000002728e+03,-2.174999999999960298e+00,-4.944999999999969198e+00,1.341856802099029089e+01,-2.154433662333061772e+00
1.999999999999972289e+01,2.999999998606849516e+00,9.999999999962993158e+00,6.600000000000209033e-01,1.570000000000013385e+00,2.870000000000001819e+03,-2.174999999999810196e+00,-4.944999999999855511e+00,1.339037492750813030e+01,-2.181548017071185619e+00
1.999999999999975842e+01,2.999999998417451685e+00,9.999999999987750243e+00,6.600000000003105605e-01,1.569999999999764695e+00,2.870000000000001819e+03,-2.174999999999911449e+00,-4.945000000000701057e+00,1.339195133919946024e+01,-2.176032707790284348e+00
1.999999999999957012e+01,3.000000000779621701e+00,1.000000000005039702e+01,6.600000000002312905e-01,1.569999999999888374e+00,2.870000000000002274e+03,-2.174999999999914557e+00,-4.945000000000369766e+00,1.341143275563589654e+01,-2.162075442124247182e+00
1.999999999999960565e+01,3.000000000652968346e+00,1.000000000000743050e+01,6.599999999999186517e-01,1.569999999999996287e+00,2.870000000000002274e+03,-2.175000000000051337e+00,-4.944999999999967422e+00,1.338981891620533560e+01,-2.177964334902976695e+00
1.999999999999881695e+01,2.999999998965753534e+00,9.999999999964579445e+00,6.600000000003308775e-01,1.569999999999781570e+00,2.870000000000002728e+03,-2.174999999999748468e+00,-4.945000000000602469e+00,1.339132667190559189e+01,-2.174966471504771182e+00
1.999999999999862155e+01,2.999999999525816197e+00,9.999999999976417087e+00,6.600000000004025980e-01,1.569999999999772688e+00,2.870000000000002274e+03,-2.174999999999758682e+00,-4.945000000000723261e+00,1.340933955125958477e+01,-2.193143503248354609e+00
1.999999999999853983e+01,2.999999999621040914e+00,9.999999999960696329e+00,6.600000000005289413e-01,1.569999999999547313e+00,2.870000000000002274e+03,-2.174999999999920774e+00,-4.945000000001329887e+00,1.338308353201456136e+01,-2.171404964831889384e+00
1.999999999999941380e+01,2.999999999250629212e+00,1.000000000003987388e+01,6.600000000000266764e-01,1.570000000000088880e+00,2.870000000000002274e+03,-2.174999999999912337e+00,-4.944999999999830642e+00,1.341566318994103391e+01,-2.157285213062551943e+00
1.999999999999943512e+01,3.000000001038122477e+00,1.000000000002411582e+01,6.600000000002465006e-01,1.569999999999835527e+00,2.870000000000002274e+03,-2.174999999999912337e+00,-4.945000000000479901e+00,1.339897981115015035e+01,-2.160922972903383421e+00
2.000000000000041211e+01,2.999999999639456849e+00,1.000000000002936318e+01,6.599999999998951150e-01,1.570000000000095319e+00,2.870000000000002274e+03,-2.175000000000063771e+00,-4.944999999999749818e+00,1.339804211978393944e+01,-2.149450006231275800e+00
2.000000000000029843e+01,3.000000000396808364e+00,1.000000000006910028e+01,6.600000000000140199e-01,1.570000000000050022e+00,2.870000000000002274e+03,-2.175000000000022915e+00,-4.944999999999887486e+00,1.340465824217960389e+01,-2.167232907073299852e+00
1.999999999999803535e+01,2.999999998862417527e+00,1.000000000003932143e+01,6.600000000002833600e-01,1.569999999999999174e+00,2.870000000000002274e+03,-2.174999999999739142e+00,-4.945000000000078444e+00,1.341103629240207873e+01,-2.180260923910225301e+00
2.000000000000038014e+01,3.000000000743076267e+00,1.000000000004863132e+01,6.600000000000334488e-01,1.570000000000102425e+00,2.870000000000002274e+03,-2.174999999999880362e+00,-4.944999999999752482e+00,1.342443332425560953e+01,-2.161342100785261788e+00
1.999999999999878142e+01,2.999999998812617363e+00,1.000000000004900436e+01,6.600000000005433742e-01,1.569999999999772466e+00,2.870000000000002274e+03,-2.174999999999706723e+00,-4.945000000000754348e+00,1.340446211458449532e+01,-2.186475961327910777e+00
2.000000000000056133e+01,2.999999998401121637e+00,9.999999999979205967e+00,6.599999999999448530e-01,1.569999999999894147e+00,2.870000000000002728e+03,-2.175000000000144151e+00,-4.945000000000406182e+00,1.340024087691865162e+01,-2.153933572146009556e+00
1.999999999999944222e+01,2.999999997773529881e+00,9.999999999979207743e+00,6.600000000001015055e-01,1.569999999999789786e+00,2.870000000000002274e+03,-2.175000000000083311e+00,-4.945000000000552731e+00,1.341463364687736970e+01,-2.144642508337959441e+00
1.999999999999934985e+01,2.999999999499844083e+00,1.000000000006859402e+01,6.600000000000820766e-01,1.569999999999932339e+00,2.870000000000002274e+03,-2.175000000000064659e+00,-4.945000000000277396e+00,1.340160961912322612e+01,-2.176078256278551670e+00
2.000000000000029843e+01,2.999999999053838184e+00,9.999999999995806022e+00,6.599999999998081845e-01,1.569999999999948548e+00,2.870000000000002728e+03,-2.175000000000121947e+00,-4.945000000000106866e+00,1.340722223726004181e+01,-2.169010377540828927e+00
1.999999999999984723e+01,2.999999998904239185e+00,9.999999999997795541e+00,6.599999999999628386e-01,1.570000000000112861e+00,2.870000000000002274e+03,-2.174999999999932321e+00,-4.944999999999701856e+00,1.341085548676616490e+01,-2.180209183899726622e+00
1.999999999999980105e+01,2.999999999339483914e+00,9.999999999992835953e+00,6.599999999999871525e-01,1.570000000000229878e+00,2.870000000000002274e+03,-2.174999999999766231e+00,-4.944999999999339479e+00,1.341341726526228584e+01,-2.160030320835250262e+00
2.000000000000025580e+01,2.999999998529676137e+00,1.000000000001364064e+01,6.599999999999048850e-01,1.570000000000114859e+00,2.870000000000002274e+03,-2.174999999999939426e+00,-4.944999999999585505e+00,1.340726143966429440e+01,-2.168133784482060733e+00
1.999999999999851497e+01,2.999999999589876953e+00,1.000000000000930811e+01,6.600000000004629941e-01,1.569999999999630136e+00,2.870000000000001819e+03,-2.174999999999996714e+00,-4.945000000001192220e+00,1.339983340759388142e+01,-2.194136971535901814e+00
1.999999999999879918e+01,3.000000000904037734e+00,1.000000000009072210e+01,6.599999999999573985e-01,1.570000000000107532e+00,2.870000000000002274e+03,-2.174999999999821299e+00,-4.944999999999553530e+00,1.342410290609696943e+01,-2.170127117599471411e+00
1.999999999999964828e+01,2.999999999578701448e+00,9.999999999959378272e+00,6.599999999999622835e-01,1.569999999999924789e+00,2.870000000000002274e+03,-2.174999999999944311e+00,-4.945000000000117524e+00,1.340543506297170318e+01,-2.184819865466935518e+00
2.000000000000020606e+01,2.999999998881140328e+00,1.000000000003511680e+01,6.600000000004889733e-01,1.569999999999574847e+00,2.870000000000002274e+03,-2.174999999999863931e+00,-4.945000000001390283e+00,1.339774031336015625e+01,-2.164758252341139944e+00
1.999999999999975131e+01,2.999999999401691930e+00,1.000000000000756550e+01,6.600000000000030287e-01,1.570000000000036033e+00,2.870000000000002274e+03,-2.175000000000023803e+00,-4.945000000000002949e+00,1.341046848790902501e+01,-2.154313631873133517e+00
1.999999999999923617e+01,2.999999997431479049e+00,9.999999999977060128e+00,6.600000000003393152e-01,1.569999999999812434e+00,2.870000000000002274e+03,-2.174999999999815081e+00,-4.945000000000472795e+00,1.340534438371628667e+01,-2.168413393994613525e+00
2.000000000000124700e+01,2.999999999124243644e+00,1.000000000005024958e+01,6.599999999999331957e-01,1.569999999999933227e+00,2.870000000000002274e+03,-2.175000000000151257e+00,-4.945000000000408846e+00,1.341822981879391463e+01,-2.172512678387044982e+00
2.000000000000069633e+01,2.999999998635544785e+00,9.999999999987885246e+00,6.599999999997577804e-01,1.570000000000109974e+00,2.870000000000002274e+03,-2.175000000000200107e+00,-4.944999999999723173e+00,1.338911809561430033e+01,-2.155792888389906015e+00
1.999999999999854339e+01,2.999999997588397971e+00,9.999999999969999109e+00,6.600000000001489120e-01,1.569999999999891482e+00,2.870000000000002274e+03,-2.174999999999961187e+00,-4.945000000000297824e+00,1.338816056084300321e+01,-2.175161723317052154e+00
2.000000000000030198e+01,2.999999999169808973e+00,1.000000000000712852e+01,6.600000000000513234e-01,1.569999999999904139e+00,2.870000000000001819e+03,-2.175000000000005596e+00,-4.945000000000389306e+00,1.341724759426156055e+01,-2.182201327965998860e+00
1.999999999999869971e+01,2.999999998626219799e+00,1.000000000003446665e+01,6.600000000004104805e-01,1.569999999999799112e+00,2.870000000000002274e+03,-2.174999999999720490e+00,-4.945000000000690399e+00,1.341697589540806845e+01,-2.160720172051103116e+00
2.000000000000120437e+01,2.999999998739268481e+00,1.000000000001497291e+01,6.599999999997953060e-01,1.570000000000097540e+00,2.870000000000002274e+03,-2.175000000000124167e+00,-4.944999999999746265e+00,1.340577584249873233e+01,-2.168990289240778413e+00
2.000000000000013856e+01,2.999999998050705496e+00,1.000000000002927258e+01,6.600000000002194112e-01,1.569999999999870610e+00,2.870000000000002274e+03,-2.174999999999817746e+00,-4.945000000000328910e+00,1.340346984563062271e+01,-2.156888297393816156e+00
1.999999999999867839e+01,2.999999998921685673e+00,9.999999999973162801e+00,6.600000000001117195e-01,1.569999999999886597e+00,2.870000000000002728e+03,-2.174999999999955413e+00,-4.945000000000386642e+00,1.339439411087057152e+01,-2.168379841289609811e+00
1.999999999999783640e+01,2.999999998512162147e+00,9.999999999969672260e+00,6.600000000004918599e-01,1.569999999999759588e+00,2.870000000000001819e+03,-2.174999999999650768e+00,-4.945000000000622009e+00,1.341508499795662601e+01,-2.174487851804061567e+00
2.000000000000156675e+01,2.999999997879716940e+00,9.999999999993315569e+00,6.599999999997007150e-01,1.570000000000075557e+00,2.870000000000002274e+03,-2.175000000000220535e+00,-4.944999999999851958e+00,1.342504222725563068e+01,-2.158365437281888344e+00
1.999999999999933920e+01,2.999999998487288710e+00,9.999999999986776800e+00,6.600000000001885470e-01,1.569999999999722951e+00,2.870000000000002274e+03,-2.175000000000035794e+00,-4.945000000000888463e+00,1.339270004977027284e+01,-2.168492207214805401e+00
1.999999999999912959e+01,2.999999995424451615e+00,9.999999999967537079e+00,6.600000000003115597e-01,1.569999999999767581e+00,2.870000000000002274e+03,-2.174999999999942535e+00,-4.945000000000582041e+00,1.340056800013342375e+01,-2.173522842088892126e+00
2.000000000000072475e+01,2.999999999110016358e+00,1.000000000008361312e+01,6.600000000001687850e-01,1.570000000000001839e+00,2.870000000000002274e+03,-2.175000000000022915e+00,-4.945000000000029594e+00,1.340047513684507408e+01,-2.134107465566516204e+00
1.999999999999789679e+01,2.999999998189191164e+00,1.000000000000947686e+01,6.600000000006469580e-01,1.569999999999577289e+00,2.870000000000002274e+03,-2.174999999999764011e+00,-4.945000000001219753e+00,1.340417547837876100e+01,-2.176738000248815474e+00
2.000000000000011369e+01,2.999999999615603041e+00,9.999999999996227018e+00,6.599999999998606981e-01,1.570000000000159046e+00,2.870000000000002274e+03,-2.174999999999865263e+00,-4.944999999999609486e+00,1.340392502570670885e+01,-2.179942768269977904e+00
1.999999999999950617e+01,3.000000000847493631e+00,1.000000000008171774e+01,6.600000000003221068e-01,1.569999999999813323e+00,2.870000000000002274e+03,-2.174999999999895905e+00,-4.945000000000586482e+00,1.342471672562981411e+01,-2.186823089205829351e+00
1.999999999999957367e+01,2.999999999976593834e+00,1.000000000004092726e+01,6.599999999999304201e-01,1.569999999999971863e+00,2.870000000000002274e+03,-2.175000000000049116e+00,-4.945000000000050022e+00,1.338978743197592003e+01,-2.163427559172471426e+00
1.999999999999943157e+01,2.999999999334495016e+00,1.000000000003767653e+01,6.599999999999000000e-01,1.569999999999978746e+00,2.870000000000001819e+03,-2.175000000000055778e+00,-4.945000000000032259e+00,1.339360942842023583e+01,-2.171141701035413263e+00
1.999999999999978684e+01,2.999999997510790717e+00,9.999999999982279064e+00,6.599999999997748779e-01,1.569999999999963425e+00,2.870000000000002274e+03,-2.175000000000252509e+00,-4.945000000000106866e+00,1.340204826429866358e+01,-2.172370768331933544e+00
1.999999999999804601e+01,3.000000000744479589e+00,1.000000000005955592e+01,6.600000000003890532e-01,1.569999999999676765e+00,2.870000000000002274e+03,-2.174999999999877698e+00,-4.945000000000892015e+00,1.340325188728592565e+01,-2.186697708802299189e+00
1.999999999999929656e+01,3.000000000543055378e+00,9.999999999998683720e+00,6.600000000004797585e-01,1.569999999999514007e+00,2.870000000000002274e+03,-2.174999999999823963e+00,-4.945000000001303242e+00,1.340087195865974223e+01,-2.189966676201767104e+00
2.000000000000022737e+01,3.000000000230097275e+00,9.999999999955955232e+00,6.599999999999129896e-01,1.569999999999976747e+00,2.870000000000002274e+03,-2.175000000000076206e+00,-4.945000000000145057e+00,1.342027227793802879e+01,-2.191819999375606898e+00
1.999999999999855049e+01,2.999999998009541535e+00,9.999999999988029131e+00,6.600000000001626788e-01,1.569999999999865947e+00,2.870000000000002274e+03,-2.174999999999913669e+00,-4.945000000000404405e+00,1.341537818710465935e+01,-2.194565130690218080e+00
2.000000000000016698e+01,3.000000000033254288e+00,1.000000000008772005e+01,6.599999999998504840e-01,1.570000000000093765e+00,2.870000000000002274e+03,-2.175000000000135270e+00,-4.944999999999888374e+00,1.340735762766642125e+01,-2.180726427323126604e+00
1.999999999999852918e+01,2.999999999008410967e+00,9.999999999993111288e+00,6.600000000001287059e-01,1.569999999999939888e+00,2.870000000000002274e+03,-2.174999999999741807e+00,-4.945000000000033147e+00,1.341334541279806203e+01,-2.173813372237683339e+00
1.999999999999917222e+01,2.999999999485780222e+00,1.000000000007277734e+01,6.600000000003201084e-01,1.569999999999843521e+00,2.870000000000002274e+03,-2.174999999999806199e+00,-4.945000000000498552e+00,1.341310056648012683e+01,-2.163144846056842319e+00
2.000000000000032685e+01,3.000000000528947552e+00,1.000000000008216894e+01,6.600000000001084999e-01,1.570000000000041362e+00,2.870000000000001364e+03,-2.174999999999857270e+00,-4.945000000000021600e+00,1.341608816727256936e+01,-2.156076405737867852e+00
2.000000000000090239e+01,2.999999998490619824e+00,9.999999999970876630e+00,6.599999999998710232e-01,1.570000000000044471e+00,2.870000000000002728e+03,-2.175000000000057554e+00,-4.945000000000125517e+00,1.339851128418408166e+01,-2.178309051284577968e+00
2.000000000000018474e+01,2.999999998032726101e+00,9.999999999965526243e+00,6.599999999999217604e-01,1.569999999999976081e+00,2.870000000000002728e+03,-2.175000000000088196e+00,-4.945000000000147722e+00,1.339505164894035261e+01,-2.172063323804944268e+00
1.999999999999916866e+01,2.999999999199495448e+00,1.000000000006266099e+01,6.600000000000171285e-01,1.569999999999956097e+00,2.870000000000002274e+03,-2.174999999999924771e+00,-4.944999999999989626e+00,1.340473684005766586e+01,-2.181422482779659333e+00
1.999999999999980460e+01,2.999999997738396207e+00,9.999999999965442754e+00,6.599999999999467404e-01,1.570000000000036033e+00,2.870000000000001819e+03,-2.174999999999954081e+00,-4.945000000000092655e+00,1.341007320575148221e+01,-2.170144764086513245e+00
1.999999999999984723e+01,3.000000000005186518e+00,1.000000000004260414e+01,6.600000000002401723e-01,1.569999999999944551e+00,2.870000000000002274e+03,-2.174999999999844835e+00,-4.945000000000302265e+00,1.340661672911254776e+01,-2.162523204362343243e+00
1.999999999999903011e+01,2.999999999139355999e+00,1.000000000006318324e+01,6.600000000000695310e-01,1.570000000000015605e+00,2.870000000000002274e+03,-2.174999999999868816e+00,-4.944999999999972751e+00,1.340008015183256163e+01,-2.161959666728856089e+00
1.999999999999901590e+01,2.999999998132091505e+00,9.999999999924696681e+00,6.600000000001451372e-01,1.569999999999798890e+00,2.870000000000002274e+03,-2.174999999999970068e+00,-4.945000000000524309e+00,1.340027965943764343e+01,-2.177993097560721569e+00
1.999999999999984013e+01,2.999999999932123185e+00,1.000000000002113154e+01,6.599999999997545608e-01,1.570000000000070450e+00,2.870000000000002274e+03,-2.175000000000088640e+00,-4.944999999999794227e+00,1.339694858619102646e+01,-2.179623206248075817e+00
1.999999999999833378e+01,2.999999998645402233e+00,1.000000000000939515e+01,6.600000000005487033e-01,1.569999999999685203e+00,2.870000000000002274e+03,-2.174999999999730260e+00,-4.945000000001040341e+00,1.341648169220171738e+01,-2.178194229284274197e+00
2.000000000000009237e+01,2.999999999226305114e+00,1.000000000002344258e+01,6.599999999999245359e-01,1.570000000000052021e+00,2.870000000000002274e+03,-2.174999999999994937e+00,-4.944999999999967422e+00,1.341728567242779135e+01,-2.171524167045662423e+00
1.999999999999995381e+01,3.000000000692780500e+00,9.999999999979733545e+00,6.600000000000060263e-01,1.570000000000044915e+00,2.870000000000002274e+03,-2.174999999999949640e+00,-4.944999999999790674e+00,1.340127308045954990e+01,-2.182357446582717131e+00
2.000000000000074962e+01,2.999999997724760448e+00,9.999999999977678300e+00,6.599999999995985744e-01,1.570000000000260520e+00,2.870000000000002274e+03,-2.175000000000016698e+00,-4.944999999999206253e+00,1.339352133496085706e+01,-2.186429794059080667e+00
2.000000000000007105e+01,2.999999998569447879e+00,1.000000000001400657e+01,6.599999999999656142e-01,1.570000000000033813e+00,2.870000000000002274e+03,-2.174999999999907896e+00,-4.944999999999951434e+00,1.340143651433070815e+01,-2.171956835232009553e+00
1.999999999999863221e+01,2.999999998671422308e+00,1.000000000000822986e+01,6.600000000002727019e-01,1.569999999999828866e+00,2.870000000000002274e+03,-2.174999999999811529e+00,-4.945000000000415952e+00,1.338798742120149932e+01,-2.182769064740357035e+00
1.999999999999891642e+01,2.999999998675964008e+00,1.000000000001035261e+01,6.600000000005855627e-01,1.569999999999584173e+00,2.870000000000002274e+03,-2.174999999999692957e+00,-4.945000000001299689e+00,1.340266060969420714e+01,-2.185236133081191134e+00
1.999999999999853273e+01,2.999999999436279818e+00,1.000000000002404477e+01,6.600000000003590772e-01,1.569999999999859730e+00,2.870000000000001819e+03,-2.174999999999708500e+00,-4.945000000000401741e+00,1.340991817659162422e+01,-2.165834798639530323e+00
2.000000000000035882e+01,2.999999998194454065e+00,9.999999999994663824e+00,6.599999999999662803e-01,1.569999999999916351e+00,2.870000000000001819e+03,-2.175000000000054889e+00,-4.945000000000251639e+00,1.340387238326738917e+01,-2.159133013559316971e+00
2.000000000000076383e+01,2.999999998547245639e+00,9.999999999976303400e+00,6.599999999997649969e-01,1.570000000000041140e+00,2.870000000000002274e+03,-2.175000000000153033e+00,-4.944999999999914131e+00,1.341686662541839326e+01,-2.179078595707030885e+00
1.999999999999971934e+01,2.999999998644666821e+00,9.999999999936507677e+00,6.600000000004327960e-01,1.569999999999579066e+00,2.870000000000002274e+03,-2.174999999999853717e+00,-4.945000000001269491e+00,1.340731087960488210e+01,-2.181437983890340160e+00
2.000000000000046896e+01,2.999999998770524812e+00,9.999999999946943774e+00,6.599999999995959099e-01,1.570000000000192131e+00,2.870000000000002274e+03,-2.175000000000128164e+00,-4.944999999999549090e+00,1.339227374580962859e+01,-2.171018148758316446e+00
2.000000000000057199e+01,3.000000000546391377e+00,1.000000000002530776e+01,6.600000000000790790e-01,1.570000000000021600e+00,2.870000000000002274e+03,-2.174999999999922995e+00,-4.945000000000048246e+00,1.341372601176753143e+01,-2.151580934319750060e+00
2.000000000000059330e+01,2.999999999309808096e+00,1.000000000000375167e+01,6.599999999998431566e-01,1.569999999999957430e+00,2.870000000000002274e+03,-2.175000000000125056e+00,-4.945000000000194795e+00,1.341336220403294455e+01,-2.180594283479141193e+00
2.000000000000101963e+01,2.999999997520988781e+00,9.999999999958800956e+00,6.599999999999259792e-01,1.570000000000205675e+00,2.870000000000002274e+03,-2.174999999999858602e+00,-4.944999999999357243e+00,1.342054064370135613e+01,-2.156444083084462893e+00
1.999999999999951328e+01,2.999999997978728850e+00,9.999999999951192819e+00,6.600000000003728440e-01,1.569999999999844187e+00,2.870000000000002274e+03,-2.174999999999576605e+00,-4.945000000000412399e+00,1.339854156331835533e+01,-2.185494185261164901e+00
1.999999999999963407e+01,2.999999998683245739e+00,9.999999999961380226e+00,6.599999999996990496e-01,1.570000000000244089e+00,2.870000000000002274e+03,-2.174999999999927436e+00,-4.944999999999316387e+00,1.341865201543475905e+01,-2.184769551892925765e+00
1.999999999999989342e+01,3.000000000988463089e+00,1.000000000001232792e+01,6.599999999999391909e-01,1.570000000000008944e+00,2.870000000000002274e+03,-2.175000000000048672e+00,-4.944999999999974527e+00,1.340031223409945760e+01,-2.193281634235572763e+00
1.999999999999874944e+01,3.000000000683632262e+00,1.000000000002077982e+01,6.600000000004671019e-01,1.569999999999758478e+00,2.870000000000002274e+03,-2.174999999999756461e+00,-4.945000000000644214e+00,1.342209554454548304e+01,-2.195191264993207270e+00
1.999999999999968381e+01,3.000000000135622180e+00,1.000000000002351719e+01,6.599999999998643618e-01,1.570000000000072893e+00,2.870000000000002274e+03,-2.175000000000018030e+00,-4.944999999999828866e+00,1.341699888732603618e+01,-2.173737803902140442e+00
1.999999999999955946e+01,2.999999999610500900e+00,1.000000000001321965e+01,6.600000000001323697e-01,1.569999999999939444e+00,2.870000000000002728e+03,-2.174999999999966960e+00,-4.945000000000203677e+00,1.341537143217605710e+01,-2.174246671903863781e+00
1.999999999999973710e+01,2.999999998410767699e+00,9.999999999933054440e+00,6.600000000000163514e-01,1.569999999999952323e+00,2.870000000000002274e+03,-2.174999999999952749e+00,-4.945000000000110418e+00,1.340878418869097821e+01,-2.188580692669709116e+00
2.000000000000144595e+01,2.999999999807942075e+00,1.000000000000347278e+01,6.599999999998357181e-01,1.569999999999935447e+00,2.870000000000002728e+03,-2.175000000000162359e+00,-4.945000000000432827e+00,1.340213953251286405e+01,-2.190497885370409126e+00
1.999999999999828049e+01,3.000000000024742430e+00,1.000000000004688872e+01,6.600000000000920686e-01,1.570000000000067342e+00,2.870000000000002274e+03,-2.174999999999777778e+00,-4.944999999999705409e+00,1.339800495788418822e+01,-2.177294231731621732e+00
1.999999999999815259e+01,2.999999999796024941e+00,9.999999999981202592e+00,6.600000000003390932e-01,1.569999999999561524e+00,2.870000000000002274e+03,-2.174999999999917222e+00,-4.945000000001186891e+00,1.339220489383054336e+01,-2.194433009014672198e+00
1.999999999999846167e+01,2.999999999030184217e+00,9.999999999989153565e+00,6.600000000003014566e-01,1.569999999999728946e+00,2.870000000000002274e+03,-2.174999999999888356e+00,-4.945000000000787210e+00,1.339409323637414495e+01,-2.187627809171630577e+00
2.000000000000029488e+01,2.999999998457446360e+00,9.999999999973306686e+00,6.600000000001886580e-01,1.569999999999796447e+00,2.870000000000002274e+03,-2.174999999999963407e+00,-4.945000000000572271e+00,1.340181976048121015e+01,-2.161096278329999620e+00
2.000000000000033396e+01,2.999999999600567513e+00,1.000000000001327827e+01,6.600000000001513545e-01,1.569999999999982521e+00,2.870000000000002274e+03,-2.174999999999921663e+00,-4.945000000000093543e+00,1.340508538519404524e+01,-2.143895038112641593e+00
1.999999999999980105e+01,2.999999998741796681e+00,9.999999999998811617e+00,6.599999999997813172e-01,1.570000000000167928e+00,2.870000000000002274e+03,-2.175000000000012701e+00,-4.944999999999608598e+00,1.342529998536846669e+01,-2.192755922327306539e+00
1.999999999999923972e+01,2.999999997392176709e+00,9.999999999971691977e+00,6.600000000001727818e-01,1.569999999999862839e+00,2.870000000000002274e+03,-2.174999999999909228e+00,-4.945000000000409734e+00,1.340729791944044003e+01,-2.169312015754598200e+00
2.000000000000050093e+01,2.999999997833893595e+00,9.999999999966554753e+00,6.599999999995492805e-01,1.570000000000238316e+00,2.870000000000002274e+03,-2.175000000000097966e+00,-4.944999999999436291e+00,1.339841819456359140e+01,-2.183091431352579992e+00
1.999999999999971578e+01,2.999999999650379223e+00,1.000000000005304379e+01,6.599999999999766054e-01,1.569999999999854845e+00,2.870000000000002274e+03,-2.175000000000128608e+00,-4.945000000000404405e+00,1.342084496839818542e+01,-2.190665524598836011e+00
1.999999999999975486e+01,2.999999998784594446e+00,1.000000000001084821e+01,6.600000000001718936e-01,1.569999999999929674e+00,2.870000000000002274e+03,-2.174999999999888356e+00,-4.945000000000328022e+00,1.342098644474154767e+01,-2.156033715222485991e+00
1.999999999999938183e+01,3.000000000131888278e+00,9.999999999998966160e+00,6.600000000002399503e-01,1.569999999999803997e+00,2.870000000000002274e+03,-2.174999999999913669e+00,-4.945000000000475460e+00,1.340908979121495115e+01,-2.177969188694654168e+00
1.999999999999906208e+01,3.000000000233336905e+00,1.000000000007097256e+01,6.600000000001819966e-01,1.569999999999819096e+00,2.870000000000002274e+03,-2.174999999999911005e+00,-4.945000000000552731e+00,1.341856343035504828e+01,-2.178008875351965745e+00
2.000000000000109779e+01,2.999999999627408709e+00,1.000000000002706813e+01,6.599999999999298650e-01,1.570000000000109752e+00,2.870000000000001364e+03,-2.174999999999990052e+00,-4.944999999999799556e+00,1.341102251160571512e+01,-2.155514267064718492e+00
1.999999999999952394e+01,2.999999999290392072e+00,1.000000000008493117e+01,6.600000000002959055e-01,1.569999999999874385e+00,2.870000000000002274e+03,-2.174999999999843059e+00,-4.945000000000415952e+00,1.341237225387167875e+01,-2.168079315822579733e+00
1.999999999999938538e+01,2.999999998692730596e+00,1.000000000005371525e+01,6.600000000002341771e-01,1.569999999999869722e+00,2.870000000000002274e+03,-2.174999999999850164e+00,-4.945000000000543849e+00,1.341072417928435989e+01,-2.184359100156033850e+00
1.999999999999834799e+01,2.999999999750230018e+00,1.000000000000958522e+01,6.600000000007435474e-01,1.569999999999688978e+00,2.870000000000002274e+03,-2.174999999999497113e+00,-4.945000000000917773e+00,1.339780373934669377e+01,-2.186682594034093707e+00
1.999999999999878142e+01,3.000000000437677450e+00,1.000000000005856826e+01,6.600000000003803935e-01,1.569999999999984519e+00,2.870000000000002274e+03,-2.174999999999615241e+00,-4.945000000000111307e+00,1.340650886081333226e+01,-2.159420201726924393e+00
1.999999999999910116e+01,2.999999998163198622e+00,9.999999999960294872e+00,6.599999999999127676e-01,1.570000000000141949e+00,2.870000000000002274e+03,-2.174999999999789768e+00,-4.944999999999633467e+00,1.341441265922410508e+01,-2.168875732056003702e+00
2.000000000000060041e+01,2.999999999089789426e+00,1.000000000002839506e+01,6.600000000000035838e-01,1.570000000000057572e+00,2.870000000000002274e+03,-2.174999999999975842e+00,-4.944999999999874163e+00,1.340141854333676186e+01,-2.172094542310550658e+00
2.000000000000050093e+01,2.999999997925082873e+00,1.000000000003698375e+01,6.599999999999773825e-01,1.569999999999951878e+00,2.870000000000002274e+03,-2.175000000000178346e+00,-4.945000000000091767e+00,1.339500812152872378e+01,-2.165247928734018501e+00
1.999999999999884182e+01,2.999999999280535068e+00,9.999999999959809927e+00,6.600000000001574607e-01,1.569999999999938334e+00,2.870000000000002274e+03,-2.174999999999886580e+00,-4.944999999999993179e+00,1.338994337017656555e+01,-2.179230298467107030e+00
1.999999999999975131e+01,2.999999998829890657e+00,9.999999999967554842e+00,6.600000000000864064e-01,1.569999999999793561e+00,2.870000000000002274e+03,-2.175000000000055334e+00,-4.945000000000619345e+00,1.339183053114094157e+01,-2.176303913707848814e+00
1.999999999999923972e+01,2.999999998812928670e+00,1.000000000000813571e+01,6.600000000006773782e-01,1.569999999999458939e+00,2.870000000000002274e+03,-2.174999999999863043e+00,-4.945000000001570584e+00,1.338003316340000026e+01,-2.169557845047142219e+00
2.000000000000093436e+01,2.999999998400445289e+00,9.999999999931937111e+00,6.600000000001049472e-01,1.569999999999747375e+00,2.870000000000002274e+03,-2.175000000000046452e+00,-4.945000000000709051e+00,1.338755071690114740e+01,-2.175290174505260410e+00
1.999999999999974420e+01,2.999999998015512315e+00,9.999999999978198773e+00,6.600000000002368417e-01,1.569999999999709850e+00,2.870000000000002274e+03,-2.175000000000006040e+00,-4.945000000000864482e+00,1.339461419690653976e+01,-2.165844007347446976e+00
2.000000000000080291e+01,3.000000001043931608e+00,1.000000000008438050e+01,6.600000000000720846e-01,1.569999999999923013e+00,2.870000000000002274e+03,-2.175000000000042455e+00,-4.945000000000274731e+00,1.341216481144775940e+01,-2.179868198039413674e+00
1.999999999999807443e+01,2.999999998283198632e+00,9.999999999983099741e+00,6.600000000006606138e-01,1.569999999999711626e+00,2.870000000000002274e+03,-2.174999999999672973e+00,-4.945000000000751683e+00,1.339471003278914019e+01,-2.172789353185015759e+00
1.999999999999922551e+01,2.999999998995842798e+00,1.000000000007311662e+01,6.599999999998450440e-01,1.570000000000208562e+00,2.870000000000002274e+03,-2.174999999999803535e+00,-4.944999999999176055e+00,1.341370060069095693e+01,-2.165816370703603333e+00
1.999999999999884892e+01,2.999999999216224733e+00,1.000000000003100453e+01,6.600000000003203304e-01,1.569999999999773355e+00,2.870000000000002274e+03,-2.174999999999900790e+00,-4.945000000000579377e+00,1.340466346140590836e+01,-2.180852546618912147e+00
1.999999999999922196e+01,3.000000000104859232e+00,9.999999999984069632e+00,6.600000000004323519e-01,1.569999999999555085e+00,2.870000000000001819e+03,-2.175000000000007372e+00,-4.945000000001321006e+00,1.340098375094427219e+01,-2.162758379409660314e+00
1.999999999999940314e+01,2.999999997497830861e+00,9.999999999956967756e+00,6.600000000001170486e-01,1.569999999999712292e+00,2.870000000000002274e+03,-2.175000000000241851e+00,-4.945000000000879581e+00,1.341079160436863660e+01,-2.161775090446364178e+00
1.999999999999875655e+01,3.000000000084883212e+00,1.000000000007131895e+01,6.600000000003815037e-01,1.569999999999704743e+00,2.870000000000002728e+03,-2.174999999999916334e+00,-4.945000000000868923e+00,1.342269855998010009e+01,-2.174430150677682416e+00
1.999999999999986144e+01,2.999999998879085528e+00,9.999999999956019181e+00,6.599999999996961630e-01,1.570000000000148388e+00,2.870000000000001819e+03,-2.175000000000084643e+00,-4.944999999999669882e+00,1.340582467065061500e+01,-2.179015175563901785e+00
2.000000000000038369e+01,3.000000000308135295e+00,1.000000000004597389e+01,6.600000000001209344e-01,1.569999999999759144e+00,2.870000000000002274e+03,-2.175000000000036238e+00,-4.945000000000657536e+00,1.341321110470148170e+01,-2.175252522736807581e+00
1.999999999999998579e+01,3.000000000465384176e+00,1.000000000000594191e+01,6.599999999999265343e-01,1.570000000000042917e+00,2.870000000000002274e+03,-2.174999999999988720e+00,-4.944999999999821760e+00,1.340570918749236995e+01,-2.169291062252022506e+00
2.000000000000127898e+01,3.000000000864573746e+00,9.999999999986618704e+00,6.599999999995255218e-01,1.570000000000103979e+00,2.870000000000001819e+03,-2.175000000000269829e+00,-4.944999999999723173e+00,1.339901243938789754e+01,-2.173120246299376834e+00
1.999999999999942091e+01,2.999999999811397977e+00,1.000000000001443112e+01,6.600000000000275646e-01,1.569999999999855955e+00,2.870000000000002274e+03,-2.175000000000084643e+00,-4.945000000000427498e+00,1.341036766127982638e+01,-2.179740031259032040e+00
1.999999999999853273e+01,2.999999997811179320e+00,9.999999999988531840e+00,6.600000000000468825e-01,1.569999999999984519e+00,2.870000000000002274e+03,-2.174999999999971845e+00,-4.944999999999971863e+00,1.340999603073045066e+01,-2.173194157728447706e+00
1.999999999999859313e+01,2.999999997989928335e+00,9.999999999959188202e+00,6.600000000006409628e-01,1.569999999999496465e+00,2.870000000000002274e+03,-2.174999999999804423e+00,-4.945000000001519069e+00,1.341406326152673500e+01,-2.174324104686026882e+00
1.999999999999797140e+01,2.999999998222410369e+00,1.000000000001131006e+01,6.600000000006560619e-01,1.569999999999540874e+00,2.870000000000002274e+03,-2.174999999999804867e+00,-4.945000000001253504e+00,1.341696474224361069e+01,-2.172423993447591961e+00
2.000000000000090239e+01,2.999999998145873370e+00,1.000000000005681677e+01,6.599999999998511502e-01,1.570000000000177032e+00,2.870000000000002274e+03,-2.175000000000023359e+00,-4.944999999999469154e+00,1.341208327997115468e+01,-2.164109004139273207e+00
1.999999999999895905e+01,2.999999998399986545e+00,9.999999999990105692e+00,6.600000000002312905e-01,1.569999999999786899e+00,2.870000000000002274e+03,-2.174999999999986500e+00,-4.945000000000553619e+00,1.340618846722525603e+01,-2.167461079353820708e+00
2.000000000000009237e+01,2.999999998993559736e+00,1.000000000004096634e+01,6.599999999998736877e-01,1.570000000000137952e+00,2.870000000000002274e+03,-2.174999999999982947e+00,-4.944999999999576623e+00,1.340349118690927988e+01,-2.163567090269588711e+00
1.999999999999913669e+01,3.000000000688258783e+00,1.000000000002861533e+01,6.599999999999643929e-01,1.570000000000080220e+00,2.870000000000002274e+03,-2.174999999999842171e+00,-4.944999999999882156e+00,1.340853059197579178e+01,-2.162647042453240243e+00
1.999999999999885958e+01,2.999999999426315789e+00,1.000000000002979839e+01,6.600000000001552403e-01,1.569999999999902807e+00,2.870000000000002274e+03,-2.174999999999906564e+00,-4.945000000000403517e+00,1.341130901916998042e+01,-2.172418662008993806e+00
2.000000000000000000e+01,2.999999999194458145e+00,1.000000000001601563e+01,6.599999999996805089e-01,1.570000000000157270e+00,2.870000000000002274e+03,-2.175000000000126388e+00,-4.944999999999560636e+00,1.341496169032022401e+01,-2.170550660696540568e+00
1.999999999999990763e+01,2.999999999076818469e+00,1.000000000000428280e+01,6.599999999998096278e-01,1.569999999999944773e+00,2.870000000000002274e+03,-2.175000000000244516e+00,-4.945000000000111307e+00,1.340686444142909473e+01,-2.164945596663391036e+00
1.999999999999908695e+01,3.000000000486045870e+00,1.000000000004836664e+01,6.599999999997303579e-01,1.570000000000224993e+00,2.870000000000002274e+03,-2.174999999999968736e+00,-4.944999999999510010e+00,1.340140494538088412e+01,-2.177824752921445395e+00
1.999999999999830180e+01,2.999999997903308735e+00,1.000000000000305178e+01,6.600000000001773337e-01,1.569999999999907692e+00,2.870000000000002274e+03,-2.174999999999864819e+00,-4.945000000000141505e+00,1.342052916477936009e+01,-2.158134950670115959e+00
1.999999999999811706e+01,2.999999998862961537e+00,9.999999999988704147e+00,6.600000000004448975e-01,1.569999999999853513e+00,2.870000000000002274e+03,-2.174999999999658318e+00,-4.945000000000479012e+00,1.341745549525591841e+01,-2.171790800857771320e+00
1.999999999999876721e+01,2.999999998845117588e+00,1.000000000000836664e+01,6.600000000002376188e-01,1.569999999999955653e+00,2.870000000000002274e+03,-2.174999999999757350e+00,-4.945000000000119300e+00,1.341707374410806253e+01,-2.153293841477843085e+00
1.999999999999806377e+01,2.999999999691637775e+00,1.000000000004380674e+01,6.600000000005148415e-01,1.569999999999761586e+00,2.870000000000002274e+03,-2.174999999999672973e+00,-4.945000000000534079e+00,1.342970276022099974e+01,-2.178416969181960816e+00
2.000000000000112976e+01,2.999999999273303519e+00,1.000000000002813039e+01,6.599999999997165911e-01,1.570000000000036033e+00,2.870000000000002274e+03,-2.175000000000215206e+00,-4.944999999999951434e+00,1.339887966971080147e+01,-2.188945645906333670e+00
1.999999999999990763e+01,3.000000000290714119e+00,9.999999999975585752e+00,6.600000000003152234e-01,1.569999999999868834e+00,2.870000000000002274e+03,-2.174999999999807976e+00,-4.945000000000422169e+00,1.342060550616924886e+01,-2.157371054521121767e+00
1.999999999999889511e+01,2.999999999249574056e+00,9.999999999959383601e+00,6.600000000003002354e-01,1.569999999999843743e+00,2.870000000000002274e+03,-2.174999999999823519e+00,-4.945000000000474571e+00,1.339265130634091960e+01,-2.172050954602865680e+00
2.000000000000113687e+01,2.999999998764668163e+00,1.000000000002780887e+01,6.599999999996193356e-01,1.570000000000196350e+00,2.870000000000002274e+03,-2.175000000000217870e+00,-4.944999999999453166e+00,1.340594889621399233e+01,-2.155820416935664952e+00
2.000000000000029132e+01,2.999999998241422716e+00,9.999999999901785230e+00,6.599999999996369882e-01,1.569999999999941664e+00,2.870000000000002274e+03,-2.175000000000305356e+00,-4.945000000000173479e+00,1.340138451244001949e+01,-2.181562797849467827e+00
1.999999999999904432e+01,2.999999997994891032e+00,9.999999999981737275e+00,6.600000000002449463e-01,1.569999999999825091e+00,2.870000000000002274e+03,-2.174999999999917666e+00,-4.945000000000502993e+00,1.339519664433388790e+01,-2.154740911714518425e+00
2.000000000000023448e+01,2.999999998656944111e+00,9.999999999998323119e+00,6.600000000005422640e-01,1.569999999999605933e+00,2.870000000000002274e+03,-2.174999999999852385e+00,-4.945000000001346763e+00,1.342084629605910351e+01,-2.169389588886597053e+00
1.999999999999862510e+01,2.999999999499164183e+00,9.999999999968805398e+00,6.600000000005556977e-01,1.569999999999615037e+00,2.870000000000002274e+03,-2.174999999999763123e+00,-4.945000000001095408e+00,1.341274615364341827e+01,-2.176674651830962759e+00
2.000000000000044409e+01,2.999999997539684049e+00,9.999999999946052043e+00,6.599999999998231726e-01,1.570000000000048024e+00,2.870000000000002274e+03,-2.175000000000064659e+00,-4.944999999999958540e+00,1.339693735990894297e+01,-2.178793961986827732e+00
2.000000000000122569e+01,2.999999999316477428e+00,1.000000000005804068e+01,6.599999999997038236e-01,1.570000000000227880e+00,2.870000000000002274e+03,-2.175000000000081091e+00,-4.944999999999413198e+00,1.338945479725033216e+01,-2.176015560226635781e+00
1.999999999999957012e+01,2.999999999832211106e+00,1.000000000002271605e+01,6.599999999999870415e-01,1.570000000000109752e+00,2.870000000000002274e+03,-2.174999999999937650e+00,-4.944999999999653895e+00,1.339622661044732155e+01,-2.202282487096663743e+00
1.999999999999714362e+01,2.999999998432628878e+00,1.000000000000580513e+01,6.600000000008594547e-01,1.569999999999561080e+00,2.870000000000002274e+03,-2.174999999999639222e+00,-4.945000000001198437e+00,1.340072896380675260e+01,-2.180444790226993224e+00
1.999999999999953815e+01,2.999999998773183130e+00,9.999999999999706901e+00,6.600000000000352252e-01,1.569999999999970086e+00,2.870000000000002274e+03,-2.174999999999879918e+00,-4.945000000000106866e+00,1.341455119770120952e+01,-2.183833814277278407e+00
1.999999999999943512e+01,2.999999999052311406e+00,1.000000000004076384e+01,6.600000000002674838e-01,1.569999999999967422e+00,2.870000000000002274e+03,-2.174999999999762679e+00,-4.945000000000106866e+00,1.341059134923887974e+01,-2.158171621402641627e+00
2.000000000000051159e+01,2.999999999776939763e+00,1.000000000004351719e+01,6.600000000001481348e-01,1.569999999999955209e+00,2.870000000000002274e+03,-2.174999999999843503e+00,-4.945000000000101537e+00,1.340109750975113023e+01,-2.163432479532135577e+00
2.000000000000006750e+01,3.000000000079567020e+00,1.000000000002194511e+01,6.600000000000898481e-01,1.569999999999904583e+00,2.870000000000001819e+03,-2.174999999999950973e+00,-4.945000000000374207e+00,1.340004363215695093e+01,-2.173968488462044046e+00
1.999999999999982592e+01,2.999999998591711403e+00,9.999999999943593565e+00,6.600000000004083711e-01,1.569999999999773577e+00,2.870000000000002274e+03,-2.174999999999793321e+00,-4.945000000000696616e+00,1.340957678756640625e+01,-2.161791440602648162e+00
1.999999999999982947e+01,2.999999997912795369e+00,9.999999999985037746e+00,6.600000000002661515e-01,1.569999999999823759e+00,2.870000000000001819e+03,-2.174999999999932765e+00,-4.945000000000450591e+00,1.341115236860132143e+01,-2.154581232378291578e+00
1.999999999999954881e+01,2.999999999399948880e+00,9.999999999977394083e+00,6.600000000000213474e-01,1.569999999999992513e+00,2.870000000000002274e+03,-2.174999999999988720e+00,-4.944999999999989626e+00,1.339834592195683882e+01,-2.180498449414723705e+00
2.000000000000025935e+01,2.999999998654989231e+00,1.000000000000153655e+01,6.599999999998070743e-01,1.570000000000192353e+00,2.870000000000002274e+03,-2.174999999999876810e+00,-4.944999999999411422e+00,1.341530342397042652e+01,-2.170121801423831265e+00
1.999999999999930012e+01,2.999999996942444458e+00,9.999999999893782743e+00,6.600000000002005374e-01,1.569999999999752260e+00,2.870000000000002274e+03,-2.174999999999954525e+00,-4.945000000000517204e+00,1.339522315729956148e+01,-2.168291651216319504e+00
1.999999999999800693e+01,2.999999996931646873e+00,9.999999999917440263e+00,6.600000000006086553e-01,1.569999999999469376e+00,2.870000000000002274e+03,-2.174999999999791100e+00,-4.945000000001376073e+00,1.338924282105194408e+01,-2.171620089303425427e+00
1.999999999999888800e+01,2.999999996478031949e+00,9.999999999912231985e+00,6.600000000003015677e-01,1.569999999999772911e+00,2.870000000000002274e+03,-2.174999999999794209e+00,-4.945000000000609575e+00,1.337848297416226906e+01,-2.180432395685412139e+00
1.999999999999963052e+01,2.999999996000073388e+00,9.999999999945710982e+00,6.599999999998934497e-01,1.570000000000123519e+00,2.870000000000002274e+03,-2.174999999999811973e+00,-4.944999999999607709e+00,1.340803635141882211e+01,-2.168625435833074544e+00
1.999999999999907985e+01,2.999999998230907128e+00,9.999999999957507768e+00,6.600000000002134160e-01,1.569999999999823759e+00,2.870000000000002274e+03,-2.174999999999827516e+00,-4.945000000000463025e+00,1.338978762028426495e+01,-2.170085387559842260e+00
1.999999999999892708e+01,2.999999997899716497e+00,9.999999999985334398e+00,6.600000000000795231e-01,1.569999999999986962e+00,2.870000000000002274e+03,-2.174999999999835065e+00,-4.945000000000181473e+00,1.342160109638574994e+01,-2.179233359297229278e+00
2.000000000000039435e+01,2.999999998941316637e+00,1.000000000006607692e+01,6.599999999999716094e-01,1.570000000000247198e+00,2.870000000000002274e+03,-2.174999999999773781e+00,-4.944999999999273754e+00,1.342586864215855691e+01,-2.170756233389175005e+00
