1.999999999999968381e+01,2.999999999658088168e+00,9.999999999977120524e+00,6.599999999996742917e-01,1.570000000000194129e+00,2.870000000000001819e+03,-2.175000000000068656e+00,-4.944999999999410534e+00,1.338869505009864191e+01,-2.149533027011892194e+00
1.999999999999981881e+01,2.999999999742128054e+00,9.999999999984014565e+00,6.599999999996002398e-01,1.570000000000174589e+00,2.870000000000001819e+03,-2.175000000000139710e+00,-4.944999999999424745e+00,1.338473870316588865e+01,-2.156815820167529374e+00
1.999999999999980105e+01,2.999999999324060251e+00,9.999999999994132693e+00,6.599999999995052047e-01,1.570000000000381757e+00,2.870000000000001819e+03,-2.175000000000000711e+00,-4.944999999998973550e+00,1.338823519861175981e+01,-2.174419442866940777e+00
1.999999999999997868e+01,2.999999999212239032e+00,1.000000000000983924e+01,6.599999999995362909e-01,1.570000000000340012e+00,2.870000000000001819e+03,-2.175000000000018474e+00,-4.944999999999133422e+00,1.338572713501293165e+01,-2.171580752305664053e+00
2.000000000000034817e+01,2.999999999476305135e+00,9.999999999983121057e+00,6.599999999993536592e-01,1.570000000000437712e+00,2.870000000000001819e+03,-2.175000000000109512e+00,-4.944999999998823448e+00,1.341129469084937220e+01,-2.184570568778786637e+00
1.999999999999987210e+01,2.999999998676213142e+00,9.999999999983046450e+00,6.599999999996165601e-01,1.570000000000253637e+00,2.870000000000001819e+03,-2.175000000000010925e+00,-4.944999999999395435e+00,1.340725449581760564e+01,-2.184297814350012690e+00
1.999999999999920064e+01,2.999999996422940463e+00,9.999999999993940847e+00,6.600000000000225686e-01,1.569999999999925677e+00,2.870000000000001819e+03,-2.175000000000148592e+00,-4.945000000000129958e+00,1.339965431638570870e+01,-2.158595438627844754e+00
1.999999999999934630e+01,2.999999996387439083e+00,9.999999999992519761e+00,6.599999999999228706e-01,1.570000000000012053e+00,2.870000000000001819e+03,-2.175000000000113509e+00,-4.944999999999924789e+00,1.340219900473368320e+01,-2.163658698687829229e+00
1.999999999999954525e+01,2.999999996209218978e+00,9.999999999995825561e+00,6.599999999999176525e-01,1.569999999999990070e+00,2.870000000000001819e+03,-2.175000000000162803e+00,-4.944999999999940776e+00,1.339274806650611183e+01,-2.153821389955012933e+00
1.999999999999927880e+01,2.999999995808046549e+00,9.999999999983034016e+00,6.599999999999899281e-01,1.569999999999982965e+00,2.870000000000001819e+03,-2.175000000000105516e+00,-4.945000000000033147e+00,1.340410041714284795e+01,-2.157183808434860683e+00
1.999999999999917932e+01,2.999999996508158073e+00,1.000000000004081002e+01,6.600000000004045964e-01,1.569999999999679652e+00,2.870000000000001819e+03,-2.174999999999843503e+00,-4.945000000001026130e+00,1.338658391827544314e+01,-2.211207331537733189e+00
1.999999999999956302e+01,2.999999998447303362e+00,1.000000000001929834e+01,6.599999999999796030e-01,1.569999999999996954e+00,2.870000000000001819e+03,-2.175000000000006040e+00,-4.945000000000089990e+00,1.341656977585814126e+01,-2.150435677423212066e+00
1.999999999999976907e+01,2.999999998621801556e+00,1.000000000001965006e+01,6.599999999999016653e-01,1.570000000000021156e+00,2.870000000000001819e+03,-2.175000000000064215e+00,-4.944999999999986073e+00,1.342007044109046809e+01,-2.149538596077607888e+00
1.999999999999966249e+01,2.999999998911805577e+00,1.000000000001623413e+01,6.599999999998817923e-01,1.570000000000080664e+00,2.870000000000001819e+03,-2.175000000000065992e+00,-4.944999999999855511e+00,1.343109416535679124e+01,-2.170622680578929486e+00
2.000000000000000000e+01,2.999999998373004129e+00,1.000000000000084199e+01,6.599999999998702460e-01,1.570000000000059348e+00,2.870000000000001819e+03,-2.175000000000093525e+00,-4.944999999999937224e+00,1.343098373230482068e+01,-2.163562842674860764e+00
1.999999999999941380e+01,2.999999998321789096e+00,1.000000000002338929e+01,6.599999999999242029e-01,1.570000000000040918e+00,2.870000000000001819e+03,-2.175000000000042455e+00,-4.944999999999978968e+00,1.343965936022961216e+01,-2.180248349138032449e+00
1.999999999999962341e+01,2.999999997423704823e+00,1.000000000005271339e+01,6.600000000000786349e-01,1.569999999999908580e+00,2.870000000000001819e+03,-2.175000000000029132e+00,-4.945000000000352891e+00,1.337009326973921830e+01,-2.129148364871013221e+00
1.999999999999921485e+01,2.999999997165797350e+00,1.000000000002954259e+01,6.600000000000946221e-01,1.569999999999971418e+00,2.870000000000001819e+03,-2.174999999999961187e+00,-4.945000000000205453e+00,1.339819047404234631e+01,-2.125190331741596328e+00
1.999999999999970868e+01,2.999999997944448271e+00,9.999999999987299049e+00,6.599999999999854872e-01,1.569999999999976747e+00,2.870000000000001819e+03,-2.174999999999965627e+00,-4.945000000000230322e+00,1.339299503384169121e+01,-2.178598032696689391e+00
1.999999999999874234e+01,2.999999997242193572e+00,9.999999999998717470e+00,6.600000000000861844e-01,1.569999999999916351e+00,2.870000000000001819e+03,-2.174999999999888800e+00,-4.945000000000363549e+00,1.340659697767495651e+01,-2.178430337955716389e+00
1.999999999999986500e+01,2.999999999517589888e+00,9.999999999998630429e+00,6.599999999998800160e-01,1.570000000000036477e+00,2.870000000000001819e+03,-2.175000000000028688e+00,-4.944999999999952323e+00,1.341157174036061228e+01,-2.189632312125322500e+00
1.999999999999912959e+01,2.999999998842505455e+00,9.999999999984913401e+00,6.600000000000246780e-01,1.569999999999958318e+00,2.870000000000001819e+03,-2.174999999999946976e+00,-4.945000000000207230e+00,1.341852570968691793e+01,-2.177196973721925222e+00
1.999999999999892708e+01,2.999999998433934056e+00,9.999999999974003018e+00,6.600000000000184608e-01,1.569999999999904583e+00,2.870000000000001819e+03,-2.174999999999973177e+00,-4.945000000000242757e+00,1.339969208951306712e+01,-2.176594441665546054e+00
1.999999999999921130e+01,2.999999999469901812e+00,9.999999999981490362e+00,6.600000000000018074e-01,1.569999999999955875e+00,2.870000000000001364e+03,-2.175000000000026468e+00,-4.945000000000186802e+00,1.339558341777073380e+01,-2.167497595448908854e+00
1.999999999999903011e+01,2.999999998676804225e+00,9.999999999980587972e+00,6.600000000000532108e-01,1.569999999999899920e+00,2.870000000000001819e+03,-2.175000000000026912e+00,-4.945000000000342233e+00,1.339667190850997969e+01,-2.172468162956979754e+00
1.999999999999934630e+01,2.999999996409267844e+00,1.000000000000661871e+01,6.600000000001073897e-01,1.569999999999981410e+00,2.870000000000001819e+03,-2.174999999999879918e+00,-4.945000000000105089e+00,1.340602565070784458e+01,-2.143590190907524562e+00
1.999999999999957367e+01,2.999999996348721165e+00,9.999999999975349496e+00,6.600000000001113865e-01,1.569999999999930562e+00,2.870000000000001819e+03,-2.174999999999931877e+00,-4.945000000000256968e+00,1.340438944281715550e+01,-2.132188379886563290e+00
2.000000000000029843e+01,2.999999998188193739e+00,1.000000000001486278e+01,6.600000000000231237e-01,1.570000000000005391e+00,2.870000000000001819e+03,-2.175000000000000266e+00,-4.945000000000068674e+00,1.340843114010526449e+01,-2.156540099151853074e+00
2.000000000000013500e+01,2.999999998083473951e+00,1.000000000000178701e+01,6.600000000000412204e-01,1.569999999999954099e+00,2.870000000000001819e+03,-2.175000000000060663e+00,-4.945000000000155715e+00,1.339839158055019297e+01,-2.151281357906765557e+00
1.999999999999916156e+01,2.999999999226121261e+00,1.000000000003377920e+01,6.599999999998973355e-01,1.570000000000307372e+00,2.870000000000001819e+03,-2.174999999999787104e+00,-4.944999999999206253e+00,1.339923603731337209e+01,-2.170921553877595667e+00
1.999999999999940670e+01,2.999999999328431866e+00,1.000000000004340528e+01,6.599999999998527045e-01,1.570000000000345786e+00,2.870000000000001819e+03,-2.174999999999810640e+00,-4.944999999999120988e+00,1.339335335796676318e+01,-2.174184180322264570e+00
1.999999999999871036e+01,2.999999999606433043e+00,1.000000000004063061e+01,6.599999999999193179e-01,1.570000000000293827e+00,2.870000000000001819e+03,-2.174999999999748468e+00,-4.944999999999247997e+00,1.339334164095707891e+01,-2.192044046886826525e+00
1.999999999999866063e+01,3.000000000566530822e+00,1.000000000005321432e+01,6.600000000000094680e-01,1.570000000000178364e+00,2.870000000000001819e+03,-2.174999999999817746e+00,-4.944999999999550866e+00,1.337727697187261988e+01,-2.189279457223161973e+00
1.999999999999954881e+01,2.999999999590498234e+00,1.000000000006487433e+01,6.600000000001107203e-01,1.570000000000021156e+00,2.870000000000001819e+03,-2.175000000000063327e+00,-4.944999999999837748e+00,1.339429763108792670e+01,-2.209531730075644962e+00
1.999999999999969447e+01,2.999999999210946733e+00,1.000000000009298162e+01,6.600000000001267075e-01,1.569999999999909690e+00,2.870000000000001819e+03,-2.175000000000154809e+00,-4.945000000000109530e+00,1.338911131602348270e+01,-2.207413961464120167e+00
2.000000000000032685e+01,2.999999999562481978e+00,1.000000000009098322e+01,6.600000000001127187e-01,1.569999999999923235e+00,2.870000000000001819e+03,-2.175000000000109512e+00,-4.945000000000130846e+00,1.338960859785946766e+01,-2.214916468344116485e+00
2.000000000000008882e+01,2.999999998703173798e+00,1.000000000003191225e+01,6.600000000001218226e-01,1.569999999999889928e+00,2.870000000000001819e+03,-2.174999999999942979e+00,-4.945000000000349338e+00,1.341971406848890069e+01,-2.189921900349371509e+00
2.000000000000007105e+01,2.999999998820344072e+00,9.999999999994797051e+00,6.600000000001959855e-01,1.569999999999803331e+00,2.870000000000001819e+03,-2.174999999999958966e+00,-4.945000000000624674e+00,1.341282961931947781e+01,-2.184641014425114491e+00
1.999999999999993250e+01,2.999999997627319726e+00,1.000000000000544276e+01,6.600000000003437561e-01,1.569999999999780016e+00,2.870000000000001819e+03,-2.174999999999831068e+00,-4.945000000000685070e+00,1.341821539813096820e+01,-2.198591553107674290e+00
1.999999999999977618e+01,2.999999997448006273e+00,9.999999999989926280e+00,6.600000000003010125e-01,1.569999999999784235e+00,2.870000000000001819e+03,-2.174999999999869260e+00,-4.945000000000662865e+00,1.341559783942546780e+01,-2.194642511088975123e+00
1.999999999999955591e+01,2.999999997725020240e+00,9.999999999998992806e+00,6.600000000003604095e-01,1.569999999999802887e+00,2.870000000000001819e+03,-2.174999999999722711e+00,-4.945000000000669971e+00,1.341475494637581711e+01,-2.189008154442535936e+00
1.999999999999958433e+01,2.999999997755327996e+00,9.999999999997402966e+00,6.600000000003291012e-01,1.569999999999838636e+00,2.870000000000001819e+03,-2.174999999999814637e+00,-4.945000000000549178e+00,1.342263939686823981e+01,-2.172113926688113761e+00
1.999999999999962697e+01,2.999999998256365874e+00,9.999999999982678744e+00,6.600000000003307665e-01,1.569999999999786899e+00,2.870000000000001819e+03,-2.174999999999855049e+00,-4.945000000000622009e+00,1.341677127929541058e+01,-2.172278953213418795e+00
1.999999999999911182e+01,2.999999996584721274e+00,9.999999999986894039e+00,6.600000000004285772e-01,1.569999999999747597e+00,2.870000000000001819e+03,-2.174999999999851497e+00,-4.945000000000691287e+00,1.340986019852113387e+01,-2.161497468875277939e+00
1.999999999999930367e+01,2.999999996513595057e+00,9.999999999987355892e+00,6.600000000004029310e-01,1.569999999999739826e+00,2.870000000000001819e+03,-2.174999999999907896e+00,-4.945000000000687734e+00,1.340904096667374823e+01,-2.160100383002965252e+00
2.000000000000077804e+01,2.999999999247776383e+00,1.000000000003218403e+01,6.599999999998704681e-01,1.570000000000092877e+00,2.870000000000001819e+03,-2.175000000000072653e+00,-4.944999999999617479e+00,1.341969108034594882e+01,-2.183307531377977728e+00
2.000000000000069278e+01,2.999999999193162736e+00,1.000000000004440714e+01,6.599999999998662492e-01,1.570000000000181695e+00,2.870000000000001819e+03,-2.174999999999933209e+00,-4.944999999999382112e+00,1.343097099864679222e+01,-2.158254093811239116e+00
2.000000000000060751e+01,3.000000000010941914e+00,1.000000000004835421e+01,6.599999999999146549e-01,1.570000000000178142e+00,2.870000000000001819e+03,-2.174999999999918110e+00,-4.944999999999430074e+00,1.342678961030554419e+01,-2.177195980733079850e+00
2.000000000000041211e+01,2.999999999572612097e+00,1.000000000005736389e+01,6.599999999998407141e-01,1.570000000000218110e+00,2.870000000000001819e+03,-2.175000000000007816e+00,-4.944999999999283524e+00,1.342483291007168233e+01,-2.185895441775629333e+00
2.000000000000063238e+01,2.999999999547514840e+00,9.999999999999426237e+00,6.599999999996368771e-01,1.570000000000240981e+00,2.870000000000001819e+03,-2.175000000000186784e+00,-4.944999999999308393e+00,1.342646372636250263e+01,-2.175065513606096346e+00
1.999999999999991473e+01,2.999999998738916762e+00,1.000000000000561329e+01,6.599999999996997158e-01,1.570000000000222995e+00,2.870000000000001819e+03,-2.175000000000077982e+00,-4.944999999999307505e+00,1.342839349769267976e+01,-2.179961283988002485e+00
1.999999999999988276e+01,2.999999998945567903e+00,1.000000000001784173e+01,6.599999999996818412e-01,1.570000000000169038e+00,2.870000000000001819e+03,-2.175000000000212097e+00,-4.944999999999423856e+00,1.343472244127601911e+01,-2.170508434971301970e+00
1.999999999999942091e+01,2.999999998654209410e+00,1.000000000001603695e+01,6.599999999999152100e-01,1.570000000000032481e+00,2.870000000000001819e+03,-2.175000000000133493e+00,-4.944999999999835971e+00,1.343077846033438938e+01,-2.164406054407027824e+00
2.000000000000007816e+01,2.999999999557434016e+00,1.000000000000584954e+01,6.599999999997899769e-01,1.570000000000117524e+00,2.870000000000001819e+03,-2.175000000000103295e+00,-4.944999999999679652e+00,1.343774866174903515e+01,-2.168394036637619759e+00
1.999999999999977263e+01,2.999999998810110480e+00,1.000000000000580691e+01,6.599999999998773514e-01,1.570000000000039142e+00,2.870000000000001819e+03,-2.175000000000173905e+00,-4.944999999999803997e+00,1.343415151924335227e+01,-2.180952159049204919e+00
1.999999999999986855e+01,2.999999998994928863e+00,1.000000000000803446e+01,6.599999999998383826e-01,1.570000000000061124e+00,2.870000000000001819e+03,-2.175000000000163247e+00,-4.944999999999745377e+00,1.342067427823456605e+01,-2.155273626698520850e+00
1.999999999999911182e+01,2.999999997306467048e+00,9.999999999985632826e+00,6.599999999999816014e-01,1.570000000000048912e+00,2.870000000000001819e+03,-2.174999999999944755e+00,-4.944999999999817319e+00,1.339334370413986441e+01,-2.134310485499264498e+00
1.999999999999945643e+01,2.999999998461558626e+00,9.999999999995482725e+00,6.599999999999265343e-01,1.570000000000130402e+00,2.870000000000001819e+03,-2.174999999999911893e+00,-4.944999999999598828e+00,1.339019721810886487e+01,-2.146467356597324905e+00
1.999999999999910472e+01,2.999999998837742154e+00,9.999999999942403406e+00,6.600000000002079759e-01,1.569999999999896811e+00,2.870000000000001819e+03,-2.174999999999819078e+00,-4.945000000000373319e+00,1.340065995623830375e+01,-2.200318620454443597e+00
1.999999999999856115e+01,2.999999998247290023e+00,9.999999999971405984e+00,6.600000000003629630e-01,1.569999999999846629e+00,2.870000000000001819e+03,-2.174999999999779554e+00,-4.945000000000418616e+00,1.339026248692314702e+01,-2.194233906931140066e+00
1.999999999999852562e+01,2.999999997778169281e+00,9.999999999990896171e+00,6.600000000004322409e-01,1.569999999999594831e+00,2.870000000000001819e+03,-2.174999999999935429e+00,-4.945000000001203766e+00,1.339405091667537917e+01,-2.177914997474263092e+00
1.999999999999880984e+01,2.999999997714811073e+00,9.999999999987069899e+00,6.600000000003074518e-01,1.569999999999652784e+00,2.870000000000001819e+03,-2.175000000000037570e+00,-4.945000000001041229e+00,1.339753262846990189e+01,-2.183917191911885602e+00
1.999999999999857891e+01,2.999999997596076717e+00,9.999999999979984011e+00,6.600000000004244693e-01,1.569999999999582618e+00,2.870000000000001819e+03,-2.174999999999990052e+00,-4.945000000001247287e+00,1.340082485518371946e+01,-2.162481790947302418e+00
1.999999999999854694e+01,2.999999996913297551e+00,9.999999999958037122e+00,6.600000000003853895e-01,1.569999999999592166e+00,2.870000000000001819e+03,-2.175000000000035794e+00,-4.945000000001202878e+00,1.340578607947695744e+01,-2.168948768521650194e+00
1.999999999999838352e+01,2.999999997307143396e+00,1.000000000000510347e+01,6.600000000004905276e-01,1.569999999999573737e+00,2.870000000000001819e+03,-2.174999999999856382e+00,-4.945000000001350315e+00,1.341092495581784405e+01,-2.187126889720697687e+00
1.999999999999929656e+01,2.999999996961015825e+00,9.999999999990128785e+00,6.600000000001030598e-01,1.569999999999846851e+00,2.870000000000001819e+03,-2.175000000000100187e+00,-4.945000000000492335e+00,1.340862639491040831e+01,-2.168710948010819983e+00
1.999999999999918643e+01,2.999999996710855932e+00,9.999999999970095033e+00,6.600000000001243761e-01,1.569999999999790674e+00,2.870000000000001819e+03,-2.175000000000175682e+00,-4.945000000000615792e+00,1.340543848458228382e+01,-2.163882638385379309e+00
1.999999999999985079e+01,2.999999997662643025e+00,1.000000000003978151e+01,6.599999999999250910e-01,1.569999999999935891e+00,2.870000000000001819e+03,-2.175000000000056666e+00,-4.945000000000157492e+00,1.337355001227906115e+01,-2.181498748221812001e+00
2.000000000000002487e+01,2.999999997760573134e+00,1.000000000002374101e+01,6.599999999998704681e-01,1.569999999999957874e+00,2.870000000000001819e+03,-2.175000000000134825e+00,-4.945000000000074003e+00,1.337950810661661194e+01,-2.186232755619247126e+00
1.999999999999953815e+01,3.000000000041879833e+00,1.000000000002612843e+01,6.599999999999343059e-01,1.570000000000080220e+00,2.870000000000001819e+03,-2.174999999999923439e+00,-4.944999999999745377e+00,1.343569118428331244e+01,-2.183083475360332759e+00
1.999999999999956657e+01,2.999999999658750749e+00,1.000000000004997069e+01,6.599999999999440758e-01,1.570000000000071338e+00,2.870000000000001819e+03,-2.174999999999883915e+00,-4.944999999999773799e+00,1.342533991878567434e+01,-2.162050173451168789e+00
1.999999999999948486e+01,2.999999999668559791e+00,1.000000000004335199e+01,6.599999999999501821e-01,1.569999999999994067e+00,2.870000000000001819e+03,-2.174999999999979838e+00,-4.944999999999942553e+00,1.341666510048042227e+01,-2.184105293149201099e+00
1.999999999999912603e+01,3.000000000121721300e+00,1.000000000003763567e+01,6.600000000000533218e-01,1.569999999999922347e+00,2.870000000000001819e+03,-2.174999999999891465e+00,-4.945000000000267626e+00,1.342176053076816622e+01,-2.172138354067614241e+00
2.000000000000065015e+01,2.999999998794955047e+00,1.000000000000661871e+01,6.599999999998796829e-01,1.570000000000207452e+00,2.870000000000001819e+03,-2.174999999999961631e+00,-4.944999999999618367e+00,1.340744814093815762e+01,-2.186368431700868253e+00
2.000000000000038369e+01,2.999999997976093624e+00,9.999999999999742428e+00,6.599999999999551781e-01,1.570000000000162377e+00,2.870000000000001819e+03,-2.174999999999929656e+00,-4.944999999999687645e+00,1.342229417511471645e+01,-2.175034496908172521e+00
2.000000000000074607e+01,2.999999997795044226e+00,1.000000000000643574e+01,6.599999999997993028e-01,1.570000000000163931e+00,2.870000000000001819e+03,-2.175000000000061107e+00,-4.944999999999633467e+00,1.342834025901376371e+01,-2.171780055014584931e+00
1.999999999999865707e+01,2.999999999750927682e+00,1.000000000004348877e+01,6.600000000002491651e-01,1.569999999999941442e+00,2.870000000000001819e+03,-2.174999999999571276e+00,-4.945000000000209894e+00,1.340549456161632236e+01,-2.203002122008921315e+00
1.999999999999837286e+01,2.999999999125559924e+00,1.000000000003229417e+01,6.600000000003154454e-01,1.569999999999883489e+00,2.870000000000001819e+03,-2.174999999999573941e+00,-4.945000000000336904e+00,1.338970364542045210e+01,-2.164692632460059940e+00
1.999999999999810996e+01,2.999999998937929124e+00,1.000000000004489742e+01,6.600000000003677370e-01,1.569999999999837970e+00,2.870000000000001819e+03,-2.174999999999555289e+00,-4.945000000000448814e+00,1.339070867663559561e+01,-2.160989444416991478e+00
1.999999999999878497e+01,2.999999999992152055e+00,1.000000000006812861e+01,6.600000000001754463e-01,1.569999999999990514e+00,2.870000000000001819e+03,-2.174999999999658318e+00,-4.945000000000049134e+00,1.340943095798940021e+01,-2.201608929045841379e+00
1.999999999999930367e+01,2.999999999486999247e+00,1.000000000002212985e+01,6.600000000002389511e-01,1.569999999999908580e+00,2.870000000000001819e+03,-2.174999999999725819e+00,-4.945000000000283613e+00,1.340274885194427945e+01,-2.192773257005521614e+00
1.999999999999893063e+01,2.999999999947450924e+00,1.000000000005406342e+01,6.600000000002282929e-01,1.569999999999927898e+00,2.870000000000001819e+03,-2.174999999999700950e+00,-4.945000000000201013e+00,1.339009165671496504e+01,-2.193846903732021847e+00
2.000000000000035527e+01,3.000000000716545490e+00,9.999999999991034727e+00,6.599999999998904521e-01,1.570000000000061569e+00,2.870000000000001819e+03,-2.174999999999962075e+00,-4.944999999999878604e+00,1.338283841335221069e+01,-2.189209438309252409e+00
2.000000000000075673e+01,3.000000000559663427e+00,9.999999999984174437e+00,6.599999999997668843e-01,1.570000000000166374e+00,2.870000000000001819e+03,-2.175000000000022471e+00,-4.944999999999563300e+00,1.338169873926386444e+01,-2.191358973244438069e+00
2.000000000000058265e+01,3.000000000913086495e+00,9.999999999973075759e+00,6.599999999998604761e-01,1.570000000000079998e+00,2.870000000000001819e+03,-2.175000000000028688e+00,-4.944999999999859952e+00,1.337749729081469496e+01,-2.180210960257578989e+00
2.000000000000060751e+01,3.000000000982486537e+00,9.999999999975923259e+00,6.599999999998558131e-01,1.570000000000118412e+00,2.870000000000001819e+03,-2.175000000000017586e+00,-4.944999999999788898e+00,1.338477639766179372e+01,-2.182494531612840571e+00
2.000000000000147793e+01,3.000000001332523425e+00,1.000000000002337153e+01,6.599999999994158317e-01,1.570000000000370877e+00,2.870000000000001819e+03,-2.175000000000098854e+00,-4.944999999999057039e+00,1.340108262586235632e+01,-2.192811659343059105e+00
2.000000000000146727e+01,3.000000000912459885e+00,1.000000000001675282e+01,6.599999999994349276e-01,1.570000000000329798e+00,2.870000000000001819e+03,-2.175000000000112177e+00,-4.944999999999112106e+00,1.341013065924642156e+01,-2.177017486641032118e+00
2.000000000000098055e+01,3.000000000708899162e+00,1.000000000001395506e+01,6.599999999996279954e-01,1.570000000000169704e+00,2.870000000000001819e+03,-2.175000000000194778e+00,-4.944999999999479812e+00,1.338725599252274634e+01,-2.200187586466012313e+00
2.000000000000015987e+01,2.999999998395572298e+00,9.999999999991116439e+00,6.599999999999337508e-01,1.569999999999918572e+00,2.870000000000001819e+03,-2.174999999999960298e+00,-4.945000000000208118e+00,1.341615620532163433e+01,-2.126914785378807959e+00
2.000000000000047606e+01,2.999999998055769002e+00,9.999999999980332177e+00,6.599999999998763522e-01,1.569999999999954321e+00,2.870000000000001819e+03,-2.174999999999985167e+00,-4.945000000000095319e+00,1.341607003181588276e+01,-2.125354402889653382e+00
2.000000000000083844e+01,3.000000000670508982e+00,1.000000000006140688e+01,6.599999999998962252e-01,1.570000000000129514e+00,2.870000000000001819e+03,-2.174999999999842615e+00,-4.944999999999533102e+00,1.338747829290886493e+01,-2.197268406991927936e+00
2.000000000000088107e+01,3.000000000570747893e+00,1.000000000004387957e+01,6.599999999999131006e-01,1.570000000000039142e+00,2.870000000000001819e+03,-2.174999999999934541e+00,-4.944999999999736495e+00,1.338216005757935356e+01,-2.188974818384614274e+00
2.000000000000027711e+01,3.000000000421835011e+00,1.000000000006910561e+01,6.600000000001463585e-01,1.569999999999870832e+00,2.870000000000001819e+03,-2.174999999999913669e+00,-4.945000000000154827e+00,1.336569904070599257e+01,-2.173804067466027945e+00
2.000000000000050449e+01,3.000000000588606497e+00,1.000000000007765344e+01,6.600000000001399192e-01,1.569999999999918794e+00,2.870000000000001819e+03,-2.174999999999868816e+00,-4.945000000000027818e+00,1.337715203480963488e+01,-2.170642334658614114e+00
2.000000000000110134e+01,3.000000000349381413e+00,1.000000000006359357e+01,6.599999999999525135e-01,1.569999999999987406e+00,2.870000000000001819e+03,-2.174999999999994049e+00,-4.944999999999909690e+00,1.338324434840786914e+01,-2.192949206055279987e+00
2.000000000000093436e+01,3.000000000196261674e+00,1.000000000007123013e+01,6.600000000000564304e-01,1.569999999999930562e+00,2.870000000000001819e+03,-2.174999999999948752e+00,-4.945000000000077556e+00,1.337845746781914791e+01,-2.180005260926543009e+00
2.000000000000031974e+01,2.999999998888140063e+00,1.000000000000496847e+01,6.600000000001462475e-01,1.569999999999741824e+00,2.870000000000001819e+03,-2.175000000000051337e+00,-4.945000000000518092e+00,1.341041540307576341e+01,-2.130269409754550480e+00
2.000000000000003908e+01,2.999999998737862494e+00,9.999999999983950616e+00,6.600000000001372547e-01,1.569999999999807994e+00,2.870000000000001819e+03,-2.174999999999974065e+00,-4.945000000000390195e+00,1.340938977758045247e+01,-2.126401409258107833e+00
2.000000000000033751e+01,2.999999998619406583e+00,9.999999999998479439e+00,6.600000000001393641e-01,1.569999999999696305e+00,2.870000000000001819e+03,-2.175000000000072653e+00,-4.945000000000734808e+00,1.340973872012049206e+01,-2.123717944199815300e+00
2.000000000000030198e+01,2.999999999011498719e+00,1.000000000000131450e+01,6.600000000001529088e-01,1.569999999999719398e+00,2.870000000000001819e+03,-2.175000000000007816e+00,-4.945000000000704610e+00,1.340471124796546576e+01,-2.138954127908164971e+00
2.000000000000108358e+01,2.999999999252772831e+00,9.999999999982504661e+00,6.599999999998507061e-01,1.570000000000140838e+00,2.870000000000001819e+03,-2.174999999999929212e+00,-4.944999999999549978e+00,1.341064863705321741e+01,-2.145950243720390116e+00
2.000000000000119726e+01,2.999999999194614020e+00,9.999999999980767384e+00,6.599999999998645839e-01,1.570000000000163931e+00,2.870000000000001819e+03,-2.174999999999886136e+00,-4.944999999999505569e+00,1.341463151878207682e+01,-2.147545158975435076e+00
2.000000000000082423e+01,2.999999999817902108e+00,9.999999999975553777e+00,6.599999999998975575e-01,1.570000000000134399e+00,2.870000000000001819e+03,-2.174999999999926104e+00,-4.944999999999630802e+00,1.342543549892245380e+01,-2.162944511442368434e+00
2.000000000000067857e+01,2.999999998994697492e+00,9.999999999982994936e+00,6.599999999998950040e-01,1.570000000000088214e+00,2.870000000000001819e+03,-2.174999999999948308e+00,-4.944999999999703633e+00,1.341624183182391228e+01,-2.151105457307403324e+00
2.000000000000056488e+01,2.999999998635878296e+00,9.999999999969132247e+00,6.599999999999189848e-01,1.570000000000073781e+00,2.870000000000001819e+03,-2.174999999999966072e+00,-4.944999999999761364e+00,1.340881240810747599e+01,-2.145175445317519802e+00
2.000000000000074607e+01,2.999999999460678080e+00,9.999999999990654587e+00,6.599999999998578115e-01,1.570000000000208784e+00,2.870000000000001819e+03,-2.174999999999772005e+00,-4.944999999999473594e+00,1.342677346630248891e+01,-2.179239696805007842e+00
2.000000000000089528e+01,2.999999999814846774e+00,1.000000000001655209e+01,6.599999999997411271e-01,1.570000000000279394e+00,2.870000000000001819e+03,-2.174999999999855049e+00,-4.944999999999297735e+00,1.342551661114886663e+01,-2.159479203351102328e+00
2.000000000000057909e+01,2.999999999687232854e+00,1.000000000000581224e+01,6.599999999998203970e-01,1.570000000000179918e+00,2.870000000000001819e+03,-2.174999999999909228e+00,-4.944999999999426521e+00,1.340823547995606368e+01,-2.159421858205360589e+00
2.000000000000091660e+01,2.999999999744318302e+00,1.000000000000402345e+01,6.599999999998206190e-01,1.570000000000172591e+00,2.870000000000001819e+03,-2.174999999999893685e+00,-4.944999999999457607e+00,1.342127296729144526e+01,-2.156999921191860459e+00
2.000000000000055067e+01,2.999999999073259094e+00,9.999999999972978060e+00,6.600000000000524336e-01,1.570000000000008278e+00,2.870000000000001819e+03,-2.174999999999897238e+00,-4.945000000000158380e+00,1.342215448974822678e+01,-2.195909878642170909e+00
2.000000000000026290e+01,2.999999999091814917e+00,9.999999999979374721e+00,6.599999999999947020e-01,1.570000000000000062e+00,2.870000000000001819e+03,-2.175000000000000266e+00,-4.945000000000034035e+00,1.341916606641915521e+01,-2.176688444091334329e+00
2.000000000000095213e+01,2.999999999269969297e+00,9.999999999982861709e+00,6.599999999999139888e-01,1.570000000000012497e+00,2.870000000000001819e+03,-2.174999999999988720e+00,-4.945000000000042917e+00,1.339497411250150627e+01,-2.161442603343001867e+00
2.000000000000071765e+01,2.999999999329451050e+00,9.999999999977063680e+00,6.599999999999910383e-01,1.570000000000000728e+00,2.870000000000001819e+03,-2.174999999999947864e+00,-4.945000000000073115e+00,1.339592095005755290e+01,-2.160558025669740534e+00
1.999999999999969447e+01,3.000000000067687633e+00,1.000000000003238299e+01,6.600000000000715294e-01,1.570000000000041807e+00,2.870000000000001819e+03,-2.174999999999835065e+00,-4.944999999999926565e+00,1.339266422980717053e+01,-2.206167746473488567e+00
1.999999999999990052e+01,2.999999999093596159e+00,1.000000000005410428e+01,6.600000000002335110e-01,1.569999999999967200e+00,2.870000000000001819e+03,-2.174999999999808420e+00,-4.945000000000158380e+00,1.339038119546539463e+01,-2.169754504408461848e+00
1.999999999999994316e+01,2.999999999702745335e+00,1.000000000006235901e+01,6.600000000002017586e-01,1.569999999999995177e+00,2.870000000000001819e+03,-2.174999999999862599e+00,-4.945000000000028706e+00,1.338204701174091937e+01,-2.174702580126742557e+00
1.999999999999942801e+01,2.999999999739997758e+00,1.000000000006208545e+01,6.600000000002896883e-01,1.569999999999928786e+00,2.870000000000001819e+03,-2.174999999999774669e+00,-4.945000000000321805e+00,1.339489774785297094e+01,-2.169303872440045744e+00
1.999999999999988276e+01,2.999999999600492462e+00,1.000000000005060841e+01,6.600000000001360334e-01,1.570000000000033813e+00,2.870000000000001819e+03,-2.174999999999822631e+00,-4.945000000000002949e+00,1.338960092733403329e+01,-2.170984715197730619e+00
2.000000000000022737e+01,2.999999998982814109e+00,1.000000000005879741e+01,6.600000000000131317e-01,1.570000000000132401e+00,2.870000000000001819e+03,-2.174999999999915001e+00,-4.944999999999669882e+00,1.341340187978378928e+01,-2.188723083870131703e+00
1.999999999999975131e+01,3.000000001723380549e+00,9.999999999900829550e+00,6.600000000000153522e-01,1.569999999999899476e+00,2.870000000000001819e+03,-2.175000000000038014e+00,-4.945000000000330687e+00,1.337007273284532438e+01,-2.143742429025297547e+00
1.999999999999954525e+01,3.000000001126743143e+00,9.999999999901577397e+00,6.600000000001496891e-01,1.569999999999822871e+00,2.870000000000001819e+03,-2.174999999999966072e+00,-4.945000000000562501e+00,1.337406614779478176e+01,-2.142278870215731157e+00
2.000000000000002487e+01,2.999999997745668612e+00,9.999999999974553688e+00,6.600000000003688472e-01,1.569999999999684093e+00,2.870000000000001819e+03,-2.175000000000007372e+00,-4.945000000000852936e+00,1.335645088070501174e+01,-2.164080798441798237e+00
1.999999999999985789e+01,3.000000001509130598e+00,1.000000000004061462e+01,6.600000000001993161e-01,1.569999999999790008e+00,2.870000000000001819e+03,-2.175000000000104627e+00,-4.945000000000534968e+00,1.340828448257396310e+01,-2.206618982477457358e+00
2.000000000000017053e+01,3.000000001289981455e+00,1.000000000005509548e+01,6.600000000002412825e-01,1.569999999999744489e+00,2.870000000000001819e+03,-2.175000000000099742e+00,-4.945000000000741025e+00,1.337883602278868267e+01,-2.203576187266333086e+00
1.999999999999949551e+01,3.000000001256800886e+00,9.999999999987748467e+00,6.600000000005447065e-01,1.569999999999672102e+00,2.870000000000001819e+03,-2.174999999999709388e+00,-4.945000000001218865e+00,1.341280704259150269e+01,-2.196756027789259935e+00
1.999999999999940314e+01,3.000000001203309008e+00,1.000000000000511768e+01,6.600000000005837864e-01,1.569999999999620366e+00,2.870000000000001819e+03,-2.174999999999776001e+00,-4.945000000001276597e+00,1.342375806045880893e+01,-2.170345353002358202e+00
1.999999999999994316e+01,3.000000000195987226e+00,9.999999999972667197e+00,6.600000000004387912e-01,1.569999999999720508e+00,2.870000000000001819e+03,-2.174999999999817746e+00,-4.945000000001062546e+00,1.344269290212061563e+01,-2.170107179480122550e+00
1.999999999999894840e+01,3.000000001014179407e+00,1.000000000001958433e+01,6.600000000003842793e-01,1.569999999999743157e+00,2.870000000000001819e+03,-2.174999999999855049e+00,-4.945000000000757900e+00,1.338749914672983543e+01,-2.190312035163911375e+00
1.999999999999842260e+01,3.000000000591074745e+00,1.000000000004396306e+01,6.600000000005405987e-01,1.569999999999631912e+00,2.870000000000001819e+03,-2.174999999999867928e+00,-4.945000000001074092e+00,1.338525040612526595e+01,-2.203816687618219028e+00
1.999999999999900524e+01,3.000000000719162507e+00,1.000000000002551737e+01,6.600000000005862288e-01,1.569999999999533102e+00,2.870000000000001819e+03,-2.174999999999915890e+00,-4.945000000001293472e+00,1.338550141899134616e+01,-2.207744219907921135e+00
1.999999999999860734e+01,2.999999999609782808e+00,1.000000000000884981e+01,6.600000000003287681e-01,1.569999999999839524e+00,2.870000000000001819e+03,-2.174999999999793765e+00,-4.945000000000584706e+00,1.335696856062871696e+01,-2.164349981196509010e+00
1.999999999999873879e+01,2.999999999477637402e+00,1.000000000001833911e+01,6.600000000002197442e-01,1.569999999999927898e+00,2.870000000000001819e+03,-2.174999999999795985e+00,-4.945000000000327134e+00,1.335685766743564074e+01,-2.161922375151862585e+00
2.000000000000017053e+01,2.999999999160306352e+00,1.000000000000837375e+01,6.600000000002677059e-01,1.569999999999886819e+00,2.870000000000001819e+03,-2.174999999999736922e+00,-4.945000000000330687e+00,1.338937863307598874e+01,-2.107970939920248199e+00
2.000000000000054001e+01,2.999999998933887024e+00,9.999999999983673504e+00,6.600000000000836309e-01,1.570000000000004725e+00,2.870000000000001819e+03,-2.174999999999799094e+00,-4.945000000000014495e+00,1.342683423730938408e+01,-2.125634166031878269e+00
2.000000000000047251e+01,2.999999999635532877e+00,9.999999999992528643e+00,6.600000000000979528e-01,1.570000000000009166e+00,2.870000000000001819e+03,-2.174999999999776001e+00,-4.945000000000021600e+00,1.342539099267823310e+01,-2.135857938959616842e+00
1.999999999999928590e+01,2.999999999621925983e+00,1.000000000002682654e+01,6.600000000005198375e-01,1.569999999999728058e+00,2.870000000000001819e+03,-2.174999999999853717e+00,-4.945000000000741025e+00,1.339184481310393693e+01,-2.177248728489465268e+00
1.999999999999971223e+01,3.000000000359755337e+00,1.000000000003162981e+01,6.600000000005314948e-01,1.569999999999728058e+00,2.870000000000001819e+03,-2.174999999999839506e+00,-4.945000000000768559e+00,1.338744921200163596e+01,-2.174155143051476280e+00
1.999999999999887024e+01,3.000000000336640937e+00,1.000000000003605649e+01,6.600000000006851497e-01,1.569999999999672102e+00,2.870000000000001819e+03,-2.174999999999684963e+00,-4.945000000000987939e+00,1.340548112033656203e+01,-2.180845135405322655e+00
1.999999999999860734e+01,2.999999999689863639e+00,1.000000000007370993e+01,6.600000000008190426e-01,1.569999999999565743e+00,2.870000000000001819e+03,-2.174999999999595257e+00,-4.945000000001232188e+00,1.339060423268777100e+01,-2.128666063935781061e+00
1.999999999999855405e+01,2.999999999768367953e+00,1.000000000008514256e+01,6.600000000009151879e-01,1.569999999999544649e+00,2.870000000000001819e+03,-2.174999999999532641e+00,-4.945000000001381402e+00,1.339150153175640057e+01,-2.135288551997607698e+00
1.999999999999756639e+01,3.000000000199396055e+00,9.999999999975745624e+00,6.600000000003392042e-01,1.569999999999804441e+00,2.870000000000001819e+03,-2.174999999999873257e+00,-4.945000000000463913e+00,1.338547647911871863e+01,-2.152939168962943128e+00
1.999999999999783995e+01,2.999999999994444888e+00,9.999999999962886577e+00,6.600000000002416156e-01,1.569999999999874607e+00,2.870000000000001819e+03,-2.174999999999922107e+00,-4.945000000000275620e+00,1.339426910861540421e+01,-2.152191269726008827e+00
1.999999999999780087e+01,3.000000000225996999e+00,9.999999999970674125e+00,6.600000000002038680e-01,1.569999999999921236e+00,2.870000000000001819e+03,-2.174999999999840838e+00,-4.945000000000256080e+00,1.341415007977074403e+01,-2.183968653187205344e+00
1.999999999999826272e+01,3.000000000100986330e+00,9.999999999973955056e+00,6.600000000002330669e-01,1.569999999999909690e+00,2.870000000000001819e+03,-2.174999999999852829e+00,-4.945000000000288942e+00,1.341209180248053201e+01,-2.188037225481744841e+00
1.999999999999740652e+01,3.000000000121491261e+00,9.999999999976283860e+00,6.600000000003947154e-01,1.569999999999861284e+00,2.870000000000001819e+03,-2.174999999999717382e+00,-4.945000000000391971e+00,1.340845352218083875e+01,-2.194468541691815044e+00
1.999999999999858247e+01,2.999999999576821175e+00,1.000000000001143086e+01,6.600000000001151612e-01,1.569999999999900808e+00,2.870000000000001819e+03,-2.174999999999848832e+00,-4.945000000000280060e+00,1.340402135898935576e+01,-2.168523307143741974e+00
1.999999999999909761e+01,2.999999999014935081e+00,1.000000000001196732e+01,6.599999999999250910e-01,1.570000000000022267e+00,2.870000000000001819e+03,-2.174999999999983391e+00,-4.944999999999995843e+00,1.340252814453969243e+01,-2.171356759137364811e+00
1.999999999999905143e+01,2.999999999340992041e+00,1.000000000001204548e+01,6.599999999999761613e-01,1.569999999999989182e+00,2.870000000000001819e+03,-2.174999999999971845e+00,-4.945000000000072227e+00,1.340836532974637763e+01,-2.170243544912476175e+00
1.999999999999861089e+01,2.999999998914176569e+00,1.000000000003474732e+01,6.600000000002420597e-01,1.569999999999796003e+00,2.870000000000001819e+03,-2.174999999999899014e+00,-4.945000000000635332e+00,1.339768715941434962e+01,-2.153226398017122012e+00
1.999999999999889155e+01,2.999999998822844738e+00,1.000000000003302247e+01,6.600000000001600142e-01,1.569999999999870166e+00,2.870000000000001819e+03,-2.174999999999893685e+00,-4.945000000000426610e+00,1.338146396477621458e+01,-2.145410833745335033e+00
1.999999999999845812e+01,2.999999998220412856e+00,1.000000000003749889e+01,6.600000000000753042e-01,1.569999999999935447e+00,2.870000000000001819e+03,-2.174999999999858602e+00,-4.945000000000161045e+00,1.339282616293560935e+01,-2.139777031054776568e+00
1.999999999999828049e+01,2.999999998559498060e+00,1.000000000003335288e+01,6.600000000001460254e-01,1.569999999999919238e+00,2.870000000000001819e+03,-2.174999999999803535e+00,-4.945000000000220552e+00,1.339215176808771801e+01,-2.145668803565752736e+00
1.999999999999888090e+01,2.999999998976383697e+00,1.000000000002144240e+01,6.600000000003182210e-01,1.569999999999840190e+00,2.870000000000001819e+03,-2.174999999999750688e+00,-4.945000000000416840e+00,1.342814838590611970e+01,-2.171816437225020380e+00
1.999999999999799272e+01,2.999999998412433921e+00,1.000000000002883205e+01,6.600000000006084333e-01,1.569999999999654783e+00,2.870000000000001819e+03,-2.174999999999644995e+00,-4.945000000000933760e+00,1.340195783534650253e+01,-2.145808221738659594e+00
1.999999999999781863e+01,2.999999997862750956e+00,1.000000000001728750e+01,6.600000000005822320e-01,1.569999999999647455e+00,2.870000000000001819e+03,-2.174999999999687628e+00,-4.945000000000965734e+00,1.340755730374105958e+01,-2.139348295520286047e+00
1.999999999999850075e+01,2.999999998890073627e+00,1.000000000001607070e+01,6.600000000004854206e-01,1.569999999999730278e+00,2.870000000000001819e+03,-2.174999999999739142e+00,-4.945000000000772111e+00,1.340873599457173881e+01,-2.157732550233949720e+00
1.999999999999876721e+01,2.999999999052120003e+00,1.000000000002073897e+01,6.600000000003706235e-01,1.569999999999830198e+00,2.870000000000001819e+03,-2.174999999999726263e+00,-4.945000000000485230e+00,1.342809322655621074e+01,-2.172126380108359456e+00
1.999999999999866773e+01,2.999999998981166538e+00,1.000000000001989164e+01,6.600000000004226930e-01,1.569999999999676321e+00,2.870000000000001819e+03,-2.174999999999818190e+00,-4.945000000000861817e+00,1.341161172492865816e+01,-2.158446033630366134e+00
1.999999999999815614e+01,2.999999998960416470e+00,1.000000000001786482e+01,6.600000000005300516e-01,1.569999999999662332e+00,2.870000000000001819e+03,-2.174999999999690736e+00,-4.945000000000953300e+00,1.341836016285678568e+01,-2.130644688241749130e+00
1.999999999999822364e+01,2.999999999083946545e+00,1.000000000002210143e+01,6.600000000005088463e-01,1.569999999999671436e+00,2.870000000000001819e+03,-2.174999999999700950e+00,-4.945000000000922213e+00,1.342835555032360695e+01,-2.144846651785111025e+00
1.999999999999898392e+01,2.999999998623203545e+00,1.000000000001166356e+01,6.600000000002991252e-01,1.569999999999816653e+00,2.870000000000001819e+03,-2.174999999999799982e+00,-4.945000000000543849e+00,1.342364706821631870e+01,-2.118348721303602300e+00
1.999999999999877431e+01,2.999999998031398718e+00,1.000000000000066436e+01,6.600000000003911627e-01,1.569999999999750040e+00,2.870000000000001819e+03,-2.174999999999770672e+00,-4.945000000000765894e+00,1.342288922869685308e+01,-2.121391600189073579e+00
1.999999999999859313e+01,2.999999999828990127e+00,1.000000000000515676e+01,6.600000000004129230e-01,1.569999999999740492e+00,2.870000000000001819e+03,-2.174999999999776890e+00,-4.945000000000700169e+00,1.342883037578072702e+01,-2.146356444007810449e+00
1.999999999999919353e+01,2.999999998423052094e+00,9.999999999958534502e+00,6.600000000001707834e-01,1.569999999999793117e+00,2.870000000000001819e+03,-2.174999999999994049e+00,-4.945000000000566942e+00,1.341368565933652235e+01,-2.118121836019316362e+00
1.999999999999940314e+01,2.999999998719262706e+00,9.999999999978202325e+00,6.600000000001730038e-01,1.569999999999837303e+00,2.870000000000001819e+03,-2.174999999999907896e+00,-4.945000000000574047e+00,1.341348293499870614e+01,-2.121776086518407656e+00
1.999999999999923617e+01,2.999999998461267303e+00,9.999999999968423481e+00,6.600000000001731149e-01,1.569999999999788010e+00,2.870000000000001819e+03,-2.174999999999970512e+00,-4.945000000000698392e+00,1.340860874472565811e+01,-2.133886409322519384e+00
1.999999999999830891e+01,2.999999997943516572e+00,9.999999999974562570e+00,6.600000000003859446e-01,1.569999999999722062e+00,2.870000000000001819e+03,-2.174999999999854161e+00,-4.945000000000796980e+00,1.340992950764849034e+01,-2.200807550381175481e+00
1.999999999999847944e+01,2.999999998006115831e+00,9.999999999969938713e+00,6.600000000003607425e-01,1.569999999999766471e+00,2.870000000000001819e+03,-2.174999999999826628e+00,-4.945000000000624674e+00,1.341779731765300809e+01,-2.197631058696184692e+00
1.999999999999892353e+01,2.999999998836444082e+00,9.999999999970011544e+00,6.600000000003150014e-01,1.569999999999731166e+00,2.870000000000001819e+03,-2.174999999999903455e+00,-4.945000000000774776e+00,1.341273002873645659e+01,-2.198255279387567374e+00
2.000000000000036948e+01,2.999999997578905120e+00,9.999999999928501637e+00,6.600000000000288969e-01,1.569999999999960760e+00,2.870000000000001819e+03,-2.175000000000061551e+00,-4.945000000000051799e+00,1.341894497179979595e+01,-2.136713414337332306e+00
2.000000000000010658e+01,2.999999997820416819e+00,9.999999999945343276e+00,6.600000000001151612e-01,1.569999999999946994e+00,2.870000000000001819e+03,-2.174999999999980282e+00,-4.945000000000105089e+00,1.341092389272926688e+01,-2.140336104225824876e+00
1.999999999999982592e+01,2.999999996628331278e+00,9.999999999910940573e+00,6.600000000001358114e-01,1.569999999999915907e+00,2.870000000000001819e+03,-2.174999999999954525e+00,-4.945000000000220552e+00,1.341262039955276109e+01,-2.138151562839148756e+00
2.000000000000006750e+01,2.999999997039972222e+00,9.999999999920254012e+00,6.600000000000699751e-01,1.569999999999965423e+00,2.870000000000001819e+03,-2.174999999999977174e+00,-4.945000000000060680e+00,1.340132230368322830e+01,-2.138011521294369555e+00
2.000000000000038725e+01,2.999999997407714947e+00,9.999999999916809656e+00,6.599999999999892619e-01,1.570000000000034035e+00,2.870000000000001819e+03,-2.174999999999982947e+00,-4.944999999999907025e+00,1.342095290257407036e+01,-2.140417922082181956e+00
2.000000000000056488e+01,2.999999997334546809e+00,9.999999999901733716e+00,6.599999999998648059e-01,1.570000000000084217e+00,2.870000000000001819e+03,-2.175000000000094413e+00,-4.944999999999760476e+00,1.342194627164403897e+01,-2.146164027304531263e+00
2.000000000000002487e+01,3.000000000590691052e+00,9.999999999982408738e+00,6.600000000001494671e-01,1.569999999999847295e+00,2.870000000000001819e+03,-2.175000000000049116e+00,-4.945000000000243645e+00,1.336608375660387082e+01,-2.209119815116920460e+00
1.999999999999995381e+01,3.000000000943653156e+00,9.999999999988155253e+00,6.600000000000892930e-01,1.569999999999964979e+00,2.870000000000001819e+03,-2.175000000000017586e+00,-4.944999999999954099e+00,1.337829060781565005e+01,-2.208300499587174226e+00
2.000000000000013500e+01,2.999999998685705105e+00,9.999999999982039256e+00,6.599999999999877076e-01,1.569999999999887264e+00,2.870000000000001819e+03,-2.175000000000068656e+00,-4.945000000000160156e+00,1.340294892718575426e+01,-2.190869706890347324e+00
1.999999999999968381e+01,2.999999997500613080e+00,9.999999999949992002e+00,6.600000000001142730e-01,1.569999999999723839e+00,2.870000000000001819e+03,-2.175000000000114397e+00,-4.945000000000613127e+00,1.339127071764467658e+01,-2.166441786964536931e+00
1.999999999999961986e+01,2.999999998429780490e+00,9.999999999947762674e+00,6.600000000002278489e-01,1.569999999999657225e+00,2.870000000000001819e+03,-2.175000000000076206e+00,-4.945000000000794316e+00,1.338927421367155013e+01,-2.155985562415626777e+00
2.000000000000004619e+01,2.999999998180141514e+00,9.999999999952770224e+00,6.599999999999924816e-01,1.569999999999796003e+00,2.870000000000001819e+03,-2.175000000000175238e+00,-4.945000000000308482e+00,1.338996021247031187e+01,-2.188169467741742036e+00
1.999999999999997868e+01,2.999999998104789789e+00,9.999999999961495689e+00,6.599999999999496270e-01,1.569999999999909912e+00,2.870000000000001819e+03,-2.175000000000137490e+00,-4.945000000000041140e+00,1.340417874686219868e+01,-2.190800965323891791e+00
2.000000000000052580e+01,2.999999999373061499e+00,9.999999999948428808e+00,6.599999999999515143e-01,1.569999999999814433e+00,2.870000000000001819e+03,-2.175000000000344436e+00,-4.945000000000434603e+00,1.336346099100673968e+01,-2.158176624702720314e+00
2.000000000000066080e+01,2.999999999097520575e+00,9.999999999953127272e+00,6.599999999998623634e-01,1.569999999999890816e+00,2.870000000000001819e+03,-2.175000000000340439e+00,-4.945000000000229434e+00,1.337070274495521893e+01,-2.158592294940770984e+00
2.000000000000140687e+01,2.999999998872143081e+00,9.999999999916711957e+00,6.599999999996905009e-01,1.569999999999893259e+00,2.870000000000001819e+03,-2.175000000000425704e+00,-4.945000000000278284e+00,1.339316005184015701e+01,-2.146566404854498344e+00
2.000000000000119371e+01,2.999999998863913220e+00,9.999999999930651029e+00,6.599999999997138156e-01,1.569999999999885709e+00,2.870000000000001819e+03,-2.175000000000385292e+00,-4.945000000000318252e+00,1.339575987508941957e+01,-2.150916315702518844e+00
2.000000000000105871e+01,2.999999999997217781e+00,9.999999999946851403e+00,6.599999999998483746e-01,1.569999999999819540e+00,2.870000000000001819e+03,-2.175000000000315570e+00,-4.945000000000419504e+00,1.338595596767313545e+01,-2.151484277717276239e+00
2.000000000000103384e+01,2.999999999750655899e+00,9.999999999944396478e+00,6.599999999997849809e-01,1.569999999999888374e+00,2.870000000000001819e+03,-2.175000000000308020e+00,-4.945000000000245421e+00,1.339207811940583426e+01,-2.146770138360719393e+00
2.000000000000059686e+01,2.999999998621154074e+00,9.999999999973629983e+00,6.599999999999097700e-01,1.570000000000189910e+00,2.870000000000001819e+03,-2.174999999999871036e+00,-4.944999999999425633e+00,1.339320662399656392e+01,-2.159038346950314047e+00
2.000000000000039790e+01,2.999999998026966708e+00,9.999999999949185536e+00,6.599999999999046629e-01,1.570000000000178586e+00,2.870000000000001819e+03,-2.174999999999906564e+00,-4.944999999999462936e+00,1.339495893512488678e+01,-2.164025790262086524e+00
2.000000000000096989e+01,2.999999998825749525e+00,9.999999999973530507e+00,6.599999999997614442e-01,1.570000000000312479e+00,2.870000000000001819e+03,-2.174999999999932321e+00,-4.944999999999128981e+00,1.339850387534887588e+01,-2.147085968701207381e+00
2.000000000000112976e+01,2.999999998877310059e+00,9.999999999977088549e+00,6.599999999997274713e-01,1.570000000000284057e+00,2.870000000000001819e+03,-2.174999999999993161e+00,-4.944999999999185825e+00,1.338819179605776455e+01,-2.147697971970743858e+00
2.000000000000122213e+01,2.999999997489170678e+00,9.999999999945398343e+00,6.599999999996047917e-01,1.570000000000369322e+00,2.870000000000001819e+03,-2.174999999999998046e+00,-4.944999999998911377e+00,1.339273801145815668e+01,-2.143614276280894515e+00
2.000000000000116174e+01,2.999999998450604721e+00,9.999999999961927344e+00,6.599999999996680744e-01,1.570000000000382645e+00,2.870000000000001819e+03,-2.174999999999910560e+00,-4.944999999998869633e+00,1.338771592798511811e+01,-2.149502056783205717e+00
1.999999999999923972e+01,2.999999995641450479e+00,9.999999999998440359e+00,6.600000000002599343e-01,1.569999999999841744e+00,2.870000000000001819e+03,-2.174999999999758238e+00,-4.945000000000486118e+00,1.343111068753659687e+01,-2.168278207260322166e+00
1.999999999999921840e+01,2.999999995434549316e+00,9.999999999984614973e+00,6.600000000002309575e-01,1.569999999999873275e+00,2.870000000000001819e+03,-2.174999999999779554e+00,-4.945000000000369766e+00,1.343780171744733920e+01,-2.163649279573663708e+00
1.999999999999867484e+01,2.999999995961271537e+00,9.999999999983288035e+00,6.600000000001972067e-01,1.569999999999866391e+00,2.870000000000001819e+03,-2.174999999999763123e+00,-4.945000000000331575e+00,1.342806617882681763e+01,-2.186187271917371611e+00
1.999999999999879208e+01,2.999999995869026215e+00,9.999999999997042366e+00,6.600000000003223288e-01,1.569999999999801776e+00,2.870000000000001819e+03,-2.174999999999768896e+00,-4.945000000000445262e+00,1.342618386180257595e+01,-2.171183516744120467e+00
1.999999999999954881e+01,2.999999996669525437e+00,9.999999999973761433e+00,6.600000000000056932e-01,1.570000000000058682e+00,2.870000000000001819e+03,-2.174999999999734257e+00,-4.944999999999911466e+00,1.337349210122826193e+01,-2.164843981958175956e+00
1.999999999999936406e+01,2.999999996235717781e+00,9.999999999973232079e+00,6.600000000000864064e-01,1.569999999999975637e+00,2.870000000000001819e+03,-2.174999999999761791e+00,-4.945000000000147722e+00,1.337085299150871265e+01,-2.152756699084605874e+00
1.999999999999953104e+01,2.999999996378555522e+00,9.999999999964046538e+00,6.599999999999871525e-01,1.569999999999991180e+00,2.870000000000001819e+03,-2.174999999999894129e+00,-4.945000000000050022e+00,1.338385130641527887e+01,-2.178322283630766520e+00
1.999999999999948841e+01,2.999999996305096062e+00,9.999999999962252417e+00,6.599999999999861533e-01,1.570000000000024265e+00,2.870000000000001819e+03,-2.174999999999825295e+00,-4.944999999999964757e+00,1.338001430339053321e+01,-2.174422693673058848e+00
1.999999999999947420e+01,3.000000003066154441e+00,1.000000000005426593e+01,6.600000000003127809e-01,1.569999999999791562e+00,2.870000000000001819e+03,-2.174999999999897238e+00,-4.945000000000835172e+00,1.336284826318850172e+01,-2.192235044096938257e+00
