1.999999999999988276e+01,3.000000001078240164e+00,1.000000000000881251e+01,6.599999999994197175e-01,1.570000000000301377e+00,2.870000000000001819e+03,-2.175000000000205880e+00,-4.944999999999062368e+00,1.339681325437598147e+01,-2.182746285805847286e+00
2.000000000000033751e+01,2.999999999196098166e+00,9.999999999980030196e+00,6.599999999997175903e-01,1.570000000000307150e+00,2.870000000000001819e+03,-2.174999999999899458e+00,-4.944999999999193818e+00,1.340630224692148253e+01,-2.155720909803203966e+00
2.000000000000038369e+01,2.999999999574482601e+00,1.000000000000906653e+01,6.599999999997662181e-01,1.570000000000084883e+00,2.870000000000001819e+03,-2.175000000000051781e+00,-4.944999999999712514e+00,1.338853971338774329e+01,-2.173303952749945811e+00
1.999999999999907274e+01,2.999999998921461852e+00,9.999999999955209162e+00,6.599999999996232214e-01,1.570000000000113527e+00,2.870000000000001819e+03,-2.175000000000134381e+00,-4.944999999999701856e+00,1.343158835273177409e+01,-2.187293125370532998e+00
1.999999999999904787e+01,2.999999999229620684e+00,9.999999999961724839e+00,6.599999999997712141e-01,1.570000000000048246e+00,2.870000000000001819e+03,-2.175000000000081535e+00,-4.944999999999780016e+00,1.342663466873252709e+01,-2.178662723307621896e+00
2.000000000000058265e+01,2.999999999415613683e+00,9.999999999996502353e+00,6.599999999998060751e-01,1.570000000000145945e+00,2.870000000000001819e+03,-2.175000000000011369e+00,-4.944999999999674323e+00,1.337908007428509016e+01,-2.197374600529056199e+00
1.999999999999803180e+01,2.999999996785939427e+00,1.000000000001872458e+01,6.600000000004450085e-01,1.569999999999769802e+00,2.870000000000001819e+03,-2.174999999999865707e+00,-4.945000000000606022e+00,1.341627106015394055e+01,-2.167495557557694408e+00
1.999999999999770850e+01,2.999999996351935483e+00,9.999999999992434496e+00,6.600000000003229950e-01,1.569999999999754481e+00,2.870000000000001819e+03,-2.174999999999925215e+00,-4.945000000000658424e+00,1.341302973266779297e+01,-2.158877234683968194e+00
1.999999999999978328e+01,2.999999998857850070e+00,1.000000000000975575e+01,6.599999999998575895e-01,1.570000000000067786e+00,2.870000000000001819e+03,-2.175000000000039790e+00,-4.944999999999777351e+00,1.339945494579865759e+01,-2.169229993536749390e+00
1.999999999999895905e+01,2.999999996006412317e+00,9.999999999980117238e+00,6.599999999999338618e-01,1.570000000000076890e+00,2.870000000000001819e+03,-2.174999999999919442e+00,-4.944999999999701856e+00,1.342486536770164918e+01,-2.151139051073842623e+00
1.999999999999822364e+01,2.999999996733218488e+00,1.000000000003237588e+01,6.600000000004749845e-01,1.569999999999790008e+00,2.870000000000001819e+03,-2.174999999999739142e+00,-4.945000000000630891e+00,1.342207854447849869e+01,-2.146159437659993952e+00
1.999999999999943157e+01,2.999999999250894334e+00,9.999999999957568164e+00,6.599999999999580647e-01,1.569999999999917240e+00,2.870000000000002274e+03,-2.175000000000131273e+00,-4.945000000000185914e+00,1.341073568435323260e+01,-2.186709079144435464e+00
1.999999999999925393e+01,2.999999998892710629e+00,9.999999999963945285e+00,6.600000000001619016e-01,1.569999999999895257e+00,2.870000000000002274e+03,-2.174999999999968736e+00,-4.945000000000245421e+00,1.340999723867555282e+01,-2.186674095532657791e+00
1.999999999999872102e+01,2.999999997986289912e+00,1.000000000001246114e+01,6.600000000002489431e-01,1.569999999999830642e+00,2.870000000000001819e+03,-2.174999999999887468e+00,-4.945000000000363549e+00,1.341650914934638905e+01,-2.141914147400701740e+00
1.999999999999930012e+01,2.999999998654954148e+00,9.999999999987723598e+00,6.599999999999367484e-01,1.570000000000067786e+00,2.870000000000001819e+03,-2.175000000000019806e+00,-4.944999999999852847e+00,1.341866108900490495e+01,-2.178460259977356817e+00
1.999999999999954525e+01,2.999999999628385705e+00,1.000000000002381029e+01,6.599999999999893729e-01,1.569999999999982965e+00,2.870000000000001819e+03,-2.175000000000063327e+00,-4.945000000000085549e+00,1.341273049753936419e+01,-2.155576446605751428e+00
1.999999999999946354e+01,2.999999999962579711e+00,1.000000000003343459e+01,6.600000000001579048e-01,1.569999999999878826e+00,2.870000000000001819e+03,-2.174999999999980282e+00,-4.945000000000377760e+00,1.342431181822518127e+01,-2.164295550507363775e+00
1.999999999999933564e+01,3.000000000590207883e+00,1.000000000004142109e+01,6.600000000000523226e-01,1.569999999999873053e+00,2.870000000000001819e+03,-2.175000000000110401e+00,-4.945000000000452367e+00,1.341690231303761394e+01,-2.161467746118374667e+00
2.000000000000001066e+01,3.000000000320935722e+00,9.999999999958895103e+00,6.600000000000960654e-01,1.569999999999929896e+00,2.870000000000001819e+03,-2.174999999999977174e+00,-4.945000000000471907e+00,1.339244815400480171e+01,-2.172395676588115165e+00
1.999999999999835154e+01,2.999999999983724130e+00,1.000000000003083578e+01,6.600000000000701972e-01,1.570000000000004503e+00,2.870000000000001819e+03,-2.174999999999830624e+00,-4.945000000000032259e+00,1.339736287477332688e+01,-2.171109304713745747e+00
1.999999999999999289e+01,3.000000001184522258e+00,1.000000000002877343e+01,6.599999999999379696e-01,1.569999999999952989e+00,2.870000000000001819e+03,-2.175000000000010481e+00,-4.945000000000254303e+00,1.341129748504743979e+01,-2.169674436750895108e+00
1.999999999999972999e+01,3.000000001754926426e+00,1.000000000001716849e+01,6.599999999998059641e-01,1.569999999999991624e+00,2.870000000000001819e+03,-2.175000000000089084e+00,-4.945000000000143281e+00,1.341937427502221603e+01,-2.175672843858271310e+00
1.999999999999921840e+01,2.999999998722640004e+00,9.999999999973400833e+00,6.599999999999907052e-01,1.569999999999951212e+00,2.870000000000001819e+03,-2.175000000000016698e+00,-4.945000000000121076e+00,1.341547356275075664e+01,-2.167583044643459633e+00
1.999999999999962341e+01,2.999999998789359523e+00,9.999999999973482545e+00,6.600000000000212363e-01,1.569999999999894369e+00,2.870000000000001819e+03,-2.174999999999945199e+00,-4.945000000000249862e+00,1.341277496826658577e+01,-2.173813558883892050e+00
1.999999999999996803e+01,2.999999997126196583e+00,9.999999999913049109e+00,6.599999999999612843e-01,1.569999999999831752e+00,2.870000000000001819e+03,-2.175000000000133937e+00,-4.945000000000485230e+00,1.340818967804069217e+01,-2.158553768848983090e+00
1.999999999999972999e+01,2.999999999760320613e+00,1.000000000003290879e+01,6.600000000002048672e-01,1.569999999999852625e+00,2.870000000000001364e+03,-2.174999999999894129e+00,-4.945000000000443485e+00,1.339232436975882123e+01,-2.158734655692842619e+00
1.999999999999872458e+01,3.000000000294720248e+00,1.000000000001839062e+01,6.600000000001741141e-01,1.569999999999709184e+00,2.870000000000001819e+03,-2.175000000000133049e+00,-4.945000000000821849e+00,1.339345525439974693e+01,-2.173193085695912519e+00
1.999999999999976552e+01,2.999999999219563396e+00,1.000000000005300649e+01,6.600000000001926548e-01,1.569999999999780682e+00,2.870000000000001819e+03,-2.175000000000004263e+00,-4.945000000000794316e+00,1.340683121244525999e+01,-2.178959875213984709e+00
1.999999999999870681e+01,2.999999998455513683e+00,1.000000000004145839e+01,6.600000000004873080e-01,1.569999999999710516e+00,2.870000000000001819e+03,-2.174999999999741807e+00,-4.945000000000987939e+00,1.341257588761970432e+01,-2.174837635796001312e+00
1.999999999999891287e+01,2.999999997765134818e+00,1.000000000002603251e+01,6.600000000003650724e-01,1.569999999999913021e+00,2.870000000000001819e+03,-2.174999999999711608e+00,-4.945000000000260520e+00,1.340071047287253236e+01,-2.159505739892600751e+00
1.999999999999887734e+01,2.999999999751285618e+00,1.000000000009716672e+01,6.600000000002816947e-01,1.569999999999991847e+00,2.870000000000001819e+03,-2.174999999999643219e+00,-4.945000000000214335e+00,1.343576101487902541e+01,-2.180679891781574398e+00
1.999999999999842970e+01,2.999999998546068358e+00,1.000000000009107914e+01,6.600000000004149214e-01,1.570000000000015827e+00,2.870000000000001819e+03,-2.174999999999531752e+00,-4.945000000000114859e+00,1.342260745266856858e+01,-2.176808026849503364e+00
1.999999999999933209e+01,2.999999998935251710e+00,1.000000000000645706e+01,6.600000000001837730e-01,1.570000000000073781e+00,2.870000000000002274e+03,-2.174999999999725375e+00,-4.944999999999995843e+00,1.340211302444176411e+01,-2.210012250524315380e+00
1.999999999999920774e+01,2.999999999654446636e+00,1.000000000004808243e+01,6.599999999999490718e-01,1.570000000000177920e+00,2.870000000000002274e+03,-2.175000000000029132e+00,-4.944999999999398099e+00,1.341128844938095099e+01,-2.190804179047379563e+00
2.000000000000044764e+01,2.999999998123103584e+00,1.000000000005374901e+01,6.600000000000004752e-01,1.569999999999933893e+00,2.870000000000001819e+03,-2.175000000000105960e+00,-4.945000000000136176e+00,1.340862084366281515e+01,-2.176730031007263477e+00
2.000000000000087752e+01,2.999999999588402577e+00,1.000000000004619771e+01,6.599999999997256950e-01,1.570000000000089324e+00,2.870000000000001819e+03,-2.175000000000225864e+00,-4.944999999999794227e+00,1.342387495225199245e+01,-2.172806984551851173e+00
2.000000000000099476e+01,2.999999999588943034e+00,1.000000000003241851e+01,6.599999999997792077e-01,1.570000000000094209e+00,2.870000000000001819e+03,-2.175000000000118838e+00,-4.944999999999779128e+00,1.342686482393609282e+01,-2.170152928418506377e+00
1.999999999999911182e+01,2.999999998509408794e+00,1.000000000005694645e+01,6.600000000003021228e-01,1.569999999999756257e+00,2.870000000000001819e+03,-2.174999999999794653e+00,-4.945000000000579377e+00,1.341578926050176257e+01,-2.170653817837610688e+00
1.999999999999826272e+01,2.999999999542472207e+00,1.000000000008593304e+01,6.600000000003939382e-01,1.569999999999732054e+00,2.870000000000001819e+03,-2.174999999999732037e+00,-4.945000000000668194e+00,1.340514601245099868e+01,-2.173034160083167077e+00
1.999999999999930012e+01,2.999999997971562138e+00,1.000000000003451994e+01,6.600000000005600276e-01,1.569999999999707185e+00,2.870000000000001819e+03,-2.174999999999726708e+00,-4.945000000000946194e+00,1.343798717149971012e+01,-2.185080732536053283e+00
2.000000000000050804e+01,2.999999998608863017e+00,1.000000000003681500e+01,6.600000000002743672e-01,1.569999999999852625e+00,2.870000000000001819e+03,-2.174999999999834621e+00,-4.945000000000456808e+00,1.341360832765493960e+01,-2.191408201896910324e+00
1.999999999999964473e+01,2.999999997954528652e+00,9.999999999997784883e+00,6.599999999997810951e-01,1.570000000000163931e+00,2.870000000000001819e+03,-2.174999999999875921e+00,-4.944999999999446949e+00,1.339655621815265540e+01,-2.204529155976707511e+00
2.000000000000117950e+01,2.999999996961320914e+00,9.999999999981685761e+00,6.600000000000172395e-01,1.570000000000103313e+00,2.870000000000001819e+03,-2.174999999999825739e+00,-4.944999999999847518e+00,1.340755284388377255e+01,-2.159064048266542191e+00
1.999999999999941025e+01,2.999999997491114456e+00,1.000000000000788880e+01,6.600000000001193801e-01,1.569999999999986295e+00,2.870000000000001819e+03,-2.174999999999768008e+00,-4.945000000000013607e+00,1.340012958968121382e+01,-2.192499581838207146e+00
1.999999999999903721e+01,2.999999998141249513e+00,1.000000000004169110e+01,6.600000000002440581e-01,1.569999999999922791e+00,2.870000000000001819e+03,-2.174999999999838174e+00,-4.945000000000196572e+00,1.341760917119479757e+01,-2.197950290194873535e+00
1.999999999999856826e+01,2.999999997507514227e+00,9.999999999973381293e+00,6.600000000006649437e-01,1.569999999999589058e+00,2.870000000000001819e+03,-2.174999999999793321e+00,-4.945000000001117613e+00,1.340905323722913600e+01,-2.142705359479982086e+00
2.000000000000066080e+01,2.999999999566775877e+00,1.000000000003216805e+01,6.599999999999436318e-01,1.569999999999968532e+00,2.870000000000001819e+03,-2.175000000000235634e+00,-4.944999999999934559e+00,1.339991107173340801e+01,-2.193431432005754633e+00
1.999999999999909406e+01,2.999999997474017466e+00,1.000000000003073630e+01,6.600000000001379208e-01,1.569999999999976970e+00,2.870000000000001819e+03,-2.174999999999877254e+00,-4.944999999999972751e+00,1.343341071277031240e+01,-2.194543841194680489e+00
2.000000000000007816e+01,3.000000000102319930e+00,1.000000000003965717e+01,6.599999999998287237e-01,1.570000000000141949e+00,2.870000000000001819e+03,-2.174999999999998046e+00,-4.944999999999534879e+00,1.338976014089881517e+01,-2.194167409563693827e+00
2.000000000000076739e+01,3.000000000136061828e+00,1.000000000006435918e+01,6.599999999996161160e-01,1.570000000000237428e+00,2.870000000000001819e+03,-2.175000000000306244e+00,-4.944999999999360796e+00,1.341289448744169732e+01,-2.164428790852099826e+00
2.000000000000063949e+01,2.999999998942976198e+00,1.000000000003677059e+01,6.599999999996560840e-01,1.570000000000230989e+00,2.870000000000001819e+03,-2.175000000000168132e+00,-4.944999999999356355e+00,1.341274644933145588e+01,-2.152143111103714368e+00
1.999999999999996803e+01,3.000000000126213262e+00,1.000000000005415579e+01,6.599999999999658362e-01,1.570000000000016271e+00,2.870000000000001819e+03,-2.174999999999989164e+00,-4.944999999999902585e+00,1.341916608816389633e+01,-2.193168611603128149e+00
1.999999999999992895e+01,2.999999998735230822e+00,1.000000000003055867e+01,6.599999999999587308e-01,1.569999999999982743e+00,2.870000000000001819e+03,-2.175000000000128164e+00,-4.945000000000071338e+00,1.341844199321657882e+01,-2.182788651985517525e+00
2.000000000000038725e+01,2.999999999130296580e+00,1.000000000001150902e+01,6.599999999997196998e-01,1.570000000000150164e+00,2.870000000000001819e+03,-2.175000000000130829e+00,-4.944999999999553530e+00,1.341866459822549551e+01,-2.181870761761319333e+00
1.999999999999900169e+01,2.999999997523716821e+00,9.999999999966830089e+00,6.600000000001712275e-01,1.569999999999914575e+00,2.870000000000001819e+03,-2.174999999999845279e+00,-4.945000000000280949e+00,1.341398008964047861e+01,-2.158810958645787093e+00
2.000000000000010303e+01,3.000000000773387132e+00,1.000000000000176392e+01,6.599999999996781774e-01,1.570000000000209450e+00,2.870000000000001819e+03,-2.175000000000061551e+00,-4.944999999999384777e+00,1.344124767661409514e+01,-2.167737590967028005e+00
1.999999999999885958e+01,2.999999998537119517e+00,9.999999999998692601e+00,6.599999999999532907e-01,1.569999999999919682e+00,2.870000000000001819e+03,-2.175000000000110401e+00,-4.945000000000201013e+00,1.341258139144501804e+01,-2.168437236604718432e+00
1.999999999999840128e+01,2.999999999462055644e+00,1.000000000002408562e+01,6.600000000001482459e-01,1.569999999999872609e+00,2.870000000000001819e+03,-2.174999999999962963e+00,-4.945000000000288942e+00,1.341277552240461191e+01,-2.172769939357817925e+00
2.000000000000043698e+01,2.999999999350167812e+00,1.000000000003852740e+01,6.599999999999751621e-01,1.569999999999988960e+00,2.870000000000001819e+03,-2.175000000000017142e+00,-4.945000000000102425e+00,1.344839909473390094e+01,-2.150780668324110856e+00
1.999999999999960920e+01,2.999999997074812352e+00,9.999999999922811966e+00,6.599999999998369393e-01,1.569999999999941220e+00,2.870000000000001819e+03,-2.175000000000211209e+00,-4.945000000000131735e+00,1.338385397961221734e+01,-2.180911627929067009e+00
1.999999999999943512e+01,2.999999998055039807e+00,9.999999999913143256e+00,6.600000000002924638e-01,1.569999999999780904e+00,2.870000000000001819e+03,-2.174999999999883915e+00,-4.945000000000667306e+00,1.339934095532843550e+01,-2.174708584455025129e+00
1.999999999999838707e+01,2.999999998483279029e+00,9.999999999963129937e+00,6.600000000003558576e-01,1.569999999999784457e+00,2.870000000000001819e+03,-2.174999999999759126e+00,-4.945000000000518980e+00,1.340687011626876846e+01,-2.164991336733929295e+00
1.999999999999872102e+01,2.999999999958316010e+00,1.000000000000068034e+01,6.600000000005208367e-01,1.569999999999656115e+00,2.870000000000001819e+03,-2.174999999999741807e+00,-4.945000000001143370e+00,1.340491507792290982e+01,-2.185034646388247737e+00
1.999999999999900169e+01,2.999999998209340824e+00,9.999999999980207832e+00,6.600000000002372857e-01,1.569999999999693197e+00,2.870000000000001819e+03,-2.175000000000093969e+00,-4.945000000000879581e+00,1.339876496357756608e+01,-2.191300538870379011e+00
2.000000000000078515e+01,2.999999999840773590e+00,9.999999999977548626e+00,6.599999999997537836e-01,1.569999999999975193e+00,2.870000000000001819e+03,-2.175000000000241407e+00,-4.945000000000117524e+00,1.340948422102105653e+01,-2.164748404315476105e+00
1.999999999999901235e+01,2.999999997537232677e+00,9.999999999950258456e+00,6.600000000004522249e-01,1.569999999999613705e+00,2.870000000000001819e+03,-2.174999999999914557e+00,-4.945000000001145146e+00,1.338908132554502295e+01,-2.181606942087144674e+00
1.999999999999761258e+01,2.999999998761109232e+00,1.000000000001160494e+01,6.600000000005245004e-01,1.569999999999619478e+00,2.870000000000001819e+03,-2.174999999999824407e+00,-4.945000000001146923e+00,1.340252586395063439e+01,-2.168679211091298242e+00
1.999999999999992184e+01,2.999999998281893898e+00,9.999999999975100806e+00,6.599999999999598410e-01,1.569999999999925899e+00,2.870000000000001819e+03,-2.175000000000120615e+00,-4.945000000000312035e+00,1.342276630682298766e+01,-2.162514688837141374e+00
1.999999999999976907e+01,2.999999995942726372e+00,9.999999999996687094e+00,6.600000000001758904e-01,1.569999999999919904e+00,2.870000000000002274e+03,-2.174999999999983835e+00,-4.945000000000328910e+00,1.342124435312675068e+01,-2.157925395135336988e+00
1.999999999999890932e+01,2.999999997838847854e+00,1.000000000004919443e+01,6.600000000004002665e-01,1.569999999999676543e+00,2.870000000000001819e+03,-2.174999999999874145e+00,-4.945000000000887574e+00,1.338314435352084786e+01,-2.167581500996879296e+00
1.999999999999956657e+01,2.999999998548038782e+00,9.999999999980390797e+00,6.599999999998259481e-01,1.570000000000163265e+00,2.870000000000001819e+03,-2.174999999999953637e+00,-4.944999999999692974e+00,1.341963464331951528e+01,-2.192810125069133864e+00
1.999999999999901590e+01,2.999999999218938118e+00,1.000000000003545253e+01,6.599999999999465183e-01,1.570000000000249418e+00,2.870000000000001819e+03,-2.174999999999745359e+00,-4.944999999999340368e+00,1.342421337496241662e+01,-2.183794245120376676e+00
1.999999999999887379e+01,3.000000000644483578e+00,1.000000000004864908e+01,6.599999999999937028e-01,1.570000000000212337e+00,2.870000000000001819e+03,-2.174999999999703615e+00,-4.944999999999480700e+00,1.340908132117473350e+01,-2.175419853963342920e+00
1.999999999999800693e+01,3.000000000278221002e+00,1.000000000006034639e+01,6.599999999998468203e-01,1.570000000000054907e+00,2.870000000000001819e+03,-2.175000000000039346e+00,-4.944999999999636131e+00,1.339042385729593398e+01,-2.192342001935540186e+00
1.999999999999972999e+01,3.000000000679547085e+00,1.000000000002685319e+01,6.600000000002131939e-01,1.569999999999716733e+00,2.870000000000001819e+03,-2.174999999999926548e+00,-4.945000000000795204e+00,1.342503406381149489e+01,-2.187409563869174178e+00
1.999999999999985079e+01,2.999999999891207914e+00,9.999999999999594991e+00,6.600000000001225997e-01,1.569999999999735607e+00,2.870000000000001819e+03,-2.175000000000075762e+00,-4.945000000000718821e+00,1.342376301001070971e+01,-2.175658058271802808e+00
2.000000000000104450e+01,2.999999999104755677e+00,1.000000000001375255e+01,6.599999999997216982e-01,1.570000000000169038e+00,2.870000000000001819e+03,-2.175000000000155254e+00,-4.944999999999510898e+00,1.339801382024922560e+01,-2.182601999449855779e+00
1.999999999999957723e+01,2.999999999674002993e+00,1.000000000006740386e+01,6.599999999999796030e-01,1.570000000000132401e+00,2.870000000000001819e+03,-2.174999999999890576e+00,-4.944999999999850182e+00,1.340238827257198118e+01,-2.189861521575326986e+00
2.000000000000011724e+01,2.999999998874666840e+00,9.999999999985012877e+00,6.599999999999695000e-01,1.570000000000046692e+00,2.870000000000001819e+03,-2.175000000000029132e+00,-4.944999999999984297e+00,1.342721054792218460e+01,-2.158181952312209884e+00
1.999999999999864642e+01,2.999999999683721885e+00,1.000000000003491429e+01,6.600000000002541611e-01,1.569999999999821094e+00,2.870000000000001819e+03,-2.174999999999699174e+00,-4.945000000000502993e+00,1.340650187875163901e+01,-2.190007571965525646e+00
1.999999999999913314e+01,2.999999999241348636e+00,1.000000000005481837e+01,6.600000000000842970e-01,1.570000000000009388e+00,2.870000000000001819e+03,-2.174999999999843059e+00,-4.944999999999962093e+00,1.340140877850596013e+01,-2.175354744168275012e+00
1.999999999999912603e+01,2.999999999773154347e+00,1.000000000005736744e+01,6.600000000000612044e-01,1.570000000000035145e+00,2.870000000000001819e+03,-2.174999999999841283e+00,-4.944999999999860840e+00,1.339283501096592488e+01,-2.181216271248871852e+00
1.999999999999848654e+01,2.999999998191364092e+00,1.000000000001501910e+01,6.600000000003453104e-01,1.569999999999807105e+00,2.870000000000001819e+03,-2.174999999999703171e+00,-4.945000000000641549e+00,1.339160434673410194e+01,-2.178518763419603932e+00
1.999999999999874589e+01,2.999999998635806353e+00,1.000000000001252509e+01,6.600000000001691181e-01,1.569999999999868612e+00,2.870000000000001819e+03,-2.174999999999772893e+00,-4.945000000000440821e+00,1.341564276839907954e+01,-2.178219213644871033e+00
1.999999999999906564e+01,2.999999999504788573e+00,1.000000000004541079e+01,6.600000000000839639e-01,1.570000000000064899e+00,2.870000000000001819e+03,-2.174999999999632561e+00,-4.944999999999876827e+00,1.340926727173897604e+01,-2.185713557996770806e+00
1.999999999999878497e+01,2.999999997415838227e+00,1.000000000000320100e+01,6.600000000002871348e-01,1.569999999999853069e+00,2.870000000000001819e+03,-2.174999999999726263e+00,-4.945000000000416840e+00,1.341217180242203710e+01,-2.186051396606952135e+00
1.999999999999882405e+01,2.999999997090838200e+00,9.999999999996823874e+00,6.600000000003078959e-01,1.569999999999812212e+00,2.870000000000001819e+03,-2.174999999999726263e+00,-4.945000000000596252e+00,1.340094946611281479e+01,-2.192180453117655858e+00
1.999999999999856826e+01,2.999999999532056982e+00,1.000000000004840750e+01,6.600000000000292300e-01,1.569999999999992735e+00,2.870000000000001819e+03,-2.174999999999802647e+00,-4.944999999999981632e+00,1.339037821042519916e+01,-2.190091038339184948e+00
2.000000000000098765e+01,2.999999998812593827e+00,9.999999999933736561e+00,6.599999999998449329e-01,1.569999999999965645e+00,2.870000000000001819e+03,-2.175000000000267164e+00,-4.945000000000123741e+00,1.339288051372408006e+01,-2.160469349253397287e+00
2.000000000000043343e+01,3.000000001611845324e+00,1.000000000000530420e+01,6.599999999998188427e-01,1.570000000000112195e+00,2.870000000000001819e+03,-2.175000000000136158e+00,-4.944999999999704521e+00,1.338338678063766451e+01,-2.185396175011117492e+00
1.999999999999843325e+01,2.999999996910208910e+00,9.999999999976834530e+00,6.600000000005011858e-01,1.569999999999765805e+00,2.870000000000001819e+03,-2.174999999999757794e+00,-4.945000000000653984e+00,1.340381757017626363e+01,-2.175912621672719816e+00
1.999999999999888445e+01,2.999999997257008388e+00,9.999999999974868103e+00,6.600000000003563017e-01,1.569999999999732943e+00,2.870000000000002274e+03,-2.174999999999938538e+00,-4.945000000000717932e+00,1.341099416346848550e+01,-2.168746913216967442e+00
2.000000000000170530e+01,3.000000000618829432e+00,9.999999999987625898e+00,6.599999999991068567e-01,1.570000000000558060e+00,2.870000000000001364e+03,-2.175000000000327560e+00,-4.944999999998421991e+00,1.341932090161131619e+01,-2.179162516132496563e+00
2.000000000000112976e+01,3.000000000478548312e+00,1.000000000002463274e+01,6.599999999993183541e-01,1.570000000000395302e+00,2.870000000000001819e+03,-2.175000000000258726e+00,-4.944999999999010853e+00,1.342143091560864754e+01,-2.172837920064985440e+00
2.000000000000094147e+01,3.000000000979196724e+00,9.999999999991629807e+00,6.599999999996367661e-01,1.570000000000081775e+00,2.870000000000002274e+03,-2.175000000000210765e+00,-4.944999999999920348e+00,1.343056577793528206e+01,-2.190796980738805022e+00
1.999999999999972289e+01,2.999999999417947816e+00,1.000000000002351719e+01,6.599999999999762723e-01,1.570000000000042917e+00,2.870000000000001819e+03,-2.174999999999851497e+00,-4.944999999999714291e+00,1.340873652791297133e+01,-2.205229096567133507e+00
2.000000000000043343e+01,2.999999999725525779e+00,1.000000000003246470e+01,6.600000000000127987e-01,1.569999999999897033e+00,2.870000000000001819e+03,-2.175000000000059774e+00,-4.945000000000227658e+00,1.339644364519009834e+01,-2.161444369525466591e+00
2.000000000000071410e+01,3.000000000163518088e+00,1.000000000003089617e+01,6.600000000000608713e-01,1.569999999999864171e+00,2.870000000000001819e+03,-2.174999999999894129e+00,-4.945000000000296048e+00,1.339406217934455157e+01,-2.172041974471730974e+00
2.000000000000064659e+01,2.999999997569053445e+00,1.000000000001893063e+01,6.599999999998041877e-01,1.570000000000166596e+00,2.870000000000002274e+03,-2.174999999999905231e+00,-4.944999999999614815e+00,1.343421094595967169e+01,-2.178784802020694578e+00
2.000000000000086331e+01,2.999999998198404239e+00,9.999999999985321963e+00,6.599999999995794786e-01,1.570000000000369100e+00,2.870000000000001819e+03,-2.174999999999900346e+00,-4.944999999998939799e+00,1.342937943809982748e+01,-2.180526193281845604e+00
2.000000000000034817e+01,2.999999999024642872e+00,1.000000000002921752e+01,6.600000000000358913e-01,1.570000000000052909e+00,2.870000000000001819e+03,-2.174999999999874145e+00,-4.944999999999886597e+00,1.345320123362764164e+01,-2.193558605311177967e+00
2.000000000000125766e+01,2.999999999409882712e+00,1.000000000000052225e+01,6.599999999999696110e-01,1.570000000000135731e+00,2.870000000000001819e+03,-2.174999999999836842e+00,-4.944999999999589946e+00,1.343213402467756978e+01,-2.146644217329245041e+00
2.000000000000120082e+01,2.999999998804247170e+00,9.999999999955532459e+00,6.599999999999250910e-01,1.570000000000133067e+00,2.870000000000001819e+03,-2.174999999999842615e+00,-4.944999999999671658e+00,1.343679208392882352e+01,-2.146674717472716765e+00
1.999999999999920774e+01,3.000000000182744930e+00,1.000000000000239275e+01,6.599999999997396838e-01,1.570000000000242757e+00,2.870000000000001819e+03,-2.174999999999830624e+00,-4.944999999999330598e+00,1.340864526054108552e+01,-2.187198358068014326e+00
1.999999999999974776e+01,2.999999999637708470e+00,1.000000000000826361e+01,6.599999999997311351e-01,1.570000000000330909e+00,2.870000000000001819e+03,-2.174999999999713829e+00,-4.944999999999062368e+00,1.341094953185256777e+01,-2.175239606821826044e+00
2.000000000000083844e+01,2.999999999741282508e+00,1.000000000001112532e+01,6.599999999999118794e-01,1.570000000000095985e+00,2.870000000000002274e+03,-2.175000000000011369e+00,-4.944999999999719620e+00,1.341324600095037312e+01,-2.152025783147715643e+00
1.999999999999822720e+01,2.999999999190695821e+00,9.999999999976781240e+00,6.600000000004593304e-01,1.569999999999739604e+00,2.870000000000001819e+03,-2.174999999999674305e+00,-4.945000000000719709e+00,1.342579147342748414e+01,-2.197145116267869458e+00
1.999999999999929656e+01,2.999999999224960856e+00,1.000000000002180123e+01,6.600000000002663736e-01,1.569999999999904139e+00,2.870000000000001819e+03,-2.174999999999899014e+00,-4.945000000000282725e+00,1.341404303041502111e+01,-2.190975234535617489e+00
2.000000000000088463e+01,2.999999999216370394e+00,9.999999999967025488e+00,6.599999999998006350e-01,1.569999999999937890e+00,2.870000000000001819e+03,-2.175000000000177458e+00,-4.945000000000216112e+00,1.340569533538683977e+01,-2.183134898390862499e+00
2.000000000000076383e+01,2.999999998468547258e+00,9.999999999946460605e+00,6.599999999998943379e-01,1.569999999999907248e+00,2.870000000000001819e+03,-2.175000000000117062e+00,-4.945000000000344897e+00,1.341507321762704841e+01,-2.174467615568660861e+00
2.000000000000005329e+01,2.999999999555388985e+00,1.000000000004246559e+01,6.600000000002042011e-01,1.570000000000036700e+00,2.870000000000001819e+03,-2.174999999999692513e+00,-4.945000000000121965e+00,1.339518686690096239e+01,-2.183159650947450015e+00
1.999999999999880629e+01,2.999999999859350730e+00,1.000000000004549605e+01,6.599999999999852651e-01,1.570000000000075113e+00,2.870000000000001819e+03,-2.174999999999905675e+00,-4.944999999999751594e+00,1.339940471721877024e+01,-2.184186485981800985e+00
1.999999999999921485e+01,2.999999998703116511e+00,1.000000000006074963e+01,6.600000000003384271e-01,1.569999999999772911e+00,2.870000000000001819e+03,-2.174999999999793321e+00,-4.945000000000683293e+00,1.338501744658327475e+01,-2.169911029813775816e+00
1.999999999999857181e+01,3.000000000882008688e+00,1.000000000005724665e+01,6.600000000001764455e-01,1.569999999999998286e+00,2.870000000000001819e+03,-2.174999999999827072e+00,-4.944999999999954987e+00,1.338736624338264036e+01,-2.183102566635095165e+00
1.999999999999917577e+01,2.999999999772850146e+00,1.000000000001912426e+01,6.600000000001805534e-01,1.569999999999891704e+00,2.870000000000001819e+03,-2.174999999999909672e+00,-4.945000000000227658e+00,1.340548222401866418e+01,-2.155863513060637615e+00
1.999999999999959854e+01,2.999999998333778173e+00,1.000000000009311130e+01,6.600000000002860245e-01,1.569999999999883267e+00,2.870000000000002274e+03,-2.174999999999878142e+00,-4.945000000000439044e+00,1.340152746244279136e+01,-2.172016200045026491e+00
2.000000000000024158e+01,2.999999998281990266e+00,1.000000000006994760e+01,6.599999999999832667e-01,1.570000000000024487e+00,2.870000000000001819e+03,-2.175000000000009148e+00,-4.945000000000049134e+00,1.341028497413713261e+01,-2.174883461710955146e+00
1.999999999999981526e+01,3.000000001473033251e+00,1.000000000000466471e+01,6.600000000001182698e-01,1.569999999999875051e+00,2.870000000000001819e+03,-2.175000000000039346e+00,-4.945000000000232099e+00,1.341053295575371251e+01,-2.176094919856851551e+00
1.999999999999954525e+01,2.999999999458393241e+00,1.000000000000246381e+01,6.599999999999244249e-01,1.569999999999984963e+00,2.870000000000001819e+03,-2.175000000000014921e+00,-4.944999999999976303e+00,1.340636146116539962e+01,-2.177775909537051469e+00
1.999999999999938538e+01,3.000000001207929312e+00,1.000000000002232525e+01,6.600000000000245670e-01,1.569999999999956319e+00,2.870000000000001819e+03,-2.174999999999991829e+00,-4.945000000000055351e+00,1.340672550529063756e+01,-2.180814300509259951e+00
1.999999999999903721e+01,2.999999998068456186e+00,9.999999999966410869e+00,6.600000000005455947e-01,1.569999999999676099e+00,2.870000000000002274e+03,-2.174999999999675193e+00,-4.945000000001058105e+00,1.342987540543284197e+01,-2.143414108849937882e+00
1.999999999999876721e+01,3.000000000242621034e+00,1.000000000004199840e+01,6.600000000006097656e-01,1.569999999999633689e+00,2.870000000000001819e+03,-2.174999999999687184e+00,-4.945000000001148699e+00,1.343241154815228633e+01,-2.183944698437758625e+00
1.999999999999951683e+01,3.000000000309733128e+00,1.000000000000088463e+01,6.600000000004391243e-01,1.569999999999664553e+00,2.870000000000001819e+03,-2.174999999999820410e+00,-4.945000000001116724e+00,1.341058102198764601e+01,-2.180500150994238773e+00
1.999999999999919709e+01,2.999999999941437956e+00,1.000000000000349765e+01,6.600000000004108136e-01,1.569999999999839968e+00,2.870000000000002274e+03,-2.174999999999748912e+00,-4.945000000000635332e+00,1.340285727256396697e+01,-2.197599219912386825e+00
1.999999999999836575e+01,3.000000000963441771e+00,9.999999999993349320e+00,6.600000000002936851e-01,1.569999999999710516e+00,2.870000000000001819e+03,-2.174999999999978950e+00,-4.945000000000918661e+00,1.338779597013398082e+01,-2.178558897914546488e+00
1.999999999999688782e+01,2.999999998404173418e+00,1.000000000006887468e+01,6.600000000008661161e-01,1.569999999999607931e+00,2.870000000000001819e+03,-2.174999999999488232e+00,-4.945000000001222418e+00,1.339901303920023068e+01,-2.162546718632064380e+00
2.000000000000074607e+01,3.000000001356695201e+00,9.999999999954466645e+00,6.599999999999283107e-01,1.570000000000085993e+00,2.870000000000001819e+03,-2.174999999999947864e+00,-4.944999999999835083e+00,1.341371778385119207e+01,-2.157316137945215928e+00
1.999999999999948841e+01,3.000000001429073748e+00,1.000000000002133227e+01,6.600000000003213296e-01,1.569999999999822204e+00,2.870000000000001819e+03,-2.174999999999885247e+00,-4.945000000000426610e+00,1.339039459441003643e+01,-2.162118632202415736e+00
1.999999999999899813e+01,3.000000000066684880e+00,1.000000000001843325e+01,6.600000000007034684e-01,1.569999999999614593e+00,2.870000000000001819e+03,-2.174999999999830624e+00,-4.945000000001203766e+00,1.340547791146795653e+01,-2.164602552770960475e+00
1.999999999999896616e+01,2.999999998755479513e+00,1.000000000007036149e+01,6.600000000006510659e-01,1.569999999999617923e+00,2.870000000000001819e+03,-2.174999999999714273e+00,-4.945000000001116724e+00,1.339026170748413413e+01,-2.156826946850745497e+00
1.999999999999876010e+01,3.000000001225392676e+00,9.999999999976539655e+00,6.600000000003211076e-01,1.569999999999778906e+00,2.870000000000001819e+03,-2.174999999999814637e+00,-4.945000000000604246e+00,1.341021304728053920e+01,-2.166519355444492145e+00
1.999999999999920064e+01,3.000000000022936764e+00,1.000000000001243805e+01,6.600000000002409495e-01,1.569999999999776241e+00,2.870000000000002274e+03,-2.174999999999924327e+00,-4.945000000000806750e+00,1.339918465547610182e+01,-2.181883303791325002e+00
1.999999999999902300e+01,3.000000000774226017e+00,1.000000000001905320e+01,6.600000000001342570e-01,1.570000000000158380e+00,2.870000000000001819e+03,-2.174999999999688960e+00,-4.944999999999637907e+00,1.342367216469265401e+01,-2.200010242223883861e+00
1.999999999999876010e+01,3.000000000354097196e+00,1.000000000004399325e+01,6.600000000000779687e-01,1.570000000000064677e+00,2.870000000000001819e+03,-2.174999999999823963e+00,-4.944999999999963869e+00,1.342791536351819559e+01,-2.202277147479491770e+00
1.999999999999813127e+01,2.999999998164150306e+00,1.000000000000131806e+01,6.600000000003316547e-01,1.569999999999797557e+00,2.870000000000001819e+03,-2.174999999999764011e+00,-4.945000000000594476e+00,1.339590270182394072e+01,-2.176235536909975732e+00
1.999999999999840483e+01,2.999999998989599348e+00,1.000000000003406342e+01,6.600000000002720357e-01,1.569999999999779128e+00,2.870000000000001819e+03,-2.174999999999935874e+00,-4.945000000000737472e+00,1.340639743224220126e+01,-2.184596386973515436e+00
1.999999999999827338e+01,2.999999998990651395e+00,1.000000000005694645e+01,6.600000000003782841e-01,1.569999999999835749e+00,2.870000000000001819e+03,-2.174999999999771116e+00,-4.945000000000532303e+00,1.340384305628448125e+01,-2.185957878429317880e+00
1.999999999999993250e+01,3.000000000232346586e+00,9.999999999994127364e+00,6.599999999998870104e-01,1.570000000000069118e+00,2.870000000000001819e+03,-2.175000000000083755e+00,-4.944999999999764029e+00,1.342518030555483755e+01,-2.147887422078466280e+00
2.000000000000003908e+01,2.999999998940772183e+00,1.000000000000110134e+01,6.600000000001643441e-01,1.569999999999872164e+00,2.870000000000001819e+03,-2.174999999999959410e+00,-4.945000000000391971e+00,1.340368405001959573e+01,-2.162573058033564255e+00
1.999999999999764100e+01,2.999999997497305504e+00,1.000000000000841105e+01,6.600000000003685141e-01,1.569999999999921458e+00,2.870000000000001819e+03,-2.174999999999633449e+00,-4.945000000000332463e+00,1.341872881230609060e+01,-2.142443019358887479e+00
1.999999999999949907e+01,3.000000000242939446e+00,1.000000000004733280e+01,6.600000000002607115e-01,1.569999999999894591e+00,2.870000000000001819e+03,-2.174999999999812417e+00,-4.945000000000433715e+00,1.342873361716549852e+01,-2.168130131453759546e+00
1.999999999999946709e+01,3.000000000645534293e+00,1.000000000004135714e+01,6.600000000002603784e-01,1.569999999999855733e+00,2.870000000000001819e+03,-2.174999999999875033e+00,-4.945000000000524309e+00,1.343032788783389542e+01,-2.167248787701470558e+00
1.999999999999840483e+01,3.000000000172875492e+00,9.999999999982907894e+00,6.600000000002084199e-01,1.569999999999882601e+00,2.870000000000001819e+03,-2.174999999999836842e+00,-4.945000000000240092e+00,1.340549085888976499e+01,-2.158225851690222186e+00
1.999999999999896616e+01,2.999999998234565979e+00,9.999999999970768272e+00,6.600000000002983480e-01,1.569999999999749596e+00,2.870000000000001819e+03,-2.174999999999960298e+00,-4.945000000000683293e+00,1.340472089023210778e+01,-2.137288182252725655e+00
1.999999999999765521e+01,2.999999999459645572e+00,1.000000000003815792e+01,6.600000000006774892e-01,1.569999999999515561e+00,2.870000000000001819e+03,-2.174999999999837730e+00,-4.945000000001429363e+00,1.341878063606450411e+01,-2.161798181168072652e+00
2.000000000000006040e+01,2.999999999412115592e+00,1.000000000000104272e+01,6.600000000000736389e-01,1.569999999999948992e+00,2.870000000000001819e+03,-2.174999999999920774e+00,-4.945000000000104201e+00,1.339969044697769185e+01,-2.179262656997275283e+00
1.999999999999999289e+01,2.999999998087870434e+00,1.000000000000957812e+01,6.600000000001553513e-01,1.569999999999919904e+00,2.870000000000001819e+03,-2.174999999999931433e+00,-4.945000000000224993e+00,1.341146524328896028e+01,-2.181030018437514428e+00
1.999999999999889866e+01,3.000000000820567614e+00,1.000000000006804157e+01,6.600000000005683543e-01,1.569999999999689866e+00,2.870000000000001819e+03,-2.174999999999677414e+00,-4.945000000001021689e+00,1.342261988467862288e+01,-2.155219382549793394e+00
1.999999999999943157e+01,2.999999998080241426e+00,9.999999999988212096e+00,6.600000000001869926e-01,1.569999999999900364e+00,2.870000000000001819e+03,-2.174999999999864819e+00,-4.945000000000488782e+00,1.342219887865959826e+01,-2.153152276382154451e+00
1.999999999999968026e+01,2.999999997733267421e+00,1.000000000001913136e+01,6.600000000001070566e-01,1.569999999999963203e+00,2.870000000000001819e+03,-2.174999999999988276e+00,-4.945000000000221441e+00,1.342591165278694909e+01,-2.140472871856262227e+00
1.999999999999938538e+01,2.999999998049031280e+00,9.999999999968995468e+00,6.599999999999959233e-01,1.569999999999929230e+00,2.870000000000001819e+03,-2.175000000000046452e+00,-4.945000000000200124e+00,1.340775407519087459e+01,-2.155180174680253913e+00
1.999999999999844746e+01,2.999999997215478054e+00,9.999999999998237854e+00,6.600000000002430589e-01,1.569999999999819096e+00,2.870000000000001819e+03,-2.174999999999842171e+00,-4.945000000000445262e+00,1.341136416530160957e+01,-2.158094832364341631e+00
1.999999999999887024e+01,3.000000000230338415e+00,1.000000000003527134e+01,6.600000000003184430e-01,1.569999999999909468e+00,2.870000000000001819e+03,-2.174999999999775113e+00,-4.945000000000316476e+00,1.341484864310584690e+01,-2.203906024669970432e+00
2.000000000000058265e+01,2.999999998540974211e+00,9.999999999969720221e+00,6.600000000001426947e-01,1.569999999999874607e+00,2.870000000000002274e+03,-2.175000000000047340e+00,-4.945000000000456808e+00,1.341664766015226284e+01,-2.156044494043818815e+00
2.000000000000099476e+01,2.999999999028840847e+00,9.999999999951979746e+00,6.599999999998032996e-01,1.570000000000166818e+00,2.870000000000001819e+03,-2.175000000000018918e+00,-4.944999999999623697e+00,1.343898642016081979e+01,-2.162736652439205987e+00
2.000000000000018119e+01,2.999999998273621848e+00,9.999999999998525624e+00,6.600000000000825207e-01,1.569999999999990292e+00,2.870000000000001819e+03,-2.174999999999948752e+00,-4.944999999999922125e+00,1.339071432892468749e+01,-2.193934684054284379e+00
2.000000000000137135e+01,2.999999999839475517e+00,1.000000000001159961e+01,6.599999999998168443e-01,1.570000000000013163e+00,2.870000000000001819e+03,-2.175000000000093525e+00,-4.945000000000035811e+00,1.341879339023398643e+01,-2.194620170615619870e+00
2.000000000000048672e+01,2.999999999282810137e+00,9.999999999971159070e+00,6.600000000000489919e-01,1.569999999999895923e+00,2.870000000000001364e+03,-2.175000000000076650e+00,-4.945000000000185914e+00,1.339101718212436687e+01,-2.155568510561796991e+00
1.999999999999975486e+01,3.000000001194950361e+00,1.000000000001805667e+01,6.600000000001726708e-01,1.569999999999859286e+00,2.870000000000001819e+03,-2.174999999999895461e+00,-4.945000000000240981e+00,1.339362070758594747e+01,-2.195019238683395102e+00
2.000000000000105160e+01,2.999999999884708668e+00,9.999999999931310057e+00,6.599999999997266942e-01,1.570000000000041585e+00,2.870000000000001819e+03,-2.175000000000263167e+00,-4.944999999999790674e+00,1.339399409586993883e+01,-2.180285100250439534e+00
1.999999999999987921e+01,2.999999998928184919e+00,9.999999999952390084e+00,6.600000000000173506e-01,1.569999999999752704e+00,2.870000000000001819e+03,-2.175000000000179234e+00,-4.945000000000749907e+00,1.340538098837935266e+01,-2.150188014759127686e+00
2.000000000000040146e+01,2.999999997967345511e+00,9.999999999951382890e+00,6.600000000000414424e-01,1.569999999999695639e+00,2.870000000000001819e+03,-2.175000000000248956e+00,-4.945000000000840501e+00,1.339816586484199945e+01,-2.159845689862485596e+00
2.000000000000203926e+01,3.000000000574758019e+00,9.999999999988771648e+00,6.599999999996104538e-01,1.570000000000065787e+00,2.870000000000001819e+03,-2.175000000000431033e+00,-4.944999999999778240e+00,1.339079900388188626e+01,-2.162789405628906980e+00
1.999999999999957012e+01,2.999999999678908846e+00,1.000000000002387246e+01,6.600000000002540501e-01,1.570000000000018270e+00,2.870000000000001819e+03,-2.174999999999708056e+00,-4.944999999999849294e+00,1.341091115613234841e+01,-2.164340429439702174e+00
1.999999999999955946e+01,2.999999997040121880e+00,9.999999999972368769e+00,6.600000000000879607e-01,1.570000000000011386e+00,2.870000000000001364e+03,-2.174999999999839062e+00,-4.944999999999951434e+00,1.339324041181698099e+01,-2.156353893423406998e+00
2.000000000000044409e+01,2.999999999077141322e+00,9.999999999987021937e+00,6.600000000000060263e-01,1.570000000000160378e+00,2.870000000000001819e+03,-2.174999999999746247e+00,-4.944999999999879492e+00,1.343465961416316645e+01,-2.147312124604616734e+00
1.999999999999948130e+01,2.999999997788649342e+00,1.000000000000019185e+01,6.600000000003132250e-01,1.569999999999870832e+00,2.870000000000001819e+03,-2.174999999999820410e+00,-4.945000000000444373e+00,1.340375095682475148e+01,-2.186247752882418904e+00
2.000000000000001421e+01,2.999999998319700989e+00,9.999999999998985700e+00,6.599999999999194289e-01,1.570000000000179030e+00,2.870000000000001819e+03,-2.174999999999808864e+00,-4.944999999999476259e+00,1.340555812095391808e+01,-2.147551694202606498e+00
1.999999999999897682e+01,2.999999996200647612e+00,1.000000000001448086e+01,6.600000000004268008e-01,1.569999999999757145e+00,2.870000000000001819e+03,-2.174999999999697842e+00,-4.945000000000773888e+00,1.342092423132585566e+01,-2.167869847412524642e+00
1.999999999999879208e+01,2.999999995813805498e+00,1.000000000002334666e+01,6.600000000004420109e-01,1.569999999999752482e+00,2.870000000000002274e+03,-2.174999999999663647e+00,-4.945000000000816520e+00,1.342720449737911537e+01,-2.170755658532558474e+00
1.999999999999941380e+01,2.999999996341800479e+00,9.999999999963009145e+00,6.600000000001934319e-01,1.569999999999891704e+00,2.870000000000002274e+03,-2.174999999999762235e+00,-4.945000000000344009e+00,1.343086623549190506e+01,-2.176611566738392067e+00
1.999999999999848299e+01,2.999999997283775865e+00,9.999999999953434582e+00,6.600000000002884670e-01,1.569999999999799556e+00,2.870000000000001819e+03,-2.174999999999801759e+00,-4.945000000000614016e+00,1.343379987885219862e+01,-2.166139879297748205e+00
1.999999999999939249e+01,2.999999996543497804e+00,9.999999999934702899e+00,6.600000000001475797e-01,1.569999999999895257e+00,2.870000000000002274e+03,-2.174999999999853273e+00,-4.945000000000336904e+00,1.342932465645213291e+01,-2.158601616244468779e+00
2.000000000000065725e+01,2.999999998922376676e+00,1.000000000003148770e+01,6.599999999997112621e-01,1.570000000000244533e+00,2.870000000000001819e+03,-2.174999999999926104e+00,-4.944999999999160067e+00,1.338918109314639970e+01,-2.171011833761738785e+00
1.999999999999815259e+01,2.999999995915240802e+00,9.999999999927215555e+00,6.600000000002367306e-01,1.569999999999775131e+00,2.870000000000001819e+03,-2.174999999999808864e+00,-4.945000000000637996e+00,1.338282703667921147e+01,-2.173843897015762305e+00
1.999999999999930367e+01,2.999999996396174318e+00,9.999999999991581845e+00,6.600000000002134160e-01,1.570000000000037810e+00,2.870000000000001819e+03,-2.174999999999615241e+00,-4.944999999999883045e+00,1.338368845156680109e+01,-2.172023813220910426e+00
