1.999999999999896971e+01,3.000000001033025221e+00,1.000000000001867839e+01,6.600000000000979528e-01,1.569999999999898588e+00,2.870000000000001819e+03,-2.175000000000054889e+00,-4.945000000000270290e+00,1.339693028310404088e+01,-2.164840526122424169e+00
1.999999999999865707e+01,3.000000000526137356e+00,1.000000000001969447e+01,6.600000000004965228e-01,1.569999999999742712e+00,2.870000000000001819e+03,-2.174999999999629452e+00,-4.945000000000616680e+00,1.338696077239488069e+01,-2.170278379002323899e+00
1.999999999999945999e+01,2.999999998305913351e+00,9.999999999997701394e+00,6.599999999996564171e-01,1.570000000000236318e+00,2.870000000000001819e+03,-2.175000000000092193e+00,-4.944999999999269313e+00,1.339569983916885398e+01,-2.182275525935176930e+00
1.999999999999996092e+01,2.999999998214563313e+00,1.000000000003354472e+01,6.600000000002490541e-01,1.569999999999880602e+00,2.870000000000001819e+03,-2.174999999999875921e+00,-4.945000000000522533e+00,1.341264498755533729e+01,-2.174452982662345768e+00
1.999999999999746692e+01,2.999999997609504199e+00,1.000000000000751044e+01,6.600000000002440581e-01,1.569999999999720286e+00,2.870000000000001819e+03,-2.174999999999970957e+00,-4.945000000000566054e+00,1.340409016019374988e+01,-2.180627640822303981e+00
1.999999999999847589e+01,2.999999998494102371e+00,9.999999999991613819e+00,6.600000000004091483e-01,1.569999999999607487e+00,2.870000000000001819e+03,-2.175000000000017586e+00,-4.945000000001156693e+00,1.339528385919148690e+01,-2.179924691202689946e+00
1.999999999999998579e+01,2.999999999188110333e+00,1.000000000001513101e+01,6.599999999998508171e-01,1.570000000000171925e+00,2.870000000000001364e+03,-2.174999999999908784e+00,-4.944999999999518892e+00,1.341511717395249015e+01,-2.168508484283119930e+00
1.999999999999975842e+01,2.999999999375208670e+00,1.000000000002361489e+01,6.599999999998222844e-01,1.570000000000193463e+00,2.870000000000001364e+03,-2.174999999999897238e+00,-4.944999999999422968e+00,1.341516394969024084e+01,-2.170956986970938196e+00
2.000000000000036238e+01,2.999999996634131527e+00,9.999999999989292121e+00,6.599999999994373701e-01,1.570000000000429274e+00,2.870000000000001819e+03,-2.175000000000101519e+00,-4.944999999998699103e+00,1.342445910420061672e+01,-2.168494559965177260e+00
2.000000000000031619e+01,2.999999996621044662e+00,9.999999999988405719e+00,6.599999999994918820e-01,1.570000000000397744e+00,2.870000000000001819e+03,-2.175000000000086420e+00,-4.944999999998825224e+00,1.342478674057420740e+01,-2.169812285610359659e+00
1.999999999999881339e+01,2.999999996160184423e+00,1.000000000003417178e+01,6.600000000000891820e-01,1.570000000000045803e+00,2.870000000000001819e+03,-2.174999999999775113e+00,-4.944999999999912355e+00,1.341177895878589332e+01,-2.178169970017832302e+00
2.000000000000068567e+01,2.999999999027763486e+00,9.999999999983300469e+00,6.599999999997914202e-01,1.570000000000172813e+00,2.870000000000001819e+03,-2.175000000000096190e+00,-4.944999999999648566e+00,1.340923150377301987e+01,-2.169682234599358939e+00
1.999999999999972644e+01,2.999999998800912060e+00,1.000000000003083933e+01,6.599999999999879297e-01,1.570000000000072227e+00,2.870000000000001819e+03,-2.175000000000010481e+00,-4.944999999999946105e+00,1.341687786767139201e+01,-2.176530369920792296e+00
1.999999999999979039e+01,2.999999997029297649e+00,9.999999999976202147e+00,6.599999999996799538e-01,1.569999999999992735e+00,2.870000000000001819e+03,-2.175000000000369749e+00,-4.944999999999797780e+00,1.338289161032135155e+01,-2.169635837026252290e+00
1.999999999999850786e+01,2.999999997448302924e+00,1.000000000000168399e+01,6.600000000001814415e-01,1.569999999999859730e+00,2.870000000000001364e+03,-2.174999999999827072e+00,-4.945000000000520757e+00,1.342091793985608206e+01,-2.190249982037940413e+00
1.999999999999863221e+01,2.999999998018816783e+00,1.000000000000960476e+01,6.600000000002737011e-01,1.569999999999864837e+00,2.870000000000001819e+03,-2.174999999999760014e+00,-4.945000000000512763e+00,1.342405941453891316e+01,-2.184538907530420460e+00
1.999999999999928590e+01,2.999999998288382486e+00,1.000000000001789857e+01,6.599999999999439648e-01,1.570000000000035589e+00,2.870000000000001819e+03,-2.174999999999868372e+00,-4.944999999999748042e+00,1.341774300253595342e+01,-2.175232149254152425e+00
1.999999999999809219e+01,2.999999999476413937e+00,1.000000000002397371e+01,6.600000000001081668e-01,1.569999999999924567e+00,2.870000000000001364e+03,-2.174999999999863487e+00,-4.945000000000113083e+00,1.341008859021433430e+01,-2.184042345533434570e+00
1.999999999999837641e+01,2.999999999698245823e+00,1.000000000002602718e+01,6.600000000006380763e-01,1.569999999999510010e+00,2.870000000000001819e+03,-2.174999999999891465e+00,-4.945000000001398277e+00,1.339847570713180325e+01,-2.167708897025683257e+00
2.000000000000122569e+01,2.999999999080556368e+00,9.999999999966252773e+00,6.599999999998968914e-01,1.569999999999840412e+00,2.870000000000001819e+03,-2.175000000000272937e+00,-4.945000000000586482e+00,1.339647086215926741e+01,-2.182142345061190980e+00
1.999999999999837286e+01,2.999999999423307528e+00,1.000000000000075850e+01,6.600000000002899103e-01,1.569999999999784901e+00,2.870000000000001819e+03,-2.174999999999912781e+00,-4.945000000000697504e+00,1.341438039766640955e+01,-2.195182638570657208e+00
2.000000000000012079e+01,2.999999998985406258e+00,9.999999999971162623e+00,6.599999999997943068e-01,1.569999999999981188e+00,2.870000000000001819e+03,-2.175000000000167688e+00,-4.945000000000124629e+00,1.340620727718636651e+01,-2.183024751837055355e+00
1.999999999999915090e+01,3.000000001299482300e+00,1.000000000003243450e+01,6.600000000002667067e-01,1.569999999999848406e+00,2.870000000000001364e+03,-2.174999999999810196e+00,-4.945000000000439044e+00,1.340892663483656122e+01,-2.185415567803799863e+00
1.999999999999902300e+01,2.999999999021253583e+00,9.999999999972951414e+00,6.600000000001579048e-01,1.569999999999964091e+00,2.870000000000001819e+03,-2.174999999999850164e+00,-4.944999999999998508e+00,1.339771980743660507e+01,-2.174136164383438263e+00
1.999999999999902300e+01,3.000000001303920527e+00,9.999999999985959676e+00,6.600000000002204104e-01,1.569999999999735607e+00,2.870000000000001819e+03,-2.174999999999998934e+00,-4.945000000001002149e+00,1.339560486647930304e+01,-2.170782130419097733e+00
1.999999999999826628e+01,2.999999998827768355e+00,9.999999999992558841e+00,6.600000000002447242e-01,1.569999999999708740e+00,2.870000000000001819e+03,-2.174999999999935429e+00,-4.945000000000768559e+00,1.340199958597506935e+01,-2.185451558829929475e+00
1.999999999999825917e+01,2.999999999769051851e+00,1.000000000001310063e+01,6.600000000001127187e-01,1.570000000000021823e+00,2.870000000000001819e+03,-2.174999999999775113e+00,-4.944999999999995843e+00,1.341174698309847280e+01,-2.183495812547044945e+00
1.999999999999953459e+01,2.999999997029462850e+00,9.999999999966540543e+00,6.599999999998961142e-01,1.569999999999979190e+00,2.870000000000001819e+03,-2.174999999999980282e+00,-4.944999999999946994e+00,1.340536450200012020e+01,-2.166532279332735289e+00
2.000000000000124700e+01,3.000000000080560447e+00,9.999999999993027799e+00,6.599999999996488675e-01,1.570000000000097096e+00,2.870000000000001819e+03,-2.175000000000177902e+00,-4.944999999999915907e+00,1.340053352555732324e+01,-2.178893549796968365e+00
2.000000000000127898e+01,3.000000000964098135e+00,1.000000000006884271e+01,6.599999999999146549e-01,1.570000000000095097e+00,2.870000000000001819e+03,-2.174999999999954969e+00,-4.945000000000000284e+00,1.342198478673867790e+01,-2.174556103707871557e+00
2.000000000000132516e+01,3.000000001065472599e+00,1.000000000006415490e+01,6.599999999998945599e-01,1.570000000000092655e+00,2.870000000000001819e+03,-2.174999999999954081e+00,-4.945000000000020712e+00,1.342256908257930625e+01,-2.179426565412190708e+00
2.000000000000038369e+01,2.999999999524188166e+00,1.000000000003471712e+01,6.599999999999651701e-01,1.569999999999908580e+00,2.870000000000001819e+03,-2.175000000000061107e+00,-4.945000000000422169e+00,1.341068376665276318e+01,-2.174361367280674084e+00
1.999999999999894840e+01,3.000000000418247659e+00,1.000000000005488054e+01,6.600000000004118128e-01,1.569999999999801554e+00,2.870000000000001819e+03,-2.174999999999743583e+00,-4.945000000000615792e+00,1.339969480392089984e+01,-2.171615530114051840e+00
1.999999999999812061e+01,2.999999998118558331e+00,1.000000000004219380e+01,6.600000000003239942e-01,1.569999999999962093e+00,2.870000000000001364e+03,-2.174999999999737366e+00,-4.945000000000012719e+00,1.340149869345973244e+01,-2.181417589464124784e+00
1.999999999999864997e+01,2.999999997281119324e+00,1.000000000001441514e+01,6.600000000003929390e-01,1.569999999999822871e+00,2.870000000000001819e+03,-2.174999999999769340e+00,-4.945000000000443485e+00,1.341833147929791004e+01,-2.164627854489807657e+00
1.999999999999873879e+01,2.999999997479319003e+00,1.000000000001806022e+01,6.600000000003657386e-01,1.569999999999821760e+00,2.870000000000001819e+03,-2.174999999999800870e+00,-4.945000000000453255e+00,1.341891118601397714e+01,-2.166434477884301213e+00
2.000000000000091660e+01,2.999999999992248423e+00,1.000000000009883827e+01,6.599999999997039346e-01,1.570000000000255636e+00,2.870000000000001819e+03,-2.175000000000058886e+00,-4.944999999999246221e+00,1.340345369706216516e+01,-2.160944305602169990e+00
2.000000000000110134e+01,2.999999999890710978e+00,1.000000000010503243e+01,6.599999999997480105e-01,1.570000000000220330e+00,2.870000000000001819e+03,-2.175000000000045119e+00,-4.944999999999390106e+00,1.340476361724044985e+01,-2.159502806770992045e+00
2.000000000000128964e+01,3.000000000322888383e+00,1.000000000004490808e+01,6.599999999994718980e-01,1.570000000000222995e+00,2.870000000000000909e+03,-2.175000000000286260e+00,-4.944999999999413198e+00,1.340831844059041877e+01,-2.168842402390196877e+00
1.999999999999968381e+01,2.999999999457304334e+00,1.000000000001545963e+01,6.599999999996208899e-01,1.570000000000226770e+00,2.870000000000001819e+03,-2.175000000000065548e+00,-4.944999999999295959e+00,1.339327941935344946e+01,-2.186148281867665855e+00
1.999999999999733902e+01,2.999999997656209949e+00,9.999999999977639220e+00,6.600000000006351897e-01,1.569999999999615259e+00,2.870000000000001364e+03,-2.174999999999588596e+00,-4.945000000001005702e+00,1.338828995865366878e+01,-2.177327437288801626e+00
1.999999999999988987e+01,2.999999998708768434e+00,1.000000000007850964e+01,6.600000000000203482e-01,1.570000000000139728e+00,2.870000000000001819e+03,-2.174999999999880806e+00,-4.944999999999645013e+00,1.342766991894154849e+01,-2.163609386031389636e+00
1.999999999999973355e+01,2.999999998902350917e+00,1.000000000008487788e+01,6.600000000000117995e-01,1.570000000000169704e+00,2.870000000000001819e+03,-2.174999999999832845e+00,-4.944999999999550866e+00,1.342509827383106469e+01,-2.164131279042714073e+00
2.000000000000135358e+01,2.999999998421016834e+00,1.000000000005801937e+01,6.599999999999698330e-01,1.569999999999936335e+00,2.870000000000001819e+03,-2.175000000000034461e+00,-4.945000000000339568e+00,1.341542059958885780e+01,-2.155775256881109936e+00
2.000000000000107292e+01,2.999999998801174961e+00,1.000000000006545875e+01,6.600000000000119105e-01,1.569999999999935891e+00,2.870000000000001819e+03,-2.174999999999975842e+00,-4.945000000000338680e+00,1.341866706172628554e+01,-2.158757530553827575e+00
1.999999999999860023e+01,2.999999999536262951e+00,9.999999999993638866e+00,6.600000000002256284e-01,1.570000000000005391e+00,2.870000000000001364e+03,-2.174999999999705391e+00,-4.944999999999853735e+00,1.339385132005374146e+01,-2.173391155374320149e+00
2.000000000000011013e+01,2.999999999182153321e+00,9.999999999993214317e+00,6.600000000002391731e-01,1.569999999999799112e+00,2.870000000000001819e+03,-2.175000000000020250e+00,-4.945000000000612239e+00,1.339222417052887693e+01,-2.166540159523704823e+00
1.999999999999962341e+01,2.999999999584479493e+00,9.999999999968167685e+00,6.600000000001960965e-01,1.569999999999853069e+00,2.870000000000001819e+03,-2.174999999999881695e+00,-4.945000000000363549e+00,1.339589990635172789e+01,-2.170294860606726495e+00
2.000000000000004619e+01,2.999999999105502635e+00,9.999999999946972196e+00,6.600000000001586820e-01,1.569999999999865947e+00,2.870000000000001819e+03,-2.174999999999947420e+00,-4.945000000000483453e+00,1.339403729759223616e+01,-2.176704480130795538e+00
2.000000000000067146e+01,2.999999998518971367e+00,1.000000000000191491e+01,6.599999999997737676e-01,1.570000000000220330e+00,2.870000000000001819e+03,-2.174999999999980727e+00,-4.944999999999428297e+00,1.343223463115988991e+01,-2.165897952592255482e+00
2.000000000000075673e+01,2.999999998658137379e+00,1.000000000000336620e+01,6.599999999998066302e-01,1.570000000000170814e+00,2.870000000000001819e+03,-2.174999999999988720e+00,-4.944999999999589058e+00,1.343271066564677518e+01,-2.164494473966308785e+00
1.999999999999921130e+01,2.999999999194884026e+00,1.000000000000441425e+01,6.600000000004185852e-01,1.569999999999762919e+00,2.870000000000001819e+03,-2.174999999999791989e+00,-4.945000000000655760e+00,1.340421593900827624e+01,-2.147856264261160941e+00
1.999999999999929301e+01,2.999999999184345789e+00,9.999999999989999111e+00,6.600000000003439782e-01,1.569999999999790674e+00,2.870000000000001819e+03,-2.174999999999818190e+00,-4.945000000000577600e+00,1.339985368564782853e+01,-2.151233999044748213e+00
1.999999999999943867e+01,3.000000001092971491e+00,1.000000000004228617e+01,6.599999999999304201e-01,1.569999999999982299e+00,2.870000000000001364e+03,-2.175000000000081979e+00,-4.944999999999966533e+00,1.339528411182275924e+01,-2.168827106230231561e+00
1.999999999999718270e+01,2.999999999811852724e+00,1.000000000004242473e+01,6.600000000005118439e-01,1.569999999999970530e+00,2.870000000000001364e+03,-2.174999999999477129e+00,-4.945000000000006501e+00,1.341246687065382304e+01,-2.187672243901089608e+00
1.999999999999936051e+01,3.000000000992264493e+00,1.000000000003901413e+01,6.600000000003014566e-01,1.569999999999867946e+00,2.870000000000001819e+03,-2.174999999999824851e+00,-4.945000000000365326e+00,1.341699952167392063e+01,-2.175699023736346049e+00
1.999999999999942446e+01,3.000000000947625978e+00,1.000000000011109513e+01,6.600000000002684830e-01,1.569999999999978746e+00,2.870000000000001819e+03,-2.174999999999839506e+00,-4.945000000000123741e+00,1.343450564064395181e+01,-2.172957735228651543e+00
1.999999999999925393e+01,3.000000000635414832e+00,1.000000000010746959e+01,6.600000000003454215e-01,1.569999999999942109e+00,2.870000000000001819e+03,-2.174999999999812417e+00,-4.945000000000264073e+00,1.343409575091924957e+01,-2.173784317144913381e+00
1.999999999999838707e+01,2.999999998784568689e+00,1.000000000005927525e+01,6.600000000003735101e-01,1.569999999999939222e+00,2.870000000000001819e+03,-2.174999999999746692e+00,-4.945000000000330687e+00,1.341198817418151634e+01,-2.187637339068975617e+00
2.000000000000010658e+01,2.999999998219843977e+00,1.000000000002042277e+01,6.599999999999913713e-01,1.569999999999935891e+00,2.870000000000001819e+03,-2.175000000000153921e+00,-4.945000000000260520e+00,1.342135229844691935e+01,-2.144887740961180178e+00
2.000000000000051159e+01,2.999999998167632409e+00,1.000000000000037126e+01,6.599999999999757172e-01,1.569999999999885931e+00,2.870000000000001819e+03,-2.175000000000229861e+00,-4.945000000000407070e+00,1.341946778008234098e+01,-2.139391678817168962e+00
2.000000000000006395e+01,2.999999998246607902e+00,1.000000000001785594e+01,6.600000000000353362e-01,1.569999999999899920e+00,2.870000000000001819e+03,-2.175000000000149480e+00,-4.945000000000343121e+00,1.341914418596180347e+01,-2.142588707289003747e+00
1.999999999999976907e+01,2.999999998681468494e+00,1.000000000005288037e+01,6.599999999999227596e-01,1.570000000000031148e+00,2.870000000000001364e+03,-2.175000000000149480e+00,-4.945000000000039364e+00,1.340349406192488857e+01,-2.170215611465577954e+00
2.000000000000044409e+01,3.000000000375994791e+00,1.000000000005048051e+01,6.599999999998745759e-01,1.569999999999987406e+00,2.870000000000001819e+03,-2.175000000000138822e+00,-4.944999999999946105e+00,1.342003102067769227e+01,-2.180669570893973841e+00
1.999999999999997513e+01,2.999999999694269004e+00,9.999999999991601385e+00,6.599999999999006661e-01,1.570000000000096430e+00,2.870000000000001819e+03,-2.174999999999878586e+00,-4.944999999999780904e+00,1.340755369334688041e+01,-2.185568410339064460e+00
2.000000000000078515e+01,2.999999998955986236e+00,1.000000000001129408e+01,6.599999999998066302e-01,1.570000000000082885e+00,2.870000000000001819e+03,-2.175000000000071765e+00,-4.944999999999841300e+00,1.341743659019035029e+01,-2.168742762505155852e+00
2.000000000000070344e+01,2.999999998945050983e+00,1.000000000001842615e+01,6.599999999998051869e-01,1.570000000000111973e+00,2.870000000000001819e+03,-2.175000000000050004e+00,-4.944999999999762252e+00,1.341752381392322491e+01,-2.171789229069252869e+00
1.999999999999960920e+01,2.999999998940224621e+00,9.999999999979657161e+00,6.600000000002804734e-01,1.569999999999626583e+00,2.870000000000001364e+03,-2.175000000000173017e+00,-4.945000000001316565e+00,1.341072759118734226e+01,-2.189769784097849392e+00
2.000000000000027711e+01,2.999999999890738511e+00,1.000000000001209877e+01,6.599999999998125144e-01,1.570000000000065565e+00,2.870000000000001819e+03,-2.175000000000046896e+00,-4.944999999999727613e+00,1.342999161551054321e+01,-2.176711567309325357e+00
2.000000000000018474e+01,3.000000000114692700e+00,1.000000000000990674e+01,6.599999999998524824e-01,1.570000000000038698e+00,2.870000000000001819e+03,-2.175000000000045119e+00,-4.944999999999807550e+00,1.343043205998560019e+01,-2.174842266492120313e+00
2.000000000000043343e+01,2.999999999679661133e+00,9.999999999967130293e+00,6.599999999996566391e-01,1.570000000000110196e+00,2.870000000000001819e+03,-2.175000000000131273e+00,-4.944999999999559748e+00,1.340029982096721284e+01,-2.184198565829556848e+00
1.999999999999923261e+01,2.999999999891343805e+00,1.000000000006081002e+01,6.600000000001965406e-01,1.569999999999924123e+00,2.870000000000001819e+03,-2.174999999999715161e+00,-4.945000000000137952e+00,1.340078448166457648e+01,-2.176902441462295723e+00
1.999999999999893063e+01,2.999999999184120192e+00,1.000000000005702638e+01,6.600000000002002043e-01,1.570000000000067564e+00,2.870000000000001819e+03,-2.174999999999714717e+00,-4.944999999999907914e+00,1.342068665533814098e+01,-2.156650866021140089e+00
1.999999999999907274e+01,2.999999999191696798e+00,1.000000000006094503e+01,6.600000000001238210e-01,1.570000000000122187e+00,2.870000000000001819e+03,-2.174999999999734701e+00,-4.944999999999744489e+00,1.341717909958854626e+01,-2.157038625130833331e+00
2.000000000000093436e+01,3.000000000088132168e+00,1.000000000005267431e+01,6.599999999998724665e-01,1.570000000000078222e+00,2.870000000000001819e+03,-2.175000000000025135e+00,-4.944999999999761364e+00,1.342918753091582929e+01,-2.176169777273106121e+00
2.000000000000111910e+01,3.000000000262551314e+00,1.000000000006027534e+01,6.599999999997953060e-01,1.570000000000134621e+00,2.870000000000001819e+03,-2.175000000000062883e+00,-4.944999999999629914e+00,1.342838302769917469e+01,-2.177372121050668241e+00
2.000000000000019540e+01,2.999999997086203685e+00,9.999999999967345232e+00,6.600000000000845191e-01,1.569999999999883267e+00,2.870000000000001819e+03,-2.175000000000073097e+00,-4.945000000000280949e+00,1.339236062628291712e+01,-2.167055374485489239e+00
2.000000000000036593e+01,2.999999998753882124e+00,9.999999999988627764e+00,6.599999999999914824e-01,1.569999999999930784e+00,2.870000000000001364e+03,-2.175000000000058886e+00,-4.945000000000298712e+00,1.341198087706165332e+01,-2.171439167903632672e+00
1.999999999999826983e+01,2.999999997521935580e+00,9.999999999956095564e+00,6.600000000003815037e-01,1.569999999999937446e+00,2.870000000000001819e+03,-2.174999999999642775e+00,-4.945000000000195683e+00,1.340362866975732636e+01,-2.160456610889627704e+00
2.000000000000020961e+01,2.999999997496903603e+00,1.000000000004038014e+01,6.600000000004162537e-01,1.569999999999761142e+00,2.870000000000001819e+03,-2.174999999999841283e+00,-4.945000000000712603e+00,1.341394047376745924e+01,-2.145759877881944000e+00
2.000000000000015632e+01,2.999999997387056361e+00,1.000000000003387690e+01,6.600000000004370149e-01,1.569999999999725393e+00,2.870000000000001819e+03,-2.174999999999851052e+00,-4.945000000000813856e+00,1.340952824073410454e+01,-2.147894531675770047e+00
1.999999999999963762e+01,2.999999998403494406e+00,1.000000000000236255e+01,6.599999999998203970e-01,1.570000000000040252e+00,2.870000000000001819e+03,-2.175000000000153921e+00,-4.944999999999927454e+00,1.338894895151393527e+01,-2.172965202392084016e+00
1.999999999999666400e+01,2.999999998413955371e+00,9.999999999982147614e+00,6.600000000004581091e-01,1.569999999999881268e+00,2.870000000000001819e+03,-2.174999999999442490e+00,-4.945000000000341345e+00,1.341540718469492255e+01,-2.183900372131271972e+00
2.000000000000127187e+01,2.999999998496037712e+00,9.999999999992736477e+00,6.599999999999676126e-01,1.569999999999919238e+00,2.870000000000001819e+03,-2.175000000000182343e+00,-4.945000000000355556e+00,1.341893782004280311e+01,-2.160917243575113389e+00
2.000000000000106581e+01,2.999999998797159062e+00,9.999999999991828759e+00,6.599999999999868194e-01,1.569999999999897700e+00,2.870000000000001819e+03,-2.175000000000152145e+00,-4.945000000000398188e+00,1.341499366122866022e+01,-2.162095222649248694e+00
1.999999999999911893e+01,2.999999995698102939e+00,9.999999999971082687e+00,6.600000000003662937e-01,1.569999999999788898e+00,2.870000000000001819e+03,-2.174999999999895461e+00,-4.945000000000623785e+00,1.339960251652633616e+01,-2.159176739258636957e+00
1.999999999999875655e+01,2.999999998991018657e+00,1.000000000007221423e+01,6.600000000005625811e-01,1.569999999999677653e+00,2.870000000000001819e+03,-2.174999999999846167e+00,-4.945000000001004814e+00,1.339246932451196948e+01,-2.151517481730036430e+00
1.999999999999917222e+01,2.999999999883337320e+00,1.000000000000693490e+01,6.600000000001542411e-01,1.569999999999883045e+00,2.870000000000001364e+03,-2.174999999999911005e+00,-4.945000000000406182e+00,1.339972022685140374e+01,-2.173451519773267560e+00
1.999999999999939604e+01,2.999999998945213964e+00,1.000000000000317613e+01,6.600000000001353673e-01,1.570000000000120410e+00,2.870000000000001364e+03,-2.174999999999661426e+00,-4.944999999999627249e+00,1.340782863235277489e+01,-2.184364925065088503e+00
1.999999999999931077e+01,3.000000002048968550e+00,1.000000000006436451e+01,6.599999999997527844e-01,1.570000000000133067e+00,2.870000000000001819e+03,-2.175000000000065548e+00,-4.944999999999599716e+00,1.340785764835710658e+01,-2.189183094101329274e+00
1.999999999999770495e+01,2.999999999225792191e+00,1.000000000004733458e+01,6.600000000002462786e-01,1.569999999999840190e+00,2.870000000000001819e+03,-2.174999999999849276e+00,-4.945000000000369766e+00,1.339263990080222122e+01,-2.173106855287943340e+00
1.999999999999956302e+01,2.999999998154039726e+00,1.000000000003332978e+01,6.599999999998930056e-01,1.569999999999889040e+00,2.870000000000001819e+03,-2.175000000000198774e+00,-4.945000000000351115e+00,1.339636661819444008e+01,-2.168505120569778288e+00
1.999999999999903366e+01,2.999999999916518334e+00,1.000000000006311218e+01,6.600000000000364464e-01,1.569999999999939222e+00,2.870000000000001819e+03,-2.174999999999998490e+00,-4.945000000000214335e+00,1.339742469320792750e+01,-2.171546438674005319e+00
1.999999999999815969e+01,3.000000000553382229e+00,1.000000000000356337e+01,6.600000000008799939e-01,1.569999999999266427e+00,2.870000000000001819e+03,-2.174999999999733369e+00,-4.945000000001984475e+00,1.341023055305001677e+01,-2.184328981652225110e+00
2.000000000000175859e+01,3.000000000830457481e+00,9.999999999979591436e+00,6.599999999997651079e-01,1.570000000000001616e+00,2.870000000000001819e+03,-2.175000000000356870e+00,-4.945000000000142393e+00,1.340805396066461164e+01,-2.174743668427851162e+00
2.000000000000081712e+01,2.999999998421290393e+00,1.000000000003850609e+01,6.599999999996871702e-01,1.570000000000180584e+00,2.870000000000001364e+03,-2.175000000000140155e+00,-4.944999999999641460e+00,1.342268523362076671e+01,-2.185412424146595090e+00
1.999999999999972644e+01,3.000000000513764142e+00,1.000000000008825474e+01,6.599999999997243627e-01,1.570000000000225882e+00,2.870000000000001364e+03,-2.175000000000047340e+00,-4.944999999999433626e+00,1.341002917696407160e+01,-2.175579230332927771e+00
2.000000000000092371e+01,2.999999999915829996e+00,1.000000000001396927e+01,6.599999999995649347e-01,1.570000000000178808e+00,2.870000000000001819e+03,-2.175000000000144595e+00,-4.944999999999548201e+00,1.343113538643777005e+01,-2.177938227588504194e+00
2.000000000000117240e+01,3.000000000187408311e+00,1.000000000001558043e+01,6.599999999996452038e-01,1.570000000000084217e+00,2.870000000000001819e+03,-2.175000000000165912e+00,-4.944999999999858176e+00,1.343194844183094716e+01,-2.180305896462960469e+00
1.999999999999893774e+01,2.999999999587410926e+00,1.000000000007696421e+01,6.600000000005421530e-01,1.569999999999751150e+00,2.870000000000001819e+03,-2.174999999999666311e+00,-4.945000000000801421e+00,1.341229706174700453e+01,-2.167948580081607624e+00
1.999999999999925038e+01,2.999999999433679676e+00,1.000000000008081180e+01,6.600000000005150635e-01,1.569999999999762252e+00,2.870000000000001819e+03,-2.174999999999706723e+00,-4.945000000000788098e+00,1.341645025673535230e+01,-2.163698960523391168e+00
2.000000000000075318e+01,2.999999998231286380e+00,1.000000000000990674e+01,6.599999999997420153e-01,1.570000000000157048e+00,2.870000000000001364e+03,-2.175000000000103295e+00,-4.944999999999633467e+00,1.339487898263962862e+01,-2.176798726990287314e+00
1.999999999999957012e+01,3.000000001192087762e+00,1.000000000005909229e+01,6.599999999998980016e-01,1.570000000000088436e+00,2.870000000000000455e+03,-2.174999999999819078e+00,-4.944999999999702744e+00,1.341371405138132111e+01,-2.189521215316199587e+00
1.999999999999897682e+01,2.999999997882728309e+00,9.999999999975139886e+00,6.600000000001025047e-01,1.569999999999983631e+00,2.870000000000001819e+03,-2.174999999999821299e+00,-4.945000000000192131e+00,1.341178990305122731e+01,-2.171555761225968162e+00
2.000000000000013856e+01,2.999999998103738186e+00,1.000000000000457057e+01,6.600000000001777778e-01,1.569999999999704077e+00,2.870000000000001364e+03,-2.175000000000106404e+00,-4.945000000000986162e+00,1.341356883207630446e+01,-2.160133657975307209e+00
1.999999999999993250e+01,2.999999998254855083e+00,1.000000000000930100e+01,6.600000000002261835e-01,1.569999999999707185e+00,2.870000000000001364e+03,-2.175000000000052669e+00,-4.945000000000936424e+00,1.340918219683291746e+01,-2.158075150172797052e+00
1.999999999999916511e+01,2.999999999505769122e+00,1.000000000009995915e+01,6.600000000000053602e-01,1.570000000000141283e+00,2.870000000000001819e+03,-2.174999999999753797e+00,-4.944999999999666329e+00,1.339825332517474266e+01,-2.166587233149729563e+00
1.999999999999939959e+01,2.999999999205459567e+00,9.999999999965295316e+00,6.600000000001904343e-01,1.569999999999735385e+00,2.870000000000001364e+03,-2.175000000000002043e+00,-4.945000000000735696e+00,1.338715444868323878e+01,-2.172368990485391116e+00
1.999999999999829825e+01,2.999999998673445134e+00,1.000000000001377209e+01,6.600000000003807266e-01,1.569999999999681428e+00,2.870000000000001819e+03,-2.174999999999827960e+00,-4.945000000000920437e+00,1.341822043079523930e+01,-2.188794493176505984e+00
1.999999999999927525e+01,2.999999999378545112e+00,1.000000000005176837e+01,6.600000000000120215e-01,1.570000000000014717e+00,2.870000000000001819e+03,-2.174999999999919886e+00,-4.944999999999874163e+00,1.340843090083069278e+01,-2.170372178412383057e+00
1.999999999999998579e+01,2.999999999311031562e+00,9.999999999939502615e+00,6.599999999996174482e-01,1.570000000000333795e+00,2.870000000000001364e+03,-2.174999999999903011e+00,-4.944999999998985096e+00,1.339978697652415107e+01,-2.187713574860546295e+00
2.000000000000066080e+01,2.999999999439828535e+00,9.999999999992956745e+00,6.599999999994584643e-01,1.570000000000338014e+00,2.870000000000001819e+03,-2.175000000000070877e+00,-4.944999999999136975e+00,1.341025738749415375e+01,-2.182361758833620602e+00
1.999999999999908340e+01,3.000000000666997568e+00,1.000000000007253576e+01,6.600000000001978728e-01,1.569999999999903251e+00,2.870000000000001819e+03,-2.174999999999841727e+00,-4.945000000000295159e+00,1.339471612238827625e+01,-2.173454427161755742e+00
1.999999999999947775e+01,2.999999998879826713e+00,1.000000000001493738e+01,6.600000000004574430e-01,1.569999999999735607e+00,2.870000000000001364e+03,-2.174999999999708056e+00,-4.945000000000866258e+00,1.340759196890624771e+01,-2.173506984661584429e+00
1.999999999999773692e+01,2.999999998395825873e+00,9.999999999993439914e+00,6.600000000007137935e-01,1.569999999999672102e+00,2.870000000000001819e+03,-2.174999999999521538e+00,-4.945000000000916884e+00,1.339906213752409059e+01,-2.162935954693516738e+00
1.999999999999869971e+01,2.999999999644911597e+00,1.000000000003377032e+01,6.600000000004254685e-01,1.569999999999805551e+00,2.870000000000001819e+03,-2.174999999999719602e+00,-4.945000000000449702e+00,1.339393747196495887e+01,-2.160719932734677773e+00
2.000000000000115818e+01,2.999999998359685005e+00,9.999999999988796517e+00,6.599999999997189226e-01,1.570000000000066454e+00,2.870000000000001364e+03,-2.175000000000169020e+00,-4.944999999999884821e+00,1.341692939612446978e+01,-2.171318623613376353e+00
2.000000000000033751e+01,2.999999998289376801e+00,9.999999999958902208e+00,6.600000000002097522e-01,1.569999999999677875e+00,2.870000000000001364e+03,-2.175000000000031797e+00,-4.945000000000951523e+00,1.341552932444069057e+01,-2.180770534542361805e+00
1.999999999999887379e+01,3.000000000237249775e+00,9.999999999993244515e+00,6.600000000000725286e-01,1.570000000000071783e+00,2.870000000000001819e+03,-2.174999999999805755e+00,-4.944999999999850182e+00,1.341135128585402292e+01,-2.159438509872822820e+00
1.999999999999865707e+01,3.000000000412505585e+00,9.999999999999012346e+00,6.600000000001207123e-01,1.570000000000042917e+00,2.870000000000001819e+03,-2.174999999999778666e+00,-4.944999999999920348e+00,1.341123124494505703e+01,-2.162484183824496142e+00
1.999999999999888800e+01,3.000000000624233998e+00,1.000000000002084377e+01,6.600000000001317035e-01,1.569999999999828866e+00,2.870000000000001819e+03,-2.174999999999954969e+00,-4.945000000000521645e+00,1.341620328776756921e+01,-2.189236753542052494e+00
2.000000000000004974e+01,2.999999997394848794e+00,9.999999999940980544e+00,6.599999999998683586e-01,1.570000000000068008e+00,2.870000000000001819e+03,-2.174999999999988720e+00,-4.944999999999657447e+00,1.341362673527014948e+01,-2.172734528586047986e+00
1.999999999999867839e+01,2.999999999477808377e+00,9.999999999986188826e+00,6.600000000006703837e-01,1.569999999999729390e+00,2.870000000000001819e+03,-2.174999999999446931e+00,-4.945000000000832507e+00,1.340757246024860017e+01,-2.187077475211120170e+00
1.999999999999837286e+01,2.999999999169683740e+00,9.999999999985835331e+00,6.600000000000536549e-01,1.570000000000126406e+00,2.870000000000001819e+03,-2.174999999999715161e+00,-4.944999999999688534e+00,1.341810637460268474e+01,-2.176770456267175469e+00
2.000000000000057554e+01,3.000000001700337648e+00,1.000000000001032774e+01,6.599999999999607292e-01,1.569999999999939444e+00,2.870000000000001819e+03,-2.175000000000133937e+00,-4.945000000000265850e+00,1.340856795193369067e+01,-2.183581547104292753e+00
1.999999999999957723e+01,3.000000000341546791e+00,9.999999999965856645e+00,6.600000000002009815e-01,1.569999999999825757e+00,2.870000000000001819e+03,-2.174999999999955858e+00,-4.945000000000431939e+00,1.341311834071774634e+01,-2.189359742181972823e+00
1.999999999999964473e+01,2.999999998729562467e+00,9.999999999970265563e+00,6.600000000002016476e-01,1.569999999999843743e+00,2.870000000000001819e+03,-2.174999999999875477e+00,-4.945000000000417728e+00,1.340529581751894028e+01,-2.168273488674638205e+00
1.999999999999818456e+01,2.999999998447650196e+00,1.000000000001755929e+01,6.600000000004075940e-01,1.569999999999735607e+00,2.870000000000001819e+03,-2.174999999999917666e+00,-4.945000000000715268e+00,1.341386314121760392e+01,-2.169749612051689258e+00
2.000000000000125766e+01,2.999999999241633741e+00,9.999999999970700770e+00,6.599999999996546407e-01,1.570000000000134177e+00,2.870000000000001819e+03,-2.175000000000097966e+00,-4.944999999999682316e+00,1.340971350041586341e+01,-2.191134119977122818e+00
2.000000000000163070e+01,2.999999996787688694e+00,1.000000000000061817e+01,6.599999999998349409e-01,1.569999999999995621e+00,2.870000000000001819e+03,-2.175000000000156586e+00,-4.945000000000110418e+00,1.339447993200658793e+01,-2.177851059204563011e+00
1.999999999999941380e+01,3.000000000830817193e+00,1.000000000012543921e+01,6.599999999997518962e-01,1.570000000000373541e+00,2.870000000000001819e+03,-2.174999999999926548e+00,-4.944999999998953122e+00,1.339941505080941297e+01,-2.179274355388873818e+00
1.999999999999878852e+01,2.999999999849980004e+00,1.000000000003248957e+01,6.600000000001549072e-01,1.569999999999824869e+00,2.870000000000001819e+03,-2.174999999999881251e+00,-4.945000000000373319e+00,1.340572186702301494e+01,-2.168563608554427979e+00
1.999999999999824141e+01,2.999999999244803650e+00,1.000000000003951151e+01,6.600000000005040723e-01,1.569999999999607487e+00,2.870000000000001819e+03,-2.174999999999778222e+00,-4.945000000001185114e+00,1.340225909399251236e+01,-2.185799756375369718e+00
1.999999999999903011e+01,2.999999998274890167e+00,1.000000000000208722e+01,6.600000000003090062e-01,1.569999999999814211e+00,2.870000000000001364e+03,-2.174999999999856826e+00,-4.945000000000529639e+00,1.339409011108153713e+01,-2.164112783629161818e+00
1.999999999999890221e+01,2.999999998884495422e+00,1.000000000002042810e+01,6.600000000004346834e-01,1.569999999999809992e+00,2.870000000000001819e+03,-2.174999999999780442e+00,-4.945000000000560725e+00,1.339560612791006022e+01,-2.160808536537014213e+00
1.999999999999962697e+01,2.999999999288697872e+00,1.000000000000656186e+01,6.600000000002238520e-01,1.569999999999962537e+00,2.870000000000001819e+03,-2.174999999999879918e+00,-4.945000000000112195e+00,1.342156873534444195e+01,-2.187401873338661318e+00
2.000000000000094502e+01,2.999999998666992518e+00,9.999999999973056219e+00,6.599999999997624434e-01,1.570000000000045359e+00,2.870000000000001364e+03,-2.175000000000123279e+00,-4.945000000000032259e+00,1.341163449998662216e+01,-2.164617213006226670e+00
2.000000000000107292e+01,2.999999998965585668e+00,9.999999999973921305e+00,6.599999999996887246e-01,1.570000000000086438e+00,2.870000000000001364e+03,-2.175000000000141487e+00,-4.944999999999894591e+00,1.341355388611519750e+01,-2.166609347381784456e+00
1.999999999999917222e+01,3.000000000054458216e+00,1.000000000002348699e+01,6.600000000001875478e-01,1.569999999999790452e+00,2.870000000000001819e+03,-2.174999999999951861e+00,-4.945000000000529639e+00,1.340283279402995831e+01,-2.188523664746186093e+00
1.999999999999871036e+01,2.999999998536732271e+00,9.999999999985318411e+00,6.600000000004404566e-01,1.569999999999793117e+00,2.870000000000001819e+03,-2.174999999999682743e+00,-4.945000000000690399e+00,1.341832675683666132e+01,-2.153261288209311175e+00
1.999999999999871392e+01,2.999999998637354004e+00,9.999999999981255883e+00,6.600000000005211698e-01,1.569999999999702966e+00,2.870000000000001819e+03,-2.174999999999686295e+00,-4.945000000000950635e+00,1.341867382098414652e+01,-2.154086235807790572e+00
1.999999999999870681e+01,2.999999999685599938e+00,1.000000000005368683e+01,6.600000000005450396e-01,1.569999999999560636e+00,2.870000000000001364e+03,-2.174999999999695621e+00,-4.945000000001331664e+00,1.341583574397169798e+01,-2.179469692366747147e+00
1.999999999999936762e+01,3.000000000139059431e+00,1.000000000001239719e+01,6.600000000002930189e-01,1.569999999999869944e+00,2.870000000000001819e+03,-2.174999999999834177e+00,-4.945000000000510099e+00,1.341404708779532839e+01,-2.171880255176413144e+00
2.000000000000039435e+01,2.999999999778529602e+00,1.000000000004377299e+01,6.600000000002017586e-01,1.569999999999847295e+00,2.870000000000001819e+03,-2.174999999999973621e+00,-4.945000000000501217e+00,1.341494647400875806e+01,-2.182820935295236353e+00
1.999999999999921130e+01,2.999999999449611376e+00,1.000000000006408918e+01,6.600000000004453415e-01,1.569999999999688978e+00,2.870000000000001819e+03,-2.174999999999793765e+00,-4.945000000001104290e+00,1.339594516563621873e+01,-2.182558907939956772e+00
1.999999999999708322e+01,2.999999999422834129e+00,9.999999999965931252e+00,6.600000000008666712e-01,1.569999999999494467e+00,2.870000000000001819e+03,-2.174999999999465139e+00,-4.945000000001592788e+00,1.340121865845787674e+01,-2.189332608747813325e+00
1.999999999999900169e+01,3.000000000216756835e+00,1.000000000006270362e+01,6.600000000001581268e-01,1.570000000000165263e+00,2.870000000000001819e+03,-2.174999999999672529e+00,-4.944999999999603268e+00,1.341566378774886203e+01,-2.171583606442965664e+00
1.999999999999888800e+01,2.999999999337570777e+00,9.999999999993004707e+00,6.600000000002650413e-01,1.569999999999992513e+00,2.870000000000001819e+03,-2.174999999999633893e+00,-4.944999999999987850e+00,1.340465287825778873e+01,-2.166247768397836282e+00
2.000000000000006750e+01,2.999999998737117757e+00,1.000000000006848921e+01,6.600000000000068034e-01,1.570000000000161267e+00,2.870000000000001364e+03,-2.174999999999888356e+00,-4.944999999999477147e+00,1.339811276493622394e+01,-2.175625061920473335e+00
1.999999999999988631e+01,2.999999999789560334e+00,1.000000000002438938e+01,6.599999999998857891e-01,1.570000000000143947e+00,2.870000000000001819e+03,-2.174999999999982947e+00,-4.944999999999512674e+00,1.339780576715501503e+01,-2.184550648224628411e+00
2.000000000000035172e+01,2.999999998482712371e+00,9.999999999970718534e+00,6.600000000003870548e-01,1.569999999999605933e+00,2.870000000000001819e+03,-2.174999999999989164e+00,-4.945000000001186002e+00,1.338892037833988624e+01,-2.164536147584867010e+00
2.000000000000062528e+01,3.000000001143717565e+00,1.000000000011835510e+01,6.600000000001061684e-01,1.570000000000002061e+00,2.870000000000001819e+03,-2.174999999999967404e+00,-4.945000000000018048e+00,1.341179411050037373e+01,-2.176588582575092357e+00
2.000000000000003553e+01,2.999999999509646020e+00,1.000000000002079581e+01,6.600000000001762235e-01,1.569999999999866613e+00,2.870000000000001819e+03,-2.174999999999971845e+00,-4.945000000000296048e+00,1.340025803075314137e+01,-2.177070313540316882e+00
1.999999999999898748e+01,2.999999999649725524e+00,1.000000000007277201e+01,6.599999999999303091e-01,1.570000000000146390e+00,2.870000000000001819e+03,-2.174999999999753353e+00,-4.944999999999446949e+00,1.340793046980793690e+01,-2.174456978614657920e+00
1.999999999999858957e+01,2.999999999124423056e+00,1.000000000003530509e+01,6.600000000003902745e-01,1.569999999999841966e+00,2.870000000000001819e+03,-2.174999999999770228e+00,-4.945000000000455032e+00,1.340088601875364915e+01,-2.178164294150406466e+00
1.999999999999875655e+01,2.999999999416272711e+00,9.999999999954139795e+00,6.600000000002718137e-01,1.569999999999608598e+00,2.870000000000001364e+03,-2.175000000000064659e+00,-4.945000000001201990e+00,1.341857825560485651e+01,-2.165677048277194761e+00
1.999999999999865707e+01,2.999999999293503361e+00,9.999999999954972907e+00,6.600000000003417577e-01,1.569999999999568852e+00,2.870000000000001364e+03,-2.175000000000050004e+00,-4.945000000001314788e+00,1.341563724868583307e+01,-2.162381387479301420e+00
2.000000000000076028e+01,2.999999998982985527e+00,1.000000000002663114e+01,6.600000000000018074e-01,1.569999999999931672e+00,2.870000000000001364e+03,-2.174999999999973177e+00,-4.945000000000176144e+00,1.341067851495864005e+01,-2.173270742601633110e+00
2.000000000000090239e+01,3.000000000023965718e+00,9.999999999996177280e+00,6.599999999995883604e-01,1.570000000000192353e+00,2.870000000000001819e+03,-2.175000000000192113e+00,-4.944999999999679652e+00,1.342191457825662049e+01,-2.172866863109947477e+00
2.000000000000137490e+01,2.999999999919945370e+00,9.999999999990722088e+00,6.599999999994919930e-01,1.570000000000240536e+00,2.870000000000001819e+03,-2.175000000000249401e+00,-4.944999999999556195e+00,1.342454060349397515e+01,-2.171211413746207519e+00
2.000000000000042633e+01,2.999999999380056792e+00,1.000000000005604228e+01,6.600000000001411404e-01,1.569999999999875495e+00,2.870000000000001819e+03,-2.174999999999946088e+00,-4.945000000000421281e+00,1.340197419479948771e+01,-2.169118648656459758e+00
1.999999999999942446e+01,2.999999999707826603e+00,1.000000000008335910e+01,6.599999999998407141e-01,1.570000000000238094e+00,2.870000000000001819e+03,-2.174999999999888800e+00,-4.944999999999340368e+00,1.343183223004584903e+01,-2.172353915367988719e+00
1.999999999999970512e+01,2.999999999721336685e+00,1.000000000009135981e+01,6.599999999997960831e-01,1.570000000000254747e+00,2.870000000000001819e+03,-2.174999999999923439e+00,-4.944999999999296847e+00,1.342946187022992355e+01,-2.173036368029043874e+00
2.000000000000002842e+01,3.000000000969095026e+00,9.999999999951215912e+00,6.599999999999353051e-01,1.569999999999863505e+00,2.870000000000001364e+03,-2.175000000000116174e+00,-4.945000000000414175e+00,1.338790178449237267e+01,-2.172259394109927744e+00
2.000000000000008527e+01,3.000000000941195566e+00,1.000000000000690648e+01,6.599999999999976996e-01,1.569999999999815099e+00,2.870000000000001819e+03,-2.175000000000156586e+00,-4.945000000000442597e+00,1.340486495028446434e+01,-2.173664602805585044e+00
1.999999999999748823e+01,2.999999998813937641e+00,1.000000000000997069e+01,6.600000000003903855e-01,1.569999999999813101e+00,2.870000000000001819e+03,-2.174999999999772893e+00,-4.945000000000503881e+00,1.340851925492367691e+01,-2.177447886159973311e+00
1.999999999999954881e+01,2.999999999141735874e+00,1.000000000002207301e+01,6.600000000003103384e-01,1.569999999999670326e+00,2.870000000000001819e+03,-2.175000000000027800e+00,-4.945000000000860929e+00,1.342362103463585576e+01,-2.161576730037197525e+00
1.999999999999933564e+01,2.999999999476948176e+00,1.000000000003299050e+01,6.600000000003266587e-01,1.569999999999692530e+00,2.870000000000001819e+03,-2.174999999999982059e+00,-4.945000000000792539e+00,1.342567591850108499e+01,-2.163978859590798720e+00
2.000000000000051514e+01,2.999999997537224239e+00,1.000000000002886935e+01,6.599999999996506439e-01,1.570000000000288276e+00,2.870000000000001819e+03,-2.175000000000030465e+00,-4.944999999999017071e+00,1.340682030566451211e+01,-2.171716358580130457e+00
2.000000000000048672e+01,2.999999997988440636e+00,9.999999999990636823e+00,6.599999999999387468e-01,1.570000000000002949e+00,2.870000000000001819e+03,-2.175000000000098854e+00,-4.944999999999937224e+00,1.340546466120354552e+01,-2.155639575631400184e+00
2.000000000000070344e+01,2.999999998032533810e+00,9.999999999989027444e+00,6.599999999999198730e-01,1.569999999999991847e+00,2.870000000000001819e+03,-2.175000000000135714e+00,-4.944999999999972751e+00,1.340681084136112311e+01,-2.156962397826314604e+00
1.999999999999812417e+01,2.999999999434256548e+00,1.000000000004121148e+01,6.600000000003272138e-01,1.569999999999903029e+00,2.870000000000001819e+03,-2.174999999999741807e+00,-4.945000000000340457e+00,1.340504221051661737e+01,-2.157155005328866615e+00
1.999999999999790745e+01,2.999999999357078284e+00,1.000000000003979395e+01,6.600000000003848344e-01,1.569999999999870166e+00,2.870000000000001819e+03,-2.174999999999704947e+00,-4.945000000000431051e+00,1.340324431605360900e+01,-2.155316829804281742e+00
2.000000000000083134e+01,2.999999999710494247e+00,9.999999999997877254e+00,6.599999999998611422e-01,1.570000000000046692e+00,2.870000000000001364e+03,-2.175000000000118394e+00,-4.944999999999843077e+00,1.341470512818123595e+01,-2.145793827645978258e+00
2.000000000000112266e+01,2.999999999706340681e+00,1.000000000000293809e+01,6.599999999997629985e-01,1.570000000000123963e+00,2.870000000000001364e+03,-2.175000000000144595e+00,-4.944999999999609486e+00,1.341533612775281448e+01,-2.145877806944779920e+00
1.999999999999936762e+01,2.999999999778596216e+00,1.000000000003990230e+01,6.600000000000759703e-01,1.570000000000064677e+00,2.870000000000001819e+03,-2.174999999999788436e+00,-4.944999999999922125e+00,1.340325496365801961e+01,-2.174165444436787276e+00
1.999999999999761968e+01,2.999999998332558260e+00,1.000000000001368328e+01,6.600000000003565237e-01,1.569999999999921902e+00,2.870000000000001819e+03,-2.174999999999662759e+00,-4.945000000000177920e+00,1.341243612911278049e+01,-2.177284884789900232e+00
1.999999999999880629e+01,2.999999998007354840e+00,9.999999999999841904e+00,6.600000000003682921e-01,1.569999999999880602e+00,2.870000000000001819e+03,-2.174999999999700950e+00,-4.945000000000418616e+00,1.342394950701768153e+01,-2.174403627636565250e+00
1.999999999999892708e+01,2.999999997827096809e+00,1.000000000000116174e+01,6.600000000004071499e-01,1.569999999999858176e+00,2.870000000000001819e+03,-2.174999999999696954e+00,-4.945000000000496776e+00,1.342944220980233361e+01,-2.172375196754066096e+00
1.999999999999888090e+01,2.999999999399423967e+00,1.000000000000525091e+01,6.600000000002794742e-01,1.569999999999958984e+00,2.870000000000001819e+03,-2.174999999999706723e+00,-4.945000000000232099e+00,1.342052730710975439e+01,-2.177514214401174097e+00
1.999999999999731770e+01,2.999999999442380716e+00,1.000000000001888978e+01,6.600000000004178080e-01,1.569999999999900586e+00,2.870000000000001819e+03,-2.174999999999587708e+00,-4.945000000000188578e+00,1.342507042906531467e+01,-2.175095219188576845e+00
1.999999999999759481e+01,2.999999999463160538e+00,1.000000000001229239e+01,6.600000000003417577e-01,1.569999999999883267e+00,2.870000000000001819e+03,-2.174999999999675637e+00,-4.945000000000266738e+00,1.342458989457887597e+01,-2.179118091790233525e+00
1.999999999999980105e+01,2.999999999268700535e+00,1.000000000003898748e+01,6.600000000002550493e-01,1.569999999999824203e+00,2.870000000000001819e+03,-2.174999999999881251e+00,-4.945000000000440821e+00,1.340243446366843294e+01,-2.180507284201882889e+00
2.000000000000074962e+01,3.000000001331516231e+00,1.000000000003577227e+01,6.599999999999670575e-01,1.570000000000003171e+00,2.870000000000001819e+03,-2.175000000000028688e+00,-4.945000000000074891e+00,1.340848709075200951e+01,-2.175169515451440994e+00
1.999999999999992895e+01,2.999999999372661819e+00,9.999999999979285903e+00,6.599999999998824585e-01,1.569999999999987184e+00,2.870000000000001819e+03,-2.175000000000097966e+00,-4.944999999999849294e+00,1.339859890961513145e+01,-2.161911221861893218e+00
2.000000000000079226e+01,2.999999997518957962e+00,9.999999999998447464e+00,6.599999999996339906e-01,1.570000000000028262e+00,2.870000000000001819e+03,-2.175000000000348876e+00,-4.944999999999790674e+00,1.339587325847362287e+01,-2.161823146698234055e+00
2.000000000000007461e+01,2.999999997612216696e+00,9.999999999932530415e+00,6.600000000000131317e-01,1.569999999999710294e+00,2.870000000000001819e+03,-2.175000000000214762e+00,-4.945000000000852047e+00,1.340799325855117274e+01,-2.186423698467119259e+00
1.999999999999991118e+01,2.999999997899956750e+00,9.999999999941291406e+00,6.600000000000982858e-01,1.569999999999873053e+00,2.870000000000001819e+03,-2.175000000000006928e+00,-4.945000000000385754e+00,1.338981627621316761e+01,-2.160566086413072462e+00
2.000000000000048317e+01,2.999999998736216700e+00,1.000000000000567546e+01,6.600000000002207434e-01,1.569999999999876827e+00,2.870000000000001364e+03,-2.174999999999964739e+00,-4.945000000000582041e+00,1.342194267245790762e+01,-2.145096307579481110e+00
2.000000000000048672e+01,2.999999998802722612e+00,1.000000000001988099e+01,6.600000000002205214e-01,1.569999999999888152e+00,2.870000000000001364e+03,-2.174999999999962519e+00,-4.945000000000527862e+00,1.342596244754838608e+01,-2.143439891704902234e+00
2.000000000000027001e+01,2.999999998625032749e+00,1.000000000001596767e+01,6.600000000002216316e-01,1.569999999999904139e+00,2.870000000000001364e+03,-2.174999999999929656e+00,-4.945000000000475460e+00,1.342145969979427278e+01,-2.146441749184432535e+00
1.999999999999823075e+01,2.999999998812628910e+00,9.999999999958159691e+00,6.600000000006135403e-01,1.569999999999633244e+00,2.870000000000001819e+03,-2.174999999999671196e+00,-4.945000000001035900e+00,1.342417572091244438e+01,-2.174216729623606792e+00
1.999999999999835154e+01,2.999999998806810009e+00,9.999999999957179142e+00,6.600000000005826761e-01,1.569999999999646123e+00,2.870000000000001819e+03,-2.174999999999684519e+00,-4.945000000001022578e+00,1.342128566446511506e+01,-2.178146987008942492e+00
2.000000000000059686e+01,2.999999998510105570e+00,9.999999999979571896e+00,6.599999999998564792e-01,1.570000000000148610e+00,2.870000000000001819e+03,-2.175000000000031797e+00,-4.944999999999551754e+00,1.340313375971467202e+01,-2.165261865498818050e+00
2.000000000000127898e+01,3.000000000860491678e+00,1.000000000002909850e+01,6.599999999996872813e-01,1.570000000000183471e+00,2.870000000000001819e+03,-2.175000000000187672e+00,-4.944999999999501128e+00,1.339302595589635736e+01,-2.185594852396291365e+00
1.999999999999917932e+01,2.999999999037933573e+00,1.000000000002534328e+01,6.600000000005733503e-01,1.569999999999661666e+00,2.870000000000001819e+03,-2.174999999999794653e+00,-4.945000000001027018e+00,1.339499252888586334e+01,-2.169762127298533461e+00
1.999999999999914380e+01,2.999999997132424046e+00,9.999999999968494535e+00,6.600000000000683098e-01,1.569999999999940998e+00,2.870000000000001364e+03,-2.174999999999889244e+00,-4.945000000000112195e+00,1.341701061850692689e+01,-2.183103340271837389e+00
2.000000000000022027e+01,2.999999999074131729e+00,1.000000000001667466e+01,6.600000000004087042e-01,1.569999999999876383e+00,2.870000000000001819e+03,-2.174999999999718714e+00,-4.945000000000375984e+00,1.340485352147828380e+01,-2.156178755975488137e+00
2.000000000000060041e+01,2.999999998912898036e+00,1.000000000001765521e+01,6.600000000003418688e-01,1.569999999999855733e+00,2.870000000000001819e+03,-2.174999999999816858e+00,-4.945000000000455920e+00,1.340100837327123706e+01,-2.158823955321102606e+00
1.999999999999887379e+01,2.999999999811361562e+00,9.999999999989741539e+00,6.600000000005366019e-01,1.569999999999660112e+00,2.870000000000001819e+03,-2.174999999999710276e+00,-4.945000000001069651e+00,1.341200192437552019e+01,-2.183147246733077029e+00
2.000000000000175149e+01,2.999999997590538925e+00,9.999999999909821469e+00,6.599999999998900080e-01,1.570000000000037588e+00,2.870000000000001819e+03,-2.175000000000047784e+00,-4.944999999999926565e+00,1.341484895438314062e+01,-2.152459551026750795e+00
2.000000000000166978e+01,2.999999997637764260e+00,9.999999999917953630e+00,6.599999999999068834e-01,1.570000000000022933e+00,2.870000000000001819e+03,-2.175000000000035350e+00,-4.944999999999986962e+00,1.341841050571259508e+01,-2.153371051966482597e+00
1.999999999999963762e+01,2.999999999188673439e+00,1.000000000002537881e+01,6.599999999998098499e-01,1.570000000000169260e+00,2.870000000000001819e+03,-2.174999999999977618e+00,-4.944999999999476259e+00,1.340357138624564115e+01,-2.192114680156143969e+00
1.999999999999958433e+01,2.999999996907916078e+00,9.999999999938262718e+00,6.600000000001928768e-01,1.569999999999838414e+00,2.870000000000001819e+03,-2.174999999999839950e+00,-4.945000000000378648e+00,1.340804379665848955e+01,-2.163891785213797991e+00
1.999999999999934630e+01,2.999999996698351268e+00,9.999999999920634153e+00,6.600000000001832179e-01,1.569999999999862617e+00,2.870000000000001819e+03,-2.174999999999793765e+00,-4.945000000000250751e+00,1.340744323900832313e+01,-2.159596198346990903e+00
1.999999999999822364e+01,2.999999996123471124e+00,9.999999999917903892e+00,6.600000000004927481e-01,1.569999999999628582e+00,2.870000000000001819e+03,-2.174999999999655653e+00,-4.945000000000949747e+00,1.339425056183576146e+01,-2.183726667381260977e+00
1.999999999999864997e+01,2.999999997438719479e+00,9.999999999957418950e+00,6.600000000005326051e-01,1.569999999999782236e+00,2.870000000000001819e+03,-2.174999999999638778e+00,-4.945000000000709051e+00,1.341203040623099341e+01,-2.172453184038989349e+00
1.999999999999973710e+01,2.999999998727509887e+00,1.000000000002910561e+01,6.599999999998854561e-01,1.570000000000159934e+00,2.870000000000001819e+03,-2.174999999999899902e+00,-4.944999999999538431e+00,1.342265157966713751e+01,-2.186096542552958599e+00
