6.059352969817929577e-03
6.073308447835401927e-03
6.112830328318906437e-03
4.599078193340995491e-03
5.027348592679859243e-03
5.874512008631353581e-03
5.973788614131780861e-03
6.032674370012505033e-03
6.098540151662851065e-03
5.995136150652831224e-03
6.034878807505388541e-03
5.582291824467676064e-03
5.591447599275445497e-03
6.077104055129354913e-03
4.780162214281308102e-03
6.051400031235531704e-03
5.881216375770686143e-03
5.968656291157024840e-03
6.060503002655598034e-03
6.063386816018600384e-03
5.565134049662164364e-03
5.394300538331348559e-03
5.987726629611586464e-03
5.976578046636449662e-03
6.009232992070450731e-03
6.115507085878164016e-03
6.033919615257918832e-03
5.918362103807598730e-03
5.788785500809739450e-03
6.116424700655000678e-03
5.129064548382238943e-03
5.315872539704393288e-03
4.762508836025867824e-03
5.237335608104383769e-03
5.818232328609811675e-03
5.704709618572199187e-03
5.447443613968446993e-03
5.916406299589091304e-03
5.960414389153737696e-03
4.010210655940797501e-03
5.366609527116044873e-03
5.294243107932461272e-03
6.062038458646020096e-03
5.546056227262887925e-03
4.668684700024058887e-03
6.062382304328143255e-03
5.217735988448682534e-03
3.974668570946143439e-03
5.635963349756501449e-03
5.867867928824435468e-03
5.961856711609944334e-03
4.975337255793351593e-03
5.641424134749245534e-03
5.423091689419561913e-03
5.969247522789405090e-03
5.137881051029653118e-03
5.776669410093007197e-03
5.898194535903070017e-03
5.687045845949101515e-03
6.073356261926629064e-03
5.939158738842782032e-03
6.037540597175218224e-03
5.740401798235832478e-03
5.408648091896874933e-03
5.996821701312233382e-03
6.043662463951005211e-03
5.952590756505002530e-03
6.011027891477612600e-03
6.051023339351610172e-03
6.096302867968168317e-03
4.899715320659318342e-03
5.499461603250255931e-03
5.724354141896182378e-03
5.872519616238689941e-03
5.117905155264737549e-03
5.268896650286070127e-03
5.962509477898859760e-03
5.984261978983862126e-03
5.107830102581305265e-03
5.151604526761001737e-03
5.946377835068533506e-03
5.924631154829420633e-03
5.980896698510946435e-03
5.410958136165162913e-03
5.589033195555872038e-03
5.804404493427179311e-03
5.662516801375325724e-03
5.965048614030327156e-03
6.115185692030181835e-03
6.058990414274023281e-03
5.993187414604331416e-03
5.838971170960818510e-03
5.086065959804526512e-03
5.458256666755587246e-03
4.422586404031934697e-03
3.763028019514602467e-03
6.108169078086405496e-03
6.116729879289436837e-03
4.948910615459952908e-03
5.328690458125386227e-03
3.310299465189390101e-03
5.910709354563160184e-03
5.775476552460588435e-03
5.882391355090733562e-03
5.820870003346675925e-03
6.093632762804212025e-03
4.547874290934152131e-03
5.469864680781202741e-03
5.717334617529461725e-03
5.714024635092485385e-03
6.071758855504965496e-03
5.959704245955351268e-03
6.103154835128243860e-03
6.095115415406930984e-03
6.108611462373925508e-03
5.923205047586759149e-03
5.913840553876419624e-03
5.921536543690315672e-03
5.840785196004470714e-03
5.753922791685205096e-03
6.011783769893693646e-03
5.154725747481310114e-03
5.551352781246638411e-03
5.707988002131494411e-03
6.050203847405463166e-03
6.103024697645166759e-03
5.958865212598006729e-03
6.112300631343059627e-03
6.036990111464057493e-03
6.103319897686650987e-03
6.080435657851057836e-03
5.710902582822764348e-03
4.113336087897585466e-03
3.737225457015383272e-03
6.066495563497719713e-03
5.830370871160686641e-03
5.823312679746278989e-03
5.572680360581786646e-03
6.103563541664551104e-03
6.000258910809341643e-03
5.770435284146515319e-03
5.611185256133643245e-03
5.999739608201153963e-03
6.078467796166067694e-03
5.886315020994231130e-03
5.867698708518965037e-03
5.797102242260164344e-03
5.862861169810986914e-03
5.930848649787659292e-03
5.988036797542497722e-03
6.114503405737118681e-03
6.068026445966373007e-03
4.072107036469950481e-03
5.841936891940964494e-03
5.665689578159218212e-03
5.999429440270242705e-03
4.895810364617605645e-03
6.114305912751618645e-03
5.880489185809341032e-03
5.989968486828038848e-03
6.084766367192038193e-03
6.118144344840321068e-03
6.114512552780657952e-03
6.005467320555352671e-03
6.116275021760727779e-03
5.575883488919238656e-03
6.005399965052929737e-03
6.108971939044300151e-03
5.805135841135587726e-03
5.432036666451227867e-03
4.538639518932183377e-03
5.541702234538354796e-03
5.386399155812532195e-03
6.067226079656715468e-03
6.091315234591210097e-03
6.034901259339529520e-03
