5.285769057957358588e-03
5.762347596105278982e-03
5.665218971226419244e-03
4.532706635127638044e-03
4.618258870764973233e-03
4.862235193251900067e-03
5.744244486923760773e-03
5.035258624442174973e-03
5.444606267740330179e-03
5.433642949819908301e-03
4.989485614835587925e-03
5.223318641194527392e-03
5.382313786863520202e-03
5.243091358313967977e-03
5.483473666882334938e-03
5.006829775953992000e-03
4.982170382479431114e-03
4.875076625600163575e-03
5.435400083803037380e-03
5.510346107784397894e-03
5.297347003217464483e-03
5.484745712072690814e-03
4.895935832694118216e-03
5.131021843015792089e-03
4.909270911937354924e-03
5.508776863044980918e-03
5.691316125870262213e-03
5.620457373697790304e-03
5.471178008051524010e-03
5.002140324954073604e-03
5.319509764878048962e-03
4.948224281105985042e-03
4.937719599662451775e-03
5.565276675747608988e-03
5.370615639167995899e-03
5.394099849608898281e-03
5.476491422502614489e-03
5.080697090053746048e-03
5.198247291800520836e-03
5.286785916100352270e-03
5.070437870541438970e-03
4.749637798649957929e-03
5.638301794790138294e-03
5.646848615853531685e-03
5.719208536952483275e-03
5.322099757806913849e-03
5.693651320756410242e-03
5.387844654911370934e-03
4.743903870177224383e-03
4.746318033006381720e-03
5.462267078640065630e-03
4.920602617256941355e-03
5.232625577334971793e-03
5.089001950227720408e-03
5.318507688911580655e-03
4.928857684836308352e-03
5.428810734115138530e-03
5.081932568807435990e-03
5.663371199160919037e-03
5.341531317852366012e-03
4.709174313448006265e-03
4.635382077244809031e-03
4.713951679497778435e-03
4.664077393915069814e-03
5.717085738602705261e-03
4.976258289879118869e-03
5.467009823276399415e-03
5.504144984732577475e-03
5.289692558810545932e-03
5.561490104529589508e-03
5.616409391358084119e-03
5.598414425467978031e-03
5.308778293726266508e-03
5.371537580177518888e-03
5.753041437974126121e-03
5.034680563539157758e-03
4.730032353528025764e-03
5.380793945714065253e-03
5.763804029497538936e-03
4.714744470965039416e-03
4.715788170428563027e-03
4.986894454892787029e-03
5.444704685915608897e-03
5.498603613559300933e-03
5.060751654871760603e-03
5.166518516905676400e-03
5.284586483835437831e-03
5.751698982942959198e-03
5.611905495574006676e-03
5.265904146736965531e-03
5.014249261555107570e-03
5.085777879726905565e-03
5.456688363020834216e-03
5.754053628061375769e-03
5.485517497289101041e-03
5.687899109065345030e-03
5.260118869651043277e-03
5.482800688845847897e-03
4.809662382444269101e-03
4.941144396560276549e-03
4.954655305903219072e-03
5.567321284163664896e-03
5.713436486024503318e-03
5.476011779774874258e-03
4.972969644607173022e-03
5.058470531631320370e-03
4.754485574540541146e-03
4.715583553985099735e-03
4.875020997935876170e-03
5.073650659907538198e-03
5.240460908901986396e-03
4.992919358840256297e-03
5.487956945420208697e-03
4.970125631644882816e-03
5.299296305495406097e-03
5.466797426740028533e-03
5.148755397784209736e-03
5.422467235363112939e-03
5.566526547673177235e-03
5.746489821736827479e-03
5.615354410759844893e-03
5.280723667706928130e-03
5.712896158572086311e-03
5.503776597333412922e-03
4.925789605198286313e-03
5.422422499828895813e-03
5.363480904967289804e-03
5.613439729895340798e-03
4.533008502732444045e-03
4.642268237477124512e-03
5.757986465026052048e-03
5.428970226019739359e-03
5.563463525095544565e-03
5.533447537654258286e-03
5.023162135989793498e-03
5.722558255953751234e-03
5.514779593727664291e-03
5.579481180373242234e-03
5.238436917732133304e-03
5.474418416747444706e-03
4.826668109521203842e-03
5.489604380093344310e-03
5.487187105227023416e-03
5.075289147473831947e-03
5.321119466100585234e-03
5.207300207907539918e-03
5.546555827189244073e-03
5.446504610409729288e-03
4.726067229177783116e-03
5.066875755003799262e-03
5.650670975498924692e-03
5.365906348931162757e-03
4.944726740339475471e-03
4.976679970914698811e-03
5.166103059944422704e-03
5.010947001120573223e-03
5.004137085798750564e-03
5.218951286040975079e-03
5.018920429336693433e-03
5.218240963558531433e-03
5.318136189475252545e-03
5.169798993080070189e-03
5.064935788837345715e-03
5.364668536149599931e-03
5.614559674269356364e-03
5.422567987566263674e-03
4.849827501083223656e-03
4.902089108174559687e-03
5.545683289769681376e-03
5.427004974551338096e-03
5.715019345926507059e-03
5.619882424831935779e-03
5.388045381308381732e-03
5.274862534715159257e-03
5.318455951293746611e-03
5.723356493486047789e-03
5.048950031940569079e-03
5.342061531184003412e-03
5.220203491994416210e-03
5.276015933488677201e-03
5.447393875029042307e-03
5.120219573018550650e-03
4.952092154294884981e-03
4.759182027624076460e-03
4.799474739786711679e-03
4.639627673944361590e-03
5.374548476132672177e-03
5.683980276267901720e-03
5.749859768979655519e-03
5.578589970730703403e-03
