4.855410076942853238e-03
4.595094714465555383e-03
4.678383806595643075e-03
4.855593447016117760e-03
4.739670493978525266e-03
4.664719730070673517e-03
5.141989945842930475e-03
5.336424348883155207e-03
4.765717561571258289e-03
4.785365214011516599e-03
4.907106409291784113e-03
4.653908911926143109e-03
4.932555770607456244e-03
5.142438851814637966e-03
4.966282336787609768e-03
4.908162039740877024e-03
4.815947434345204010e-03
4.673084611882754626e-03
4.746478734212375948e-03
4.699222362489861339e-03
4.711995140216094884e-03
4.732786100053045820e-03
4.695532916534892777e-03
4.704901824649765189e-03
4.745911589614191899e-03
4.910257769294059348e-03
4.923483962092162214e-03
4.673014470324675547e-03
5.057805045813944939e-03
4.704836693202978093e-03
4.774034847326071203e-03
4.747909621997193144e-03
4.990978678376188638e-03
4.947728391642257882e-03
4.940546397106071637e-03
4.702969925735810477e-03
4.695257861424995995e-03
4.643463330894753889e-03
5.470497432096013864e-03
5.264095877225209892e-03
4.734458976213236532e-03
4.661413056618365913e-03
4.822563787316594061e-03
4.625599278074225308e-03
4.647739460881943410e-03
4.615091571662822967e-03
4.643822555874345392e-03
4.965589438396013355e-03
4.816453455585632641e-03
4.681888379443960128e-03
5.293568858918985647e-03
5.117374768057272351e-03
4.686146473030500595e-03
4.659089367001426583e-03
4.770961144048811720e-03
4.976363682728115502e-03
5.479464028274189276e-03
4.787011035570734596e-03
4.772611474708191547e-03
5.561851801382958725e-03
4.808031458504829526e-03
4.967281853990239242e-03
4.773220704241222523e-03
4.979982987125005853e-03
4.837526985699417033e-03
5.241546368324985668e-03
4.714117423359121505e-03
4.673144232207122190e-03
5.262372398940977011e-03
5.330638171352744883e-03
4.720991296050888568e-03
4.952153822945930955e-03
4.921819102110038327e-03
5.338368272064209288e-03
4.626398390825199776e-03
4.681288669122382964e-03
4.898024580553907853e-03
5.108633626887209254e-03
4.726472357803654552e-03
5.036321688596526007e-03
4.842818164234238658e-03
4.778431219984253554e-03
4.802868037807938272e-03
4.639635605868143442e-03
4.655202522661576990e-03
4.667872092095207322e-03
4.759213936103923528e-03
4.900694468861081614e-03
5.085272479957782775e-03
4.954859283043273541e-03
4.873097773845926420e-03
4.622660847801833735e-03
4.715937596791278628e-03
5.150609341308613753e-03
5.185921607712487558e-03
4.660565345787864681e-03
4.661403537406912101e-03
4.777626095099729402e-03
4.787112740829949087e-03
4.957883386218747690e-03
5.255100222401544625e-03
4.648463922974676102e-03
4.601630905656283257e-03
4.667268874695726030e-03
4.660413539415736439e-03
4.785804600771771146e-03
4.762433433619761569e-03
4.737412937830631603e-03
4.754512948679225255e-03
4.695776407943653280e-03
4.823399473879995923e-03
4.735793168850129485e-03
4.753685779305019503e-03
4.710779687216806906e-03
4.842751028742934422e-03
5.005013002125590499e-03
5.010760100787926136e-03
4.789304163508797084e-03
4.957486585404471090e-03
4.763741072666810225e-03
4.980137298552780520e-03
4.826654543186002788e-03
4.769851905408901797e-03
4.818655900509321438e-03
4.704139285711218116e-03
4.711492626053570380e-03
5.088850200430954616e-03
4.773837949952320324e-03
4.691926137416231948e-03
4.642806505304454719e-03
4.669680742271394361e-03
4.698783977751866230e-03
4.716554341491247145e-03
4.775183665845183362e-03
4.764887386130277694e-03
4.668604069354877553e-03
4.818888870684370426e-03
4.886232782618525443e-03
4.825888998180680005e-03
4.698704316982333339e-03
5.202643355158582950e-03
4.922469414555658528e-03
5.034848214865731732e-03
4.764813737494294488e-03
4.673048038070328099e-03
4.790826736330245673e-03
4.811559578876216901e-03
4.729520509513326573e-03
4.851576339782692239e-03
4.925470972230321792e-03
4.749393115950568782e-03
4.661301331136568325e-03
4.797436576156957622e-03
4.956777153645612610e-03
4.788840728214344665e-03
4.980987013427797157e-03
4.731945403378352843e-03
4.700596135005956529e-03
4.614087044348902378e-03
4.633765258468038398e-03
4.948770995801993720e-03
4.790037643801853436e-03
4.926801156778182200e-03
5.367220500968983114e-03
4.785224429884229157e-03
5.474733481192871863e-03
4.615191272877521185e-03
4.754426774765014262e-03
4.825279768647649029e-03
5.479512125342586755e-03
4.730410806289804884e-03
5.080520389397913048e-03
4.766420981196567951e-03
4.773791856928439117e-03
4.855529317591588366e-03
5.318656991210549134e-03
4.704584183593892195e-03
4.806946268399118344e-03
5.073272762403808686e-03
4.752057994146451428e-03
4.920618679444624562e-03
5.100209625761889867e-03
4.689077889147084781e-03
4.747364521888690694e-03
4.686551290022843153e-03
4.825555324768674229e-03
4.802028343155503864e-03
4.950580648000438462e-03
4.760530593351296712e-03
4.676887286352908631e-03
5.612616253031693647e-03
5.098031730383529095e-03
4.912444181861616230e-03
4.677227472909593377e-03
4.753885682745545224e-03
4.751199261071109396e-03
5.013735104872745971e-03
4.792045195396308493e-03
5.688439277315373785e-03
4.744556855521004333e-03
5.056136177742787639e-03
4.696844563670974845e-03
4.729603176349635174e-03
4.758687874418329571e-03
4.651024089844569415e-03
4.960881436815506827e-03
