4.844842760854150762e-03
4.861363908850552598e-03
4.664421010776802386e-03
4.629072890018444929e-03
4.836457753004137945e-03
4.547308584840678396e-03
4.790337066237028429e-03
4.668837233669062732e-03
4.654180235755786370e-03
4.774183194577970475e-03
4.469404610695083650e-03
4.893117856036609432e-03
4.817464169863758944e-03
4.720895117946565835e-03
4.749848648551874622e-03
4.663011109744286467e-03
5.085490495207857162e-03
5.039047590256058931e-03
4.691642946096913694e-03
4.391394540317946488e-03
4.397073701314584138e-03
4.909371274777116038e-03
4.864630624918086024e-03
4.629148336227542800e-03
4.433751037576282895e-03
4.519023591477098686e-03
4.391558269070328785e-03
4.835297767539259266e-03
4.766386562372520140e-03
4.471260377866087717e-03
4.703813886634014736e-03
4.936734147807277616e-03
4.924119960791726799e-03
4.622498591186781879e-03
4.722931641660199457e-03
4.781440700747575934e-03
4.997788992519697042e-03
5.005168574847078736e-03
4.698966467699478705e-03
4.524712969147885386e-03
4.514568597616273361e-03
4.550576348772227865e-03
4.620649111199869735e-03
4.794650074523787442e-03
4.492827515027915733e-03
4.432340612611759822e-03
4.467804522343800724e-03
4.612657052355574779e-03
4.554242301029572809e-03
4.753131606511645443e-03
4.752546374459129357e-03
4.533621385073513706e-03
4.656906777923460611e-03
4.903990493058819032e-03
4.906868451576697036e-03
4.962022774019256635e-03
4.643665444294784068e-03
4.818953184629426283e-03
4.858356015194784105e-03
4.732421622114290315e-03
4.654660681406777925e-03
4.897179900891716897e-03
4.910889105803202016e-03
4.869074616206751568e-03
4.717689701923924103e-03
4.711453339237177407e-03
4.977053859385976824e-03
4.959955862249181176e-03
4.554769376629240994e-03
4.617070655587798486e-03
4.804414071417865452e-03
4.838503707493909019e-03
4.822378652095271438e-03
4.836276996461508389e-03
4.588276924244816604e-03
4.973112842824630418e-03
4.995010057151260535e-03
4.823098534673746739e-03
4.673170675304118976e-03
4.565076691015225452e-03
4.694629882472376933e-03
4.814621838722400390e-03
4.867086818169827529e-03
4.448370836317018344e-03
4.752621296736220073e-03
4.633538886451430035e-03
4.767924826746904217e-03
4.864731219863550719e-03
4.455935366643090298e-03
4.603412272081053302e-03
4.789329544986367822e-03
4.778769171440701465e-03
4.911489531883938588e-03
4.842671586614557058e-03
4.740169528643031066e-03
4.565495836621324445e-03
4.772017783590461540e-03
4.682801069536252948e-03
4.761316472334744046e-03
4.689024857854816666e-03
4.686885119535680842e-03
4.563695082311121018e-03
4.354722443376323610e-03
4.606845074595004690e-03
4.371589386497757787e-03
4.700811756230330145e-03
4.582375878042948755e-03
4.856335733373386143e-03
4.848587826844645392e-03
4.521588238654417405e-03
4.501390659760518866e-03
4.632618337914035968e-03
4.452673365963624730e-03
4.602332972145347506e-03
4.735853376764227393e-03
4.348973861388675567e-03
4.662854454074005957e-03
4.887871200912264485e-03
4.622754270006502152e-03
4.886445057987512039e-03
4.843854101155764189e-03
4.655322931464414213e-03
4.786399193267727552e-03
5.058555674627924006e-03
5.055897243621240537e-03
4.914534100780240840e-03
4.920531550471510078e-03
4.927513992337114075e-03
4.918543228502578885e-03
4.626750299428649196e-03
4.674400867658020514e-03
4.596675554327025841e-03
4.891951059455630808e-03
4.829247924647226894e-03
4.746305296384314802e-03
4.647797172106905503e-03
4.907962945540622450e-03
4.920641052261104202e-03
4.907362519459885879e-03
4.891288285465986499e-03
4.827986296372869211e-03
4.948292611827467130e-03
4.635744640203527146e-03
4.821188278573949187e-03
4.742041537706271660e-03
4.741260355082903798e-03
4.498392196880887824e-03
4.680615749132453936e-03
4.573372630423940509e-03
4.404369978452754575e-03
4.916935805103188860e-03
4.728233833577353065e-03
4.353885985926152398e-03
4.514142116962067269e-03
4.624110206042232607e-03
4.560759491272404868e-03
4.548562354134922693e-03
4.712773123964381257e-03
4.483729435715527560e-03
4.733639240100008007e-03
4.726187879087581992e-03
4.706017020726072607e-03
4.447577603257475524e-03
4.760184779198277719e-03
4.546810849433436004e-03
4.905063505810432906e-03
4.757286387332102483e-03
4.660288759032672930e-03
4.627769347183476739e-03
4.863474830909268048e-03
4.809140462058640424e-03
4.755324785895557842e-03
4.774761615514387485e-03
4.669447090525937621e-03
4.549177974243880616e-03
4.468043959271284470e-03
4.600583563171892036e-03
4.690044953473660252e-03
4.753333844266588275e-03
4.508677506122550985e-03
4.779727967014653356e-03
4.660798020944083124e-03
4.539214359254897281e-03
4.806949378402756642e-03
4.764432295984083465e-03
5.034376212476084599e-03
5.040665492295600715e-03
4.758906385099674619e-03
4.771988967330042034e-03
4.672087183912353343e-03
4.600665296565080963e-03
4.689604850587256006e-03
4.769722961397068403e-03
4.825865943538014576e-03
4.579316639050433173e-03
4.541955571518785720e-03
4.948882035336043921e-03
4.978816366659623294e-03
4.566781565768032909e-03
4.663474265639025451e-03
4.801797031039783600e-03
4.746113013337516576e-03
4.886836435197207569e-03
4.590638285803176448e-03
4.875092499246318906e-03
4.530831447132916551e-03
4.209943263845617074e-03
4.715578255933199764e-03
4.350555350153688036e-03
4.975715213106498072e-03
4.949490844328901899e-03
4.879330585255988069e-03
