4.852228737493921064e-03
4.724758923006795903e-03
4.845487127010642339e-03
4.939055621148573903e-03
4.792439126951941915e-03
4.962078284191092509e-03
4.922195776664914542e-03
4.805753870898541065e-03
5.137908086523932175e-03
4.777681956627269355e-03
5.108935098461237639e-03
4.743073842293449825e-03
4.796032291503705275e-03
4.834901407225154595e-03
4.918128549147085353e-03
4.792402193551171044e-03
4.765866304002393250e-03
4.758388555188671626e-03
4.838989378159855130e-03
5.063750877144869433e-03
4.726765469136378142e-03
4.790269669109367516e-03
4.865156439637915303e-03
4.793831971504321568e-03
5.183435333124175939e-03
5.270571850220912707e-03
4.872325060946550157e-03
4.694845398066921881e-03
4.898649468830635484e-03
5.000986357061301332e-03
4.737569247767516208e-03
4.964862961421859233e-03
5.338082059335111547e-03
4.843959197280098619e-03
4.721330693916012469e-03
4.939485667595912115e-03
5.324174357228182025e-03
4.775556515303423441e-03
4.814277897421787543e-03
5.117669088838185110e-03
5.002330125724985255e-03
5.011130393848523164e-03
4.879032773651037491e-03
4.942008269462300901e-03
4.997772645257189846e-03
4.905880826326883271e-03
4.828131970207048644e-03
5.127057761689080700e-03
4.861957905943709891e-03
4.807105228617177158e-03
5.392389336579019032e-03
4.673668899125977411e-03
5.366232393840896821e-03
4.956510447540550535e-03
4.861818267332573135e-03
4.768827047308070444e-03
4.682282982434667756e-03
4.779094026785531482e-03
4.975268567636461844e-03
4.854600570135242550e-03
4.769477682286043900e-03
4.896316087401076343e-03
4.834919620957041884e-03
4.736624663394362056e-03
4.799547541757949627e-03
4.804511289634230686e-03
4.656342074794208100e-03
4.864073734464615870e-03
5.040210640554553673e-03
4.776116587558957606e-03
4.747781080112318218e-03
4.750807595227587825e-03
5.075563494147765191e-03
5.051263846125148525e-03
4.828044949043587726e-03
4.791692869881560186e-03
5.077389420769464271e-03
5.039903030860457510e-03
4.993602206592000214e-03
4.739618798541831747e-03
4.681428960783952896e-03
5.187195456884906124e-03
4.933184728236906721e-03
5.270964457330482890e-03
4.805760448079499786e-03
4.738340295750744814e-03
4.717253347658245319e-03
5.358996988848674370e-03
5.207772926421557792e-03
4.833363358754672913e-03
4.743931405503143059e-03
4.772241616099938410e-03
4.739627905407775392e-03
4.762511941713152425e-03
4.746247079137811201e-03
4.812535956341568166e-03
4.742001255860087486e-03
5.049441461062426952e-03
4.960276136608245991e-03
5.202156013882319220e-03
4.899074961845002740e-03
4.880207559357767691e-03
4.831490379992265001e-03
4.911680888058988191e-03
4.820690142920104442e-03
4.838056430337628680e-03
4.820935016426588539e-03
4.717728422498304597e-03
4.889391833661928428e-03
4.915028167230273137e-03
4.842717121952785399e-03
5.084805445269569013e-03
4.829016348077575654e-03
4.757646851551261720e-03
5.185223820408107857e-03
4.783023639440211680e-03
4.756487749891434753e-03
4.983881133134160715e-03
4.961363395214517247e-03
4.740700997778134022e-03
4.903202901802455362e-03
4.844959940659905248e-03
4.701722093728363805e-03
4.833536895144599325e-03
4.889119639557613396e-03
4.678857283028867511e-03
4.733206047106518558e-03
4.880806588762060493e-03
4.833384608108541418e-03
4.746004229379314869e-03
4.804744526589787082e-03
4.827759600577353517e-03
5.146325866277836128e-03
4.854003564478936647e-03
4.807322781525831187e-03
4.794639952888321913e-03
4.730394555214918056e-03
4.831195924660087147e-03
4.752185261670061403e-03
4.727539552741587096e-03
4.831577401155725919e-03
4.876860280186483612e-03
4.746609330027570101e-03
5.002152035902087887e-03
4.902703541986546364e-03
4.789948905053353044e-03
4.885725308245619618e-03
5.029956309502014652e-03
4.922487702312108339e-03
4.977004437472718791e-03
4.974418593481721648e-03
5.078982110435607822e-03
4.849265970440256104e-03
4.737127058832252269e-03
4.982600100658088858e-03
4.793306302964575084e-03
4.833118485248188816e-03
4.752356268375002891e-03
4.706803218987918799e-03
4.746319428128364069e-03
4.969992150696115642e-03
4.797110949181029177e-03
4.863745887290643784e-03
5.081574025670567395e-03
4.767292034459569977e-03
4.781831651875588507e-03
4.765452447538954563e-03
4.748273862747267628e-03
4.735464549860541640e-03
4.793582544564865648e-03
4.713752769576909883e-03
4.869261106493512521e-03
4.780034057725712944e-03
4.953951418210387168e-03
4.878739836129851112e-03
4.926448683060594136e-03
4.706456146208065974e-03
4.837647633244158973e-03
4.850990203725586217e-03
4.721084302598536897e-03
4.810943772612421773e-03
4.702440524263918308e-03
5.090892373278898750e-03
4.982529775415523755e-03
4.898556376423212136e-03
5.338677547180425975e-03
4.712703456245403814e-03
4.726434586340425709e-03
4.815736513783760477e-03
4.918128549147085353e-03
4.787365084810343667e-03
4.755161183085644672e-03
4.752771136712435895e-03
5.030325643509729432e-03
4.820643596716391900e-03
4.912815198805968279e-03
4.804735419723843437e-03
4.916116437710537843e-03
4.650254640847882072e-03
4.880924472082330719e-03
5.108356812473816184e-03
4.854226176757558790e-03
5.315470217134048679e-03
4.738755164088176951e-03
4.676964066786584544e-03
