5.513661035010910400e-03
6.417573474774474276e-03
2.327434656022264042e-03
2.582462825797532998e-03
5.820333582120851106e-03
2.643166086262348138e-03
6.697435994175299223e-04
4.700063118977270186e-04
1.092685523863709497e-03
1.005985790376266861e-03
4.462514030632845977e-03
1.169067252700107780e-03
9.429903881301267754e-04
7.028904833296818581e-03
3.803162940964493078e-03
2.324393169580085336e-03
4.994532540957149179e-03
6.364792053034505799e-03
3.658926925996914409e-03
6.192542121168992039e-03
3.373371865797690061e-03
1.730266194582568426e-03
2.089053081767989518e-03
2.456488805688853035e-03
6.124731259751194090e-03
7.273536833936950462e-03
7.470893861661527871e-03
7.320878163717904966e-03
5.876186155725174332e-03
6.670400450707461093e-04
6.146498848775546831e-04
5.445507459900065551e-03
5.111375270885501997e-03
5.040424949065441633e-03
1.814764636644104149e-03
3.400520020769450587e-03
7.226897325591193251e-03
4.904579564560012511e-03
2.962502450798728745e-03
6.576982572516740060e-03
4.086818243140863220e-03
3.611084016380463474e-03
5.321069991559819815e-03
6.341842335969838200e-03
5.681397529025949272e-03
4.664897005409461388e-03
7.507333148792320193e-03
4.862385575861324222e-03
2.318564694791249662e-03
6.134314752452474546e-03
6.948822245460175955e-03
7.891808730245279332e-03
7.948623478397852729e-03
7.353109644913547079e-03
7.389278039899720672e-03
4.187503857014147554e-03
6.181088145532532586e-03
7.522722476881300857e-03
4.652708810574114964e-03
1.472776087517459719e-03
1.588982572207010141e-03
1.450066328588101245e-03
2.563565951870588715e-03
2.624880280998806263e-03
6.759926108408169029e-03
6.432084550233203857e-03
2.850483864984708435e-03
5.238816753555703386e-03
3.488879651728064597e-03
4.336149871189084494e-03
2.382348865482978965e-03
6.055437127224533311e-03
4.615020843370358852e-03
5.221140455617554084e-03
6.097996078682901833e-03
2.623423552636099804e-03
1.957681125826546843e-03
1.982243119553100345e-03
1.371446421715325761e-03
1.451156435269491994e-03
2.453959828448237877e-03
7.584802056801342139e-03
6.037521944570956728e-03
3.230634540151818262e-03
4.623082421847041386e-03
7.182436664437457687e-03
5.435277573262922886e-03
5.159421544777668261e-03
5.665056955754782519e-03
5.888043737237045640e-03
6.794779856790485704e-03
5.832051423880887410e-03
5.229981141760893688e-03
4.814116811302828099e-03
5.918949252128263318e-03
7.961593513241374195e-03
7.864418177547570152e-03
3.952987375001973738e-03
3.768944657151975398e-03
1.960095735057978700e-03
4.958263049334871338e-03
5.784277603471350143e-03
7.040625017063868556e-03
2.828232651511966306e-03
3.789368519652045776e-03
7.746726079742139760e-03
5.944984953768375421e-03
6.057676085929914779e-03
5.254017940414558441e-03
2.190990693557506429e-03
1.575731886856312483e-03
7.371915961235949930e-03
7.571130200522626849e-03
6.657569472530397089e-03
6.057071067451298696e-03
4.963299145083970888e-03
3.752372615520926241e-03
4.294108893615311562e-03
1.513297688040901850e-03
1.551487039912904410e-03
2.019840724319566308e-03
5.875283702355780548e-03
4.689270272404138032e-03
6.879819692806756967e-03
7.363963286085417788e-03
1.808553438875730749e-03
4.813888855953466633e-03
1.874775638869031645e-03
1.372926179813670038e-03
5.650630582883059113e-04
4.154517468890992372e-04
1.186065929942206609e-03
1.149590048951820058e-03
3.171284959741093798e-03
4.229445299289825641e-03
4.451282155328214682e-03
4.258676669500537776e-03
6.374466493674828954e-03
3.111149635977172954e-03
3.979850585787031783e-03
5.584649609612198952e-03
6.968776145219437480e-03
4.063277949974165859e-03
4.118798348917003700e-03
7.931366009380708473e-03
7.561170425361097777e-03
6.735513027294255661e-03
6.635253268363015648e-03
7.625581863598077798e-03
4.095673371660788278e-03
5.819909288516814452e-03
6.794207626410065336e-03
3.914813051008310917e-03
3.761817929808379795e-03
3.220897255656619482e-03
6.948041576455509481e-03
5.657124968332874308e-03
6.226756501636485780e-03
6.036135866753172471e-03
6.780015844574242487e-03
7.335459499387054182e-03
6.532650721748774550e-03
7.610394728781305629e-03
4.327651898738792656e-03
7.650867732659207172e-03
7.833301491690588397e-03
3.264488056371906127e-03
2.625376200984020237e-03
2.147253712571096755e-03
4.955170819407390091e-03
6.565938448107731806e-03
4.854706915531430481e-03
2.921502105008175199e-03
5.792031208025691727e-03
4.146517953600180328e-03
1.791782716982994253e-03
1.566636702617452007e-03
3.391225765934399988e-03
7.055889438112102237e-03
4.517643314404346314e-03
1.061645441152811930e-03
1.312013602471978884e-03
3.258171468287903057e-03
7.068160774196446082e-03
7.953055336337342199e-03
1.918372294601853332e-03
6.458856813079218336e-03
3.009339858737169679e-03
4.083085474295053072e-03
1.122850574204001728e-03
1.214297653492443785e-03
1.629912462619892552e-03
3.717718328069302691e-03
4.259212208437738491e-03
5.969464391747685353e-03
2.137001772034572041e-03
4.185579507917645478e-03
7.834376472910015501e-03
6.888119765664365082e-03
6.896546306900729582e-03
6.520263065982735869e-03
6.565221013292443092e-03
3.818898886091545014e-03
4.340199201316286871e-03
6.839392748400129757e-03
6.115682525318111816e-03
3.617711505895575448e-03
4.327925523224928489e-03
5.306829808245708095e-03
4.217140394438280947e-03
3.812143366859668554e-03
2.308081676229343810e-03
2.216702807895184427e-03
1.647921813472156931e-03
1.660603781452955592e-03
5.347338722897824158e-03
2.512053702764957108e-03
7.034504572067287222e-03
6.941118603722132643e-03
5.518857948574971452e-03
