4.686908142619833524e-03
4.724885442304304142e-03
4.832913564281834246e-03
4.873551385167031354e-03
4.850620048707969013e-03
4.766308817865781526e-03
4.816314760417269442e-03
4.915610437388715469e-03
4.885377580863084837e-03
4.819281002944312241e-03
4.811213688238409787e-03
4.682564662800822210e-03
5.221428699735656750e-03
5.197754311321290538e-03
5.156020367631982022e-03
5.114893392624678126e-03
4.714839886918602112e-03
4.848912110420339032e-03
4.964872209492242512e-03
4.847220203860795606e-03
4.837141466526261729e-03
5.031914286537282795e-03
4.760658938623095124e-03
4.705488169811284684e-03
5.076567868892914795e-03
5.074259300048338840e-03
4.806732260991671175e-03
4.741663204994030559e-03
4.883999225078460189e-03
4.846131537674400712e-03
4.757531260322521958e-03
4.936972901480534727e-03
4.873312400569264694e-03
4.695694648104350825e-03
4.820468469315432498e-03
4.896046509489764866e-03
4.758767940370561486e-03
4.761372164107539016e-03
4.845155093584615179e-03
4.707996203179738541e-03
4.971110415872645287e-03
4.760119452331412065e-03
4.988149905844169521e-03
4.736777629067136230e-03
4.731882732368098213e-03
4.741146088555492702e-03
4.766534753382547542e-03
4.838425496096792483e-03
4.918445816274859793e-03
4.738384903015612805e-03
5.079589290391049554e-03
4.651567502959400371e-03
4.736456621674503542e-03
4.727271932804003214e-03
5.057413309306519819e-03
5.223315596848448344e-03
5.207416596556439098e-03
4.983088726570085447e-03
4.920128029231372706e-03
4.612106709180521964e-03
4.682727962728782355e-03
5.028646423823666597e-03
5.024534471984707165e-03
5.135722335718986148e-03
4.948032184044596181e-03
4.926542957451622226e-03
4.940436873240056093e-03
4.739548135379159817e-03
4.772944461970395416e-03
4.911271804371219844e-03
4.686320933974774151e-03
4.886729838485708195e-03
4.666170170261650131e-03
4.644475513850625584e-03
4.796716159245944036e-03
4.868759389792461610e-03
5.045818268759632262e-03
4.729642764406499951e-03
4.700706613701515629e-03
4.684185731492072208e-03
4.907792546545382099e-03
4.782835292538510814e-03
4.922051463770967146e-03
4.752695270903432856e-03
4.736528205204568014e-03
4.732746208699499871e-03
4.768509638584375251e-03
4.934971172454931214e-03
4.846070766240022885e-03
5.126690134680757585e-03
4.987338625836773044e-03
4.738874429968605549e-03
4.829453693662055791e-03
5.106088991257644490e-03
5.021215904270628742e-03
4.723295318576571991e-03
4.758150905254642134e-03
5.089102816102783304e-03
4.996960645336260935e-03
4.865674587043749069e-03
4.681509178563258294e-03
4.717598835473167142e-03
4.725769797165308046e-03
4.710880795742801268e-03
4.772626810055734595e-03
4.875449467206395548e-03
4.701895198565292887e-03
5.138779921813037797e-03
5.096857698526424847e-03
4.845664753405438258e-03
5.005382895045398101e-03
4.694575782616209128e-03
4.670159833570081999e-03
4.875320467719925117e-03
4.783724494201029541e-03
4.939699786578924043e-03
4.664430541348730391e-03
5.100998731174472348e-03
4.809764867416377668e-03
4.977859400566528141e-03
5.039874225948088107e-03
5.100804486282996091e-03
5.144927903119088722e-03
4.756280039869937963e-03
4.789750932638324812e-03
4.911394838563517586e-03
5.013380117544779038e-03
5.093889591844954004e-03
5.215739673249967547e-03
4.791209447063386577e-03
4.745605145949086980e-03
4.833874349474417444e-03
4.765752554184239133e-03
4.745416866351781678e-03
4.821043001710376315e-03
4.729356057455356976e-03
4.679289716300377190e-03
5.121766530003516588e-03
4.706172314486639641e-03
4.933564481522989542e-03
4.629186837718593690e-03
5.061425715298983712e-03
4.828816525678306104e-03
5.012363407719333704e-03
4.722966481735338569e-03
5.249264626496787621e-03
5.245058348443734295e-03
4.980034123123119709e-03
4.985249654383904459e-03
4.693118013852918408e-03
4.809411796567571000e-03
4.873069687662640211e-03
4.741416390947663165e-03
4.878606226316057649e-03
4.758857046952256337e-03
4.802273203598076898e-03
4.778097357642373429e-03
4.851287415993464636e-03
4.739409069458773785e-03
4.747364162068064275e-03
4.692677700576845801e-03
4.907807086949926567e-03
4.711228274128322936e-03
4.826286868118478089e-03
4.808867836305258207e-03
4.717148828594064022e-03
4.695971661452465022e-03
4.700660755502567359e-03
5.050075997474920593e-03
4.787688432178344340e-03
4.719030133243569750e-03
4.660267884509309601e-03
4.780984560021636978e-03
4.741107686974260077e-03
4.694863608060009970e-03
4.649194807202474723e-03
4.812142409974818139e-03
5.112962128636482952e-03
5.027416454731570804e-03
5.057442762946494710e-03
4.830537885877822686e-03
4.981727148175319267e-03
4.749578404698545468e-03
4.814739177094081758e-03
4.888929167880758965e-03
4.881957603148082830e-03
4.697308260177886045e-03
4.671636243877659231e-03
4.860825921374544410e-03
4.765085932560514555e-03
4.629901927357466494e-03
4.927358338598761614e-03
4.721932994520034767e-03
4.812493243838310807e-03
4.712732273921446148e-03
4.975168307233170627e-03
4.700041483401334007e-03
5.048404596614094325e-03
4.697991659191469091e-03
5.201889378675165349e-03
4.684837439880366362e-03
4.801432097119820441e-03
4.806641290255547413e-03
4.877933266567275293e-03
4.741225874365043863e-03
4.862870898782893636e-03
