4.135778492910936570e-03
4.224630043339378145e-03
4.333879086869402847e-03
4.082470146845338342e-03
4.293037996341202665e-03
4.252791269850399528e-03
4.321686695333488634e-03
4.254616061415807463e-03
4.101075738091091751e-03
4.170618092415280358e-03
4.169601447999535249e-03
4.308927837281695955e-03
4.157796978841783730e-03
4.351194050672290217e-03
4.250654026043988558e-03
4.157753517439840250e-03
4.283376350494166006e-03
4.280419213213242785e-03
4.304192600076642110e-03
4.293240033128618155e-03
4.187615611789104186e-03
4.325509830413958902e-03
4.344446961678597070e-03
4.350266384667281737e-03
4.251741735725075334e-03
4.329218438827144889e-03
4.181325161173944475e-03
4.350169771145393285e-03
4.166570015213936530e-03
4.283790702103240991e-03
4.224514929355850483e-03
4.335094537833229615e-03
4.344142438206867116e-03
4.263112178179628495e-03
4.112377170887152912e-03
4.092492111207140376e-03
4.315856406994317447e-03
4.335472769493391686e-03
4.285817824114185673e-03
4.186816861699321594e-03
4.151416375183402362e-03
4.168913700679582716e-03
4.295296520951686833e-03
4.212400944538308503e-03
4.328478126703489900e-03
4.351240154997325880e-03
3.181680907725420535e-03
4.135155056719535920e-03
4.119295168907410008e-03
3.627076878745570578e-03
4.314204873720443520e-03
4.351227821356233073e-03
4.300118974618750631e-03
4.326939651806294834e-03
4.350844010191767981e-03
4.254102747019873967e-03
4.105225421002385404e-03
4.351188471167987196e-03
4.338999897187648461e-03
4.296193940170207545e-03
4.270059835670130845e-03
4.314759593911472561e-03
4.341169149729275610e-03
4.202653844177990303e-03
4.302400110904570744e-03
4.156052355943474705e-03
4.328147761317091037e-03
4.323778128472985198e-03
4.343788286512647277e-03
4.348144704741296537e-03
4.304552624933286227e-03
4.297423486723855532e-03
4.345802487566257505e-03
4.032947641278813306e-03
4.347459600344435321e-03
4.233204566821570543e-03
4.296785954942635398e-03
4.341762632792308882e-03
4.347497188583954522e-03
4.327272953773906271e-03
4.342494135172327019e-03
4.313380281715991152e-03
4.296287910769005548e-03
4.283407771913138803e-03
4.247321593684115840e-03
4.325099883676703644e-03
4.350298099744376659e-03
4.275824050932022606e-03
4.322202652652513445e-03
4.321426807896188056e-03
4.297711565340795077e-03
4.184393888540940271e-03
4.339724058114636032e-03
4.339063327341837438e-03
3.416812378088950747e-03
4.347394701899640924e-03
4.170609282671643506e-03
4.270687383075229097e-03
3.275873805721162858e-03
4.190924257841155930e-03
4.283509377623089497e-03
4.178665499569841034e-03
4.143294966182288312e-03
4.160449592650976997e-03
4.321436792272309937e-03
4.257499784166419825e-03
4.143292616917318254e-03
4.153089345500127205e-03
4.244513047412541880e-03
4.247698944369914138e-03
4.313992852556905282e-03
4.279818095039056823e-03
4.349317868935665722e-03
4.141515985283793916e-03
4.328222937796128572e-03
4.311603356424346424e-03
4.119254350428557844e-03
4.303391500721889459e-03
4.312306667624724726e-03
3.908764320334822372e-03
4.343541026374560764e-03
4.209575659753823744e-03
4.307855691481034949e-03
4.268842916415697790e-03
4.349454126303922176e-03
4.225115460213793930e-03
4.350026759640347046e-03
4.325803194877081946e-03
4.321506682905166576e-03
4.300218818379972913e-03
4.186314999970116267e-03
4.330755445433734536e-03
4.086441285618915356e-03
4.146918413740313149e-03
4.218768333581234160e-03
4.219968807980878540e-03
4.329721181530713989e-03
4.260451635601161281e-03
4.314347297909246377e-03
4.101219630570500894e-03
4.122734492823416051e-03
4.347817569594231504e-03
4.342004607084213631e-03
4.237740410162300214e-03
4.227552235303874348e-03
4.342351417325402904e-03
4.331479312702599983e-03
4.293347512000993127e-03
4.349885510084029218e-03
4.181032384027064813e-03
4.112429735690855369e-03
4.341510674124282251e-03
4.343306099877566190e-03
4.337807938873521410e-03
4.188412893588280492e-03
4.283053032902677318e-03
4.232675394887090020e-03
4.317981904475878992e-03
4.285501847975727550e-03
4.083587809654791630e-03
4.315430602718514294e-03
4.276101264198476498e-03
4.210674234785396174e-03
4.221030088431053026e-03
4.347553570943233324e-03
4.131385073759010623e-03
4.131961524651011838e-03
4.306333955096750682e-03
4.271111425402304707e-03
4.323135898161825814e-03
4.094537733679724269e-03
4.320193150128843335e-03
4.275407643716098820e-03
4.238537691961476520e-03
4.074411580682170755e-03
4.194498958151054654e-03
4.304458654334488224e-03
4.270163203328809082e-03
4.274574535626130857e-03
4.330918425691024538e-03
4.301772857157593749e-03
4.214870902996088395e-03
4.304740566130882233e-03
4.107668362913011358e-03
4.332960817924273733e-03
4.222573555516309467e-03
4.303335705678852305e-03
4.309224725642272352e-03
4.183467690826538077e-03
4.217238081111433431e-03
4.336517605088776629e-03
4.259988830402081442e-03
4.324708731059207119e-03
4.345192559648434691e-03
4.266007647255090282e-03
4.113649885184623121e-03
3.718672370658912540e-03
4.031550122279814810e-03
4.283513195178665842e-03
4.169545946614619351e-03
4.279194071531414525e-03
4.049471196444949517e-03
4.093132285911451826e-03
4.242463313726261252e-03
4.316607290810336832e-03
4.100835525747914545e-03
4.351236337441749535e-03
4.209037971733826759e-03
4.096568966904366553e-03
4.304401391000846518e-03
4.351250433031569886e-03
4.349324916730575030e-03
4.046704936942834875e-03
4.252055949914805913e-03
4.334321042341874285e-03
4.321298772955325940e-03
4.310847186762143540e-03
4.319219673456921316e-03
4.095912641003386818e-03
4.318886958805551526e-03
4.159910729998494983e-03
4.271649407080422949e-03
4.340666407025706511e-03
4.336759285722560121e-03
4.349005416694661820e-03
4.090051224903363224e-03
4.326132385630995780e-03
4.148499762723210048e-03
4.117159687049726582e-03
4.165182480591060783e-03
4.274688768635294747e-03
4.292771061108991912e-03
4.137771844237938396e-03
4.126608137100740842e-03
4.295392253499213248e-03
4.293970948192393777e-03
