6.114103113034921773e-03
6.163824153172960466e-03
5.323709617017284741e-03
5.655335406296630070e-03
5.045966568877640994e-03
5.884573931097966670e-03
5.177876536311676152e-03
5.655559021348411861e-03
5.531138248722629845e-03
5.433195280359161272e-03
5.075667484967915505e-03
5.971298382660561108e-03
5.153279729249645238e-03
5.238906472768672072e-03
4.952519663301043276e-03
6.250343235314183288e-03
5.463069742096834588e-03
5.514841081912691401e-03
5.029960483520306246e-03
5.001854150664559844e-03
5.006399009904854633e-03
6.045424014265835672e-03
5.914209502372351317e-03
5.842808410136129602e-03
6.134454628648988890e-03
5.039242841912677795e-03
5.620926693243319568e-03
4.926379615359825423e-03
6.203671761356706858e-03
6.109364765248872023e-03
6.037465949187715945e-03
5.619088552058653513e-03
4.917222854795400000e-03
5.147558663323317275e-03
5.329211735378680190e-03
5.485326016662417543e-03
6.033484158588245383e-03
5.188531984471726061e-03
5.426508468972007088e-03
5.554212606437804699e-03
6.028722473367950120e-03
5.561929235150716785e-03
5.291700840838506337e-03
5.905028980056692585e-03
4.968861807711530236e-03
5.250859057955850270e-03
4.948378329514722604e-03
5.137189629129022654e-03
5.103873107998457490e-03
5.048501014236829974e-03
5.144913895547688180e-03
6.207168133323845774e-03
6.243354734549767804e-03
5.617631023210702124e-03
5.201103223824934604e-03
5.445469922138944721e-03
5.682754769951552098e-03
5.332179832697870984e-03
5.775612723551160239e-03
5.261197965644118062e-03
5.061696423876891129e-03
5.284946138733543318e-03
6.285421944888866172e-03
6.072091063904041727e-03
5.441075695428787551e-03
5.080038798560812356e-03
5.610665011246559163e-03
5.168794879853826942e-03
5.294716037343176820e-03
5.275045550492127484e-03
5.270089952409091200e-03
5.433972629078069605e-03
5.083110004907675020e-03
5.798566575242225171e-03
5.240704728156625816e-03
5.201076916171784061e-03
5.704912178659325532e-03
5.850217409033972062e-03
6.080711063480794334e-03
5.113058297800965497e-03
4.950104875331990360e-03
5.233004223489192731e-03
6.129911466676638346e-03
5.796880339538656654e-03
6.176275310819045149e-03
6.104817784423645192e-03
6.073898229948707962e-03
6.200291652243814650e-03
6.128793815734716321e-03
6.187958030402935725e-03
5.701098841903416703e-03
5.057704449669749892e-03
5.359250832107038086e-03
5.388378920265803756e-03
5.875839790251898530e-03
5.660164557917748106e-03
5.122162018742103771e-03
5.667820084984632675e-03
5.389257680744437111e-03
5.472724226486194374e-03
5.091472019756755792e-03
5.477734137143477726e-03
5.563513210460588158e-03
5.914170465209610261e-03
5.939782662819866055e-03
6.023677344400803733e-03
5.989323368238726360e-03
5.167275825042861107e-03
6.215634105834570537e-03
5.270343693966900687e-03
5.147144105627698626e-03
5.407678554070823908e-03
6.023695590031214776e-03
4.955127091181877295e-03
5.582192068514646791e-03
5.897827047848165118e-03
5.686876160839515748e-03
6.232160828134099100e-03
6.287280877605860505e-03
5.223773207452164086e-03
6.063718441130305087e-03
6.286226874211883232e-03
5.325950859338938852e-03
6.224082681348856380e-03
5.421510014873354329e-03
6.114203676160675539e-03
5.290707514773569653e-03
5.243128426782390356e-03
5.481156677955000348e-03
5.593320630114424763e-03
5.472848551363181449e-03
5.180490328947305427e-03
5.011767468415564454e-03
5.727732794816691765e-03
6.200702391086555278e-03
6.058173466753292297e-03
5.762303596958769612e-03
4.933904028477943335e-03
5.129805664933371687e-03
5.663945646582697196e-03
5.102494502109957732e-03
5.076934495489016964e-03
5.966442923386291661e-03
5.338628602255710356e-03
6.155142203316207351e-03
6.032941881479751169e-03
5.272511953766909759e-03
5.632076046375426685e-03
5.717904340462947980e-03
5.303746351445684862e-03
5.505215026761413333e-03
6.032610914230434294e-03
6.134671030312002435e-03
4.974346953393472825e-03
6.224846451924202079e-03
5.943506468691664782e-03
5.993989582137104061e-03
5.924025227216506324e-03
5.224747014935729808e-03
6.208190737260837165e-03
5.922128954604716049e-03
6.044892345081998193e-03
5.467543316083431186e-03
5.650667919447294185e-03
5.924819124297879720e-03
6.271926543139488830e-03
5.146022211515912520e-03
5.785471304410932589e-03
5.306852351785425366e-03
6.286251484597088664e-03
5.310053399130097371e-03
5.800644031207166824e-03
4.922190758071039000e-03
5.151012603591826645e-03
4.955026528056122662e-03
5.469702665226728634e-03
6.277950995711023205e-03
5.886440925837701371e-03
5.970874065674257845e-03
