4.092653588092113985e-03
4.161932936497894989e-03
4.579437648406863362e-03
2.683364493292858532e-03
4.232473655341597446e-03
4.706438605352526207e-03
4.210499036999076905e-03
2.928767021377881325e-03
3.935096433083973104e-03
2.204901280719469368e-03
4.365908332842064615e-03
4.626057480077563899e-03
3.521797773141939047e-03
4.661056932614335811e-03
3.806376552874533251e-03
4.708715876609495532e-03
4.700519989438364798e-03
4.390831766269356548e-03
4.072319355453963598e-03
4.604193513843032708e-03
2.675229973526446845e-03
4.526480757792936301e-03
3.761515072230227873e-03
4.591446581782067729e-03
4.315733961185095474e-03
4.653055640529670661e-03
4.393002836939921031e-03
4.243081949246409017e-03
3.912076661066269875e-03
4.552672556906356763e-03
4.063926011503920036e-03
4.469856449323956864e-03
4.431184173513064498e-03
4.685264624963795740e-03
4.710741000965210611e-03
4.429406108605361131e-03
4.702271981148207873e-03
4.711280906940403836e-03
3.747890872451030506e-03
4.515488361168435230e-03
2.799759382094502060e-03
4.589769630007527537e-03
4.627065749716749270e-03
3.790545988217912214e-03
4.433270983239327202e-03
2.882007602708883467e-03
4.573593436496351146e-03
4.453582004372064543e-03
4.547866821388647438e-03
4.199287879885215367e-03
3.578379156224197662e-03
4.707786462495542994e-03
4.591250714832292162e-03
3.951752754994762237e-03
4.486887652945436601e-03
3.793424532854792943e-03
3.214585231906296088e-03
4.308353020429995378e-03
4.370603734217611003e-03
4.682364776616468674e-03
4.695477369379125361e-03
3.575345762229296346e-03
4.690151123801704174e-03
2.679534594899924804e-03
3.681209622822225174e-03
4.709331776417474344e-03
4.205047830851424938e-03
4.508963066455293038e-03
4.368148402097209344e-03
4.683266209737594644e-03
4.596601443778434645e-03
4.193018865629085518e-03
4.514295353383438597e-03
4.671816578253064865e-03
3.977139146666978237e-03
3.592330224874124879e-03
4.647488376854961266e-03
4.562486254208100896e-03
4.695848117534057869e-03
4.261865780509387254e-03
4.115730275992950452e-03
4.068730793124146657e-03
2.540558408956779517e-03
4.535025453476897346e-03
4.574261482700049675e-03
4.549320243186414509e-03
4.207679951971948946e-03
4.269890920031119141e-03
4.617181464001287629e-03
4.708954350980162906e-03
4.402357391586672782e-03
4.665597166666033899e-03
4.691684037056360369e-03
4.420840109210953314e-03
4.710164846885675494e-03
4.700319353001175711e-03
4.602279041595307846e-03
3.665694480266541103e-03
3.202303165885220151e-03
4.386000275519615077e-03
4.113464451505773577e-03
4.392550371567306711e-03
2.993033638512212699e-03
4.694358447631948907e-03
2.006594579149000891e-03
4.695678641747969007e-03
2.434453689249476555e-03
4.573673881850722975e-03
4.432996260764317069e-03
4.604974119949687729e-03
4.196237951667280801e-03
4.623282274334639466e-03
4.671132315792161233e-03
3.489852064413032084e-03
4.382757660010181203e-03
4.711108887427695006e-03
3.033118000563289878e-03
4.632096605040369845e-03
4.674071909867932861e-03
4.432540933699253768e-03
4.694033486556185332e-03
4.705081209234681511e-03
4.098917514895003035e-03
4.682352693915020798e-03
4.296463642205953712e-03
4.604887633244591529e-03
4.709486943741322644e-03
4.501587213153434609e-03
4.583699662359449513e-03
2.813505044819826235e-03
3.131855611028992389e-03
4.085221772804605023e-03
2.876805363804209922e-03
4.673220715347560332e-03
3.943252574526659275e-03
4.587581389182274379e-03
4.711392830911704036e-03
2.764620978491086952e-03
4.674260463603674941e-03
2.388199359297553653e-03
4.652234970728743799e-03
4.697002333488092644e-03
4.643487094880973699e-03
4.600900023801189100e-03
3.120124579787073981e-03
3.867284814938199301e-03
4.654408267160101836e-03
4.176573673027795218e-03
4.345052318280891515e-03
4.708063092765519403e-03
4.702857992168397311e-03
4.210334648666228842e-03
4.602814814014742108e-03
2.861786247939515984e-03
4.407026401798531598e-03
4.542048682675994646e-03
4.685569872158251541e-03
2.133695536347429700e-03
4.057774962569814757e-03
4.711030667834115865e-03
4.366795139535123611e-03
4.566336820379826404e-03
4.548372069088636900e-03
4.257774514206200817e-03
4.711307298104091407e-03
4.692342862251060003e-03
4.612103549735189004e-03
4.524352612509091771e-03
4.048219453520046640e-03
4.707851963456020569e-03
4.256808534022079975e-03
4.338274876666496811e-03
4.470793812583597447e-03
4.415901463977325164e-03
3.958175664711429537e-03
4.654075992870303907e-03
4.595460900354985008e-03
4.671765703720655999e-03
3.690813462677781324e-03
4.703843050302171369e-03
3.144237200354093806e-03
4.647408885398071274e-03
4.613531216300923929e-03
4.711424309528632406e-03
4.640979298399025045e-03
4.384507743925058869e-03
3.799794660244086835e-03
4.706976921498581302e-03
4.519040357428083000e-03
4.699884057783249199e-03
4.599210989325201900e-03
4.629592624148352008e-03
4.088154053666344032e-03
4.085342281853249560e-03
4.350863779711166245e-03
4.710738457238590644e-03
4.600271723325935133e-03
4.638613314676167700e-03
3.342967114441042220e-03
4.417097015488942631e-03
4.391577078169152382e-03
4.635219347432814607e-03
2.743068618767562777e-03
4.384596138425120478e-03
4.711019856995978840e-03
4.623014229142008262e-03
4.411580626346642102e-03
4.658664875693618174e-03
4.164421019098535001e-03
2.322612707030115818e-03
4.609774450048328108e-03
3.799891957787319193e-03
3.934263362615771087e-03
4.709733367257679798e-03
4.252138251946911175e-03
4.704498377872768332e-03
4.526803811073735334e-03
4.480727700968158839e-03
4.356971903258551569e-03
4.695101215805123906e-03
4.607575080419110646e-03
4.502666707137993780e-03
4.490773831289848576e-03
4.544926273415393105e-03
4.436938083128550564e-03
4.337872967860463211e-03
4.576616019653116305e-03
3.837953739209300393e-03
4.189410907383786346e-03
3.729682877301759240e-03
4.485477474500217630e-03
4.709030662778777507e-03
4.708344492522907598e-03
3.680143483402423862e-03
4.662213374329164141e-03
4.557190215384298096e-03
