4.995710985192688275e-03
4.983074039614445068e-03
4.985194275804377684e-03
4.978952165306717997e-03
4.992253733129677941e-03
4.994842279655745815e-03
5.000035253361414210e-03
4.991202569020215633e-03
4.996899331117786794e-03
5.006565580826407083e-03
4.960990132500851628e-03
5.006407112177310888e-03
5.006572338551314519e-03
5.004805869260323635e-03
5.004266264926408338e-03
5.006591260181057594e-03
5.006397313476193892e-03
4.988567732078526447e-03
5.002683267866673243e-03
5.004526775221617395e-03
5.006571324892579444e-03
5.004942037417223037e-03
4.994421611280213703e-03
4.985381464784333951e-03
5.001431737213683955e-03
4.995889389130263487e-03
4.999422327712245255e-03
5.003723281730038455e-03
5.005644840807671817e-03
4.973500032850821512e-03
4.959316581927347527e-03
4.943953908007400234e-03
4.958948961692344164e-03
4.934867471095900904e-03
4.946373511410764000e-03
4.996999683332672797e-03
5.001486812671685454e-03
4.975470585434038119e-03
4.999883542437226318e-03
4.988712685277806903e-03
5.006429750555752706e-03
5.005839463285026436e-03
4.998803657996903071e-03
4.996520222750438708e-03
4.980923393662426389e-03
5.003786128571684200e-03
4.957992405731595498e-03
4.999989300832039657e-03
5.006373999325261157e-03
5.006363186965407351e-03
5.006141195702174494e-03
4.980356420542631120e-03
4.984129258358852878e-03
4.991744538557848707e-03
4.997531178396698824e-03
5.003942907789553536e-03
4.974292713982547513e-03
4.997131796854626697e-03
4.977699620994991900e-03
4.993777262210221009e-03
5.003368163286114889e-03
5.003097854289788836e-03
4.990392993576218440e-03
5.004184158568774493e-03
5.004032785530832493e-03
4.976425451963560793e-03
4.970659761071925635e-03
5.005086314844011709e-03
5.003785452799193283e-03
4.990508550672147908e-03
4.997817030160314235e-03
4.993065673777392043e-03
5.005689103905819511e-03
4.999087144556800706e-03
4.990225401998496166e-03
4.992958563837598604e-03
4.997977188240637289e-03
5.001262456204734821e-03
5.002802203825056429e-03
4.971242952731498577e-03
4.898509897431309497e-03
4.976336925767263671e-03
4.986791126200173542e-03
5.004194295156137381e-03
4.995064946691469589e-03
4.991398543042552087e-03
4.926685893549601590e-03
4.968461473159303809e-03
4.685357738378392520e-03
4.968600006519920120e-03
4.976510937183647489e-03
4.947850074303196573e-03
4.958828336302733251e-03
4.944106632590324936e-03
4.965169785356542131e-03
4.958360701739088910e-03
5.006490232193680674e-03
4.931590312401692641e-03
4.991209664631368961e-03
5.000106547359195984e-03
4.984714815222144463e-03
4.967580265831279818e-03
4.891557212159556786e-03
4.979114012818268778e-03
4.950182840941490074e-03
4.788505961945190362e-03
5.005892511425554317e-03
5.006562877736444282e-03
4.997879201229468195e-03
4.988389328140951234e-03
5.003133670231801368e-03
4.989595582037056887e-03
4.984700286113591915e-03
4.976627507938313766e-03
4.961345588831020219e-03
4.997282494120079514e-03
5.005376559128817647e-03
5.006401030224893502e-03
4.950625134036728929e-03
4.993006205798200016e-03
4.934116012086113903e-03
4.983997482723144003e-03
4.947928463912129940e-03
5.003219155451889798e-03
5.002247394610098534e-03
4.999525045130849901e-03
4.960994187135795395e-03
4.975162095291980890e-03
4.924167289476332789e-03
4.968218870835101018e-03
4.963846960705771937e-03
4.901915452898771182e-03
5.000603578026189579e-03
4.974569442817535977e-03
4.968235089374880425e-03
5.000996539729599295e-03
5.004878176916841351e-03
4.999387525428968665e-03
4.995290992589646213e-03
4.997222012482151546e-03
4.999584513110041060e-03
5.000067690440973892e-03
4.980542257977606420e-03
4.978837621869524471e-03
4.994085414466032345e-03
5.003521225755284615e-03
4.997998137187852248e-03
5.000879631088687993e-03
4.988585977935778605e-03
5.001693261167629821e-03
4.996138073406882797e-03
5.004535560263997582e-03
5.005977658759396855e-03
5.002459587172214395e-03
5.006558485215252888e-03
4.977965537470127426e-03
5.002172383863618017e-03
5.002870794732874535e-03
4.918023503876087221e-03
4.899165058861153395e-03
4.710817804856099258e-03
4.087117639093194518e-03
4.998710739279416289e-03
5.006423330717090295e-03
4.997356491207823222e-03
4.965669856999745287e-03
4.998561055672701148e-03
5.005464747438868878e-03
5.005669168617340493e-03
5.001444239004763752e-03
4.999392931608895134e-03
4.967554924362874332e-03
4.944199213421567561e-03
4.863949202819795037e-03
4.906775608652714539e-03
4.972625583247706690e-03
4.981043005393300492e-03
4.981565715414945465e-03
4.956748646462249587e-03
4.988294044219745808e-03
4.917784618300584040e-03
4.976720764542046441e-03
5.001065806409907451e-03
4.988926567271149623e-03
4.977025537935404059e-03
4.967338677165813836e-03
5.004818708937649324e-03
5.004909600337664223e-03
4.996935484946046085e-03
4.998053888418344665e-03
4.995773156261843102e-03
4.990691347130913648e-03
5.005123482331006943e-03
4.876265832237392135e-03
5.006466580156502914e-03
4.999473010649057095e-03
4.960612375678485376e-03
4.933706831842925647e-03
5.002060881402633184e-03
4.985138524573885267e-03
4.926525397583032644e-03
