4.825304323825179223e-03
4.715949116798257360e-03
4.715213260603693356e-03
4.696702241569334496e-03
4.794107260271782134e-03
4.625419702505175965e-03
4.643865939617215256e-03
4.590324096088027085e-03
4.642824445635292813e-03
4.663540126372213782e-03
4.544991284869303455e-03
4.841935006037311612e-03
4.872771616330619053e-03
4.594329363016113991e-03
4.649001152767315986e-03
4.777639778671649053e-03
5.090930553507271722e-03
5.047723918200606313e-03
4.654071168726362819e-03
4.559588811365530153e-03
4.514201599942806176e-03
4.919746815387661051e-03
4.911302740974419177e-03
4.640915870539233379e-03
4.620780320222066424e-03
4.662507353033681044e-03
4.602364812996257402e-03
4.761382838319058036e-03
4.657941473316281646e-03
4.552027598278271699e-03
4.697055635260967421e-03
4.768615158569918834e-03
4.755961920280774718e-03
4.700436753283620053e-03
4.753300047703372735e-03
4.783705193783275959e-03
4.993631428331694010e-03
5.053389014253790133e-03
4.749298933462614385e-03
4.524824174128441907e-03
4.681150842793811544e-03
4.622369138393851370e-03
4.662163510522902149e-03
4.588974472706349762e-03
4.659098827274662374e-03
4.694514605884817469e-03
4.495281541206615390e-03
4.643386719499535686e-03
4.686443858062385240e-03
4.749892352481820124e-03
4.718557004440392458e-03
4.645582245289975494e-03
4.584752020230995796e-03
4.887542725157165147e-03
4.908192793434300490e-03
4.802886456552412330e-03
4.703065404362395327e-03
4.751570868699894236e-03
4.784262484422725087e-03
4.698291475009851170e-03
4.625026443015191335e-03
4.929376066764382287e-03
4.910726763241992851e-03
4.704440359136775711e-03
4.754891357487554988e-03
4.766278026141586820e-03
4.839015666845560004e-03
4.780092771076440220e-03
4.551820794449325594e-03
4.554920775539855922e-03
4.756450691579308318e-03
4.865194207762779839e-03
4.685768215834080520e-03
4.600622760662060641e-03
4.708957652412433699e-03
5.003325461630735681e-03
5.028318410315744426e-03
4.672565161742676595e-03
4.583594666272615935e-03
4.596648638888935733e-03
4.792484805332638750e-03
4.876750721328537708e-03
4.786161508337929624e-03
4.530026660813260379e-03
4.829942045033357514e-03
4.761423119386142336e-03
4.736004104981256582e-03
4.823858773366219467e-03
4.605142130281383341e-03
4.699697574939193552e-03
4.753638906989357017e-03
4.900182259578127544e-03
4.773585925301822470e-03
4.711335481176584343e-03
4.744406237252482908e-03
4.671280320283318840e-03
4.761313488440676450e-03
4.589333680160242492e-03
4.881630959476684385e-03
4.662392738863421413e-03
4.755667910017935020e-03
4.598012796676262566e-03
4.558973798372218181e-03
4.623501576228262501e-03
4.611221664529926295e-03
4.824480015390523839e-03
4.655905410719246053e-03
4.830096109733234520e-03
4.786489155368126892e-03
4.692969806198712783e-03
4.646835111056906061e-03
4.617523367550529188e-03
4.609722959673163978e-03
4.655721861939338298e-03
4.682519568537198661e-03
4.515174574583812224e-03
4.615942439484668758e-03
4.730218580995553326e-03
4.668813208741612493e-03
4.866901792792152105e-03
4.677134363609938492e-03
4.744147524831933763e-03
4.730060363608347765e-03
5.093500236425986365e-03
5.070025925496915789e-03
4.769288309185827114e-03
4.683850504825899652e-03
4.900619952822524161e-03
4.904475307738060882e-03
4.656900809871825260e-03
4.850391953781271748e-03
4.611888170846107846e-03
4.931976894838058928e-03
4.958419131400621654e-03
4.767944084297676133e-03
4.509203840743269964e-03
4.884906183972466225e-03
4.814075042020887762e-03
4.900440971998676690e-03
4.815718260396672189e-03
4.830379323009020669e-03
4.827543452832565828e-03
4.518091006894434797e-03
4.833505881298452711e-03
4.736642373023606904e-03
4.601153058833877194e-03
4.648345443438186252e-03
4.641005153316790817e-03
4.578248496606240545e-03
4.511205020766749334e-03
4.812658560373225293e-03
4.678945350553783376e-03
4.554779999439428906e-03
4.675330020965817734e-03
4.703678756280776051e-03
4.662489081209436441e-03
4.596757854565668155e-03
4.621318093231074030e-03
4.594801938834067699e-03
4.571955929497759086e-03
4.706806975645138474e-03
4.609580522497805713e-03
4.535414772621650450e-03
4.739062974467237420e-03
4.675787231840656741e-03
4.806916224335736239e-03
4.661275250703392388e-03
4.693603091016269359e-03
4.671967174767409706e-03
4.745841405993122576e-03
4.690246058580120267e-03
4.700677609148658058e-03
4.738107441113009917e-03
4.710784004299394152e-03
4.509317624376063538e-03
4.536543473037465621e-03
4.687162688238903294e-03
4.703969444393753252e-03
4.611182629269040649e-03
4.576041758560014591e-03
4.640813714430959414e-03
4.564439150164913486e-03
4.523113682217940607e-03
4.739896418814015105e-03
4.866374816770198918e-03
4.793120997031325228e-03
4.820796581730375265e-03
4.844512579061949903e-03
4.659399481837227068e-03
4.776235755085971382e-03
4.548450888682459975e-03
4.740991067193738376e-03
4.851525222153147202e-03
4.741315392074074882e-03
4.638881469017129035e-03
4.588661775350533732e-03
4.922858424002710120e-03
4.851765662749452611e-03
4.496021965357239678e-03
4.662032700872062625e-03
4.734626243325746296e-03
4.584595879187454079e-03
4.864416824694933750e-03
4.688937131534259839e-03
4.600341623729939204e-03
4.592817784828635147e-03
4.548841241291313835e-03
4.774027771233546776e-03
4.538546314135876239e-03
4.883815273011338047e-03
4.865518947911848940e-03
4.775296001943590309e-03
