5.718064966677766613e-03
5.277299278740493413e-03
5.729931273691572617e-03
5.624536892305316733e-03
5.507852712562876472e-03
5.491061653626345095e-03
5.712063022985275872e-03
5.669993134258729042e-03
5.702807616197169520e-03
5.748811052808662329e-03
5.714663370171141170e-03
5.668702927425640047e-03
5.538528054241549647e-03
5.666811588175317375e-03
5.737181602911141202e-03
5.692999542804401923e-03
5.499978190579768965e-03
5.443211044190503570e-03
5.702433960416366035e-03
5.743146415537546401e-03
5.690247153674256320e-03
5.514416312486553409e-03
5.150892231630615527e-03
5.707272333753780902e-03
5.645818855971380945e-03
5.655012507933789706e-03
5.747302358965668961e-03
5.714846680381598272e-03
5.096073489077443050e-03
4.471958896203767284e-03
4.563475248501116383e-03
5.122520188609134585e-03
5.735989500263179337e-03
5.716418692463598634e-03
5.298397150489446254e-03
4.890153977055194945e-03
4.693338611583428022e-03
5.717136299172338211e-03
5.597341317798709692e-03
5.276592615924914458e-03
5.698278407841571476e-03
4.788914366537081087e-03
5.641903287339486602e-03
4.504921902406543860e-03
5.736824362970079950e-03
5.517711596888181039e-03
5.710117745975800026e-03
5.752037937878029354e-03
5.710309654959455812e-03
5.707303992873283965e-03
5.693119143922524897e-03
5.218359769558647381e-03
5.722573850660350216e-03
5.047904725033259751e-03
5.629055156767754156e-03
5.540326761253325065e-03
4.994973804050466606e-03
5.687841451445336746e-03
5.499832793142050806e-03
5.530061780321059682e-03
5.704836535818666801e-03
5.737041677420002921e-03
5.408491543135286392e-03
4.937876386599715679e-03
5.638765907682049758e-03
5.477965722045167150e-03
5.505877730700532366e-03
5.607736062035605269e-03
5.497029983932696234e-03
5.640949605221118150e-03
5.705022972855742711e-03
5.125469176962861584e-03
5.418951169024498367e-03
5.380494328454591205e-03
5.070723523981877055e-03
5.552195413387094741e-03
5.029772257477777009e-03
5.271568978110407686e-03
5.457716002016239215e-03
5.635417076374596088e-03
5.525813595507718737e-03
5.595340148763443266e-03
5.578450594788457624e-03
4.728715137081667720e-03
5.018490667041462447e-03
5.218565358408754594e-03
5.657895442075220639e-03
5.683932527320005416e-03
5.394724125537978497e-03
5.633915027038164866e-03
5.616400498592985166e-03
5.675436939399976927e-03
5.713849222690582999e-03
5.666297616050049342e-03
5.698807232393273206e-03
5.634791320197747762e-03
5.623429995682685707e-03
5.676985109429017774e-03
5.751431333514214934e-03
5.312911097941707718e-03
5.493021392208928370e-03
5.712245942342405840e-03
5.654273795145381420e-03
5.303690086246395236e-03
5.466956947231239004e-03
5.046705196172082339e-03
5.690107228183118905e-03
5.711588527046055318e-03
5.678289777835212465e-03
5.032046632988755250e-03
5.591695441487298801e-03
5.475770298906282134e-03
5.253735513350232811e-03
5.744245104240306744e-03
5.426530596745570215e-03
5.631813799551134772e-03
4.734448173685043386e-03
4.861530224490998031e-03
5.342390428439146820e-03
4.632244328008725855e-03
5.612333669723464785e-03
5.744599217354750924e-03
5.242216284090980838e-03
5.272567608361405228e-03
5.518424904210321273e-03
5.684355821473363601e-03
5.741339109752572299e-03
5.687681592434512892e-03
5.677141450759898289e-03
5.638570090165121763e-03
5.500969394617549225e-03
5.308174737322693057e-03
5.387666096155392832e-03
5.581475017834334508e-03
5.743293767241901965e-03
5.643157144813146057e-03
5.696830687117620563e-03
5.665262636439622260e-03
5.689959094772109073e-03
5.735067868117640216e-03
5.745604101258983479e-03
5.744835292764379799e-03
5.733995366587802192e-03
5.617736826118682920e-03
5.684467214671616760e-03
5.737815567007860211e-03
5.726205659776697522e-03
5.552050797656029983e-03
5.662680659360135732e-03
5.519930862080024703e-03
5.721347352919596216e-03
5.728590255925946652e-03
5.740318982568578046e-03
5.294474155644336363e-03
5.747926551729207884e-03
5.691379064909829130e-03
5.735214047262013511e-03
5.468691554297354894e-03
5.583738058598825861e-03
5.671013652296049562e-03
5.131783412463784486e-03
5.661808665587151311e-03
5.354740611872027198e-03
4.596988576188591399e-03
4.787332973975227772e-03
5.741958221422856744e-03
5.644659585002904413e-03
5.321298810343428991e-03
4.693776367309892769e-03
5.740801295574343883e-03
5.687319271400197163e-03
5.729438407645972425e-03
5.644998845690914896e-03
5.726186898816991618e-03
5.733961753201662591e-03
5.729454041779059523e-03
5.704514863530380821e-03
5.704356958786192637e-03
5.711007719001835216e-03
4.651782694982149226e-03
5.681607731729817340e-03
5.120050386434554616e-03
