1.999999999999966604e+01,3.000000000435313563e+00,1.000000000000068745e+01,6.599999999990916466e-01,1.569999999998324958e+00,2.869999999999999091e+03,-2.174999999999974953e+00,-4.944999999998154649e+00,1.336159010122226398e+01,-2.221138762730147320e+00
1.999999999999682387e+01,3.000000000393416411e+00,1.000000000006230927e+01,6.600000000006098766e-01,1.570000000001389395e+00,2.869999999999993634e+03,-2.174999999999419398e+00,-4.945000000000997709e+00,1.334091788430819570e+01,-2.261173705172061066e+00
1.999999999999751310e+01,3.000000000110346843e+00,1.000000000006585488e+01,6.600000000007184564e-01,1.570000000001416929e+00,2.869999999999994998e+03,-2.174999999999629452e+00,-4.945000000001268603e+00,1.334017273264711534e+01,-2.260900932743160840e+00
1.999999999999926814e+01,3.000000001579464115e+00,1.000000000003795009e+01,6.600000000005548095e-01,1.570000000001144924e+00,2.869999999999978627e+03,-2.174999999999998046e+00,-4.945000000001263274e+00,1.331409293661312709e+01,-2.281370023724983653e+00
1.999999999999842260e+01,3.000000001993881504e+00,1.000000000003342038e+01,6.600000000007109069e-01,1.570000000001639195e+00,2.869999999999979991e+03,-2.174999999999747580e+00,-4.945000000001543938e+00,1.329973431166136777e+01,-2.289760688606233607e+00
1.999999999999824496e+01,3.000000000832541147e+00,1.000000000003315392e+01,6.600000000005703527e-01,1.570000000001316121e+00,2.869999999999992269e+03,-2.174999999999721823e+00,-4.945000000001077645e+00,1.330445089180600782e+01,-2.281821356121533917e+00
1.999999999999839417e+01,3.000000000927558030e+00,1.000000000004986056e+01,6.600000000006720491e-01,1.570000000001466223e+00,2.869999999999989541e+03,-2.174999999999799982e+00,-4.945000000001275708e+00,1.330382827552032587e+01,-2.288165388835933456e+00
2.000000000000157385e+01,2.999999999057182176e+00,1.000000000000889777e+01,6.599999999994881072e-01,1.569999999998494156e+00,2.869999999999995453e+03,-2.175000000000568257e+00,-4.944999999999481588e+00,1.330973704537850644e+01,-2.284502266522554059e+00
2.000000000000128964e+01,2.999999998690898284e+00,9.999999999991143085e+00,6.599999999994429212e-01,1.569999999998504370e+00,2.869999999999996362e+03,-2.175000000000447020e+00,-4.944999999999387441e+00,1.330504446375075034e+01,-2.284687088388320575e+00
2.000000000000136779e+01,2.999999998491621689e+00,9.999999999988389732e+00,6.599999999999310862e-01,1.569999999999468931e+00,2.870000000000000455e+03,-2.175000000000366640e+00,-4.944999999999714291e+00,1.329851081825815484e+01,-2.290010609850987588e+00
2.000000000000097700e+01,2.999999998287086633e+00,9.999999999975345943e+00,6.599999999998952260e-01,1.569999999999522888e+00,2.870000000000000455e+03,-2.175000000000215206e+00,-4.944999999999571294e+00,1.330221311241689008e+01,-2.285813506978998877e+00
2.000000000000115108e+01,3.000000000869639027e+00,1.000000000003024958e+01,6.599999999995134203e-01,1.569999999999069695e+00,2.869999999999993179e+03,-2.175000000000346212e+00,-4.944999999999033946e+00,1.331426713612881585e+01,-2.285889862513133419e+00
2.000000000000074607e+01,3.000000000984403670e+00,1.000000000002699885e+01,6.599999999994673461e-01,1.569999999999083462e+00,2.869999999999994998e+03,-2.175000000000232525e+00,-4.944999999998976214e+00,1.332199307212844630e+01,-2.279485109636790519e+00
2.000000000000053291e+01,3.000000001639050673e+00,1.000000000002867928e+01,6.599999999985038945e-01,1.569999999997138795e+00,2.869999999999987267e+03,-2.175000000000198774e+00,-4.944999999997067519e+00,1.334168829637950893e+01,-2.263833605195122001e+00
1.999999999999986144e+01,3.000000000662457200e+00,1.000000000002233413e+01,6.599999999985298738e-01,1.569999999997354845e+00,2.869999999999985903e+03,-2.174999999999940758e+00,-4.944999999996896989e+00,1.331915729633850631e+01,-2.279155588223443107e+00
1.999999999999895905e+01,3.000000000744360573e+00,1.000000000002043166e+01,6.600000000000754152e-01,1.570000000000421725e+00,2.869999999999991360e+03,-2.174999999999607248e+00,-4.944999999999487805e+00,1.326248856230887085e+01,-2.328964091319210894e+00
2.000000000000007461e+01,2.999999999885851754e+00,1.000000000002041212e+01,6.600000000000131317e-01,1.570000000000170370e+00,2.869999999999994998e+03,-2.175000000000065992e+00,-4.945000000000210783e+00,1.332360103756097303e+01,-2.279129494632502695e+00
1.999999999999324629e+01,3.000000002488184325e+00,1.000000000004127720e+01,6.600000000008567902e-01,1.570000000002990337e+00,2.869999999999986812e+03,-2.174999999998065814e+00,-4.945000000000870699e+00,1.329756885690184909e+01,-2.267837882909510938e+00
2.000000000000288836e+01,3.000000001050997511e+00,1.000000000000817124e+01,6.599999999992059996e-01,1.569999999997932383e+00,2.869999999999990450e+03,-2.175000000000929301e+00,-4.944999999998957563e+00,1.338901099433816810e+01,-2.216715233422706266e+00
1.999999999999974420e+01,3.000000000363871155e+00,1.000000000001578648e+01,6.600000000001268186e-01,1.570000000000250973e+00,2.869999999999992724e+03,-2.174999999999942091e+00,-4.945000000000020712e+00,1.328878184428889142e+01,-2.282110091860200196e+00
1.999999999999984368e+01,2.999999999816900242e+00,1.000000000000989075e+01,6.600000000001859934e-01,1.570000000000330020e+00,2.869999999999994088e+03,-2.174999999999966072e+00,-4.945000000000178808e+00,1.328473764652229683e+01,-2.284660125730392011e+00
1.999999999999966960e+01,3.000000002209084915e+00,9.999999999980150989e+00,6.599999999987394839e-01,1.569999999997737650e+00,2.869999999999999545e+03,-2.174999999999865263e+00,-4.944999999997739870e+00,1.337781796773769294e+01,-2.215625129497204249e+00
2.000000000000438760e+01,2.999999999943516737e+00,9.999999999941321605e+00,6.599999999989641930e-01,1.569999999997177653e+00,2.870000000000001364e+03,-2.175000000001203304e+00,-4.944999999998686668e+00,1.337901096093868958e+01,-2.208577656395767974e+00
2.000000000000236611e+01,2.999999999443473175e+00,1.000000000003307932e+01,6.599999999999170974e-01,1.569999999999221352e+00,2.869999999999976353e+03,-2.175000000000776978e+00,-4.944999999999682316e+00,1.334606288670909713e+01,-2.250941451997657161e+00
1.999999999999864286e+01,3.000000002661034060e+00,1.000000000001258194e+01,6.599999999987758992e-01,1.569999999997951035e+00,2.869999999999989541e+03,-2.174999999999818634e+00,-4.944999999997961027e+00,1.343301744264949527e+01,-2.171042805259836506e+00
2.000000000000010303e+01,2.999999997616896064e+00,9.999999999983202770e+00,6.599999999992702815e-01,1.569999999998781703e+00,2.869999999999997726e+03,-2.175000000000010036e+00,-4.944999999998731965e+00,1.336774562866247962e+01,-2.205673771777907799e+00
1.999999999999696598e+01,2.999999999276338869e+00,9.999999999888297353e+00,6.600000000002929079e-01,1.570000000001336105e+00,2.870000000000001819e+03,-2.174999999998725730e+00,-4.944999999999457607e+00,1.329390461625676778e+01,-2.267205982146539789e+00
1.999999999999673506e+01,2.999999999507477977e+00,9.999999999889578106e+00,6.600000000004901946e-01,1.570000000001753993e+00,2.870000000000002728e+03,-2.174999999998633360e+00,-4.944999999999675211e+00,1.328614751198781363e+01,-2.274997957166695617e+00
1.999999999999783640e+01,2.999999999175750443e+00,9.999999999967917219e+00,6.600000000010995960e-01,1.570000000002574891e+00,2.869999999999995453e+03,-2.174999999999170708e+00,-4.945000000001170903e+00,1.331934763726374094e+01,-2.268358061076676258e+00
1.999999999999796074e+01,2.999999999168391884e+00,9.999999999959117147e+00,6.600000000010347589e-01,1.570000000002429674e+00,2.869999999999996817e+03,-2.174999999999184475e+00,-4.945000000001047447e+00,1.331528853745499319e+01,-2.268469542912469716e+00
2.000000000000113332e+01,3.000000002203869975e+00,9.999999999973155695e+00,6.599999999995281863e-01,1.569999999999075024e+00,2.869999999999994088e+03,-2.175000000000160583e+00,-4.944999999998732854e+00,1.329844966889686297e+01,-2.280602004583975440e+00
2.000000000000097700e+01,3.000000001633533753e+00,9.999999999969784170e+00,6.599999999995445066e-01,1.569999999999141194e+00,2.869999999999994543e+03,-2.175000000000130829e+00,-4.944999999998890061e+00,1.329358336764066273e+01,-2.283590961696636779e+00
1.999999999999896616e+01,3.000000000159285474e+00,9.999999999939465312e+00,6.599999999997191447e-01,1.569999999999799112e+00,2.869999999999991360e+03,-2.174999999999441602e+00,-4.944999999998761275e+00,1.325051381511494952e+01,-2.307047202566411492e+00
1.999999999999526779e+01,2.999999999417536145e+00,9.999999999965474728e+00,6.600000000003821699e-01,1.570000000001658069e+00,2.869999999999988177e+03,-2.174999999998558309e+00,-4.945000000000023377e+00,1.326555512839435380e+01,-2.283679171434062738e+00
1.999999999999540989e+01,2.999999999372889192e+00,9.999999999976830978e+00,6.600000000002691491e-01,1.570000000001388729e+00,2.869999999999988631e+03,-2.174999999998643130e+00,-4.944999999999845741e+00,1.329244210387499336e+01,-2.265492741518818409e+00
1.999999999999673861e+01,2.999999999928284478e+00,9.999999999939424455e+00,6.600000000003193312e-01,1.570000000001289031e+00,2.870000000000001364e+03,-2.174999999998955325e+00,-4.945000000000290719e+00,1.327686488821168354e+01,-2.272898421067564012e+00
1.999999999999680256e+01,3.000000000053437699e+00,9.999999999942238205e+00,6.600000000001559064e-01,1.570000000000973062e+00,2.870000000000001364e+03,-2.174999999998974864e+00,-4.944999999999946105e+00,1.328782292125062270e+01,-2.265163749788985381e+00
1.999999999999806022e+01,2.999999999650742932e+00,9.999999999949649165e+00,6.600000000009219603e-01,1.570000000002388152e+00,2.869999999999998636e+03,-2.174999999999242650e+00,-4.945000000001001261e+00,1.323671699440805583e+01,-2.298549894449958053e+00
1.999999999999823785e+01,2.999999998973140514e+00,9.999999999973582021e+00,6.599999999992841593e-01,1.569999999999184492e+00,2.869999999999993179e+03,-2.174999999999435385e+00,-4.944999999998340279e+00,1.330139912038216998e+01,-2.257890209108820656e+00
1.999999999999507949e+01,2.999999998962432191e+00,9.999999999910514248e+00,6.600000000006203127e-01,1.570000000002255591e+00,2.870000000000000909e+03,-2.174999999998328271e+00,-4.945000000000455032e+00,1.324588638999505541e+01,-2.288670268914885231e+00
2.000000000000073186e+01,3.000000000643269438e+00,9.999999999918617988e+00,6.599999999997322453e-01,1.569999999999614593e+00,2.870000000000000909e+03,-2.174999999999902567e+00,-4.944999999998849205e+00,1.332190535316152946e+01,-2.247863294610087603e+00
1.999999999999708677e+01,3.000000000136799017e+00,9.999999999945702100e+00,6.600000000001507994e-01,1.570000000001135598e+00,2.869999999999996362e+03,-2.174999999998925126e+00,-4.944999999999051710e+00,1.332404947386096161e+01,-2.242176630400187332e+00
1.999999999999806732e+01,2.999999998479637497e+00,9.999999999962794206e+00,6.599999999999830447e-01,1.570000000000338236e+00,2.869999999999994543e+03,-2.174999999999378542e+00,-4.944999999999684981e+00,1.331635878165477926e+01,-2.241912437366488930e+00
1.999999999999804245e+01,2.999999999059601130e+00,9.999999999968688158e+00,6.600000000000536549e-01,1.570000000000423723e+00,2.869999999999995453e+03,-2.174999999999419842e+00,-4.945000000000009166e+00,1.332021672252411015e+01,-2.242572511357116660e+00
1.999999999999575451e+01,3.000000000758076268e+00,9.999999999998099298e+00,6.600000000007311129e-01,1.570000000002341078e+00,2.869999999999994543e+03,-2.174999999998825650e+00,-4.945000000000865370e+00,1.334687153507817570e+01,-2.242181652301481254e+00
1.999999999999724665e+01,3.000000000796683608e+00,1.000000000001369749e+01,6.600000000004734302e-01,1.570000000001560814e+00,2.869999999999992269e+03,-2.174999999999285727e+00,-4.945000000000578488e+00,1.335743048348931339e+01,-2.239997490818258274e+00
1.999999999999904787e+01,3.000000001717571863e+00,9.999999999930771821e+00,6.599999999987463672e-01,1.569999999998223705e+00,2.869999999999994543e+03,-2.174999999999422950e+00,-4.944999999996542606e+00,1.337006076859417192e+01,-2.220030901068481555e+00
2.000000000000063594e+01,3.000000002881527017e+00,9.999999999978347986e+00,6.599999999995049826e-01,1.569999999998882956e+00,2.869999999999991360e+03,-2.175000000000096634e+00,-4.944999999998539231e+00,1.338039132403787690e+01,-2.234752107169560631e+00
1.999999999999750599e+01,2.999999997437699406e+00,9.999999999983467447e+00,6.599999999986373433e-01,1.569999999998184181e+00,2.869999999999999545e+03,-2.174999999999204903e+00,-4.944999999996847251e+00,1.337520236283302211e+01,-2.205720870660248245e+00
1.999999999999840128e+01,2.999999999802869688e+00,9.999999999995184297e+00,6.599999999991452704e-01,1.569999999998898277e+00,2.870000000000001364e+03,-2.174999999999511768e+00,-4.944999999997814477e+00,1.340837433610481000e+01,-2.196264853858528543e+00
1.999999999999874589e+01,3.000000000248902232e+00,1.000000000000296652e+01,6.599999999990058264e-01,1.569999999998571871e+00,2.870000000000001364e+03,-2.174999999999635669e+00,-4.944999999997587992e+00,1.343143271435871888e+01,-2.183901854076285343e+00
1.999999999999706191e+01,3.000000000428720170e+00,9.999999999989148236e+00,6.599999999992005595e-01,1.569999999999153184e+00,2.869999999999991815e+03,-2.174999999999167155e+00,-4.944999999998278106e+00,1.339598545275441310e+01,-2.216421836599385298e+00
1.999999999999761968e+01,3.000000000466152450e+00,1.000000000000203215e+01,6.599999999988702681e-01,1.569999999998553886e+00,2.870000000000002274e+03,-2.174999999999287059e+00,-4.944999999997392592e+00,1.340780640073243468e+01,-2.197176684152006843e+00
1.999999999999431211e+01,3.000000001978381015e+00,1.000000000000500577e+01,6.599999999997143707e-01,1.570000000000608908e+00,2.869999999999996817e+03,-2.174999999998495692e+00,-4.944999999999079243e+00,1.341390349046983310e+01,-2.188137597902744869e+00
1.999999999999421973e+01,3.000000001863550647e+00,9.999999999997687183e+00,6.599999999996571942e-01,1.570000000000530971e+00,2.869999999999997272e+03,-2.174999999998459721e+00,-4.944999999999028617e+00,1.340607724982029580e+01,-2.191148240915937961e+00
1.999999999999609912e+01,3.000000000326844329e+00,1.000000000001919354e+01,6.599999999991722488e-01,1.569999999999239781e+00,2.870000000000000909e+03,-2.174999999998910027e+00,-4.944999999997861551e+00,1.341321234415551089e+01,-2.196011162706004161e+00
1.999999999999675993e+01,3.000000000272636136e+00,1.000000000002236078e+01,6.599999999991771338e-01,1.569999999999104334e+00,2.869999999999999545e+03,-2.174999999999108979e+00,-4.944999999997953921e+00,1.340197806267724268e+01,-2.207037377718284787e+00
1.999999999999837286e+01,2.999999999841083564e+00,1.000000000003480771e+01,6.599999999990517896e-01,1.569999999998522355e+00,2.869999999999997272e+03,-2.174999999999623235e+00,-4.944999999997678586e+00,1.342098953310393483e+01,-2.195428578098800543e+00
1.999999999999865707e+01,3.000000000442695658e+00,1.000000000004144418e+01,6.599999999990627808e-01,1.569999999998472173e+00,2.869999999999996362e+03,-2.174999999999718714e+00,-4.944999999997664375e+00,1.344031493192630933e+01,-2.182975013369872208e+00
1.999999999999631228e+01,3.000000000156369584e+00,9.999999999960602182e+00,6.599999999990482369e-01,1.569999999999253548e+00,2.869999999999999091e+03,-2.174999999998667999e+00,-4.944999999996920970e+00,1.338654916810900453e+01,-2.211125164524942122e+00
1.999999999999656808e+01,2.999999999557572572e+00,9.999999999990743405e+00,6.599999999991815747e-01,1.569999999999168061e+00,2.869999999999990905e+03,-2.174999999998943334e+00,-4.944999999997624407e+00,1.338193051212975249e+01,-2.211138713096405972e+00
1.999999999999691624e+01,2.999999998815866764e+00,9.999999999997250200e+00,6.599999999990751043e-01,1.569999999998852758e+00,2.869999999999997726e+03,-2.174999999999201350e+00,-4.944999999998064943e+00,1.342931402229202043e+01,-2.175554306407565974e+00
1.999999999999583622e+01,3.000000000602583317e+00,9.999999999996870059e+00,6.599999999982004706e-01,1.569999999997670370e+00,2.869999999999998181e+03,-2.174999999998861622e+00,-4.944999999996329443e+00,1.345628721075910761e+01,-2.142724004738297161e+00
1.999999999999644729e+01,3.000000000499258412e+00,1.000000000000245315e+01,6.599999999985175503e-01,1.569999999998097140e+00,2.869999999999998636e+03,-2.174999999999035705e+00,-4.944999999996926299e+00,1.345038546589261230e+01,-2.153217077436869076e+00
2.000000000000154898e+01,3.000000001507253877e+00,1.000000000005436185e+01,6.599999999993301225e-01,1.569999999997986784e+00,2.870000000000001364e+03,-2.175000000000759215e+00,-4.944999999999243556e+00,1.345427957928790086e+01,-2.175664489099413679e+00
2.000000000000173728e+01,3.000000002261504317e+00,1.000000000004750333e+01,6.599999999993114708e-01,1.569999999998011875e+00,2.870000000000000909e+03,-2.175000000000762768e+00,-4.944999999999113882e+00,1.345113307244747780e+01,-2.179662598754017022e+00
2.000000000000068923e+01,3.000000001771988778e+00,1.000000000005456080e+01,6.599999999992950395e-01,1.569999999998460183e+00,2.869999999999973625e+03,-2.175000000000424816e+00,-4.944999999998898943e+00,1.339874601308415158e+01,-2.202526242654110344e+00
2.000000000000157030e+01,3.000000001926627302e+00,1.000000000001501910e+01,6.600000000002793632e-01,1.570000000000067786e+00,2.869999999999992269e+03,-2.175000000000509637e+00,-4.945000000000494111e+00,1.339152131102221510e+01,-2.204807229331285701e+00
1.999999999999622347e+01,2.999999999968165021e+00,9.999999999942913220e+00,6.599999999997137046e-01,1.570000000000481455e+00,2.869999999999998636e+03,-2.174999999998862066e+00,-4.944999999998877627e+00,1.337560579008842332e+01,-2.184389900095963455e+00
1.999999999999957367e+01,3.000000001637873392e+00,1.000000000000240519e+01,6.600000000002986811e-01,1.570000000000689733e+00,2.869999999999995907e+03,-2.174999999999955413e+00,-4.945000000000549178e+00,1.339702906679039174e+01,-2.206148054794622837e+00
2.000000000000105871e+01,3.000000003440486562e+00,1.000000000006563994e+01,6.599999999994463629e-01,1.569999999998732854e+00,2.869999999999989996e+03,-2.175000000000385292e+00,-4.944999999998379359e+00,1.343275034488883968e+01,-2.191447027736772579e+00
2.000000000000098055e+01,3.000000003283794570e+00,1.000000000006023448e+01,6.599999999992911537e-01,1.569999999998462403e+00,2.869999999999993179e+03,-2.175000000000337774e+00,-4.944999999998024975e+00,1.343214207391549131e+01,-2.190685878180882451e+00
2.000000000000179767e+01,3.000000001657521675e+00,1.000000000003340617e+01,6.599999999988829247e-01,1.569999999997551576e+00,2.869999999999994543e+03,-2.175000000000633094e+00,-4.944999999997855333e+00,1.343214086883142855e+01,-2.182883338944650919e+00
2.000000000000167333e+01,3.000000002128349497e+00,1.000000000003672085e+01,6.599999999989660804e-01,1.569999999997739648e+00,2.869999999999994998e+03,-2.175000000000598011e+00,-4.944999999998011653e+00,1.342408456714705878e+01,-2.190097230792142913e+00
1.999999999999960565e+01,3.000000002221237860e+00,1.000000000004262901e+01,6.599999999997814282e-01,1.569999999999620144e+00,2.869999999999994543e+03,-2.174999999999943423e+00,-4.944999999999091678e+00,1.342630660993587099e+01,-2.194529315776938105e+00
1.999999999999991829e+01,3.000000002713583580e+00,1.000000000004858869e+01,6.599999999997261391e-01,1.569999999999429630e+00,2.869999999999996362e+03,-2.175000000000061995e+00,-4.944999999999059703e+00,1.343578955854705015e+01,-2.188295060709093853e+00
2.000000000000334310e+01,3.000000000653378240e+00,1.000000000002792433e+01,6.599999999992820499e-01,1.569999999997897300e+00,2.869999999999991815e+03,-2.175000000001040323e+00,-4.944999999998744400e+00,1.338884477833813769e+01,-2.211864828728196120e+00
2.000000000000205702e+01,3.000000000753309859e+00,1.000000000008379075e+01,6.600000000007838485e-01,1.570000000001209095e+00,2.869999999999977263e+03,-2.175000000000693490e+00,-4.945000000000946194e+00,1.339728006709020036e+01,-2.233293007585670509e+00
2.000000000000035882e+01,3.000000003660835191e+00,1.000000000002655653e+01,6.599999999997305800e-01,1.569999999999470042e+00,2.869999999999994998e+03,-2.175000000000153921e+00,-4.944999999999265761e+00,1.332614282433033281e+01,-2.268133106462183690e+00
1.999999999999957012e+01,3.000000003646553282e+00,1.000000000001001332e+01,6.599999999998121814e-01,1.569999999999813767e+00,2.869999999999996362e+03,-2.174999999999905675e+00,-4.944999999999451390e+00,1.331062470101090689e+01,-2.273277118347322823e+00
1.999999999999743849e+01,3.000000000778400455e+00,1.000000000001134737e+01,6.599999999999944800e-01,1.570000000000553397e+00,2.870000000000001819e+03,-2.174999999999291500e+00,-4.944999999999608598e+00,1.338915825965683126e+01,-2.210191871047949341e+00
1.999999999999525002e+01,3.000000001129632832e+00,1.000000000000755662e+01,6.599999999994647926e-01,1.569999999999959650e+00,2.870000000000005457e+03,-2.174999999998784350e+00,-4.944999999998599627e+00,1.341655170034110078e+01,-2.171242548218264901e+00
1.999999999999489475e+01,3.000000000591788840e+00,1.000000000000334310e+01,6.599999999995933564e-01,1.570000000000226548e+00,2.870000000000002728e+03,-2.174999999998675548e+00,-4.944999999999180496e+00,1.338927320828425316e+01,-2.201110465045847953e+00
1.999999999999525002e+01,3.000000002105045915e+00,9.999999999964238384e+00,6.599999999996900568e-01,1.570000000000531193e+00,2.870000000000000000e+03,-2.174999999998510791e+00,-4.944999999998326956e+00,1.341073903225124653e+01,-2.195993147092356601e+00
1.999999999999549516e+01,3.000000002214255446e+00,9.999999999961076469e+00,6.599999999995809219e-01,1.570000000000286500e+00,2.869999999999999091e+03,-2.174999999998571631e+00,-4.944999999998114681e+00,1.341879209080720337e+01,-2.189807022078968934e+00
1.999999999999561240e+01,3.000000001193844579e+00,1.000000000001595168e+01,6.600000000002607115e-01,1.570000000001512186e+00,2.869999999999996362e+03,-2.174999999998700861e+00,-4.944999999999440732e+00,1.331215268915089922e+01,-2.272099245052489724e+00
2.000000000000166267e+01,3.000000000873560335e+00,1.000000000004671463e+01,6.599999999993086952e-01,1.569999999998348716e+00,2.870000000000001819e+03,-2.175000000000611777e+00,-4.944999999998771045e+00,1.341186020792838640e+01,-2.205601712905596923e+00
2.000000000000176570e+01,3.000000001380416670e+00,1.000000000005374012e+01,6.599999999991723598e-01,1.569999999998058726e+00,2.870000000000000909e+03,-2.175000000000679279e+00,-4.944999999998564100e+00,1.343490381286767033e+01,-2.187232906809180033e+00
1.999999999999702638e+01,2.999999999295710928e+00,9.999999999990205168e+00,6.599999999992505195e-01,1.569999999999288187e+00,2.870000000000003183e+03,-2.174999999999033928e+00,-4.944999999998026752e+00,1.334506032343514548e+01,-2.239931242949531942e+00
2.000000000000386891e+01,3.000000002063795801e+00,9.999999999992438049e+00,6.599999999991459365e-01,1.569999999997774509e+00,2.869999999999990450e+03,-2.175000000001178435e+00,-4.944999999998922924e+00,1.340491546305577231e+01,-2.205505413311143581e+00
2.000000000000415312e+01,3.000000002366773888e+00,9.999999999994548361e+00,6.599999999988597210e-01,1.569999999997195861e+00,2.869999999999988631e+03,-2.175000000001267697e+00,-4.944999999998416662e+00,1.341619916523304568e+01,-2.196628028672343635e+00
2.000000000000117950e+01,2.999999999869907175e+00,9.999999999961051600e+00,6.599999999998469313e-01,1.569999999999531548e+00,2.869999999999997272e+03,-2.175000000000309353e+00,-4.944999999999642348e+00,1.336337375760072632e+01,-2.220303974988171003e+00
1.999999999999829114e+01,2.999999998758762665e+00,1.000000000002495604e+01,6.600000000011236878e-01,1.570000000002436114e+00,2.869999999999994998e+03,-2.174999999999558398e+00,-4.945000000001641638e+00,1.328965388874214071e+01,-2.289522021197440527e+00
1.999999999999833733e+01,2.999999999069720147e+00,1.000000000001903544e+01,6.600000000011093659e-01,1.570000000002431673e+00,2.869999999999994998e+03,-2.174999999999547740e+00,-4.945000000001600782e+00,1.328168852600915706e+01,-2.296646877001498499e+00
2.000000000000307665e+01,2.999999999484506574e+00,1.000000000003628209e+01,6.600000000011241319e-01,1.570000000001513074e+00,2.869999999999990450e+03,-2.175000000000987033e+00,-4.945000000002646168e+00,1.332718036581068866e+01,-2.273070511925277870e+00
2.000000000000196465e+01,2.999999999615273083e+00,1.000000000004448708e+01,6.600000000010142198e-01,1.570000000001541052e+00,2.869999999999992724e+03,-2.175000000000691713e+00,-4.945000000002314877e+00,1.334196782228955591e+01,-2.261947387357866823e+00
2.000000000000064304e+01,2.999999999093609038e+00,1.000000000002095391e+01,6.599999999998159561e-01,1.569999999999483364e+00,2.869999999999995907e+03,-2.175000000000249845e+00,-4.945000000000056239e+00,1.337517139882981887e+01,-2.226117485615862535e+00
1.999999999999784350e+01,3.000000000151713753e+00,1.000000000004731859e+01,6.599999999997584466e-01,1.569999999999814433e+00,2.869999999999985903e+03,-2.174999999999539746e+00,-4.944999999999193818e+00,1.337206448415771476e+01,-2.206623165858373259e+00
2.000000000000128608e+01,2.999999997563629783e+00,9.999999999996884270e+00,6.599999999984037524e-01,1.569999999996729567e+00,2.869999999999989541e+03,-2.175000000000211209e+00,-4.944999999996452900e+00,1.332098619006584173e+01,-2.264943024309585162e+00
1.999999999999950973e+01,3.000000001464033339e+00,1.000000000000618705e+01,6.599999999999750511e-01,1.570000000000367102e+00,2.869999999999995453e+03,-2.174999999999666311e+00,-4.944999999998946905e+00,1.333626467995043008e+01,-2.252417845383047901e+00
1.999999999999953815e+01,3.000000001129852212e+00,1.000000000000206946e+01,6.599999999999988098e-01,1.570000000000366436e+00,2.869999999999997726e+03,-2.174999999999665423e+00,-4.944999999998979767e+00,1.333483800530732744e+01,-2.254616898452301843e+00
2.000000000000302336e+01,3.000000001717613163e+00,1.000000000008404832e+01,6.599999999992760547e-01,1.569999999998064277e+00,2.869999999999986812e+03,-2.175000000000948841e+00,-4.944999999998763052e+00,1.329806722835220612e+01,-2.319714694984537751e+00
2.000000000000278888e+01,3.000000001683734929e+00,1.000000000008313883e+01,6.599999999992304245e-01,1.569999999998050066e+00,2.869999999999985903e+03,-2.175000000000880451e+00,-4.944999999998673346e+00,1.329740761548959327e+01,-2.320710731944451766e+00
1.999999999999977263e+01,2.999999997843378896e+00,1.000000000002278888e+01,6.600000000005828982e-01,1.570000000001015694e+00,2.869999999999994088e+03,-2.174999999999972289e+00,-4.945000000000849383e+00,1.333188223643785264e+01,-2.274303720552343311e+00
1.999999999999446487e+01,2.999999999520131411e+00,1.000000000001497824e+01,6.599999999991567057e-01,1.569999999999516227e+00,2.869999999999998636e+03,-2.174999999998493028e+00,-4.944999999997786944e+00,1.340295937323322129e+01,-2.181378569837028270e+00
1.999999999999502620e+01,2.999999999265800188e+00,1.000000000000366995e+01,6.599999999993254596e-01,1.569999999999725171e+00,2.869999999999998181e+03,-2.174999999998615596e+00,-4.944999999998125340e+00,1.338825101459288369e+01,-2.194227383485735317e+00
1.999999999999970157e+01,2.999999999928357308e+00,9.999999999970082598e+00,6.599999999997058220e-01,1.569999999999793117e+00,2.869999999999996362e+03,-2.174999999999744915e+00,-4.944999999998730189e+00,1.340144205075720762e+01,-2.196001013459953466e+00
2.000000000000135003e+01,2.999999998842480586e+00,1.000000000003880096e+01,6.599999999998371614e-01,1.569999999999421192e+00,2.869999999999987267e+03,-2.175000000000474998e+00,-4.944999999999286189e+00,1.341294526336971771e+01,-2.202911235846713112e+00
2.000000000000217071e+01,2.999999999044859145e+00,1.000000000003299583e+01,6.599999999996902789e-01,1.569999999999000195e+00,2.869999999999987267e+03,-2.175000000000704148e+00,-4.944999999999165397e+00,1.341050312544381384e+01,-2.207943929840080699e+00
1.999999999999640465e+01,2.999999997376054051e+00,9.999999999983399945e+00,6.600000000001352563e-01,1.570000000000842055e+00,2.869999999999998636e+03,-2.174999999999053912e+00,-4.945000000000192131e+00,1.332543040236743259e+01,-2.240941520215044669e+00
1.999999999999636913e+01,2.999999997689362541e+00,9.999999999982817300e+00,6.599999999999138778e-01,1.570000000000426166e+00,2.869999999999998636e+03,-2.174999999999032596e+00,-4.944999999999679652e+00,1.333776823876584494e+01,-2.230103272214420951e+00
1.999999999999537437e+01,2.999999998470982199e+00,1.000000000005970691e+01,6.599999999995798117e-01,1.570000000000097096e+00,2.869999999999997726e+03,-2.174999999998800781e+00,-4.944999999998318074e+00,1.339343456126500520e+01,-2.211395797776706473e+00
1.999999999999946354e+01,2.999999998378211963e+00,9.999999999999070965e+00,6.599999999993250155e-01,1.569999999998931584e+00,2.870000000000000000e+03,-2.174999999999756906e+00,-4.944999999998222151e+00,1.337015409732330262e+01,-2.219691025225622560e+00
1.999999999999921130e+01,2.999999999304246323e+00,1.000000000000412648e+01,6.599999999998986677e-01,1.570000000000170814e+00,2.869999999999994998e+03,-2.174999999999641886e+00,-4.944999999999050821e+00,1.337436228627851165e+01,-2.218298137620219990e+00
1.999999999999753086e+01,2.999999999027605835e+00,9.999999999954605201e+00,6.599999999995228572e-01,1.569999999999629026e+00,2.869999999999993179e+03,-2.174999999999260414e+00,-4.944999999998923812e+00,1.338382117043345154e+01,-2.196073396979255410e+00
1.999999999999641176e+01,2.999999999772764436e+00,1.000000000001991829e+01,6.600000000006420731e-01,1.570000000001819274e+00,2.869999999999984539e+03,-2.174999999998930456e+00,-4.945000000000022489e+00,1.337363661913230395e+01,-2.216144624045337519e+00
2.000000000000222045e+01,2.999999998299455406e+00,1.000000000003910650e+01,6.599999999984685894e-01,1.569999999996684936e+00,2.869999999999994088e+03,-2.175000000000719247e+00,-4.944999999996790407e+00,1.341728493600994554e+01,-2.204129306957677059e+00
1.999999999999894840e+01,3.000000000223912444e+00,1.000000000005344525e+01,6.599999999998283906e-01,1.569999999999807772e+00,2.869999999999994543e+03,-2.174999999999824851e+00,-4.944999999999089013e+00,1.342200751306968876e+01,-2.210123123029305248e+00
1.999999999999905498e+01,2.999999999762228864e+00,1.000000000005274714e+01,6.599999999998638067e-01,1.569999999999847740e+00,2.869999999999993179e+03,-2.174999999999856826e+00,-4.944999999999191154e+00,1.341632926036705165e+01,-2.214569489222701026e+00
1.999999999999834799e+01,2.999999998329384354e+00,1.000000000002612666e+01,6.599999999999774936e-01,1.570000000000075335e+00,2.869999999999981355e+03,-2.174999999999664535e+00,-4.944999999999496687e+00,1.340302226046457257e+01,-2.199850419367806342e+00
1.999999999999810640e+01,3.000000001234956137e+00,1.000000000001553424e+01,6.599999999999300870e-01,1.570000000000181917e+00,2.869999999999999545e+03,-2.174999999999533529e+00,-4.944999999999385665e+00,1.332796852098360674e+01,-2.255548840257905585e+00
1.999999999999799982e+01,3.000000001434812269e+00,1.000000000002213696e+01,6.600000000000395550e-01,1.570000000000305596e+00,2.870000000000000455e+03,-2.174999999999520650e+00,-4.944999999999470930e+00,1.332943632436033177e+01,-2.256204870176916621e+00
1.999999999999435119e+01,2.999999998949715696e+00,9.999999999983570476e+00,6.600000000005113998e-01,1.570000000002001128e+00,2.870000000000004093e+03,-2.174999999998428191e+00,-4.945000000000622897e+00,1.331724430576731066e+01,-2.240317212884588294e+00
1.999999999999577582e+01,2.999999998194777362e+00,9.999999999985424992e+00,6.600000000003211076e-01,1.570000000001364970e+00,2.870000000000002274e+03,-2.174999999998862954e+00,-4.945000000000533191e+00,1.332200137093687076e+01,-2.240779609290222130e+00
1.999999999999887734e+01,2.999999999779982662e+00,1.000000000002186162e+01,6.599999999995210809e-01,1.569999999999130313e+00,2.869999999999997726e+03,-2.174999999999823519e+00,-4.944999999998867857e+00,1.339760233057196004e+01,-2.208498962352059891e+00
1.999999999999766231e+01,2.999999999175832599e+00,9.999999999993871569e+00,6.599999999994913269e-01,1.569999999999567297e+00,2.869999999999994543e+03,-2.174999999999156941e+00,-4.944999999997707896e+00,1.338022761577058084e+01,-2.211380869876244049e+00
2.000000000000074252e+01,2.999999998193513484e+00,9.999999999966966868e+00,6.599999999994652367e-01,1.569999999998724860e+00,2.869999999999998181e+03,-2.175000000000181455e+00,-4.944999999998842988e+00,1.338445785988901982e+01,-2.215025957936282985e+00
1.999999999999683453e+01,2.999999997900066440e+00,1.000000000001133671e+01,6.599999999996190025e-01,1.569999999999971418e+00,2.869999999999998181e+03,-2.174999999999172928e+00,-4.944999999999105889e+00,1.339155738906796778e+01,-2.210806539882865795e+00
2.000000000000268230e+01,2.999999998922416644e+00,1.000000000006779644e+01,6.599999999999700551e-01,1.569999999999280416e+00,2.869999999999974989e+03,-2.175000000000991474e+00,-4.944999999999886597e+00,1.339566455246290921e+01,-2.227886108882514371e+00
1.999999999999846167e+01,2.999999999512115156e+00,1.000000000001785239e+01,6.599999999990516786e-01,1.569999999998605178e+00,2.869999999999991360e+03,-2.174999999999716938e+00,-4.944999999998256790e+00,1.338097761914963080e+01,-2.227351248866486610e+00
2.000000000000157740e+01,2.999999998807133750e+00,9.999999999989706012e+00,6.599999999977013143e-01,1.569999999995476347e+00,2.869999999999994998e+03,-2.175000000000584688e+00,-4.944999999996118945e+00,1.340272644551751746e+01,-2.212522308998748688e+00
1.999999999999653255e+01,2.999999998053430428e+00,9.999999999947883467e+00,6.599999999993935162e-01,1.569999999999770024e+00,2.870000000000004093e+03,-2.174999999998773692e+00,-4.944999999997778950e+00,1.341085758735761679e+01,-2.196443657407393779e+00
1.999999999999582201e+01,2.999999997997843337e+00,9.999999999950976104e+00,6.599999999996308819e-01,1.570000000000356444e+00,2.870000000000002728e+03,-2.174999999998550759e+00,-4.944999999997989448e+00,1.340717533203860157e+01,-2.198084970227606405e+00
1.999999999999774758e+01,2.999999998320443062e+00,1.000000000000527578e+01,6.599999999997809841e-01,1.569999999999962537e+00,2.870000000000000909e+03,-2.174999999999319034e+00,-4.944999999998946016e+00,1.337058469214716538e+01,-2.229639472038112746e+00
1.999999999999779021e+01,3.000000001100810110e+00,9.999999999975653253e+00,6.600000000002027578e-01,1.570000000000714824e+00,2.870000000000002274e+03,-2.174999999999315925e+00,-4.944999999999619256e+00,1.335469041120280842e+01,-2.224221154813112111e+00
1.999999999999727507e+01,3.000000000104741549e+00,1.000000000000291323e+01,6.600000000002174128e-01,1.570000000000653984e+00,2.870000000000001819e+03,-2.174999999999340350e+00,-4.945000000000000284e+00,1.342794797295237252e+01,-2.185760207824706036e+00
1.999999999999758771e+01,3.000000000120318866e+00,1.000000000000041211e+01,6.599999999999679456e-01,1.570000000000150386e+00,2.870000000000001819e+03,-2.174999999999424727e+00,-4.944999999999604157e+00,1.342371939257418667e+01,-2.190393416903060775e+00
1.999999999999702283e+01,2.999999999061008449e+00,1.000000000000263967e+01,6.599999999997165911e-01,1.570000000000202345e+00,2.870000000000000455e+03,-2.174999999999115197e+00,-4.944999999998419327e+00,1.342847575573797414e+01,-2.174682242297956591e+00
1.999999999999961631e+01,3.000000001407601147e+00,1.000000000004356870e+01,6.599999999994836664e-01,1.569999999999197815e+00,2.869999999999993179e+03,-2.174999999999960298e+00,-4.944999999998207940e+00,1.340823387751934348e+01,-2.214682205610686960e+00
1.999999999999714007e+01,2.999999999913748550e+00,1.000000000000988365e+01,6.600000000006503997e-01,1.570000000001722240e+00,2.869999999999997272e+03,-2.174999999999366995e+00,-4.945000000001442686e+00,1.338238073484794377e+01,-2.218462867689083851e+00
1.999999999999661426e+01,3.000000000060977889e+00,1.000000000001873168e+01,6.600000000000173506e-01,1.570000000000898677e+00,2.869999999999997726e+03,-2.174999999999030376e+00,-4.944999999999629914e+00,1.338384006022072903e+01,-2.209431387306161731e+00
1.999999999999866063e+01,2.999999999723013566e+00,9.999999999968816056e+00,6.599999999995292965e-01,1.569999999999205365e+00,2.870000000000001364e+03,-2.174999999999620126e+00,-4.944999999998865192e+00,1.334943414315026367e+01,-2.235443660344000438e+00
1.999999999999868550e+01,2.999999998753791530e+00,1.000000000002105338e+01,6.600000000004556666e-01,1.570000000000946638e+00,2.869999999999988177e+03,-2.174999999999713829e+00,-4.945000000000462137e+00,1.337564851476465222e+01,-2.210104700010818490e+00
1.999999999999457856e+01,3.000000000467035299e+00,1.000000000003255529e+01,6.599999999990248112e-01,1.569999999999222018e+00,2.869999999999989086e+03,-2.174999999998604938e+00,-4.944999999997546247e+00,1.340725046861045300e+01,-2.204298221780214728e+00
1.999999999999923617e+01,3.000000002396129517e+00,1.000000000001991829e+01,6.599999999999424105e-01,1.570000000000128848e+00,2.869999999999989541e+03,-2.174999999999668532e+00,-4.944999999998904272e+00,1.334404467642781711e+01,-2.258302891188099792e+00
1.999999999999924327e+01,3.000000002734575677e+00,1.000000000001517186e+01,6.599999999996539746e-01,1.569999999999607709e+00,2.869999999999986812e+03,-2.174999999999683187e+00,-4.944999999998486828e+00,1.335656799962913510e+01,-2.248605448547550179e+00
1.999999999999833378e+01,2.999999998120985278e+00,9.999999999965826447e+00,6.600000000005212808e-01,1.570000000001443796e+00,2.869999999999979536e+03,-2.174999999999387867e+00,-4.945000000000057128e+00,1.332149089200031433e+01,-2.249898418980949000e+00
1.999999999999824851e+01,2.999999998585191729e+00,9.999999999975015541e+00,6.600000000004936362e-01,1.570000000001384288e+00,2.869999999999975898e+03,-2.174999999999406963e+00,-4.945000000000024265e+00,1.333653713728308432e+01,-2.243503511590646315e+00
