2.000000000000015632e+01,3.000000000619289509e+00,9.999999999978449239e+00,6.599999999989559774e-01,1.569999999997995221e+00,2.869999999999999545e+03,-2.175000000000056666e+00,-4.944999999997884643e+00,1.336367926125947925e+01,-2.217808058760743606e+00
1.999999999999717204e+01,3.000000000023858693e+00,1.000000000001062972e+01,6.599999999992509636e-01,1.569999999999185825e+00,2.869999999999997272e+03,-2.174999999999368328e+00,-4.944999999998490381e+00,1.333925601919855275e+01,-2.230631519875287516e+00
1.999999999999783995e+01,3.000000000493337815e+00,1.000000000007028156e+01,6.600000000009775825e-01,1.570000000001869678e+00,2.869999999999992724e+03,-2.174999999999712941e+00,-4.945000000001702034e+00,1.332676119663720193e+01,-2.272165618024418521e+00
1.999999999999887379e+01,3.000000001434430352e+00,1.000000000003758593e+01,6.600000000007582024e-01,1.570000000001665397e+00,2.869999999999979082e+03,-2.174999999999873701e+00,-4.945000000001663842e+00,1.328765510688499241e+01,-2.300645904188768576e+00
1.999999999999896261e+01,3.000000000596808380e+00,1.000000000005313439e+01,6.600000000005629142e-01,1.570000000001200879e+00,2.869999999999988631e+03,-2.174999999999983391e+00,-4.945000000001221530e+00,1.330260158307913088e+01,-2.288337996773355698e+00
2.000000000000230926e+01,2.999999998526639899e+00,9.999999999993097077e+00,6.599999999985198817e-01,1.569999999996663620e+00,2.869999999999997272e+03,-2.175000000000651745e+00,-4.944999999997195417e+00,1.334089175522913351e+01,-2.255978361868976823e+00
2.000000000000038725e+01,2.999999998967089798e+00,9.999999999991194599e+00,6.599999999994118349e-01,1.569999999998604956e+00,2.869999999999997726e+03,-2.175000000000209877e+00,-4.944999999999346585e+00,1.331429910024418106e+01,-2.274810161059536373e+00
1.999999999999552713e+01,2.999999997970736132e+00,9.999999999974763298e+00,6.599999999990785460e-01,1.569999999999108997e+00,2.869999999999997726e+03,-2.174999999998703526e+00,-4.944999999997940598e+00,1.334355723164750529e+01,-2.225572594702772022e+00
2.000000000000093081e+01,2.999999998119168509e+00,9.999999999977152498e+00,6.599999999998965583e-01,1.569999999999581286e+00,2.870000000000000909e+03,-2.175000000000224976e+00,-4.944999999999736495e+00,1.328752953671249237e+01,-2.298296509031258150e+00
2.000000000000096279e+01,3.000000000497968777e+00,1.000000000002335554e+01,6.599999999994782263e-01,1.569999999998978879e+00,2.869999999999994543e+03,-2.175000000000292477e+00,-4.944999999999050821e+00,1.329700311608137220e+01,-2.295959628999550528e+00
2.000000000000050093e+01,3.000000001448867692e+00,1.000000000003069189e+01,6.599999999984248467e-01,1.569999999997087947e+00,2.869999999999986812e+03,-2.175000000000139266e+00,-4.944999999996712248e+00,1.334056541538880758e+01,-2.267690178268020773e+00
1.999999999999877787e+01,3.000000000385927290e+00,1.000000000001082512e+01,6.599999999999067724e-01,1.570000000000148610e+00,2.869999999999991815e+03,-2.174999999999553957e+00,-4.944999999999162732e+00,1.327948628179961155e+01,-2.313475286687886268e+00
2.000000000000043343e+01,2.999999999926346028e+00,1.000000000002277289e+01,6.599999999998329425e-01,1.569999999999868390e+00,2.869999999999992269e+03,-2.175000000000133937e+00,-4.944999999999764917e+00,1.332697809096519137e+01,-2.276996342113737359e+00
1.999999999999347011e+01,3.000000002382944952e+00,1.000000000004999912e+01,6.600000000009232926e-01,1.570000000003039631e+00,2.869999999999986358e+03,-2.174999999998150635e+00,-4.945000000000995044e+00,1.330754792260163555e+01,-2.265932931464506250e+00
2.000000000000308376e+01,3.000000001349631962e+00,1.000000000000641798e+01,6.599999999994915489e-01,1.569999999998411777e+00,2.869999999999991360e+03,-2.175000000000974154e+00,-4.944999999999497575e+00,1.337844020157532121e+01,-2.226221074987897897e+00
1.999999999999954525e+01,3.000000000134519951e+00,1.000000000002326672e+01,6.600000000003246603e-01,1.570000000000577378e+00,2.869999999999993634e+03,-2.174999999999938982e+00,-4.945000000000495000e+00,1.329292648269703392e+01,-2.278374582489905098e+00
1.999999999999953459e+01,3.000000002060788873e+00,9.999999999974011899e+00,6.599999999986904120e-01,1.569999999997645945e+00,2.870000000000000909e+03,-2.174999999999810640e+00,-4.944999999997578222e+00,1.338473493279979998e+01,-2.206522912766255118e+00
2.000000000000435207e+01,3.000000000257321275e+00,9.999999999949045204e+00,6.599999999987594679e-01,1.569999999996779083e+00,2.870000000000000455e+03,-2.175000000001206413e+00,-4.944999999998260343e+00,1.338760578517511490e+01,-2.202426302798606628e+00
2.000000000000124345e+01,2.999999999837930975e+00,1.000000000004547651e+01,6.599999999998745759e-01,1.569999999999395213e+00,2.869999999999974989e+03,-2.175000000000505640e+00,-4.944999999999587281e+00,1.336547854724758366e+01,-2.237643409482966916e+00
1.999999999999960210e+01,3.000000003226844125e+00,1.000000000002158629e+01,6.599999999987501420e-01,1.569999999997646611e+00,2.869999999999988177e+03,-2.175000000000112177e+00,-4.944999999997920170e+00,1.344280655036403793e+01,-2.168573364904767153e+00
1.999999999999986500e+01,2.999999998147035107e+00,9.999999999988210320e+00,6.599999999992682831e-01,1.569999999998786588e+00,2.869999999999999545e+03,-2.174999999999959854e+00,-4.944999999998673346e+00,1.338407679133649886e+01,-2.194120976951194901e+00
1.999999999999654321e+01,2.999999999622042779e+00,9.999999999891409530e+00,6.600000000005701306e-01,1.570000000001955387e+00,2.870000000000001364e+03,-2.174999999998588063e+00,-4.944999999999838636e+00,1.330296005917440993e+01,-2.261370847106658921e+00
1.999999999999849010e+01,2.999999999321023569e+00,9.999999999968695263e+00,6.600000000013178658e-01,1.570000000002743201e+00,2.869999999999993634e+03,-2.174999999999403855e+00,-4.945000000001805063e+00,1.330617619553707875e+01,-2.277300201845401162e+00
1.999999999999945643e+01,3.000000000945403311e+00,9.999999999987393196e+00,6.599999999991256194e-01,1.569999999998383355e+00,2.869999999999979536e+03,-2.174999999999686295e+00,-4.944999999997316209e+00,1.335261562195557872e+01,-2.230822349770629209e+00
1.999999999999827338e+01,3.000000000991094318e+00,1.000000000001229594e+01,6.599999999995608269e-01,1.569999999999510010e+00,2.869999999999982720e+03,-2.174999999999594369e+00,-4.944999999998800355e+00,1.335215976040048425e+01,-2.239192427297414412e+00
2.000000000000180123e+01,3.000000001918891268e+00,9.999999999979927168e+00,6.599999999993318989e-01,1.569999999998521911e+00,2.869999999999991815e+03,-2.175000000000388845e+00,-4.944999999998588969e+00,1.328970563922537629e+01,-2.291983947685952039e+00
1.999999999999867129e+01,3.000000000244683385e+00,9.999999999946060925e+00,6.599999999997852029e-01,1.570000000000045581e+00,2.869999999999991360e+03,-2.174999999999373212e+00,-4.944999999998881179e+00,1.326231179977995112e+01,-2.299367029723497602e+00
1.999999999999532108e+01,2.999999999362914060e+00,9.999999999962801311e+00,6.600000000004567768e-01,1.570000000001729124e+00,2.869999999999987722e+03,-2.174999999998571631e+00,-4.945000000000120188e+00,1.327155912724020581e+01,-2.278245701914312082e+00
1.999999999999651124e+01,3.000000000174257941e+00,9.999999999928975924e+00,6.600000000002942402e-01,1.570000000001353424e+00,2.870000000000001364e+03,-2.174999999998860289e+00,-4.945000000000233875e+00,1.327638879812588435e+01,-2.270210858135444099e+00
1.999999999999775824e+01,2.999999999923192995e+00,9.999999999947595697e+00,6.600000000010649570e-01,1.570000000002668594e+00,2.869999999999999091e+03,-2.174999999999141398e+00,-4.945000000001196661e+00,1.323399406535437528e+01,-2.303492435189180121e+00
1.999999999999834799e+01,2.999999999291876662e+00,9.999999999979571896e+00,6.599999999991252864e-01,1.569999999998828555e+00,2.869999999999994998e+03,-2.174999999999490896e+00,-4.944999999998001883e+00,1.332706118203746293e+01,-2.240518872436202180e+00
1.999999999999453237e+01,2.999999998684533153e+00,9.999999999911464599e+00,6.600000000007514300e-01,1.570000000002676810e+00,2.870000000000001364e+03,-2.174999999998144418e+00,-4.945000000000463913e+00,1.326026211059224025e+01,-2.279264816437837293e+00
2.000000000000066436e+01,3.000000000486358953e+00,9.999999999915591076e+00,6.599999999995758149e-01,1.569999999999353024e+00,2.870000000000000455e+03,-2.174999999999850608e+00,-4.944999999998444196e+00,1.331448286147786675e+01,-2.254739384827180615e+00
1.999999999999714362e+01,3.000000000075563555e+00,9.999999999951262097e+00,6.600000000001681189e-01,1.570000000001098739e+00,2.869999999999994543e+03,-2.174999999998961986e+00,-4.944999999999097007e+00,1.332126463074905942e+01,-2.244275898761395993e+00
1.999999999999836930e+01,2.999999998728924755e+00,9.999999999974317433e+00,6.600000000001252642e-01,1.570000000000479679e+00,2.869999999999993179e+03,-2.174999999999511324e+00,-4.945000000000018936e+00,1.332382943230783745e+01,-2.242383988734261369e+00
1.999999999999646860e+01,3.000000001075338929e+00,9.999999999993656630e+00,6.600000000005049605e-01,1.570000000001779972e+00,2.869999999999994543e+03,-2.174999999999003286e+00,-4.945000000000440821e+00,1.334859735597198416e+01,-2.244314517465465286e+00
1.999999999999907985e+01,3.000000001909354452e+00,9.999999999932933648e+00,6.599999999986858601e-01,1.569999999998062279e+00,2.869999999999994088e+03,-2.174999999999454925e+00,-4.944999999996493756e+00,1.336646004793804998e+01,-2.221000093761656746e+00
2.000000000000090594e+01,3.000000002172962255e+00,9.999999999985519139e+00,6.599999999992971489e-01,1.569999999998471951e+00,2.869999999999993179e+03,-2.175000000000192113e+00,-4.944999999998218598e+00,1.339619161385103041e+01,-2.226781258014408849e+00
1.999999999999768718e+01,2.999999997381797456e+00,9.999999999992304822e+00,6.599999999987671284e-01,1.569999999998376028e+00,2.869999999999998636e+03,-2.174999999999285727e+00,-4.944999999997199858e+00,1.336719095354660247e+01,-2.215509831330770840e+00
1.999999999999849010e+01,2.999999999855489374e+00,1.000000000001132783e+01,6.599999999991070787e-01,1.569999999998802132e+00,2.869999999999998181e+03,-2.174999999999570388e+00,-4.944999999997749640e+00,1.342243531126831968e+01,-2.190294282040220697e+00
1.999999999999867484e+01,2.999999999539364470e+00,1.000000000000465228e+01,6.599999999993019228e-01,1.569999999999003748e+00,2.869999999999991360e+03,-2.174999999999542855e+00,-4.944999999998275442e+00,1.334883804327078316e+01,-2.254353477015528906e+00
1.999999999999771205e+01,3.000000001345299872e+00,9.999999999999239719e+00,6.599999999990577848e-01,1.569999999998751949e+00,2.869999999999992269e+03,-2.174999999999374545e+00,-4.944999999998045404e+00,1.340650870088344782e+01,-2.211200939891862394e+00
1.999999999999696954e+01,3.000000000598309846e+00,1.000000000000697220e+01,6.599999999992871569e-01,1.569999999999323048e+00,2.870000000000000455e+03,-2.174999999999145839e+00,-4.944999999998204387e+00,1.339951742660876377e+01,-2.202422919601234597e+00
1.999999999999473843e+01,3.000000001924953974e+00,1.000000000001504930e+01,6.599999999995913580e-01,1.570000000000288498e+00,2.869999999999994543e+03,-2.174999999998637357e+00,-4.944999999998900719e+00,1.341213016251325030e+01,-2.192360772210270259e+00
1.999999999999617728e+01,3.000000000621461549e+00,1.000000000003146816e+01,6.599999999990615596e-01,1.569999999998966889e+00,2.870000000000000455e+03,-2.174999999998983746e+00,-4.944999999997738982e+00,1.342129300931545366e+01,-2.191607413360071810e+00
1.999999999999775824e+01,3.000000000451642723e+00,1.000000000003218581e+01,6.599999999988932498e-01,1.569999999998395790e+00,2.869999999999996362e+03,-2.174999999999450928e+00,-4.944999999997405027e+00,1.342652912036494328e+01,-2.188505559694660541e+00
1.999999999999592148e+01,3.000000000420182111e+00,9.999999999965419661e+00,6.599999999990739941e-01,1.569999999999351026e+00,2.869999999999999545e+03,-2.174999999998598721e+00,-4.944999999997125251e+00,1.339490955882651591e+01,-2.208410062520359762e+00
1.999999999999709033e+01,2.999999999668645945e+00,9.999999999985663024e+00,6.599999999991661426e-01,1.569999999999126095e+00,2.869999999999990450e+03,-2.174999999999070344e+00,-4.944999999997670592e+00,1.337312280851057267e+01,-2.220479599820816663e+00
1.999999999999620925e+01,2.999999998444560667e+00,9.999999999985774934e+00,6.599999999991259525e-01,1.569999999999176721e+00,2.870000000000000455e+03,-2.174999999998965983e+00,-4.944999999998175966e+00,1.342159772154118080e+01,-2.178643670669128340e+00
1.999999999999507949e+01,3.000000000018926194e+00,1.000000000000137668e+01,6.599999999983597876e-01,1.569999999998156648e+00,2.869999999999998636e+03,-2.174999999998642686e+00,-4.944999999996509743e+00,1.345009738265995836e+01,-2.145653467251382285e+00
2.000000000000150280e+01,3.000000002137625632e+00,1.000000000004450840e+01,6.599999999992022248e-01,1.569999999997826245e+00,2.869999999999999091e+03,-2.175000000000699707e+00,-4.944999999998932694e+00,1.345013908275928927e+01,-2.181709893379368825e+00
1.999999999999993605e+01,3.000000002156464340e+00,1.000000000004899370e+01,6.599999999995668221e-01,1.569999999999171614e+00,2.869999999999975898e+03,-2.175000000000184563e+00,-4.944999999999307505e+00,1.339703755295301768e+01,-2.203184782573024414e+00
2.000000000000142109e+01,3.000000002093728302e+00,1.000000000000957989e+01,6.600000000001403633e-01,1.569999999999891260e+00,2.869999999999994543e+03,-2.175000000000439027e+00,-4.945000000000176144e+00,1.340180156582531446e+01,-2.193998203710533446e+00
1.999999999999606359e+01,3.000000000209653628e+00,9.999999999935345940e+00,6.599999999996777333e-01,1.570000000000436380e+00,2.870000000000000455e+03,-2.174999999998799005e+00,-4.944999999998806572e+00,1.338004863465637051e+01,-2.184720627409358240e+00
1.999999999999889866e+01,3.000000001519029791e+00,1.000000000000383515e+01,6.600000000001757794e-01,1.570000000000458140e+00,2.869999999999996817e+03,-2.174999999999811084e+00,-4.945000000000367102e+00,1.341287555544594845e+01,-2.193955181592026626e+00
2.000000000000143885e+01,3.000000002992102122e+00,1.000000000006820677e+01,6.599999999995113109e-01,1.569999999998749951e+00,2.869999999999990905e+03,-2.175000000000498535e+00,-4.944999999998594298e+00,1.341785337369605102e+01,-2.205808660409334987e+00
2.000000000000110489e+01,3.000000002052648718e+00,1.000000000003514700e+01,6.599999999987097299e-01,1.569999999997476969e+00,2.869999999999995907e+03,-2.175000000000403944e+00,-4.944999999997373941e+00,1.343094361623114175e+01,-2.184477115649539503e+00
1.999999999999939604e+01,3.000000002464469961e+00,1.000000000004649259e+01,6.599999999996202238e-01,1.569999999999338591e+00,2.869999999999994543e+03,-2.174999999999909228e+00,-4.944999999998792362e+00,1.344310740801136816e+01,-2.182736615135321578e+00
2.000000000000293099e+01,3.000000000548419088e+00,1.000000000001288569e+01,6.599999999994916600e-01,1.569999999998344276e+00,2.869999999999990450e+03,-2.175000000000891109e+00,-4.944999999999085460e+00,1.336801014187913772e+01,-2.226359388568796227e+00
2.000000000000273914e+01,3.000000000463449723e+00,1.000000000008104628e+01,6.600000000008591217e-01,1.570000000001110285e+00,2.869999999999977717e+03,-2.175000000000919087e+00,-4.945000000001240181e+00,1.340242577502727173e+01,-2.230381799412456623e+00
1.999999999999904787e+01,3.000000003265922643e+00,1.000000000001926637e+01,6.599999999997046007e-01,1.569999999999685425e+00,2.869999999999998181e+03,-2.174999999999781330e+00,-4.944999999999199147e+00,1.332805839911122803e+01,-2.261772903081007424e+00
1.999999999999736389e+01,3.000000000922888432e+00,1.000000000001620037e+01,6.600000000001089440e-01,1.570000000000773666e+00,2.870000000000000455e+03,-2.174999999999264855e+00,-4.944999999999709850e+00,1.339296102237998021e+01,-2.205534144106552574e+00
1.999999999999506173e+01,3.000000000849579518e+00,9.999999999994962252e+00,6.599999999995916911e-01,1.570000000000133955e+00,2.870000000000005002e+03,-2.174999999998717293e+00,-4.944999999998795026e+00,1.341628954687737263e+01,-2.166383127689064825e+00
1.999999999999481304e+01,3.000000000711926962e+00,9.999999999996257216e+00,6.599999999994993205e-01,1.570000000000086215e+00,2.870000000000003183e+03,-2.174999999998616484e+00,-4.944999999998915818e+00,1.338250053960298125e+01,-2.204892552705057351e+00
1.999999999999505107e+01,3.000000001999610699e+00,9.999999999964453323e+00,6.599999999995964650e-01,1.570000000000321583e+00,2.870000000000001819e+03,-2.174999999998471711e+00,-4.944999999998121787e+00,1.341987141071214928e+01,-2.185504750680768993e+00
1.999999999999683808e+01,3.000000001265175520e+00,1.000000000002113687e+01,6.599999999999695000e-01,1.570000000000701723e+00,2.869999999999995907e+03,-2.174999999999081002e+00,-4.944999999999081908e+00,1.332089715564580779e+01,-2.266233722141900664e+00
2.000000000000164846e+01,3.000000000790669752e+00,1.000000000004167688e+01,6.599999999995099786e-01,1.569999999998688889e+00,2.870000000000003183e+03,-2.175000000000613554e+00,-4.944999999999193818e+00,1.341163734657196471e+01,-2.201144819011555231e+00
1.999999999999726086e+01,2.999999999333466505e+00,1.000000000000112266e+01,6.599999999992917088e-01,1.569999999999251106e+00,2.870000000000001819e+03,-2.174999999999156053e+00,-4.944999999998248796e+00,1.334239432309166773e+01,-2.243611491738115582e+00
2.000000000000451550e+01,3.000000002141112176e+00,9.999999999994768629e+00,6.599999999988557242e-01,1.569999999997074180e+00,2.869999999999989086e+03,-2.175000000001366285e+00,-4.944999999998416662e+00,1.340968187372979337e+01,-2.204463082561993303e+00
2.000000000000034817e+01,3.000000000261542343e+00,9.999999999962071229e+00,6.599999999997678835e-01,1.569999999999472040e+00,2.869999999999999091e+03,-2.175000000000099742e+00,-4.944999999999528661e+00,1.337097413380566380e+01,-2.217830472518893536e+00
1.999999999999856115e+01,2.999999998555062053e+00,1.000000000003025136e+01,6.600000000009736967e-01,1.570000000002105045e+00,2.869999999999993179e+03,-2.174999999999640998e+00,-4.945000000001373408e+00,1.328452817645409390e+01,-2.295694775006150046e+00
2.000000000000296652e+01,2.999999999830883279e+00,1.000000000004433254e+01,6.600000000012020696e-01,1.570000000001651630e+00,2.869999999999990905e+03,-2.175000000000994582e+00,-4.945000000002831797e+00,1.333432700640679691e+01,-2.270583154462473274e+00
2.000000000000133227e+01,2.999999998862878048e+00,1.000000000002635225e+01,6.599999999999113243e-01,1.569999999999497797e+00,2.869999999999992269e+03,-2.175000000000432809e+00,-4.945000000000179696e+00,1.335244463811081062e+01,-2.247331620588410850e+00
1.999999999999749534e+01,2.999999999918001592e+00,1.000000000004940048e+01,6.599999999996704059e-01,1.569999999999766249e+00,2.869999999999987267e+03,-2.174999999999405631e+00,-4.944999999998886508e+00,1.336375021845945454e+01,-2.211316722289250247e+00
2.000000000000024869e+01,2.999999997007120278e+00,9.999999999986981081e+00,6.599999999983917620e-01,1.569999999996957163e+00,2.869999999999991360e+03,-2.174999999999916778e+00,-4.944999999996456452e+00,1.331747875681252324e+01,-2.259241114085011937e+00
1.999999999999989342e+01,3.000000001503181579e+00,1.000000000001151257e+01,6.599999999999873745e-01,1.570000000000224549e+00,2.869999999999996362e+03,-2.174999999999791989e+00,-4.944999999999017959e+00,1.333800993363928633e+01,-2.255318433129632982e+00
2.000000000000296652e+01,3.000000001486478940e+00,1.000000000008268231e+01,6.599999999990957544e-01,1.569999999997795381e+00,2.869999999999984993e+03,-2.175000000000928857e+00,-4.944999999998314522e+00,1.332779587953668354e+01,-2.294950193325611121e+00
2.000000000000045830e+01,2.999999998124414091e+00,1.000000000002326672e+01,6.600000000004920819e-01,1.570000000000793650e+00,2.869999999999993179e+03,-2.175000000000164135e+00,-4.945000000000714380e+00,1.335929843957892516e+01,-2.255156439649313782e+00
1.999999999999424460e+01,2.999999999276438345e+00,1.000000000001691625e+01,6.599999999993871880e-01,1.570000000000015161e+00,2.869999999999998181e+03,-2.174999999998425526e+00,-4.944999999998226592e+00,1.339221871983986922e+01,-2.190931858812553479e+00
1.999999999999955946e+01,2.999999999755553315e+00,9.999999999959277019e+00,6.599999999998560352e-01,1.570000000000044915e+00,2.869999999999997726e+03,-2.174999999999700506e+00,-4.944999999999097007e+00,1.339099420084879810e+01,-2.202204546799921836e+00
2.000000000000321876e+01,2.999999998936102585e+00,1.000000000003728751e+01,6.599999999996610800e-01,1.569999999998757945e+00,2.869999999999986358e+03,-2.175000000001003908e+00,-4.944999999999196483e+00,1.340900532676373125e+01,-2.210876979595362890e+00
1.999999999999736744e+01,2.999999997643977512e+00,9.999999999988679278e+00,6.599999999996843947e-01,1.569999999999837970e+00,2.869999999999998181e+03,-2.174999999999335909e+00,-4.944999999999454054e+00,1.333068514630780577e+01,-2.239125017621290237e+00
1.999999999999499067e+01,2.999999998582598693e+00,1.000000000006528644e+01,6.599999999996144506e-01,1.570000000000265628e+00,2.869999999999998181e+03,-2.174999999998719513e+00,-4.944999999998452189e+00,1.339457831667529675e+01,-2.212169020605690761e+00
1.999999999999953815e+01,2.999999998448658278e+00,9.999999999991398880e+00,6.599999999993934052e-01,1.569999999999110329e+00,2.869999999999999545e+03,-2.174999999999739586e+00,-4.944999999998340279e+00,1.336829070674605546e+01,-2.222119468409970100e+00
1.999999999999955591e+01,2.999999999556691499e+00,1.000000000001308287e+01,6.599999999998442668e-01,1.570000000000025819e+00,2.869999999999993179e+03,-2.174999999999744915e+00,-4.944999999998944240e+00,1.337742296835322620e+01,-2.219934743357675266e+00
1.999999999999742784e+01,2.999999998885156671e+00,9.999999999953098850e+00,6.599999999996598588e-01,1.569999999999915241e+00,2.869999999999995907e+03,-2.174999999999189360e+00,-4.944999999998957563e+00,1.338129633985368017e+01,-2.198351907995933718e+00
1.999999999999625899e+01,2.999999999364465708e+00,1.000000000002652811e+01,6.600000000009833556e-01,1.570000000002454321e+00,2.869999999999985903e+03,-2.174999999998926015e+00,-4.945000000000747242e+00,1.337986793995722579e+01,-2.213905377276798703e+00
2.000000000000238387e+01,2.999999998158964232e+00,1.000000000003870682e+01,6.599999999985484145e-01,1.569999999996766649e+00,2.869999999999994543e+03,-2.175000000000756994e+00,-4.944999999996896989e+00,1.340947386043438527e+01,-2.210821195617668877e+00
1.999999999999919353e+01,2.999999999768281356e+00,1.000000000004732570e+01,6.599999999996905009e-01,1.569999999999485807e+00,2.869999999999994088e+03,-2.174999999999918998e+00,-4.944999999999070361e+00,1.341261381802445563e+01,-2.213729809714996666e+00
1.999999999999842615e+01,2.999999998804756984e+00,1.000000000000991562e+01,6.600000000000539879e-01,1.570000000000256968e+00,2.869999999999980446e+03,-2.174999999999638778e+00,-4.944999999999612150e+00,1.339214540999955361e+01,-2.199930985280477369e+00
1.999999999999841549e+01,3.000000001209057299e+00,1.000000000002198952e+01,6.599999999998691358e-01,1.569999999999984297e+00,2.870000000000000455e+03,-2.174999999999648104e+00,-4.944999999999271978e+00,1.333527270864374792e+01,-2.250354335430797992e+00
1.999999999999586819e+01,2.999999998669769408e+00,9.999999999987482013e+00,6.600000000002170797e-01,1.570000000001200657e+00,2.870000000000000909e+03,-2.174999999998864730e+00,-4.945000000000228546e+00,1.331767884137965297e+01,-2.243215887030928002e+00
1.999999999999846167e+01,2.999999999732017919e+00,1.000000000002119016e+01,6.599999999997259170e-01,1.569999999999649454e+00,2.869999999999995453e+03,-2.174999999999710276e+00,-4.944999999999302176e+00,1.338135542163387193e+01,-2.217209887995802209e+00
1.999999999999679545e+01,2.999999998877536100e+00,9.999999999991107558e+00,6.599999999994767830e-01,1.569999999999706963e+00,2.869999999999991360e+03,-2.174999999998896261e+00,-4.944999999997555129e+00,1.337558395190954741e+01,-2.212352957665907116e+00
1.999999999999685585e+01,2.999999996535577917e+00,9.999999999934836126e+00,6.599999999994150546e-01,1.569999999999736717e+00,2.869999999999996362e+03,-2.174999999998923794e+00,-4.944999999998028528e+00,1.334679269024066350e+01,-2.228884962907570877e+00
1.999999999999867839e+01,2.999999999679630047e+00,9.999999999966128428e+00,6.599999999994767830e-01,1.569999999999514229e+00,2.870000000000001364e+03,-2.174999999999625011e+00,-4.944999999999022400e+00,1.336421612812583071e+01,-2.230019275555177316e+00
1.999999999999940314e+01,2.999999998043115568e+00,9.999999999967318587e+00,6.599999999995106448e-01,1.569999999999145412e+00,2.870000000000000455e+03,-2.174999999999814637e+00,-4.944999999998922924e+00,1.339726527056920702e+01,-2.204412389908774639e+00
1.999999999999611333e+01,2.999999998103628940e+00,9.999999999988737898e+00,6.599999999996406519e-01,1.570000000000118190e+00,2.870000000000000909e+03,-2.174999999998937117e+00,-4.944999999999173390e+00,1.337312310627978995e+01,-2.217513144363179922e+00
2.000000000000302336e+01,2.999999998533624979e+00,1.000000000007229417e+01,6.600000000000517675e-01,1.569999999999279749e+00,2.869999999999974079e+03,-2.175000000001125589e+00,-4.945000000000119300e+00,1.339587942052557601e+01,-2.227516915555725063e+00
1.999999999999889511e+01,2.999999999411556040e+00,1.000000000001081801e+01,6.599999999989664135e-01,1.569999999998368256e+00,2.869999999999991815e+03,-2.174999999999802203e+00,-4.944999999998001883e+00,1.338686981089706762e+01,-2.221004605717818325e+00
2.000000000000090239e+01,2.999999999029903108e+00,9.999999999990921040e+00,6.599999999977208542e-01,1.569999999995659090e+00,2.869999999999994998e+03,-2.175000000000406164e+00,-4.944999999996181117e+00,1.339847616596212454e+01,-2.210866361986476569e+00
1.999999999999672085e+01,2.999999997811871655e+00,9.999999999955468510e+00,6.599999999993291233e-01,1.569999999999669660e+00,2.870000000000002728e+03,-2.174999999998840750e+00,-4.944999999997690132e+00,1.341972464514891961e+01,-2.189425070934471584e+00
1.999999999999795719e+01,2.999999998569647275e+00,9.999999999993875122e+00,6.600000000001920997e-01,1.570000000000688845e+00,2.870000000000000000e+03,-2.174999999999363443e+00,-4.944999999999676987e+00,1.337440057299863838e+01,-2.221175449322715600e+00
2.000000000000004974e+01,3.000000001431392338e+00,9.999999999965957898e+00,6.599999999995664890e-01,1.569999999998880513e+00,2.869999999999995907e+03,-2.175000000000028688e+00,-4.944999999998978879e+00,1.335629712549346415e+01,-2.232706924538863547e+00
1.999999999999813838e+01,3.000000001027804064e+00,9.999999999983494092e+00,6.599999999998876765e-01,1.569999999999996732e+00,2.870000000000002274e+03,-2.174999999999457589e+00,-4.944999999999138751e+00,1.337569628902366858e+01,-2.208099542047600394e+00
1.999999999999751665e+01,3.000000000183683735e+00,1.000000000000230216e+01,6.600000000002096412e-01,1.570000000000685070e+00,2.870000000000000909e+03,-2.174999999999402966e+00,-4.945000000000011831e+00,1.342962665553622514e+01,-2.185802761094440605e+00
1.999999999999736744e+01,2.999999999116960137e+00,1.000000000000590816e+01,6.599999999996063460e-01,1.569999999999855511e+00,2.870000000000000909e+03,-2.174999999999242206e+00,-4.944999999998334062e+00,1.342680431952651432e+01,-2.178016291108500369e+00
2.000000000000001776e+01,3.000000001829808305e+00,1.000000000005089618e+01,6.599999999994521360e-01,1.569999999998987761e+00,2.869999999999993634e+03,-2.175000000000104183e+00,-4.944999999998192841e+00,1.341820738222079434e+01,-2.209463224543803062e+00
1.999999999999795008e+01,2.999999999757909208e+00,1.000000000001734080e+01,6.600000000004651035e-01,1.570000000001209317e+00,2.869999999999998181e+03,-2.174999999999617017e+00,-4.945000000001151363e+00,1.339424646213752723e+01,-2.209376248861965486e+00
1.999999999999683098e+01,3.000000000163517644e+00,1.000000000001567635e+01,6.599999999999678346e-01,1.570000000000693063e+00,2.869999999999996817e+03,-2.174999999999116085e+00,-4.944999999999592610e+00,1.339537894892970193e+01,-2.200782275311159442e+00
1.999999999999821299e+01,2.999999999671324247e+00,9.999999999982778220e+00,6.599999999997546718e-01,1.569999999999704743e+00,2.870000000000000909e+03,-2.174999999999544187e+00,-4.944999999999390994e+00,1.333925260022646597e+01,-2.246281377796360612e+00
1.999999999999977618e+01,2.999999998757379771e+00,1.000000000002780354e+01,6.600000000003201084e-01,1.570000000000546736e+00,2.869999999999986812e+03,-2.175000000000031797e+00,-4.945000000000344009e+00,1.337314130450012861e+01,-2.217399262228898049e+00
1.999999999999760547e+01,2.999999999389433292e+00,9.999999999983829824e+00,6.599999999997941957e-01,1.570000000000315810e+00,2.869999999999983629e+03,-2.174999999999147171e+00,-4.944999999998809237e+00,1.334633866534955260e+01,-2.228330684872900314e+00
1.999999999999387157e+01,3.000000000083068219e+00,1.000000000000774669e+01,6.599999999989483168e-01,1.569999999999310392e+00,2.869999999999990905e+03,-2.174999999998295852e+00,-4.944999999997088835e+00,1.340272520278487534e+01,-2.201502641998323906e+00
1.999999999999913314e+01,3.000000002294535228e+00,1.000000000001902123e+01,6.599999999999275335e-01,1.570000000000133733e+00,2.869999999999989086e+03,-2.174999999999632561e+00,-4.944999999998919371e+00,1.333853490002537612e+01,-2.263325959534959519e+00
1.999999999999844036e+01,2.999999998237453447e+00,9.999999999957404739e+00,6.600000000003621858e-01,1.570000000001126939e+00,2.869999999999979082e+03,-2.174999999999402078e+00,-4.944999999999740936e+00,1.333510303532317387e+01,-2.241922675931262265e+00
1.999999999999765876e+01,2.999999999274115314e+00,1.000000000002763123e+01,6.599999999987956611e-01,1.569999999998252571e+00,2.869999999999992269e+03,-2.174999999999432720e+00,-4.944999999997475193e+00,1.337201493995263313e+01,-2.217603804692306113e+00
