1.999999999999962341e+01,2.999999999009165919e+00,9.999999999939978679e+00,6.599999999996253308e-01,1.569999999999485807e+00,2.870000000000000909e+03,-2.174999999999760014e+00,-4.944999999998730189e+00,1.338220507124072789e+01,-2.193998468166673543e+00
1.999999999999932498e+01,2.999999998031680271e+00,9.999999999944943596e+00,6.599999999993289013e-01,1.569999999999138751e+00,2.870000000000003183e+03,-2.174999999999538414e+00,-4.944999999997882867e+00,1.339133192191705390e+01,-2.197048923592442637e+00
2.000000000000378719e+01,3.000000001463420940e+00,1.000000000003093525e+01,6.599999999998090727e-01,1.569999999998802132e+00,2.869999999999993179e+03,-2.175000000001119371e+00,-4.944999999999502904e+00,1.332224085032259531e+01,-2.273385719963854079e+00
2.000000000000364864e+01,3.000000003416066097e+00,1.000000000005241496e+01,6.600000000001657874e-01,1.569999999999444285e+00,2.869999999999985903e+03,-2.175000000001232614e+00,-4.945000000000585594e+00,1.331589582946156547e+01,-2.291855287594382506e+00
2.000000000000191136e+01,3.000000004383116980e+00,1.000000000009425705e+01,6.600000000008143797e-01,1.570000000000860707e+00,2.869999999999990450e+03,-2.175000000000935962e+00,-4.945000000002007567e+00,1.330956978006392788e+01,-2.304460684231531165e+00
2.000000000000083489e+01,3.000000000760790098e+00,1.000000000002332534e+01,6.599999999991147392e-01,1.569999999998118456e+00,2.870000000000000909e+03,-2.175000000000287592e+00,-4.944999999998263895e+00,1.334177233530899187e+01,-2.259730648422025645e+00
2.000000000000190070e+01,3.000000000132764466e+00,1.000000000003274181e+01,6.599999999994224931e-01,1.569999999998364260e+00,2.869999999999993634e+03,-2.175000000000691713e+00,-4.944999999998801243e+00,1.333246558963686645e+01,-2.267054578593858505e+00
1.999999999999807443e+01,2.999999999544116225e+00,9.999999999958410157e+00,6.599999999992332000e-01,1.569999999998881401e+00,2.870000000000002728e+03,-2.174999999999511324e+00,-4.944999999998465512e+00,1.332312909839409443e+01,-2.265123764778857129e+00
2.000000000000041922e+01,2.999999998359549558e+00,9.999999999953304908e+00,6.599999999996359890e-01,1.569999999999124540e+00,2.869999999999998636e+03,-2.175000000000149036e+00,-4.944999999999382112e+00,1.331196853457869445e+01,-2.269608688028696530e+00
1.999999999999877076e+01,3.000000000519788657e+00,9.999999999985185184e+00,6.600000000001204903e-01,1.570000000000348228e+00,2.869999999999998181e+03,-2.174999999999688516e+00,-4.944999999999733831e+00,1.329552550449285064e+01,-2.297521469034144115e+00
1.999999999999949196e+01,2.999999999823662389e+00,1.000000000001379519e+01,6.599999999996104538e-01,1.569999999999415863e+00,2.869999999999994543e+03,-2.174999999999839506e+00,-4.944999999998924700e+00,1.331243325194419924e+01,-2.297309450524748442e+00
2.000000000000106226e+01,3.000000000871704042e+00,1.000000000000405720e+01,6.599999999993180211e-01,1.569999999998605178e+00,2.869999999999999091e+03,-2.175000000000288924e+00,-4.944999999998612061e+00,1.332613113789776627e+01,-2.289704799558046844e+00
2.000000000000578027e+01,3.000000000117003740e+00,9.999999999981918464e+00,6.599999999992297584e-01,1.569999999997100604e+00,2.869999999999994998e+03,-2.175000000001905853e+00,-4.944999999999284412e+00,1.330531275917498668e+01,-2.263100702224727367e+00
2.000000000000042633e+01,2.999999998502228316e+00,9.999999999950780705e+00,6.599999999997752109e-01,1.569999999999285301e+00,2.870000000000001364e+03,-2.175000000000251177e+00,-4.944999999999974527e+00,1.329108817203402282e+01,-2.265724462833287323e+00
1.999999999999877431e+01,2.999999999889660263e+00,1.000000000002344791e+01,6.600000000005565859e-01,1.570000000000896678e+00,2.869999999999984539e+03,-2.174999999999989164e+00,-4.945000000001449791e+00,1.329901171780110403e+01,-2.284956936268850214e+00
1.999999999999580069e+01,3.000000002904010810e+00,1.000000000007639578e+01,6.600000000011010393e-01,1.570000000002648610e+00,2.869999999999976353e+03,-2.174999999998991740e+00,-4.945000000001863683e+00,1.323976080947333855e+01,-2.332077977131538304e+00
1.999999999999404210e+01,3.000000002170365665e+00,1.000000000010491341e+01,6.600000000014677459e-01,1.570000000003578533e+00,2.869999999999974079e+03,-2.174999999998579181e+00,-4.945000000002467644e+00,1.327514979806572981e+01,-2.296914134164845134e+00
1.999999999999945288e+01,3.000000000969553327e+00,1.000000000000953371e+01,6.599999999995657118e-01,1.569999999999289964e+00,2.869999999999996362e+03,-2.174999999999768452e+00,-4.944999999998413998e+00,1.337108345450178071e+01,-2.206813850896629958e+00
1.999999999999966960e+01,2.999999998981823790e+00,9.999999999998609113e+00,6.599999999989872856e-01,1.569999999998187956e+00,2.869999999999995907e+03,-2.174999999999833733e+00,-4.944999999997405027e+00,1.339203818393292522e+01,-2.184724049542919211e+00
1.999999999999885603e+01,2.999999999983311127e+00,9.999999999987494448e+00,6.599999999993036992e-01,1.569999999998912932e+00,2.869999999999996362e+03,-2.174999999999588152e+00,-4.944999999998208828e+00,1.336039473598622429e+01,-2.203533383930748268e+00
2.000000000000093436e+01,3.000000001351726731e+00,1.000000000000184031e+01,6.599999999992982591e-01,1.569999999998412887e+00,2.869999999999995453e+03,-2.175000000000324452e+00,-4.944999999998563212e+00,1.335394920169931865e+01,-2.227582159046531007e+00
2.000000000000094502e+01,3.000000001518826842e+00,1.000000000001952571e+01,6.599999999998739098e-01,1.569999999999392770e+00,2.869999999999992724e+03,-2.175000000000370637e+00,-4.944999999999895479e+00,1.334931857176675507e+01,-2.223045011677460270e+00
2.000000000000330758e+01,3.000000000943419121e+00,1.000000000002745359e+01,6.599999999990072697e-01,1.569999999997310658e+00,2.869999999999991360e+03,-2.175000000001056755e+00,-4.944999999998229256e+00,1.339895420464791620e+01,-2.183554084516028837e+00
1.999999999999992895e+01,2.999999999945318852e+00,9.999999999976383336e+00,6.599999999994263788e-01,1.569999999998902940e+00,2.869999999999994543e+03,-2.175000000000032241e+00,-4.944999999999134310e+00,1.338339178010052422e+01,-2.205202256819315032e+00
2.000000000000114397e+01,3.000000002388024889e+00,1.000000000000256861e+01,6.599999999993002575e-01,1.569999999998362039e+00,2.869999999999987722e+03,-2.175000000000420819e+00,-4.944999999998785256e+00,1.336419851776977019e+01,-2.224993714724153193e+00
1.999999999999831246e+01,3.000000000143749901e+00,9.999999999992624566e+00,6.599999999995544986e-01,1.569999999999418749e+00,2.869999999999994543e+03,-2.174999999999500222e+00,-4.944999999998700879e+00,1.337200713704694977e+01,-2.189136165610804596e+00
2.000000000000094147e+01,2.999999999918436799e+00,9.999999999905101689e+00,6.600000000001539080e-01,1.570000000000329576e+00,2.869999999999999545e+03,-2.174999999999927436e+00,-4.944999999999766693e+00,1.331677398484053754e+01,-2.270509095155523571e+00
1.999999999999792522e+01,2.999999998638913201e+00,9.999999999910619053e+00,6.600000000007087975e-01,1.570000000001964269e+00,2.869999999999998181e+03,-2.174999999999078781e+00,-4.945000000000309370e+00,1.327220664532532446e+01,-2.298096384731883379e+00
1.999999999999982947e+01,3.000000001178385389e+00,9.999999999993972821e+00,6.600000000000295630e-01,1.569999999999993623e+00,2.870000000000001819e+03,-2.175000000000093525e+00,-4.945000000000534079e+00,1.330911936912665716e+01,-2.302950364024357821e+00
1.999999999999916866e+01,3.000000000579489345e+00,9.999999999989546140e+00,6.600000000001675637e-01,1.570000000000496998e+00,2.869999999999990450e+03,-2.174999999999671640e+00,-4.944999999999562412e+00,1.332210523109106859e+01,-2.255300468399397573e+00
1.999999999999952394e+01,3.000000002034718616e+00,9.999999999980664356e+00,6.600000000006380763e-01,1.570000000001287033e+00,2.869999999999988177e+03,-2.174999999999771116e+00,-4.945000000000764118e+00,1.331902797250952908e+01,-2.269879887561295551e+00
1.999999999999883116e+01,3.000000002828330015e+00,9.999999999980273557e+00,6.600000000005369349e-01,1.570000000001342544e+00,2.869999999999992724e+03,-2.174999999999520206e+00,-4.945000000000443485e+00,1.328088921269193001e+01,-2.307587449758002673e+00
1.999999999999566924e+01,3.000000002785691677e+00,1.000000000000942890e+01,6.600000000001730038e-01,1.570000000001287699e+00,2.869999999999983174e+03,-2.174999999998703082e+00,-4.944999999999577511e+00,1.329240256684086319e+01,-2.292413117790051302e+00
1.999999999999540989e+01,2.999999998935623857e+00,9.999999999931548089e+00,6.600000000001462475e-01,1.570000000001418705e+00,2.869999999999994543e+03,-2.174999999998416644e+00,-4.944999999999410534e+00,1.325467242637922460e+01,-2.311807944783903501e+00
1.999999999999304734e+01,2.999999997380132122e+00,9.999999999904625625e+00,6.599999999999424105e-01,1.570000000001591012e+00,2.870000000000000455e+03,-2.174999999997671463e+00,-4.944999999998468176e+00,1.328617697769945138e+01,-2.262736678986356775e+00
1.999999999999757705e+01,3.000000000389018151e+00,9.999999999962767561e+00,6.599999999999902611e-01,1.570000000000622675e+00,2.869999999999995907e+03,-2.174999999999130296e+00,-4.944999999999404316e+00,1.327461891702296448e+01,-2.298724434768007807e+00
1.999999999999611333e+01,3.000000001410786155e+00,9.999999999994171773e+00,6.600000000008535705e-01,1.570000000002331975e+00,2.869999999999989086e+03,-2.174999999998955769e+00,-4.945000000001499529e+00,1.329465331469071110e+01,-2.296116622314687383e+00
1.999999999999496580e+01,2.999999999932115191e+00,9.999999999994969357e+00,6.600000000008074963e-01,1.570000000002579110e+00,2.869999999999985448e+03,-2.174999999998410871e+00,-4.945000000000445262e+00,1.328892732138253052e+01,-2.292447907448254441e+00
1.999999999999922551e+01,3.000000001536965666e+00,9.999999999970373921e+00,6.599999999993647615e-01,1.569999999999011520e+00,2.870000000000001819e+03,-2.174999999999815081e+00,-4.944999999999030393e+00,1.336661884467467054e+01,-2.242815863068617244e+00
2.000000000000134648e+01,3.000000001087073098e+00,1.000000000001939604e+01,6.599999999995360689e-01,1.569999999998744178e+00,2.869999999999990905e+03,-2.175000000000522515e+00,-4.944999999999406093e+00,1.337919694414020455e+01,-2.234860342932766475e+00
1.999999999999981171e+01,3.000000000765131070e+00,9.999999999965833553e+00,6.599999999993965139e-01,1.569999999998968887e+00,2.869999999999998636e+03,-2.174999999999905231e+00,-4.944999999998620943e+00,1.340673669119714440e+01,-2.210234467954143689e+00
1.999999999999913314e+01,3.000000000532652589e+00,9.999999999934694017e+00,6.599999999993899635e-01,1.569999999999142082e+00,2.870000000000004093e+03,-2.174999999999661426e+00,-4.944999999998836770e+00,1.338012678487715057e+01,-2.232641890031215048e+00
1.999999999999862155e+01,3.000000001043383602e+00,1.000000000000157208e+01,6.599999999993287902e-01,1.569999999998960227e+00,2.870000000000003183e+03,-2.174999999999696509e+00,-4.944999999998542783e+00,1.339297665170728102e+01,-2.200644381695623597e+00
1.999999999999796785e+01,3.000000002037852997e+00,1.000000000002629186e+01,6.599999999993163557e-01,1.569999999999106555e+00,2.870000000000002274e+03,-2.174999999999502887e+00,-4.944999999998305640e+00,1.341692013729901412e+01,-2.193096387784725376e+00
1.999999999999861444e+01,3.000000002834782187e+00,1.000000000001982414e+01,6.599999999995187494e-01,1.569999999999295293e+00,2.870000000000003183e+03,-2.174999999999739586e+00,-4.944999999998866969e+00,1.340563283048797594e+01,-2.192552135234272281e+00
2.000000000000054001e+01,3.000000001471943012e+00,1.000000000003514344e+01,6.599999999994942135e-01,1.569999999998908713e+00,2.869999999999998181e+03,-2.175000000000265388e+00,-4.944999999998960227e+00,1.339349712321393149e+01,-2.203015017108585827e+00
1.999999999999851141e+01,3.000000001839967734e+00,1.000000000003913136e+01,6.599999999998586997e-01,1.569999999999879714e+00,2.869999999999999545e+03,-2.174999999999724487e+00,-4.944999999999556195e+00,1.337631714134691308e+01,-2.217810847137376751e+00
1.999999999999834444e+01,3.000000001824886464e+00,1.000000000001730882e+01,6.599999999999687228e-01,1.570000000000270957e+00,2.869999999999999545e+03,-2.174999999999515765e+00,-4.944999999999343920e+00,1.333777298626592334e+01,-2.243810876071634652e+00
2.000000000000070699e+01,3.000000002942805111e+00,1.000000000005289991e+01,6.599999999994831112e-01,1.569999999998779039e+00,2.869999999999996817e+03,-2.175000000000377742e+00,-4.944999999999205365e+00,1.337187624718853662e+01,-2.224135905422976567e+00
1.999999999999879208e+01,3.000000001327220556e+00,1.000000000000307665e+01,6.599999999995800337e-01,1.569999999999378559e+00,2.870000000000001819e+03,-2.174999999999657874e+00,-4.944999999998588969e+00,1.339141079144136093e+01,-2.184963147624077173e+00
2.000000000000106581e+01,2.999999999447063193e+00,9.999999999951468155e+00,6.599999999997282485e-01,1.569999999999445839e+00,2.870000000000000455e+03,-2.175000000000283595e+00,-4.944999999999780904e+00,1.335926353938213396e+01,-2.245079401395139840e+00
2.000000000000285638e+01,3.000000000392325283e+00,9.999999999986908250e+00,6.600000000001966516e-01,1.569999999999892371e+00,2.869999999999995907e+03,-2.175000000000857803e+00,-4.945000000000853824e+00,1.333085394664114887e+01,-2.286036036166415375e+00
1.999999999999904077e+01,3.000000001359346413e+00,9.999999999989718447e+00,6.600000000004246914e-01,1.570000000001074980e+00,2.869999999999998636e+03,-2.174999999999732925e+00,-4.945000000001326335e+00,1.327902373963415172e+01,-2.320204040743812257e+00
1.999999999999941735e+01,3.000000003026273454e+00,1.000000000000393818e+01,6.600000000001379208e-01,1.570000000000492557e+00,2.870000000000002728e+03,-2.174999999999850164e+00,-4.945000000000747242e+00,1.326359015780839457e+01,-2.345380867946663450e+00
2.000000000000174794e+01,3.000000001112349768e+00,1.000000000001221245e+01,6.600000000002553824e-01,1.569999999999969642e+00,2.869999999999997272e+03,-2.175000000000600675e+00,-4.945000000000686846e+00,1.334869456612269722e+01,-2.247330383912272467e+00
2.000000000000050093e+01,2.999999999808701912e+00,1.000000000002156675e+01,6.600000000001975398e-01,1.570000000000125739e+00,2.869999999999991360e+03,-2.175000000000379075e+00,-4.945000000001290807e+00,1.329276199434082351e+01,-2.284854165695348271e+00
2.000000000000192202e+01,3.000000001290372253e+00,1.000000000002523493e+01,6.600000000002321787e-01,1.569999999999988960e+00,2.869999999999987722e+03,-2.175000000000715694e+00,-4.945000000001647855e+00,1.326451720700696058e+01,-2.326000647490404916e+00
2.000000000000128253e+01,3.000000000540172351e+00,1.000000000001693756e+01,6.599999999998003020e-01,1.569999999999320384e+00,2.869999999999994088e+03,-2.175000000000578027e+00,-4.945000000001084750e+00,1.324874927374615119e+01,-2.332137962868868097e+00
2.000000000000103029e+01,2.999999998333438000e+00,1.000000000002894041e+01,6.600000000000325606e-01,1.569999999999809770e+00,2.869999999999991360e+03,-2.175000000000285372e+00,-4.944999999999780904e+00,1.332882151125948411e+01,-2.244525084403436122e+00
1.999999999999605294e+01,2.999999997684815067e+00,1.000000000001317346e+01,6.599999999997115951e-01,1.570000000000293827e+00,2.869999999999998181e+03,-2.174999999998839417e+00,-4.944999999998810125e+00,1.330821403194110886e+01,-2.255887895184253811e+00
1.999999999999678124e+01,3.000000003430746798e+00,1.000000000001452172e+01,6.599999999999554001e-01,1.570000000000451923e+00,2.869999999999984539e+03,-2.174999999999105871e+00,-4.944999999999236451e+00,1.330825874254928287e+01,-2.285892700846113623e+00
1.999999999999917932e+01,3.000000000810155498e+00,1.000000000002805578e+01,6.599999999995297406e-01,1.569999999999573737e+00,2.869999999999996817e+03,-2.174999999999483791e+00,-4.944999999997917506e+00,1.328101516654279735e+01,-2.307122266094419061e+00
1.999999999999664979e+01,3.000000000616954487e+00,1.000000000003449507e+01,6.600000000003514167e-01,1.570000000001584795e+00,2.869999999999999545e+03,-2.174999999998891376e+00,-4.944999999999953211e+00,1.327079193841150229e+01,-2.319933845781565029e+00
1.999999999999817035e+01,2.999999997818167063e+00,1.000000000001709211e+01,6.599999999992192112e-01,1.569999999998940021e+00,2.869999999999998636e+03,-2.174999999999589928e+00,-4.944999999998462847e+00,1.339296529638479605e+01,-2.211670677814694397e+00
1.999999999999687006e+01,2.999999998877542318e+00,1.000000000002654232e+01,6.599999999995773692e-01,1.569999999999893925e+00,2.869999999999995453e+03,-2.174999999999128963e+00,-4.944999999998383799e+00,1.336446384697742573e+01,-2.218056303693026976e+00
1.999999999999734612e+01,2.999999998947803004e+00,1.000000000001810996e+01,6.599999999995964650e-01,1.569999999999809548e+00,2.869999999999993634e+03,-2.174999999999237765e+00,-4.944999999998481499e+00,1.335857252675822693e+01,-2.215347706004056949e+00
1.999999999999980105e+01,2.999999997968001875e+00,1.000000000001657341e+01,6.599999999993818589e-01,1.569999999998850981e+00,2.870000000000000000e+03,-2.175000000000038014e+00,-4.944999999998561435e+00,1.339494990467492563e+01,-2.201057944180933035e+00
2.000000000000005684e+01,2.999999997477072800e+00,1.000000000000771649e+01,6.599999999990522337e-01,1.569999999998283213e+00,2.869999999999995453e+03,-2.175000000000046008e+00,-4.944999999998042739e+00,1.338302718602819219e+01,-2.221938765085668344e+00
1.999999999999670308e+01,2.999999997411856967e+00,1.000000000001486811e+01,6.599999999989746291e-01,1.569999999998774154e+00,2.870000000000001819e+03,-2.174999999999060130e+00,-4.944999999997066631e+00,1.341530622000542827e+01,-2.187440763479366890e+00
1.999999999999921840e+01,2.999999998018292313e+00,1.000000000003401546e+01,6.599999999995019850e-01,1.569999999999278861e+00,2.869999999999993634e+03,-2.174999999999797762e+00,-4.944999999998636042e+00,1.336229818313863227e+01,-2.231980770790810809e+00
1.999999999999791456e+01,2.999999998349204056e+00,9.999999999998344435e+00,6.599999999993850786e-01,1.569999999999368789e+00,2.870000000000000455e+03,-2.174999999999422950e+00,-4.944999999998541007e+00,1.338843462260303241e+01,-2.222014089779031032e+00
1.999999999999733902e+01,2.999999998911252685e+00,1.000000000001544542e+01,6.599999999995705968e-01,1.569999999999868834e+00,2.869999999999994998e+03,-2.174999999999169376e+00,-4.944999999998593410e+00,1.336473451703301230e+01,-2.230107920752165462e+00
1.999999999999476330e+01,2.999999996612641606e+00,9.999999999966661335e+00,6.599999999992512967e-01,1.569999999999604157e+00,2.870000000000001819e+03,-2.174999999998495248e+00,-4.944999999997924611e+00,1.340293309024136192e+01,-2.173575532523901011e+00
1.999999999999823430e+01,2.999999997669846152e+00,9.999999999980490273e+00,6.599999999993947375e-01,1.569999999999234230e+00,2.869999999999998636e+03,-2.174999999999506883e+00,-4.944999999998686668e+00,1.337947379660324465e+01,-2.211465498372876315e+00
1.999999999999560529e+01,2.999999998463621864e+00,9.999999999999896971e+00,6.599999999999499600e-01,1.570000000000667084e+00,2.869999999999994088e+03,-2.174999999998736833e+00,-4.944999999999134310e+00,1.334713338890218814e+01,-2.221328989526242470e+00
1.999999999999883116e+01,2.999999999086372604e+00,9.999999999987254640e+00,6.599999999995481703e-01,1.569999999999412088e+00,2.869999999999993634e+03,-2.174999999999571276e+00,-4.944999999998489493e+00,1.334982875800049307e+01,-2.226016397257488233e+00
1.999999999999517897e+01,2.999999998533182222e+00,9.999999999970828668e+00,6.599999999994041744e-01,1.569999999999866613e+00,2.870000000000000909e+03,-2.174999999998646683e+00,-4.944999999998572981e+00,1.338301401081087150e+01,-2.201761338403612989e+00
1.999999999999592148e+01,2.999999998097921061e+00,9.999999999998216538e+00,6.599999999992878230e-01,1.569999999999437401e+00,2.870000000000002728e+03,-2.174999999998923350e+00,-4.944999999998153761e+00,1.339495710633048731e+01,-2.206706071786144197e+00
2.000000000000051514e+01,2.999999997547520891e+00,9.999999999965213604e+00,6.599999999995125322e-01,1.569999999998971996e+00,2.869999999999997726e+03,-2.174999999999986056e+00,-4.944999999998446860e+00,1.334583749799351082e+01,-2.224347327869772073e+00
1.999999999999729283e+01,2.999999998558864789e+00,1.000000000000616573e+01,6.599999999999243139e-01,1.570000000000331131e+00,2.869999999999997726e+03,-2.174999999999239986e+00,-4.944999999999404316e+00,1.333892441090192804e+01,-2.248977274883884991e+00
1.999999999999661071e+01,2.999999998174391447e+00,1.000000000000880895e+01,6.599999999997969713e-01,1.570000000000145279e+00,2.869999999999994998e+03,-2.174999999999145395e+00,-4.944999999999128093e+00,1.336093762478739855e+01,-2.220774908786223634e+00
1.999999999999567990e+01,2.999999997919334138e+00,1.000000000000929923e+01,6.600000000000574296e-01,1.570000000000867812e+00,2.869999999999996817e+03,-2.174999999998809663e+00,-4.944999999998987761e+00,1.335979553924049590e+01,-2.207471904937210017e+00
1.999999999999494449e+01,2.999999998779970589e+00,1.000000000000220446e+01,6.599999999999816014e-01,1.570000000000963958e+00,2.869999999999999091e+03,-2.174999999998590283e+00,-4.944999999999029505e+00,1.335562225944881476e+01,-2.219348364406196428e+00
1.999999999999469580e+01,2.999999998069229346e+00,1.000000000001768719e+01,6.599999999996779554e-01,1.570000000000294715e+00,2.869999999999996817e+03,-2.174999999998596056e+00,-4.944999999998558771e+00,1.337298803844705652e+01,-2.188309207113826371e+00
1.999999999999675282e+01,2.999999998762516551e+00,9.999999999967778663e+00,6.600000000005492584e-01,1.570000000001734008e+00,2.869999999999997272e+03,-2.174999999998934008e+00,-4.945000000000036700e+00,1.330664784582622850e+01,-2.247444981105388706e+00
1.999999999999530687e+01,2.999999997497865056e+00,9.999999999941838524e+00,6.599999999999796030e-01,1.570000000001000373e+00,2.870000000000002274e+03,-2.174999999998407318e+00,-4.944999999998545448e+00,1.335472493383447734e+01,-2.206321620381370696e+00
1.999999999999668177e+01,2.999999997654842154e+00,9.999999999977934095e+00,6.599999999999530687e-01,1.570000000000591367e+00,2.869999999999994543e+03,-2.174999999998923794e+00,-4.944999999998624496e+00,1.337650493031432575e+01,-2.193268513071130688e+00
1.999999999999489830e+01,2.999999997200700541e+00,9.999999999969118036e+00,6.599999999999998090e-01,1.570000000001000151e+00,2.870000000000001819e+03,-2.174999999998493472e+00,-4.944999999999082796e+00,1.336552422117770611e+01,-2.200290276394322841e+00
2.000000000000104450e+01,2.999999999768927506e+00,9.999999999981207921e+00,6.599999999994229372e-01,1.569999999998731521e+00,2.869999999999999091e+03,-2.175000000000340439e+00,-4.944999999998862528e+00,1.341154010577161237e+01,-2.200505322121147245e+00
1.999999999999903366e+01,2.999999999205604784e+00,9.999999999961119101e+00,6.599999999993518829e-01,1.569999999999066587e+00,2.870000000000002274e+03,-2.174999999999700062e+00,-4.944999999998760387e+00,1.338326834526395537e+01,-2.235045281653416094e+00
1.999999999999908340e+01,2.999999999533250694e+00,9.999999999981932675e+00,6.599999999992761657e-01,1.569999999998922258e+00,2.869999999999997726e+03,-2.174999999999709832e+00,-4.944999999998288764e+00,1.338326882189393885e+01,-2.224656902696879435e+00
1.999999999999977973e+01,3.000000000215437002e+00,9.999999999967934983e+00,6.599999999992417488e-01,1.569999999998632045e+00,2.869999999999999545e+03,-2.175000000000006040e+00,-4.944999999998556106e+00,1.336329262237931559e+01,-2.235440414140088539e+00
2.000000000000124700e+01,2.999999998972657345e+00,9.999999999984062526e+00,6.599999999991984501e-01,1.569999999998187512e+00,2.869999999999997726e+03,-2.175000000000446132e+00,-4.944999999998610285e+00,1.340524129693139166e+01,-2.214279232921307017e+00
2.000000000000069278e+01,2.999999999756542746e+00,1.000000000000755307e+01,6.599999999993194644e-01,1.569999999998510143e+00,2.869999999999992724e+03,-2.175000000000279599e+00,-4.944999999998620943e+00,1.341451593690879740e+01,-2.195485597663778154e+00
1.999999999999955946e+01,2.999999999171362397e+00,9.999999999995262456e+00,6.599999999989941690e-01,1.569999999998205498e+00,2.870000000000004547e+03,-2.174999999999954969e+00,-4.944999999998164419e+00,1.342946998200256026e+01,-2.190823173213117592e+00
1.999999999999714717e+01,2.999999998037664373e+00,9.999999999983531396e+00,6.599999999993517719e-01,1.569999999999377005e+00,2.870000000000002274e+03,-2.174999999999180922e+00,-4.944999999998411333e+00,1.336542704862540631e+01,-2.228895185631462716e+00
1.999999999999889866e+01,2.999999999848136589e+00,9.999999999979708676e+00,6.599999999998851230e-01,1.569999999999971418e+00,2.869999999999995907e+03,-2.174999999999721378e+00,-4.944999999999626361e+00,1.336336184671146654e+01,-2.242460012048913320e+00
1.999999999999932854e+01,3.000000000056175065e+00,9.999999999976441956e+00,6.599999999992454125e-01,1.569999999998856977e+00,2.870000000000000000e+03,-2.174999999999713385e+00,-4.944999999997820694e+00,1.340231455572289576e+01,-2.212230867849204863e+00
2.000000000000159872e+01,2.999999999434602049e+00,9.999999999985279331e+00,6.599999999991508215e-01,1.569999999998116014e+00,2.869999999999999091e+03,-2.175000000000440803e+00,-4.944999999998208828e+00,1.337831720624495446e+01,-2.226272712435111600e+00
2.000000000000168043e+01,3.000000001466137434e+00,1.000000000000012079e+01,6.599999999997060440e-01,1.569999999999128759e+00,2.869999999999998181e+03,-2.175000000000506084e+00,-4.944999999999462936e+00,1.333582592343030626e+01,-2.275557429333977311e+00
1.999999999999866418e+01,2.999999999530983175e+00,9.999999999987670307e+00,6.599999999999283107e-01,1.570000000000091100e+00,2.869999999999996362e+03,-2.174999999999628564e+00,-4.944999999999617479e+00,1.335914028291137079e+01,-2.241553556465750940e+00
1.999999999999677414e+01,2.999999999275308582e+00,9.999999999992276400e+00,6.600000000001303713e-01,1.570000000000885576e+00,2.869999999999998636e+03,-2.174999999999081890e+00,-4.944999999999845741e+00,1.337436685846539675e+01,-2.225502437838893677e+00
1.999999999999858957e+01,2.999999999391451233e+00,1.000000000000983214e+01,6.599999999999873745e-01,1.570000000000135509e+00,2.869999999999999545e+03,-2.174999999999711164e+00,-4.945000000000185914e+00,1.338394548480971480e+01,-2.225113239843874879e+00
1.999999999999713651e+01,3.000000000220178986e+00,1.000000000000169820e+01,6.600000000002794742e-01,1.570000000001011919e+00,2.869999999999998636e+03,-2.174999999999157829e+00,-4.944999999999906137e+00,1.336722829789440503e+01,-2.239140083192884489e+00
1.999999999999862155e+01,2.999999999840178511e+00,1.000000000003258016e+01,6.599999999998444888e-01,1.569999999999831974e+00,2.869999999999999545e+03,-2.174999999999740474e+00,-4.944999999999537543e+00,1.339197211217686601e+01,-2.213208218763335733e+00
1.999999999999571187e+01,2.999999998779174337e+00,9.999999999975708320e+00,6.600000000003209966e-01,1.570000000001423590e+00,2.870000000000004547e+03,-2.174999999998739497e+00,-4.945000000000044693e+00,1.337373264836106301e+01,-2.222876018472159210e+00
2.000000000000004619e+01,2.999999999597477540e+00,1.000000000001860201e+01,6.600000000004223599e-01,1.570000000000606244e+00,2.869999999999994088e+03,-2.175000000000069100e+00,-4.945000000000504770e+00,1.337845366038500217e+01,-2.221094344503378615e+00
1.999999999999706191e+01,3.000000000871416717e+00,1.000000000000349232e+01,6.599999999989835109e-01,1.569999999998844098e+00,2.869999999999989541e+03,-2.174999999999008615e+00,-4.944999999996804618e+00,1.335998538681052494e+01,-2.223166657197197527e+00
1.999999999999336708e+01,2.999999999248374571e+00,9.999999999983529619e+00,6.599999999991846833e-01,1.569999999999926565e+00,2.869999999999997272e+03,-2.174999999998026290e+00,-4.944999999997325979e+00,1.338536910206465791e+01,-2.204582867641188493e+00
1.999999999999777955e+01,3.000000001675331873e+00,9.999999999979673149e+00,6.599999999993599875e-01,1.569999999999482032e+00,2.869999999999988631e+03,-2.174999999999038813e+00,-4.944999999996816165e+00,1.338375105441434876e+01,-2.198389167060227578e+00
1.999999999999586819e+01,3.000000000617272011e+00,9.999999999999163336e+00,6.599999999995199707e-01,1.570000000000081553e+00,2.869999999999989996e+03,-2.174999999998578737e+00,-4.944999999997409468e+00,1.337989409994980861e+01,-2.199091171219728302e+00
1.999999999999602451e+01,3.000000001374092840e+00,9.999999999989865884e+00,6.599999999997645528e-01,1.570000000000584262e+00,2.869999999999985448e+03,-2.174999999998561862e+00,-4.944999999997615525e+00,1.337547201403226893e+01,-2.212940768396197910e+00
1.999999999999765166e+01,3.000000002240639230e+00,9.999999999985275778e+00,6.599999999994518030e-01,1.569999999999694529e+00,2.869999999999988177e+03,-2.174999999999092992e+00,-4.944999999997365947e+00,1.333873609269125993e+01,-2.255510182107988371e+00
1.999999999999649347e+01,3.000000001044986320e+00,9.999999999998614442e+00,6.599999999994652367e-01,1.569999999999869722e+00,2.869999999999985448e+03,-2.174999999998837641e+00,-4.944999999997659934e+00,1.336391996955603290e+01,-2.219242360206980624e+00
