1.999999999999860378e+01,3.000000001518613679e+00,9.999999999926950878e+00,6.600000000003661826e-01,1.570000000000705720e+00,2.869999999999992724e+03,-2.174999999999723155e+00,-4.945000000000717044e+00,1.343384416959670347e+01,-2.344859836772561934e+00
2.000000000000077094e+01,3.000000002148510259e+00,9.999999999945881513e+00,6.599999999999748290e-01,1.569999999999918128e+00,2.869999999999991815e+03,-2.175000000000121503e+00,-4.945000000000063345e+00,1.344002808801540816e+01,-2.416019943380890211e+00
2.000000000000054357e+01,3.000000000467790695e+00,9.999999999990135890e+00,6.600000000000492140e-01,1.570000000000006946e+00,2.869999999999998181e+03,-2.175000000000128164e+00,-4.945000000000304929e+00,1.322852762322470710e+01,-2.341198144961636807e+00
1.999999999999968736e+01,3.000000002628973039e+00,1.000000000006399503e+01,6.599999999998571454e-01,1.570000000000010498e+00,2.869999999999998181e+03,-2.174999999999700950e+00,-4.944999999999240003e+00,1.329590213785714958e+01,-2.141091056549254024e+00
1.999999999999964473e+01,3.000000002145692068e+00,1.000000000002195399e+01,6.599999999998908962e-01,1.570000000000039808e+00,2.870000000000001364e+03,-2.174999999999716493e+00,-4.944999999999362572e+00,1.327262189484505761e+01,-2.054129860173453448e+00
1.999999999999980460e+01,3.000000002536097998e+00,1.000000000010649792e+01,6.599999999998100719e-01,1.569999999999950768e+00,2.870000000000001819e+03,-2.174999999999653877e+00,-4.944999999999042828e+00,1.334308922674893338e+01,-2.117468582814916012e+00
1.999999999999927525e+01,2.999999998286704272e+00,9.999999999943947060e+00,6.600000000001033928e-01,1.570000000000272511e+00,2.869999999999999091e+03,-2.174999999999859046e+00,-4.945000000000107754e+00,1.321231149101305036e+01,-2.121793256005019224e+00
2.000000000000019540e+01,2.999999998045073113e+00,9.999999999998564704e+00,6.599999999999830447e-01,1.569999999999954099e+00,2.870000000000000909e+03,-2.175000000000047340e+00,-4.945000000000014495e+00,1.329934329792431136e+01,-2.126743751783114256e+00
1.999999999999860734e+01,2.999999999220025249e+00,9.999999999975495157e+00,6.600000000002309575e-01,1.570000000000501661e+00,2.870000000000001819e+03,-2.174999999999779998e+00,-4.945000000000423057e+00,1.326906839629408275e+01,-2.045329059414625839e+00
1.999999999999847589e+01,3.000000000552058399e+00,9.999999999979795717e+00,6.600000000001325917e-01,1.570000000000505214e+00,2.869999999999998181e+03,-2.174999999999576605e+00,-4.944999999999866169e+00,1.326744592103710474e+01,-2.145327910460374188e+00
1.999999999999779376e+01,3.000000000289385849e+00,9.999999999978218312e+00,6.600000000001799982e-01,1.570000000000717266e+00,2.869999999999999545e+03,-2.174999999999368772e+00,-4.944999999999798668e+00,1.327489729843483701e+01,-2.110171834298796067e+00
1.999999999999857181e+01,2.999999995433558553e+00,1.000000000004175860e+01,6.600000000000145750e-01,1.570000000000374429e+00,2.869999999999999091e+03,-2.174999999999503775e+00,-4.944999999999508233e+00,1.314286854704674923e+01,-2.126113227782366444e+00
1.999999999999818812e+01,2.999999999522545036e+00,1.000000000000515676e+01,6.600000000000020295e-01,1.570000000000180362e+00,2.870000000000000000e+03,-2.174999999999658318e+00,-4.944999999999725837e+00,1.328351863458217252e+01,-2.014125753028020327e+00
1.999999999999851852e+01,2.999999999106720328e+00,9.999999999991249666e+00,6.599999999999672795e-01,1.570000000000131735e+00,2.870000000000001819e+03,-2.174999999999681410e+00,-4.944999999999661888e+00,1.323957040962727483e+01,-2.070235159523374335e+00
2.000000000000078515e+01,3.000000000682449652e+00,1.000000000001466915e+01,6.599999999998220623e-01,1.569999999999684759e+00,2.870000000000001819e+03,-2.175000000000070433e+00,-4.944999999999549090e+00,1.318624763722315230e+01,-2.362065248070705614e+00
1.999999999999981526e+01,3.000000003921134972e+00,9.999999999970876630e+00,6.599999999998313882e-01,1.570000000000056906e+00,2.869999999999996817e+03,-2.174999999999621902e+00,-4.944999999999027729e+00,1.324988197447962790e+01,-2.228729414504006190e+00
2.000000000000060041e+01,3.000000003538794591e+00,9.999999999973759657e+00,6.599999999998198419e-01,1.569999999999888152e+00,2.869999999999995907e+03,-2.174999999999845279e+00,-4.944999999999241780e+00,1.329317178041803515e+01,-2.256205501834168459e+00
2.000000000000262190e+01,3.000000002645196062e+00,9.999999999991306510e+00,6.599999999998696909e-01,1.569999999999498907e+00,2.869999999999996362e+03,-2.175000000000581579e+00,-4.945000000000227658e+00,1.324135913655230290e+01,-2.348122320561950360e+00
1.999999999999880629e+01,3.000000002077168659e+00,9.999999999981950438e+00,6.600000000002874678e-01,1.570000000000536744e+00,2.869999999999999545e+03,-2.174999999999851941e+00,-4.945000000000686846e+00,1.336115937546307464e+01,-2.226138030735162587e+00
2.000000000000154188e+01,3.000000002476239658e+00,9.999999999999019451e+00,6.600000000000679767e-01,1.569999999999850848e+00,2.869999999999995907e+03,-2.175000000000412825e+00,-4.945000000000557172e+00,1.348835511891757832e+01,-2.390498234090153939e+00
2.000000000000052935e+01,3.000000001774219438e+00,9.999999999988595789e+00,6.600000000002055334e-01,1.570000000000042029e+00,2.870000000000000909e+03,-2.175000000000385736e+00,-4.945000000001065210e+00,1.348331654750066733e+01,-2.379817458160801813e+00
1.999999999999897682e+01,3.000000002972574187e+00,1.000000000001285549e+01,6.600000000002917977e-01,1.570000000000374651e+00,2.870000000000000909e+03,-2.175000000000066436e+00,-4.945000000000940865e+00,1.328030763428865590e+01,-2.307122400083486014e+00
1.999999999999971578e+01,3.000000003713795937e+00,9.999999999963131714e+00,6.600000000000418865e-01,1.570000000000033591e+00,2.869999999999998181e+03,-2.175000000000012701e+00,-4.945000000000179696e+00,1.309079210846091890e+01,-2.148002868952973987e+00
2.000000000000005684e+01,3.000000003979168994e+00,9.999999999996433075e+00,6.600000000001210454e-01,1.570000000000053575e+00,2.869999999999999545e+03,-2.175000000000157474e+00,-4.945000000000550067e+00,1.320510235135428445e+01,-2.278304300193964238e+00
1.999999999999764455e+01,3.000000001610228839e+00,9.999999999996740385e+00,6.599999999999878186e-01,1.570000000000440821e+00,2.870000000000000909e+03,-2.174999999999297717e+00,-4.944999999999194706e+00,1.324538581523869496e+01,-2.213339886902039755e+00
1.999999999999704059e+01,3.000000001868359245e+00,1.000000000000690292e+01,6.599999999999621725e-01,1.570000000000559170e+00,2.870000000000002274e+03,-2.174999999999053912e+00,-4.944999999998853646e+00,1.326113223202127145e+01,-2.186713558087379994e+00
1.999999999999783995e+01,2.999999999267559225e+00,9.999999999918925297e+00,6.600000000000718625e-01,1.570000000000554952e+00,2.870000000000000000e+03,-2.174999999999297273e+00,-4.944999999999367901e+00,1.309807679233878375e+01,-2.240311050920586577e+00
1.999999999999834799e+01,2.999999999916463267e+00,9.999999999915518245e+00,6.600000000000845191e-01,1.570000000000392637e+00,2.870000000000000455e+03,-2.174999999999557954e+00,-4.944999999999734719e+00,1.316694827142132063e+01,-2.218209663167208134e+00
1.999999999999633715e+01,2.999999999379970639e+00,9.999999999918864901e+00,6.600000000000254552e-01,1.570000000000831397e+00,2.870000000000000000e+03,-2.174999999998773692e+00,-4.944999999998702656e+00,1.332975890525826479e+01,-2.304337755301908874e+00
1.999999999999752021e+01,2.999999999922692506e+00,9.999999999911320714e+00,6.600000000000714184e-01,1.570000000000621565e+00,2.870000000000000909e+03,-2.174999999999210232e+00,-4.944999999999292406e+00,1.325692339831131328e+01,-2.341761546434893315e+00
2.000000000000083844e+01,3.000000002178950798e+00,1.000000000002852829e+01,6.600000000000542100e-01,1.569999999999800222e+00,2.870000000000002728e+03,-2.175000000000397282e+00,-4.945000000000614904e+00,1.314591300787513362e+01,-2.147207360974259238e+00
2.000000000000143885e+01,3.000000003087178513e+00,1.000000000003619505e+01,6.599999999999255351e-01,1.569999999999560414e+00,2.870000000000000455e+03,-2.175000000000455902e+00,-4.945000000000298712e+00,1.315718149276377247e+01,-2.199820346739199017e+00
2.000000000000114753e+01,3.000000001873104338e+00,1.000000000002931877e+01,6.600000000000436629e-01,1.569999999999722062e+00,2.870000000000000000e+03,-2.175000000000473221e+00,-4.945000000000671747e+00,1.319274711173136616e+01,-2.180127279138198926e+00
2.000000000000065725e+01,3.000000003475198795e+00,1.000000000002700062e+01,6.600000000000767475e-01,1.569999999999813767e+00,2.870000000000001819e+03,-2.175000000000380407e+00,-4.945000000000675300e+00,1.323921767742823974e+01,-2.082017299593632575e+00
2.000000000000019185e+01,3.000000003248465497e+00,1.000000000002558131e+01,6.600000000000603162e-01,1.569999999999948770e+00,2.870000000000000455e+03,-2.175000000000160139e+00,-4.945000000000352891e+00,1.315778843880160132e+01,-2.091956835286502780e+00
1.999999999999962341e+01,3.000000002332152693e+00,9.999999999991533883e+00,6.600000000002593792e-01,1.570000000000134177e+00,2.869999999999998636e+03,-2.175000000000276046e+00,-4.945000000001087415e+00,1.323004740662739209e+01,-2.133015851257634488e+00
1.999999999999903011e+01,3.000000001372075342e+00,9.999999999991295851e+00,6.600000000002284040e-01,1.570000000000278728e+00,2.869999999999998181e+03,-2.175000000000001599e+00,-4.945000000000670859e+00,1.316759483764260530e+01,-2.120203966275629348e+00
2.000000000000183320e+01,3.000000004198970949e+00,9.999999999985764276e+00,6.599999999998586997e-01,1.569999999999458273e+00,2.869999999999999091e+03,-2.175000000000485212e+00,-4.945000000000166374e+00,1.326181894214700385e+01,-2.098950950811769189e+00
2.000000000000047962e+01,3.000000002839162683e+00,9.999999999967721820e+00,6.600000000000781908e-01,1.569999999999936779e+00,2.869999999999996817e+03,-2.175000000000257838e+00,-4.945000000000546514e+00,1.322472953926543049e+01,-2.119572897335341377e+00
1.999999999999802469e+01,3.000000001621813794e+00,9.999999999979401366e+00,6.599999999999183187e-01,1.570000000000260965e+00,2.869999999999996817e+03,-2.174999999999449596e+00,-4.944999999999217799e+00,1.306810935904700521e+01,-2.230339820319536148e+00
1.999999999999951683e+01,3.000000002824685374e+00,1.000000000000597211e+01,6.599999999997225864e-01,1.569999999999761142e+00,2.869999999999998181e+03,-2.174999999999764011e+00,-4.944999999998990425e+00,1.309189621342212639e+01,-2.232947454885878980e+00
1.999999999999514344e+01,3.000000000228471020e+00,1.000000000002664713e+01,6.600000000001960965e-01,1.570000000001234852e+00,2.869999999999999545e+03,-2.174999999998612932e+00,-4.944999999999013518e+00,1.318103985153910962e+01,-2.361302815871178407e+00
1.999999999999838352e+01,3.000000000661306565e+00,9.999999999992981614e+00,6.599999999999726086e-01,1.570000000000243645e+00,2.869999999999998181e+03,-2.174999999999538414e+00,-4.944999999999454054e+00,1.328352671737830271e+01,-2.245794975499179724e+00
1.999999999999739586e+01,3.000000000412267998e+00,9.999999999969395148e+00,6.600000000001359224e-01,1.570000000000611795e+00,2.869999999999996362e+03,-2.174999999999341682e+00,-4.944999999999681428e+00,1.315807113637904280e+01,-2.244097799764624757e+00
1.999999999999670308e+01,3.000000002158079493e+00,9.999999999955051067e+00,6.600000000004199174e-01,1.570000000000987272e+00,2.869999999999992269e+03,-2.174999999999331468e+00,-4.945000000000481677e+00,1.316830827284270811e+01,-2.300272932712302154e+00
2.000000000000038725e+01,3.000000001899363333e+00,9.999999999946332707e+00,6.600000000001037259e-01,1.569999999999869278e+00,2.869999999999991360e+03,-2.175000000000331557e+00,-4.945000000000676188e+00,1.305182225574839272e+01,-2.215287351773087110e+00
1.999999999999860734e+01,2.999999998729992789e+00,9.999999999970194509e+00,6.600000000001113865e-01,1.570000000000433715e+00,2.869999999999994088e+03,-2.174999999999561062e+00,-4.944999999999816431e+00,1.318219343126560261e+01,-2.147869140910051211e+00
2.000000000000042988e+01,2.999999998862513007e+00,9.999999999909233495e+00,6.599999999997760991e-01,1.569999999999690310e+00,2.869999999999994088e+03,-2.174999999999913669e+00,-4.944999999999290630e+00,1.313934335176162627e+01,-2.132218286966905740e+00
1.999999999999974065e+01,2.999999998800431555e+00,9.999999999992100541e+00,6.600000000000474376e-01,1.569999999999996287e+00,2.869999999999995453e+03,-2.175000000000070877e+00,-4.945000000000243645e+00,1.311853413261917822e+01,-2.133952314095802105e+00
2.000000000000106226e+01,2.999999999793917738e+00,9.999999999899017666e+00,6.600000000001462475e-01,1.569999999999926343e+00,2.869999999999990450e+03,-2.175000000000403944e+00,-4.945000000000825402e+00,1.316766820506801672e+01,-2.186613521786723524e+00
2.000000000000155964e+01,2.999999999028482911e+00,9.999999999929263694e+00,6.600000000001123857e-01,1.569999999999787788e+00,2.869999999999990905e+03,-2.175000000000527844e+00,-4.945000000000894680e+00,1.319042595725152900e+01,-2.218972772540543481e+00
2.000000000000240519e+01,2.999999999857982047e+00,1.000000000006040501e+01,6.599999999997832045e-01,1.569999999999082796e+00,2.869999999999987267e+03,-2.175000000000877787e+00,-4.945000000000445262e+00,1.337259181581082679e+01,-2.247140899581030471e+00
2.000000000000117240e+01,2.999999998834445680e+00,1.000000000001747402e+01,6.600000000000441069e-01,1.569999999999929896e+00,2.869999999999994088e+03,-2.175000000000294698e+00,-4.945000000000385754e+00,1.315183750956721376e+01,-2.254615895769316758e+00
2.000000000000274625e+01,2.999999996990395879e+00,1.000000000003160139e+01,6.600000000000034728e-01,1.569999999999516227e+00,2.869999999999994998e+03,-2.175000000000765876e+00,-4.945000000000811191e+00,1.312706226227449235e+01,-2.246031613451681785e+00
2.000000000000061817e+01,2.999999999897543290e+00,9.999999999978706811e+00,6.600000000000955103e-01,1.570000000000057350e+00,2.869999999999996817e+03,-2.175000000000163247e+00,-4.945000000000372431e+00,1.301411888474042655e+01,-2.386934385605906428e+00
2.000000000000198241e+01,3.000000000991238203e+00,1.000000000002569323e+01,6.600000000001901013e-01,1.569999999999752704e+00,2.869999999999983629e+03,-2.175000000000799627e+00,-4.945000000001474660e+00,1.323647276466340728e+01,-2.210282290160071828e+00
2.000000000000154543e+01,3.000000000017757351e+00,1.000000000005829648e+01,6.600000000002459455e-01,1.569999999999945883e+00,2.869999999999982720e+03,-2.175000000000649525e+00,-4.945000000001437357e+00,1.338013756882026151e+01,-2.348171978550086969e+00
2.000000000000065725e+01,3.000000000616310114e+00,9.999999999994141575e+00,6.599999999999107692e-01,1.569999999999802887e+00,2.869999999999984084e+03,-2.175000000000118838e+00,-4.944999999999875939e+00,1.321995319500854293e+01,-2.154098335251038332e+00
2.000000000000021316e+01,3.000000000898201513e+00,1.000000000001273648e+01,6.599999999999068834e-01,1.569999999999952545e+00,2.869999999999985903e+03,-2.174999999999901235e+00,-4.944999999999607709e+00,1.325349570098340379e+01,-2.238013895482573901e+00
1.999999999999977618e+01,2.999999999124656203e+00,9.999999999962797759e+00,6.600000000000736389e-01,1.570000000000120410e+00,2.869999999999999091e+03,-2.174999999999972289e+00,-4.945000000000197460e+00,1.326255491675469145e+01,-2.275982248175671518e+00
1.999999999999897327e+01,2.999999998191312134e+00,9.999999999947208451e+00,6.600000000000928457e-01,1.570000000000230322e+00,2.870000000000001819e+03,-2.174999999999847944e+00,-4.945000000000079332e+00,1.326354130375514906e+01,-2.249820323767398378e+00
1.999999999999926459e+01,2.999999995406740005e+00,1.000000000001755573e+01,6.599999999999707212e-01,1.570000000000142837e+00,2.870000000000000909e+03,-2.174999999999726708e+00,-4.944999999999602380e+00,1.321909529444308617e+01,-2.037983683866003037e+00
1.999999999999928946e+01,2.999999997602837976e+00,1.000000000003327294e+01,6.600000000000983968e-01,1.570000000000120188e+00,2.870000000000000000e+03,-2.174999999999981615e+00,-4.945000000000307594e+00,1.341003378171735427e+01,-2.126866569217189085e+00
2.000000000000076028e+01,2.999999999614989310e+00,9.999999999957914554e+00,6.600000000002431699e-01,1.570000000000011831e+00,2.869999999999994088e+03,-2.175000000000459455e+00,-4.945000000001216200e+00,1.318355252051295068e+01,-2.220206001041447941e+00
2.000000000000252953e+01,2.999999997624550385e+00,9.999999999918104621e+00,6.599999999999753841e-01,1.569999999999370122e+00,2.869999999999997272e+03,-2.175000000000824496e+00,-4.945000000000858265e+00,1.320217597473485149e+01,-2.097675787784571533e+00
2.000000000000432010e+01,2.999999997243989913e+00,9.999999999947704055e+00,6.599999999998312772e-01,1.569999999998797691e+00,2.869999999999998636e+03,-2.175000000001374278e+00,-4.945000000001081197e+00,1.322922081442495745e+01,-2.098499794618135184e+00
2.000000000000040146e+01,3.000000000337304851e+00,9.999999999919628735e+00,6.599999999999067724e-01,1.569999999999882379e+00,2.870000000000000000e+03,-2.175000000000018030e+00,-4.944999999999708962e+00,1.326622301411556926e+01,-2.248557085826040414e+00
2.000000000000096279e+01,2.999999997661542572e+00,9.999999999937161377e+00,6.599999999999871525e-01,1.569999999999868834e+00,2.870000000000000455e+03,-2.175000000000216538e+00,-4.945000000000164597e+00,1.333841993117792057e+01,-2.227247192498892581e+00
1.999999999999850075e+01,2.999999996258506663e+00,1.000000000005941203e+01,6.600000000000389999e-01,1.570000000000257412e+00,2.870000000000000909e+03,-2.174999999999708944e+00,-4.944999999999814655e+00,1.328273124456335097e+01,-2.234276813741650880e+00
1.999999999999719336e+01,2.999999996757849452e+00,1.000000000005883294e+01,6.600000000001489120e-01,1.570000000000630447e+00,2.870000000000000909e+03,-2.174999999999386979e+00,-4.944999999999784457e+00,1.331690660560546391e+01,-2.148668517143121459e+00
1.999999999999882405e+01,2.999999997313022249e+00,1.000000000003894129e+01,6.599999999999293099e-01,1.570000000000108642e+00,2.870000000000002274e+03,-2.174999999999676081e+00,-4.944999999999453166e+00,1.330408351674467760e+01,-2.380251835433403684e+00
2.000000000000012079e+01,2.999999995746828407e+00,1.000000000000634159e+01,6.600000000000855183e-01,1.569999999999971640e+00,2.869999999999998636e+03,-2.175000000000204547e+00,-4.945000000000511875e+00,1.332782788360899495e+01,-2.305406695329021982e+00
1.999999999999845457e+01,2.999999996997878338e+00,1.000000000000180655e+01,6.600000000001572387e-01,1.570000000000469687e+00,2.869999999999995453e+03,-2.174999999999649880e+00,-4.945000000000073115e+00,1.332356752394311883e+01,-2.287563834360745396e+00
1.999999999999842615e+01,2.999999998034337700e+00,1.000000000003270628e+01,6.600000000001197131e-01,1.570000000000389528e+00,2.869999999999999545e+03,-2.174999999999706279e+00,-4.945000000000051799e+00,1.330206888714197788e+01,-2.306273953783787967e+00
1.999999999999919709e+01,3.000000002160680523e+00,1.000000000015512036e+01,6.599999999999011102e-01,1.570000000000161045e+00,2.870000000000000455e+03,-2.174999999999585487e+00,-4.944999999999174278e+00,1.345828454423238263e+01,-2.424275322232207763e+00
1.999999999999899458e+01,3.000000002827252654e+00,1.000000000009310597e+01,6.600000000001143841e-01,1.570000000000449036e+00,2.870000000000000909e+03,-2.174999999999601474e+00,-4.944999999999847518e+00,1.349593420028886293e+01,-2.475676360840802115e+00
2.000000000000220624e+01,2.999999998662894019e+00,9.999999999943021578e+00,6.599999999995297406e-01,1.569999999998946683e+00,2.869999999999996817e+03,-2.175000000000532285e+00,-4.944999999999274642e+00,1.333688405479790617e+01,-2.167374669648107766e+00
2.000000000000135358e+01,2.999999998117095057e+00,9.999999999968196107e+00,6.599999999996313260e-01,1.569999999999214024e+00,2.869999999999996362e+03,-2.175000000000356426e+00,-4.944999999999362572e+00,1.335338570620794485e+01,-2.117968366545053716e+00
2.000000000000023448e+01,3.000000001458508425e+00,9.999999999999610978e+00,6.599999999996954969e-01,1.569999999999599716e+00,2.869999999999995907e+03,-2.174999999999929212e+00,-4.944999999999070361e+00,1.336514169289945286e+01,-2.098549194263173767e+00
2.000000000000020606e+01,2.999999999738879541e+00,9.999999999989581667e+00,6.600000000001973177e-01,1.570000000000074225e+00,2.870000000000001364e+03,-2.175000000000301803e+00,-4.945000000000900009e+00,1.315794984930090550e+01,-2.215722901509552756e+00
2.000000000000174794e+01,2.999999999769570103e+00,9.999999999941906026e+00,6.599999999999539568e-01,1.569999999999633911e+00,2.869999999999998181e+03,-2.175000000000455458e+00,-4.945000000000301377e+00,1.319875062511420261e+01,-2.221540730496457616e+00
2.000000000000133227e+01,3.000000000111302523e+00,9.999999999934585659e+00,6.599999999999148770e-01,1.569999999999649454e+00,2.869999999999996362e+03,-2.175000000000320011e+00,-4.945000000000046469e+00,1.320824968613778871e+01,-2.256745994776974573e+00
2.000000000000185096e+01,3.000000000212110773e+00,9.999999999913571358e+00,6.599999999999901501e-01,1.569999999999595497e+00,2.870000000000001819e+03,-2.175000000000625100e+00,-4.945000000000642437e+00,1.330265576095636071e+01,-2.232007031746215286e+00
2.000000000000148503e+01,2.999999997385676576e+00,9.999999999968515851e+00,6.600000000000388889e-01,1.569999999999708296e+00,2.869999999999998181e+03,-2.175000000000539391e+00,-4.945000000000697504e+00,1.324124088057926052e+01,-2.266943892761736468e+00
2.000000000000084199e+01,2.999999998881333507e+00,1.000000000001309175e+01,6.599999999999306421e-01,1.569999999999816653e+00,2.870000000000001819e+03,-2.175000000000173905e+00,-4.944999999999945217e+00,1.332932284996922867e+01,-2.320099334315386397e+00
2.000000000000007816e+01,3.000000000256185739e+00,1.000000000004075673e+01,6.599999999997108180e-01,1.569999999999595497e+00,2.869999999999999545e+03,-2.174999999999856826e+00,-4.944999999999030393e+00,1.339802543557351733e+01,-2.252806658624423086e+00
1.999999999999880629e+01,2.999999998853298155e+00,1.000000000001622169e+01,6.600000000001480238e-01,1.570000000000328910e+00,2.869999999999996362e+03,-2.174999999999795541e+00,-4.945000000000232099e+00,1.333769733284219328e+01,-2.283577929391754413e+00
1.999999999999741718e+01,2.999999998706516013e+00,9.999999999995090150e+00,6.600000000001559064e-01,1.570000000000624008e+00,2.869999999999995453e+03,-2.174999999999343014e+00,-4.944999999999749818e+00,1.331027826399584768e+01,-2.312054140193924745e+00
2.000000000000323652e+01,3.000000001272586037e+00,9.999999999989153565e+00,6.599999999998091837e-01,1.569999999998900719e+00,2.869999999999997272e+03,-2.175000000001163780e+00,-4.945000000000860041e+00,1.331049135516097337e+01,-2.417551941820370587e+00
2.000000000000321876e+01,2.999999998847426852e+00,9.999999999955681673e+00,6.599999999996659650e-01,1.569999999998932916e+00,2.869999999999999545e+03,-2.175000000000818723e+00,-4.944999999999997620e+00,1.330589991170970698e+01,-2.342028273348598866e+00
1.999999999999821654e+01,2.999999997803959317e+00,1.000000000007878675e+01,6.600000000002382849e-01,1.570000000000490781e+00,2.870000000000000909e+03,-2.174999999999697398e+00,-4.945000000000379536e+00,1.335334890249079720e+01,-2.387381430091175982e+00
2.000000000000008171e+01,3.000000001271731165e+00,9.999999999982133403e+00,6.599999999999074385e-01,1.569999999999985629e+00,2.869999999999995907e+03,-2.174999999999867928e+00,-4.944999999999502904e+00,1.344400848946033733e+01,-2.377103745715402283e+00
1.999999999999907274e+01,2.999999996851987927e+00,1.000000000000544631e+01,6.600000000002300693e-01,1.570000000000463469e+00,2.869999999999997726e+03,-2.174999999999810640e+00,-4.945000000000435492e+00,1.330391137948569380e+01,-2.292537833208415421e+00
2.000000000000109779e+01,2.999999996275780401e+00,9.999999999966888709e+00,6.600000000000144640e-01,1.569999999999805773e+00,2.869999999999998181e+03,-2.175000000000320899e+00,-4.945000000000386642e+00,1.332302880020331415e+01,-2.293334369181773358e+00
2.000000000000012790e+01,3.000000000439671854e+00,9.999999999972255083e+00,6.599999999999354161e-01,1.569999999999773355e+00,2.869999999999996362e+03,-2.175000000000142375e+00,-4.944999999999988738e+00,1.331533131635606360e+01,-2.312179205911901736e+00
1.999999999999833378e+01,3.000000002302747770e+00,1.000000000003930722e+01,6.599999999998423794e-01,1.570000000000021378e+00,2.870000000000001819e+03,-2.174999999999549516e+00,-4.944999999999124540e+00,1.314594185369245238e+01,-2.280775627686783213e+00
2.000000000000267519e+01,3.000000000427146318e+00,9.999999999989706012e+00,6.599999999998710232e-01,1.569999999999322604e+00,2.869999999999995907e+03,-2.175000000000694822e+00,-4.945000000000372431e+00,1.324837352689667291e+01,-2.269959921947682258e+00
2.000000000000222755e+01,3.000000000121853194e+00,9.999999999982120968e+00,6.599999999998059641e-01,1.569999999999384555e+00,2.869999999999996817e+03,-2.175000000000480771e+00,-4.944999999999931006e+00,1.322684943645392508e+01,-2.247401918992574021e+00
2.000000000000349942e+01,2.999999996863426777e+00,1.000000000000311751e+01,6.600000000000567635e-01,1.569999999999190488e+00,2.870000000000001364e+03,-2.175000000001305445e+00,-4.945000000001639862e+00,1.341437784206430273e+01,-2.229614467845370651e+00
2.000000000000295231e+01,2.999999997225947457e+00,9.999999999961577402e+00,6.600000000000537659e-01,1.569999999999313056e+00,2.870000000000002728e+03,-2.175000000001105604e+00,-4.945000000001428475e+00,1.334145629394613941e+01,-2.177382354259489894e+00
2.000000000000006040e+01,2.999999999921862504e+00,9.999999999940920148e+00,6.600000000001313705e-01,1.570000000000107754e+00,2.870000000000000455e+03,-2.175000000000113065e+00,-4.945000000000452367e+00,1.328506215276788893e+01,-2.138357073332270986e+00
2.000000000000176570e+01,3.000000000511288789e+00,9.999999999939189976e+00,6.600000000000018074e-01,1.569999999999630358e+00,2.869999999999999545e+03,-2.175000000000547384e+00,-4.945000000000570495e+00,1.321776807381052343e+01,-2.128043365608409232e+00
1.999999999999890221e+01,2.999999997622137649e+00,1.000000000001550049e+01,6.599999999998670264e-01,1.570000000000152829e+00,2.869999999999998636e+03,-2.174999999999508660e+00,-4.944999999999033058e+00,1.308138697273814266e+01,-2.101838394123266784e+00
2.000000000000065370e+01,2.999999998229984310e+00,9.999999999985590193e+00,6.599999999997336886e-01,1.569999999999662554e+00,2.870000000000001364e+03,-2.174999999999953193e+00,-4.944999999999143192e+00,1.314385315569258239e+01,-2.115519334669218487e+00
1.999999999999839417e+01,2.999999998615969332e+00,1.000000000001786127e+01,6.599999999999855982e-01,1.570000000000334017e+00,2.870000000000000909e+03,-2.174999999999499778e+00,-4.944999999999402540e+00,1.332098117153726591e+01,-2.261804971133609676e+00
1.999999999999803535e+01,2.999999999237802584e+00,9.999999999973582021e+00,6.600000000002302913e-01,1.570000000000701501e+00,2.870000000000002274e+03,-2.174999999999431832e+00,-4.944999999999969198e+00,1.325051605404269850e+01,-2.243219407014301670e+00
2.000000000000045830e+01,2.999999998950386271e+00,9.999999999948817830e+00,6.600000000000224576e-01,1.569999999999991624e+00,2.870000000000000000e+03,-2.175000000000034017e+00,-4.945000000000035811e+00,1.319196585064810812e+01,-2.333631661601462515e+00
2.000000000000196465e+01,2.999999999476242518e+00,1.000000000001478462e+01,6.599999999997313571e-01,1.569999999998999751e+00,2.870000000000001819e+03,-2.175000000000756106e+00,-4.945000000000128182e+00,1.335891411637305914e+01,-2.224431924719979747e+00
2.000000000000165912e+01,2.999999998712412630e+00,9.999999999991185717e+00,6.599999999998171774e-01,1.569999999999133200e+00,2.870000000000000455e+03,-2.175000000000739231e+00,-4.945000000000366214e+00,1.328613669407646647e+01,-2.165554304112108586e+00
2.000000000000359179e+01,2.999999999606080880e+00,9.999999999960017760e+00,6.599999999998790168e-01,1.569999999998847429e+00,2.869999999999998636e+03,-2.175000000001343192e+00,-4.945000000001243734e+00,1.332229755071522703e+01,-2.312549952738045977e+00
2.000000000000266454e+01,2.999999999236865555e+00,9.999999999935059947e+00,6.600000000001019496e-01,1.569999999999295959e+00,2.869999999999999545e+03,-2.175000000001174438e+00,-4.945000000001672724e+00,1.329617238744557817e+01,-2.303263868097210842e+00
2.000000000000270006e+01,2.999999999527715566e+00,9.999999999963668174e+00,6.599999999997939737e-01,1.569999999998959117e+00,2.869999999999997272e+03,-2.175000000000987033e+00,-4.945000000000567830e+00,1.332830876377915352e+01,-2.269212909690599300e+00
2.000000000000008171e+01,2.999999999438160092e+00,9.999999999976022735e+00,6.600000000000997291e-01,1.570000000000008278e+00,2.869999999999999545e+03,-2.175000000000176126e+00,-4.945000000000470131e+00,1.324477343396856988e+01,-2.165549437963390389e+00
2.000000000000115108e+01,2.999999999247415339e+00,9.999999999977044141e+00,6.599999999999546230e-01,1.569999999999633911e+00,2.869999999999997272e+03,-2.175000000000401279e+00,-4.945000000000306706e+00,1.328525396727529362e+01,-2.156101888533210609e+00
2.000000000000229150e+01,2.999999999094929759e+00,9.999999999959099384e+00,6.599999999999307532e-01,1.569999999999338591e+00,2.869999999999997726e+03,-2.175000000000758771e+00,-4.945000000000653984e+00,1.323722306429614903e+01,-2.129723624799463089e+00
2.000000000000131095e+01,2.999999999692845254e+00,9.999999999950224705e+00,6.600000000000546541e-01,1.569999999999672324e+00,2.869999999999998181e+03,-2.175000000000584244e+00,-4.945000000000820961e+00,1.326500551831566099e+01,-2.232312260213908939e+00
2.000000000000296296e+01,3.000000000048479887e+00,9.999999999970004438e+00,6.599999999999971445e-01,1.569999999999301954e+00,2.869999999999996817e+03,-2.175000000001018563e+00,-4.945000000001133600e+00,1.326066720267176713e+01,-2.273306049359956393e+00
1.999999999999990052e+01,2.999999998367146148e+00,9.999999999954008345e+00,6.599999999999661693e-01,1.569999999999976525e+00,2.869999999999999091e+03,-2.174999999999962963e+00,-4.944999999999885709e+00,1.319081176924422039e+01,-2.278521944757911921e+00
2.000000000000199307e+01,2.999999999130384065e+00,9.999999999964085617e+00,6.599999999999905942e-01,1.569999999999528884e+00,2.870000000000001364e+03,-2.175000000000659739e+00,-4.945000000000733920e+00,1.331691673406796106e+01,-2.127132210072201435e+00
2.000000000000015987e+01,2.999999997707837096e+00,9.999999999950951235e+00,6.599999999999021094e-01,1.569999999999914797e+00,2.869999999999998636e+03,-2.174999999999942091e+00,-4.944999999999661888e+00,1.330240132237335082e+01,-2.275443631738260031e+00
2.000000000000065370e+01,2.999999998259518019e+00,9.999999999986792787e+00,6.599999999996839506e-01,1.569999999999573959e+00,2.870000000000000455e+03,-2.174999999999985167e+00,-4.944999999999090790e+00,1.329813822991241778e+01,-2.292167114237050107e+00
1.999999999999904077e+01,3.000000000173384862e+00,9.999999999950171414e+00,6.600000000001607914e-01,1.570000000000330687e+00,2.870000000000000455e+03,-2.174999999999860822e+00,-4.945000000000329798e+00,1.320522821365712041e+01,-2.221613483262337763e+00
2.000000000000107292e+01,3.000000000609151840e+00,9.999999999966322051e+00,6.599999999997994138e-01,1.569999999999530660e+00,2.870000000000000455e+03,-2.175000000000252065e+00,-4.944999999999727613e+00,1.320691857162244176e+01,-2.161583041056977628e+00
1.999999999999814904e+01,2.999999999905896164e+00,9.999999999998770761e+00,6.599999999998983347e-01,1.570000000000415730e+00,2.870000000000001819e+03,-2.174999999999213340e+00,-4.944999999998748841e+00,1.322000516115530644e+01,-2.207743826101452367e+00
1.999999999999963762e+01,2.999999999290977382e+00,9.999999999993370636e+00,6.599999999997726574e-01,1.569999999999913687e+00,2.870000000000000909e+03,-2.174999999999669864e+00,-4.944999999998908713e+00,1.322678630929249088e+01,-2.247415492323536323e+00
2.000000000000036948e+01,2.999999996090509935e+00,9.999999999937630335e+00,6.600000000002745892e-01,1.570000000000185914e+00,2.870000000000000000e+03,-2.175000000000274269e+00,-4.945000000001061657e+00,1.326820903000976948e+01,-2.172524320929294817e+00
1.999999999999950617e+01,2.999999996870577945e+00,9.999999999969178432e+00,6.600000000003268807e-01,1.570000000000471907e+00,2.869999999999999545e+03,-2.175000000000011813e+00,-4.945000000000923990e+00,1.324608260341545041e+01,-2.226421092304329719e+00
1.999999999999966604e+01,2.999999997947869979e+00,9.999999999896528990e+00,6.600000000000076916e-01,1.570000000000149054e+00,2.869999999999990905e+03,-2.174999999999818634e+00,-4.944999999999788898e+00,1.311107270415919146e+01,-2.256885874954047910e+00
2.000000000000000000e+01,2.999999999359073577e+00,9.999999999917756455e+00,6.599999999999008882e-01,1.569999999999957208e+00,2.869999999999994088e+03,-2.174999999999857270e+00,-4.944999999999514451e+00,1.317924593310597281e+01,-2.253488042701824234e+00
1.999999999999875300e+01,2.999999998811162527e+00,9.999999999971141307e+00,6.600000000000375566e-01,1.570000000000333129e+00,2.869999999999998636e+03,-2.174999999999642775e+00,-4.944999999999707185e+00,1.333782108803707800e+01,-2.323640502477585468e+00
2.000000000000089528e+01,2.999999999641346449e+00,9.999999999966737718e+00,6.599999999999481837e-01,1.569999999999779572e+00,2.869999999999996362e+03,-2.175000000000239186e+00,-4.945000000000114859e+00,1.319558325337417770e+01,-2.360642754607714444e+00
2.000000000000084910e+01,2.999999998680367597e+00,9.999999999959751307e+00,6.600000000000209033e-01,1.569999999999832418e+00,2.870000000000000909e+03,-2.175000000000340439e+00,-4.945000000000451479e+00,1.318053589692541649e+01,-2.266544564583808263e+00
2.000000000000057909e+01,3.000000000690357105e+00,9.999999999963412378e+00,6.600000000000113554e-01,1.569999999999844853e+00,2.870000000000000000e+03,-2.175000000000252065e+00,-4.945000000000284501e+00,1.326802109483946523e+01,-2.247364028902013366e+00
2.000000000000041211e+01,2.999999999293494479e+00,9.999999999984645171e+00,6.600000000000270095e-01,1.569999999999866613e+00,2.870000000000000000e+03,-2.175000000000253397e+00,-4.945000000000328910e+00,1.328345424240064077e+01,-2.262694516732873584e+00
1.999999999999456790e+01,2.999999999924710004e+00,1.000000000001193889e+01,6.600000000001995382e-01,1.570000000001495755e+00,2.869999999999998636e+03,-2.174999999998275424e+00,-4.944999999998627160e+00,1.323454965005798023e+01,-2.159771685652711604e+00
1.999999999999705480e+01,2.999999998910308552e+00,1.000000000004045297e+01,6.600000000000090239e-01,1.570000000000586926e+00,2.869999999999998181e+03,-2.174999999999136513e+00,-4.944999999999084572e+00,1.344215872808870138e+01,-2.191301784775954165e+00
1.999999999999594280e+01,2.999999999681112861e+00,1.000000000003144152e+01,6.600000000001974287e-01,1.570000000001019025e+00,2.870000000000001364e+03,-2.174999999998883826e+00,-4.944999999999389217e+00,1.348111041103872054e+01,-2.546918063974077384e+00
2.000000000000071410e+01,2.999999998659856448e+00,1.000000000000286704e+01,6.600000000000113554e-01,1.569999999999771356e+00,2.870000000000000455e+03,-2.175000000000297806e+00,-4.945000000000399965e+00,1.361761691478730896e+01,-2.549802449450318420e+00
2.000000000000131095e+01,3.000000000524851718e+00,1.000000000002267164e+01,6.599999999998226174e-01,1.569999999999438289e+00,2.870000000000001364e+03,-2.175000000000362643e+00,-4.944999999999944329e+00,1.345707417354409152e+01,-2.171083003622555907e+00
1.999999999999959854e+01,2.999999999483779156e+00,9.999999999992418509e+00,6.599999999999384137e-01,1.569999999999945439e+00,2.869999999999996817e+03,-2.174999999999893685e+00,-4.944999999999693863e+00,1.331317634592618226e+01,-2.439949710252316439e+00
2.000000000000241585e+01,2.999999998658616107e+00,9.999999999998570033e+00,6.599999999999445199e-01,1.569999999999508233e+00,2.870000000000000455e+03,-2.175000000000663292e+00,-4.945000000000607798e+00,1.345671617800344855e+01,-2.424976905299226715e+00
2.000000000000002132e+01,2.999999997128200313e+00,9.999999999978799181e+00,6.599999999999631717e-01,1.569999999999982299e+00,2.869999999999994088e+03,-2.174999999999947864e+00,-4.944999999999800444e+00,1.322345048682258195e+01,-2.294814646628794197e+00
2.000000000000088818e+01,2.999999996611259601e+00,1.000000000001558398e+01,6.599999999999420774e-01,1.569999999999832418e+00,2.869999999999995907e+03,-2.175000000000151257e+00,-4.944999999999979856e+00,1.320050508168727887e+01,-2.289313913414261048e+00
1.999999999999905143e+01,3.000000000694615920e+00,1.000000000001251266e+01,6.599999999999445199e-01,1.570000000000234097e+00,2.870000000000001364e+03,-2.174999999999569500e+00,-4.944999999999323492e+00,1.349402553593749232e+01,-2.372554954164051821e+00
1.999999999999988987e+01,3.000000002060469573e+00,1.000000000010936319e+01,6.599999999998590328e-01,1.569999999999898588e+00,2.870000000000001364e+03,-2.174999999999883471e+00,-4.944999999999449614e+00,1.328622862687896422e+01,-2.335665668789309812e+00
2.000000000000168754e+01,2.999999999411385954e+00,1.000000000001923617e+01,6.600000000000987299e-01,1.569999999999674545e+00,2.869999999999999091e+03,-2.175000000000697042e+00,-4.945000000001072316e+00,1.319088898554352518e+01,-2.304933613134981130e+00
2.000000000000050093e+01,2.999999999126822470e+00,9.999999999964222397e+00,6.599999999999441869e-01,1.569999999999850404e+00,2.870000000000000455e+03,-2.175000000000107736e+00,-4.944999999999962981e+00,1.330235309646294617e+01,-2.295505942333984084e+00
2.000000000000102673e+01,2.999999999245564375e+00,9.999999999958971486e+00,6.599999999998814593e-01,1.569999999999659224e+00,2.870000000000001819e+03,-2.175000000000230749e+00,-4.944999999999919460e+00,1.322693406965107243e+01,-2.261166143302344889e+00
2.000000000000001776e+01,2.999999999386593341e+00,9.999999999971720399e+00,6.600000000000202371e-01,1.570000000000072227e+00,2.869999999999999545e+03,-2.174999999999986500e+00,-4.945000000000051799e+00,1.320835925296150393e+01,-2.318395372875254878e+00
1.999999999999990408e+01,2.999999999417366059e+00,9.999999999968846254e+00,6.600000000000632028e-01,1.570000000000086438e+00,2.870000000000000000e+03,-2.175000000000061551e+00,-4.945000000000293383e+00,1.323090249844478983e+01,-2.377637015037714630e+00
1.999999999999995737e+01,2.999999999409659335e+00,9.999999999979374721e+00,6.600000000001720046e-01,1.570000000000126850e+00,2.870000000000001819e+03,-2.175000000000114397e+00,-4.945000000000643325e+00,1.322156528855564694e+01,-2.309769082518105421e+00
2.000000000000187228e+01,2.999999998231846376e+00,1.000000000001674039e+01,6.599999999999258682e-01,1.569999999999488693e+00,2.870000000000002274e+03,-2.175000000000561151e+00,-4.945000000000437268e+00,1.321535202008452359e+01,-2.345716721531407867e+00
2.000000000000184741e+01,3.000000002346170369e+00,1.000000000001141309e+01,6.599999999998705791e-01,1.569999999999423190e+00,2.870000000000000000e+03,-2.175000000000564260e+00,-4.945000000000300489e+00,1.334717889294023685e+01,-2.277127235286819040e+00
2.000000000000153477e+01,3.000000000832215630e+00,9.999999999973343989e+00,6.599999999999138778e-01,1.569999999999536433e+00,2.869999999999998636e+03,-2.175000000000470557e+00,-4.945000000000313811e+00,1.327157285845470014e+01,-2.197713205732594322e+00
2.000000000000110134e+01,3.000000000344719808e+00,9.999999999959474195e+00,6.599999999998006350e-01,1.569999999999507345e+00,2.869999999999994998e+03,-2.175000000000295142e+00,-4.944999999999794227e+00,1.334982839725254244e+01,-2.256537320473038122e+00
2.000000000000061462e+01,3.000000000503557196e+00,9.999999999985583088e+00,6.599999999999540679e-01,1.569999999999668550e+00,2.869999999999994543e+03,-2.175000000000353761e+00,-4.945000000000270290e+00,1.337786833442190826e+01,-2.219246279420103996e+00
2.000000000000468248e+01,2.999999998050027816e+00,9.999999999971239006e+00,6.599999999998337197e-01,1.569999999998745066e+00,2.869999999999999091e+03,-2.175000000001484857e+00,-4.945000000001191331e+00,1.316733534920204107e+01,-2.353313784858205082e+00
2.000000000000181544e+01,2.999999998823457581e+00,9.999999999964430231e+00,6.599999999999086597e-01,1.569999999999515339e+00,2.870000000000000000e+03,-2.175000000000529177e+00,-4.945000000000321805e+00,1.313547739876765519e+01,-2.351942072828296038e+00
2.000000000000303757e+01,2.999999997673628460e+00,9.999999999972954967e+00,6.599999999998541478e-01,1.569999999999150742e+00,2.870000000000001819e+03,-2.175000000000933742e+00,-4.945000000000593587e+00,1.312432515310495695e+01,-2.048339550949810572e+00
2.000000000000240163e+01,2.999999995977796985e+00,9.999999999970805575e+00,6.599999999998413802e-01,1.569999999999285079e+00,2.870000000000000455e+03,-2.175000000000692602e+00,-4.945000000000313811e+00,1.320911205424704349e+01,-2.146761653434213102e+00
2.000000000000065370e+01,2.999999999715785126e+00,1.000000000002588862e+01,6.599999999997809841e-01,1.569999999999554197e+00,2.870000000000000909e+03,-2.175000000000193445e+00,-4.944999999999612150e+00,1.332055186743535558e+01,-2.360284261856020915e+00
1.999999999999972644e+01,2.999999997604081869e+00,9.999999999986304289e+00,6.599999999998132916e-01,1.569999999999833085e+00,2.870000000000001819e+03,-2.174999999999812417e+00,-4.944999999999291518e+00,1.326642647765670624e+01,-2.275781476735967868e+00
1.999999999999969091e+01,2.999999996435424698e+00,9.999999999967480235e+00,6.599999999998890088e-01,1.569999999999848184e+00,2.870000000000001364e+03,-2.174999999999958966e+00,-4.944999999999675211e+00,1.319008132084628926e+01,-2.165653621778740767e+00
1.999999999999739941e+01,2.999999998076765095e+00,9.999999999950343721e+00,6.600000000003571898e-01,1.570000000000864926e+00,2.869999999999995453e+03,-2.174999999999441158e+00,-4.945000000000407070e+00,1.314684418716381664e+01,-2.319111517605728867e+00
1.999999999999785061e+01,2.999999998582119964e+00,9.999999999951553420e+00,6.600000000002614886e-01,1.570000000000680629e+00,2.869999999999995453e+03,-2.174999999999516209e+00,-4.945000000000209894e+00,1.318213058605816279e+01,-2.285815052303388661e+00
2.000000000000301625e+01,2.999999998145610469e+00,9.999999999958495422e+00,6.599999999998504840e-01,1.569999999999191376e+00,2.869999999999995453e+03,-2.175000000000860023e+00,-4.945000000000500329e+00,1.320956617014559242e+01,-2.369973758340981895e+00
2.000000000000380140e+01,2.999999997934597484e+00,9.999999999961993069e+00,6.599999999996890576e-01,1.569999999998842988e+00,2.869999999999996362e+03,-2.175000000001013234e+00,-4.945000000000240092e+00,1.320446125283384120e+01,-2.301200014796057403e+00
2.000000000000176570e+01,2.999999999787394511e+00,1.000000000000612843e+01,6.600000000001030598e-01,1.569999999999708962e+00,2.870000000000001819e+03,-2.175000000000617550e+00,-4.945000000000950635e+00,1.348887392301178600e+01,-2.379134503212120499e+00
2.000000000000044764e+01,3.000000000008139267e+00,1.000000000008471090e+01,6.599999999999065503e-01,1.569999999999737383e+00,2.870000000000000909e+03,-2.175000000000223199e+00,-4.944999999999993179e+00,1.360978486576392754e+01,-2.029128939121193742e+00
2.000000000000054001e+01,2.999999998868334572e+00,9.999999999914011894e+00,6.600000000000945111e-01,1.569999999999978524e+00,2.870000000000000909e+03,-2.175000000000261391e+00,-4.945000000000539409e+00,1.340560269674463534e+01,-2.220429072972922580e+00
2.000000000000079226e+01,2.999999999388857752e+00,9.999999999895521796e+00,6.599999999999487388e-01,1.569999999999813989e+00,2.869999999999999545e+03,-2.175000000000205436e+00,-4.945000000000053575e+00,1.333157660843580850e+01,-2.244945131552531059e+00
2.000000000000258993e+01,3.000000000724130977e+00,9.999999999917314142e+00,6.600000000000566525e-01,1.569999999999535989e+00,2.870000000000000909e+03,-2.175000000000819167e+00,-4.945000000001043894e+00,1.326448625179634355e+01,-2.223138806013720270e+00
2.000000000000174438e+01,3.000000001501967883e+00,9.999999999897021041e+00,6.600000000000916245e-01,1.569999999999735607e+00,2.870000000000001364e+03,-2.175000000000586464e+00,-4.945000000000884910e+00,1.327551061542432898e+01,-2.231265249336634948e+00
1.999999999999754863e+01,3.000000001026440710e+00,9.999999999932823513e+00,6.600000000002208544e-01,1.570000000000728591e+00,2.870000000000000455e+03,-2.174999999999410072e+00,-4.944999999999983409e+00,1.344785481164026564e+01,-2.571683804024478714e+00
1.999999999999795008e+01,3.000000002980739655e+00,1.000000000003502265e+01,6.600000000000865175e-01,1.570000000000715712e+00,2.869999999999995907e+03,-2.174999999999194245e+00,-4.944999999999278195e+00,1.354768488561238016e+01,-2.381797606794405997e+00
2.000000000000040856e+01,3.000000003226993339e+00,9.999999999975285547e+00,6.599999999997757660e-01,1.569999999999659224e+00,2.869999999999997726e+03,-2.174999999999990941e+00,-4.944999999999385665e+00,1.345497912454885636e+01,-2.333594161505697873e+00
2.000000000000064304e+01,3.000000001890684942e+00,9.999999999993084643e+00,6.600000000002209655e-01,1.569999999999958984e+00,2.870000000000002274e+03,-2.175000000000485212e+00,-4.945000000001237517e+00,1.321912441065584964e+01,-2.120631602746404720e+00
1.999999999999805311e+01,3.000000002339066718e+00,9.999999999975988985e+00,6.600000000000254552e-01,1.570000000000552509e+00,2.869999999999993634e+03,-2.174999999999293721e+00,-4.944999999999235563e+00,1.309530081760141584e+01,-2.162364449129346777e+00
2.000000000000064304e+01,2.999999997255222706e+00,9.999999999952843055e+00,6.599999999999535127e-01,1.569999999999837748e+00,2.869999999999997272e+03,-2.175000000000168576e+00,-4.945000000000042029e+00,1.335787549076709446e+01,-2.293570609910506430e+00
1.999999999999945288e+01,2.999999997614673841e+00,9.999999999936180828e+00,6.600000000001975398e-01,1.570000000000318030e+00,2.869999999999994998e+03,-2.174999999999998490e+00,-4.945000000000557172e+00,1.329948514654722480e+01,-2.212324322875641958e+00
1.999999999999862155e+01,2.999999997957172315e+00,9.999999999977610798e+00,6.600000000001138289e-01,1.570000000000404405e+00,2.870000000000000000e+03,-2.174999999999565059e+00,-4.944999999999804885e+00,1.335466772838902472e+01,-2.246864804272300731e+00
1.999999999999931433e+01,2.999999999519209926e+00,1.000000000001903722e+01,6.600000000000244560e-01,1.570000000000175699e+00,2.869999999999999545e+03,-2.174999999999735589e+00,-4.944999999999743601e+00,1.341223067366879285e+01,-2.268659940003300068e+00
1.999999999999917932e+01,2.999999998470906704e+00,1.000000000001991651e+01,6.599999999999108802e-01,1.570000000000275175e+00,2.870000000000001364e+03,-2.174999999999519762e+00,-4.944999999999128981e+00,1.335942831332801362e+01,-2.227427227879684501e+00
1.999999999999903011e+01,2.999999998425578518e+00,1.000000000000656186e+01,6.599999999999600631e-01,1.570000000000327356e+00,2.870000000000002274e+03,-2.174999999999503331e+00,-4.944999999999273754e+00,1.330730343904506796e+01,-2.225773089710276320e+00
2.000000000000036948e+01,2.999999998145733482e+00,9.999999999884240154e+00,6.599999999998091837e-01,1.569999999999745821e+00,2.869999999999985448e+03,-2.174999999999958966e+00,-4.944999999999384777e+00,1.305632159007267035e+01,-2.285442838198807447e+00
1.999999999999999289e+01,2.999999998138555224e+00,9.999999999895418767e+00,6.599999999998352740e-01,1.569999999999862839e+00,2.869999999999985903e+03,-2.174999999999838618e+00,-4.944999999999338591e+00,1.306999976096513372e+01,-2.259200255081976749e+00
1.999999999999849010e+01,2.999999998933871925e+00,9.999999999904323644e+00,6.599999999999640599e-01,1.570000000000319362e+00,2.869999999999989541e+03,-2.174999999999451372e+00,-4.944999999999291518e+00,1.330709593804722957e+01,-2.101887208234509252e+00
1.999999999999909051e+01,2.999999998562927317e+00,9.999999999889189084e+00,6.599999999998152900e-01,1.569999999999972529e+00,2.869999999999991360e+03,-2.174999999999613465e+00,-4.944999999999056151e+00,1.331225859361089370e+01,-2.109752812588794324e+00
1.999999999999823430e+01,2.999999999817630325e+00,9.999999999846352239e+00,6.599999999999056621e-01,1.570000000000316476e+00,2.869999999999990450e+03,-2.174999999999330136e+00,-4.944999999998991314e+00,1.306778642466590057e+01,-2.179089397203136436e+00
1.999999999999851141e+01,3.000000000000651479e+00,9.999999999855507582e+00,6.600000000001303713e-01,1.570000000000344453e+00,2.869999999999995453e+03,-2.174999999999752465e+00,-4.945000000000142393e+00,1.302460207020952154e+01,-2.144734735230273248e+00
1.999999999999851141e+01,3.000000000183070448e+00,9.999999999865345046e+00,6.600000000001676748e-01,1.570000000000356666e+00,2.869999999999995453e+03,-2.174999999999803979e+00,-4.945000000000314699e+00,1.308393376168540811e+01,-2.158541329797682540e+00
1.999999999999839062e+01,3.000000001673136740e+00,9.999999999846693299e+00,6.600000000000747491e-01,1.570000000000369988e+00,2.869999999999991360e+03,-2.174999999999595257e+00,-4.944999999999807550e+00,1.322158892845242661e+01,-2.013108411917918339e+00
2.000000000000119726e+01,3.000000002800333299e+00,9.999999999845622156e+00,6.599999999997173683e-01,1.569999999999450280e+00,2.869999999999989996e+03,-2.175000000000211209e+00,-4.944999999999462936e+00,1.312574544374661123e+01,-2.121373412575716877e+00
1.999999999999925393e+01,3.000000004359651307e+00,9.999999999884270352e+00,6.600000000000389999e-01,1.570000000000277840e+00,2.869999999999988631e+03,-2.174999999999691180e+00,-4.944999999999764029e+00,1.298758004415246248e+01,-2.395830946339005951e+00
2.000000000000202149e+01,3.000000001416864404e+00,1.000000000002322409e+01,6.600000000000519895e-01,1.569999999999737161e+00,2.870000000000000909e+03,-2.175000000000584244e+00,-4.945000000000726814e+00,1.368929227030899121e+01,-2.501439092441830159e+00
2.000000000000369837e+01,3.000000002814008582e+00,9.999999999970613729e+00,6.599999999999596190e-01,1.569999999999057039e+00,2.869999999999999091e+03,-2.175000000001282796e+00,-4.945000000001326335e+00,1.355342103531946307e+01,-2.571082371606324912e+00
2.000000000000007105e+01,2.999999996979568095e+00,1.000000000001545430e+01,6.599999999998988898e-01,1.569999999999816653e+00,2.870000000000000455e+03,-2.175000000000052669e+00,-4.944999999999809326e+00,1.323313274165377784e+01,-2.084597607398895214e+00
2.000000000000024869e+01,2.999999997895191672e+00,1.000000000000305178e+01,6.599999999999938138e-01,1.569999999999810436e+00,2.870000000000000455e+03,-2.175000000000231193e+00,-4.945000000000284501e+00,1.319332265629421386e+01,-2.111016321319170608e+00
2.000000000000048672e+01,2.999999999345460022e+00,9.999999999968864017e+00,6.600000000001642331e-01,1.570000000000109530e+00,2.870000000000001819e+03,-2.175000000000222311e+00,-4.945000000000669083e+00,1.315218309185414824e+01,-2.181809916415728523e+00
1.999999999999990408e+01,2.999999997616983549e+00,9.999999999949000795e+00,6.600000000002130829e-01,1.570000000000331131e+00,2.870000000000000000e+03,-2.175000000000017586e+00,-4.945000000000576712e+00,1.328220280232102546e+01,-2.219486857497810384e+00
1.999999999999927169e+01,2.999999997847117239e+00,9.999999999945579532e+00,6.600000000001788880e-01,1.570000000000466800e+00,2.870000000000000000e+03,-2.174999999999754685e+00,-4.945000000000183249e+00,1.327885058006499719e+01,-2.153979643682147227e+00
2.000000000000089884e+01,2.999999998586309946e+00,1.000000000002992095e+01,6.599999999998782396e-01,1.569999999999648788e+00,2.869999999999995907e+03,-2.175000000000246736e+00,-4.944999999999890150e+00,1.325833339214575446e+01,-2.249288992372228790e+00
2.000000000000063238e+01,2.999999999135964934e+00,1.000000000004992806e+01,6.599999999998767963e-01,1.569999999999657891e+00,2.869999999999998636e+03,-2.175000000000209877e+00,-4.944999999999880380e+00,1.333138577945145720e+01,-2.242987478628468700e+00
2.000000000000228084e+01,3.000000001851311993e+00,9.999999999970178521e+00,6.599999999998767963e-01,1.569999999999276863e+00,2.870000000000001364e+03,-2.175000000000761879e+00,-4.945000000000466578e+00,1.327989449224032903e+01,-2.316213498192619458e+00
2.000000000000092726e+01,3.000000003017515571e+00,9.999999999948011364e+00,6.599999999998831246e-01,1.569999999999618812e+00,2.870000000000000455e+03,-2.175000000000252953e+00,-4.944999999999901696e+00,1.320697135907246533e+01,-2.229654495571584683e+00
2.000000000000017764e+01,3.000000000055721650e+00,1.000000000006173195e+01,6.600000000000901812e-01,1.569999999999877272e+00,2.870000000000000909e+03,-2.175000000000338218e+00,-4.945000000000693063e+00,1.334691011238349390e+01,-2.144388301497285987e+00
2.000000000000079581e+01,3.000000000072791106e+00,1.000000000005485745e+01,6.599999999999881517e-01,1.569999999999627915e+00,2.870000000000000455e+03,-2.175000000000461675e+00,-4.945000000000558948e+00,1.334109415461475656e+01,-2.154293787053959353e+00
1.999999999999936762e+01,3.000000000034337422e+00,1.000000000004175504e+01,6.599999999998956701e-01,1.569999999999893481e+00,2.870000000000002274e+03,-2.174999999999892797e+00,-4.944999999999599716e+00,1.327599709856760768e+01,-2.235244609717806252e+00
1.999999999999849010e+01,2.999999999621298041e+00,1.000000000001225509e+01,6.599999999999611733e-01,1.570000000000204343e+00,2.870000000000000455e+03,-2.174999999999621902e+00,-4.944999999999485141e+00,1.320629369282633014e+01,-2.231906005617132926e+00
1.999999999999856826e+01,2.999999999784932037e+00,1.000000000001409717e+01,6.600000000001172706e-01,1.570000000000365770e+00,2.870000000000000909e+03,-2.174999999999720046e+00,-4.944999999999999396e+00,1.331186064161102678e+01,-2.159978227800239736e+00
2.000000000000028066e+01,3.000000000468938222e+00,1.000000000004375700e+01,6.599999999998433786e-01,1.569999999999660112e+00,2.869999999999999091e+03,-2.175000000000122835e+00,-4.944999999999703633e+00,1.319219537848393209e+01,-2.114846247341245267e+00
1.999999999999839062e+01,3.000000000255371280e+00,1.000000000003013767e+01,6.600000000000350031e-01,1.570000000000281171e+00,2.870000000000000000e+03,-2.174999999999583711e+00,-4.944999999999656559e+00,1.319752157386056091e+01,-2.140693807109518509e+00
1.999999999999846167e+01,2.999999998720721095e+00,9.999999999939069184e+00,6.600000000000389999e-01,1.570000000000245644e+00,2.869999999999996362e+03,-2.174999999999681854e+00,-4.944999999999795115e+00,1.340143822268971974e+01,-2.117972276341693494e+00
2.000000000000079581e+01,3.000000000401501943e+00,9.999999999965769604e+00,6.600000000000936229e-01,1.569999999999743379e+00,2.869999999999997272e+03,-2.175000000000544720e+00,-4.945000000000923990e+00,1.333237493534094398e+01,-2.084956523465858691e+00
2.000000000000063594e+01,2.999999999677197327e+00,9.999999999954431118e+00,6.599999999999954792e-01,1.569999999999748264e+00,2.869999999999994998e+03,-2.175000000000343992e+00,-4.945000000000388418e+00,1.325733722192559938e+01,-2.033917111953864598e+00
2.000000000000026645e+01,3.000000002305841296e+00,9.999999999968206765e+00,6.600000000000491029e-01,1.569999999999962093e+00,2.869999999999997726e+03,-2.175000000000133049e+00,-4.945000000000281837e+00,1.351071448435763500e+01,-2.001174605570803067e+00
2.000000000000048317e+01,3.000000002464533466e+00,1.000000000005632295e+01,6.600000000001637890e-01,1.570000000000004059e+00,2.870000000000002728e+03,-2.175000000000327560e+00,-4.945000000000837836e+00,1.321513138126992537e+01,-2.375135573625673402e+00
1.999999999999830536e+01,3.000000002398040877e+00,9.999999999995230482e+00,6.600000000002608225e-01,1.570000000000604023e+00,2.870000000000000455e+03,-2.174999999999688960e+00,-4.945000000000413287e+00,1.317626946666623766e+01,-2.267016840299413527e+00
2.000000000000005684e+01,3.000000002194377124e+00,1.000000000001057465e+01,6.600000000001591260e-01,1.570000000000113083e+00,2.870000000000002728e+03,-2.175000000000149480e+00,-4.945000000000615792e+00,1.302916870717356090e+01,-2.182019613609206488e+00
2.000000000000000355e+01,3.000000001943306405e+00,9.999999999988785859e+00,6.600000000000461053e-01,1.570000000000101092e+00,2.870000000000001364e+03,-2.174999999999962963e+00,-4.945000000000032259e+00,1.312981468095199666e+01,-2.320297862005342715e+00
2.000000000000109068e+01,3.000000001814438377e+00,9.999999999980088816e+00,6.600000000000325606e-01,1.569999999999763585e+00,2.870000000000001819e+03,-2.175000000000434142e+00,-4.945000000000582929e+00,1.314977194279416395e+01,-2.232865349379098419e+00
2.000000000000067857e+01,2.999999999958553598e+00,9.999999999984233057e+00,6.599999999999919265e-01,1.569999999999807105e+00,2.870000000000001819e+03,-2.175000000000269829e+00,-4.945000000000314699e+00,1.317735397055175817e+01,-2.234130762922524216e+00
1.999999999999873879e+01,2.999999999501779424e+00,9.999999999890798463e+00,6.600000000002519407e-01,1.570000000000514984e+00,2.869999999999995453e+03,-2.174999999999793765e+00,-4.945000000000531415e+00,1.295420901893951893e+01,-2.459761933118984611e+00
2.000000000000114753e+01,3.000000000526964694e+00,9.999999999978195220e+00,6.600000000001523537e-01,1.569999999999915241e+00,2.870000000000000909e+03,-2.175000000000543832e+00,-4.945000000001077645e+00,1.343535999463932917e+01,-2.505680535261410213e+00
2.000000000000001421e+01,2.999999998951636382e+00,9.999999999962190245e+00,6.600000000002024247e-01,1.570000000000222995e+00,2.869999999999997726e+03,-2.175000000000104183e+00,-4.945000000000644214e+00,1.335931792293490261e+01,-2.249588002403171583e+00
2.000000000000242295e+01,3.000000001425691565e+00,9.999999999966004083e+00,6.599999999999957012e-01,1.569999999999392770e+00,2.870000000000000455e+03,-2.175000000000852030e+00,-4.945000000000921325e+00,1.330350192639987306e+01,-2.181150860441271266e+00
2.000000000000185096e+01,3.000000000560461455e+00,9.999999999974274800e+00,6.599999999998785727e-01,1.569999999999434515e+00,2.870000000000000909e+03,-2.175000000000536282e+00,-4.945000000000236540e+00,1.327758906974608522e+01,-2.184228453443446849e+00
1.999999999999953104e+01,3.000000001398094085e+00,9.999999999984295229e+00,6.600000000003075629e-01,1.570000000000262075e+00,2.870000000000001819e+03,-2.175000000000256062e+00,-4.945000000001206431e+00,1.336895212647378450e+01,-2.110608410350178321e+00
1.999999999999993605e+01,2.999999999231947712e+00,9.999999999962021491e+00,6.600000000001599032e-01,1.570000000000163931e+00,2.869999999999999545e+03,-2.175000000000091305e+00,-4.945000000000555396e+00,1.317557057494670225e+01,-2.266029950925162240e+00
1.999999999999962697e+01,3.000000001143531936e+00,1.000000000006926726e+01,6.599999999999275335e-01,1.569999999999919238e+00,2.870000000000001364e+03,-2.174999999999990496e+00,-4.944999999999826201e+00,1.326973223483006059e+01,-2.329402444543005046e+00
1.999999999999972289e+01,3.000000000547497159e+00,1.000000000005797318e+01,6.599999999999980327e-01,1.569999999999956763e+00,2.870000000000001819e+03,-2.175000000000081979e+00,-4.945000000000148610e+00,1.330074719737026179e+01,-2.324866500133906388e+00
1.999999999999884892e+01,3.000000001720702691e+00,1.000000000001282352e+01,6.600000000003011236e-01,1.570000000000620899e+00,2.870000000000002274e+03,-2.174999999999812417e+00,-4.945000000000675300e+00,1.349050892654642375e+01,-2.375785752490109370e+00
1.999999999999958078e+01,2.999999999787002380e+00,1.000000000001335820e+01,6.600000000000583178e-01,1.570000000000180806e+00,2.870000000000000455e+03,-2.174999999999893685e+00,-4.945000000000043805e+00,1.337236610364464262e+01,-2.278528949978185114e+00
1.999999999999932143e+01,3.000000000061617822e+00,1.000000000004084733e+01,6.600000000001268186e-01,1.570000000000282947e+00,2.870000000000000455e+03,-2.174999999999882139e+00,-4.945000000000231211e+00,1.347528415237931121e+01,-2.315910306001282670e+00
1.999999999999829470e+01,3.000000002787264197e+00,9.999999999967286612e+00,6.600000000001006173e-01,1.570000000000620011e+00,2.870000000000000455e+03,-2.174999999999319922e+00,-4.944999999999488693e+00,1.313051082681137416e+01,-2.229102357964782843e+00
1.999999999999748468e+01,3.000000002081329775e+00,1.000000000000660449e+01,6.600000000001338130e-01,1.570000000000800089e+00,2.870000000000000000e+03,-2.174999999999179146e+00,-4.944999999999405205e+00,1.312022480394343660e+01,-2.306792075697396083e+00
2.000000000000002842e+01,2.999999999883941726e+00,9.999999999987021937e+00,6.599999999998503730e-01,1.570000000000008500e+00,2.869999999999996817e+03,-2.174999999999694733e+00,-4.944999999999140528e+00,1.332940056674757479e+01,-2.132928280085784500e+00
2.000000000000005329e+01,3.000000000128208555e+00,9.999999999949121587e+00,6.599999999997792077e-01,1.569999999999915907e+00,2.869999999999993179e+03,-2.174999999999660538e+00,-4.944999999998914930e+00,1.333714677676450044e+01,-2.141105302364315399e+00
1.999999999999826272e+01,3.000000001134051963e+00,9.999999999974667375e+00,6.600000000001008393e-01,1.570000000000624452e+00,2.869999999999990905e+03,-2.174999999999373657e+00,-4.944999999999502016e+00,1.316433412700263794e+01,-2.279429523159849147e+00
1.999999999999754863e+01,3.000000000330434347e+00,9.999999999933734784e+00,6.600000000000648681e-01,1.570000000000759455e+00,2.869999999999991815e+03,-2.174999999999096101e+00,-4.944999999999092566e+00,1.318053109089630226e+01,-2.206077767661273281e+00
1.999999999999603872e+01,2.999999999998860467e+00,9.999999999963039343e+00,6.600000000001912115e-01,1.570000000001068097e+00,2.869999999999997726e+03,-2.174999999998854960e+00,-4.944999999999309281e+00,1.327524148489310996e+01,-2.367987448032733422e+00
1.999999999999855405e+01,3.000000001913381009e+00,1.000000000000517808e+01,6.600000000001392531e-01,1.570000000000435936e+00,2.870000000000000455e+03,-2.174999999999618794e+00,-4.944999999999954099e+00,1.346341637389161150e+01,-2.485224402719003578e+00
1.999999999999760902e+01,2.999999999534863626e+00,9.999999999955173635e+00,6.600000000000919576e-01,1.570000000000529861e+00,2.869999999999999545e+03,-2.174999999999358558e+00,-4.944999999999566853e+00,1.339743538575004500e+01,-2.375568458436206676e+00
2.000000000000018119e+01,3.000000002349878514e+00,9.999999999988579802e+00,6.600000000001399192e-01,1.570000000000012053e+00,2.869999999999998636e+03,-2.175000000000297806e+00,-4.945000000000753460e+00,1.337229018835006755e+01,-2.307380716209574967e+00
2.000000000000204992e+01,3.000000002942420085e+00,9.999999999988007815e+00,6.599999999999633937e-01,1.569999999999338369e+00,2.870000000000000909e+03,-2.175000000000872014e+00,-4.945000000000903562e+00,1.332727261526798657e+01,-2.219600881642149304e+00
2.000000000000077449e+01,3.000000002357101625e+00,9.999999999966934894e+00,6.599999999999678346e-01,1.569999999999783791e+00,2.869999999999998181e+03,-2.175000000000220535e+00,-4.945000000000180584e+00,1.337100962664528581e+01,-2.170022069630654471e+00
1.999999999999997158e+01,3.000000001804607574e+00,9.999999999970995646e+00,6.600000000000076916e-01,1.569999999999899698e+00,2.870000000000000000e+03,-2.175000000000141931e+00,-4.945000000000203677e+00,1.337712837182377434e+01,-2.287670617123014782e+00
1.999999999999787903e+01,3.000000002949732458e+00,1.000000000002395595e+01,6.600000000000811884e-01,1.570000000000408846e+00,2.870000000000003638e+03,-2.174999999999493561e+00,-4.944999999999684981e+00,1.316335483992728683e+01,-2.217918995331572773e+00
1.999999999999713296e+01,3.000000003229248424e+00,1.000000000004481571e+01,6.600000000002534950e-01,1.570000000000728368e+00,2.870000000000001364e+03,-2.174999999999409628e+00,-4.945000000000107754e+00,1.326628139146722951e+01,-2.243540678335978811e+00
1.999999999999982592e+01,2.999999997846858779e+00,1.000000000005443468e+01,6.599999999998878986e-01,1.570000000000018714e+00,2.869999999999999545e+03,-2.174999999999790212e+00,-4.944999999999426521e+00,1.327657830447317622e+01,-2.229280862236722172e+00
2.000000000000109779e+01,2.999999997187983602e+00,1.000000000011323742e+01,6.600000000000878497e-01,1.569999999999976747e+00,2.869999999999998636e+03,-2.175000000000275602e+00,-4.945000000000532303e+00,1.326936240125401412e+01,-2.265500259858611365e+00
1.999999999999752376e+01,3.000000000130813138e+00,9.999999999985510257e+00,6.600000000002224088e-01,1.570000000000801643e+00,2.869999999999994088e+03,-2.174999999999325251e+00,-4.944999999999898144e+00,1.324709159538202030e+01,-2.318995042180291843e+00
2.000000000000259348e+01,2.999999999021842001e+00,9.999999999998268052e+00,6.599999999996435385e-01,1.569999999999106999e+00,2.869999999999997726e+03,-2.175000000000585576e+00,-4.944999999999661000e+00,1.323653803435449205e+01,-2.296592498550676709e+00
2.000000000000083134e+01,2.999999997184989997e+00,1.000000000000925304e+01,6.599999999998603650e-01,1.569999999999694307e+00,2.870000000000000455e+03,-2.175000000000086420e+00,-4.944999999999695639e+00,1.321999789860549868e+01,-2.296265327373194332e+00
2.000000000000038725e+01,2.999999998186609229e+00,1.000000000001786660e+01,6.599999999998934497e-01,1.569999999999829532e+00,2.870000000000000455e+03,-2.174999999999972289e+00,-4.944999999999677875e+00,1.324017393598274417e+01,-2.196585491809779356e+00
1.999999999999878852e+01,3.000000000463519445e+00,9.999999999994095390e+00,6.600000000000232347e-01,1.570000000000243867e+00,2.869999999999999545e+03,-2.174999999999668532e+00,-4.944999999999695639e+00,1.316652415448661095e+01,-2.263371741421288164e+00
1.999999999999928590e+01,3.000000000898245922e+00,1.000000000000015987e+01,6.600000000000317835e-01,1.570000000000140838e+00,2.870000000000003638e+03,-2.174999999999847944e+00,-4.944999999999924789e+00,1.325497003638842131e+01,-2.296218292606455602e+00
2.000000000000316902e+01,3.000000000120151888e+00,1.000000000002612488e+01,6.599999999998266142e-01,1.569999999999101226e+00,2.869999999999998636e+03,-2.175000000000994138e+00,-4.945000000000628226e+00,1.350619284148890031e+01,-2.380956550058537236e+00
1.999999999999850431e+01,2.999999999630256209e+00,9.999999999964833464e+00,6.600000000001075007e-01,1.570000000000457918e+00,2.870000000000000000e+03,-2.174999999999535749e+00,-4.944999999999810214e+00,1.327288013139049916e+01,-2.292416487895889254e+00
1.999999999999926104e+01,3.000000000840072900e+00,9.999999999943923967e+00,6.600000000002874678e-01,1.570000000000504325e+00,2.870000000000000455e+03,-2.174999999999882583e+00,-4.945000000000693952e+00,1.327387210094935455e+01,-2.261401122473136738e+00
2.000000000000032685e+01,2.999999999930868189e+00,1.000000000001978684e+01,6.599999999999908162e-01,1.570000000000058904e+00,2.870000000000001819e+03,-2.174999999999960298e+00,-4.944999999999887486e+00,1.330325052181352063e+01,-2.364966698247568555e+00
2.000000000000165912e+01,2.999999998184599725e+00,9.999999999869912060e+00,6.599999999999754952e-01,1.569999999999648788e+00,2.869999999999989996e+03,-2.175000000000470557e+00,-4.945000000000464802e+00,1.318991605111544985e+01,-2.270817278106072035e+00
1.999999999999788969e+01,3.000000000755106644e+00,9.999999999962538411e+00,6.600000000003400924e-01,1.570000000000868923e+00,2.869999999999996362e+03,-2.174999999999490452e+00,-4.945000000000374207e+00,1.337715408031674436e+01,-2.309075119759486316e+00
1.999999999999901235e+01,3.000000000604925887e+00,9.999999999998069100e+00,6.600000000001410294e-01,1.570000000000314921e+00,2.870000000000002728e+03,-2.174999999999846612e+00,-4.945000000000217000e+00,1.333751101044026122e+01,-2.018678188239328097e+00
2.000000000000069988e+01,2.999999998705575877e+00,9.999999999956488139e+00,6.599999999998507061e-01,1.569999999999581508e+00,2.870000000000000000e+03,-2.175000000000266276e+00,-4.944999999999906137e+00,1.339135407865307492e+01,-2.165451126127894366e+00
2.000000000000042277e+01,3.000000001505010783e+00,9.999999999983982590e+00,6.600000000000396660e-01,1.570000000000000728e+00,2.870000000000000000e+03,-2.175000000000148592e+00,-4.945000000000263185e+00,1.343743119911271933e+01,-2.085376525157790706e+00
1.999999999999982947e+01,2.999999999350133173e+00,9.999999999966433961e+00,6.599999999997684386e-01,1.569999999999823537e+00,2.870000000000001364e+03,-2.174999999999798206e+00,-4.944999999999100559e+00,1.323573230000815215e+01,-2.076460554422019822e+00
1.999999999999814548e+01,3.000000000791599231e+00,9.999999999952455809e+00,6.600000000000415534e-01,1.570000000000420171e+00,2.870000000000002274e+03,-2.174999999999493561e+00,-4.944999999999529550e+00,1.313410766091313775e+01,-2.105547492911903351e+00
1.999999999999894484e+01,3.000000001063311217e+00,9.999999999943840479e+00,6.599999999999467404e-01,1.570000000000188134e+00,2.869999999999998636e+03,-2.174999999999606803e+00,-4.944999999999393658e+00,1.310094680963661951e+01,-2.185561718276887166e+00
2.000000000000296652e+01,2.999999997379173333e+00,1.000000000003319656e+01,6.599999999997988587e-01,1.569999999999136309e+00,2.869999999999998181e+03,-2.175000000000861800e+00,-4.945000000000417728e+00,1.325657061129169456e+01,-2.334126551122088777e+00
1.999999999999790745e+01,2.999999999667249728e+00,1.000000000001162448e+01,6.600000000000998401e-01,1.570000000000492779e+00,2.869999999999998636e+03,-2.174999999999444267e+00,-4.944999999999704521e+00,1.326287791292411100e+01,-2.364098647602155712e+00
1.999999999999770850e+01,2.999999999131150119e+00,1.000000000000495604e+01,6.600000000001243761e-01,1.570000000000730367e+00,2.869999999999997272e+03,-2.174999999999220890e+00,-4.944999999999437179e+00,1.333157770798476527e+01,-2.146906397562520219e+00
1.999999999999821299e+01,2.999999998362188336e+00,1.000000000000810196e+01,6.600000000000101341e-01,1.570000000000461693e+00,2.870000000000000455e+03,-2.174999999999340794e+00,-4.944999999999260432e+00,1.326492862918406246e+01,-2.119390309855197607e+00
1.999999999999561950e+01,2.999999997682247788e+00,1.000000000004294698e+01,6.600000000000770806e-01,1.570000000001086748e+00,2.870000000000000000e+03,-2.174999999998534772e+00,-4.944999999998567652e+00,1.343719082529882236e+01,-2.119235452106104756e+00
1.999999999999670663e+01,2.999999997744239977e+00,1.000000000004138379e+01,6.600000000000673106e-01,1.570000000000786988e+00,2.870000000000000455e+03,-2.174999999998941558e+00,-4.944999999999004636e+00,1.335124652515908572e+01,-2.131745623109110532e+00
2.000000000000225953e+01,2.999999999011516483e+00,9.999999999973358200e+00,6.599999999998414912e-01,1.569999999999469376e+00,2.869999999999999545e+03,-2.175000000000534506e+00,-4.945000000000087326e+00,1.332635110125604072e+01,-2.255125820849456897e+00
2.000000000000178346e+01,2.999999999222760394e+00,9.999999999929642058e+00,6.599999999998984457e-01,1.569999999999615481e+00,2.870000000000000909e+03,-2.175000000000402611e+00,-4.945000000000102425e+00,1.322847462272347485e+01,-2.184011320817790480e+00
2.000000000000095213e+01,2.999999998533607215e+00,9.999999999987760901e+00,6.600000000001080558e-01,1.569999999999937446e+00,2.870000000000000455e+03,-2.175000000000401279e+00,-4.945000000000770335e+00,1.334572269330208094e+01,-2.352232099664580911e+00
1.999999999999798561e+01,2.999999998835095827e+00,9.999999999946512119e+00,6.599999999998695799e-01,1.570000000000432827e+00,2.870000000000001364e+03,-2.174999999999116085e+00,-4.944999999998604068e+00,1.335989647847935125e+01,-2.334869666788212061e+00
1.999999999999869260e+01,3.000000001002946171e+00,9.999999999958875563e+00,6.600000000002108624e-01,1.570000000000565832e+00,2.870000000000001364e+03,-2.174999999999626343e+00,-4.945000000000134399e+00,1.346840228155991781e+01,-2.308206598345965865e+00
1.999999999999785416e+01,3.000000001107502534e+00,9.999999999975923259e+00,6.600000000000022515e-01,1.570000000000574714e+00,2.870000000000000909e+03,-2.174999999999208011e+00,-4.944999999999107665e+00,1.349091131473132421e+01,-2.478699291127011595e+00
2.000000000000034817e+01,3.000000000156307411e+00,9.999999999973253395e+00,6.600000000000485478e-01,1.569999999999980522e+00,2.870000000000001364e+03,-2.175000000000126832e+00,-4.945000000000280949e+00,1.348907220376086791e+01,-2.489353475086358625e+00
1.999999999999915801e+01,3.000000000796382960e+00,9.999999999968292030e+00,6.599999999999155431e-01,1.570000000000147944e+00,2.870000000000001364e+03,-2.174999999999648548e+00,-4.944999999999330598e+00,1.331537824751148591e+01,-2.311759262919333313e+00
