1.999999999999923261e+01,3.000000000554191359e+00,9.999999999993020694e+00,6.599999999995135314e-01,1.569999999998931361e+00,2.869999999999999091e+03,-2.174999999999907008e+00,-4.944999999999217799e+00,1.335308831826086262e+01,-2.223083587839620012e+00
1.999999999999752021e+01,2.999999999727897659e+00,1.000000000005039347e+01,6.600000000004986322e-01,1.570000000000923324e+00,2.869999999999992269e+03,-2.174999999999597922e+00,-4.945000000000875140e+00,1.333588173855328840e+01,-2.265104207623487298e+00
1.999999999999771205e+01,2.999999999791003180e+00,1.000000000005966427e+01,6.600000000003602985e-01,1.570000000001605667e+00,2.869999999999994543e+03,-2.174999999999486011e+00,-4.945000000000320028e+00,1.333271856266907029e+01,-2.263357156665732894e+00
1.999999999999887734e+01,3.000000001909106206e+00,1.000000000002942713e+01,6.600000000004118128e-01,1.570000000001094298e+00,2.869999999999979082e+03,-2.174999999999852829e+00,-4.945000000001077645e+00,1.331077886399397059e+01,-2.284942607050261643e+00
1.999999999999831601e+01,3.000000002121069098e+00,1.000000000003687717e+01,6.600000000013062085e-01,1.570000000002391038e+00,2.869999999999976808e+03,-2.174999999999824407e+00,-4.945000000002863771e+00,1.329182955995538506e+01,-2.299772856422330314e+00
1.999999999999808153e+01,3.000000000592403016e+00,1.000000000003303846e+01,6.600000000007205658e-01,1.570000000001549711e+00,2.869999999999992269e+03,-2.174999999999704947e+00,-4.945000000001523510e+00,1.330997662691483185e+01,-2.276333140733679983e+00
1.999999999999676703e+01,3.000000001024476060e+00,1.000000000004460077e+01,6.600000000006088774e-01,1.570000000001558593e+00,2.869999999999994543e+03,-2.174999999999327915e+00,-4.945000000000977280e+00,1.333076989155421899e+01,-2.263082942558950261e+00
2.000000000000179412e+01,2.999999999460567945e+00,9.999999999990182076e+00,6.599999999991024158e-01,1.569999999997792717e+00,2.869999999999994088e+03,-2.175000000000543832e+00,-4.944999999998508144e+00,1.332709742167272537e+01,-2.267851116408334811e+00
1.999999999999929656e+01,2.999999999161006681e+00,9.999999999995452526e+00,6.599999999999134337e-01,1.569999999999552864e+00,2.869999999999997726e+03,-2.174999999999973177e+00,-4.945000000000385754e+00,1.331959757130788269e+01,-2.269550194590379988e+00
2.000000000000082068e+01,2.999999998427024472e+00,9.999999999999580780e+00,6.600000000002432810e-01,1.570000000000036922e+00,2.869999999999999545e+03,-2.175000000000243183e+00,-4.945000000000256968e+00,1.329600052928506848e+01,-2.295447644606700699e+00
2.000000000000114397e+01,2.999999998026873449e+00,9.999999999987517540e+00,6.599999999999039968e-01,1.569999999999942109e+00,2.869999999999999091e+03,-2.175000000000178346e+00,-4.944999999999250662e+00,1.331568579214442138e+01,-2.276677505393706280e+00
1.999999999999998579e+01,3.000000000488081575e+00,1.000000000002173550e+01,6.599999999994895505e-01,1.569999999999219797e+00,2.869999999999995907e+03,-2.175000000000005151e+00,-4.944999999998982432e+00,1.330557458107321445e+01,-2.289842712089642074e+00
2.000000000000095923e+01,3.000000001025674212e+00,1.000000000002654943e+01,6.600000000000156852e-01,1.569999999999974305e+00,2.869999999999991815e+03,-2.175000000000314682e+00,-4.945000000000050022e+00,1.332352999497171098e+01,-2.280157447016892380e+00
2.000000000000219202e+01,3.000000001135954886e+00,1.000000000001821299e+01,6.599999999977272935e-01,1.569999999995795648e+00,2.869999999999989541e+03,-2.175000000000570921e+00,-4.944999999995651763e+00,1.337621760605858867e+01,-2.235687862122620828e+00
2.000000000000076383e+01,3.000000001732136656e+00,1.000000000002234124e+01,6.599999999985765031e-01,1.569999999996995799e+00,2.869999999999986358e+03,-2.175000000000256950e+00,-4.944999999997117257e+00,1.330755915302455605e+01,-2.289518195991897986e+00
1.999999999999787548e+01,3.000000000453740601e+00,1.000000000002074430e+01,6.600000000006737144e-01,1.570000000001316565e+00,2.869999999999991360e+03,-2.174999999999390088e+00,-4.945000000000692175e+00,1.324646495904149823e+01,-2.339487321619466709e+00
1.999999999999951683e+01,3.000000000266391798e+00,1.000000000001243095e+01,6.600000000001644551e-01,1.570000000000155049e+00,2.869999999999998181e+03,-2.174999999999979394e+00,-4.945000000000684182e+00,1.331336185788060433e+01,-2.284853051766990717e+00
1.999999999999359446e+01,3.000000002364251905e+00,1.000000000003733547e+01,6.600000000006474021e-01,1.570000000002551577e+00,2.869999999999987267e+03,-2.174999999998184830e+00,-4.945000000000581153e+00,1.331124538427185122e+01,-2.254993324244577657e+00
2.000000000000222755e+01,3.000000001393496873e+00,1.000000000002289724e+01,6.599999999993486632e-01,1.569999999998423990e+00,2.869999999999993179e+03,-2.175000000000731237e+00,-4.944999999999055262e+00,1.340046885595426573e+01,-2.214422926914125345e+00
2.000000000000012079e+01,3.000000000813905388e+00,9.999999999996271427e+00,6.600000000000209033e-01,1.570000000000093099e+00,2.869999999999993179e+03,-2.174999999999933209e+00,-4.944999999999588169e+00,1.328230357255918292e+01,-2.283645351724228334e+00
2.000000000000062883e+01,2.999999999705305509e+00,1.000000000001421796e+01,6.600000000001128297e-01,1.569999999999611262e+00,2.869999999999993634e+03,-2.175000000000268052e+00,-4.945000000000141505e+00,1.328425081091266691e+01,-2.291985184378408924e+00
1.999999999999972644e+01,3.000000002209146643e+00,9.999999999971432629e+00,6.599999999986371213e-01,1.569999999997981677e+00,2.870000000000001819e+03,-2.174999999999765343e+00,-4.944999999997378382e+00,1.339245590323861279e+01,-2.206749458826682719e+00
2.000000000000539302e+01,2.999999999814583429e+00,9.999999999954455987e+00,6.599999999988965804e-01,1.569999999996642082e+00,2.869999999999999091e+03,-2.175000000001544809e+00,-4.944999999998726636e+00,1.335576040179651081e+01,-2.234819612284706380e+00
2.000000000000075673e+01,2.999999999412061413e+00,1.000000000003489475e+01,6.600000000003932721e-01,1.570000000000200346e+00,2.869999999999974079e+03,-2.175000000000360867e+00,-4.945000000000482565e+00,1.333881639365877447e+01,-2.255492056044338778e+00
2.000000000000127542e+01,2.999999998181422711e+00,1.000000000000238565e+01,6.599999999991619237e-01,1.569999999998704876e+00,2.869999999999994998e+03,-2.175000000000309353e+00,-4.944999999998426432e+00,1.336390117959076740e+01,-2.216615040121098446e+00
1.999999999999689848e+01,2.999999998971500936e+00,9.999999999903497638e+00,6.600000000002130829e-01,1.570000000001215312e+00,2.869999999999998636e+03,-2.174999999998737721e+00,-4.944999999999265761e+00,1.328825600489856562e+01,-2.272577079508301789e+00
1.999999999999651124e+01,2.999999998366158493e+00,9.999999999904160219e+00,6.600000000004508927e-01,1.570000000001642970e+00,2.870000000000000455e+03,-2.174999999998652456e+00,-4.944999999999735607e+00,1.330233595414878245e+01,-2.267204175025712587e+00
1.999999999999669242e+01,2.999999999919951588e+00,9.999999999995710098e+00,6.600000000015062707e-01,1.570000000003256568e+00,2.869999999999993179e+03,-2.174999999999013056e+00,-4.945000000002150564e+00,1.334867397267960953e+01,-2.250595670672216997e+00
1.999999999999756994e+01,2.999999998414883073e+00,9.999999999944483520e+00,6.600000000010004531e-01,1.570000000002564455e+00,2.869999999999998636e+03,-2.174999999998973976e+00,-4.945000000000729479e+00,1.329624329973444041e+01,-2.278516347035446366e+00
2.000000000000181899e+01,3.000000002065522420e+00,9.999999999981332266e+00,6.599999999993916289e-01,1.569999999998818563e+00,2.869999999999993634e+03,-2.175000000000291145e+00,-4.944999999998211493e+00,1.329346662694048042e+01,-2.289014644852113367e+00
2.000000000000113332e+01,3.000000001461802235e+00,9.999999999955026198e+00,6.599999999990445732e-01,1.569999999998351603e+00,2.869999999999997272e+03,-2.175000000000114841e+00,-4.944999999997967244e+00,1.329387586609053429e+01,-2.281964793374926082e+00
1.999999999999993960e+01,3.000000000350589779e+00,9.999999999958527397e+00,6.599999999998381606e-01,1.569999999999627693e+00,2.869999999999990450e+03,-2.174999999999743139e+00,-4.944999999998735518e+00,1.326815690179996921e+01,-2.304857662243414484e+00
1.999999999999645084e+01,2.999999998941288659e+00,9.999999999960653696e+00,6.600000000003209966e-01,1.570000000001499751e+00,2.869999999999990450e+03,-2.174999999998801226e+00,-4.944999999999724949e+00,1.325418992634637405e+01,-2.294006930163469349e+00
1.999999999999568701e+01,2.999999999601378864e+00,9.999999999990524913e+00,6.600000000004367928e-01,1.570000000001648965e+00,2.869999999999987267e+03,-2.174999999998728395e+00,-4.945000000000064233e+00,1.329881713952391920e+01,-2.264474873961679791e+00
1.999999999999678124e+01,3.000000000342786688e+00,9.999999999949617191e+00,6.600000000004250245e-01,1.570000000001519735e+00,2.870000000000000000e+03,-2.174999999998962430e+00,-4.945000000000426610e+00,1.325996714235637697e+01,-2.291758154338723763e+00
1.999999999999696243e+01,3.000000000040687009e+00,9.999999999928853356e+00,6.599999999998915623e-01,1.570000000000513207e+00,2.870000000000002728e+03,-2.174999999998985523e+00,-4.944999999999563300e+00,1.328200173642655990e+01,-2.272128481366455066e+00
1.999999999999937117e+01,2.999999999681007612e+00,9.999999999955880625e+00,6.600000000009251799e-01,1.570000000002403029e+00,2.869999999999999545e+03,-2.174999999999570832e+00,-4.945000000001115836e+00,1.322269756691904519e+01,-2.313710072034641296e+00
1.999999999999856826e+01,2.999999999468447864e+00,9.999999999966954434e+00,6.599999999991343902e-01,1.569999999998811013e+00,2.869999999999991815e+03,-2.174999999999496669e+00,-4.944999999998103135e+00,1.327076979615915420e+01,-2.281282208147713320e+00
1.999999999999588951e+01,2.999999999101469861e+00,9.999999999939383599e+00,6.600000000004996314e-01,1.570000000001677387e+00,2.869999999999999545e+03,-2.174999999998715960e+00,-4.945000000000680629e+00,1.325909851039003762e+01,-2.288271398333498574e+00
2.000000000000243006e+01,3.000000000958908952e+00,9.999999999938344430e+00,6.599999999993725330e-01,1.569999999999134088e+00,2.870000000000000000e+03,-2.175000000000375078e+00,-4.944999999998373141e+00,1.334084769019486139e+01,-2.237153626363733938e+00
1.999999999999780087e+01,3.000000000217323493e+00,9.999999999940229145e+00,6.599999999997825384e-01,1.570000000000209228e+00,2.869999999999993179e+03,-2.174999999999113864e+00,-4.944999999998324292e+00,1.331905168032873199e+01,-2.247533551921739647e+00
1.999999999999839773e+01,2.999999998600017648e+00,9.999999999968474995e+00,6.599999999994803357e-01,1.569999999999701856e+00,2.869999999999992724e+03,-2.174999999999388312e+00,-4.944999999998587192e+00,1.330988980240990571e+01,-2.250598897251180563e+00
1.999999999999772626e+01,2.999999999495746028e+00,9.999999999982600585e+00,6.600000000002285150e-01,1.570000000000832063e+00,2.869999999999992724e+03,-2.174999999999373212e+00,-4.945000000000342233e+00,1.331850681308902828e+01,-2.244864503837725955e+00
1.999999999999580425e+01,3.000000001293514629e+00,9.999999999976886045e+00,6.600000000011895240e-01,1.570000000002802709e+00,2.869999999999994088e+03,-2.174999999998833644e+00,-4.945000000001757989e+00,1.332703230188782406e+01,-2.259231352480895350e+00
1.999999999999669953e+01,3.000000000866507754e+00,1.000000000001353762e+01,6.600000000002902434e-01,1.570000000001699592e+00,2.869999999999993634e+03,-2.174999999999086331e+00,-4.945000000000177032e+00,1.337052979177639500e+01,-2.225886786525956840e+00
1.999999999999857891e+01,3.000000001895827051e+00,9.999999999947021934e+00,6.599999999991286170e-01,1.569999999999217799e+00,2.869999999999993634e+03,-2.174999999999294165e+00,-4.944999999997217621e+00,1.336754029819058687e+01,-2.224438513273817808e+00
2.000000000000083489e+01,3.000000002436309821e+00,9.999999999968974151e+00,6.599999999992851585e-01,1.569999999998511919e+00,2.869999999999994088e+03,-2.175000000000096634e+00,-4.944999999998056062e+00,1.339392329362580547e+01,-2.223208455076126189e+00
1.999999999999763745e+01,2.999999997778625360e+00,9.999999999963501196e+00,6.599999999980078469e-01,1.569999999997555351e+00,2.870000000000000000e+03,-2.174999999999112532e+00,-4.944999999995699724e+00,1.336623333968514515e+01,-2.209515135817829101e+00
1.999999999999808864e+01,2.999999999677579687e+00,9.999999999992045474e+00,6.599999999994289324e-01,1.569999999999462936e+00,2.870000000000001819e+03,-2.174999999999431832e+00,-4.944999999998408668e+00,1.339635093955642553e+01,-2.202940686372703905e+00
1.999999999999660005e+01,2.999999999710521337e+00,9.999999999984021670e+00,6.599999999993505506e-01,1.569999999999081020e+00,2.869999999999993179e+03,-2.174999999999147171e+00,-4.944999999998870521e+00,1.339717555436090812e+01,-2.211949387868740846e+00
1.999999999999867129e+01,3.000000000991565940e+00,9.999999999996715516e+00,6.599999999990624477e-01,1.569999999998626938e+00,2.869999999999997272e+03,-2.174999999999568612e+00,-4.944999999997897078e+00,1.335583403729440732e+01,-2.240645574287791320e+00
1.999999999999611688e+01,3.000000001597014965e+00,9.999999999990432542e+00,6.599999999995298516e-01,1.570000000000308038e+00,2.869999999999997272e+03,-2.174999999998906475e+00,-4.944999999998838547e+00,1.341391252534897482e+01,-2.186270251037380596e+00
1.999999999999397460e+01,3.000000001666100591e+00,9.999999999992263966e+00,6.599999999994007327e-01,1.570000000000106644e+00,2.869999999999995907e+03,-2.174999999998338929e+00,-4.944999999998333173e+00,1.340480448717865514e+01,-2.190592930404088534e+00
1.999999999999693401e+01,3.000000000590308247e+00,1.000000000001348610e+01,6.599999999990653343e-01,1.569999999998697104e+00,2.870000000000003638e+03,-2.174999999999140510e+00,-4.944999999997637730e+00,1.341900978858521754e+01,-2.192077690330468176e+00
1.999999999999668887e+01,3.000000000418294732e+00,1.000000000002183853e+01,6.599999999993934052e-01,1.569999999999311280e+00,2.869999999999999545e+03,-2.174999999999136957e+00,-4.944999999998539231e+00,1.338727237278744298e+01,-2.223091405461720793e+00
1.999999999999795364e+01,3.000000000283586044e+00,1.000000000003609202e+01,6.599999999995912470e-01,1.569999999999130091e+00,2.869999999999993634e+03,-2.174999999999589484e+00,-4.944999999998684892e+00,1.341411438009096457e+01,-2.201929375086885354e+00
1.999999999999600675e+01,2.999999999850337939e+00,9.999999999962573938e+00,6.599999999989326627e-01,1.569999999998997309e+00,2.869999999999997726e+03,-2.174999999998594724e+00,-4.944999999996645634e+00,1.338301768222895305e+01,-2.212302607286553258e+00
1.999999999999715072e+01,3.000000000501525488e+00,9.999999999996754596e+00,6.599999999988552801e-01,1.569999999998540119e+00,2.869999999999992269e+03,-2.174999999999138733e+00,-4.944999999997169660e+00,1.339787083630179687e+01,-2.201163086570119276e+00
1.999999999999608136e+01,2.999999999241763415e+00,9.999999999982462029e+00,6.599999999994725641e-01,1.569999999999626139e+00,2.869999999999998181e+03,-2.174999999998941558e+00,-4.944999999998691997e+00,1.341241814454281212e+01,-2.182966645018569629e+00
2.000000000000152767e+01,3.000000001395462856e+00,1.000000000004656719e+01,6.599999999991318367e-01,1.569999999997963025e+00,2.870000000000001819e+03,-2.175000000000669953e+00,-4.944999999998766604e+00,1.343375900384786448e+01,-2.188531846778916989e+00
2.000000000000041567e+01,3.000000002246690389e+00,1.000000000006856027e+01,6.599999999991654764e-01,1.569999999998535234e+00,2.869999999999972260e+03,-2.175000000000334666e+00,-4.944999999998588969e+00,1.341259172819381362e+01,-2.193134474263075617e+00
2.000000000000092371e+01,3.000000002463136806e+00,1.000000000002140332e+01,6.600000000006248646e-01,1.570000000001145590e+00,2.869999999999991815e+03,-2.175000000000264944e+00,-4.945000000000906226e+00,1.338848312908307037e+01,-2.209864353114266766e+00
1.999999999999740297e+01,3.000000000204012807e+00,9.999999999952452256e+00,6.599999999991582600e-01,1.569999999999909690e+00,2.869999999999999545e+03,-2.174999999999050360e+00,-4.944999999997760298e+00,1.335754896094980637e+01,-2.202362127170264472e+00
2.000000000000001776e+01,3.000000001454008913e+00,1.000000000000910383e+01,6.600000000001510214e-01,1.570000000000790319e+00,2.869999999999995453e+03,-2.174999999999993161e+00,-4.945000000000157492e+00,1.340037046835528400e+01,-2.208562135449696928e+00
1.999999999999983658e+01,3.000000003420682848e+00,1.000000000005534773e+01,6.599999999997012701e-01,1.569999999999449836e+00,2.869999999999989086e+03,-2.174999999999957190e+00,-4.944999999998449525e+00,1.341720068087527551e+01,-2.194483636994301712e+00
2.000000000000111555e+01,3.000000002851344494e+00,1.000000000006680523e+01,6.599999999992901545e-01,1.569999999998387574e+00,2.869999999999991815e+03,-2.175000000000389733e+00,-4.944999999998020535e+00,1.343746866712428023e+01,-2.193697424066010981e+00
2.000000000000002487e+01,3.000000001785088077e+00,1.000000000005149658e+01,6.599999999996495337e-01,1.569999999999373452e+00,2.869999999999994088e+03,-2.175000000000042899e+00,-4.944999999998620943e+00,1.343072556534381157e+01,-2.190699615822791824e+00
2.000000000000290612e+01,2.999999999951797669e+00,1.000000000000454747e+01,6.599999999988488408e-01,1.569999999997343521e+00,2.869999999999993179e+03,-2.175000000000826272e+00,-4.944999999997846452e+00,1.337904417444948990e+01,-2.219779782378712873e+00
2.000000000000050804e+01,3.000000000879361917e+00,1.000000000008825474e+01,6.600000000009937917e-01,1.570000000001541274e+00,2.869999999999979991e+03,-2.175000000000344436e+00,-4.945000000001333440e+00,1.342038775546818563e+01,-2.209667268315513855e+00
2.000000000000057909e+01,3.000000003362446321e+00,1.000000000002140332e+01,6.599999999994290434e-01,1.569999999999471374e+00,2.869999999999992724e+03,-2.175000000000058886e+00,-4.944999999998318962e+00,1.334509062132064017e+01,-2.252489986825951807e+00
1.999999999999872813e+01,3.000000003462738540e+00,1.000000000002147438e+01,6.600000000003732881e-01,1.570000000000430829e+00,2.869999999999997726e+03,-2.174999999999786660e+00,-4.945000000000487894e+00,1.332059297116175856e+01,-2.270560505962896602e+00
1.999999999999749178e+01,3.000000000530263833e+00,1.000000000003254641e+01,6.600000000000088018e-01,1.570000000000153273e+00,2.870000000000002728e+03,-2.174999999999460254e+00,-4.944999999999883045e+00,1.340935451398789446e+01,-2.196351968843730074e+00
1.999999999999544542e+01,3.000000000606839912e+00,1.000000000001170797e+01,6.599999999996311040e-01,1.570000000000232543e+00,2.870000000000002274e+03,-2.174999999998835865e+00,-4.944999999999184048e+00,1.341367880374906107e+01,-2.183145718058801421e+00
1.999999999999538147e+01,3.000000001579488984e+00,9.999999999928808947e+00,6.599999999994543565e-01,1.569999999999925011e+00,2.870000000000002274e+03,-2.174999999998517897e+00,-4.944999999997963691e+00,1.342224024787356029e+01,-2.180639398660647377e+00
1.999999999999574030e+01,3.000000002615706762e+00,9.999999999958296470e+00,6.599999999994544675e-01,1.570000000000475460e+00,2.870000000000001364e+03,-2.174999999998581846e+00,-4.944999999998012541e+00,1.341098067214124256e+01,-2.192968788231421495e+00
1.999999999999590727e+01,3.000000001527729498e+00,1.000000000002755129e+01,6.600000000006291945e-01,1.570000000002006679e+00,2.869999999999996817e+03,-2.174999999998827871e+00,-4.945000000000158380e+00,1.329440925580840549e+01,-2.289625382663574182e+00
2.000000000000096279e+01,3.000000000613411100e+00,1.000000000003654677e+01,6.599999999990517896e-01,1.569999999998192175e+00,2.870000000000002274e+03,-2.175000000000387956e+00,-4.944999999998233697e+00,1.343795501208977328e+01,-2.183564494435425107e+00
1.999999999999699085e+01,2.999999998975975135e+00,9.999999999983359089e+00,6.599999999990570076e-01,1.569999999999059703e+00,2.870000000000001819e+03,-2.174999999999014388e+00,-4.944999999997801154e+00,1.335380686492666236e+01,-2.231073071405202946e+00
2.000000000000474998e+01,3.000000001797422211e+00,9.999999999978797405e+00,6.599999999988970245e-01,1.569999999997428564e+00,2.869999999999987722e+03,-2.175000000001374723e+00,-4.944999999998579199e+00,1.340186699930211667e+01,-2.206087444817381726e+00
2.000000000000342126e+01,3.000000002020262624e+00,9.999999999988824939e+00,6.599999999991557065e-01,1.569999999998101359e+00,2.869999999999988631e+03,-2.175000000000999023e+00,-4.944999999998802132e+00,1.339151207024615609e+01,-2.211131439339833804e+00
2.000000000000011369e+01,2.999999999553375929e+00,9.999999999953587349e+00,6.599999999998377165e-01,1.569999999999470708e+00,2.870000000000000455e+03,-2.175000000000044231e+00,-4.944999999999630802e+00,1.337841261944319804e+01,-2.200314597312459597e+00
1.999999999999835865e+01,2.999999999744743295e+00,1.000000000001853628e+01,6.600000000009045298e-01,1.570000000002279128e+00,2.869999999999995907e+03,-2.174999999999505107e+00,-4.945000000001211760e+00,1.330169349187755934e+01,-2.286153280940483423e+00
1.999999999999860023e+01,2.999999998275347135e+00,1.000000000002594014e+01,6.600000000011809753e-01,1.570000000002273799e+00,2.869999999999993179e+03,-2.174999999999686295e+00,-4.945000000001940954e+00,1.326110705639104737e+01,-2.312977489728754055e+00
2.000000000000212097e+01,2.999999999037835874e+00,1.000000000004199485e+01,6.600000000013355184e-01,1.570000000001835927e+00,2.869999999999988177e+03,-2.175000000000775646e+00,-4.945000000002981011e+00,1.333213118772174255e+01,-2.270001511196622079e+00
2.000000000000191847e+01,2.999999999895625269e+00,1.000000000004257572e+01,6.600000000007366641e-01,1.570000000001338325e+00,2.869999999999995907e+03,-2.175000000000625100e+00,-4.945000000001762430e+00,1.335699513916993730e+01,-2.251540701492559471e+00
2.000000000000056843e+01,2.999999999341110613e+00,1.000000000001999645e+01,6.599999999994021760e-01,1.569999999998988205e+00,2.869999999999997726e+03,-2.175000000000185452e+00,-4.944999999999216023e+00,1.337332204793014867e+01,-2.224368683678617842e+00
1.999999999999895550e+01,3.000000000506668485e+00,1.000000000007758949e+01,6.599999999995819211e-01,1.569999999999208917e+00,2.869999999999984084e+03,-2.174999999999945643e+00,-4.944999999999076579e+00,1.338945010037302907e+01,-2.201781579236834041e+00
2.000000000000062883e+01,2.999999997298899324e+00,9.999999999991285193e+00,6.599999999983411358e-01,1.569999999996377404e+00,2.869999999999992724e+03,-2.175000000000107292e+00,-4.944999999996497309e+00,1.334762909242238749e+01,-2.241121952700273923e+00
1.999999999999986144e+01,3.000000001706079278e+00,1.000000000002057554e+01,6.599999999997755440e-01,1.569999999999999396e+00,2.869999999999995907e+03,-2.174999999999753353e+00,-4.944999999998543672e+00,1.332829608374375141e+01,-2.264001727687167342e+00
1.999999999999976907e+01,3.000000001530403360e+00,9.999999999990912158e+00,6.599999999997976374e-01,1.570000000000122631e+00,2.869999999999997726e+03,-2.174999999999661426e+00,-4.944999999998461959e+00,1.333781936960814285e+01,-2.252168284563453415e+00
2.000000000000264322e+01,3.000000001906570901e+00,1.000000000008102496e+01,6.599999999998218403e-01,1.569999999998951346e+00,2.869999999999985448e+03,-2.175000000000889777e+00,-4.944999999999847518e+00,1.329127546563064222e+01,-2.321840871862141054e+00
2.000000000000201439e+01,3.000000002081322670e+00,1.000000000005693579e+01,6.599999999993790833e-01,1.569999999998836326e+00,2.869999999999985903e+03,-2.175000000000550937e+00,-4.944999999998918483e+00,1.327847712359396226e+01,-2.325753974245658551e+00
1.999999999999932498e+01,2.999999997500396365e+00,1.000000000002054001e+01,6.600000000004766498e-01,1.570000000000840945e+00,2.869999999999996362e+03,-2.174999999999865263e+00,-4.945000000000704610e+00,1.333945348328489544e+01,-2.266802517882363865e+00
1.999999999999428368e+01,2.999999999222132452e+00,1.000000000001165468e+01,6.599999999992294253e-01,1.569999999999677875e+00,2.869999999999998181e+03,-2.174999999998437961e+00,-4.944999999997861551e+00,1.342335628934360514e+01,-2.162425311927107519e+00
1.999999999999539568e+01,2.999999998799255607e+00,9.999999999993868016e+00,6.599999999991659205e-01,1.569999999999721396e+00,2.869999999999998636e+03,-2.174999999998627587e+00,-4.944999999997751416e+00,1.338873177077898013e+01,-2.187426868857285545e+00
1.999999999999942446e+01,2.999999999928223637e+00,9.999999999985082155e+00,6.600000000003104494e-01,1.570000000000543183e+00,2.869999999999994543e+03,-2.174999999999776890e+00,-4.944999999999895479e+00,1.339069900749418807e+01,-2.203346594275927828e+00
2.000000000000149214e+01,2.999999998598764872e+00,1.000000000003732836e+01,6.599999999996656319e-01,1.569999999999254880e+00,2.869999999999989541e+03,-2.175000000000476330e+00,-4.944999999998967333e+00,1.341682888049241917e+01,-2.197638793273325675e+00
2.000000000000195399e+01,3.000000000314958726e+00,1.000000000003221601e+01,6.600000000000965095e-01,1.569999999999490470e+00,2.869999999999987267e+03,-2.175000000000687272e+00,-4.945000000000001172e+00,1.340308966189123296e+01,-2.214533002974184317e+00
1.999999999999704414e+01,2.999999997724055234e+00,9.999999999989229948e+00,6.599999999998061861e-01,1.570000000000059126e+00,2.869999999999996817e+03,-2.174999999999263522e+00,-4.944999999999675211e+00,1.332826467551621974e+01,-2.239999962919398957e+00
1.999999999999639044e+01,2.999999998286381864e+00,9.999999999972002840e+00,6.600000000001484679e-01,1.570000000001185336e+00,2.869999999999999545e+03,-2.174999999998917133e+00,-4.944999999999943441e+00,1.331618666611028701e+01,-2.244037964092892690e+00
1.999999999999565858e+01,2.999999998340760143e+00,1.000000000003514877e+01,6.599999999995529443e-01,1.570000000000062013e+00,2.870000000000000455e+03,-2.174999999998777689e+00,-4.944999999998119122e+00,1.337827537675256373e+01,-2.217906440998876683e+00
1.999999999999874944e+01,2.999999998587599581e+00,9.999999999995907274e+00,6.599999999994075051e-01,1.569999999998922258e+00,2.869999999999999545e+03,-2.174999999999567279e+00,-4.944999999998221263e+00,1.336576141053937583e+01,-2.222576902010034772e+00
1.999999999999807798e+01,2.999999999068453160e+00,1.000000000000301803e+01,6.600000000004184741e-01,1.570000000000777662e+00,2.869999999999996362e+03,-2.174999999999433609e+00,-4.945000000000034923e+00,1.338116127290829560e+01,-2.211604133140499862e+00
1.999999999999636202e+01,2.999999998781491595e+00,9.999999999944069629e+00,6.599999999991701394e-01,1.569999999998963336e+00,2.869999999999997272e+03,-2.174999999998921574e+00,-4.944999999998129780e+00,1.339664753294028898e+01,-2.183689695015176735e+00
1.999999999999481304e+01,2.999999999179769894e+00,9.999999999981604049e+00,6.600000000007996137e-01,1.570000000002322871e+00,2.869999999999986358e+03,-2.174999999998406430e+00,-4.945000000000184137e+00,1.335774175260875118e+01,-2.220123809762927447e+00
2.000000000000143885e+01,2.999999997990316913e+00,1.000000000002875211e+01,6.599999999982449905e-01,1.569999999996765538e+00,2.869999999999994998e+03,-2.175000000000416822e+00,-4.944999999996173123e+00,1.342808947982373979e+01,-2.191295892174722315e+00
1.999999999999910472e+01,3.000000000584089666e+00,1.000000000005053025e+01,6.599999999995356248e-01,1.569999999999652118e+00,2.869999999999992724e+03,-2.174999999999789324e+00,-4.944999999998453077e+00,1.342679665128760824e+01,-2.201784937926635433e+00
1.999999999999957012e+01,2.999999999476621326e+00,1.000000000004654233e+01,6.599999999994634603e-01,1.569999999999291740e+00,2.869999999999991815e+03,-2.174999999999966072e+00,-4.944999999998526796e+00,1.342679805993099684e+01,-2.201233566499467997e+00
1.999999999999841904e+01,2.999999998351772668e+00,1.000000000000553868e+01,6.599999999996958300e-01,1.569999999999384110e+00,2.869999999999984993e+03,-2.174999999999672973e+00,-4.944999999999091678e+00,1.339486007718936911e+01,-2.201025716931158893e+00
1.999999999999793943e+01,3.000000000714002635e+00,1.000000000001329070e+01,6.599999999998608091e-01,1.569999999999916351e+00,2.870000000000001819e+03,-2.174999999999490008e+00,-4.944999999999188489e+00,1.331697215844885207e+01,-2.261568282345084224e+00
1.999999999999834088e+01,3.000000000805077782e+00,1.000000000001188383e+01,6.599999999998040767e-01,1.570000000000302931e+00,2.870000000000001819e+03,-2.174999999999506439e+00,-4.944999999998929141e+00,1.334003776605667113e+01,-2.246301243122503344e+00
1.999999999999495159e+01,2.999999998603264384e+00,1.000000000000255618e+01,6.600000000005139533e-01,1.570000000001758433e+00,2.870000000000000909e+03,-2.174999999998664890e+00,-4.945000000000701057e+00,1.331946966698863832e+01,-2.243611652631352094e+00
1.999999999999588951e+01,2.999999998204001983e+00,9.999999999984618526e+00,6.600000000003211076e-01,1.570000000001730900e+00,2.870000000000003183e+03,-2.174999999998833644e+00,-4.945000000000472795e+00,1.332822306859668693e+01,-2.236732792787050172e+00
1.999999999999852207e+01,3.000000000090623953e+00,1.000000000002371436e+01,6.599999999997259170e-01,1.569999999998990203e+00,2.869999999999996362e+03,-2.174999999999843059e+00,-4.944999999999356355e+00,1.339937757585835243e+01,-2.206536195446181736e+00
1.999999999999828404e+01,2.999999999197291434e+00,1.000000000001198153e+01,6.599999999992660626e-01,1.569999999999055929e+00,2.869999999999994543e+03,-2.174999999999398081e+00,-4.944999999997547135e+00,1.340394482961086986e+01,-2.200152838629685803e+00
2.000000000000115108e+01,2.999999997981720679e+00,9.999999999956688868e+00,6.599999999993787503e-01,1.569999999998604734e+00,2.869999999999997272e+03,-2.175000000000300915e+00,-4.944999999998970885e+00,1.336441433100150178e+01,-2.227134451373670831e+00
1.999999999999767297e+01,2.999999997876364066e+00,1.000000000000665601e+01,6.599999999998141798e-01,1.570000000000160156e+00,2.869999999999997272e+03,-2.174999999999426503e+00,-4.944999999999698304e+00,1.340278040245139302e+01,-2.206335359747037206e+00
2.000000000000217426e+01,2.999999999274645557e+00,1.000000000007548806e+01,6.600000000001612355e-01,1.569999999999676543e+00,2.869999999999972260e+03,-2.175000000000855582e+00,-4.945000000000202789e+00,1.337652956663647608e+01,-2.238467997153959388e+00
1.999999999999878852e+01,2.999999999507492632e+00,1.000000000002934186e+01,6.599999999985919352e-01,1.569999999997934825e+00,2.869999999999992269e+03,-2.174999999999772893e+00,-4.944999999997299334e+00,1.338397368273385268e+01,-2.224186219570464029e+00
2.000000000000054712e+01,2.999999999122752392e+00,9.999999999992311928e+00,6.599999999979823118e-01,1.569999999996265050e+00,2.869999999999995453e+03,-2.175000000000296030e+00,-4.944999999996564810e+00,1.340402980367187169e+01,-2.209693631769485744e+00
1.999999999999643663e+01,2.999999997965429710e+00,9.999999999949611862e+00,6.599999999998269473e-01,1.570000000000200790e+00,2.870000000000000909e+03,-2.174999999998827427e+00,-4.944999999998654694e+00,1.340866940641358340e+01,-2.198929284221771141e+00
1.999999999999603517e+01,2.999999998391916112e+00,9.999999999948355978e+00,6.599999999997868683e-01,1.570000000000147722e+00,2.870000000000001819e+03,-2.174999999998650235e+00,-4.944999999998181295e+00,1.342750717436001473e+01,-2.187793974347444159e+00
1.999999999999710454e+01,2.999999999318805344e+00,1.000000000002191491e+01,6.599999999998109601e-01,1.570000000000038032e+00,2.870000000000001364e+03,-2.174999999999187139e+00,-4.944999999999027729e+00,1.337479428535752923e+01,-2.231956964673532440e+00
1.999999999999793943e+01,3.000000001385698667e+00,9.999999999987890575e+00,6.600000000004971890e-01,1.570000000000683738e+00,2.869999999999999091e+03,-2.174999999999460698e+00,-4.945000000000220552e+00,1.335743160656685902e+01,-2.226078428271237808e+00
1.999999999999763034e+01,2.999999999943415929e+00,9.999999999989736210e+00,6.599999999999424105e-01,1.570000000000425500e+00,2.870000000000000909e+03,-2.174999999999345679e+00,-4.944999999999418527e+00,1.342162507933780269e+01,-2.188219054867531543e+00
1.999999999999795008e+01,3.000000001257252524e+00,1.000000000001920242e+01,6.600000000000858513e-01,1.569999999999915463e+00,2.870000000000001364e+03,-2.174999999999607692e+00,-4.944999999999841300e+00,1.343951070202215803e+01,-2.184612257822730719e+00
2.000000000000085265e+01,3.000000000868274785e+00,1.000000000003932854e+01,6.599999999991957855e-01,1.569999999999361684e+00,2.869999999999993634e+03,-2.175000000000120615e+00,-4.944999999997564011e+00,1.338465102211126379e+01,-2.235000269479647361e+00
1.999999999999712230e+01,2.999999999407188866e+00,1.000000000000340172e+01,6.600000000005634693e-01,1.570000000001516627e+00,2.870000000000000000e+03,-2.174999999999347899e+00,-4.945000000001205542e+00,1.339879017403253947e+01,-2.207377417053284496e+00
1.999999999999636913e+01,2.999999999853510513e+00,1.000000000002638778e+01,6.600000000001222666e-01,1.570000000000894680e+00,2.869999999999994998e+03,-2.174999999999067235e+00,-4.945000000000055351e+00,1.338662245869085865e+01,-2.207249436249071994e+00
1.999999999999819167e+01,2.999999999226660385e+00,9.999999999959410246e+00,6.599999999999087708e-01,1.569999999999897256e+00,2.869999999999999545e+03,-2.174999999999474465e+00,-4.944999999999524221e+00,1.332997123433360365e+01,-2.250433296408709705e+00
1.999999999999844391e+01,2.999999998165205017e+00,1.000000000000246914e+01,6.600000000006107648e-01,1.570000000000866036e+00,2.869999999999992269e+03,-2.174999999999704503e+00,-4.945000000000985274e+00,1.337056092773681293e+01,-2.209880762510204821e+00
1.999999999999536371e+01,3.000000000547356827e+00,1.000000000004457945e+01,6.599999999992689492e-01,1.569999999999391216e+00,2.869999999999986812e+03,-2.174999999998878497e+00,-4.944999999998094253e+00,1.340102557383202075e+01,-2.210780123564037858e+00
1.999999999999892353e+01,3.000000002221626882e+00,1.000000000001917932e+01,6.600000000000869615e-01,1.570000000000298490e+00,2.869999999999992269e+03,-2.174999999999639666e+00,-4.944999999999418527e+00,1.333445990876755083e+01,-2.268016032686335670e+00
1.999999999999963052e+01,3.000000002820494505e+00,1.000000000001432099e+01,6.599999999996882805e-01,1.569999999999895701e+00,2.869999999999984993e+03,-2.174999999999751132e+00,-4.944999999998540119e+00,1.334594825945718988e+01,-2.257773709567321152e+00
1.999999999999873168e+01,2.999999998758120512e+00,9.999999999987007726e+00,6.600000000005584733e-01,1.570000000001797957e+00,2.869999999999976808e+03,-2.174999999999460698e+00,-4.945000000000003837e+00,1.333845814451809453e+01,-2.242404114927355696e+00
1.999999999999700151e+01,2.999999997690733444e+00,9.999999999969674036e+00,6.600000000008512391e-01,1.570000000001799734e+00,2.869999999999977717e+03,-2.174999999999134737e+00,-4.945000000000833396e+00,1.332758942023235882e+01,-2.247087544016332039e+00
