7.829039505879487049e-03
7.846853789947797267e-03
7.947079639302185097e-03
7.828231394950469629e-03
7.832666772609936379e-03
7.819412775820499401e-03
7.984319541529127234e-03
7.977705848724300774e-03
7.955731531244514265e-03
7.794846312195415593e-03
7.826988815780044212e-03
7.909724602991271419e-03
7.908457041896964010e-03
7.944551034137194157e-03
7.941926845959092901e-03
8.029291349197215447e-03
8.030193956968740068e-03
7.886716794182235812e-03
7.817088370728969907e-03
7.934552833731803312e-03
7.844623338613470817e-03
7.836044220101577931e-03
7.813944449917085977e-03
7.894315643724452922e-03
7.821981026212520421e-03
7.866564527889851124e-03
7.961184650759478912e-03
7.931570752339842101e-03
7.798354100159478330e-03
7.813701147701896874e-03
7.960305395655930746e-03
7.927027843790627332e-03
7.815503104733135045e-03
7.829288238947691714e-03
7.849769614932942605e-03
7.923691127696617237e-03
7.915667585448423610e-03
7.856949745707504651e-03
7.797825678160867288e-03
7.805534230934040377e-03
7.816114075697613850e-03
7.949147708131284670e-03
7.825540407280251812e-03
7.959552136342390449e-03
7.898985634234280406e-03
7.798163477218561859e-03
7.858010934387140919e-03
7.893574875372852753e-03
7.934458336889297844e-03
7.885908140167915970e-03
7.837543678619735693e-03
7.909532893879750101e-03
7.914290864208464379e-03
7.893721508404328430e-03
7.922189496837251516e-03
7.861817419267173174e-03
7.841172574606092294e-03
7.836272859013618947e-03
7.972362975525592796e-03
7.859426214683525383e-03
7.809140860423023633e-03
7.796400622329050477e-03
7.874455557324414740e-03
7.932742730421039196e-03
7.872149074047842671e-03
7.827128931787897745e-03
7.837967828240409787e-03
7.917239274311715230e-03
7.980312658172745294e-03
7.926880124588546808e-03
7.896090446490602877e-03
7.810248754438611947e-03
7.849918420305626240e-03
7.804539298661216512e-03
7.846329712631600409e-03
7.904060223293920759e-03
7.950702018264919554e-03
7.829592366716677659e-03
7.816623489710664355e-03
7.894498120385843448e-03
7.904528362824037382e-03
7.960648082481341925e-03
7.854421140542511975e-03
7.819657707291594040e-03
7.801492590118345831e-03
7.865625533403109229e-03
7.796530962801473397e-03
7.794586174335872177e-03
7.804315004431589681e-03
7.921638808341267129e-03
7.869757869464196615e-03
7.906465548095412479e-03
7.811918741741522530e-03
7.814195355326498602e-03
7.799461994175068379e-03
7.820208395787576691e-03
7.864011483886280615e-03
7.894973863110185328e-03
7.949141191107664262e-03
7.932918146973506890e-03
7.852586055307867602e-03
7.952760311558587647e-03
7.889830302217222188e-03
7.847396875249556397e-03
7.816430694428539924e-03
7.810675619485795557e-03
7.815855024008675281e-03
7.948568779199608955e-03
7.919986742853315706e-03
7.854322299017590589e-03
7.865997003749512426e-03
7.836364097344315077e-03
7.836726878325889906e-03
7.875439084805901588e-03
7.911346798787625978e-03
7.947646620357223107e-03
7.802339803189090907e-03
7.827087114219661440e-03
7.975990785341344549e-03
7.835639078466466109e-03
7.969976115624359189e-03
7.897537768819792164e-03
7.835422930516365222e-03
7.813669105669093784e-03
7.793942618253288726e-03
7.815065377979915975e-03
7.910867254466172338e-03
