8.431704359286798164e-03
8.531239631171390683e-03
8.453372246960442343e-03
8.498842837897568545e-03
8.551600889351824303e-03
8.432649126283435492e-03
8.156635188505876460e-03
8.485930060388242185e-03
8.540723083394204801e-03
8.538394351059793580e-03
8.135872245640250050e-03
8.551554718698355442e-03
8.418422793682878158e-03
8.471873404939187641e-03
8.460733580523124159e-03
8.549543986739719173e-03
8.499798570424405009e-03
8.551021447650771282e-03
8.526351313235215265e-03
8.523078968170502007e-03
8.551116097490384788e-03
8.551301934370604194e-03
8.223434889946808907e-03
7.891918632499347538e-03
8.547546528843957825e-03
8.368525014211111376e-03
8.542990062479599925e-03
8.546141786712120950e-03
8.551348105024074789e-03
8.328536611240422091e-03
8.532391588975476310e-03
8.454118480147156459e-03
8.455328151268081197e-03
8.528124266328478142e-03
8.370534591903408886e-03
8.333003621963682231e-03
8.538495926497427502e-03
8.548008812511829688e-03
8.524678204180083374e-03
8.262342899626290774e-03
8.405978648306274698e-03
8.501062492063157783e-03
8.538767756219735328e-03
8.349918240862551702e-03
8.252808659684657960e-03
8.548888363460439843e-03
8.505052790789334113e-03
8.551248260985943803e-03
8.421886746959492479e-03
8.209400742691320280e-03
7.850143425239358014e-03
8.131627431186817800e-03
8.532174586904165900e-03
8.544143751683191956e-03
8.544305348970337305e-03
8.551589923821625167e-03
8.392107252604271914e-03
8.440741687570455301e-03
8.546769130466149236e-03
8.478420403601286473e-03
8.510027101567597951e-03
8.465282544156292263e-03
8.207364039740108752e-03
8.501362024177545537e-03
8.031981926867064539e-03
8.385320166544125639e-03
8.549969333884814907e-03
8.422220907063984047e-03
8.538940896170249192e-03
8.382126888723482119e-03
8.546900716828540606e-03
8.522745385199179818e-03
8.549225409230774841e-03
8.546937653351316735e-03
8.462512304948070427e-03
8.078766650028591095e-03
8.362256193736171406e-03
8.396364186854240325e-03
8.532139958914063821e-03
8.527726044442296427e-03
8.439216324606426192e-03
8.521992803547612932e-03
8.515213220218656454e-03
8.532961796545834865e-03
8.476931977160035228e-03
8.128210802830011100e-03
8.105478104460705005e-03
8.478570458225065040e-03
8.442978078597925332e-03
7.748703613899111248e-03
8.368383039451690250e-03
8.140889264272975143e-03
8.529592493108835785e-03
8.265411516682565074e-03
8.337399645307228338e-03
8.106510595698937158e-03
8.470883044422249097e-03
8.449829226439760019e-03
7.883943806378678268e-03
8.278186936497816673e-03
8.551244798186934462e-03
8.527828774146267374e-03
8.405662379330004416e-03
8.551621666145885550e-03
8.377757413505680650e-03
8.286768329578452982e-03
8.232000700431899715e-03
8.450911928263639752e-03
8.549874106912032021e-03
8.155412820455247916e-03
8.194002829758951362e-03
8.538124829870159804e-03
8.513412564733311913e-03
8.383098780979033465e-03
8.489890348189664537e-03
8.319697239633520522e-03
8.171144893492108402e-03
8.395596022607126202e-03
7.908227838704588730e-03
