5.181257183143469017e-03
5.425026781421135591e-03
8.447576179463964566e-03
6.780317880371047011e-03
8.497558813814660300e-03
9.686477679969864030e-03
3.552925388499442432e-03
4.227146556760227533e-03
7.333272171776832396e-03
6.873667221543115421e-03
4.271373304452609140e-03
3.930034371713513920e-03
3.004309735917682841e-03
2.705941653536878162e-03
2.549667102678485325e-03
3.737731312501809799e-03
3.537769581906810568e-03
2.066450019982257226e-03
2.071310959102085330e-03
2.504817790858189161e-03
1.930663083499726228e-03
6.933873795989082926e-03
8.482268208069966911e-03
9.004030792653059181e-03
6.367570303706324326e-03
3.623570170563381997e-03
7.320537179708430653e-03
8.304720271469971313e-03
1.015032341895441559e-02
7.285900110536325421e-03
6.348175565100489144e-03
7.524724845153210433e-03
6.076291245603404091e-03
6.920820187743079166e-03
8.900961801326491910e-03
8.599034724253216619e-03
8.225618792188624240e-03
7.921005387109785259e-03
1.011794785621774120e-02
1.043619045820841536e-02
6.394478145465128105e-03
6.348377578154819692e-03
5.467179181831366766e-03
6.773165727013683891e-03
5.575075691000390236e-03
1.009574053144738498e-02
1.074467998876722091e-02
8.765109507679324022e-03
9.334723191811904533e-03
6.148972126154282278e-03
2.542721975567058083e-03
2.481424939109983657e-03
2.714545775722242149e-03
2.307016374497689645e-03
7.546467242820585099e-03
8.141054048099723855e-03
8.885066641808912064e-03
7.625011700812417761e-03
1.223031221272584575e-02
1.159285779170074124e-02
7.626241603819665024e-03
6.751861519427393085e-03
9.794507874248370785e-03
1.404943605349688769e-02
7.738887647850613283e-03
5.840468484389475280e-03
6.336951214769249649e-03
6.040093031430555058e-03
9.156871492935357917e-03
6.376450708451287738e-03
9.617375846877877776e-03
5.983645236646228764e-03
8.588170581022529573e-03
9.230741428265586829e-03
1.054531464229952788e-02
1.098229338775317566e-02
8.707552126486287070e-03
8.626386697653526739e-03
7.073021427585016521e-03
3.844930431016361800e-03
3.525424504741068912e-03
4.694081907163952586e-03
6.329296999556270967e-03
5.645388117028253723e-03
6.723171952237196221e-03
9.887398229877879252e-03
8.925277637351422197e-03
5.948417724907240252e-03
6.645584085473223504e-03
4.186382253403465523e-03
5.607154547063518228e-03
5.852849582265272702e-03
7.316843757211424597e-03
6.175446605349843403e-03
8.319297889964084869e-03
9.898373777366470047e-03
9.284703422708573059e-03
1.148078213747025407e-02
6.491118368415646663e-03
7.930062553277288442e-03
6.003860281937755880e-03
6.372163872607185427e-03
4.352110569587494537e-03
5.305722104895332566e-03
5.060231682180593368e-03
1.116462130971225715e-02
1.163622895469242774e-02
8.575864866694579702e-03
1.215158356636094651e-02
1.339348778296485347e-02
1.241262231000366152e-02
6.646350546767596131e-03
9.128926106187951542e-03
7.904580686019641728e-03
8.960469499727882758e-03
6.876095091670344529e-03
8.707812069754725104e-03
4.593114000141433444e-03
7.946851174943248691e-03
7.546761350061449367e-03
1.244773767478969499e-02
8.757516936155717094e-03
1.086090285217190463e-02
1.059407554328855618e-02
8.167182060053205725e-03
9.520636845485352592e-03
9.691490128880439828e-03
9.263892364637265828e-03
8.449329682483354767e-03
7.900756549193362760e-03
1.190418961622617504e-02
1.014707412809891587e-02
5.195044945449053472e-03
8.914963831154774920e-03
1.109465126610368300e-02
