3.773634639608906740e-03
3.771964982060343249e-03
3.504720195873241469e-03
3.766323648265616341e-03
3.772168723066879163e-03
3.771289325947417646e-03
3.770524787820391313e-03
3.771919140333872440e-03
3.590461033006352078e-03
3.773630564788775683e-03
3.429477368778163174e-03
3.381457141595149273e-03
3.388096042293128364e-03
3.771269715875538806e-03
3.629424463096319557e-03
3.637511707674512262e-03
3.637697111990460374e-03
3.748479246884408190e-03
3.773207292847697257e-03
3.705464172203212520e-03
3.756838231030068965e-03
3.763154202232688386e-03
3.765816842511857544e-03
3.761859428136152175e-03
3.770135387821648473e-03
3.726145667100435807e-03
3.772684442489673481e-03
3.725291482930533169e-03
3.695034670078628687e-03
3.762839677053848777e-03
3.757823318796670899e-03
3.693837182312712832e-03
3.712088301678218537e-03
3.632972358048887351e-03
3.648595218430077114e-03
3.680288405378061289e-03
3.671452157924589600e-03
3.725168728974095119e-03
3.772162101484166901e-03
3.767681327397920995e-03
3.494304700942857302e-03
3.577040103553301865e-03
3.422926840741768485e-03
3.678107103226833669e-03
3.421041472402534724e-03
3.522652205887259746e-03
3.580300723686654241e-03
3.744600018119960665e-03
3.521201569920722439e-03
3.455619886679328536e-03
3.550481189970028286e-03
3.743657461288473192e-03
3.742322193666886964e-03
3.756972700094382989e-03
3.623453068871003956e-03
3.450189679502624514e-03
3.665251045714404930e-03
3.639026267381850234e-03
3.769857026671469009e-03
3.579291441675526084e-03
3.629095930723279847e-03
3.661380730618992926e-03
3.616259483282729947e-03
3.681440306093764717e-03
3.618895127878532861e-03
3.743177396541822691e-03
3.608695089062560150e-03
3.642659733557163711e-03
3.741416055540317583e-03
3.720980832584745539e-03
3.730644268524753188e-03
3.737423750517242238e-03
3.409498780353489682e-03
3.770907820912678537e-03
3.773000750402320889e-03
3.659229989618746279e-03
3.745326864160778736e-03
3.423079646496670746e-03
3.520526932512830359e-03
3.450904810435566177e-03
3.453456157189914878e-03
3.693086651379885298e-03
3.762019874178799354e-03
3.383882678277961523e-03
3.514455450518053949e-03
3.767905442505110891e-03
3.398506443698349686e-03
3.506985541189665354e-03
3.722705500205073306e-03
3.603624230086134757e-03
3.663277304713586334e-03
3.703557665734550936e-03
3.620188373917520522e-03
3.734401252685279424e-03
3.493823362814915765e-03
3.413405259477561397e-03
3.517145086480588483e-03
3.608140913524781994e-03
3.415057853716827255e-03
3.673858593888039339e-03
3.455582703945635301e-03
3.737904324616409934e-03
3.649347786772969525e-03
3.513190473543722700e-03
3.485978824710759139e-03
3.707127972197838458e-03
3.773576828098302010e-03
3.734897107359936522e-03
3.474630195970438915e-03
3.403556928574121530e-03
3.622546166715660300e-03
3.772069144649934681e-03
3.702863163578521202e-03
3.469636758576496657e-03
3.403222538647144267e-03
3.691651041312580313e-03
3.769377471277334402e-03
3.699026720425446085e-03
3.762849609427916953e-03
3.773598984932762489e-03
3.767999163368117820e-03
3.552521656150487567e-03
3.416149650835603128e-03
3.764424782084699675e-03
3.773542192127190848e-03
3.760748020945497028e-03
3.640546684643126193e-03
3.608125378273033777e-03
3.759036341814335404e-03
3.660847693210643027e-03
3.372015273999749013e-03
3.384800022159890551e-03
3.421373824919446676e-03
3.620819971037782681e-03
3.773180042488073066e-03
3.771916848247548748e-03
3.479035840560524076e-03
3.691456978003854195e-03
3.765106041075304884e-03
3.567154589916169630e-03
3.761941179215024314e-03
3.746301764877054113e-03
3.766476963373034930e-03
3.634024935023904678e-03
3.607863316403376371e-03
3.727933494432789964e-03
3.597987225787796419e-03
3.757005298655428406e-03
3.695265406768531279e-03
3.696661287339561824e-03
3.741969721725579845e-03
3.773434973422501448e-03
3.721268362080219338e-03
3.495212367126975667e-03
3.444123545709269762e-03
3.613355664587074127e-03
3.707626373635077195e-03
3.741389059856951773e-03
3.403192486848680056e-03
3.555179457580750959e-03
3.534852726711158917e-03
3.759594846848502998e-03
3.652231231367972231e-03
3.622180960961444117e-03
3.713911783686716511e-03
3.670399071597055946e-03
3.671295532025814663e-03
3.773643807954201075e-03
3.495607624679656061e-03
3.762207315904812343e-03
3.741486855540088891e-03
3.745988767755762620e-03
3.605234548066544101e-03
3.759899439653274431e-03
3.727062756306106454e-03
3.750935599394459793e-03
3.745431281426628116e-03
3.620044991184170977e-03
3.708315018237169376e-03
3.773073333135899994e-03
3.773432171983661428e-03
3.754353864131619329e-03
3.513184870666042660e-03
3.658537015520265095e-03
3.762277861228325269e-03
3.609472361002495546e-03
3.616795831482436628e-03
3.592937759617056796e-03
3.770543633863495444e-03
3.768976356170716455e-03
3.463369430539188065e-03
3.642400982478863087e-03
3.665531444274649706e-03
3.417303843637629814e-03
3.753157649746994076e-03
3.766419151862430200e-03
3.699501946323191254e-03
3.756086172039692448e-03
3.704156664293766811e-03
3.426739599002833706e-03
3.660675532060119874e-03
3.637545070264332388e-03
3.727702248390371911e-03
3.490685751314259386e-03
3.525530047604582846e-03
3.482518283714743090e-03
3.581961722242439725e-03
3.769378999334883820e-03
3.764016536042852704e-03
3.772686989252255554e-03
3.656984763726717994e-03
3.768984505810978134e-03
3.772925620906161012e-03
3.509969073554128436e-03
3.461721165796310777e-03
3.579939083400052787e-03
3.458970662208073112e-03
3.702164841278618359e-03
3.773597202198955558e-03
3.388233822148798736e-03
3.516426899432548853e-03
3.542956779922391310e-03
3.760607439650987503e-03
3.679919634156230378e-03
3.546889745377312941e-03
3.588584833012413086e-03
3.729813259894344118e-03
3.756612587865330519e-03
3.768115041065585227e-03
3.771241192134623579e-03
3.521013364165934741e-03
3.692908123322907830e-03
3.561601883459285939e-03
3.720589140499679873e-03
3.682774809686576237e-03
3.648731215551940122e-03
3.473088131227218805e-03
3.425405095410022187e-03
3.632335412727203967e-03
3.653046450070375137e-03
3.609490697693083783e-03
3.404315354470952362e-03
3.725873672856710225e-03
3.773406449681586221e-03
3.772993364790833918e-03
3.750138462706387177e-03
3.773410524501717277e-03
3.469756711094095121e-03
3.428090911228684479e-03
3.514045931094915941e-03
3.591393402787512994e-03
3.449069613319192228e-03
3.431961990352870757e-03
3.462875867950854225e-03
3.378729558870146796e-03
3.396238042266827833e-03
3.737067203755804496e-03
3.750179974936468548e-03
3.742095531797115862e-03
3.574045620109737083e-03
3.501887941206131664e-03
3.418993365934330526e-03
3.608880748054766208e-03
3.425736429221901483e-03
3.677500464379872443e-03
3.446966242102964938e-03
3.773463497163416242e-03
3.639833081767733080e-03
3.751288326012025293e-03
3.493891106699588672e-03
3.773473684213743233e-03
3.490926929730746916e-03
3.385687314243355367e-03
3.522923690778469435e-03
3.501375532574693260e-03
