3.592610906925041998e-03
3.800664222842975448e-03
3.567629446127608493e-03
3.511560485115134203e-03
3.668077038815834717e-03
3.692125513144927686e-03
3.629645047789836244e-03
3.507337306607755372e-03
3.704801566832290494e-03
3.669087946986676271e-03
3.521225146467083043e-03
3.610549193913201258e-03
3.721128978168379391e-03
3.788562360256166137e-03
3.668880550820325347e-03
3.531924122128647994e-03
3.738283011367494850e-03
3.458539951467779622e-03
3.670744449795344290e-03
3.695048910249761238e-03
3.663578023407209564e-03
3.683461686435739700e-03
3.588589791539736635e-03
3.639794127330333359e-03
3.731787659717624144e-03
3.662530969047375542e-03
3.785282538025446300e-03
3.760549063786920807e-03
3.757047031377968270e-03
3.644640383177477367e-03
3.740582738572088145e-03
3.489982987967992552e-03
3.708452628200778825e-03
3.538419473778518700e-03
3.479576440900983107e-03
3.614634602110075590e-03
3.772871951431012224e-03
3.472112549154254043e-03
3.609308372277948360e-03
3.741225666687775665e-03
3.726039230546854177e-03
3.668685598423955876e-03
3.699648068378710072e-03
3.776003337262672649e-03
3.779948604907140425e-03
3.720269765479211708e-03
3.716235613763450244e-03
3.493793151824095208e-03
3.711238254995107878e-03
3.772437604602626223e-03
3.762884640900269247e-03
3.609352221753119039e-03
3.535711472406451606e-03
3.521570312943938900e-03
3.589921571207947085e-03
3.549305698550274044e-03
3.651085070906710285e-03
3.631440802310196680e-03
3.542797014289709480e-03
3.476741335306967294e-03
3.562714453265330896e-03
3.637523731869266724e-03
3.758315703355560346e-03
3.777724725443384717e-03
3.626747130785439380e-03
3.770315349260381678e-03
3.798250131466651778e-03
3.781667326565714415e-03
3.650885674306775762e-03
3.591507263039817651e-03
3.527543026254604999e-03
3.573882440543085966e-03
3.572179421737107889e-03
3.514249228271754035e-03
3.594083715986370539e-03
3.679126513998532549e-03
3.549780339490979809e-03
3.498858358766857891e-03
3.760999409748140045e-03
3.607602983230069095e-03
3.509431415327423850e-03
3.586276139163974402e-03
3.550783248095404961e-03
3.786756828487963626e-03
3.486216673587061443e-03
3.633768676137366042e-03
3.718543044254222184e-03
3.523196002607891907e-03
3.675155766253626350e-03
3.754578720718155464e-03
3.672427321545162267e-03
3.744034403340641519e-03
3.775210787626974689e-03
3.637494992686215144e-03
3.746229543621346515e-03
3.658587775364571196e-03
3.750852107889068605e-03
3.769657310852574626e-03
3.759306168190004478e-03
3.515774478935145605e-03
3.563075618875018689e-03
3.510857708391442334e-03
3.732678574392219676e-03
3.548407080589499434e-03
3.483829839992601436e-03
3.678357074221370523e-03
3.801704166477106340e-03
3.589204276752610764e-03
3.458457289281477096e-03
3.466573293831260675e-03
3.536896000796552805e-03
3.789978579792105222e-03
3.637257968496099801e-03
3.728584574068454730e-03
3.619635219961031547e-03
3.785270686815940793e-03
3.526120881113913377e-03
3.721677689168496200e-03
3.711413060335317683e-03
3.652473736380548383e-03
3.743544652107815788e-03
3.633900817123355328e-03
3.674321441104420709e-03
3.573615195768731125e-03
3.521016565179781958e-03
3.635466658179304419e-03
3.714264757622641813e-03
3.674778601511105754e-03
3.614396096518771896e-03
3.552453083514766838e-03
3.510758454511831925e-03
3.533842832947630287e-03
3.766033803546187716e-03
3.580162692740427102e-03
3.655105001171065487e-03
3.772343683767293270e-03
3.540576986469042009e-03
3.568610429994447438e-03
3.518851052922841380e-03
3.680748055739158260e-03
3.598579176032143910e-03
3.650250745757504644e-03
3.686886389702667601e-03
3.565329422642777007e-03
3.628630584256142474e-03
3.774358093103035491e-03
3.630034656302337862e-03
3.760891563741637286e-03
3.533620326489160263e-03
3.556851659922830120e-03
3.530550566946929862e-03
3.780490501461791428e-03
3.684136316536855069e-03
3.644622310082980699e-03
3.731498193925445774e-03
3.459645373034430076e-03
3.578315978019191556e-03
3.542125050710732189e-03
3.760116790920198238e-03
3.767862741453164785e-03
3.622212858028534595e-03
3.726172852934031381e-03
3.507896091135952448e-03
3.763346541790756235e-03
3.533769948009169836e-03
3.737912364790202304e-03
3.563051620175769919e-03
3.477830757740784078e-03
3.550485782736810189e-03
3.655602751970306753e-03
3.661777232122809429e-03
3.511476341527643326e-03
3.562508538500168322e-03
3.774596894974576507e-03
3.780489020060603510e-03
3.579530726993531819e-03
3.522910092178564885e-03
3.750064298737173021e-03
3.538964333135545971e-03
3.733099292329674496e-03
3.470486859490301036e-03
3.609762273602018946e-03
3.757916613875453542e-03
3.597882324913205011e-03
3.729308682969256425e-03
3.774657928703531017e-03
3.708462405448620467e-03
3.621940280209902299e-03
3.596222266741685644e-03
3.745898302315660029e-03
3.637615875023174437e-03
3.608346054066079861e-03
3.568443624220653601e-03
3.575842630595339050e-03
3.756273443677479815e-03
3.539963093816643827e-03
3.550340309140127045e-03
3.646270220764756802e-03
3.499368257055843721e-03
3.709538791551981584e-03
3.487626374957772044e-03
3.580929169715212426e-03
3.536346104675485401e-03
3.552859580000814095e-03
3.753048137010486437e-03
3.584052852260693773e-03
3.606718290440463857e-03
3.768884611992799009e-03
3.560208515015337704e-03
3.808396840765247704e-03
3.601521238791949211e-03
3.687774934135362379e-03
3.600428557275517968e-03
3.697998972575983374e-03
3.550092618861456356e-03
3.747487253230145487e-03
3.544698837135146566e-03
3.681118109755975726e-03
3.742654922554170850e-03
3.695329487634809937e-03
3.674111674696168596e-03
3.529983486572079061e-03
3.661919150356640357e-03
3.710907902530134663e-03
3.689317961613012425e-03
3.632479560823376977e-03
3.668660118323518321e-03
3.730201375325278065e-03
3.589765431522708161e-03
3.769956553892595073e-03
3.515068146848601954e-03
3.596770088901089183e-03
3.752929032354953252e-03
3.711038858395173355e-03
3.515986319305061149e-03
3.766326232140742355e-03
3.490963675554594609e-03
3.498326832020524479e-03
3.633221446538437583e-03
3.476888586585076546e-03
3.495798376472470433e-03
3.540106493451663540e-03
3.616377322467897917e-03
3.534943217750240608e-03
3.520628734348705581e-03
3.520811539255332221e-03
3.580782510997578254e-03
3.735479904039144643e-03
3.731102956088428943e-03
3.732633836076335726e-03
3.688060844564688533e-03
3.734722315471488991e-03
3.592617721370507371e-03
3.682361005352892489e-03
3.702360217674103594e-03
3.751766724982676018e-03
3.630831057581125360e-03
3.497240372389084397e-03
3.654581177710910286e-03
3.577642236758789025e-03
3.522082877755062808e-03
3.571817959847182339e-03
3.505202903775767997e-03
3.763835996743343775e-03
3.535198907595327265e-03
3.755434970604946444e-03
3.565663034190364247e-03
3.496390048107045952e-03
3.516101868597742552e-03
3.619108729978738268e-03
3.745826898778387929e-03
3.615297677281922341e-03
3.664346574343658753e-03
3.678490696608547727e-03
3.534872703053681346e-03
