8.711375417470705942e-03
8.737387337000237716e-03
8.630126032220134663e-03
8.520038011372159034e-03
8.303324543566723698e-03
8.707062376077778082e-03
8.309068724938480088e-03
8.725942509363192670e-03
8.354598475087609416e-03
8.305592048126154633e-03
8.313921969553919947e-03
8.669225463192747200e-03
8.451639453746403671e-03
8.358452251765822322e-03
8.645556468195822811e-03
8.332141718196147892e-03
8.385864039577988274e-03
8.725393721753488263e-03
8.500220953541907931e-03
8.360315063786252429e-03
8.739101761756368908e-03
8.422106095957049982e-03
8.308913592798528383e-03
8.473763259048959842e-03
8.704943258782647797e-03
8.519836891443687346e-03
8.432293310870624808e-03
8.620173048442768965e-03
8.490882366619207158e-03
8.728748990804112082e-03
8.742981904766668200e-03
8.374918332739044943e-03
8.734893572521273963e-03
8.591993571147527736e-03
8.617028710048836235e-03
8.695911870287280354e-03
8.332412739563175436e-03
8.227082308730515256e-03
8.373144430443091660e-03
8.517478024477723869e-03
8.706463921656469249e-03
8.555288571030670100e-03
8.336007145114118083e-03
8.459818535227814351e-03
8.248842503918484351e-03
8.330686051396770861e-03
8.370825419560513209e-03
8.469311641119952466e-03
8.337313811478680101e-03
8.618095013572052432e-03
8.592327135906945718e-03
8.235219694616997821e-03
8.251022938264979817e-03
8.578487877414147506e-03
8.360851587985685188e-03
8.593359101881397483e-03
8.277464690324571814e-03
8.299299079144692101e-03
8.501653319861765187e-03
8.328588395069617262e-03
8.266706000492287168e-03
8.517358456227563587e-03
8.465462769805849261e-03
8.618116474540029118e-03
8.523290880947005654e-03
8.525933032690271793e-03
8.701505824883194740e-03
8.253359731092452245e-03
8.662102874506331582e-03
8.432368117673288629e-03
8.267837300089947786e-03
8.324633445256655884e-03
8.345062447259517929e-03
8.399730890743901598e-03
8.685547449095264508e-03
8.354899541809806054e-03
8.340994060901532961e-03
8.578405712565318267e-03
8.679684925814374827e-03
8.533063592593361987e-03
8.278256293457677759e-03
8.303593725422209887e-03
8.689929165585717763e-03
8.398833209111937481e-03
8.296040077864708789e-03
8.386612720775140847e-03
8.250905209526362624e-03
8.386849404593403959e-03
8.578254872618963633e-03
8.443177700658204693e-03
8.572163023565974524e-03
8.684655899168435347e-03
8.743519042136613587e-03
8.374879089826170811e-03
8.239016446437442617e-03
8.705859948700536352e-03
8.238359127646824320e-03
8.396329633904754328e-03
8.360867530419039545e-03
8.372081192772443808e-03
8.199374972730773259e-03
8.202373989712975419e-03
8.367329121291752422e-03
8.678368448721595144e-03
8.468885487612973217e-03
8.555005899423881802e-03
8.247663377020760661e-03
8.385791685457380171e-03
8.340224531906918065e-03
8.251758742881344644e-03
8.461485132683880736e-03
8.666250973031090071e-03
8.674723763188533707e-03
8.671954071978434445e-03
8.487929950596042813e-03
8.554525173741190161e-03
8.740392485687576568e-03
8.722934294823287207e-03
