8.531721112980060126e-03
8.472602437126395061e-03
8.032692415133260364e-03
8.410412895671456196e-03
8.632093555289162279e-03
9.010370308455327437e-03
7.879913341336091878e-03
8.910010569487487875e-03
8.976128786377454358e-03
8.450674464314508749e-03
7.735376061631435603e-03
8.558966437006172018e-03
8.392392203193523026e-03
8.372373074555737246e-03
8.692731283319203583e-03
8.405124962721211707e-03
8.202005221883600095e-03
8.462025902628995608e-03
8.286370785603522707e-03
8.284059446090435291e-03
8.491591926524913805e-03
8.703487670385021135e-03
7.961576436351387037e-03
7.435415407356033360e-03
8.633686821722394780e-03
8.290427163048097112e-03
8.577917816380897786e-03
8.506769076350501405e-03
8.493067519902230619e-03
8.905569748820459097e-03
8.716304673123193708e-03
8.524453464583400808e-03
8.629023358284797218e-03
8.347209092706147845e-03
8.427339763606893699e-03
8.473973060789058778e-03
8.749713123452929411e-03
8.724333184801858626e-03
8.680074743839097384e-03
7.565119864643038081e-03
8.312785712269132182e-03
8.666555714346876188e-03
8.870512538514075881e-03
8.386414946830494238e-03
7.914953168122851324e-03
8.619812098674791562e-03
8.885066556020834033e-03
8.586665069736324624e-03
8.619685733859062254e-03
8.276822553151572809e-03
7.291423034131898698e-03
8.218288230996040680e-03
8.744964748207937483e-03
8.313861484695095339e-03
8.666900710351723575e-03
8.688922286730816139e-03
8.541373646549752646e-03
8.649814047755126703e-03
8.669084347855264203e-03
8.391571166189742970e-03
8.638032701628401561e-03
8.348038821469739787e-03
7.786254949183313810e-03
8.693388514080371832e-03
7.265852545361871709e-03
8.519654275973353313e-03
8.465320748194655673e-03
8.293176433536327691e-03
8.535420459675433294e-03
8.166479325144276880e-03
8.746190286341430642e-03
8.844565629684497665e-03
8.955477833661027245e-03
8.284316187303344611e-03
8.322797282378750425e-03
8.522428284547202068e-03
8.706045053560478031e-03
8.527319070933731329e-03
8.457803044554176169e-03
8.587385148606904023e-03
8.482677523942333195e-03
8.411596312199707409e-03
8.654863960205904858e-03
8.858382184801050913e-03
8.359650343981677931e-03
7.610200011206488119e-03
7.863413706825261168e-03
8.639156613031783588e-03
8.439821130696941245e-03
8.676487721424371719e-03
8.813823543826322660e-03
8.972769755508567396e-03
8.823044163793048941e-03
7.871369341440885570e-03
7.870558333390734879e-03
7.658237361896746108e-03
8.470834666900014381e-03
8.222756464136322593e-03
7.744884178268867173e-03
8.017048584665458985e-03
8.532472615905343366e-03
8.631784663517381648e-03
8.086840741568273455e-03
8.973404253974843689e-03
8.584003385443123371e-03
7.810597225432212680e-03
8.450336822875657503e-03
8.960075106004671691e-03
8.570612057960448962e-03
8.048640457194482928e-03
7.508641477981500660e-03
8.813103464955743260e-03
8.357055519379338535e-03
8.021951405796340362e-03
8.977056130289706726e-03
8.039419837227758381e-03
7.689410692760978612e-03
7.952606540225393150e-03
8.013888127078429638e-03
