1.496535485931771610e-03
3.291719788264620052e-03
5.301256915635117924e-03
5.158438210093053413e-04
7.069514826829154455e-03
1.826376368355637440e-03
5.733319015116852824e-03
1.068109582738620842e-03
1.420078308830758458e-03
5.692198981780107608e-03
4.768106699055671242e-03
6.497839211604339998e-03
1.908114289054936488e-03
7.330207873640920066e-03
7.389295341671980356e-03
6.113689587068340398e-03
7.085857664060214028e-04
7.067668407600600014e-03
6.671687946795813555e-03
4.911252941304968499e-03
6.884964249894413683e-03
6.699042970969825046e-03
9.352840182853954269e-04
1.067821111807867483e-03
1.611760795501140280e-03
1.335457474951578898e-03
1.545556941409164829e-03
3.813179009942645106e-03
2.689268808632799043e-03
2.176359411178601256e-03
1.175962493908930045e-03
1.540297109868567953e-03
8.366247148081245883e-04
1.186944659861090138e-03
1.095881757560328859e-03
2.150502485763054663e-03
1.339650021781062586e-03
2.224837153156091017e-03
7.697744472028730193e-04
1.089112024136681522e-03
1.188348975097037498e-03
2.449308463333877209e-03
6.489646816783705731e-03
6.911787620282771293e-03
7.076091219940306917e-03
6.328992435340246789e-03
7.477121365350144003e-03
6.066051663064037959e-03
5.742367393059562286e-03
7.234272590193546737e-03
7.433579125576830239e-03
6.685963056212351242e-03
6.962050969738235902e-03
6.124117391049503645e-03
5.005946330774270654e-03
5.290736226195263785e-03
7.088234069241600849e-03
7.035378137812078707e-03
4.793237604014409341e-03
5.704043673890797986e-03
4.429568453350666082e-03
6.461564104320063374e-03
7.108430241765158024e-03
6.974348799197124284e-03
5.006676584960549452e-03
6.785669181374960439e-03
7.020789475825045534e-03
6.488889877272276813e-03
6.969165174786999366e-03
6.835656440351002040e-03
6.644171271132921601e-03
2.622159064728926420e-03
3.072202967926210542e-03
4.547231236441665395e-03
7.347492266647296863e-03
7.469317960461484274e-03
3.226525229619492743e-03
5.483139473234323845e-03
5.652766282079685171e-03
6.743398086801515035e-03
7.111874701426651804e-03
3.225483732169700645e-03
6.515679377824869396e-03
5.959844068972424726e-03
5.452726413434143445e-03
6.397212955903433008e-03
5.553571796708867483e-03
7.134367864630312625e-03
7.306556977869272176e-03
1.660107676749535610e-03
7.252210260486734866e-03
3.172780471590789034e-03
5.295098250498407426e-03
6.007059646388317360e-03
6.709076140046387263e-03
7.028137177468859326e-03
5.372647344918364196e-03
6.481309705392072212e-03
7.105565674746315563e-03
6.994007672962399350e-03
7.279529362107662292e-03
7.416007865325105475e-03
7.359898890124096961e-03
7.418119598267157097e-03
7.325585154238246216e-03
6.386122637407521015e-03
3.634892813086548422e-03
3.914757469889962489e-03
5.909660262313076382e-03
5.928977871824047188e-03
3.179636290847007076e-03
1.675114836480005604e-03
4.497552398242821679e-03
5.163646851995505431e-03
6.216752418227050950e-03
4.282530002474639955e-03
3.866690014786633173e-03
5.035425917373578635e-03
6.232205274205436345e-03
3.724487765914469284e-03
5.549366805280637333e-03
6.170846987640091902e-03
7.460836645678182132e-03
7.191499093056245503e-03
7.017554393330100761e-03
5.509398346359921199e-03
4.611800486073453290e-03
1.862829548867348146e-03
1.887485891240870328e-03
2.683814225536549584e-03
8.903111628354820443e-04
6.312304356715077100e-03
3.316319552617034028e-03
7.301730013093346051e-03
7.132832945254935497e-03
5.173721588597779072e-03
3.930069714731987580e-03
6.532858569068641062e-03
5.294423419679744440e-03
5.434694831323605771e-03
5.272584560121556206e-03
5.952196157420689207e-03
3.916759895634770033e-03
5.801609328068888134e-03
2.266493202302793074e-03
3.828946701439851687e-03
2.771612537530904891e-03
5.606689449596577619e-03
7.499925515227652377e-03
7.484650219297371739e-03
7.347465068142818717e-03
7.166370240814826445e-03
2.790613515395400784e-03
7.571462713799216940e-03
6.974877373906799606e-03
7.073308248434901496e-03
7.225170841600538768e-03
7.049862111215836509e-03
7.244096895282887104e-03
3.013620724945320194e-03
7.393961168138355779e-03
4.736942344716691018e-03
2.496869667028377062e-03
1.615452222715092322e-03
5.173217133316603336e-03
5.720186242888409406e-03
5.496237862447670743e-03
7.557367217148103049e-03
7.522914922843211040e-03
5.612222549130284691e-03
6.032714507442762074e-03
7.432454236485947809e-03
7.604252178780783293e-04
1.297560079511030041e-03
5.927000078687068990e-03
5.736384748432968132e-03
6.195778779018874458e-03
6.954893144446441973e-03
6.031983226897822889e-03
7.352729261707719420e-03
7.446233101490585919e-03
6.966546420667123207e-03
5.983356919504361111e-03
7.130818203206212846e-03
7.263376016344124178e-03
7.330352077032588690e-03
4.895171953826930010e-03
1.555476954443509334e-03
4.857808906363517143e-03
5.441774653357272715e-03
7.457135596351797090e-03
7.489621900644296247e-03
3.474039061473470792e-03
6.374752636176878560e-03
1.830358639954743089e-03
1.128795283644870324e-03
1.233122075492833463e-03
8.619193881204791682e-04
