6.244035714303852388e-03
6.261080581562382050e-03
6.222779148063043060e-03
5.471235541725376003e-03
6.603708367633031456e-03
6.575841780598649759e-03
6.566628048758114435e-03
6.757851769352379162e-03
6.611151166158880065e-03
6.083241799376299178e-03
6.015404320494684848e-03
6.359175651383411516e-03
5.665467409652518056e-03
6.069152878385999754e-03
6.518357187631891592e-03
6.175551820369357993e-03
5.541948469906372160e-03
6.750447511799493108e-03
6.689939647826922964e-03
5.778714448313075798e-03
6.464915006082622151e-03
5.673511252212443644e-03
5.668148202645408723e-03
5.853255129327959716e-03
6.332963886884404071e-03
6.692529210921783524e-03
6.488873831174682069e-03
6.220561334606139990e-03
6.612489855143865482e-03
6.181518841132969261e-03
6.283977822386466704e-03
5.702223301349950389e-03
7.828688310142320125e-03
5.980516446334974145e-03
6.444266801782146462e-03
6.019914102191916729e-03
6.468630551020540347e-03
6.504120932795577278e-03
5.680339346612534208e-03
5.677736123425988247e-03
5.648577682006680409e-03
5.700638730714662449e-03
5.637159308940508685e-03
5.772019539806898594e-03
6.353835531255989238e-03
5.733811775507674686e-03
5.791014873013668011e-03
5.883423929671431456e-03
7.058408424479453713e-03
6.663265391652344917e-03
6.302653119159507857e-03
6.315190644022893214e-03
5.786952947179489944e-03
5.899856044245871921e-03
5.741435570248330789e-03
6.150227473969363187e-03
5.822196471583389495e-03
5.995422045663781167e-03
6.212144766687422055e-03
6.264328268360140096e-03
5.798962607071390073e-03
5.830555959833286922e-03
5.897889966764279651e-03
7.456392268516316875e-03
7.855564540529647727e-03
9.586856269149035895e-03
8.427735043668921344e-03
7.322920000537056634e-03
6.386645607898553366e-03
6.432300561467382306e-03
5.848312615440611276e-03
6.394877276719126112e-03
6.042183466658974933e-03
5.968942445795693413e-03
5.781414267862239678e-03
5.830704757260553664e-03
5.967360802322909177e-03
5.727984282823401184e-03
5.648345948308477679e-03
5.820267959353927524e-03
1.387246220176159214e-02
1.354947811539226367e-02
1.331348149286359049e-02
1.263815290449287441e-02
1.301453038636974681e-02
1.218412170427852700e-02
6.383922371049360715e-03
6.365583210103817335e-03
6.838488754141451749e-03
4.896716478537371797e-03
6.909826143656550186e-03
7.602162521894084354e-03
7.359362197986185974e-03
6.657853068183167480e-03
6.764529114883534137e-03
6.560171703995982227e-03
6.571427619543202675e-03
6.672567914088823639e-03
6.476855877655687821e-03
6.577815175986501291e-03
6.680333676210903349e-03
6.836467060572290824e-03
6.763068460794231448e-03
6.127883466858461380e-03
6.560925936201079771e-03
5.706961401722463433e-03
5.633833076615571075e-03
4.069066159245388233e-03
5.934745381986835343e-03
5.639839614072982357e-03
5.676488176478615942e-03
5.838289035307411487e-03
5.788216017799798635e-03
5.890416433032142143e-03
5.865979504731159110e-03
6.186178883838718869e-03
5.704375741510939700e-03
6.895675264393257703e-03
8.610313877669185240e-03
6.473488665055700947e-03
9.038317724622253399e-03
6.368381577457269717e-03
6.106883515197134536e-03
5.999979149821487584e-03
5.961075208706820630e-03
6.034863121097859724e-03
6.215214872293294175e-03
6.330005501314087991e-03
3.860807572531148747e-03
5.894118317878376673e-03
5.773029410870644633e-03
4.432155299076699292e-03
6.297891113626549048e-03
4.714007385805696511e-03
5.559249951744384306e-03
3.432178044592933217e-03
5.815032241355801157e-03
5.836873752236914487e-03
6.315713630390205023e-03
6.202539282931821170e-03
4.223180777200117621e-03
5.836959127809938051e-03
5.863138693521404744e-03
5.753411079911023053e-03
5.967937941196538656e-03
5.872149475428354790e-03
5.825339268391434636e-03
5.750931773270463211e-03
6.648050000958572597e-03
6.669454876766232540e-03
5.777223546877902072e-03
3.943148165897323275e-03
6.650510768903276221e-03
7.707812110276517602e-03
6.730708191456389981e-03
