7.072932949262068780e-03
7.165567892679186937e-03
9.433080720771066033e-03
8.893003860019338749e-03
8.480248839430250263e-03
8.050685921126760070e-03
8.201934352891718585e-03
7.804208722233674754e-03
7.491246639308878422e-03
8.815799969527034208e-03
9.278694255235548499e-03
9.456931376086006105e-03
9.089784755469378086e-03
7.446201766521706733e-03
8.752487756870652724e-03
8.072886627460659423e-03
8.390047853855974944e-03
8.239005915504063818e-03
9.319046398684235899e-03
8.510707283962757122e-03
7.984745247154600295e-03
7.473824590217601795e-03
7.803628542353785100e-03
8.640072076699013837e-03
7.403045975410041390e-03
7.512458841691279678e-03
7.546709437838263444e-03
7.433840804373481603e-03
7.626544454077481203e-03
7.246194911073615928e-03
7.393309477930889995e-03
6.775983431357544481e-03
6.713352646964224069e-03
6.812568735287549346e-03
6.835587421980236084e-03
6.695741423262283575e-03
6.656396434783048294e-03
9.362594527280694925e-03
9.480630158826186885e-03
9.436760966277825749e-03
8.182014399610334013e-03
8.480409371406200450e-03
8.212634042226574574e-03
8.960680410876676813e-03
9.269001720870143762e-03
8.744137429690067298e-03
8.656017364833096250e-03
8.982001854935658600e-03
8.690643645770273693e-03
8.563253196505877379e-03
8.418815716832615467e-03
8.136256125386466531e-03
9.269512625540493253e-03
8.396702936726205962e-03
8.488260117748766542e-03
8.078532557038088646e-03
8.635808320773444291e-03
9.626711592510434415e-03
8.955240308604513200e-03
9.554241063931439779e-03
8.863237501474437868e-03
9.130607171013591095e-03
9.500703983005683029e-03
8.556554150521897967e-03
9.188637148942621624e-03
7.916375944201872739e-03
9.182538932179837299e-03
9.058072696087328748e-03
9.614201422218585785e-03
9.361757895903955254e-03
7.414630255882088267e-03
8.151458703341359427e-03
8.241092165083641410e-03
8.503071690434432783e-03
8.561200918423285053e-03
9.135592987777047327e-03
9.331724428137658581e-03
9.767137771108274844e-03
8.556518846809345671e-03
8.023765841143015026e-03
8.960929535187903833e-03
8.417089165456411587e-03
8.911386436535185043e-03
8.345192155679465387e-03
8.116536004440290733e-03
8.752250622499539376e-03
8.011576068695284991e-03
9.203333484981651366e-03
9.136589485021955406e-03
7.956812017231348899e-03
8.705331988515894320e-03
7.989262790145884932e-03
8.117483875816964081e-03
8.874260919192333494e-03
9.043630147114014098e-03
9.748857109083384348e-03
8.661310257284990377e-03
7.780926922966295914e-03
9.643185104117253312e-03
9.259778792492479385e-03
9.525838894128229803e-03
9.544055609805852589e-03
9.322729308622131408e-03
9.088114823254818050e-03
9.496652049355435929e-03
9.453640803632904280e-03
9.460858747580642297e-03
9.550686712795861469e-03
9.126940913770295594e-03
9.062482995725384266e-03
9.602384004022130118e-03
8.754121053157091700e-03
8.312724730070329346e-03
8.543058140709689635e-03
9.430297722449394390e-03
8.365682297223979089e-03
8.565759093989393572e-03
