5.344134765413776147e-03
4.771173043223354664e-03
4.705225726719408988e-03
4.556504466913682480e-03
4.683060181311523261e-03
4.949818119141432757e-03
5.392980245573854130e-03
4.532733837868483523e-03
5.397330828437366113e-03
4.660579116037947243e-03
4.672047768438256955e-03
4.756736818381270861e-03
5.309070284172604653e-03
5.204151317080219462e-03
5.426498642827394699e-03
4.598606763509786519e-03
4.713520491132785172e-03
5.380293122147500849e-03
5.140005138950107938e-03
5.079616981984529621e-03
5.153665206910038564e-03
5.050320907486497042e-03
5.403903609286420627e-03
5.118493720093046824e-03
4.952000739722217312e-03
5.372381672228331885e-03
5.107646579530380690e-03
5.406438761935491652e-03
5.161526818615811037e-03
5.187048014906545275e-03
5.375880607974694442e-03
5.163300106223336558e-03
5.183805232918740381e-03
5.024757935046297690e-03
5.006259895812438000e-03
4.805225735441095818e-03
5.258122804071059357e-03
5.243513611311896062e-03
4.670231605308913618e-03
4.730608768550950173e-03
4.849737123322976629e-03
5.034154637016159325e-03
4.828871402495353224e-03
5.261349828388452686e-03
4.719726814530396733e-03
4.576603192295438521e-03
4.682775077414302531e-03
4.919606267472247454e-03
4.755102418147842507e-03
5.390214957645277256e-03
5.167258946071257887e-03
5.429641381930956287e-03
5.162707910981807237e-03
5.075618198274400861e-03
5.047337577374312254e-03
4.716459479893345651e-03
4.826255262749513768e-03
5.239105494628506533e-03
5.240545672412672516e-03
4.905340445345084815e-03
4.706071144059883853e-03
5.406045919547546562e-03
4.866154417147551883e-03
4.648794943771945506e-03
4.603671205488706931e-03
4.707163187265179377e-03
5.114085603409657295e-03
4.755407310747441357e-03
4.663951623963562623e-03
5.317623034631796183e-03
5.420869856373254463e-03
5.334678330879330695e-03
5.419433343163604713e-03
4.718467666727244221e-03
5.362714524659307515e-03
4.623028587446197102e-03
4.791338097403821140e-03
5.427419550402866680e-03
4.750639699304189285e-03
4.690915929698073229e-03
4.588236017633994836e-03
4.641582694670126977e-03
4.537349735926839850e-03
4.589841101271308066e-03
4.601273840841377770e-03
4.773540358359666322e-03
4.918430305510572247e-03
4.721349854582831268e-03
4.548506166578522580e-03
4.562935428729027708e-03
4.548537315461894520e-03
4.557388728744011207e-03
5.420399325005603383e-03
5.219549126274885056e-03
5.413690588442065556e-03
5.388035268724103086e-03
5.423542797024068218e-03
5.296260031042567505e-03
5.394237927547201016e-03
5.277163200333052744e-03
5.292862237552802690e-03
4.893344094214698535e-03
4.649288561959037148e-03
4.574066573816561003e-03
4.659066746135848321e-03
5.068800257390333047e-03
5.357605008413860413e-03
5.400957291376830283e-03
5.413878214657203043e-03
5.142653893409126695e-03
5.179700909462597001e-03
4.661023995383996830e-03
5.165137523884863642e-03
5.082636957841858531e-03
5.302858830370672100e-03
5.110670219962223232e-03
5.065722014798225079e-03
5.050513297648503465e-03
5.241582380542800235e-03
5.314676716722207574e-03
5.142571806940003827e-03
5.429650543367242101e-03
4.787445219897158190e-03
4.778329224335102141e-03
4.829869266135628815e-03
4.672055830502189200e-03
5.219355636740524197e-03
5.005266063204129832e-03
5.407397414628462191e-03
5.081471623146273896e-03
5.422843962664168974e-03
4.710657725522125056e-03
4.631672952268248503e-03
4.677718331041862306e-03
4.863636121541245992e-03
4.673192581516560223e-03
4.756164411842119660e-03
4.760645453558345376e-03
4.642822053770902235e-03
5.018561505999875189e-03
4.791682567408176233e-03
5.429208595680803766e-03
5.299618613585028136e-03
4.623103711223742161e-03
4.599225343687819711e-03
4.670493988844145843e-03
5.064941093969202966e-03
5.159015485701082954e-03
5.415216150812415981e-03
5.229118063246922937e-03
5.236585000277492637e-03
5.195414604980404076e-03
5.425525331836366164e-03
4.607730454678323623e-03
4.882549723525040145e-03
5.173912714017079098e-03
5.428760418217690870e-03
5.208326000367039833e-03
5.350130009319358469e-03
5.326442199658185626e-03
4.750762096092970774e-03
4.658572761491305489e-03
4.977838555250996277e-03
5.384422731167794532e-03
4.672614678115636841e-03
4.611649717121489578e-03
4.905456612357191742e-03
4.538884459733476956e-03
4.579890315634867724e-03
4.950568257544533252e-03
4.674504499192720479e-03
5.309422083325988743e-03
5.338678213961813891e-03
4.706063081995952475e-03
4.687076921436773326e-03
5.368510782168755928e-03
5.146912495452327617e-03
5.369821234015110557e-03
5.244654026900781585e-03
5.427265271815810005e-03
4.614412806305357578e-03
4.598219051526161553e-03
4.651028868395932180e-03
5.066753226066581482e-03
5.114625028778178872e-03
4.975581177350117852e-03
4.613760512041791516e-03
4.876533958002178190e-03
5.069882772701890701e-03
5.307492318386697674e-03
5.423922080486309749e-03
4.580980160095455243e-03
4.567267322262516874e-03
4.654561884685278796e-03
5.426093340886100486e-03
5.193440865146941622e-03
4.913724991834064054e-03
4.961475130671783203e-03
5.212016593360506433e-03
5.391329721212561286e-03
