7.861832772602430838e-03
8.907701069590819726e-03
9.379851067090889949e-03
4.284690362393215116e-03
9.301713678147020825e-03
8.637216667211256374e-03
8.688483481568210973e-03
9.129284110006284994e-03
8.611476569872334938e-03
8.565947640034606014e-03
9.090225280720419521e-03
9.148822293703503389e-03
9.310848109691891028e-03
8.191775747548387873e-03
8.283413826315574879e-03
9.114213759466296624e-03
8.779661184985536673e-03
9.164070948347247808e-03
9.329307699712288335e-03
8.320679384000551071e-03
8.830743118448024231e-03
8.826430936004320618e-03
9.378881355838085063e-03
9.473851675232842010e-03
9.341129115640398398e-03
8.392225367141643161e-03
8.795561672664323899e-03
8.074304765617781876e-03
8.656936808784846879e-03
9.697700785425962186e-03
9.312419231917608980e-03
9.654888070152415486e-03
9.696253160714731617e-03
9.771932291441244936e-03
9.714033149028189484e-03
8.378246033105373261e-03
8.432405904621218667e-03
7.581393301348006951e-03
9.500676212284770925e-03
9.387276263805083634e-03
7.657155007335685569e-03
7.559909118354472130e-03
8.140131133102737268e-03
8.422341222567818197e-03
8.833166300448247812e-03
8.288801679418001181e-03
8.744945229833364642e-03
8.548025885343570052e-03
9.380446632027614889e-03
9.233750584435091238e-03
9.385414301278977370e-03
8.879906090531563059e-03
9.182231659767496612e-03
8.077866463165758737e-03
8.180840006102868198e-03
9.688656967442015738e-03
8.831140648908856680e-03
9.487099523990998734e-03
9.254958542218708062e-03
9.263758288191774673e-03
7.756181014336365441e-03
7.981563247519973814e-03
8.943478811065767864e-03
8.997855716675119339e-03
9.348232780364213942e-03
7.321535531250485118e-03
7.856618839076618191e-03
7.985344171425027074e-03
8.753617824519326074e-03
9.678352597904877827e-03
8.120535219798157012e-03
9.748868947922231104e-03
7.967497684449922554e-03
9.735115417033750329e-03
9.658651455948902634e-03
7.684739529092147158e-03
9.099541670141665303e-03
9.673447042788021338e-03
9.227934509181839190e-03
9.044720465781969435e-03
9.541473506582255279e-03
7.834316211016663367e-03
7.995863382792100724e-03
7.981488710558568705e-03
7.538115095442933684e-03
7.636149468555101898e-03
7.956599942239630033e-03
9.107036288535600571e-03
9.180310506124979286e-03
9.036930622560505194e-03
9.706307612204799831e-03
8.588766911542740010e-03
8.825148461815420647e-03
7.969951558140135964e-03
8.199153445218548483e-03
9.320880638546254204e-03
9.503993837821867949e-03
8.941876997150060083e-03
7.841419144985954312e-03
7.987259479031354539e-03
7.828022953059508501e-03
7.834266519709058227e-03
9.407012481978192786e-03
9.374053991455253212e-03
9.327562657909956728e-03
9.181511135807236823e-03
7.336271926973193629e-03
7.688092230846377273e-03
7.742605056797116983e-03
8.325881625453985732e-03
7.746011834386092032e-03
9.144962448309902625e-03
8.814863091895898048e-03
9.390177359263734633e-03
7.542780232321529867e-03
