7.383663918383744432e-03
7.408185901075595506e-03
6.781816780417075988e-03
6.778412581257933431e-03
6.756833659443962393e-03
6.834122785133082446e-03
6.472689649525642692e-03
7.048132068250841098e-03
6.886150344568426479e-03
6.806648930003839776e-03
6.620500035759364736e-03
6.833037201000882743e-03
7.184547933157574978e-03
7.257880081187335908e-03
7.296901191341820594e-03
7.342736574187600992e-03
6.861408072888712691e-03
6.947874731530945779e-03
6.869195729187722171e-03
6.643882977524625741e-03
7.798993251480927820e-03
7.183991042596250994e-03
7.518676983015754045e-03
7.468247253039057496e-03
7.593127024229267760e-03
6.611852371251729539e-03
6.421606689270263103e-03
7.140200528995161236e-03
6.633636896121041134e-03
6.685999294817941523e-03
7.389622294927522712e-03
7.107542539684824287e-03
6.935436921557429010e-03
6.904753896452966132e-03
7.662065728685046352e-03
6.825971505144769885e-03
6.786732455751624989e-03
6.946823806199504264e-03
7.602967186457879056e-03
6.812359408006605534e-03
7.566259404394629420e-03
7.290098667396543476e-03
6.929123145446562486e-03
6.936733983117979001e-03
7.594972164791626706e-03
7.008492386618431561e-03
7.108394911208537961e-03
6.988524217883730454e-03
7.612308614417965212e-03
7.571062291767392295e-03
6.611010573599434073e-03
6.536719140457183073e-03
7.197486239711522668e-03
7.447299826323632889e-03
7.170608046005466987e-03
7.449189612120865438e-03
7.413859370528399703e-03
7.474467039181767469e-03
7.707108071174512305e-03
7.453477904417975426e-03
7.841051412481446492e-03
8.079385299357927028e-03
7.247861925456529526e-03
7.966702488847836328e-03
7.605295200481639734e-03
7.392523060319730784e-03
6.774587189553990876e-03
6.620490049325247588e-03
7.489399695372521600e-03
7.335606260228381102e-03
6.819720584825108949e-03
6.843763218679362915e-03
8.213439666314747631e-03
8.124362436306984889e-03
7.354376056869095513e-03
7.315013645642745414e-03
8.000679862336159201e-03
7.851806214587675123e-03
7.293203860969491720e-03
7.299644523537368070e-03
6.981526664754530119e-03
7.734532581570472028e-03
7.692094348636224072e-03
7.300719533798150432e-03
6.990087388541622350e-03
7.659571469905110917e-03
7.415975319686507299e-03
7.480654516272925228e-03
7.936042373798111310e-03
7.460953631510167279e-03
7.212639184890141247e-03
7.705778700562408365e-03
7.419854755622137810e-03
6.612298823600469902e-03
6.812018694372040314e-03
7.689958426609883914e-03
7.006495099795120689e-03
7.215457709060213096e-03
7.055034456537282762e-03
7.440809231585174266e-03
7.964988934240895685e-03
7.390959302224538695e-03
6.943168771312846488e-03
6.717396643680388114e-03
7.513215578428600327e-03
7.437148909762806952e-03
6.648161283387617713e-03
7.854785696578214793e-03
7.291149005290684798e-03
7.386864864236751538e-03
7.010254698521352357e-03
6.777874488690240756e-03
6.713655842947786889e-03
6.918674398174141753e-03
6.560348805888852747e-03
7.238281997952247804e-03
6.864609606179019122e-03
7.837154353426786790e-03
7.260877186296903901e-03
7.468252539974766166e-03
6.528375768471451727e-03
6.598090477601816634e-03
7.271406999916858738e-03
6.356635536345260976e-03
6.357953158211345455e-03
6.838709495579085688e-03
6.837257350571078474e-03
6.754715360536650559e-03
6.790237694126535078e-03
6.808009434792894679e-03
6.413500641954125205e-03
6.535900252859624601e-03
6.725673635251108382e-03
6.388082229940990515e-03
6.545997125188762582e-03
6.647971541139403168e-03
7.055995503961676012e-03
6.883812931547852315e-03
6.615215449799803984e-03
6.844797108329077166e-03
