8.805757596337187090e-03
8.828563000594003354e-03
8.990604116355244146e-03
8.949654115646524938e-03
8.598837529425478951e-03
8.951108720115221948e-03
8.981853410223727963e-03
8.984189280280767409e-03
8.952610697923609265e-03
8.995479318889785039e-03
8.857452234897974369e-03
8.712965978244542262e-03
8.659435319095501807e-03
8.128352850394145873e-03
8.819194011644481204e-03
8.639215405954860441e-03
8.576287819732887618e-03
8.434285626660653623e-03
8.750989764201619336e-03
7.874708701486082124e-03
8.917040608022286374e-03
8.615816012900385720e-03
8.843036163219904905e-03
8.918616682592753891e-03
8.951144553795245193e-03
8.427313850169561998e-03
8.955512618654895216e-03
8.447602393917702512e-03
8.880253387701228171e-03
8.677919424481848193e-03
8.857715825018815797e-03
8.917372828750628685e-03
8.991866190712634321e-03
8.108978976512333861e-03
7.737426836568630714e-03
8.413584691917002853e-03
8.984086030694263605e-03
8.777942765083373775e-03
8.919173623009368779e-03
8.653957624856181002e-03
8.590962622727727621e-03
8.902386454944748520e-03
8.994949709246066738e-03
8.848194998442079212e-03
8.954781975992748624e-03
8.999250358199234467e-03
8.990787536208915895e-03
8.834593383796378319e-03
8.978846417854411191e-03
8.733476812278923376e-03
8.956469803056843135e-03
8.832839355526818370e-03
8.981252740570476803e-03
8.999282547776203678e-03
8.998237297550473052e-03
8.829640440396704926e-03
8.864371171894796370e-03
8.703278737628380307e-03
8.400021340353358915e-03
8.272038011726405224e-03
8.916691988830206111e-03
8.962428518899171609e-03
8.880304405143972513e-03
8.996681265546799255e-03
8.866078434175174439e-03
8.642197496953314337e-03
8.973377226522215311e-03
8.967325586052031505e-03
8.974361741697061551e-03
8.967174963125837395e-03
8.986510573925592452e-03
8.997492685826622219e-03
8.731829070348411104e-03
8.995465349828080798e-03
8.536644837319215182e-03
8.524230592918317570e-03
8.927527729258602496e-03
8.999264934611447136e-03
8.750208711447236831e-03
8.965853368418577954e-03
8.730300976468144056e-03
8.276452842575237126e-03
8.591742460781089802e-03
8.430823728760207178e-03
7.816900472703208064e-03
7.858592048383232498e-03
8.532066021832995090e-03
8.060300440578496706e-03
8.849086588989071855e-03
8.726280316099555706e-03
8.815028194504276327e-03
8.993446516736662566e-03
8.767040823449511952e-03
8.888812171071945947e-03
8.659545249537603517e-03
8.996096994357284313e-03
8.984129152580391450e-03
8.782367920890855884e-03
8.977864332081600396e-03
8.873066609130004015e-03
8.997871672544144675e-03
8.989051728454620915e-03
8.974803892867503838e-03
8.993332334840998393e-03
8.972798421487281420e-03
8.999352393084721416e-03
8.998867727378659712e-03
8.844400272462782028e-03
8.784900572512761158e-03
8.942431503395279271e-03
8.664384618392121165e-03
8.860829103727180245e-03
8.968349579009953290e-03
8.683464534627651291e-03
