2.000000000000042277e+01,2.999999999048393207e+00,9.999999999993889332e+00,6.600000000000599831e-01,1.570000000000219220e+00,2.869999999999999091e+03,-2.174999999999759126e+00,-4.944999999999956763e+00,1.340570413804706540e+01,-2.162447797361104040e+00
1.999999999999938183e+01,2.999999999612481094e+00,9.999999999981413978e+00,6.600000000001198242e-01,1.570000000000801199e+00,2.869999999999998181e+03,-2.174999999999729372e+00,-4.945000000000374207e+00,1.339603572453042801e+01,-2.161818131370051521e+00
1.999999999999980460e+01,2.999999999310033250e+00,1.000000000000277645e+01,6.600000000000436629e-01,1.570000000000559837e+00,2.869999999999990450e+03,-2.175000000000026912e+00,-4.945000000000460361e+00,1.339242055145579791e+01,-2.163967762738676637e+00
1.999999999999863221e+01,2.999999998789240951e+00,9.999999999955273111e+00,6.600000000000397771e-01,1.570000000000252971e+00,2.870000000000000000e+03,-2.174999999999743139e+00,-4.944999999999937224e+00,1.341469952418058398e+01,-2.140677410805070569e+00
2.000000000000066436e+01,2.999999999352186197e+00,9.999999999965634601e+00,6.600000000001514655e-01,1.570000000000743245e+00,2.869999999999998636e+03,-2.174999999999606803e+00,-4.945000000000153939e+00,1.339780251011084289e+01,-2.157981130295026251e+00
1.999999999999996803e+01,2.999999999388015315e+00,9.999999999978104626e+00,6.600000000001108313e-01,1.570000000000839169e+00,2.869999999999991815e+03,-2.174999999999861267e+00,-4.945000000000476348e+00,1.339030188317707371e+01,-2.152299881560409300e+00
1.999999999999746336e+01,2.999999999661935757e+00,9.999999999889078950e+00,6.600000000002732570e-01,1.570000000002243157e+00,2.870000000000002274e+03,-2.174999999999517986e+00,-4.945000000001362750e+00,1.339004663525012795e+01,-2.136947228827764445e+00
2.000000000000029843e+01,3.000000000461287009e+00,1.000000000001949374e+01,6.599999999999111022e-01,1.569999999999633022e+00,2.869999999999972715e+03,-2.175000000000377742e+00,-4.944999999999891038e+00,1.338226381930441278e+01,-2.175480588498540424e+00
1.999999999999982592e+01,3.000000000222299512e+00,9.999999999999150901e+00,6.600000000000348921e-01,1.570000000000426610e+00,2.869999999999973625e+03,-2.175000000000121947e+00,-4.945000000000220552e+00,1.338155959229796821e+01,-2.164391099410894359e+00
1.999999999999946709e+01,2.999999999604852530e+00,9.999999999983000265e+00,6.599999999999676126e-01,1.569999999999786455e+00,2.869999999999986812e+03,-2.174999999999993161e+00,-4.944999999999907914e+00,1.339668441375903996e+01,-2.162078893855114092e+00
2.000000000000033040e+01,2.999999999982740917e+00,1.000000000003002043e+01,6.599999999995391775e-01,1.569999999996926299e+00,2.869999999999976353e+03,-2.175000000000856026e+00,-4.944999999998391793e+00,1.340932866641120214e+01,-2.149095002399975307e+00
2.000000000000061462e+01,2.999999999732911427e+00,9.999999999984458654e+00,6.599999999998962252e-01,1.569999999999083240e+00,2.869999999999995907e+03,-2.174999999999934985e+00,-4.944999999999199147e+00,1.339894897045051358e+01,-2.159051995092200915e+00
1.999999999999846878e+01,2.999999998956890401e+00,9.999999999960527575e+00,6.600000000001297051e-01,1.570000000000992824e+00,2.870000000000002728e+03,-2.174999999999701839e+00,-4.945000000000619345e+00,1.340108886493557883e+01,-2.153920188651902379e+00
1.999999999999832312e+01,2.999999998749590446e+00,9.999999999971588949e+00,6.600000000000322276e-01,1.570000000000688178e+00,2.869999999999993179e+03,-2.175000000000098410e+00,-4.945000000000653984e+00,1.340629760852421626e+01,-2.154272307514375928e+00
1.999999999999807088e+01,2.999999999844404464e+00,9.999999999969183762e+00,6.600000000000737499e-01,1.570000000000775442e+00,2.870000000000006821e+03,-2.174999999999911005e+00,-4.945000000000528750e+00,1.340336897390255722e+01,-2.146065963262186127e+00
1.999999999999730704e+01,2.999999999888568691e+00,9.999999999959570118e+00,6.599999999999857092e-01,1.570000000000391971e+00,2.869999999999987267e+03,-2.175000000000240519e+00,-4.945000000000509210e+00,1.339647212029302281e+01,-2.154574670428393013e+00
1.999999999999987210e+01,3.000000000018304913e+00,9.999999999967592146e+00,6.600000000000977307e-01,1.570000000000671747e+00,2.869999999999994543e+03,-2.174999999999840394e+00,-4.945000000000215223e+00,1.340139417419366907e+01,-2.162813916985992790e+00
2.000000000000050093e+01,2.999999999868732115e+00,9.999999999940131445e+00,6.600000000002198552e-01,1.570000000001333440e+00,2.870000000000000909e+03,-2.174999999999406963e+00,-4.945000000000482565e+00,1.338359830144005258e+01,-2.145843761697566965e+00
2.000000000000018474e+01,2.999999999618558899e+00,1.000000000001726441e+01,6.599999999999143219e-01,1.569999999999474705e+00,2.869999999999989996e+03,-2.175000000000236966e+00,-4.944999999999753371e+00,1.339166862032161198e+01,-2.165466309065663619e+00
1.999999999999833022e+01,2.999999999474897372e+00,9.999999999976921572e+00,6.599999999997766542e-01,1.569999999998956675e+00,2.869999999999987267e+03,-2.175000000000538947e+00,-4.944999999999710738e+00,1.340582622125471346e+01,-2.157213342936877609e+00
2.000000000000052935e+01,2.999999999665495576e+00,1.000000000003179856e+01,6.599999999996076783e-01,1.569999999997466755e+00,2.869999999999971806e+03,-2.175000000000755662e+00,-4.944999999998755946e+00,1.338312099039533543e+01,-2.145882880363349177e+00
1.999999999999889155e+01,2.999999999391133709e+00,9.999999999950354379e+00,6.600000000000740830e-01,1.570000000000710383e+00,2.870000000000004093e+03,-2.174999999999867040e+00,-4.945000000000640661e+00,1.339617763793971150e+01,-2.150633646844695157e+00
2.000000000000127898e+01,2.999999999576079546e+00,9.999999999982936316e+00,6.600000000002046452e-01,1.570000000000757900e+00,2.869999999999992724e+03,-2.174999999999261302e+00,-4.944999999999865281e+00,1.340365792188543992e+01,-2.156379467751060375e+00
2.000000000000000711e+01,2.999999999212533464e+00,9.999999999973484321e+00,6.600000000001097211e-01,1.570000000000284279e+00,2.870000000000000455e+03,-2.174999999999444711e+00,-4.944999999999683205e+00,1.340683161488997577e+01,-2.150827968586649597e+00
1.999999999999886313e+01,2.999999999015144247e+00,9.999999999964089170e+00,6.599999999999972555e-01,1.570000000000212115e+00,2.869999999999983629e+03,-2.175000000000149036e+00,-4.945000000000370655e+00,1.338699714599972879e+01,-2.147644226402912526e+00
1.999999999999804245e+01,2.999999998684309777e+00,9.999999999968304465e+00,6.599999999997014921e-01,1.569999999998563212e+00,2.869999999999978627e+03,-2.175000000000617106e+00,-4.944999999999588169e+00,1.340042425975614826e+01,-2.150890026383371456e+00
1.999999999999907629e+01,2.999999999509210369e+00,9.999999999982057020e+00,6.600000000000990630e-01,1.570000000000957963e+00,2.869999999999997272e+03,-2.174999999999921663e+00,-4.945000000000557172e+00,1.338536381632589922e+01,-2.152652693600249023e+00
1.999999999999927880e+01,2.999999999607562806e+00,1.000000000000454747e+01,6.599999999999504041e-01,1.570000000000064677e+00,2.869999999999985903e+03,-2.175000000000285372e+00,-4.945000000000179696e+00,1.338283020165571990e+01,-2.167336060318049373e+00
2.000000000000007105e+01,2.999999999469675771e+00,9.999999999990523136e+00,6.600000000001081668e-01,1.570000000000783880e+00,2.869999999999990450e+03,-2.174999999999832401e+00,-4.945000000000383089e+00,1.339183331547875966e+01,-2.160678419504171721e+00
1.999999999999944933e+01,2.999999998962196379e+00,1.000000000000895817e+01,6.599999999998089617e-01,1.569999999999073470e+00,2.869999999999980446e+03,-2.175000000000551381e+00,-4.944999999999700080e+00,1.338793561775472085e+01,-2.178774783608098176e+00
2.000000000000033396e+01,2.999999999473200951e+00,1.000000000000134825e+01,6.599999999998417133e-01,1.569999999998677787e+00,2.869999999999970441e+03,-2.175000000000188560e+00,-4.944999999999089901e+00,1.339991853357207319e+01,-2.164348685979355924e+00
1.999999999999835154e+01,3.000000000132527322e+00,9.999999999965899278e+00,6.599999999999895950e-01,1.570000000000250751e+00,2.869999999999987267e+03,-2.175000000000068656e+00,-4.945000000000242757e+00,1.339659390220393931e+01,-2.142951104444034360e+00
1.999999999999796074e+01,2.999999999845900600e+00,1.000000000001213962e+01,6.599999999996363220e-01,1.569999999997953921e+00,2.869999999999982265e+03,-2.175000000000800959e+00,-4.944999999999074802e+00,1.340750610900149375e+01,-2.153648923544667859e+00
2.000000000000271783e+01,3.000000000208839168e+00,9.999999999987302601e+00,6.599999999999244249e-01,1.569999999999080131e+00,2.869999999999968622e+03,-2.174999999999958078e+00,-4.944999999999105000e+00,1.338574061325764752e+01,-2.168510478873750369e+00
2.000000000000241229e+01,2.999999999840988973e+00,9.999999999990832222e+00,6.600000000001424727e-01,1.570000000000397078e+00,2.869999999999973625e+03,-2.174999999999599698e+00,-4.944999999999718732e+00,1.338953916113076481e+01,-2.172294540412931241e+00
1.999999999999960920e+01,3.000000000079491524e+00,1.000000000002643219e+01,6.599999999995268540e-01,1.569999999997015117e+00,2.869999999999974534e+03,-2.175000000000992806e+00,-4.944999999998428208e+00,1.339162368063058572e+01,-2.155991598671679554e+00
1.999999999999899813e+01,3.000000000196151984e+00,1.000000000001892175e+01,6.599999999996848388e-01,1.569999999998429319e+00,2.869999999999986812e+03,-2.175000000000796074e+00,-4.944999999999481588e+00,1.339694122611687988e+01,-2.171943670345436228e+00
2.000000000000008171e+01,2.999999999492569014e+00,9.999999999954509278e+00,6.600000000003284351e-01,1.570000000002277574e+00,2.869999999999994543e+03,-2.174999999999364775e+00,-4.945000000001273932e+00,1.338455709511211289e+01,-2.169445330990981802e+00
1.999999999999942091e+01,2.999999999533420336e+00,9.999999999977145393e+00,6.600000000001305933e-01,1.570000000001165352e+00,2.869999999999984539e+03,-2.174999999999925659e+00,-4.945000000000851159e+00,1.338546489188436261e+01,-2.170369319172247735e+00
2.000000000000013856e+01,2.999999999342584989e+00,1.000000000001961453e+01,6.599999999996652988e-01,1.569999999998054951e+00,2.869999999999974534e+03,-2.175000000000694378e+00,-4.944999999999111218e+00,1.339541681121951910e+01,-2.178789531019323267e+00
2.000000000000053646e+01,3.000000000082368334e+00,1.000000000000782485e+01,6.600000000000033618e-01,1.569999999999930118e+00,2.869999999999987722e+03,-2.174999999999901235e+00,-4.944999999999947882e+00,1.339901195642509890e+01,-2.162979589691806925e+00
2.000000000000019540e+01,2.999999999379644233e+00,9.999999999989025667e+00,6.600000000000043610e-01,1.570000000000018270e+00,2.869999999999988631e+03,-2.174999999999917666e+00,-4.944999999999907025e+00,1.338944229293751320e+01,-2.180123034630889745e+00
1.999999999999894840e+01,3.000000000124055877e+00,9.999999999985368149e+00,6.599999999999989209e-01,1.570000000000427054e+00,2.869999999999976808e+03,-2.175000000000199663e+00,-4.945000000000398188e+00,1.338272076731081306e+01,-2.171108957895161673e+00
1.999999999999751310e+01,3.000000000021484592e+00,9.999999999984845900e+00,6.599999999997443467e-01,1.569999999998990869e+00,2.869999999999974989e+03,-2.175000000000772982e+00,-4.944999999999865281e+00,1.339444094979115540e+01,-2.160623344850656657e+00
2.000000000000038014e+01,3.000000000277869727e+00,1.000000000000427569e+01,6.599999999997953060e-01,1.569999999998451523e+00,2.869999999999984084e+03,-2.175000000000232969e+00,-4.944999999998949569e+00,1.339988762361024399e+01,-2.156652390052451462e+00
1.999999999999868905e+01,2.999999998962249670e+00,9.999999999947458917e+00,6.600000000003257705e-01,1.570000000002351292e+00,2.869999999999996817e+03,-2.174999999999507772e+00,-4.945000000001178897e+00,1.340955436936188150e+01,-2.157601519163573567e+00
1.999999999999858957e+01,3.000000000119764199e+00,1.000000000001202061e+01,6.599999999995148636e-01,1.569999999997048867e+00,2.869999999999974079e+03,-2.175000000000953726e+00,-4.944999999998682227e+00,1.341214181262992433e+01,-2.143483957922976302e+00
1.999999999999931077e+01,3.000000000261497490e+00,1.000000000000184741e+01,6.599999999999122124e-01,1.569999999999511120e+00,2.869999999999983174e+03,-2.175000000000173461e+00,-4.944999999999856399e+00,1.341312213776408413e+01,-2.152738265883419544e+00
2.000000000000057554e+01,2.999999999699275222e+00,9.999999999981920240e+00,6.600000000000662004e-01,1.570000000000476570e+00,2.869999999999979536e+03,-2.174999999999813305e+00,-4.945000000000179696e+00,1.338211634961104934e+01,-2.159942659683625532e+00
2.000000000000122569e+01,3.000000000449414728e+00,1.000000000000185629e+01,6.600000000001094991e-01,1.570000000000911333e+00,2.869999999999969987e+03,-2.174999999999870592e+00,-4.945000000000501217e+00,1.337604480760476022e+01,-2.179004876683263703e+00
1.999999999999685585e+01,2.999999999342006340e+00,9.999999999948444795e+00,6.599999999998278355e-01,1.569999999999452722e+00,2.870000000000007731e+03,-2.175000000000493205e+00,-4.944999999999952323e+00,1.340633251151405325e+01,-2.147578556040384612e+00
1.999999999999959499e+01,2.999999999708299558e+00,9.999999999944668261e+00,6.600000000003390932e-01,1.570000000002392149e+00,2.870000000000001364e+03,-2.174999999999303046e+00,-4.945000000001203766e+00,1.338422881150677313e+01,-2.165179102070774242e+00
1.999999999999906919e+01,2.999999999493937253e+00,9.999999999949558571e+00,6.600000000001551292e-01,1.570000000001233964e+00,2.869999999999999091e+03,-2.174999999999692513e+00,-4.945000000000669083e+00,1.340428318622818082e+01,-2.153053717767615005e+00
1.999999999999927880e+01,2.999999999621534741e+00,9.999999999981337595e+00,6.600000000000960654e-01,1.570000000000811857e+00,2.869999999999987267e+03,-2.174999999999890576e+00,-4.945000000000520757e+00,1.340372737077628962e+01,-2.171488322748779343e+00
1.999999999999916156e+01,3.000000000041249670e+00,1.000000000002279954e+01,6.599999999998353850e-01,1.569999999999277307e+00,2.869999999999984539e+03,-2.175000000000530953e+00,-4.944999999999900808e+00,1.339368117956292537e+01,-2.164126289546028037e+00
2.000000000000092371e+01,2.999999999846853171e+00,1.000000000001258726e+01,6.600000000000583178e-01,1.570000000000136842e+00,2.869999999999995453e+03,-2.174999999999822187e+00,-4.945000000000086438e+00,1.340191199735599525e+01,-2.170887829507603506e+00
2.000000000000023448e+01,2.999999999851054255e+00,9.999999999997237765e+00,6.600000000002508305e-01,1.570000000001943175e+00,2.869999999999982265e+03,-2.174999999999733369e+00,-4.945000000001123830e+00,1.338889091884829341e+01,-2.166611656746262771e+00
1.999999999999967315e+01,3.000000000820131518e+00,1.000000000000637357e+01,6.600000000000019185e-01,1.570000000000320917e+00,2.869999999999981810e+03,-2.175000000000168576e+00,-4.945000000000376872e+00,1.338065032721798708e+01,-2.172312007036106607e+00
1.999999999999937472e+01,2.999999999756908231e+00,1.000000000002253486e+01,6.599999999994639044e-01,1.569999999996612994e+00,2.869999999999976808e+03,-2.175000000001076739e+00,-4.944999999998255014e+00,1.340492670770825789e+01,-2.170815010349016472e+00
1.999999999999809219e+01,2.999999998588721795e+00,9.999999999951633356e+00,6.599999999998703570e-01,1.569999999999256213e+00,2.869999999999994543e+03,-2.175000000000209877e+00,-4.944999999999587281e+00,1.339953739352013962e+01,-2.142595562034221413e+00
1.999999999999832667e+01,2.999999999655785121e+00,9.999999999994559019e+00,6.599999999997702149e-01,1.569999999998833662e+00,2.870000000000000909e+03,-2.175000000000509637e+00,-4.944999999999454054e+00,1.340845869792695844e+01,-2.168807498534645273e+00
1.999999999999964118e+01,2.999999999217426883e+00,9.999999999991212363e+00,6.600000000003064526e-01,1.570000000002583773e+00,2.869999999999996362e+03,-2.174999999999564171e+00,-4.945000000001534168e+00,1.337940023970633163e+01,-2.184353356129251189e+00
1.999999999999964828e+01,2.999999998819240066e+00,9.999999999984479970e+00,6.600000000004665468e-01,1.570000000003330731e+00,2.870000000000001364e+03,-2.174999999999183586e+00,-4.945000000001777529e+00,1.338951621397567848e+01,-2.178874211854781251e+00
1.999999999999957012e+01,2.999999999372795045e+00,9.999999999973191223e+00,6.600000000000068034e-01,1.570000000000144613e+00,2.869999999999983629e+03,-2.175000000000116618e+00,-4.945000000000145057e+00,1.338752904395595777e+01,-2.151585932132281442e+00
2.000000000000159517e+01,2.999999999324861388e+00,1.000000000002178879e+01,6.599999999998085176e-01,1.569999999998289431e+00,2.869999999999976808e+03,-2.175000000000152145e+00,-4.944999999998766604e+00,1.339451208247898961e+01,-2.162385916953081466e+00
1.999999999999909051e+01,2.999999999617973145e+00,9.999999999998717470e+00,6.599999999998437117e-01,1.569999999999067031e+00,2.869999999999978172e+03,-2.175000000000342215e+00,-4.944999999999490470e+00,1.338564820363284547e+01,-2.156883379735415218e+00
2.000000000000035172e+01,2.999999999343359036e+00,9.999999999946920681e+00,6.600000000001742251e-01,1.570000000000767226e+00,2.870000000000001364e+03,-2.174999999999389644e+00,-4.944999999999996732e+00,1.338236843678180144e+01,-2.151294146861797874e+00
1.999999999999856115e+01,3.000000000270786504e+00,9.999999999988590460e+00,6.600000000000575406e-01,1.570000000000570495e+00,2.869999999999995907e+03,-2.174999999999943423e+00,-4.945000000000232987e+00,1.338555332623128713e+01,-2.163458198208415340e+00
2.000000000000212808e+01,2.999999998941223378e+00,1.000000000000802558e+01,6.599999999999359712e-01,1.569999999999044604e+00,2.869999999999979082e+03,-2.174999999999906564e+00,-4.944999999999112106e+00,1.340794276985183764e+01,-2.172174201064770660e+00
2.000000000000060396e+01,2.999999999822933194e+00,1.000000000001749001e+01,6.599999999998921174e-01,1.569999999999049711e+00,2.869999999999981355e+03,-2.175000000000054445e+00,-4.944999999999304841e+00,1.339787133603114810e+01,-2.173812138766701541e+00
1.999999999999937117e+01,2.999999999414121099e+00,1.000000000001333156e+01,6.599999999998157341e-01,1.569999999999292184e+00,2.869999999999981355e+03,-2.175000000000606892e+00,-4.945000000000054463e+00,1.339019907134611742e+01,-2.167956441257226530e+00
1.999999999999777955e+01,2.999999999661162153e+00,9.999999999953500307e+00,6.599999999998332756e-01,1.569999999999094342e+00,2.869999999999992724e+03,-2.175000000000264944e+00,-4.944999999999541984e+00,1.340416915418473387e+01,-2.146683447286023672e+00
2.000000000000020961e+01,2.999999999748609092e+00,1.000000000000407319e+01,6.599999999998973355e-01,1.569999999999280416e+00,2.869999999999998636e+03,-2.175000000000228972e+00,-4.944999999999422968e+00,1.339743763889629768e+01,-2.164365637226731032e+00
1.999999999999767297e+01,3.000000000026719515e+00,9.999999999924677141e+00,6.600000000003041212e-01,1.570000000002386820e+00,2.870000000000003183e+03,-2.174999999999410960e+00,-4.945000000001416929e+00,1.338655948585995326e+01,-2.143553345381010278e+00
1.999999999999820233e+01,2.999999999490571501e+00,9.999999999973910647e+00,6.599999999998462652e-01,1.569999999999191598e+00,2.869999999999996362e+03,-2.175000000000261835e+00,-4.944999999999628137e+00,1.339642817683867548e+01,-2.139094857564657115e+00
1.999999999999909051e+01,2.999999998986962346e+00,9.999999999988936850e+00,6.599999999999155431e-01,1.569999999999492690e+00,2.869999999999993634e+03,-2.175000000000213429e+00,-4.944999999999656559e+00,1.340592573313742797e+01,-2.172046930456299485e+00
1.999999999999800337e+01,2.999999999410096763e+00,9.999999999925886840e+00,6.600000000003365397e-01,1.570000000002697238e+00,2.870000000000006821e+03,-2.174999999999514433e+00,-4.945000000001579465e+00,1.339437097948320421e+01,-2.155566274929768156e+00
1.999999999999929656e+01,3.000000000010833556e+00,1.000000000002417799e+01,6.599999999996851718e-01,1.569999999998144213e+00,2.869999999999995453e+03,-2.175000000000621991e+00,-4.944999999999128093e+00,1.339746069609149437e+01,-2.167181338599490026e+00
1.999999999999995381e+01,2.999999999946434848e+00,1.000000000000740030e+01,6.599999999995769251e-01,1.569999999997476303e+00,2.869999999999991360e+03,-2.175000000000709477e+00,-4.944999999998781703e+00,1.338899419869999008e+01,-2.159246347018064949e+00
