2.000000000000057909e+01,2.999999999312455312e+00,9.999999999998042455e+00,6.600000000000090239e-01,1.569999999999706297e+00,2.869999999999999091e+03,-2.174999999999786215e+00,-4.944999999999619256e+00,1.341328135525782983e+01,-2.158141327950515720e+00
1.999999999999978684e+01,2.999999999511598237e+00,9.999999999969936937e+00,6.600000000001572387e-01,1.570000000000907336e+00,2.869999999999998181e+03,-2.174999999999581046e+00,-4.945000000000342233e+00,1.339797708837368084e+01,-2.155241263298719012e+00
1.999999999999945288e+01,2.999999998998425621e+00,9.999999999999872102e+00,6.600000000001234879e-01,1.570000000001198659e+00,2.869999999999994543e+03,-2.174999999999876366e+00,-4.945000000000902673e+00,1.339652258190997891e+01,-2.171330968828007357e+00
1.999999999999826272e+01,2.999999998943900348e+00,9.999999999951041829e+00,6.600000000000583178e-01,1.570000000000522533e+00,2.870000000000001364e+03,-2.174999999999780442e+00,-4.945000000000220552e+00,1.341439811312540087e+01,-2.143490856124952604e+00
2.000000000000115463e+01,2.999999999769286330e+00,9.999999999963122832e+00,6.600000000001587930e-01,1.570000000000653539e+00,2.869999999999990450e+03,-2.174999999999603251e+00,-4.945000000000073115e+00,1.339339109220270707e+01,-2.155615922668685513e+00
2.000000000000003197e+01,2.999999999286866448e+00,9.999999999980840215e+00,6.600000000001036149e-01,1.570000000000855156e+00,2.869999999999993634e+03,-2.174999999999912337e+00,-4.945000000000542073e+00,1.338763651928721998e+01,-2.154369099452156711e+00
1.999999999999798916e+01,2.999999999746566282e+00,9.999999999902144054e+00,6.600000000002888001e-01,1.570000000002240936e+00,2.870000000000008185e+03,-2.174999999999504219e+00,-4.945000000001323670e+00,1.338986086686975874e+01,-2.146540135313361741e+00
2.000000000000097344e+01,3.000000000526922950e+00,1.000000000001956657e+01,6.599999999999934808e-01,1.569999999999987184e+00,2.869999999999971351e+03,-2.175000000000145484e+00,-4.944999999999991402e+00,1.338035255387240419e+01,-2.173562712458987356e+00
1.999999999999951683e+01,3.000000000396043198e+00,9.999999999994759747e+00,6.599999999999919265e-01,1.570000000000191021e+00,2.869999999999979536e+03,-2.175000000000183231e+00,-4.945000000000084661e+00,1.338173812451136868e+01,-2.167442084429981541e+00
1.999999999999915090e+01,2.999999999564603392e+00,9.999999999976655118e+00,6.600000000000395550e-01,1.570000000000245644e+00,2.869999999999991360e+03,-2.174999999999827072e+00,-4.945000000000089102e+00,1.339787693960257009e+01,-2.160947789427523080e+00
1.999999999999980815e+01,2.999999999867870581e+00,1.000000000001395328e+01,6.599999999995234123e-01,1.569999999996817497e+00,2.869999999999980446e+03,-2.175000000000850253e+00,-4.944999999998302087e+00,1.340931539518478033e+01,-2.147523586845745847e+00
2.000000000000006395e+01,2.999999999914240600e+00,9.999999999980511589e+00,6.599999999999155431e-01,1.569999999999279527e+00,2.869999999999997272e+03,-2.174999999999913225e+00,-4.944999999999302176e+00,1.339700033847937455e+01,-2.157143357030660624e+00
1.999999999999894484e+01,2.999999999197242584e+00,9.999999999963016251e+00,6.600000000002040901e-01,1.570000000001496421e+00,2.870000000000002274e+03,-2.174999999999554401e+00,-4.945000000000900897e+00,1.339422824000868317e+01,-2.157333153710774276e+00
1.999999999999856826e+01,2.999999998744105500e+00,9.999999999956953545e+00,6.600000000001566836e-01,1.570000000001525287e+00,2.869999999999988631e+03,-2.174999999999871481e+00,-4.945000000001115836e+00,1.340145111257338684e+01,-2.150562416296230239e+00
1.999999999999884537e+01,2.999999999645399651e+00,9.999999999969732656e+00,6.600000000001086109e-01,1.570000000000838947e+00,2.870000000000002274e+03,-2.174999999999819966e+00,-4.945000000000545626e+00,1.340207135597509414e+01,-2.142286993050200206e+00
1.999999999999760547e+01,2.999999999730512901e+00,9.999999999962222219e+00,6.600000000000686429e-01,1.570000000000897122e+00,2.869999999999983174e+03,-2.175000000000080647e+00,-4.945000000000728591e+00,1.339421662071943864e+01,-2.155179545097104299e+00
1.999999999999976907e+01,3.000000000178059789e+00,9.999999999997370992e+00,6.599999999999633937e-01,1.569999999999949658e+00,2.869999999999990450e+03,-2.175000000000194333e+00,-4.944999999999987850e+00,1.339999045754922591e+01,-2.171197383502033063e+00
2.000000000000050449e+01,2.999999999932672967e+00,9.999999999960976993e+00,6.600000000001196021e-01,1.570000000000838281e+00,2.869999999999999091e+03,-2.174999999999678302e+00,-4.945000000000297824e+00,1.338155211648533083e+01,-2.152135414312811079e+00
1.999999999999939249e+01,2.999999999554280095e+00,1.000000000000690825e+01,6.599999999998558131e-01,1.569999999999165619e+00,2.869999999999996362e+03,-2.175000000000377298e+00,-4.944999999999618367e+00,1.339934596022925462e+01,-2.157244755134797742e+00
1.999999999999744560e+01,2.999999999196750977e+00,9.999999999970924591e+00,6.599999999997732125e-01,1.569999999999152296e+00,2.869999999999992269e+03,-2.175000000000691713e+00,-4.944999999999969198e+00,1.341030602661855475e+01,-2.151029696245887468e+00
1.999999999999993960e+01,2.999999999712670284e+00,1.000000000002483880e+01,6.599999999996912781e-01,1.569999999998127116e+00,2.869999999999977263e+03,-2.175000000000616218e+00,-4.944999999999155627e+00,1.338656935966920791e+01,-2.143200479051016405e+00
1.999999999999855049e+01,2.999999999445817966e+00,9.999999999971480591e+00,6.599999999997492317e-01,1.569999999998657136e+00,2.869999999999993634e+03,-2.175000000000543388e+00,-4.944999999999662776e+00,1.340070098311468527e+01,-2.147018571238081375e+00
2.000000000000057554e+01,2.999999999724845878e+00,9.999999999980298426e+00,6.600000000000688649e-01,1.570000000000034035e+00,2.869999999999991815e+03,-2.174999999999569944e+00,-4.944999999999572182e+00,1.340700009914705326e+01,-2.149633755195933915e+00
2.000000000000006040e+01,2.999999999083602820e+00,9.999999999958584240e+00,6.600000000001520206e-01,1.570000000000459917e+00,2.869999999999999545e+03,-2.174999999999310152e+00,-4.944999999999760476e+00,1.341050817552717689e+01,-2.143263113098476946e+00
1.999999999999895550e+01,2.999999999119110861e+00,9.999999999981739052e+00,6.599999999999670575e-01,1.570000000000043139e+00,2.869999999999984539e+03,-2.175000000000235634e+00,-4.945000000000292495e+00,1.338961514041498901e+01,-2.152308153297504134e+00
1.999999999999777955e+01,2.999999998459899953e+00,9.999999999954363616e+00,6.599999999998574784e-01,1.569999999999610818e+00,2.869999999999981810e+03,-2.175000000000355538e+00,-4.945000000000183249e+00,1.340523892140892492e+01,-2.149848410958108413e+00
1.999999999999885603e+01,2.999999999712389620e+00,9.999999999994878763e+00,6.599999999999270894e-01,1.569999999999845963e+00,2.869999999999989541e+03,-2.175000000000300027e+00,-4.945000000000002949e+00,1.338699317699824931e+01,-2.156344404752227550e+00
1.999999999999963052e+01,2.999999999521605787e+00,9.999999999995766942e+00,6.600000000000547651e-01,1.570000000000664642e+00,2.869999999999988177e+03,-2.175000000000029576e+00,-4.945000000000466578e+00,1.337755576474201469e+01,-2.166434841264393008e+00
1.999999999999959854e+01,2.999999999435584375e+00,9.999999999978289367e+00,6.600000000001920997e-01,1.570000000001424700e+00,2.869999999999991815e+03,-2.174999999999722267e+00,-4.945000000000787210e+00,1.339218043966144300e+01,-2.159830355434206872e+00
1.999999999999826272e+01,2.999999998581873495e+00,9.999999999987577937e+00,6.599999999998242828e-01,1.569999999999426077e+00,2.869999999999987722e+03,-2.175000000000616662e+00,-4.945000000000096207e+00,1.339337249320020895e+01,-2.173652448151439653e+00
1.999999999999981526e+01,2.999999999640258430e+00,1.000000000000343015e+01,6.599999999998187317e-01,1.569999999998754614e+00,2.869999999999967258e+03,-2.175000000000353317e+00,-4.944999999999292406e+00,1.339433276376880144e+01,-2.168496671750642868e+00
1.999999999999864997e+01,3.000000000005897949e+00,9.999999999974159337e+00,6.599999999999426326e-01,1.569999999999768692e+00,2.869999999999985903e+03,-2.175000000000049560e+00,-4.944999999999946105e+00,1.340324816680692699e+01,-2.143035848310269387e+00
1.999999999999734968e+01,3.000000000024202418e+00,1.000000000000579270e+01,6.599999999997081535e-01,1.569999999998600959e+00,2.869999999999985448e+03,-2.175000000000736122e+00,-4.944999999999527773e+00,1.340838151777755094e+01,-2.154931879048940679e+00
2.000000000000177991e+01,3.000000000061442407e+00,9.999999999988975929e+00,6.599999999998792388e-01,1.569999999998862972e+00,2.869999999999969987e+03,-2.175000000000089528e+00,-4.944999999999068585e+00,1.338589079291440420e+01,-2.166009100158752254e+00
2.000000000000176570e+01,2.999999999997421174e+00,9.999999999990405897e+00,6.600000000000635358e-01,1.570000000000062679e+00,2.869999999999972260e+03,-2.174999999999815525e+00,-4.944999999999703633e+00,1.338910122492786670e+01,-2.170926548677334811e+00
2.000000000000023803e+01,3.000000000029913849e+00,1.000000000003483613e+01,6.599999999994772271e-01,1.569999999996511741e+00,2.869999999999971806e+03,-2.175000000001027889e+00,-4.944999999998133333e+00,1.339310557316747285e+01,-2.156844715300469062e+00
1.999999999999930012e+01,3.000000000251221710e+00,1.000000000000915890e+01,6.599999999997941957e-01,1.569999999998989759e+00,2.869999999999990450e+03,-2.175000000000513189e+00,-4.944999999999677875e+00,1.339323504836653278e+01,-2.171375966157284676e+00
2.000000000000113332e+01,2.999999999316727894e+00,9.999999999968018471e+00,6.600000000003305445e-01,1.570000000002065521e+00,2.869999999999989086e+03,-2.174999999999270184e+00,-4.945000000001027907e+00,1.338587915762390956e+01,-2.175659321793094403e+00
1.999999999999992539e+01,2.999999999582734223e+00,9.999999999979836574e+00,6.600000000000348921e-01,1.570000000000396190e+00,2.869999999999985903e+03,-2.174999999999986056e+00,-4.945000000000361773e+00,1.338755233722700844e+01,-2.169091209461847747e+00
1.999999999999974776e+01,2.999999999482022339e+00,1.000000000000900258e+01,6.599999999997782085e-01,1.569999999998937579e+00,2.869999999999979991e+03,-2.175000000000505640e+00,-4.944999999999636131e+00,1.339456217513547820e+01,-2.173791747127345353e+00
2.000000000000023093e+01,3.000000000147368784e+00,1.000000000000759037e+01,6.600000000000163514e-01,1.570000000000119522e+00,2.869999999999983629e+03,-2.174999999999926548e+00,-4.945000000000106866e+00,1.339865302752955856e+01,-2.159309839502207673e+00
2.000000000000108713e+01,2.999999999304319598e+00,9.999999999993638866e+00,6.600000000000608713e-01,1.570000000000241647e+00,2.869999999999991360e+03,-2.174999999999714717e+00,-4.944999999999859064e+00,1.339277012047732107e+01,-2.181484515241363109e+00
1.999999999999918998e+01,3.000000000229153141e+00,9.999999999978884446e+00,6.599999999999863753e-01,1.570000000000252305e+00,2.869999999999975898e+03,-2.175000000000169464e+00,-4.945000000000263185e+00,1.337612433296116699e+01,-2.166923412973014607e+00
1.999999999999788258e+01,2.999999999990402788e+00,9.999999999970935249e+00,6.599999999998921174e-01,1.569999999999891926e+00,2.869999999999978627e+03,-2.175000000000436362e+00,-4.945000000000290719e+00,1.338791260572251396e+01,-2.159258684846849352e+00
2.000000000000017764e+01,2.999999999743327539e+00,9.999999999994161115e+00,6.599999999999646150e-01,1.569999999999658558e+00,2.869999999999995907e+03,-2.174999999999936762e+00,-4.944999999999627249e+00,1.340480066832707529e+01,-2.162510107134786086e+00
1.999999999999872813e+01,2.999999998802366896e+00,9.999999999951491247e+00,6.600000000003776179e-01,1.570000000002704788e+00,2.870000000000001364e+03,-2.174999999999398081e+00,-4.945000000001421370e+00,1.341131428341931375e+01,-2.160903021004351388e+00
1.999999999999846878e+01,3.000000000124324995e+00,1.000000000000684963e+01,6.599999999995107558e-01,1.569999999997080176e+00,2.869999999999974989e+03,-2.175000000000988809e+00,-4.944999999998734630e+00,1.341122633600134506e+01,-2.145680926425447055e+00
1.999999999999911182e+01,3.000000000406145784e+00,1.000000000001215383e+01,6.599999999997928635e-01,1.569999999998783258e+00,2.869999999999976808e+03,-2.175000000000433698e+00,-4.944999999999525997e+00,1.340915475658796652e+01,-2.151097734348676127e+00
2.000000000000053646e+01,2.999999999995937472e+00,9.999999999978864906e+00,6.600000000000791900e-01,1.570000000000623785e+00,2.869999999999977263e+03,-2.174999999999839950e+00,-4.945000000000266738e+00,1.337472204965515843e+01,-2.167359492161877732e+00
2.000000000000082778e+01,3.000000000155025770e+00,9.999999999985035970e+00,6.600000000001902123e-01,1.570000000001504192e+00,2.869999999999977263e+03,-2.174999999999717826e+00,-4.945000000000820073e+00,1.337878444338517880e+01,-2.175549103921681215e+00
1.999999999999711520e+01,2.999999999172138665e+00,9.999999999971530329e+00,6.599999999996916111e-01,1.569999999998509699e+00,2.870000000000003183e+03,-2.175000000000740563e+00,-4.944999999999566853e+00,1.340528894147862538e+01,-2.145392555239347576e+00
1.999999999999905498e+01,2.999999999684701546e+00,9.999999999944360951e+00,6.600000000003392042e-01,1.570000000002470530e+00,2.870000000000003183e+03,-2.174999999999330136e+00,-4.945000000001313900e+00,1.338173433253537503e+01,-2.162335643841854615e+00
1.999999999999860734e+01,2.999999999578339516e+00,9.999999999941890039e+00,6.600000000001843281e-01,1.570000000001570362e+00,2.870000000000005457e+03,-2.174999999999699174e+00,-4.945000000000884022e+00,1.340540707798100151e+01,-2.150585694395620528e+00
1.999999999999887734e+01,2.999999999797063666e+00,9.999999999988764543e+00,6.600000000000449951e-01,1.570000000000598694e+00,2.869999999999982265e+03,-2.175000000000031353e+00,-4.945000000000535856e+00,1.340161686603624602e+01,-2.171025061979585224e+00
1.999999999999903721e+01,3.000000000082394092e+00,1.000000000000378186e+01,6.599999999998837907e-01,1.569999999999598606e+00,2.869999999999983629e+03,-2.175000000000423928e+00,-4.945000000000105089e+00,1.339135023710976924e+01,-2.157913922933729189e+00
2.000000000000073896e+01,2.999999999734692224e+00,9.999999999997605471e+00,6.600000000000507683e-01,1.570000000000047136e+00,2.869999999999993634e+03,-2.174999999999792433e+00,-4.944999999999948770e+00,1.340186657855621100e+01,-2.163704542388676710e+00
1.999999999999923261e+01,3.000000000136969547e+00,9.999999999982696508e+00,6.600000000003363176e-01,1.570000000002724994e+00,2.869999999999983629e+03,-2.174999999999654321e+00,-4.945000000001751772e+00,1.339057766661816018e+01,-2.159269056343556592e+00
1.999999999999989697e+01,3.000000000876841710e+00,1.000000000000636646e+01,6.600000000000618705e-01,1.570000000000656204e+00,2.869999999999980901e+03,-2.175000000000030909e+00,-4.945000000000477236e+00,1.338094465685212064e+01,-2.179723838176889306e+00
1.999999999999965539e+01,2.999999999686154606e+00,1.000000000002240164e+01,6.599999999994669020e-01,1.569999999996631868e+00,2.869999999999974534e+03,-2.175000000001062084e+00,-4.944999999998272777e+00,1.340381570363561714e+01,-2.169813939997899954e+00
1.999999999999751310e+01,2.999999998330259210e+00,9.999999999921705296e+00,6.599999999999961453e-01,1.570000000000109086e+00,2.870000000000000909e+03,-2.174999999999957190e+00,-4.945000000000056239e+00,1.340248387017665443e+01,-2.133960036685472517e+00
1.999999999999866773e+01,2.999999999688739205e+00,1.000000000000202860e+01,6.599999999997118172e-01,1.569999999998342943e+00,2.870000000000000000e+03,-2.175000000000553602e+00,-4.944999999999168949e+00,1.340897182633918483e+01,-2.167434092361346210e+00
1.999999999999927169e+01,2.999999999007373574e+00,9.999999999993834265e+00,6.600000000003539702e-01,1.570000000002877538e+00,2.870000000000001819e+03,-2.174999999999457589e+00,-4.945000000001646967e+00,1.338429310946665218e+01,-2.186906026939637648e+00
2.000000000000028422e+01,2.999999998546416968e+00,9.999999999979083398e+00,6.600000000006167600e-01,1.570000000004098561e+00,2.870000000000005002e+03,-2.174999999998804778e+00,-4.945000000001944507e+00,1.338667677264555422e+01,-2.182844320734200316e+00
1.999999999999984368e+01,2.999999999263498029e+00,9.999999999970089704e+00,6.600000000001564615e-01,1.570000000001054330e+00,2.869999999999986812e+03,-2.174999999999804423e+00,-4.945000000000588258e+00,1.338860463587984562e+01,-2.157693431623692870e+00
2.000000000000150280e+01,2.999999999624177516e+00,1.000000000001011813e+01,6.599999999999116573e-01,1.569999999999017071e+00,2.869999999999982720e+03,-2.174999999999984279e+00,-4.944999999999160956e+00,1.339314229485367314e+01,-2.157210064183072706e+00
1.999999999999890932e+01,2.999999999239616688e+00,9.999999999989737987e+00,6.600000000000016964e-01,1.570000000000167040e+00,2.869999999999985448e+03,-2.175000000000051337e+00,-4.945000000000124629e+00,1.339017878288692209e+01,-2.162175702804512767e+00
2.000000000000047962e+01,2.999999999340335233e+00,9.999999999954466645e+00,6.600000000001512435e-01,1.570000000000647766e+00,2.870000000000001364e+03,-2.174999999999463807e+00,-4.944999999999985185e+00,1.338284531145624712e+01,-2.156043598089678603e+00
1.999999999999857891e+01,3.000000000328378214e+00,9.999999999985000443e+00,6.600000000000391109e-01,1.570000000000456586e+00,2.869999999999987267e+03,-2.175000000000014921e+00,-4.945000000000226770e+00,1.338496158087176013e+01,-2.162818426408062766e+00
2.000000000000226308e+01,2.999999998863049022e+00,9.999999999999797495e+00,6.600000000001131628e-01,1.570000000000174367e+00,2.869999999999980901e+03,-2.174999999999590372e+00,-4.944999999999661888e+00,1.340210051372068634e+01,-2.179079573009626625e+00
2.000000000000090239e+01,2.999999999777854143e+00,1.000000000001978506e+01,6.599999999999658362e-01,1.569999999999465823e+00,2.869999999999983174e+03,-2.174999999999926548e+00,-4.944999999999501128e+00,1.339857131306255766e+01,-2.176586547409450123e+00
1.999999999999959499e+01,2.999999999437940268e+00,1.000000000001938716e+01,6.599999999996529754e-01,1.569999999998075824e+00,2.869999999999980901e+03,-2.175000000000865796e+00,-4.944999999999402540e+00,1.339242465982127150e+01,-2.159107896883126099e+00
1.999999999999818101e+01,2.999999999792247962e+00,9.999999999953562480e+00,6.599999999998220623e-01,1.569999999998831663e+00,2.869999999999994543e+03,-2.175000000000205436e+00,-4.944999999999293294e+00,1.340712292796925809e+01,-2.142806237725401353e+00
1.999999999999957723e+01,2.999999999983186338e+00,1.000000000000923350e+01,6.599999999997807620e-01,1.569999999998619833e+00,2.869999999999993179e+03,-2.175000000000538947e+00,-4.944999999999223128e+00,1.339849644809611640e+01,-2.163810659295231531e+00
1.999999999999751665e+01,2.999999999927326577e+00,9.999999999927453587e+00,6.600000000002692602e-01,1.570000000002161444e+00,2.870000000000011369e+03,-2.174999999999505107e+00,-4.945000000001351204e+00,1.339055633736789019e+01,-2.145398995780141593e+00
1.999999999999878497e+01,2.999999999287937591e+00,9.999999999975184295e+00,6.599999999999152100e-01,1.569999999999485585e+00,2.869999999999997726e+03,-2.175000000000080647e+00,-4.944999999999748042e+00,1.340326119792700510e+01,-2.143394506876310501e+00
1.999999999999893774e+01,2.999999999025376507e+00,9.999999999987172927e+00,6.599999999998517053e-01,1.569999999999157847e+00,2.869999999999998181e+03,-2.175000000000334222e+00,-4.944999999999518892e+00,1.340614040865805734e+01,-2.173900357677581496e+00
1.999999999999814193e+01,2.999999999460200684e+00,9.999999999938381734e+00,6.600000000001340350e-01,1.570000000001292140e+00,2.870000000000000000e+03,-2.174999999999848832e+00,-4.945000000000816520e+00,1.339809489247433660e+01,-2.152529611355012307e+00
1.999999999999915801e+01,2.999999999926389549e+00,1.000000000000442135e+01,6.599999999999223155e-01,1.569999999999822871e+00,2.869999999999998636e+03,-2.175000000000172129e+00,-4.945000000000011831e+00,1.339066461733550106e+01,-2.169382179470920047e+00
2.000000000000031264e+01,3.000000000178065118e+00,1.000000000002682299e+01,6.599999999995680433e-01,1.569999999997401474e+00,2.869999999999991815e+03,-2.175000000000783640e+00,-4.944999999998758611e+00,1.338428537608281843e+01,-2.169374156005241971e+00
