2.000000000000122213e+01,2.999999998180111316e+00,1.000000000000174971e+01,6.600000000003150014e-01,1.570000000001935847e+00,2.869999999999997726e+03,-2.174999999999368328e+00,-4.945000000000844942e+00,1.329854516716983426e+01,-2.303280112855074613e+00
2.000000000000340350e+01,2.999999999425051911e+00,1.000000000001933209e+01,6.600000000003076739e-01,1.570000000001469331e+00,2.869999999999994543e+03,-2.174999999999184475e+00,-4.945000000000372431e+00,1.323194827532203632e+01,-2.341244751326981621e+00
1.999999999999876721e+01,2.999999998339041518e+00,9.999999999983948840e+00,6.600000000001280398e-01,1.570000000000993712e+00,2.870000000000000909e+03,-2.174999999999741362e+00,-4.945000000000451479e+00,1.344325313316394777e+01,-2.104845049232451526e+00
1.999999999999771205e+01,2.999999997483375758e+00,9.999999999954420460e+00,6.600000000000919576e-01,1.570000000000838947e+00,2.870000000000001819e+03,-2.174999999999782219e+00,-4.945000000000365326e+00,1.345516952328933158e+01,-2.069077054253080750e+00
1.999999999999712585e+01,2.999999999271907747e+00,9.999999999950412999e+00,6.599999999999058842e-01,1.569999999999966755e+00,2.870000000000000909e+03,-2.175000000000347100e+00,-4.945000000000241869e+00,1.348833064710833796e+01,-2.065348294232846271e+00
1.999999999999754152e+01,2.999999999085891211e+00,9.999999999938635753e+00,6.599999999999381917e-01,1.570000000000031815e+00,2.870000000000000909e+03,-2.175000000000220091e+00,-4.945000000000183249e+00,1.346336147856568921e+01,-2.093402830722175256e+00
2.000000000000060751e+01,3.000000000375492082e+00,1.000000000001652367e+01,6.599999999999875966e-01,1.570000000000075557e+00,2.869999999999998181e+03,-2.174999999999945643e+00,-4.945000000000013607e+00,1.338206626737990135e+01,-2.172969207762969202e+00
1.999999999999911537e+01,2.999999998824895098e+00,9.999999999957882579e+00,6.600000000001666756e-01,1.570000000001162466e+00,2.870000000000000455e+03,-2.174999999999671196e+00,-4.945000000000546514e+00,1.336618576789278379e+01,-2.146377455995335914e+00
1.999999999999858247e+01,2.999999999822004604e+00,9.999999999957408292e+00,6.600000000000832978e-01,1.570000000000608020e+00,2.870000000000001364e+03,-2.174999999999812417e+00,-4.945000000000260520e+00,1.339448862562691822e+01,-2.144546854193718932e+00
2.000000000000028066e+01,3.000000001970891006e+00,9.999999999979687360e+00,6.600000000001732259e-01,1.570000000000937090e+00,2.869999999999999545e+03,-2.174999999999585931e+00,-4.945000000000319140e+00,1.337304472143944345e+01,-2.150676995871400266e+00
1.999999999999806732e+01,2.999999998572296711e+00,9.999999999959694463e+00,6.599999999999888178e-01,1.570000000000478346e+00,2.870000000000000909e+03,-2.175000000000155698e+00,-4.945000000000451479e+00,1.338557372788776867e+01,-2.175367130748743882e+00
1.999999999999915090e+01,2.999999998990884542e+00,9.999999999923296912e+00,6.600000000001602363e-01,1.570000000001119389e+00,2.869999999999999545e+03,-2.174999999999701394e+00,-4.945000000000536744e+00,1.339039363828989160e+01,-2.216564297935495365e+00
1.999999999999964828e+01,2.999999997083774517e+00,9.999999999959737096e+00,6.600000000000219025e-01,1.570000000000095541e+00,2.869999999999999091e+03,-2.174999999999862155e+00,-4.944999999999989626e+00,1.337437240138880945e+01,-2.205132873947615479e+00
1.999999999999413447e+01,2.999999993181476032e+00,9.999999999871958423e+00,6.599999999997868683e-01,1.569999999999408535e+00,2.870000000000001364e+03,-2.175000000000582023e+00,-4.945000000000105089e+00,1.340819815226364042e+01,-2.128321226876094041e+00
1.999999999999747757e+01,2.999999996966531413e+00,9.999999999941866946e+00,6.599999999999198730e-01,1.569999999999689200e+00,2.870000000000000455e+03,-2.175000000000228084e+00,-4.944999999999939000e+00,1.338063560407182528e+01,-2.168810014440285094e+00
1.999999999999257838e+01,2.999999996267724178e+00,9.999999999824833452e+00,6.599999999995835864e-01,1.569999999998710871e+00,2.869999999999999545e+03,-2.175000000001138911e+00,-4.945000000000171703e+00,1.341304208542802989e+01,-2.136837219287031520e+00
1.999999999999809575e+01,2.999999997697095022e+00,9.999999999970231812e+00,6.599999999996799538e-01,1.569999999998283213e+00,2.870000000000000000e+03,-2.175000000000748113e+00,-4.944999999999373230e+00,1.338017331141312738e+01,-2.217449607305238768e+00
1.999999999999976552e+01,3.000000001237682845e+00,1.000000000001986145e+01,6.599999999999471845e-01,1.569999999999826645e+00,2.869999999999999091e+03,-2.175000000000084199e+00,-4.944999999999930118e+00,1.339031147834223034e+01,-2.143014732910397679e+00
1.999999999999785416e+01,2.999999999552712460e+00,9.999999999981502796e+00,6.599999999996796207e-01,1.569999999998527906e+00,2.870000000000000000e+03,-2.175000000000823608e+00,-4.944999999999648566e+00,1.339651859679390711e+01,-2.155845548436078118e+00
1.999999999999545963e+01,2.999999996593468055e+00,9.999999999926069805e+00,6.599999999994694555e-01,1.569999999997886420e+00,2.870000000000001364e+03,-2.175000000001467981e+00,-4.944999999999843965e+00,1.340542679999917652e+01,-2.137239447510953294e+00
1.999999999999920064e+01,2.999999998505622489e+00,1.000000000002365752e+01,6.599999999999462963e-01,1.569999999999587947e+00,2.869999999999998181e+03,-2.175000000000126388e+00,-4.944999999999748042e+00,1.336495628353903520e+01,-2.192079721110042012e+00
1.999999999999962341e+01,2.999999996537705993e+00,1.000000000000239808e+01,6.600000000001192690e-01,1.570000000000796980e+00,2.869999999999995907e+03,-2.174999999999745359e+00,-4.945000000000331575e+00,1.337993398540588608e+01,-2.176870967128891721e+00
1.999999999999804956e+01,2.999999996954319847e+00,9.999999999958859576e+00,6.600000000001458034e-01,1.570000000001348983e+00,2.870000000000000909e+03,-2.174999999999750688e+00,-4.945000000000776552e+00,1.339148869096001349e+01,-2.093974229218300565e+00
1.999999999999942446e+01,2.999999997816797936e+00,9.999999999997076117e+00,6.600000000002630429e-01,1.570000000001541940e+00,2.870000000000000455e+03,-2.174999999999384759e+00,-4.945000000000464802e+00,1.333438890619638961e+01,-2.166218502929233569e+00
1.999999999999830180e+01,2.999999997808305174e+00,9.999999999967112529e+00,6.599999999998784617e-01,1.569999999999256879e+00,2.869999999999998181e+03,-2.175000000000224532e+00,-4.944999999999554419e+00,1.344803919314414564e+01,-2.168373093209048363e+00
1.999999999999746692e+01,2.999999997304886534e+00,9.999999999974392040e+00,6.599999999997506750e-01,1.569999999998782814e+00,2.869999999999996817e+03,-2.175000000000629541e+00,-4.944999999999597939e+00,1.345080936376432490e+01,-2.142948342608681056e+00
1.999999999999815614e+01,2.999999998273048085e+00,9.999999999960603958e+00,6.599999999999435207e-01,1.570000000000088880e+00,2.869999999999999091e+03,-2.175000000000253841e+00,-4.945000000000264961e+00,1.343672617777092348e+01,-2.129164928847580462e+00
1.999999999999614531e+01,2.999999997576953792e+00,9.999999999938989248e+00,6.599999999998245048e-01,1.569999999999749818e+00,2.869999999999998636e+03,-2.175000000000631761e+00,-4.945000000000347562e+00,1.349261375368905114e+01,-2.075959490478433089e+00
2.000000000000038725e+01,2.999999998712735483e+00,9.999999999970061282e+00,6.600000000000397771e-01,1.569999999999750928e+00,2.869999999999996817e+03,-2.174999999999682743e+00,-4.944999999999435403e+00,1.336230491092511663e+01,-2.193931539956783805e+00
1.999999999999947420e+01,3.000000000743824113e+00,1.000000000000422951e+01,6.599999999998811262e-01,1.569999999999344809e+00,2.869999999999993634e+03,-2.175000000000272493e+00,-4.944999999999729390e+00,1.338895572227266939e+01,-2.127955362352315305e+00
2.000000000000169820e+01,3.000000001962556340e+00,1.000000000002283684e+01,6.600000000000252331e-01,1.569999999999857287e+00,2.869999999999991360e+03,-2.174999999999842615e+00,-4.944999999999757812e+00,1.330511460504008348e+01,-2.216528208288804258e+00
1.999999999999782929e+01,3.000000000438675318e+00,9.999999999958188113e+00,6.599999999998060751e-01,1.569999999998655360e+00,2.869999999999994088e+03,-2.175000000000319567e+00,-4.944999999999225793e+00,1.344208715154436717e+01,-2.116919477936220151e+00
1.999999999999819522e+01,3.000000000642694786e+00,9.999999999952944307e+00,6.599999999999456302e-01,1.569999999999641904e+00,2.869999999999994998e+03,-2.175000000000053113e+00,-4.944999999999704521e+00,1.341571206516315939e+01,-2.164431116960583878e+00
1.999999999999594991e+01,3.000000000165050196e+00,9.999999999909720216e+00,6.599999999996682964e-01,1.569999999998294316e+00,2.870000000000000455e+03,-2.175000000000701039e+00,-4.944999999999310170e+00,1.346089076232794923e+01,-2.108350281862779951e+00
1.999999999999604583e+01,2.999999999418485608e+00,9.999999999906632908e+00,6.599999999997478994e-01,1.569999999998705320e+00,2.870000000000001364e+03,-2.175000000000504752e+00,-4.944999999999431850e+00,1.343299038880573804e+01,-2.126115826898510530e+00
2.000000000000003908e+01,3.000000000273940870e+00,9.999999999952681407e+00,6.600000000000811884e-01,1.570000000000068230e+00,2.869999999999994998e+03,-2.174999999999623235e+00,-4.944999999999615703e+00,1.336416336184137599e+01,-2.220184079677213873e+00
1.999999999999848654e+01,2.999999998789510069e+00,9.999999999947723595e+00,6.599999999998689137e-01,1.569999999999256657e+00,2.869999999999994998e+03,-2.175000000000238742e+00,-4.944999999999645901e+00,1.336032163384734339e+01,-2.187228141299947470e+00
1.999999999999788258e+01,2.999999999506905102e+00,9.999999999957967844e+00,6.599999999997484545e-01,1.569999999998374918e+00,2.869999999999996362e+03,-2.175000000000426148e+00,-4.944999999999105889e+00,1.341086286655213655e+01,-2.186270883905885309e+00
1.999999999999782219e+01,2.999999999953824048e+00,1.000000000001682210e+01,6.599999999997459010e-01,1.569999999999289075e+00,2.870000000000001364e+03,-2.175000000000820499e+00,-4.945000000000297824e+00,1.340706323470147154e+01,-2.132246833709825484e+00
1.999999999999948130e+01,3.000000000406821687e+00,1.000000000000007461e+01,6.599999999998815703e-01,1.569999999999749374e+00,2.869999999999996817e+03,-2.175000000000403055e+00,-4.945000000000172591e+00,1.337917791637707587e+01,-2.186179721174982937e+00
1.999999999999978328e+01,2.999999999368374137e+00,9.999999999993512745e+00,6.599999999999679456e-01,1.569999999999821982e+00,2.870000000000000000e+03,-2.175000000000014477e+00,-4.944999999999928342e+00,1.343712439363718936e+01,-2.155591391366594500e+00
2.000000000000032685e+01,3.000000000226716423e+00,1.000000000002405542e+01,6.599999999998101829e-01,1.569999999998850315e+00,2.869999999999997726e+03,-2.175000000000374190e+00,-4.944999999999524221e+00,1.342594412527157921e+01,-2.192308800681150416e+00
1.999999999999636913e+01,2.999999996788528911e+00,9.999999999946382445e+00,6.599999999997850919e-01,1.569999999999242446e+00,2.870000000000000000e+03,-2.175000000000677502e+00,-4.945000000000022489e+00,1.348056109739307828e+01,-2.097481401409833079e+00
1.999999999999816680e+01,2.999999997587373013e+00,9.999999999980232701e+00,6.599999999999067724e-01,1.569999999999743601e+00,2.870000000000000455e+03,-2.175000000000292033e+00,-4.945000000000066898e+00,1.336596027712965373e+01,-2.210011450632968000e+00
1.999999999999788614e+01,2.999999998856733185e+00,1.000000000002288125e+01,6.599999999999293099e-01,1.570000000000044693e+00,2.870000000000002274e+03,-2.175000000000335998e+00,-4.945000000000304929e+00,1.344942203391342517e+01,-2.161535637697046486e+00
1.999999999999906208e+01,2.999999997081991054e+00,9.999999999936665773e+00,6.600000000001162714e-01,1.570000000000945972e+00,2.870000000000001364e+03,-2.174999999999821299e+00,-4.945000000000559837e+00,1.329565103919399860e+01,-2.282197374282513014e+00
1.999999999999877076e+01,2.999999997598403301e+00,9.999999999942893680e+00,6.599999999998725775e-01,1.569999999999376339e+00,2.870000000000000909e+03,-2.175000000000270273e+00,-4.944999999999761364e+00,1.334947091584593970e+01,-2.229713361871116017e+00
1.999999999999958433e+01,2.999999998673252399e+00,9.999999999998815170e+00,6.599999999998807931e-01,1.569999999999543094e+00,2.869999999999995453e+03,-2.175000000000366196e+00,-4.944999999999986073e+00,1.334548312356426791e+01,-2.197049341346882123e+00
1.999999999999696598e+01,3.000000000909910369e+00,9.999999999980492049e+00,6.599999999999458522e-01,1.570000000000249196e+00,2.869999999999999545e+03,-2.175000000000250733e+00,-4.945000000000389306e+00,1.337667569871764783e+01,-2.224479863652596201e+00
1.999999999999596412e+01,2.999999999689709984e+00,9.999999999960468955e+00,6.599999999999415223e-01,1.570000000000170592e+00,2.870000000000001819e+03,-2.175000000000211209e+00,-4.945000000000292495e+00,1.339237473296230085e+01,-2.192368261181506739e+00
2.000000000000261480e+01,3.000000000195298444e+00,9.999999999996500577e+00,6.600000000002345102e-01,1.570000000000649321e+00,2.869999999999994543e+03,-2.174999999999263967e+00,-4.944999999999764917e+00,1.328429807934064932e+01,-2.266403910023386814e+00
1.999999999999817391e+01,2.999999997735194324e+00,9.999999999940721196e+00,6.600000000000999512e-01,1.570000000000759899e+00,2.870000000000001364e+03,-2.174999999999825295e+00,-4.945000000000378648e+00,1.340621335091217148e+01,-2.126059277456088026e+00
1.999999999999930722e+01,2.999999999779926707e+00,9.999999999970761166e+00,6.600000000000317835e-01,1.569999999999968976e+00,2.869999999999998181e+03,-2.174999999999904787e+00,-4.944999999999851958e+00,1.343861759169984182e+01,-2.107761409465485514e+00
2.000000000000155609e+01,3.000000002102814811e+00,9.999999999999134914e+00,6.600000000001161604e-01,1.570000000000218776e+00,2.869999999999998636e+03,-2.174999999999547295e+00,-4.944999999999695639e+00,1.336917248101885747e+01,-2.191585602475459638e+00
1.999999999999783284e+01,3.000000000457013538e+00,9.999999999967876363e+00,6.599999999997741007e-01,1.569999999999002416e+00,2.869999999999998181e+03,-2.175000000000555822e+00,-4.944999999999735607e+00,1.340100039440575586e+01,-2.153009796490392702e+00
1.999999999999918643e+01,2.999999998606595497e+00,9.999999999967457143e+00,6.599999999999021094e-01,1.569999999999864615e+00,2.869999999999998636e+03,-2.175000000000359535e+00,-4.945000000000280949e+00,1.328448737727607565e+01,-2.251799414648451236e+00
1.999999999999655387e+01,2.999999999239624682e+00,9.999999999916093785e+00,6.599999999998692468e-01,1.569999999999689422e+00,2.870000000000001364e+03,-2.175000000000382183e+00,-4.945000000000097096e+00,1.337284532979390761e+01,-2.160287915896814681e+00
1.999999999999750244e+01,2.999999998196522188e+00,9.999999999940929030e+00,6.599999999999732747e-01,1.570000000000506324e+00,2.870000000000001819e+03,-2.175000000000196998e+00,-4.945000000000645990e+00,1.336023261287986763e+01,-2.163799851034215571e+00
1.999999999999780087e+01,2.999999998391247313e+00,9.999999999949890750e+00,6.599999999998987787e-01,1.569999999999981855e+00,2.870000000000000455e+03,-2.175000000000385292e+00,-4.945000000000381313e+00,1.336559349396046947e+01,-2.151482057922309732e+00
1.999999999999945643e+01,2.999999999649950677e+00,9.999999999945519136e+00,6.600000000002117506e-01,1.570000000001498863e+00,2.870000000000000000e+03,-2.174999999999511324e+00,-4.945000000000682405e+00,1.333892287661166876e+01,-2.157941840002437495e+00
1.999999999999940670e+01,3.000000000112756027e+00,9.999999999943092632e+00,6.600000000000004752e-01,1.570000000000141505e+00,2.869999999999997272e+03,-2.175000000000028688e+00,-4.945000000000116636e+00,1.335824665198950711e+01,-2.170415718716006026e+00
2.000000000000176925e+01,2.999999999504975090e+00,1.000000000001067590e+01,6.600000000003028999e-01,1.570000000001741558e+00,2.870000000000000455e+03,-2.174999999999191580e+00,-4.945000000000598028e+00,1.337083607580685829e+01,-2.174428095165551689e+00
2.000000000000203570e+01,3.000000001275503703e+00,1.000000000003096545e+01,6.600000000001398082e-01,1.570000000000754126e+00,2.869999999999999091e+03,-2.174999999999596589e+00,-4.945000000000245421e+00,1.341842688791345850e+01,-2.185022112638089986e+00
1.999999999999758771e+01,2.999999999116212290e+00,9.999999999953834262e+00,6.599999999998661382e-01,1.569999999999858620e+00,2.870000000000002728e+03,-2.175000000000431921e+00,-4.945000000000338680e+00,1.342770137770054184e+01,-2.125776155011061430e+00
1.999999999999956657e+01,2.999999997736279678e+00,9.999999999986705745e+00,6.599999999999929257e-01,1.570000000000462137e+00,2.870000000000001364e+03,-2.175000000000171241e+00,-4.945000000000583817e+00,1.331636060477416805e+01,-2.241096482508418308e+00
2.000000000000084555e+01,2.999999999496459235e+00,1.000000000000323119e+01,6.600000000000246780e-01,1.570000000000278506e+00,2.869999999999999545e+03,-2.175000000000005151e+00,-4.945000000000264961e+00,1.337545377206093633e+01,-2.189962090849135734e+00
2.000000000000170530e+01,3.000000000140613299e+00,1.000000000002135003e+01,6.600000000002260725e-01,1.570000000001153140e+00,2.869999999999999545e+03,-2.174999999999419842e+00,-4.945000000000331575e+00,1.340503865582068954e+01,-2.141413843603875211e+00
1.999999999999975842e+01,2.999999996274365532e+00,1.000000000001601030e+01,6.599999999999763833e-01,1.570000000000122853e+00,2.869999999999996817e+03,-2.175000000000173017e+00,-4.945000000000231211e+00,1.324704833766418943e+01,-2.296805825871714557e+00
2.000000000000186517e+01,2.999999998083377584e+00,1.000000000003019096e+01,6.599999999999409672e-01,1.569999999999300400e+00,2.869999999999991815e+03,-2.175000000000070433e+00,-4.944999999999472706e+00,1.332345790546498243e+01,-2.257636715078926493e+00
2.000000000000015987e+01,2.999999996439046246e+00,9.999999999983213428e+00,6.600000000000287859e-01,1.570000000000296492e+00,2.869999999999992724e+03,-2.175000000000016698e+00,-4.945000000000208118e+00,1.330774098156850371e+01,-2.266158148404454398e+00
2.000000000000295231e+01,2.999999999648936377e+00,1.000000000004071410e+01,6.600000000001302602e-01,1.570000000000177254e+00,2.869999999999994543e+03,-2.174999999999535749e+00,-4.944999999999670770e+00,1.332301160186945665e+01,-2.249467618228420562e+00
2.000000000000098055e+01,3.000000000801799960e+00,9.999999999976338927e+00,6.600000000001197131e-01,1.570000000000377760e+00,2.869999999999998636e+03,-2.174999999999620570e+00,-4.944999999999872387e+00,1.337965816787276907e+01,-2.205453395784667592e+00
1.999999999999897682e+01,3.000000000798897393e+00,9.999999999994084732e+00,6.600000000000159073e-01,1.570000000000371987e+00,2.870000000000001364e+03,-2.175000000000031797e+00,-4.945000000000293383e+00,1.343196767565054373e+01,-2.130090187483932862e+00
1.999999999999779732e+01,2.999999997384058315e+00,9.999999999901291403e+00,6.599999999999334177e-01,1.570000000000001616e+00,2.869999999999998181e+03,-2.175000000000284928e+00,-4.945000000000296048e+00,1.341982521591878452e+01,-2.087693053071206339e+00
1.999999999999958078e+01,2.999999997332386314e+00,9.999999999925671901e+00,6.600000000000155742e-01,1.570000000000130180e+00,2.869999999999997272e+03,-2.174999999999980282e+00,-4.945000000000090878e+00,1.339504652021360798e+01,-2.105760078745052777e+00
1.999999999999846878e+01,2.999999997020154741e+00,9.999999999915212712e+00,6.599999999999164313e-01,1.569999999999864615e+00,2.869999999999998181e+03,-2.175000000000249845e+00,-4.945000000000201901e+00,1.338100127744545986e+01,-2.115472726102611389e+00
1.999999999999858957e+01,2.999999996744529884e+00,9.999999999918058435e+00,6.599999999999334177e-01,1.569999999999946105e+00,2.869999999999996817e+03,-2.175000000000211653e+00,-4.945000000000218776e+00,1.340515825005311434e+01,-2.101712541504369813e+00
1.999999999999832667e+01,2.999999995605718173e+00,9.999999999915859306e+00,6.599999999998499289e-01,1.569999999999263984e+00,2.869999999999996817e+03,-2.175000000000398614e+00,-4.944999999999843077e+00,1.338250173959285050e+01,-2.157062256012288071e+00
1.999999999999891998e+01,2.999999997971112276e+00,9.999999999907322135e+00,6.599999999997990807e-01,1.569999999998885176e+00,2.869999999999992269e+03,-2.175000000000368860e+00,-4.944999999999549978e+00,1.334928189837007118e+01,-2.205758294366311656e+00
1.999999999999864997e+01,2.999999999297732867e+00,9.999999999951997509e+00,6.599999999997414601e-01,1.569999999999008633e+00,2.869999999999995907e+03,-2.175000000000727685e+00,-4.945000000000032259e+00,1.341048956841947160e+01,-2.160285927620279711e+00
2.000000000000320810e+01,2.999999998878461138e+00,1.000000000002300737e+01,6.600000000000960654e-01,1.570000000000082885e+00,2.869999999999990905e+03,-2.174999999999505107e+00,-4.944999999999629914e+00,1.332964865896123641e+01,-2.228535803351394229e+00
1.999999999999722178e+01,2.999999998754232067e+00,9.999999999958427921e+00,6.599999999998936717e-01,1.569999999999940998e+00,2.870000000000000909e+03,-2.175000000000366640e+00,-4.945000000000359108e+00,1.345194355035030753e+01,-2.107959473133242501e+00
1.999999999999650413e+01,2.999999999190690492e+00,9.999999999942875917e+00,6.599999999997828715e-01,1.569999999999216245e+00,2.870000000000001819e+03,-2.175000000000619771e+00,-4.945000000000027818e+00,1.348248099485521401e+01,-2.063215198327186251e+00
2.000000000000163425e+01,2.999999999315450694e+00,1.000000000003148237e+01,6.600000000000081357e-01,1.569999999999971418e+00,2.869999999999996362e+03,-2.174999999999994937e+00,-4.945000000000051799e+00,1.338832695749461443e+01,-2.200170887713123857e+00
2.000000000000517630e+01,2.999999999449234789e+00,1.000000000010650147e+01,6.600000000004326850e-01,1.570000000002107043e+00,2.870000000000000455e+03,-2.174999999998865619e+00,-4.945000000000537632e+00,1.329548404765971448e+01,-2.283242523228074194e+00
2.000000000000174438e+01,2.999999999780611049e+00,1.000000000001345057e+01,6.600000000001565725e-01,1.570000000000945528e+00,2.869999999999996817e+03,-2.174999999999723599e+00,-4.945000000000446150e+00,1.326061052094370218e+01,-2.273480695438027333e+00
2.000000000000150635e+01,2.999999997941612762e+00,9.999999999991350919e+00,6.600000000003514167e-01,1.570000000002054641e+00,2.870000000000000455e+03,-2.174999999999193356e+00,-4.945000000000784546e+00,1.324597550691307291e+01,-2.293288866535514003e+00
2.000000000000284928e+01,2.999999998087308661e+00,1.000000000001229772e+01,6.599999999998539257e-01,1.569999999998861417e+00,2.869999999999988177e+03,-2.175000000000279154e+00,-4.944999999999490470e+00,1.327128646428651315e+01,-2.354710712951157525e+00
2.000000000000149214e+01,2.999999999075651846e+00,1.000000000002586020e+01,6.599999999999296429e-01,1.569999999999480256e+00,2.869999999999996362e+03,-2.175000000000131717e+00,-4.944999999999761364e+00,1.330840055793582977e+01,-2.328771425308632903e+00
2.000000000000290967e+01,2.999999998617988606e+00,1.000000000003633538e+01,6.600000000000056932e-01,1.569999999999735385e+00,2.869999999999990905e+03,-2.174999999999941647e+00,-4.944999999999772022e+00,1.329658740732696387e+01,-2.337254539258128094e+00
2.000000000000229861e+01,2.999999998044180494e+00,9.999999999975072384e+00,6.600000000001799982e-01,1.570000000000692619e+00,2.869999999999991360e+03,-2.174999999999423395e+00,-4.945000000000031370e+00,1.329799891341072993e+01,-2.285371135378573282e+00
2.000000000000276756e+01,2.999999997820871567e+00,1.000000000004446221e+01,6.599999999999522915e-01,1.569999999999494911e+00,2.869999999999990905e+03,-2.175000000000043343e+00,-4.944999999999739160e+00,1.329292503514851198e+01,-2.339395407845206609e+00
2.000000000000254019e+01,3.000000002930402587e+00,9.999999999982517096e+00,6.600000000000798561e-01,1.569999999999797113e+00,2.869999999999996817e+03,-2.174999999999554401e+00,-4.944999999999453166e+00,1.328439195950440599e+01,-2.292091048887952898e+00
2.000000000000035527e+01,2.999999998944296475e+00,9.999999999986856736e+00,6.599999999999407452e-01,1.569999999999540652e+00,2.869999999999991815e+03,-2.175000000000165024e+00,-4.944999999999833307e+00,1.334178563954908725e+01,-2.231832194348152054e+00
