2.000000000000051514e+01,2.999999999034785869e+00,9.999999999989263699e+00,6.600000000001218226e-01,1.570000000000563611e+00,2.870000000000003183e+03,-2.174999999999610356e+00,-4.945000000000099760e+00,1.340695031437391194e+01,-2.161430125646404132e+00
1.999999999999947775e+01,2.999999999719159316e+00,9.999999999977282172e+00,6.600000000001311484e-01,1.570000000000854046e+00,2.869999999999997726e+03,-2.174999999999695621e+00,-4.945000000000406182e+00,1.339555896869375040e+01,-2.160013293460295802e+00
2.000000000000017408e+01,2.999999999231456549e+00,1.000000000001000444e+01,6.600000000000588729e-01,1.570000000000622009e+00,2.869999999999989086e+03,-2.174999999999978950e+00,-4.945000000000471019e+00,1.339342119483708338e+01,-2.171032822934528372e+00
1.999999999999836930e+01,2.999999998734287132e+00,9.999999999951603158e+00,6.600000000000221245e-01,1.570000000000173257e+00,2.870000000000001364e+03,-2.174999999999772893e+00,-4.944999999999912355e+00,1.341564541250644993e+01,-2.139211742792117121e+00
2.000000000000087397e+01,2.999999999347227053e+00,9.999999999962081887e+00,6.600000000001802203e-01,1.570000000000861151e+00,2.869999999999996817e+03,-2.174999999999536193e+00,-4.945000000000163709e+00,1.339661169534204710e+01,-2.156483627576361695e+00
2.000000000000015987e+01,2.999999999507369619e+00,9.999999999983765875e+00,6.600000000000568745e-01,1.570000000000467022e+00,2.869999999999989996e+03,-2.174999999999944755e+00,-4.945000000000283613e+00,1.338825882193563466e+01,-2.151925981738365579e+00
1.999999999999766231e+01,2.999999999591457023e+00,9.999999999892899893e+00,6.600000000003118927e-01,1.570000000002512275e+00,2.870000000000000909e+03,-2.174999999999485567e+00,-4.945000000001520846e+00,1.338859934043212441e+01,-2.141184059902811132e+00
2.000000000000034817e+01,3.000000000312298631e+00,1.000000000001109868e+01,6.599999999999622835e-01,1.569999999999897033e+00,2.869999999999973170e+03,-2.175000000000252953e+00,-4.944999999999954099e+00,1.338166942675170645e+01,-2.174121276511375100e+00
1.999999999999983658e+01,3.000000000334858807e+00,1.000000000000932232e+01,6.599999999999451861e-01,1.569999999999837748e+00,2.869999999999971351e+03,-2.175000000000306244e+00,-4.944999999999931006e+00,1.338332358925695686e+01,-2.168975329631851690e+00
1.999999999999905498e+01,2.999999999580118537e+00,9.999999999974953369e+00,6.599999999999948130e-01,1.569999999999981855e+00,2.869999999999989541e+03,-2.174999999999945643e+00,-4.945000000000029594e+00,1.339828429157354250e+01,-2.159969226301647005e+00
2.000000000000029488e+01,3.000000000051822546e+00,1.000000000003341150e+01,6.599999999995312949e-01,1.569999999996864792e+00,2.869999999999974534e+03,-2.175000000000872014e+00,-4.944999999998338502e+00,1.340803527877797841e+01,-2.151092893842426079e+00
2.000000000000071410e+01,2.999999999746092438e+00,9.999999999987382537e+00,6.599999999998772404e-01,1.569999999998947571e+00,2.869999999999994998e+03,-2.174999999999974065e+00,-4.944999999999128093e+00,1.339813184712241245e+01,-2.160320171349700669e+00
1.999999999999860023e+01,2.999999999094017156e+00,9.999999999962426500e+00,6.600000000001213785e-01,1.570000000000917106e+00,2.870000000000002728e+03,-2.174999999999708944e+00,-4.945000000000564278e+00,1.339998221577768867e+01,-2.153420179551211788e+00
1.999999999999823785e+01,2.999999998662405520e+00,9.999999999965201170e+00,6.600000000000474376e-01,1.570000000000833396e+00,2.869999999999993179e+03,-2.175000000000074429e+00,-4.945000000000751683e+00,1.340672883728011300e+01,-2.152216130743361600e+00
1.999999999999822364e+01,2.999999999710306398e+00,9.999999999972958520e+00,6.600000000000423306e-01,1.570000000000510765e+00,2.870000000000004547e+03,-2.174999999999955413e+00,-4.945000000000376872e+00,1.340607254707046003e+01,-2.146894303579650831e+00
1.999999999999717204e+01,2.999999999809614515e+00,9.999999999964817476e+00,6.599999999999259792e-01,1.570000000000015383e+00,2.869999999999982265e+03,-2.175000000000375522e+00,-4.945000000000342233e+00,1.339626132862600905e+01,-2.153560307981552402e+00
2.000000000000006750e+01,3.000000000079208640e+00,9.999999999983511856e+00,6.600000000000066924e-01,1.570000000000011831e+00,2.869999999999991360e+03,-2.174999999999995381e+00,-4.944999999999816431e+00,1.340161844423171722e+01,-2.163443519492298961e+00
2.000000000000068567e+01,2.999999999819898733e+00,9.999999999935013761e+00,6.600000000002738121e-01,1.570000000001702478e+00,2.870000000000005912e+03,-2.174999999999306155e+00,-4.945000000000685958e+00,1.338184615641523756e+01,-2.146980069958754900e+00
2.000000000000041211e+01,2.999999999629242797e+00,1.000000000002509282e+01,6.599999999998344968e-01,1.569999999998848317e+00,2.869999999999989996e+03,-2.175000000000346656e+00,-4.944999999999353690e+00,1.339606543055315591e+01,-2.165306369699020905e+00
1.999999999999831957e+01,2.999999999348347490e+00,9.999999999982204457e+00,6.599999999997222533e-01,1.569999999998648921e+00,2.869999999999985448e+03,-2.175000000000697487e+00,-4.944999999999610374e+00,1.340468054564306222e+01,-2.157336199825901080e+00
2.000000000000027356e+01,2.999999999675111440e+00,1.000000000001993783e+01,6.599999999996595257e-01,1.569999999997842011e+00,2.869999999999977717e+03,-2.175000000000639311e+00,-4.944999999998938023e+00,1.338471840331541962e+01,-2.145095258918163772e+00
1.999999999999883471e+01,2.999999999307707998e+00,9.999999999959415575e+00,6.600000000000078026e-01,1.570000000000320917e+00,2.870000000000002274e+03,-2.175000000000009592e+00,-4.945000000000494111e+00,1.339963053086268019e+01,-2.150405470912474026e+00
2.000000000000063238e+01,2.999999999554120667e+00,9.999999999974644282e+00,6.600000000001756684e-01,1.570000000000649543e+00,2.869999999999994998e+03,-2.174999999999323474e+00,-4.944999999999854623e+00,1.340840324513016313e+01,-2.152413481375326398e+00
1.999999999999968736e+01,2.999999999088021063e+00,9.999999999968066433e+00,6.600000000001413625e-01,1.570000000000513873e+00,2.870000000000001364e+03,-2.174999999999411404e+00,-4.944999999999834195e+00,1.340900092123313669e+01,-2.148725508362312908e+00
1.999999999999879918e+01,2.999999999053031274e+00,9.999999999964055419e+00,6.600000000000008082e-01,1.570000000000257634e+00,2.869999999999984084e+03,-2.175000000000143707e+00,-4.945000000000412399e+00,1.338715625224899419e+01,-2.147406894073232042e+00
1.999999999999773337e+01,2.999999998760493725e+00,9.999999999969091391e+00,6.599999999997069322e-01,1.569999999998674900e+00,2.869999999999978627e+03,-2.175000000000662848e+00,-4.944999999999707185e+00,1.339812660216032647e+01,-2.151224426414314550e+00
1.999999999999895195e+01,2.999999999444106891e+00,9.999999999983447907e+00,6.600000000000822986e-01,1.570000000000793206e+00,2.869999999999996817e+03,-2.174999999999921219e+00,-4.945000000000434603e+00,1.338762852155267424e+01,-2.151606438389093157e+00
1.999999999999923972e+01,2.999999999704553222e+00,1.000000000000244249e+01,6.600000000000232347e-01,1.570000000000522977e+00,2.869999999999988631e+03,-2.175000000000133493e+00,-4.945000000000398188e+00,1.338398282828341124e+01,-2.166464010705973386e+00
1.999999999999978328e+01,2.999999999456182120e+00,9.999999999979204190e+00,6.600000000001563505e-01,1.570000000001116947e+00,2.869999999999993179e+03,-2.174999999999743583e+00,-4.945000000000534968e+00,1.339285843268619836e+01,-2.158818852140134137e+00
1.999999999999901945e+01,2.999999998926384581e+00,1.000000000000610001e+01,6.599999999997783195e-01,1.569999999999011076e+00,2.869999999999981810e+03,-2.175000000000666844e+00,-4.944999999999787121e+00,1.339051583501167464e+01,-2.178423206506233445e+00
2.000000000000029132e+01,2.999999999566397513e+00,9.999999999997339017e+00,6.599999999998622524e-01,1.569999999998854534e+00,2.869999999999970896e+03,-2.175000000000167688e+00,-4.944999999999214246e+00,1.339844721571201447e+01,-2.165135084962996448e+00
1.999999999999825206e+01,3.000000000080686124e+00,9.999999999958889774e+00,6.600000000000174616e-01,1.570000000000427720e+00,2.869999999999986358e+03,-2.174999999999993605e+00,-4.945000000000314699e+00,1.339548077440736762e+01,-2.141807137315426601e+00
1.999999999999784706e+01,2.999999999847267507e+00,1.000000000000929745e+01,6.599999999996184474e-01,1.569999999997865325e+00,2.869999999999981355e+03,-2.175000000000859579e+00,-4.944999999999061480e+00,1.340826977529393993e+01,-2.156781482717556653e+00
2.000000000000251532e+01,3.000000000046652904e+00,9.999999999990665245e+00,6.599999999998824585e-01,1.569999999998773044e+00,2.869999999999967258e+03,-2.175000000000025580e+00,-4.944999999998947793e+00,1.338956586251633851e+01,-2.168206410449784460e+00
2.000000000000268230e+01,2.999999999859026101e+00,9.999999999997628564e+00,6.600000000001323697e-01,1.570000000000309814e+00,2.869999999999970441e+03,-2.174999999999636557e+00,-4.944999999999673435e+00,1.338832067547782856e+01,-2.175051964916388858e+00
1.999999999999957012e+01,3.000000000137772016e+00,1.000000000003450928e+01,6.599999999994379252e-01,1.569999999996398055e+00,2.869999999999973625e+03,-2.175000000001139355e+00,-4.944999999998074713e+00,1.339218290519429999e+01,-2.155613860988481623e+00
1.999999999999934985e+01,3.000000000264749556e+00,1.000000000002824407e+01,6.599999999996083444e-01,1.569999999997844231e+00,2.869999999999983629e+03,-2.175000000000912870e+00,-4.944999999999146745e+00,1.339567714701769319e+01,-2.173482818757758395e+00
2.000000000000046896e+01,2.999999999302697340e+00,9.999999999961293184e+00,6.600000000003151124e-01,1.570000000002094831e+00,2.869999999999992724e+03,-2.174999999999355893e+00,-4.945000000001124718e+00,1.338650146378645900e+01,-2.170039768065306518e+00
1.999999999999949907e+01,2.999999999414280083e+00,9.999999999967611686e+00,6.600000000001510214e-01,1.570000000001234630e+00,2.869999999999987722e+03,-2.174999999999808864e+00,-4.945000000000844942e+00,1.338724389208326215e+01,-2.167296925760220816e+00
2.000000000000040501e+01,2.999999999362748859e+00,1.000000000001967138e+01,6.599999999997016031e-01,1.569999999998260121e+00,2.869999999999974534e+03,-2.175000000000622880e+00,-4.944999999999168949e+00,1.339361074722596889e+01,-2.180006490863869661e+00
2.000000000000058265e+01,3.000000000076665341e+00,1.000000000001425882e+01,6.599999999999975886e-01,1.569999999999962759e+00,2.869999999999984993e+03,-2.174999999999957190e+00,-4.945000000000025153e+00,1.339761150890991281e+01,-2.164823124043540492e+00
2.000000000000046185e+01,2.999999999347239932e+00,9.999999999989546140e+00,6.599999999999935918e-01,1.569999999999886819e+00,2.869999999999986812e+03,-2.174999999999896350e+00,-4.944999999999781792e+00,1.339081146025922919e+01,-2.179658655071381013e+00
1.999999999999904432e+01,3.000000000115561782e+00,9.999999999980550669e+00,6.600000000000655342e-01,1.570000000000899343e+00,2.869999999999976808e+03,-2.175000000000097966e+00,-4.945000000000658424e+00,1.337753662267874688e+01,-2.171643534246710860e+00
1.999999999999754152e+01,2.999999999986189270e+00,9.999999999983502974e+00,6.599999999997627764e-01,1.569999999999095230e+00,2.869999999999976353e+03,-2.175000000000709477e+00,-4.944999999999898144e+00,1.339450186447138513e+01,-2.162993421621461021e+00
2.000000000000050093e+01,3.000000000218213891e+00,1.000000000000938272e+01,6.599999999998600320e-01,1.569999999998916929e+00,2.869999999999986358e+03,-2.175000000000137490e+00,-4.944999999999208917e+00,1.340070182787978403e+01,-2.161834222447593046e+00
1.999999999999893774e+01,2.999999998965098946e+00,9.999999999954248153e+00,6.600000000003711786e-01,1.570000000002639950e+00,2.869999999999997272e+03,-2.174999999999416733e+00,-4.945000000001303242e+00,1.340781896014773267e+01,-2.161386131079169548e+00
1.999999999999875300e+01,3.000000000188439042e+00,1.000000000001005773e+01,6.599999999995332933e-01,1.569999999997137685e+00,2.869999999999974534e+03,-2.175000000000904432e+00,-4.944999999998691109e+00,1.340965764410207406e+01,-2.142678790497489327e+00
1.999999999999921485e+01,3.000000000295536040e+00,1.000000000000029310e+01,6.599999999998997779e-01,1.569999999999449836e+00,2.869999999999981810e+03,-2.175000000000209432e+00,-4.944999999999840412e+00,1.341094126862823366e+01,-2.151245641248863194e+00
2.000000000000081357e+01,2.999999999715042609e+00,9.999999999985192289e+00,6.600000000000663114e-01,1.570000000000467688e+00,2.869999999999978627e+03,-2.174999999999818190e+00,-4.945000000000165485e+00,1.337823894943701397e+01,-2.164640585773502046e+00
2.000000000000115818e+01,3.000000000272076583e+00,9.999999999998685496e+00,6.600000000001235989e-01,1.570000000001007257e+00,2.869999999999970896e+03,-2.174999999999837730e+00,-4.945000000000564278e+00,1.337791435766622072e+01,-2.178753739550951529e+00
1.999999999999698730e+01,2.999999999383198723e+00,9.999999999953956831e+00,6.599999999997937516e-01,1.569999999999178941e+00,2.870000000000007731e+03,-2.175000000000535838e+00,-4.944999999999809326e+00,1.340771853314389972e+01,-2.147642464002940788e+00
1.999999999999957723e+01,2.999999999705547538e+00,9.999999999947405627e+00,6.600000000003248823e-01,1.570000000002268914e+00,2.870000000000002728e+03,-2.174999999999305711e+00,-4.945000000001121165e+00,1.338454809375847177e+01,-2.164948224257705167e+00
1.999999999999907629e+01,2.999999999614629598e+00,9.999999999948565588e+00,6.600000000001829958e-01,1.570000000001392504e+00,2.870000000000001819e+03,-2.174999999999629452e+00,-4.945000000000710827e+00,1.340363500141010888e+01,-2.152904845759502361e+00
1.999999999999900169e+01,2.999999999455976507e+00,9.999999999978340881e+00,6.600000000001554623e-01,1.570000000001256169e+00,2.869999999999988177e+03,-2.174999999999807088e+00,-4.945000000000797868e+00,1.340642524905755018e+01,-2.172786423029169800e+00
1.999999999999938893e+01,3.000000000047539750e+00,1.000000000002197709e+01,6.599999999998688027e-01,1.569999999999481144e+00,2.869999999999983174e+03,-2.175000000000461675e+00,-4.945000000000001172e+00,1.339266542051283793e+01,-2.164269174519488192e+00
2.000000000000080647e+01,2.999999999717964272e+00,9.999999999998991029e+00,6.600000000001328138e-01,1.570000000000629337e+00,2.869999999999998636e+03,-2.174999999999668532e+00,-4.945000000000328910e+00,1.340252181896111416e+01,-2.170075576381063964e+00
2.000000000000010303e+01,2.999999999864524369e+00,9.999999999993713473e+00,6.600000000003412026e-01,1.570000000002604867e+00,2.869999999999984084e+03,-2.174999999999601474e+00,-4.945000000001544826e+00,1.338881092102851689e+01,-2.168279289041624036e+00
1.999999999999944578e+01,3.000000000849257109e+00,1.000000000000460787e+01,6.600000000000035838e-01,1.570000000000403961e+00,2.869999999999982265e+03,-2.175000000000189893e+00,-4.945000000000474571e+00,1.337854202844335560e+01,-2.173799900971728150e+00
1.999999999999932854e+01,2.999999999933929740e+00,1.000000000002982503e+01,6.599999999994008437e-01,1.569999999996213536e+00,2.869999999999975444e+03,-2.175000000001203304e+00,-4.944999999998061391e+00,1.340638149644627397e+01,-2.171856734755049700e+00
1.999999999999838352e+01,2.999999998543336321e+00,9.999999999943412377e+00,6.599999999999318634e-01,1.569999999999567741e+00,2.869999999999997272e+03,-2.175000000000038902e+00,-4.944999999999685869e+00,1.340013190231705487e+01,-2.140755631040922147e+00
1.999999999999833022e+01,2.999999999737086753e+00,9.999999999986961541e+00,6.599999999997819833e-01,1.569999999998909379e+00,2.870000000000003183e+03,-2.175000000000467892e+00,-4.944999999999480700e+00,1.340646896881060357e+01,-2.166278611438714918e+00
1.999999999999925393e+01,2.999999999284079344e+00,9.999999999995912603e+00,6.600000000002559375e-01,1.570000000002311324e+00,2.869999999999994543e+03,-2.174999999999695177e+00,-4.945000000001423146e+00,1.338230319429808901e+01,-2.183574309320815754e+00
1.999999999999984013e+01,2.999999998805986223e+00,9.999999999984545695e+00,6.600000000005176171e-01,1.570000000003587415e+00,2.870000000000003183e+03,-2.174999999999075229e+00,-4.945000000001847695e+00,1.338981502329092166e+01,-2.178566841473748905e+00
1.999999999999942091e+01,2.999999999385940974e+00,9.999999999979120702e+00,6.599999999999794920e-01,1.569999999999978080e+00,2.869999999999984539e+03,-2.175000000000179678e+00,-4.945000000000083773e+00,1.339214014636219297e+01,-2.152709718376227155e+00
2.000000000000168399e+01,2.999999999341337986e+00,1.000000000001700151e+01,6.599999999998816813e-01,1.569999999998739293e+00,2.869999999999979082e+03,-2.174999999999998046e+00,-4.944999999998982432e+00,1.339498149254882264e+01,-2.159771340953756891e+00
1.999999999999917932e+01,2.999999999606460133e+00,1.000000000000545164e+01,6.599999999998510392e-01,1.569999999999148521e+00,2.869999999999979082e+03,-2.175000000000341771e+00,-4.944999999999558860e+00,1.338691331576754706e+01,-2.162152013605767475e+00
2.000000000000045119e+01,2.999999999313729404e+00,9.999999999941634243e+00,6.600000000002373968e-01,1.570000000001146256e+00,2.870000000000004093e+03,-2.174999999999248423e+00,-4.945000000000177032e+00,1.338391132303007147e+01,-2.151034405734624233e+00
1.999999999999863221e+01,3.000000000384326349e+00,9.999999999993502087e+00,6.600000000000727507e-01,1.570000000000692397e+00,2.869999999999992269e+03,-2.174999999999950084e+00,-4.945000000000334239e+00,1.338237912959054299e+01,-2.167090751994799280e+00
2.000000000000214229e+01,2.999999999053714284e+00,1.000000000000295408e+01,6.599999999999934808e-01,1.569999999999452500e+00,2.869999999999978172e+03,-2.174999999999823963e+00,-4.944999999999367901e+00,1.340358409519950200e+01,-2.173010051728773817e+00
2.000000000000055067e+01,2.999999999812270168e+00,1.000000000001661782e+01,6.599999999999153211e-01,1.569999999999214690e+00,2.869999999999983629e+03,-2.175000000000028244e+00,-4.944999999999388329e+00,1.339866418842523998e+01,-2.174543377458976412e+00
1.999999999999941380e+01,2.999999999415763341e+00,1.000000000001467093e+01,6.599999999997543387e-01,1.569999999998788587e+00,2.869999999999980901e+03,-2.175000000000668621e+00,-4.944999999999732943e+00,1.339370758259265592e+01,-2.162941256355036757e+00
1.999999999999787192e+01,2.999999999683434559e+00,9.999999999950004437e+00,6.599999999998250599e-01,1.569999999998959339e+00,2.869999999999994543e+03,-2.175000000000226752e+00,-4.944999999999420304e+00,1.340601675570043128e+01,-2.144398196722437255e+00
2.000000000000020961e+01,2.999999999882098312e+00,1.000000000000347278e+01,6.599999999998793498e-01,1.569999999999073026e+00,2.869999999999998636e+03,-2.175000000000211209e+00,-4.944999999999282636e+00,1.339897685440667097e+01,-2.161940715881400354e+00
1.999999999999749889e+01,2.999999999900924141e+00,9.999999999914294335e+00,6.600000000003496403e-01,1.570000000002699014e+00,2.870000000000005912e+03,-2.174999999999316813e+00,-4.945000000001606111e+00,1.338705937384269617e+01,-2.143433450452476130e+00
1.999999999999869260e+01,2.999999999344972412e+00,9.999999999969377384e+00,6.599999999999361933e-01,1.569999999999661000e+00,2.869999999999999545e+03,-2.175000000000026024e+00,-4.944999999999785345e+00,1.339801078088026820e+01,-2.140359478322200193e+00
1.999999999999916156e+01,2.999999999091339742e+00,9.999999999988501642e+00,6.599999999998911182e-01,1.569999999999349471e+00,2.869999999999995907e+03,-2.175000000000244960e+00,-4.944999999999579288e+00,1.340459772263803728e+01,-2.172669168838662568e+00
1.999999999999784350e+01,2.999999999498547343e+00,9.999999999929606531e+00,6.600000000002891332e-01,1.570000000002455653e+00,2.870000000000005457e+03,-2.174999999999632561e+00,-4.945000000001511076e+00,1.339645764551475260e+01,-2.155743642310108843e+00
1.999999999999936406e+01,3.000000000001130207e+00,1.000000000002014211e+01,6.599999999997693267e-01,1.569999999998701101e+00,2.869999999999996817e+03,-2.175000000000455014e+00,-4.944999999999426521e+00,1.339583544885210564e+01,-2.168357404516232823e+00
1.999999999999970157e+01,3.000000000158995039e+00,1.000000000001120348e+01,6.599999999995226352e-01,1.569999999997135687e+00,2.869999999999990450e+03,-2.175000000000824496e+00,-4.944999999998608509e+00,1.339196479704366283e+01,-2.159051993501977407e+00
