2.000000000000151346e+01,2.999999998487862474e+00,9.999999999994514610e+00,6.600000000001127187e-01,1.570000000000657536e+00,2.869999999999991815e+03,-2.174999999999785771e+00,-4.945000000000260520e+00,1.324397416396396210e+01,-2.342968061516824907e+00
1.999999999999777245e+01,2.999999999729402234e+00,9.999999999951519669e+00,6.599999999999283107e-01,1.569999999999779572e+00,2.870000000000001819e+03,-2.175000000000135270e+00,-4.944999999999903473e+00,1.339857850896182079e+01,-2.157818737143902599e+00
2.000000000000059686e+01,2.999999999773308446e+00,9.999999999985636379e+00,6.600000000001753353e-01,1.570000000000890017e+00,2.870000000000000909e+03,-2.174999999999498002e+00,-4.945000000000121965e+00,1.338747917928002451e+01,-2.199800750147509198e+00
1.999999999999680611e+01,2.999999996623631038e+00,9.999999999929420014e+00,6.599999999999353051e-01,1.570000000000402629e+00,2.869999999999999091e+03,-2.175000000000347100e+00,-4.945000000000687734e+00,1.340305104023260974e+01,-2.139686553286586523e+00
1.999999999999811706e+01,2.999999998330711293e+00,9.999999999921040938e+00,6.600000000000774136e-01,1.570000000000760343e+00,2.869999999999998636e+03,-2.174999999999957634e+00,-4.945000000000525198e+00,1.337303539343814052e+01,-2.190965181188275324e+00
1.999999999999862510e+01,2.999999998208441099e+00,9.999999999913889326e+00,6.600000000001836620e-01,1.570000000001233520e+00,2.870000000000001819e+03,-2.174999999999592148e+00,-4.945000000000552731e+00,1.343539408001057645e+01,-2.138858166243251535e+00
1.999999999999936406e+01,2.999999997859419842e+00,9.999999999933162798e+00,6.600000000001986500e-01,1.570000000001408935e+00,2.870000000000001819e+03,-2.174999999999533085e+00,-4.945000000000619345e+00,1.341378449727646682e+01,-2.140015133559300509e+00
2.000000000000125056e+01,2.999999999409914242e+00,9.999999999985142551e+00,6.600000000000378897e-01,1.570000000000106199e+00,2.869999999999997272e+03,-2.174999999999783551e+00,-4.944999999999932783e+00,1.337433679955323917e+01,-2.200916585427008521e+00
1.999999999999440092e+01,2.999999997467908575e+00,9.999999999880387236e+00,6.599999999996027933e-01,1.569999999998060503e+00,2.870000000000001819e+03,-2.175000000000963940e+00,-4.944999999999435403e+00,1.344993277081855787e+01,-2.077105809896445443e+00
1.999999999999879563e+01,2.999999996934458846e+00,9.999999999936870054e+00,6.599999999998569233e-01,1.569999999999170281e+00,2.869999999999996362e+03,-2.175000000000152145e+00,-4.944999999999593499e+00,1.334451911083169939e+01,-2.200414629214717976e+00
1.999999999999897682e+01,2.999999999251795391e+00,9.999999999988025579e+00,6.599999999998165112e-01,1.569999999998825668e+00,2.869999999999997726e+03,-2.175000000000268496e+00,-4.944999999999321716e+00,1.344464981450385466e+01,-2.141475001507687992e+00
1.999999999999548805e+01,2.999999998187016459e+00,9.999999999927679184e+00,6.599999999995672662e-01,1.569999999998014317e+00,2.870000000000000455e+03,-2.175000000001107825e+00,-4.944999999999478035e+00,1.344416833934155164e+01,-2.138206296005692675e+00
1.999999999999847944e+01,2.999999998948266633e+00,9.999999999966703967e+00,6.599999999999537348e-01,1.569999999999728724e+00,2.870000000000000455e+03,-2.175000000000043787e+00,-4.944999999999807550e+00,1.340642386035800904e+01,-2.130495357684428992e+00
1.999999999999874589e+01,2.999999998299440307e+00,9.999999999973748999e+00,6.599999999997336886e-01,1.569999999998918261e+00,2.869999999999999545e+03,-2.175000000000707256e+00,-4.944999999999900808e+00,1.336847309771921388e+01,-2.179025279653693747e+00
1.999999999999688782e+01,2.999999997520856887e+00,9.999999999986194155e+00,6.599999999997322453e-01,1.569999999998651363e+00,2.869999999999999545e+03,-2.175000000000695266e+00,-4.944999999999567741e+00,1.336533634059347797e+01,-2.195764018775988813e+00
2.000000000000024869e+01,2.999999997084805692e+00,1.000000000000176748e+01,6.600000000000409983e-01,1.570000000000078444e+00,2.869999999999995907e+03,-2.174999999999780886e+00,-4.944999999999787121e+00,1.340749997460802589e+01,-2.177690870039302951e+00
1.999999999999833022e+01,2.999999997686011888e+00,1.000000000000067146e+01,6.599999999998898970e-01,1.569999999999909024e+00,2.869999999999997272e+03,-2.175000000000431033e+00,-4.945000000000280949e+00,1.341532901705421565e+01,-2.179348295516200906e+00
1.999999999999965539e+01,2.999999999661894901e+00,1.000000000000458833e+01,6.599999999999832667e-01,1.569999999999848184e+00,2.869999999999995907e+03,-2.174999999999956302e+00,-4.944999999999774687e+00,1.341114132958415972e+01,-2.201919134810434997e+00
1.999999999999879208e+01,2.999999997588723044e+00,1.000000000001549694e+01,6.599999999998577005e-01,1.569999999999292406e+00,2.869999999999996817e+03,-2.175000000000344436e+00,-4.944999999999716067e+00,1.339579733240287140e+01,-2.191919008555682780e+00
2.000000000000223110e+01,3.000000001722426646e+00,1.000000000001717737e+01,6.600000000002255174e-01,1.570000000001139373e+00,2.869999999999994998e+03,-2.174999999999411848e+00,-4.945000000000285389e+00,1.337821215408329323e+01,-2.204585312070617142e+00
2.000000000000039080e+01,2.999999999838815157e+00,9.999999999973766762e+00,6.600000000001313705e-01,1.570000000000688845e+00,2.869999999999996817e+03,-2.174999999999652545e+00,-4.945000000000191243e+00,1.341590169694365819e+01,-2.166370857323233867e+00
2.000000000000033040e+01,3.000000001084652812e+00,9.999999999985991650e+00,6.600000000000262323e-01,1.569999999999990514e+00,2.869999999999995453e+03,-2.174999999999819966e+00,-4.944999999999747153e+00,1.343058723748503525e+01,-2.169368147068081676e+00
2.000000000000132161e+01,2.999999998567767889e+00,9.999999999980495602e+00,6.600000000000422196e-01,1.569999999999657003e+00,2.869999999999995453e+03,-2.174999999999673417e+00,-4.944999999999402540e+00,1.332914453367997609e+01,-2.215663103438469950e+00
1.999999999999985079e+01,3.000000000469553285e+00,9.999999999999007017e+00,6.599999999998649169e-01,1.569999999999244666e+00,2.869999999999990905e+03,-2.175000000000290701e+00,-4.944999999999680540e+00,1.339239935767922596e+01,-2.167025449326720477e+00
2.000000000000024514e+01,3.000000002327988469e+00,9.999999999973971043e+00,6.599999999999486278e-01,1.569999999999564189e+00,2.869999999999992724e+03,-2.174999999999879918e+00,-4.944999999999508233e+00,1.338521983385150449e+01,-2.174081387987463643e+00
1.999999999999970157e+01,3.000000000390269150e+00,1.000000000000223288e+01,6.599999999999245359e-01,1.569999999999486029e+00,2.869999999999996817e+03,-2.175000000000117950e+00,-4.944999999999695639e+00,1.334768884120555477e+01,-2.228702694713824428e+00
1.999999999999711520e+01,3.000000000180652382e+00,9.999999999967426945e+00,6.599999999998277245e-01,1.569999999999455387e+00,2.870000000000000909e+03,-2.175000000000459011e+00,-4.945000000000012719e+00,1.340784500735049356e+01,-2.164265174099418765e+00
2.000000000000208900e+01,2.999999999937291495e+00,1.000000000002239098e+01,6.600000000002438361e-01,1.570000000001017915e+00,2.869999999999993634e+03,-2.174999999999356781e+00,-4.945000000000072227e+00,1.335527912223427371e+01,-2.237289365356633031e+00
1.999999999999825562e+01,2.999999999684126006e+00,9.999999999959300112e+00,6.599999999997321343e-01,1.569999999998257678e+00,2.869999999999994998e+03,-2.175000000000399503e+00,-4.944999999999029505e+00,1.344565519825508026e+01,-2.130606702620015724e+00
1.999999999999854694e+01,3.000000000427625046e+00,1.000000000000021494e+01,6.599999999998479305e-01,1.569999999999298845e+00,2.869999999999997272e+03,-2.175000000000343992e+00,-4.944999999999691198e+00,1.340527495483606657e+01,-2.186332943322387479e+00
1.999999999999782929e+01,2.999999999013547747e+00,9.999999999962401631e+00,6.599999999997581135e-01,1.569999999998734186e+00,2.869999999999992269e+03,-2.175000000000564260e+00,-4.944999999999521556e+00,1.343905442994946497e+01,-2.137937856499955380e+00
1.999999999999820943e+01,2.999999999991039612e+00,9.999999999974493292e+00,6.599999999997592237e-01,1.569999999999038165e+00,2.869999999999994998e+03,-2.175000000000656186e+00,-4.944999999999868834e+00,1.341784031209394179e+01,-2.147743690199936495e+00
1.999999999999920419e+01,3.000000000421745749e+00,1.000000000003439382e+01,6.599999999998067413e-01,1.569999999999353024e+00,2.869999999999993634e+03,-2.175000000000639311e+00,-4.945000000000034035e+00,1.339080836393008234e+01,-2.174510504088428497e+00
1.999999999999606004e+01,2.999999997842660804e+00,9.999999999903076642e+00,6.599999999997673283e-01,1.569999999998949347e+00,2.869999999999998636e+03,-2.175000000000547384e+00,-4.944999999999740936e+00,1.350436406878193196e+01,-2.082539910791622262e+00
1.999999999999888445e+01,2.999999997922375261e+00,9.999999999957900343e+00,6.600000000000401101e-01,1.570000000000235874e+00,2.870000000000000909e+03,-2.174999999999869260e+00,-4.945000000000094431e+00,1.340420995837528650e+01,-2.172102825279770499e+00
1.999999999999933920e+01,2.999999999563195630e+00,9.999999999973569587e+00,6.600000000000038058e-01,1.569999999999977636e+00,2.869999999999997272e+03,-2.174999999999900346e+00,-4.944999999999921236e+00,1.341720126132997315e+01,-2.166729252611685475e+00
1.999999999999970157e+01,2.999999998726003980e+00,1.000000000000074785e+01,6.599999999997977485e-01,1.569999999998918261e+00,2.869999999999994543e+03,-2.175000000000452793e+00,-4.944999999999582840e+00,1.337289910403525361e+01,-2.254901568001276946e+00
2.000000000000082423e+01,2.999999998507584031e+00,1.000000000002167866e+01,6.600000000000819655e-01,1.570000000000276730e+00,2.869999999999996817e+03,-2.174999999999740918e+00,-4.944999999999888374e+00,1.331433084231452391e+01,-2.254867822358201046e+00
1.999999999999724665e+01,2.999999996980011296e+00,9.999999999926277638e+00,6.600000000000607603e-01,1.570000000000877804e+00,2.870000000000000455e+03,-2.175000000000048672e+00,-4.945000000000692175e+00,1.337113506821499520e+01,-2.209812594287028809e+00
1.999999999999763034e+01,2.999999997508111971e+00,9.999999999955097252e+00,6.600000000000757483e-01,1.570000000000762341e+00,2.869999999999999545e+03,-2.174999999999897238e+00,-4.945000000000483453e+00,1.339340406134462746e+01,-2.201376241506115772e+00
2.000000000000178346e+01,2.999999999201134138e+00,9.999999999986812327e+00,6.600000000002560485e-01,1.570000000001067875e+00,2.869999999999996817e+03,-2.174999999999288836e+00,-4.945000000000064233e+00,1.328774484547010637e+01,-2.261981119026795106e+00
1.999999999999998224e+01,3.000000000289972046e+00,9.999999999995402788e+00,6.600000000001026157e-01,1.570000000000679741e+00,2.869999999999999545e+03,-2.174999999999774669e+00,-4.945000000000348450e+00,1.336357604433612600e+01,-2.183713811217068201e+00
1.999999999999742428e+01,2.999999999588667698e+00,9.999999999916218130e+00,6.599999999999605071e-01,1.569999999999708962e+00,2.870000000000000455e+03,-2.174999999999988720e+00,-4.944999999999735607e+00,1.341046093502746395e+01,-2.136839566724060280e+00
2.000000000000045830e+01,2.999999999178018406e+00,9.999999999968936848e+00,6.600000000001172706e-01,1.570000000000539186e+00,2.869999999999999545e+03,-2.174999999999582823e+00,-4.945000000000032259e+00,1.340479784115298401e+01,-2.147189831489282774e+00
2.000000000000092371e+01,2.999999999503554893e+00,1.000000000002137668e+01,6.600000000000854072e-01,1.570000000000566276e+00,2.870000000000000000e+03,-2.174999999999824407e+00,-4.945000000000258744e+00,1.340032049109319701e+01,-2.186059356692545474e+00
2.000000000000273914e+01,3.000000000573261882e+00,1.000000000002402345e+01,6.600000000001989831e-01,1.570000000000927320e+00,2.869999999999992724e+03,-2.174999999999396749e+00,-4.945000000000143281e+00,1.337618625136957107e+01,-2.207173895240459593e+00
2.000000000000011724e+01,2.999999999336894430e+00,9.999999999965842434e+00,6.600000000001402523e-01,1.570000000000960405e+00,2.870000000000000455e+03,-2.174999999999757350e+00,-4.945000000000489671e+00,1.334788709424436881e+01,-2.198136572391648613e+00
2.000000000000000355e+01,2.999999998448355409e+00,9.999999999968540720e+00,6.600000000001123857e-01,1.570000000000548290e+00,2.869999999999997726e+03,-2.174999999999713829e+00,-4.945000000000155715e+00,1.339704448814298665e+01,-2.164942516548347573e+00
1.999999999999921840e+01,2.999999998359419884e+00,9.999999999968078868e+00,6.600000000000305622e-01,1.570000000000103979e+00,2.869999999999995907e+03,-2.174999999999880362e+00,-4.944999999999943441e+00,1.344348991253083803e+01,-2.124428081469203811e+00
2.000000000000194689e+01,2.999999997159877196e+00,1.000000000000205702e+01,6.600000000000098010e-01,1.569999999999874607e+00,2.869999999999989541e+03,-2.174999999999935874e+00,-4.944999999999786233e+00,1.332669208701542551e+01,-2.263322137169819559e+00
2.000000000000120792e+01,2.999999997702220256e+00,9.999999999960778041e+00,6.599999999999420774e-01,1.569999999999390994e+00,2.869999999999985448e+03,-2.174999999999976286e+00,-4.944999999999491358e+00,1.326038372051494107e+01,-2.291642496461522516e+00
2.000000000000094502e+01,2.999999998282114166e+00,9.999999999983238297e+00,6.600000000000252331e-01,1.570000000000274731e+00,2.869999999999991360e+03,-2.174999999999927880e+00,-4.945000000000154827e+00,1.333943031911161370e+01,-2.243821031806866539e+00
1.999999999999986855e+01,2.999999998797361567e+00,9.999999999971299403e+00,6.600000000001636780e-01,1.570000000000994156e+00,2.870000000000000455e+03,-2.174999999999681410e+00,-4.945000000000366214e+00,1.336641674481099784e+01,-2.238238325408891338e+00
1.999999999999949551e+01,3.000000000002643219e+00,9.999999999977003284e+00,6.600000000000014744e-01,1.570000000000051354e+00,2.869999999999999091e+03,-2.174999999999936762e+00,-4.944999999999954987e+00,1.338962494208535503e+01,-2.169881657105881434e+00
1.999999999999915801e+01,2.999999997805544272e+00,9.999999999940749618e+00,6.599999999999490718e-01,1.569999999999819318e+00,2.869999999999996362e+03,-2.175000000000161915e+00,-4.945000000000004725e+00,1.336362610584401267e+01,-2.190574510001833897e+00
2.000000000000009948e+01,2.999999999127685779e+00,9.999999999957562835e+00,6.599999999998691358e-01,1.569999999999361684e+00,2.869999999999996362e+03,-2.175000000000240519e+00,-4.944999999999803997e+00,1.338343432787053722e+01,-2.152134143648693598e+00
1.999999999999916511e+01,2.999999995612849357e+00,9.999999999940831330e+00,6.599999999999142108e-01,1.569999999999554197e+00,2.870000000000000455e+03,-2.175000000000190337e+00,-4.944999999999836859e+00,1.338724014841103482e+01,-2.151465915748928204e+00
2.000000000000194689e+01,2.999999998743250629e+00,1.000000000000591527e+01,6.600000000000760814e-01,1.570000000000181029e+00,2.869999999999992269e+03,-2.174999999999626787e+00,-4.944999999999802220e+00,1.331143614695771227e+01,-2.245872765053162912e+00
2.000000000000245137e+01,2.999999999452308774e+00,1.000000000003896794e+01,6.600000000000201261e-01,1.570000000000019602e+00,2.869999999999992724e+03,-2.174999999999900346e+00,-4.945000000000018048e+00,1.333089560755499292e+01,-2.251785226321495692e+00
2.000000000000295231e+01,2.999999999674139328e+00,1.000000000006474465e+01,6.600000000002075318e-01,1.570000000000883134e+00,2.870000000000000455e+03,-2.174999999999359002e+00,-4.945000000000045581e+00,1.333907129551092829e+01,-2.227343617240042484e+00
2.000000000000440892e+01,3.000000000153168145e+00,1.000000000010080647e+01,6.600000000003254375e-01,1.570000000001497309e+00,2.869999999999999091e+03,-2.174999999999064570e+00,-4.945000000000219664e+00,1.329634586559011389e+01,-2.282814260454834265e+00
2.000000000000118305e+01,2.999999999585700294e+00,1.000000000000366285e+01,6.600000000002220757e-01,1.570000000000918217e+00,2.870000000000002728e+03,-2.174999999999372324e+00,-4.945000000000076668e+00,1.327918151039405181e+01,-2.280205512472425422e+00
2.000000000000186162e+01,3.000000000610648421e+00,1.000000000001651124e+01,6.600000000000125766e-01,1.569999999999710072e+00,2.869999999999994998e+03,-2.174999999999838618e+00,-4.944999999999661000e+00,1.329157990405973067e+01,-2.272960271662558096e+00
2.000000000000372680e+01,3.000000000581467319e+00,1.000000000005627321e+01,6.599999999999980327e-01,1.569999999999493134e+00,2.869999999999985448e+03,-2.174999999999844391e+00,-4.944999999999474483e+00,1.333600535230761075e+01,-2.248454856638774757e+00
