1.999999999999918288e+01,2.999999999228779135e+00,9.999999999926545868e+00,6.600000000000973976e-01,1.570000000000493889e+00,2.869999999999999091e+03,-2.174999999999704059e+00,-4.945000000000048246e+00,1.342479696596822869e+01,-2.128179072788658477e+00
1.999999999999902656e+01,2.999999998885843677e+00,9.999999999915857529e+00,6.600000000002043121e-01,1.570000000001316121e+00,2.870000000000002274e+03,-2.174999999999548184e+00,-4.945000000000537632e+00,1.340833689072092483e+01,-2.145341967832433028e+00
1.999999999999883471e+01,2.999999999212704882e+00,9.999999999959344521e+00,6.600000000001249312e-01,1.570000000001197105e+00,2.869999999999999091e+03,-2.174999999999879474e+00,-4.945000000000826290e+00,1.339904208601819491e+01,-2.146338401170138521e+00
1.999999999999949196e+01,2.999999997721928047e+00,9.999999999898427916e+00,6.600000000004457856e-01,1.570000000002871543e+00,2.870000000000000455e+03,-2.174999999999079225e+00,-4.945000000001345875e+00,1.341262215807068614e+01,-2.156364747409652782e+00
1.999999999999812061e+01,2.999999998954701930e+00,9.999999999954152230e+00,6.600000000002351763e-01,1.570000000001765539e+00,2.870000000000001364e+03,-2.174999999999641886e+00,-4.945000000000963958e+00,1.340237201929010347e+01,-2.130747255039748378e+00
1.999999999999779376e+01,2.999999999062160416e+00,9.999999999953285368e+00,6.600000000002304024e-01,1.570000000001799512e+00,2.870000000000001364e+03,-2.174999999999692069e+00,-4.945000000001024354e+00,1.340331016661369290e+01,-2.127659029992929884e+00
1.999999999999873879e+01,2.999999998702473913e+00,9.999999999935274886e+00,6.600000000002193001e-01,1.570000000001634755e+00,2.869999999999999091e+03,-2.174999999999606359e+00,-4.945000000000905338e+00,1.340462351119307804e+01,-2.157128724059242053e+00
1.999999999999897327e+01,2.999999998746525343e+00,9.999999999961127983e+00,6.600000000002304024e-01,1.570000000001751994e+00,2.870000000000002274e+03,-2.174999999999651212e+00,-4.945000000000960405e+00,1.337738686697107582e+01,-2.166669827687175420e+00
1.999999999999819877e+01,2.999999998418473091e+00,9.999999999983312904e+00,6.600000000001388090e-01,1.570000000001317231e+00,2.870000000000003183e+03,-2.174999999999903455e+00,-4.945000000000854712e+00,1.338733675612255780e+01,-2.163120326802149496e+00
1.999999999999931433e+01,2.999999999912863036e+00,9.999999999964222397e+00,6.599999999998650280e-01,1.569999999999338369e+00,2.869999999999995907e+03,-2.175000000000274714e+00,-4.944999999999740936e+00,1.339519209831799706e+01,-2.156520996234471799e+00
1.999999999999864642e+01,2.999999999713108156e+00,1.000000000002239275e+01,6.599999999997148148e-01,1.569999999998297646e+00,2.870000000000000909e+03,-2.175000000000475886e+00,-4.944999999999124540e+00,1.343247237519730675e+01,-2.153892435564200625e+00
1.999999999999986855e+01,2.999999999215539503e+00,9.999999999987885246e+00,6.599999999997733235e-01,1.569999999998391793e+00,2.869999999999996362e+03,-2.175000000000288480e+00,-4.944999999999095230e+00,1.342007981220536905e+01,-2.159098016227613659e+00
1.999999999999831957e+01,2.999999999595252653e+00,9.999999999990322408e+00,6.599999999997261391e-01,1.569999999998519469e+00,2.869999999999996362e+03,-2.175000000000593570e+00,-4.944999999999396323e+00,1.342191353961148614e+01,-2.150980479108906440e+00
2.000000000000017053e+01,2.999999999774452419e+00,9.999999999999339195e+00,6.599999999996555289e-01,1.569999999997864881e+00,2.869999999999989996e+03,-2.175000000000693934e+00,-4.944999999998979767e+00,1.342225792937289164e+01,-2.163545083738680486e+00
1.999999999999812061e+01,2.999999999380746019e+00,9.999999999956159513e+00,6.599999999998813482e-01,1.569999999999268203e+00,2.869999999999997272e+03,-2.175000000000207656e+00,-4.944999999999606821e+00,1.340009835037035479e+01,-2.160425941401507455e+00
1.999999999999956657e+01,2.999999999427699127e+00,9.999999999974633624e+00,6.599999999999772715e-01,1.569999999999514451e+00,2.869999999999997726e+03,-2.174999999999836842e+00,-4.944999999999447837e+00,1.341486758716633254e+01,-2.135660214988331695e+00
1.999999999999912603e+01,2.999999999107128446e+00,9.999999999982554399e+00,6.599999999999692779e-01,1.569999999999692308e+00,2.869999999999999545e+03,-2.174999999999945199e+00,-4.944999999999695639e+00,1.342883129520426699e+01,-2.134385169607938337e+00
1.999999999999753442e+01,2.999999999363755165e+00,9.999999999983320009e+00,6.599999999998498179e-01,1.569999999999623475e+00,2.869999999999996817e+03,-2.175000000000500755e+00,-4.945000000000196572e+00,1.340081737563292386e+01,-2.124246645615272211e+00
1.999999999999790745e+01,2.999999999311750987e+00,9.999999999992635225e+00,6.599999999998255040e-01,1.569999999999425855e+00,2.869999999999995907e+03,-2.175000000000539835e+00,-4.945000000000085549e+00,1.340048166311869160e+01,-2.129048731304485909e+00
1.999999999999763745e+01,2.999999999001770057e+00,9.999999999968807174e+00,6.599999999998660272e-01,1.569999999999181606e+00,2.869999999999996817e+03,-2.175000000000234746e+00,-4.944999999999557083e+00,1.343178741049639058e+01,-2.127070742592131580e+00
1.999999999999943512e+01,2.999999998935470202e+00,1.000000000001548628e+01,6.600000000000256772e-01,1.570000000000354667e+00,2.869999999999999545e+03,-2.175000000000009148e+00,-4.945000000000288054e+00,1.339616240988324414e+01,-2.153778848744432928e+00
2.000000000000048317e+01,2.999999998546853064e+00,9.999999999985361043e+00,6.600000000003134470e-01,1.570000000002050644e+00,2.869999999999997726e+03,-2.174999999999428280e+00,-4.945000000001033236e+00,1.336800062403077227e+01,-2.167289664082819201e+00
2.000000000000003908e+01,2.999999999629774816e+00,9.999999999965439201e+00,6.600000000002421707e-01,1.570000000001486873e+00,2.869999999999996362e+03,-2.174999999999486011e+00,-4.945000000000622897e+00,1.340623131406638713e+01,-2.176674977927973043e+00
2.000000000000157385e+01,3.000000000324660743e+00,9.999999999997866595e+00,6.600000000000960654e-01,1.570000000000514317e+00,2.869999999999988631e+03,-2.174999999999779998e+00,-4.945000000000161933e+00,1.338178138364466818e+01,-2.186156982683251204e+00
2.000000000000070699e+01,3.000000000563296076e+00,9.999999999990581756e+00,6.600000000001673417e-01,1.570000000001047891e+00,2.869999999999994543e+03,-2.174999999999687184e+00,-4.945000000000449702e+00,1.336656027593974017e+01,-2.179609073786446860e+00
2.000000000000019540e+01,3.000000000147632129e+00,9.999999999949206853e+00,6.600000000001123857e-01,1.570000000000657536e+00,2.869999999999995907e+03,-2.174999999999712053e+00,-4.945000000000248086e+00,1.338127318380044173e+01,-2.160487594009924628e+00
2.000000000000014921e+01,2.999999999693870656e+00,9.999999999960367703e+00,6.600000000001181588e-01,1.570000000000695506e+00,2.869999999999998181e+03,-2.174999999999690292e+00,-4.945000000000228546e+00,1.338710800571622173e+01,-2.173966785253214073e+00
2.000000000000119016e+01,2.999999999808685924e+00,9.999999999995328182e+00,6.599999999998483746e-01,1.569999999998442197e+00,2.869999999999993634e+03,-2.174999999999926992e+00,-4.944999999998729301e+00,1.340496409453938398e+01,-2.174930127213572373e+00
2.000000000000150280e+01,3.000000000318268967e+00,1.000000000000065725e+01,6.599999999999915934e-01,1.569999999999681206e+00,2.869999999999988631e+03,-2.174999999999937650e+00,-4.944999999999689422e+00,1.338296679986191684e+01,-2.188634591907615778e+00
2.000000000000070699e+01,2.999999999994156674e+00,9.999999999989402255e+00,6.600000000000033618e-01,1.569999999999873497e+00,2.869999999999990905e+03,-2.174999999999923883e+00,-4.944999999999791562e+00,1.339219808940239353e+01,-2.169988473162221876e+00
1.999999999999996447e+01,2.999999999923449678e+00,9.999999999995434763e+00,6.599999999997938627e-01,1.569999999998637819e+00,2.869999999999993179e+03,-2.175000000000349765e+00,-4.944999999999284412e+00,1.339716990097132765e+01,-2.158309528769983832e+00
1.999999999999858957e+01,3.000000000174019910e+00,9.999999999949947593e+00,6.600000000001794431e-01,1.570000000001446683e+00,2.869999999999998636e+03,-2.174999999999751576e+00,-4.945000000000824514e+00,1.339784047670505451e+01,-2.157664234810509729e+00
1.999999999999846167e+01,2.999999999359039382e+00,9.999999999976493470e+00,6.599999999998630296e-01,1.569999999999596829e+00,2.869999999999994543e+03,-2.175000000000458567e+00,-4.945000000000177920e+00,1.337494144707383548e+01,-2.164925468689556709e+00
1.999999999999894840e+01,2.999999999666477901e+00,9.999999999980673238e+00,6.599999999998201750e-01,1.569999999999094564e+00,2.869999999999989541e+03,-2.175000000000458122e+00,-4.944999999999755147e+00,1.338523309825625951e+01,-2.169099837160922917e+00
1.999999999999901590e+01,2.999999999975428544e+00,1.000000000000663825e+01,6.599999999997627764e-01,1.569999999998715534e+00,2.869999999999990905e+03,-2.175000000000574918e+00,-4.944999999999586393e+00,1.338826553526397944e+01,-2.174094296536819293e+00
1.999999999999942446e+01,3.000000000085974783e+00,9.999999999995937472e+00,6.599999999997285816e-01,1.569999999998338502e+00,2.869999999999992269e+03,-2.175000000000533174e+00,-4.944999999999245333e+00,1.338582718802756588e+01,-2.175388257947825199e+00
1.999999999999939249e+01,2.999999999838849352e+00,9.999999999973187670e+00,6.599999999997424593e-01,1.569999999998427542e+00,2.869999999999988631e+03,-2.175000000000542055e+00,-4.944999999999359019e+00,1.338021704832668135e+01,-2.172213141984663753e+00
1.999999999999850431e+01,2.999999999731937983e+00,9.999999999954653163e+00,6.600000000000776357e-01,1.570000000000859375e+00,2.869999999999999091e+03,-2.175000000000002487e+00,-4.945000000000662865e+00,1.340024760168590312e+01,-2.170383657411012468e+00
1.999999999999872458e+01,2.999999999429952879e+00,9.999999999957278618e+00,6.600000000000505462e-01,1.570000000000724816e+00,2.869999999999997726e+03,-2.175000000000082423e+00,-4.945000000000646878e+00,1.339736008573144055e+01,-2.180469320547393508e+00
1.999999999999853983e+01,2.999999999528529582e+00,9.999999999964661157e+00,6.600000000001899902e-01,1.570000000001723350e+00,2.869999999999997272e+03,-2.174999999999884803e+00,-4.945000000001218865e+00,1.340351555390813232e+01,-2.158301477075350583e+00
1.999999999999903366e+01,2.999999998375487031e+00,1.000000000000714628e+01,6.600000000000646461e-01,1.570000000000752349e+00,2.869999999999997272e+03,-2.175000000000030465e+00,-4.945000000000534968e+00,1.341214075000789840e+01,-2.165991690938468217e+00
1.999999999999930012e+01,2.999999999160166908e+00,1.000000000002973088e+01,6.599999999999380806e-01,1.569999999999998508e+00,2.869999999999997272e+03,-2.175000000000288480e+00,-4.945000000000198348e+00,1.339801748983592944e+01,-2.184398545473089204e+00
1.999999999999850786e+01,2.999999999335713596e+00,9.999999999959095831e+00,6.600000000000891820e-01,1.570000000000451257e+00,2.870000000000000909e+03,-2.174999999999769784e+00,-4.945000000000146834e+00,1.340990335425576951e+01,-2.141190025477489822e+00
1.999999999999907629e+01,2.999999999890543556e+00,9.999999999997907452e+00,6.599999999999699440e-01,1.570000000000021823e+00,2.869999999999998636e+03,-2.175000000000145040e+00,-4.945000000000197460e+00,1.337403604279640490e+01,-2.172027992710018562e+00
1.999999999999872813e+01,2.999999999057370026e+00,9.999999999990045296e+00,6.599999999997300248e-01,1.569999999998366702e+00,2.869999999999994088e+03,-2.175000000000609113e+00,-4.944999999999330598e+00,1.340552040269271217e+01,-2.160678805886594223e+00
1.999999999999781153e+01,2.999999996997199325e+00,9.999999999991471711e+00,6.600000000000191269e-01,1.570000000000628670e+00,2.870000000000000000e+03,-2.175000000000120615e+00,-4.945000000000582041e+00,1.342829604191597426e+01,-2.183117012781485400e+00
1.999999999999700862e+01,2.999999998870606532e+00,9.999999999947196017e+00,6.599999999999990319e-01,1.570000000000344231e+00,2.870000000000002274e+03,-2.175000000000074873e+00,-4.945000000000346674e+00,1.340744898630380000e+01,-2.148431642005393272e+00
1.999999999999803535e+01,2.999999998829035786e+00,9.999999999946069806e+00,6.599999999998935607e-01,1.569999999999280416e+00,2.869999999999999091e+03,-2.175000000000164579e+00,-4.944999999999526885e+00,1.340089217058434379e+01,-2.141249564874236011e+00
1.999999999999756639e+01,2.999999999324359123e+00,9.999999999928183669e+00,6.599999999999792699e-01,1.569999999999989848e+00,2.870000000000001819e+03,-2.175000000000008260e+00,-4.944999999999997620e+00,1.339323576886520328e+01,-2.139252688864270890e+00
1.999999999999722178e+01,2.999999998902644016e+00,9.999999999917077886e+00,6.600000000000403322e-01,1.570000000000413731e+00,2.870000000000001364e+03,-2.174999999999922551e+00,-4.945000000000242757e+00,1.340858189589365956e+01,-2.133459275482301187e+00
1.999999999999812772e+01,2.999999999202690670e+00,9.999999999947712936e+00,6.599999999998491518e-01,1.569999999998803464e+00,2.870000000000000000e+03,-2.175000000000131273e+00,-4.944999999999143192e+00,1.339891221124426757e+01,-2.136151045721773833e+00
1.999999999999760192e+01,2.999999998773736021e+00,9.999999999913402604e+00,6.599999999997735456e-01,1.569999999998363815e+00,2.869999999999999545e+03,-2.175000000000244516e+00,-4.944999999998929141e+00,1.341980402997317867e+01,-2.132406249958798572e+00
1.999999999999924682e+01,2.999999998709335092e+00,1.000000000000585132e+01,6.599999999998475975e-01,1.569999999998876294e+00,2.869999999999994088e+03,-2.175000000000237410e+00,-4.944999999999368789e+00,1.342992809157992085e+01,-2.132460765975404016e+00
2.000000000000093792e+01,2.999999999502188874e+00,1.000000000001554312e+01,6.600000000001678968e-01,1.570000000001263496e+00,2.869999999999995453e+03,-2.174999999999784439e+00,-4.945000000000811191e+00,1.337808674308380574e+01,-2.183155944355350098e+00
2.000000000000060041e+01,2.999999999727287925e+00,9.999999999991377564e+00,6.600000000001345901e-01,1.570000000000772555e+00,2.869999999999994543e+03,-2.174999999999738254e+00,-4.945000000000344009e+00,1.337407425788402904e+01,-2.169140080890672895e+00
1.999999999999826983e+01,2.999999999451193222e+00,9.999999999917957183e+00,6.600000000001298162e-01,1.570000000000563611e+00,2.870000000000000455e+03,-2.174999999999578826e+00,-4.945000000000007390e+00,1.343235749537424262e+01,-2.116867678961046995e+00
2.000000000000049383e+01,2.999999999173577514e+00,9.999999999969519493e+00,6.600000000002514966e-01,1.570000000001348983e+00,2.869999999999997726e+03,-2.174999999999365663e+00,-4.945000000000424834e+00,1.339891976933440354e+01,-2.169875899769257543e+00
1.999999999999817746e+01,2.999999998510497257e+00,9.999999999971448617e+00,6.599999999999182076e-01,1.569999999999506235e+00,2.869999999999999091e+03,-2.175000000000082867e+00,-4.944999999999675211e+00,1.343338393581598744e+01,-2.151045956987992280e+00
