1.999999999999900524e+01,2.999999999484218360e+00,9.999999999994374278e+00,6.599999999999121014e-01,1.569999999999475149e+00,2.869999999999998181e+03,-2.175000000000153477e+00,-4.944999999999817319e+00,1.340473588214335265e+01,-2.144932672589069611e+00
2.000000000000018829e+01,2.999999999553475405e+00,9.999999999966346920e+00,6.600000000001575717e-01,1.570000000000918439e+00,2.869999999999999091e+03,-2.174999999999595701e+00,-4.945000000000343121e+00,1.338756856654847383e+01,-2.157915627519487956e+00
1.999999999999925393e+01,2.999999999901651115e+00,9.999999999967384312e+00,6.600000000000389999e-01,1.570000000000235651e+00,2.869999999999991815e+03,-2.174999999999839950e+00,-4.945000000000256968e+00,1.340703072039393717e+01,-2.132258932089531989e+00
1.999999999999953815e+01,2.999999998726923689e+00,9.999999999992688515e+00,6.600000000001597922e-01,1.570000000001267715e+00,2.869999999999999091e+03,-2.174999999999685851e+00,-4.945000000000733920e+00,1.339954750462468702e+01,-2.169978290611190186e+00
1.999999999999869615e+01,2.999999998467628437e+00,9.999999999934081174e+00,6.600000000002440581e-01,1.570000000001721352e+00,2.869999999999996817e+03,-2.174999999999501554e+00,-4.945000000000803198e+00,1.341045976633734860e+01,-2.150674172507078818e+00
1.999999999999858602e+01,2.999999999027921582e+00,9.999999999960001773e+00,6.600000000002916867e-01,1.570000000002038432e+00,2.870000000000001819e+03,-2.174999999999545519e+00,-4.945000000001026130e+00,1.341157700431584665e+01,-2.151765049447206035e+00
2.000000000000006040e+01,2.999999999752108071e+00,9.999999999944556350e+00,6.600000000000659783e-01,1.570000000000087326e+00,2.869999999999996362e+03,-2.174999999999815525e+00,-4.944999999999780016e+00,1.339811366590446795e+01,-2.142879192730018367e+00
2.000000000000008527e+01,2.999999999051026212e+00,9.999999999958435026e+00,6.600000000001061684e-01,1.570000000000712159e+00,2.869999999999990905e+03,-2.174999999999813305e+00,-4.945000000000362661e+00,1.339025827695816240e+01,-2.144683488937473292e+00
1.999999999999913314e+01,2.999999999931546313e+00,9.999999999948121499e+00,6.599999999999636158e-01,1.569999999999761142e+00,2.869999999999992724e+03,-2.175000000000020695e+00,-4.944999999999823537e+00,1.339701744309468801e+01,-2.155315281632033120e+00
2.000000000000181899e+01,3.000000001010272754e+00,1.000000000003021228e+01,6.600000000000371125e-01,1.570000000000274731e+00,2.869999999999972715e+03,-2.175000000000079758e+00,-4.945000000000112195e+00,1.337346210641872091e+01,-2.185059851347206816e+00
1.999999999999906208e+01,2.999999999872886569e+00,9.999999999982120968e+00,6.600000000001240430e-01,1.570000000000986384e+00,2.869999999999987267e+03,-2.174999999999764899e+00,-4.945000000000657536e+00,1.340512329786409573e+01,-2.158094390182452305e+00
1.999999999999945999e+01,2.999999999819750407e+00,9.999999999988952837e+00,6.599999999997701039e-01,1.569999999998435758e+00,2.869999999999986812e+03,-2.175000000000362643e+00,-4.944999999999101448e+00,1.340317001392646290e+01,-2.151879372158968184e+00
1.999999999999626255e+01,2.999999999076582657e+00,9.999999999950640373e+00,6.599999999998127365e-01,1.569999999999323492e+00,2.870000000000000909e+03,-2.175000000000584244e+00,-4.944999999999998508e+00,1.341341604186211889e+01,-2.136808763401756739e+00
1.999999999999859668e+01,2.999999999599761047e+00,9.999999999967371878e+00,6.599999999999538458e-01,1.569999999999972529e+00,2.869999999999994543e+03,-2.175000000000110401e+00,-4.944999999999968310e+00,1.339807004008351754e+01,-2.151414088465897212e+00
2.000000000000072831e+01,2.999999999183695198e+00,9.999999999988448351e+00,6.600000000000939560e-01,1.570000000000740137e+00,2.869999999999990905e+03,-2.174999999999851941e+00,-4.945000000000459472e+00,1.338483487116630144e+01,-2.176942203185359581e+00
1.999999999999880984e+01,2.999999998301483561e+00,9.999999999939086948e+00,6.600000000003440892e-01,1.570000000002535367e+00,2.869999999999993179e+03,-2.174999999999490452e+00,-4.945000000001498641e+00,1.340111737312457407e+01,-2.153831433363772252e+00
1.999999999999908695e+01,2.999999999620978741e+00,9.999999999978431475e+00,6.599999999999612843e-01,1.569999999999789342e+00,2.869999999999999545e+03,-2.175000000000044231e+00,-4.944999999999893703e+00,1.339181166661140310e+01,-2.143656945388126900e+00
1.999999999999758771e+01,2.999999999750677215e+00,9.999999999976390441e+00,6.599999999998185096e-01,1.569999999999089235e+00,2.869999999999989996e+03,-2.175000000000459899e+00,-4.944999999999708074e+00,1.340384960794853697e+01,-2.151448378175766507e+00
1.999999999999836575e+01,2.999999999356860680e+00,9.999999999984634513e+00,6.599999999997429034e-01,1.569999999998190177e+00,2.869999999999995907e+03,-2.175000000000465228e+00,-4.944999999998916707e+00,1.341613446231074747e+01,-2.140651018645982617e+00
1.999999999999921485e+01,3.000000000197026395e+00,1.000000000000111733e+01,6.599999999997401279e-01,1.569999999998688001e+00,2.869999999999989541e+03,-2.175000000000667288e+00,-4.944999999999490470e+00,1.339740076305304584e+01,-2.163627401250707738e+00
2.000000000000052225e+01,3.000000000182228455e+00,9.999999999981305621e+00,6.600000000000963984e-01,1.570000000000758344e+00,2.869999999999993179e+03,-2.174999999999724931e+00,-4.945000000000411511e+00,1.337528963435568841e+01,-2.155036345458119840e+00
1.999999999999891998e+01,2.999999999283534891e+00,9.999999999995491606e+00,6.600000000000112443e-01,1.570000000000210116e+00,2.870000000000000909e+03,-2.175000000000042455e+00,-4.945000000000193907e+00,1.340348209365607168e+01,-2.151739094565036758e+00
1.999999999999730349e+01,2.999999998773197785e+00,9.999999999964812147e+00,6.599999999998235056e-01,1.569999999999448503e+00,2.869999999999996817e+03,-2.175000000000635314e+00,-4.945000000000120188e+00,1.340690175500367687e+01,-2.143609688931706003e+00
1.999999999999904432e+01,2.999999999607473100e+00,1.000000000001732658e+01,6.599999999998956701e-01,1.569999999999465157e+00,2.869999999999988177e+03,-2.175000000000232525e+00,-4.944999999999827978e+00,1.338812450627107609e+01,-2.142132984222943293e+00
1.999999999999825917e+01,2.999999999336431245e+00,9.999999999971819875e+00,6.599999999999627276e-01,1.570000000000145723e+00,2.869999999999999545e+03,-2.175000000000162803e+00,-4.945000000000376872e+00,1.340812726453968651e+01,-2.152641995445468304e+00
1.999999999999874944e+01,2.999999999210897439e+00,9.999999999980980547e+00,6.600000000000424416e-01,1.570000000000389750e+00,2.869999999999990450e+03,-2.175000000000014033e+00,-4.945000000000122853e+00,1.340385891581530764e+01,-2.156527166091646297e+00
2.000000000000051514e+01,2.999999999495537306e+00,9.999999999981008969e+00,6.600000000001098321e-01,1.570000000000419504e+00,2.869999999999998636e+03,-2.174999999999569500e+00,-4.944999999999836859e+00,1.340174195466735618e+01,-2.149482504758712498e+00
2.000000000000097700e+01,2.999999999355078106e+00,9.999999999990830446e+00,6.600000000001059464e-01,1.570000000000015605e+00,2.869999999999992724e+03,-2.174999999999395417e+00,-4.944999999999414086e+00,1.340877717340059938e+01,-2.147554240997965991e+00
1.999999999999844391e+01,2.999999998966808690e+00,9.999999999975038634e+00,6.600000000000870726e-01,1.570000000000870033e+00,2.869999999999996362e+03,-2.174999999999957634e+00,-4.945000000000603357e+00,1.338692853172144126e+01,-2.148474266232586416e+00
1.999999999999721823e+01,2.999999998500839649e+00,9.999999999966172837e+00,6.599999999998514832e-01,1.569999999999716289e+00,2.869999999999984993e+03,-2.175000000000516742e+00,-4.945000000000413287e+00,1.340386352485596433e+01,-2.155345551106521373e+00
1.999999999999831246e+01,2.999999998485133101e+00,9.999999999967320363e+00,6.599999999997345768e-01,1.569999999998233697e+00,2.869999999999977263e+03,-2.175000000000481215e+00,-4.944999999999168061e+00,1.341697360598010746e+01,-2.142156188360822888e+00
1.999999999999950617e+01,2.999999999404550532e+00,9.999999999985650589e+00,6.600000000001345901e-01,1.570000000001192442e+00,2.869999999999988177e+03,-2.174999999999956746e+00,-4.945000000000760565e+00,1.338405818711712669e+01,-2.155851876618420704e+00
1.999999999999787548e+01,2.999999999265163364e+00,9.999999999961879382e+00,6.600000000000676437e-01,1.570000000000798979e+00,2.870000000000002728e+03,-2.174999999999973621e+00,-4.945000000000574047e+00,1.340584355405755801e+01,-2.141278353301754311e+00
2.000000000000250111e+01,3.000000000338118866e+00,1.000000000000153655e+01,6.600000000001392531e-01,1.570000000000838947e+00,2.869999999999972260e+03,-2.174999999999712941e+00,-4.945000000000374207e+00,1.336360967794786525e+01,-2.191336242341593188e+00
1.999999999999986855e+01,2.999999999244244986e+00,1.000000000000359002e+01,6.599999999998698019e-01,1.569999999999343698e+00,2.869999999999985448e+03,-2.175000000000372857e+00,-4.944999999999815543e+00,1.339668256053164797e+01,-2.175923547355747001e+00
2.000000000000067857e+01,2.999999999934070960e+00,9.999999999994274802e+00,6.599999999999457412e-01,1.569999999999316387e+00,2.869999999999966803e+03,-2.175000000000083755e+00,-4.944999999999443396e+00,1.338671844421310730e+01,-2.170239061809980274e+00
2.000000000000022382e+01,3.000000000166836767e+00,9.999999999991183941e+00,6.600000000002352873e-01,1.570000000001779306e+00,2.869999999999995453e+03,-2.174999999999663203e+00,-4.945000000001045670e+00,1.337959522653630273e+01,-2.185421675784322115e+00
1.999999999999756639e+01,2.999999999669655359e+00,9.999999999976674658e+00,6.599999999999450750e-01,1.570000000000004059e+00,2.869999999999993179e+03,-2.175000000000200995e+00,-4.945000000000174367e+00,1.340416513197068049e+01,-2.152665091325776991e+00
1.999999999999874944e+01,2.999999999843078857e+00,1.000000000000936495e+01,6.599999999999203171e-01,1.569999999999463380e+00,2.869999999999994543e+03,-2.174999999999979838e+00,-4.944999999999670770e+00,1.341154177331389441e+01,-2.161232226563531533e+00
2.000000000000168399e+01,3.000000000452347937e+00,9.999999999986499688e+00,6.599999999999289768e-01,1.569999999999318829e+00,2.869999999999981810e+03,-2.175000000000044231e+00,-4.944999999999399876e+00,1.337696942752831575e+01,-2.166303146756284104e+00
1.999999999999866418e+01,3.000000000300499181e+00,1.000000000001512213e+01,6.599999999995900257e-01,1.569999999997734985e+00,2.869999999999987267e+03,-2.175000000000987033e+00,-4.944999999999051710e+00,1.339127074412511398e+01,-2.152932982096198877e+00
2.000000000000118305e+01,3.000000000160418789e+00,1.000000000001632472e+01,6.599999999998319433e-01,1.569999999998861639e+00,2.869999999999986358e+03,-2.175000000000339995e+00,-4.944999999999350138e+00,1.338701453590187285e+01,-2.168395940316086623e+00
1.999999999999931077e+01,2.999999999017535668e+00,9.999999999959307218e+00,6.600000000002302913e-01,1.570000000001752216e+00,2.869999999999991815e+03,-2.174999999999634337e+00,-4.945000000001041229e+00,1.339054924819537007e+01,-2.178503482572395900e+00
2.000000000000023803e+01,3.000000000125627508e+00,1.000000000004141398e+01,6.599999999997960831e-01,1.569999999999223794e+00,2.869999999999977263e+03,-2.175000000000582023e+00,-4.944999999999901696e+00,1.338354229508846061e+01,-2.183629144219722207e+00
2.000000000000009237e+01,3.000000000139835699e+00,9.999999999990899724e+00,6.599999999998318323e-01,1.569999999998811235e+00,2.869999999999981355e+03,-2.175000000000212985e+00,-4.944999999999365237e+00,1.340152554674360275e+01,-2.149817187702124155e+00
2.000000000000025935e+01,2.999999999201700351e+00,9.999999999993059774e+00,6.600000000000785239e-01,1.570000000000586926e+00,2.869999999999992724e+03,-2.174999999999776890e+00,-4.945000000000185025e+00,1.339724818246062732e+01,-2.180121609036802965e+00
1.999999999999915090e+01,2.999999999837228426e+00,1.000000000000241940e+01,6.600000000000839639e-01,1.570000000001199547e+00,2.869999999999988177e+03,-2.175000000000088196e+00,-4.945000000000998597e+00,1.336586566112974772e+01,-2.183875710038586160e+00
1.999999999999973710e+01,2.999999999882581037e+00,9.999999999964970243e+00,6.600000000003268807e-01,1.570000000002369722e+00,2.869999999999984084e+03,-2.174999999999538414e+00,-4.945000000001308571e+00,1.337571655449885633e+01,-2.167036753694122186e+00
1.999999999999925748e+01,2.999999999107862525e+00,9.999999999967048581e+00,6.600000000001152722e-01,1.570000000000832285e+00,2.870000000000000000e+03,-2.174999999999765343e+00,-4.945000000000391971e+00,1.340755156145459814e+01,-2.162166037419902320e+00
1.999999999999885603e+01,2.999999999040883658e+00,9.999999999954832575e+00,6.600000000002016476e-01,1.570000000001461782e+00,2.870000000000001819e+03,-2.174999999999672529e+00,-4.945000000000756124e+00,1.341705796306737319e+01,-2.155028544981316685e+00
1.999999999999862510e+01,2.999999999813950158e+00,1.000000000001283773e+01,6.599999999995095346e-01,1.569999999996979367e+00,2.869999999999973170e+03,-2.175000000001012790e+00,-4.944999999998678675e+00,1.341712542164070143e+01,-2.148490008212394109e+00
1.999999999999868550e+01,3.000000000589254867e+00,1.000000000000168221e+01,6.599999999997879785e-01,1.569999999998814122e+00,2.869999999999984084e+03,-2.175000000000445244e+00,-4.944999999999572182e+00,1.340783557904043555e+01,-2.145749623050241528e+00
1.999999999999905498e+01,3.000000000591852345e+00,9.999999999972123632e+00,6.599999999998239497e-01,1.569999999998815676e+00,2.869999999999981355e+03,-2.175000000000216982e+00,-4.944999999999348361e+00,1.341596816009492699e+01,-2.137753767823100226e+00
2.000000000000095923e+01,2.999999999857698274e+00,9.999999999978285814e+00,6.600000000001587930e-01,1.570000000001152030e+00,2.869999999999976353e+03,-2.174999999999678746e+00,-4.945000000000494111e+00,1.338064002766911997e+01,-2.167437228922131087e+00
1.999999999999652189e+01,2.999999999183168065e+00,9.999999999945647033e+00,6.599999999998233946e-01,1.569999999999460272e+00,2.869999999999998636e+03,-2.175000000000529177e+00,-4.945000000000067786e+00,1.339757993940442837e+01,-2.141733933042552884e+00
1.999999999999846878e+01,2.999999999748566903e+00,9.999999999959806374e+00,6.599999999999979217e-01,1.570000000000366658e+00,2.869999999999998636e+03,-2.175000000000063771e+00,-4.945000000000346674e+00,1.339023618388393011e+01,-2.153129458081316727e+00
1.999999999999850075e+01,2.999999999194955969e+00,9.999999999951183938e+00,6.600000000000708633e-01,1.570000000000735696e+00,2.870000000000003183e+03,-2.174999999999869260e+00,-4.945000000000419504e+00,1.341564224754608681e+01,-2.156733378018594216e+00
1.999999999999695177e+01,2.999999999238977200e+00,9.999999999935429429e+00,6.600000000000575406e-01,1.570000000000628226e+00,2.870000000000001364e+03,-2.174999999999998490e+00,-4.945000000000428386e+00,1.341822032972652678e+01,-2.142690724020229531e+00
1.999999999999812772e+01,2.999999999607501522e+00,9.999999999958575359e+00,6.600000000001031708e-01,1.570000000000876472e+00,2.869999999999994543e+03,-2.174999999999917222e+00,-4.945000000000606910e+00,1.340934768096381902e+01,-2.158577889757851143e+00
1.999999999999919353e+01,2.999999999722588573e+00,9.999999999966822983e+00,6.600000000002328449e-01,1.570000000001959384e+00,2.869999999999986812e+03,-2.174999999999861267e+00,-4.945000000001399165e+00,1.337699420217452406e+01,-2.158850995197774125e+00
2.000000000000088463e+01,3.000000000120148336e+00,1.000000000002425082e+01,6.600000000000484368e-01,1.570000000000200790e+00,2.869999999999989541e+03,-2.174999999999898570e+00,-4.945000000000066898e+00,1.338791977213023365e+01,-2.181388933435882027e+00
1.999999999999928946e+01,3.000000000164908531e+00,9.999999999979907628e+00,6.600000000003543033e-01,1.570000000002695906e+00,2.869999999999996362e+03,-2.174999999999490452e+00,-4.945000000001624763e+00,1.339263195404854123e+01,-2.153333754346229423e+00
1.999999999999850786e+01,3.000000000978985337e+00,1.000000000003563549e+01,6.599999999997774314e-01,1.569999999999171836e+00,2.869999999999988631e+03,-2.175000000000693490e+00,-4.944999999999954099e+00,1.338679088496470193e+01,-2.181529877059290801e+00
1.999999999999664269e+01,2.999999999530366779e+00,9.999999999999495515e+00,6.599999999995608269e-01,1.569999999997753193e+00,2.869999999999994543e+03,-2.175000000001145128e+00,-4.944999999999154738e+00,1.341654945948071287e+01,-2.140395485987175661e+00
1.999999999999896971e+01,2.999999999312798593e+00,9.999999999989700683e+00,6.599999999996749578e-01,1.569999999997919060e+00,2.869999999999985448e+03,-2.175000000000597566e+00,-4.944999999998908713e+00,1.341047537897121167e+01,-2.155231858917309840e+00
1.999999999999685940e+01,2.999999998611534657e+00,9.999999999929876537e+00,6.599999999998219513e-01,1.569999999999242890e+00,2.870000000000000909e+03,-2.175000000000300471e+00,-4.944999999999771134e+00,1.339920419599727452e+01,-2.136936134433109036e+00
1.999999999999947420e+01,2.999999999987156052e+00,9.999999999989617194e+00,6.599999999999177636e-01,1.569999999999612594e+00,2.869999999999999091e+03,-2.175000000000146372e+00,-4.944999999999779128e+00,1.339705400302410787e+01,-2.168452265223681064e+00
1.999999999999890221e+01,2.999999998956444536e+00,9.999999999990633270e+00,6.600000000003451994e-01,1.570000000002707674e+00,2.870000000000001819e+03,-2.174999999999524203e+00,-4.945000000001572360e+00,1.338424995575766197e+01,-2.183408811342839151e+00
1.999999999999944222e+01,2.999999999246230065e+00,9.999999999976799003e+00,6.599999999999314193e-01,1.569999999999485141e+00,2.869999999999988177e+03,-2.175000000000001599e+00,-4.944999999999632578e+00,1.341528681483776708e+01,-2.154769194839831314e+00
1.999999999999963407e+01,2.999999999142799911e+00,9.999999999968064657e+00,6.600000000000273426e-01,1.570000000000090878e+00,2.869999999999989996e+03,-2.174999999999916334e+00,-4.944999999999994067e+00,1.340260396405630949e+01,-2.151706778536916165e+00
2.000000000000092015e+01,2.999999999394189487e+00,1.000000000000427391e+01,6.600000000000346700e-01,1.569999999999923901e+00,2.869999999999986812e+03,-2.174999999999756017e+00,-4.944999999999686757e+00,1.339002017395193356e+01,-2.160465305019539706e+00
1.999999999999846167e+01,2.999999999133534878e+00,9.999999999974665599e+00,6.599999999998950040e-01,1.569999999999520446e+00,2.869999999999990905e+03,-2.175000000000266720e+00,-4.944999999999797780e+00,1.338756148368127441e+01,-2.150825075584610335e+00
2.000000000000073186e+01,2.999999999706896681e+00,9.999999999968361308e+00,6.600000000001752243e-01,1.570000000000772999e+00,2.870000000000003183e+03,-2.174999999999444711e+00,-4.945000000000020712e+00,1.337883119615859329e+01,-2.159009044568225733e+00
1.999999999999736744e+01,2.999999999269371997e+00,9.999999999946764362e+00,6.600000000000545430e-01,1.570000000000745022e+00,2.869999999999997726e+03,-2.175000000000051781e+00,-4.945000000000525198e+00,1.338919215247980254e+01,-2.150402575177215336e+00
2.000000000000139977e+01,2.999999998603291473e+00,9.999999999997166711e+00,6.600000000001894351e-01,1.570000000000937312e+00,2.869999999999981355e+03,-2.174999999999547740e+00,-4.945000000000240981e+00,1.340678700591603523e+01,-2.170803072954147872e+00
2.000000000000127898e+01,2.999999999726191025e+00,1.000000000002122214e+01,6.599999999999275335e-01,1.569999999999093676e+00,2.869999999999982720e+03,-2.174999999999922551e+00,-4.944999999999274642e+00,1.339854307018450541e+01,-2.175118407496938300e+00
1.999999999999950617e+01,2.999999999479501689e+00,1.000000000001507239e+01,6.599999999997526734e-01,1.569999999998699325e+00,2.869999999999996362e+03,-2.175000000000624212e+00,-4.944999999999663665e+00,1.339327048141115029e+01,-2.156987602185310493e+00
1.999999999999878497e+01,3.000000000062422512e+00,9.999999999970684783e+00,6.599999999998193978e-01,1.569999999998961560e+00,2.869999999999991815e+03,-2.175000000000330225e+00,-4.944999999999512674e+00,1.340099089420426459e+01,-2.150208604336844243e+00
1.999999999999855760e+01,2.999999999378370141e+00,9.999999999999724665e+00,6.599999999997481215e-01,1.569999999998503926e+00,2.869999999999995907e+03,-2.175000000000654410e+00,-4.944999999999264872e+00,1.340689264324152674e+01,-2.149285033646972209e+00
1.999999999999869615e+01,2.999999999915575533e+00,9.999999999954054530e+00,6.600000000001285949e-01,1.570000000000975504e+00,2.870000000000002274e+03,-2.174999999999795097e+00,-4.945000000000661977e+00,1.339327971216594548e+01,-2.144823400263117019e+00
1.999999999999924327e+01,2.999999999459844968e+00,9.999999999991922905e+00,6.599999999998559241e-01,1.569999999999031504e+00,2.869999999999998636e+03,-2.175000000000210765e+00,-4.944999999999539320e+00,1.340240163331697332e+01,-2.150046472171174283e+00
1.999999999999851141e+01,2.999999999554177954e+00,9.999999999967018383e+00,6.599999999999572875e-01,1.569999999999863061e+00,2.869999999999997726e+03,-2.175000000000134381e+00,-4.944999999999883933e+00,1.340588267437924763e+01,-2.163136770573276468e+00
1.999999999999860023e+01,2.999999999720348143e+00,9.999999999956319385e+00,6.600000000001077227e-01,1.570000000000947527e+00,2.870000000000002728e+03,-2.174999999999782219e+00,-4.945000000000561613e+00,1.340221552272825711e+01,-2.156063411478817304e+00
1.999999999999926104e+01,2.999999999991592503e+00,9.999999999997378097e+00,6.600000000000446621e-01,1.570000000000663976e+00,2.869999999999995453e+03,-2.174999999999916334e+00,-4.945000000000495000e+00,1.339226459633918154e+01,-2.161254426050718713e+00
1.999999999999954170e+01,2.999999999329631795e+00,1.000000000001038458e+01,6.599999999996150057e-01,1.569999999997653273e+00,2.869999999999997726e+03,-2.175000000000692157e+00,-4.944999999998811013e+00,1.339696007662034916e+01,-2.163088479207059045e+00
