2.000000000000266809e+01,2.999999999464522560e+00,1.000000000000861178e+01,6.600000000001907674e-01,1.570000000000835838e+00,2.869999999999991815e+03,-2.174999999999464251e+00,-4.945000000000102425e+00,1.324307272534202440e+01,-2.346439356976917523e+00
1.999999999999817035e+01,3.000000000425611546e+00,9.999999999957156049e+00,6.599999999999131006e-01,1.569999999999614149e+00,2.870000000000000909e+03,-2.175000000000137934e+00,-4.944999999999780016e+00,1.342250431658289322e+01,-2.143398030482408512e+00
2.000000000000036238e+01,3.000000000156600954e+00,9.999999999974015452e+00,6.600000000001665645e-01,1.570000000000635332e+00,2.870000000000000455e+03,-2.174999999999457589e+00,-4.944999999999882156e+00,1.339591786813918972e+01,-2.186087493684316652e+00
1.999999999999702638e+01,2.999999996982148254e+00,9.999999999939404915e+00,6.599999999999581757e-01,1.570000000000589813e+00,2.869999999999997726e+03,-2.175000000000290701e+00,-4.945000000000747242e+00,1.343466458046709633e+01,-2.112874639361828066e+00
1.999999999999756639e+01,2.999999998399912382e+00,9.999999999889832125e+00,6.600000000000525446e-01,1.570000000000602247e+00,2.870000000000000000e+03,-2.174999999999929656e+00,-4.945000000000387530e+00,1.336964553649866794e+01,-2.202410441472991476e+00
1.999999999999884537e+01,2.999999998242960153e+00,9.999999999912887461e+00,6.600000000001560174e-01,1.570000000001195994e+00,2.870000000000000455e+03,-2.174999999999716493e+00,-4.945000000000639773e+00,1.341508687880136996e+01,-2.148691683377084161e+00
1.999999999999786127e+01,2.999999997712464062e+00,9.999999999912928317e+00,6.600000000001270406e-01,1.570000000001341656e+00,2.870000000000001364e+03,-2.174999999999823075e+00,-4.945000000000843166e+00,1.343681851814572781e+01,-2.128788565210415040e+00
2.000000000000022737e+01,2.999999998964154369e+00,9.999999999959918284e+00,6.600000000001211564e-01,1.570000000000701501e+00,2.870000000000000000e+03,-2.174999999999616129e+00,-4.945000000000257856e+00,1.339246401870824421e+01,-2.172760114724068714e+00
1.999999999999579003e+01,2.999999998131703371e+00,9.999999999913027793e+00,6.599999999997526734e-01,1.569999999998763940e+00,2.870000000000002274e+03,-2.175000000000593570e+00,-4.944999999999586393e+00,1.342666661722429744e+01,-2.117880983101316783e+00
1.999999999999655742e+01,2.999999997640943494e+00,9.999999999897136505e+00,6.599999999996776223e-01,1.569999999998447082e+00,2.869999999999994998e+03,-2.175000000000637090e+00,-4.944999999999507345e+00,1.339409529025738621e+01,-2.158833333897073992e+00
1.999999999999678479e+01,2.999999998282818936e+00,9.999999999962655650e+00,6.599999999995781463e-01,1.569999999997769624e+00,2.870000000000000000e+03,-2.175000000000951506e+00,-4.944999999999176943e+00,1.344271841759317532e+01,-2.131280709568482479e+00
1.999999999999537792e+01,2.999999997553151942e+00,9.999999999927412730e+00,6.599999999995722622e-01,1.569999999998086038e+00,2.870000000000000909e+03,-2.175000000001127365e+00,-4.944999999999559748e+00,1.344552385075230028e+01,-2.134550220743997695e+00
1.999999999999977263e+01,3.000000000239325448e+00,1.000000000000793321e+01,6.599999999999716094e-01,1.569999999999761808e+00,2.869999999999999091e+03,-2.175000000000000266e+00,-4.944999999999803109e+00,1.337274114104006273e+01,-2.163287007336036183e+00
1.999999999999861444e+01,2.999999998515129995e+00,9.999999999985822896e+00,6.599999999996655209e-01,1.569999999998517692e+00,2.870000000000001364e+03,-2.175000000000874234e+00,-4.944999999999749818e+00,1.336221172453920047e+01,-2.193304652618965900e+00
1.999999999999850786e+01,2.999999997819450925e+00,1.000000000001261746e+01,6.599999999998558131e-01,1.569999999999163398e+00,2.869999999999997272e+03,-2.175000000000355538e+00,-4.944999999999641460e+00,1.334668888673813214e+01,-2.224222420526619892e+00
1.999999999999938183e+01,2.999999996409871361e+00,9.999999999985965005e+00,6.600000000000227907e-01,1.570000000000256968e+00,2.869999999999995907e+03,-2.174999999999895017e+00,-4.945000000000049134e+00,1.341686992017222302e+01,-2.159438262734185709e+00
1.999999999999923972e+01,2.999999997354977133e+00,1.000000000001493561e+01,6.599999999999756062e-01,1.570000000000224993e+00,2.869999999999999545e+03,-2.175000000000159250e+00,-4.945000000000267626e+00,1.339081761788113845e+01,-2.206516080557757942e+00
1.999999999999826983e+01,2.999999998574284454e+00,9.999999999995731415e+00,6.599999999998079625e-01,1.569999999999122320e+00,2.869999999999996817e+03,-2.175000000000465228e+00,-4.944999999999692974e+00,1.340591017190114442e+01,-2.209402961974575863e+00
1.999999999999750244e+01,2.999999997443048461e+00,1.000000000001340617e+01,6.599999999997844258e-01,1.569999999999152074e+00,2.869999999999997726e+03,-2.175000000000612665e+00,-4.944999999999868834e+00,1.343200941107554947e+01,-2.168523617308509177e+00
2.000000000000245848e+01,3.000000001504432579e+00,1.000000000002327205e+01,6.600000000001715605e-01,1.570000000000715712e+00,2.869999999999994998e+03,-2.174999999999454481e+00,-4.944999999999986073e+00,1.338051616846100700e+01,-2.201741552869781238e+00
1.999999999999936762e+01,2.999999999485976954e+00,9.999999999959563013e+00,6.599999999999922595e-01,1.570000000000008944e+00,2.869999999999995907e+03,-2.175000000000038902e+00,-4.945000000000022489e+00,1.342406316997440108e+01,-2.150174501357700940e+00
2.000000000000068212e+01,3.000000001517296955e+00,1.000000000000756373e+01,6.600000000000069145e-01,1.569999999999828866e+00,2.869999999999996362e+03,-2.174999999999843059e+00,-4.944999999999660112e+00,1.341677299458920736e+01,-2.178994379579481055e+00
2.000000000000109424e+01,2.999999999184015831e+00,1.000000000000258460e+01,6.600000000000011413e-01,1.569999999999474705e+00,2.869999999999995453e+03,-2.174999999999796430e+00,-4.944999999999335039e+00,1.331908465057641067e+01,-2.234472336956117466e+00
1.999999999999930012e+01,3.000000000858083826e+00,9.999999999995869970e+00,6.599999999998227285e-01,1.569999999998974438e+00,2.869999999999992269e+03,-2.175000000000388845e+00,-4.944999999999558860e+00,1.340007928518225278e+01,-2.157318203351221708e+00
1.999999999999947420e+01,3.000000001315681786e+00,9.999999999976031617e+00,6.599999999999210942e-01,1.569999999999621476e+00,2.869999999999992724e+03,-2.175000000000048672e+00,-4.944999999999699192e+00,1.339044382712565628e+01,-2.186669952411926410e+00
1.999999999999909051e+01,3.000000000102379882e+00,9.999999999984765964e+00,6.599999999999170974e-01,1.569999999999459384e+00,2.869999999999997726e+03,-2.175000000000133493e+00,-4.944999999999668994e+00,1.336233714851508658e+01,-2.224368535106572065e+00
1.999999999999629097e+01,2.999999999488240920e+00,9.999999999925067939e+00,6.599999999998371614e-01,1.569999999999478479e+00,2.870000000000000000e+03,-2.175000000000409273e+00,-4.944999999999977192e+00,1.340963516386048227e+01,-2.158829816385462674e+00
2.000000000000103384e+01,2.999999999776514326e+00,1.000000000000803269e+01,6.600000000001299272e-01,1.570000000000325358e+00,2.869999999999994998e+03,-2.174999999999585931e+00,-4.944999999999755147e+00,1.336695773955676181e+01,-2.212069464567647969e+00
1.999999999999844036e+01,2.999999998867199924e+00,9.999999999973816500e+00,6.599999999998064082e-01,1.569999999998843432e+00,2.869999999999994543e+03,-2.175000000000370637e+00,-4.944999999999422968e+00,1.340747136722176691e+01,-2.190331181320186449e+00
1.999999999999889155e+01,3.000000000216300311e+00,9.999999999990571098e+00,6.599999999998170663e-01,1.569999999998906937e+00,2.869999999999994998e+03,-2.175000000000301359e+00,-4.944999999999374118e+00,1.341771709389149692e+01,-2.192861934583678174e+00
1.999999999999738520e+01,2.999999998936643930e+00,9.999999999950937024e+00,6.599999999997334665e-01,1.569999999998547446e+00,2.869999999999993634e+03,-2.175000000000545608e+00,-4.944999999999360796e+00,1.341949831173833374e+01,-2.168079324405363106e+00
1.999999999999712941e+01,3.000000000125847777e+00,9.999999999979927168e+00,6.599999999996859490e-01,1.569999999999073692e+00,2.869999999999995907e+03,-2.175000000000972822e+00,-4.945000000000228546e+00,1.342789706583406151e+01,-2.146728849109901027e+00
1.999999999999966960e+01,3.000000000068935524e+00,1.000000000003127276e+01,6.599999999999205391e-01,1.570000000000033813e+00,2.869999999999995453e+03,-2.175000000000372413e+00,-4.945000000000316476e+00,1.337210816934788937e+01,-2.185443984321121302e+00
1.999999999999919353e+01,2.999999999046676358e+00,9.999999999976662224e+00,6.599999999999627276e-01,1.569999999999827534e+00,2.869999999999997272e+03,-2.175000000000057998e+00,-4.944999999999961204e+00,1.342472181650969709e+01,-2.164799298683306894e+00
1.999999999999986855e+01,2.999999999232434433e+00,9.999999999993844924e+00,6.600000000000548761e-01,1.570000000000222995e+00,2.870000000000000455e+03,-2.174999999999812417e+00,-4.944999999999992291e+00,1.340242372713651164e+01,-2.186594137207598987e+00
1.999999999999873523e+01,2.999999998733212880e+00,9.999999999971061371e+00,6.600000000000056932e-01,1.570000000000092433e+00,2.869999999999999091e+03,-2.174999999999925659e+00,-4.945000000000045581e+00,1.342977338676808863e+01,-2.160829031411842127e+00
2.000000000000072831e+01,2.999999999900911707e+00,1.000000000001623590e+01,6.599999999998843458e-01,1.569999999999213580e+00,2.869999999999995907e+03,-2.175000000000155698e+00,-4.944999999999521556e+00,1.338948077428601380e+01,-2.225227288398714087e+00
2.000000000000007816e+01,2.999999998304337279e+00,9.999999999988842703e+00,6.600000000001104983e-01,1.570000000000553175e+00,2.869999999999999091e+03,-2.174999999999668976e+00,-4.945000000000056239e+00,1.335520905681197235e+01,-2.207207143683708850e+00
1.999999999999696954e+01,2.999999997062937407e+00,9.999999999915338833e+00,6.600000000000829647e-01,1.570000000001091189e+00,2.870000000000003638e+03,-2.175000000000023803e+00,-4.945000000000851159e+00,1.335182239009595939e+01,-2.226119035113240052e+00
1.999999999999706191e+01,2.999999998064087237e+00,9.999999999962907893e+00,6.599999999999700551e-01,1.570000000000306706e+00,2.869999999999998636e+03,-2.175000000000193445e+00,-4.945000000000447926e+00,1.339182033584161680e+01,-2.195786302941240109e+00
2.000000000000158806e+01,2.999999999681780327e+00,9.999999999995484501e+00,6.600000000001491340e-01,1.570000000000506768e+00,2.869999999999995907e+03,-2.174999999999558398e+00,-4.944999999999923013e+00,1.332347605295266568e+01,-2.225872090278428583e+00
1.999999999999879563e+01,3.000000000386845667e+00,9.999999999980676790e+00,6.599999999999957012e-01,1.570000000000225882e+00,2.869999999999999091e+03,-2.175000000000087752e+00,-4.945000000000291607e+00,1.336410850319713006e+01,-2.185167319606162284e+00
1.999999999999823075e+01,3.000000000084566576e+00,9.999999999917077886e+00,6.600000000000568745e-01,1.570000000000322249e+00,2.869999999999999091e+03,-2.174999999999807532e+00,-4.945000000000055351e+00,1.338459691211508940e+01,-2.159438168891151477e+00
1.999999999999965183e+01,2.999999999402990003e+00,9.999999999972864373e+00,6.600000000000499911e-01,1.570000000000293827e+00,2.869999999999999091e+03,-2.174999999999778222e+00,-4.945000000000008278e+00,1.343931711621872616e+01,-2.120741773369392735e+00
2.000000000000168043e+01,3.000000000597308425e+00,1.000000000001637268e+01,6.600000000000987299e-01,1.570000000000510987e+00,2.869999999999997726e+03,-2.174999999999716938e+00,-4.945000000000140616e+00,1.337799898548098554e+01,-2.190722700345880902e+00
2.000000000000285638e+01,3.000000000681014800e+00,1.000000000004218847e+01,6.600000000000968425e-01,1.570000000000366214e+00,2.869999999999994088e+03,-2.174999999999662315e+00,-4.944999999999990514e+00,1.335786709360463043e+01,-2.217759866565734317e+00
2.000000000000044054e+01,2.999999999182247912e+00,9.999999999978093967e+00,6.600000000001947642e-01,1.570000000001293916e+00,2.870000000000000455e+03,-2.174999999999608580e+00,-4.945000000000598916e+00,1.335931696694265547e+01,-2.193000412303103719e+00
1.999999999999980460e+01,2.999999998957542324e+00,9.999999999970487607e+00,6.600000000001250422e-01,1.570000000000524754e+00,2.869999999999998636e+03,-2.174999999999644107e+00,-4.945000000000053575e+00,1.341275677504354924e+01,-2.142261205168701554e+00
1.999999999999967670e+01,2.999999998487575148e+00,9.999999999989491073e+00,6.599999999999973666e-01,1.569999999999788676e+00,2.869999999999996817e+03,-2.174999999999957190e+00,-4.944999999999788898e+00,1.341992357216248344e+01,-2.135525041983557859e+00
2.000000000000251532e+01,2.999999998114335042e+00,1.000000000001903899e+01,6.600000000000131317e-01,1.569999999999774465e+00,2.869999999999989996e+03,-2.174999999999888356e+00,-4.944999999999669882e+00,1.332831574724716717e+01,-2.262749776570770699e+00
2.000000000000018829e+01,2.999999997384907413e+00,9.999999999962412289e+00,6.599999999999125455e-01,1.569999999999707185e+00,2.869999999999987722e+03,-2.175000000000221867e+00,-4.944999999999991402e+00,1.328386222636561520e+01,-2.286564749777286298e+00
2.000000000000123990e+01,2.999999997406600283e+00,1.000000000000651212e+01,6.600000000000469935e-01,1.570000000000401075e+00,2.869999999999993634e+03,-2.174999999999897682e+00,-4.945000000000206342e+00,1.330162014558020189e+01,-2.294190812677285862e+00
2.000000000000017408e+01,2.999999998983365668e+00,9.999999999980783372e+00,6.600000000000877387e-01,1.570000000000414397e+00,2.869999999999998636e+03,-2.174999999999824407e+00,-4.945000000000074003e+00,1.334905677731272178e+01,-2.249337177055800385e+00
1.999999999999972999e+01,2.999999999815940566e+00,9.999999999982209786e+00,6.600000000000135758e-01,1.570000000000216334e+00,2.869999999999999091e+03,-2.174999999999956302e+00,-4.945000000000087326e+00,1.337458173207514633e+01,-2.186583711440297062e+00
1.999999999999853273e+01,2.999999997234656490e+00,9.999999999912111193e+00,6.600000000000042499e-01,1.570000000000223439e+00,2.869999999999998181e+03,-2.175000000000066880e+00,-4.945000000000248086e+00,1.338385395697929248e+01,-2.156604947852531318e+00
1.999999999999997513e+01,2.999999999120392502e+00,9.999999999949338303e+00,6.599999999998733546e-01,1.569999999999286633e+00,2.869999999999996817e+03,-2.175000000000191225e+00,-4.944999999999680540e+00,1.341038195202320615e+01,-2.121314960628069457e+00
1.999999999999831246e+01,2.999999996370632083e+00,9.999999999934299666e+00,6.599999999998198419e-01,1.569999999999117657e+00,2.869999999999999091e+03,-2.175000000000462563e+00,-4.944999999999740936e+00,1.339152878992007523e+01,-2.152408902436042659e+00
2.000000000000195399e+01,2.999999998921696776e+00,1.000000000000272316e+01,6.600000000001186029e-01,1.570000000000359330e+00,2.869999999999994543e+03,-2.174999999999487788e+00,-4.944999999999790674e+00,1.332901541269749401e+01,-2.234474615251637264e+00
2.000000000000192557e+01,2.999999999300196674e+00,1.000000000003038281e+01,6.600000000000879607e-01,1.570000000000562723e+00,2.869999999999994998e+03,-2.174999999999811529e+00,-4.945000000000351115e+00,1.334858184535740655e+01,-2.232575733827241837e+00
2.000000000000405720e+01,2.999999999478592638e+00,1.000000000009490364e+01,6.600000000003090062e-01,1.570000000001445795e+00,2.870000000000000455e+03,-2.174999999999142286e+00,-4.945000000000280060e+00,1.332653617209192021e+01,-2.242511569593359066e+00
2.000000000000459366e+01,3.000000000810236322e+00,1.000000000011398171e+01,6.600000000003597433e-01,1.570000000001691376e+00,2.869999999999999091e+03,-2.174999999999011280e+00,-4.945000000000324469e+00,1.328601753700142751e+01,-2.292309100347033279e+00
2.000000000000143530e+01,2.999999999951470819e+00,1.000000000000984279e+01,6.600000000001744471e-01,1.570000000000662643e+00,2.869999999999999091e+03,-2.174999999999498446e+00,-4.945000000000001172e+00,1.328118335509195269e+01,-2.278311039999023624e+00
2.000000000000284572e+01,3.000000000478219242e+00,1.000000000000615863e+01,6.600000000000716405e-01,1.569999999999760254e+00,2.869999999999994088e+03,-2.174999999999562394e+00,-4.944999999999453166e+00,1.328892956823213289e+01,-2.276803667348511251e+00
2.000000000000138911e+01,2.999999999638907955e+00,1.000000000001445244e+01,6.599999999999168754e-01,1.569999999999306617e+00,2.869999999999989541e+03,-2.175000000000123279e+00,-4.944999999999610374e+00,1.336401200079168916e+01,-2.214520507212383471e+00
