2.000000000000256861e+01,2.999999997389664941e+00,1.000000000000939693e+01,6.600000000003768408e-01,1.570000000001977813e+00,2.869999999999996817e+03,-2.174999999999069900e+00,-4.945000000000643325e+00,1.327857451668874411e+01,-2.303420586880323029e+00
2.000000000000177636e+01,2.999999997814931874e+00,9.999999999984147792e+00,6.600000000003490852e-01,1.570000000002124585e+00,2.869999999999998181e+03,-2.174999999999216893e+00,-4.945000000000930207e+00,1.325451388936660457e+01,-2.299345969788335609e+00
2.000000000000073186e+01,2.999999997717946343e+00,9.999999999978811616e+00,6.600000000002635980e-01,1.570000000001039453e+00,2.869999999999999091e+03,-2.174999999999132072e+00,-4.944999999999921236e+00,1.337751660500173045e+01,-2.163251766188146519e+00
1.999999999999891287e+01,2.999999997462769130e+00,9.999999999963582908e+00,6.600000000000921796e-01,1.570000000000540519e+00,2.869999999999995907e+03,-2.174999999999732037e+00,-4.945000000000129070e+00,1.335311785962536923e+01,-2.193182214467296109e+00
1.999999999999910827e+01,2.999999998834110837e+00,9.999999999989920951e+00,6.600000000001430278e-01,1.570000000000965956e+00,2.870000000000001364e+03,-2.174999999999661426e+00,-4.945000000000388418e+00,1.342751871046133516e+01,-2.106187259284733049e+00
1.999999999999787192e+01,3.000000000150192747e+00,9.999999999957948305e+00,6.599999999999556222e-01,1.570000000000248752e+00,2.870000000000000000e+03,-2.175000000000232525e+00,-4.945000000000392859e+00,1.343015371780300704e+01,-2.105972702117987261e+00
1.999999999999948841e+01,3.000000000468824535e+00,9.999999999990690114e+00,6.599999999999117684e-01,1.569999999999845741e+00,2.869999999999996817e+03,-2.175000000000268052e+00,-4.945000000000148610e+00,1.339002520092166471e+01,-2.166133054108890565e+00
1.999999999999857891e+01,3.000000000310698134e+00,9.999999999972661868e+00,6.599999999998273914e-01,1.569999999999229123e+00,2.869999999999998636e+03,-2.175000000000440803e+00,-4.944999999999801332e+00,1.341287080335477100e+01,-2.149018636737384025e+00
1.999999999999967315e+01,2.999999999501280268e+00,9.999999999980797583e+00,6.600000000002149703e-01,1.570000000001455787e+00,2.870000000000000909e+03,-2.174999999999576605e+00,-4.945000000000685070e+00,1.335350102450863119e+01,-2.157606193409844497e+00
2.000000000000046541e+01,3.000000002047871650e+00,9.999999999975312193e+00,6.600000000002417266e-01,1.570000000001487095e+00,2.870000000000001364e+03,-2.174999999999466915e+00,-4.945000000000622897e+00,1.338075612643973678e+01,-2.142901546780331845e+00
2.000000000000004974e+01,2.999999998242881549e+00,9.999999999986204813e+00,6.600000000001657874e-01,1.570000000001352092e+00,2.870000000000000909e+03,-2.174999999999767120e+00,-4.945000000000750795e+00,1.333037109615717242e+01,-2.243849234258309622e+00
1.999999999999928235e+01,2.999999998128621392e+00,9.999999999968734343e+00,6.600000000000330047e-01,1.570000000000561391e+00,2.870000000000000000e+03,-2.175000000000024247e+00,-4.945000000000453255e+00,1.338379810098528111e+01,-2.198223662219668473e+00
1.999999999999909406e+01,2.999999999622684488e+00,9.999999999950183849e+00,6.600000000001253753e-01,1.570000000001026574e+00,2.870000000000000455e+03,-2.174999999999801759e+00,-4.945000000000551843e+00,1.341321188475968817e+01,-2.186477410299691559e+00
1.999999999999690203e+01,2.999999996592851659e+00,9.999999999881044488e+00,6.599999999999308642e-01,1.569999999999903029e+00,2.869999999999999091e+03,-2.175000000000146816e+00,-4.945000000000099760e+00,1.340317313002603150e+01,-2.137366243758662243e+00
1.999999999999569766e+01,2.999999995090080418e+00,9.999999999882708934e+00,6.599999999997094857e-01,1.569999999998638485e+00,2.869999999999997726e+03,-2.175000000000646860e+00,-4.944999999999627249e+00,1.337109983184708284e+01,-2.180463403140351808e+00
1.999999999999645794e+01,2.999999995475905123e+00,9.999999999903202763e+00,6.599999999998722444e-01,1.569999999999744045e+00,2.869999999999999545e+03,-2.175000000000379519e+00,-4.945000000000191243e+00,1.336459957484431094e+01,-2.184321252884202202e+00
1.999999999999418421e+01,2.999999995708298783e+00,9.999999999840698095e+00,6.599999999996866151e-01,1.569999999998990869e+00,2.869999999999995907e+03,-2.175000000000857359e+00,-4.945000000000122853e+00,1.336788791740209170e+01,-2.184314502803818225e+00
1.999999999999566924e+01,2.999999996473249997e+00,9.999999999944146012e+00,6.599999999996050137e-01,1.569999999998668683e+00,2.869999999999999545e+03,-2.175000000001187761e+00,-4.945000000000129070e+00,1.335402555831891647e+01,-2.195651248955303281e+00
1.999999999999759481e+01,2.999999997581368039e+00,9.999999999993889332e+00,6.599999999996670752e-01,1.569999999998367368e+00,2.870000000000000909e+03,-2.175000000000832934e+00,-4.944999999999516227e+00,1.340010658314382042e+01,-2.169467195643071111e+00
1.999999999999890576e+01,2.999999999728585109e+00,1.000000000000361666e+01,6.599999999997339106e-01,1.569999999998685114e+00,2.869999999999996362e+03,-2.175000000000640643e+00,-4.944999999999592610e+00,1.340350369400682595e+01,-2.141195275717192814e+00
1.999999999999817035e+01,2.999999999606806966e+00,1.000000000000078160e+01,6.599999999997075983e-01,1.569999999998814788e+00,2.870000000000001364e+03,-2.175000000000788081e+00,-4.944999999999847518e+00,1.336642368349480492e+01,-2.194493133396593354e+00
1.999999999999542766e+01,2.999999997908477045e+00,9.999999999943138818e+00,6.599999999994590194e-01,1.569999999997630846e+00,2.869999999999999091e+03,-2.175000000001427569e+00,-4.944999999999579288e+00,1.339925230209609630e+01,-2.169631474893580769e+00
1.999999999999866063e+01,2.999999997499219972e+00,1.000000000001619860e+01,6.599999999999510703e-01,1.569999999999803331e+00,2.869999999999998636e+03,-2.175000000000117506e+00,-4.944999999999929230e+00,1.337048008165123747e+01,-2.165266549560412201e+00
1.999999999999928590e+01,2.999999995984631074e+00,9.999999999983886667e+00,6.600000000001052802e-01,1.570000000000641549e+00,2.869999999999995453e+03,-2.174999999999760458e+00,-4.945000000000237428e+00,1.337143494471993677e+01,-2.176483320488682871e+00
1.999999999999898037e+01,2.999999995991096124e+00,9.999999999979300114e+00,6.600000000001891021e-01,1.570000000001388507e+00,2.870000000000000909e+03,-2.174999999999629896e+00,-4.945000000000666418e+00,1.334602233402520532e+01,-2.169430817670528810e+00
1.999999999999831601e+01,2.999999997369422466e+00,9.999999999958752994e+00,6.599999999999044409e-01,1.569999999999552420e+00,2.869999999999998181e+03,-2.175000000000242295e+00,-4.944999999999799556e+00,1.343233603330017267e+01,-2.153635909903061751e+00
1.999999999999798206e+01,2.999999997370326632e+00,9.999999999975639042e+00,6.599999999998267253e-01,1.569999999999242002e+00,2.869999999999998181e+03,-2.175000000000472777e+00,-4.944999999999790674e+00,1.345406340431818215e+01,-2.146202439923904137e+00
1.999999999999901235e+01,2.999999996866594021e+00,9.999999999935376138e+00,6.600000000000241229e-01,1.570000000000191021e+00,2.869999999999997726e+03,-2.174999999999911449e+00,-4.945000000000034923e+00,1.339078341477137712e+01,-2.188432110084716609e+00
1.999999999999910116e+01,3.000000001318475551e+00,1.000000000000863309e+01,6.599999999998377165e-01,1.569999999999320384e+00,2.869999999999993179e+03,-2.175000000000435474e+00,-4.944999999999878604e+00,1.339005605833029300e+01,-2.130257129354718781e+00
1.999999999999963407e+01,3.000000001728608812e+00,1.000000000000301270e+01,6.599999999998865663e-01,1.569999999999637019e+00,2.869999999999991815e+03,-2.175000000000364864e+00,-4.945000000000098872e+00,1.333283925631900324e+01,-2.191579054819941419e+00
1.999999999999814548e+01,2.999999999372937154e+00,9.999999999956893149e+00,6.599999999998186206e-01,1.569999999998640927e+00,2.869999999999993634e+03,-2.175000000000259170e+00,-4.944999999999122764e+00,1.339924769302379204e+01,-2.151759332960704096e+00
1.999999999999644018e+01,2.999999999916913129e+00,9.999999999919289451e+00,6.599999999997687716e-01,1.569999999998764162e+00,2.869999999999993179e+03,-2.175000000000485656e+00,-4.944999999999454054e+00,1.343913844626756671e+01,-2.119906120924345050e+00
1.999999999999705125e+01,3.000000000899834873e+00,9.999999999936406425e+00,6.599999999997623323e-01,1.569999999998540785e+00,2.869999999999998181e+03,-2.175000000000420375e+00,-4.944999999999208917e+00,1.345815034089717166e+01,-2.102185891293247177e+00
1.999999999999859313e+01,3.000000001534807836e+00,9.999999999956843411e+00,6.599999999999007771e-01,1.569999999998928697e+00,2.869999999999994998e+03,-2.174999999999986056e+00,-4.944999999999073026e+00,1.343248099932904616e+01,-2.142638973295329485e+00
1.999999999999878142e+01,2.999999999794754846e+00,9.999999999959323205e+00,6.599999999999399680e-01,1.569999999999567297e+00,2.869999999999994998e+03,-2.175000000000037126e+00,-4.944999999999684093e+00,1.338544170107016562e+01,-2.190645002289684840e+00
1.999999999999909406e+01,2.999999999117155536e+00,9.999999999945144324e+00,6.599999999999734968e-01,1.569999999999765139e+00,2.869999999999992724e+03,-2.174999999999967404e+00,-4.944999999999809326e+00,1.333662513100999014e+01,-2.219598516125305121e+00
2.000000000000011013e+01,3.000000001219742529e+00,9.999999999968581577e+00,6.600000000000503242e-01,1.569999999999968754e+00,2.869999999999994998e+03,-2.174999999999708944e+00,-4.944999999999686757e+00,1.334833159603473085e+01,-2.228079966689416214e+00
1.999999999999925393e+01,3.000000001074273559e+00,9.999999999964435560e+00,6.599999999999239808e-01,1.569999999999283302e+00,2.869999999999994998e+03,-2.175000000000000711e+00,-4.944999999999430962e+00,1.338824127841364842e+01,-2.210616111207397427e+00
1.999999999999751310e+01,3.000000000174344983e+00,1.000000000001512923e+01,6.599999999996625233e-01,1.569999999998542783e+00,2.870000000000000909e+03,-2.175000000000907985e+00,-4.944999999999765805e+00,1.340389492904968449e+01,-2.158019698733593117e+00
1.999999999999802114e+01,3.000000000878443540e+00,9.999999999987588595e+00,6.599999999997449018e-01,1.569999999999160067e+00,2.869999999999998636e+03,-2.175000000000803180e+00,-4.945000000000118412e+00,1.339534330464303125e+01,-2.172531292809814385e+00
1.999999999999986855e+01,2.999999999674636708e+00,1.000000000001176659e+01,6.599999999999048850e-01,1.569999999999361684e+00,2.870000000000001364e+03,-2.175000000000123279e+00,-4.944999999999663665e+00,1.343208592438263338e+01,-2.164934769764505162e+00
1.999999999999778666e+01,2.999999997561602960e+00,9.999999999961728392e+00,6.599999999998827915e-01,1.569999999999585061e+00,2.870000000000000455e+03,-2.175000000000314682e+00,-4.944999999999967422e+00,1.343626721189324691e+01,-2.139623531976255766e+00
1.999999999999814548e+01,2.999999997482134972e+00,9.999999999982193799e+00,6.599999999998199529e-01,1.569999999999284190e+00,2.869999999999999091e+03,-2.175000000000490097e+00,-4.944999999999942553e+00,1.336150909497762385e+01,-2.205823207598462510e+00
1.999999999999854339e+01,2.999999999694292541e+00,1.000000000003112000e+01,6.599999999998282796e-01,1.569999999999190043e+00,2.870000000000001819e+03,-2.175000000000477662e+00,-4.944999999999759588e+00,1.338202987598898552e+01,-2.205533513130542467e+00
1.999999999999925393e+01,2.999999999116241156e+00,1.000000000002289546e+01,6.599999999999105471e-01,1.569999999999505791e+00,2.870000000000000000e+03,-2.175000000000234746e+00,-4.944999999999792450e+00,1.339786242490399459e+01,-2.188879818363964613e+00
1.999999999999916511e+01,2.999999998026245507e+00,9.999999999932470018e+00,6.599999999999917044e-01,1.570000000000052243e+00,2.870000000000001364e+03,-2.175000000000026912e+00,-4.945000000000063345e+00,1.334301599030102992e+01,-2.264307802412495629e+00
1.999999999999970512e+01,2.999999998543044555e+00,9.999999999989693578e+00,6.599999999997683275e-01,1.569999999998802798e+00,2.869999999999995907e+03,-2.175000000000503420e+00,-4.944999999999575735e+00,1.337884159380689297e+01,-2.174065622429609768e+00
1.999999999999893063e+01,2.999999998122728773e+00,9.999999999979703347e+00,6.599999999997193667e-01,1.569999999998754836e+00,2.869999999999993634e+03,-2.175000000000729905e+00,-4.944999999999764917e+00,1.338942982605648524e+01,-2.158692418711610994e+00
1.999999999999487343e+01,2.999999999720338817e+00,9.999999999944336082e+00,6.599999999998037437e-01,1.569999999999420304e+00,2.870000000000003183e+03,-2.175000000000551381e+00,-4.945000000000058016e+00,1.339313374788514110e+01,-2.210131679697489915e+00
2.000000000000160938e+01,2.999999999462611200e+00,9.999999999984879651e+00,6.600000000002044231e-01,1.570000000000460805e+00,2.869999999999995907e+03,-2.174999999999281286e+00,-4.944999999999644125e+00,1.332012683136057873e+01,-2.230558791963169529e+00
2.000000000000065015e+01,2.999999997980834276e+00,9.999999999996711963e+00,6.600000000001984279e-01,1.570000000001049445e+00,2.870000000000001364e+03,-2.174999999999516653e+00,-4.945000000000349338e+00,1.336996171640222109e+01,-2.175046146984954465e+00
1.999999999999919709e+01,2.999999999612159129e+00,9.999999999955340613e+00,6.599999999999948130e-01,1.569999999999641904e+00,2.869999999999999545e+03,-2.174999999999859934e+00,-4.944999999999556195e+00,1.340825639321790774e+01,-2.142024319789061604e+00
1.999999999999920774e+01,3.000000000021732394e+00,9.999999999973509190e+00,6.600000000000315614e-01,1.570000000000120632e+00,2.870000000000000909e+03,-2.174999999999859490e+00,-4.944999999999938112e+00,1.337951902124812165e+01,-2.160847468468287236e+00
1.999999999999784350e+01,3.000000000694330371e+00,9.999999999955612395e+00,6.599999999998117373e-01,1.569999999999390328e+00,2.870000000000000909e+03,-2.175000000000554046e+00,-4.945000000000043805e+00,1.340904736083551185e+01,-2.123010345003451871e+00
1.999999999999749534e+01,2.999999998399478063e+00,9.999999999921826088e+00,6.599999999999173195e-01,1.569999999999975415e+00,2.870000000000001364e+03,-2.175000000000264944e+00,-4.945000000000262297e+00,1.333034419800448411e+01,-2.172311437429819581e+00
1.999999999999868905e+01,2.999999999559449293e+00,9.999999999941802997e+00,6.600000000000674216e-01,1.570000000000773444e+00,2.870000000000000909e+03,-2.174999999999936318e+00,-4.945000000000533191e+00,1.336317057425438115e+01,-2.166654124456614205e+00
2.000000000000148503e+01,2.999999999342733759e+00,9.999999999989602983e+00,6.600000000002120837e-01,1.570000000000972618e+00,2.869999999999998636e+03,-2.174999999999352340e+00,-4.945000000000185025e+00,1.333437564962557431e+01,-2.211357490251629532e+00
2.000000000000231282e+01,3.000000002262483090e+00,1.000000000002577494e+01,6.600000000001829958e-01,1.570000000000747686e+00,2.870000000000000909e+03,-2.174999999999389644e+00,-4.945000000000009166e+00,1.341912107157618550e+01,-2.151768553921243221e+00
1.999999999999914024e+01,2.999999999200634981e+00,9.999999999981499244e+00,6.599999999999652811e-01,1.570000000000314921e+00,2.870000000000002274e+03,-2.175000000000164135e+00,-4.945000000000483453e+00,1.341126949415878933e+01,-2.147523197204432410e+00
2.000000000000168399e+01,2.999999997866627410e+00,1.000000000001531930e+01,6.600000000002040901e-01,1.570000000001148255e+00,2.870000000000000455e+03,-2.174999999999495337e+00,-4.945000000000447926e+00,1.332172747115486722e+01,-2.221781101557108062e+00
2.000000000000097344e+01,3.000000000263623789e+00,1.000000000000691180e+01,6.600000000001143841e-01,1.570000000000784990e+00,2.870000000000000909e+03,-2.174999999999736922e+00,-4.945000000000402629e+00,1.338159697347515831e+01,-2.177908930902179296e+00
2.000000000000265032e+01,3.000000000426803926e+00,1.000000000002011369e+01,6.600000000002729239e-01,1.570000000001292362e+00,2.870000000000001819e+03,-2.174999999999221778e+00,-4.945000000000269402e+00,1.339282924346887427e+01,-2.144781226903802906e+00
2.000000000000043343e+01,2.999999998161707371e+00,1.000000000004320277e+01,6.600000000000505462e-01,1.570000000000501439e+00,2.869999999999998181e+03,-2.175000000000017586e+00,-4.945000000000371543e+00,1.327640617095375397e+01,-2.276035252615933313e+00
2.000000000000188649e+01,2.999999997686935593e+00,1.000000000001858957e+01,6.599999999999830447e-01,1.569999999999558193e+00,2.869999999999989541e+03,-2.174999999999990496e+00,-4.944999999999578399e+00,1.328879442672922551e+01,-2.297997252662739243e+00
2.000000000000189360e+01,2.999999998687723046e+00,1.000000000000740386e+01,6.600000000000192379e-01,1.570000000000075335e+00,2.869999999999989996e+03,-2.175000000000003819e+00,-4.945000000000070450e+00,1.326049938624019475e+01,-2.311177578702100277e+00
2.000000000000263611e+01,2.999999998171007931e+00,1.000000000000433076e+01,6.600000000001901013e-01,1.570000000000634222e+00,2.869999999999994998e+03,-2.174999999999466915e+00,-4.944999999999964757e+00,1.325823886769851256e+01,-2.316378874623878037e+00
2.000000000000050804e+01,3.000000000482760498e+00,1.000000000000002665e+01,6.599999999999994760e-01,1.569999999999931006e+00,2.870000000000000000e+03,-2.174999999999970957e+00,-4.944999999999893703e+00,1.338606629000511994e+01,-2.211551656927965404e+00
2.000000000000132516e+01,2.999999999754038971e+00,1.000000000000674660e+01,6.600000000001721157e-01,1.570000000000953078e+00,2.870000000000000909e+03,-2.174999999999595701e+00,-4.945000000000347562e+00,1.330035611842034982e+01,-2.271354962292941870e+00
1.999999999999786482e+01,2.999999997371981308e+00,9.999999999924535032e+00,6.599999999998353850e-01,1.569999999999472040e+00,2.869999999999998181e+03,-2.175000000000468781e+00,-4.945000000000102425e+00,1.342283334870344902e+01,-2.083579276228809007e+00
1.999999999999813127e+01,2.999999995891430515e+00,9.999999999892091651e+00,6.599999999998444888e-01,1.569999999999566409e+00,2.869999999999995907e+03,-2.175000000000526512e+00,-4.945000000000251639e+00,1.337966031205581530e+01,-2.178044880030435060e+00
1.999999999999912248e+01,2.999999998607469465e+00,9.999999999947132068e+00,6.599999999998336087e-01,1.569999999999077245e+00,2.869999999999995453e+03,-2.175000000000347544e+00,-4.944999999999671658e+00,1.338497186952433537e+01,-2.167576355747649508e+00
1.999999999999768008e+01,2.999999998378600985e+00,9.999999999933899986e+00,6.599999999996841726e-01,1.569999999998684448e+00,2.869999999999995453e+03,-2.175000000000885780e+00,-4.944999999999890150e+00,1.343243181870163561e+01,-2.134839811610622640e+00
2.000000000000169109e+01,2.999999999177489052e+00,9.999999999981428189e+00,6.600000000000461053e-01,1.569999999999968754e+00,2.869999999999994088e+03,-2.174999999999775557e+00,-4.944999999999796003e+00,1.336444107298781603e+01,-2.190720228602701880e+00
1.999999999999878497e+01,2.999999999942029927e+00,9.999999999967908337e+00,6.599999999999157652e-01,1.569999999999651674e+00,2.870000000000000909e+03,-2.175000000000208100e+00,-4.944999999999978080e+00,1.345425219127061212e+01,-2.103087818403353904e+00
1.999999999999943512e+01,2.999999999014218321e+00,9.999999999988403943e+00,6.599999999999265343e-01,1.569999999999647233e+00,2.869999999999999091e+03,-2.175000000000204992e+00,-4.944999999999984297e+00,1.343156269681260540e+01,-2.152321601756538971e+00
2.000000000000378009e+01,2.999999998744184548e+00,1.000000000009265833e+01,6.600000000002738121e-01,1.570000000001552154e+00,2.870000000000002728e+03,-2.174999999999421618e+00,-4.945000000000633555e+00,1.333089436349210999e+01,-2.221160895876102881e+00
2.000000000000078870e+01,3.000000000109295240e+00,9.999999999990169641e+00,6.600000000000918465e-01,1.570000000000303375e+00,2.869999999999999545e+03,-2.174999999999700506e+00,-4.944999999999881268e+00,1.332264624024574218e+01,-2.219147458553817120e+00
2.000000000000202149e+01,2.999999999621462798e+00,1.000000000000690115e+01,6.600000000003788392e-01,1.570000000002056861e+00,2.870000000000000909e+03,-2.174999999999109423e+00,-4.945000000000664642e+00,1.327036810362717745e+01,-2.291792696277670682e+00
2.000000000000329692e+01,2.999999998907480148e+00,1.000000000003136691e+01,6.600000000000975087e-01,1.570000000000278950e+00,2.869999999999992724e+03,-2.174999999999717826e+00,-4.945000000000005613e+00,1.329340877480663607e+01,-2.333291080024527453e+00
2.000000000000368772e+01,3.000000002269934907e+00,1.000000000001491607e+01,6.600000000002177458e-01,1.570000000000616458e+00,2.869999999999995907e+03,-2.174999999999311928e+00,-4.944999999999843965e+00,1.325384323329268099e+01,-2.326640899690556985e+00
2.000000000000072120e+01,2.999999999730082578e+00,9.999999999995662137e+00,6.600000000000016964e-01,1.569999999999676543e+00,2.869999999999992269e+03,-2.174999999999879474e+00,-4.944999999999666329e+00,1.335703715639338540e+01,-2.217161330246212536e+00
