2.000000000000238742e+01,2.999999997919034822e+00,1.000000000001442757e+01,6.600000000003353184e-01,1.570000000001894103e+00,2.869999999999996362e+03,-2.174999999999258193e+00,-4.945000000000731255e+00,1.328699177479091986e+01,-2.329009258289999273e+00
2.000000000000278177e+01,2.999999998691014191e+00,1.000000000001210587e+01,6.600000000003792833e-01,1.570000000002098828e+00,2.869999999999996817e+03,-2.174999999999056577e+00,-4.945000000000741913e+00,1.323422394876170216e+01,-2.330325206821390882e+00
2.000000000000089173e+01,2.999999998711593285e+00,9.999999999985256238e+00,6.600000000002760325e-01,1.570000000000975726e+00,2.869999999999999545e+03,-2.174999999999050360e+00,-4.944999999999756923e+00,1.335797023569201158e+01,-2.182408533587957500e+00
1.999999999999926459e+01,2.999999997855532730e+00,9.999999999972020603e+00,6.600000000001905454e-01,1.570000000001159801e+00,2.869999999999995907e+03,-2.174999999999541522e+00,-4.945000000000455032e+00,1.333967614377129607e+01,-2.181846811039875433e+00
1.999999999999813483e+01,2.999999997605571789e+00,9.999999999969817921e+00,6.600000000001402523e-01,1.570000000001151141e+00,2.870000000000001819e+03,-2.174999999999725819e+00,-4.945000000000557172e+00,1.345761606617547024e+01,-2.083262628295301955e+00
1.999999999999778311e+01,2.999999999015750873e+00,9.999999999954960472e+00,6.599999999999166533e-01,1.569999999999988072e+00,2.869999999999999545e+03,-2.175000000000304912e+00,-4.945000000000248974e+00,1.346098404059281783e+01,-2.096139202585268091e+00
2.000000000000039080e+01,2.999999999938436801e+00,1.000000000000954614e+01,6.599999999999702771e-01,1.570000000000011608e+00,2.869999999999996817e+03,-2.175000000000048672e+00,-4.945000000000051799e+00,1.337631729290642646e+01,-2.187017876006240424e+00
1.999999999999826628e+01,3.000000001459427690e+00,9.999999999971212361e+00,6.599999999997855360e-01,1.569999999999004636e+00,2.869999999999998181e+03,-2.175000000000554046e+00,-4.944999999999767581e+00,1.342463750885318241e+01,-2.145160680872356007e+00
1.999999999999887379e+01,2.999999999290198449e+00,9.999999999971331377e+00,6.600000000000951772e-01,1.570000000000739027e+00,2.870000000000002274e+03,-2.174999999999820410e+00,-4.945000000000348450e+00,1.338129247962739576e+01,-2.136172424916559454e+00
1.999999999999802114e+01,2.999999999106488957e+00,9.999999999951944218e+00,6.600000000000146860e-01,1.570000000000316698e+00,2.870000000000001364e+03,-2.175000000000029576e+00,-4.945000000000256080e+00,1.339618723661829236e+01,-2.144191480851231901e+00
2.000000000000031619e+01,3.000000002109894481e+00,9.999999999982268406e+00,6.600000000001908784e-01,1.570000000001100959e+00,2.870000000000000000e+03,-2.174999999999557065e+00,-4.945000000000419504e+00,1.338714281277122353e+01,-2.131268886240066607e+00
1.999999999999852918e+01,2.999999998593815498e+00,9.999999999965044850e+00,6.600000000000421085e-01,1.570000000000739471e+00,2.870000000000000455e+03,-2.175000000000039790e+00,-4.945000000000550067e+00,1.337160486518578040e+01,-2.184119066901351935e+00
2.000000000000024514e+01,2.999999997473269175e+00,9.999999999976221687e+00,6.600000000001299272e-01,1.570000000001174900e+00,2.869999999999999545e+03,-2.174999999999856826e+00,-4.945000000000772111e+00,1.334811163044255444e+01,-2.232002306535111558e+00
1.999999999999906564e+01,2.999999999385642102e+00,9.999999999936488138e+00,6.600000000001052802e-01,1.570000000000990381e+00,2.869999999999999545e+03,-2.174999999999870148e+00,-4.945000000000613127e+00,1.340330662550644014e+01,-2.203814764236067703e+00
1.999999999999885958e+01,2.999999999656490335e+00,9.999999999960195396e+00,6.600000000000546541e-01,1.570000000000567830e+00,2.870000000000000455e+03,-2.174999999999970957e+00,-4.945000000000359996e+00,1.343015128681563120e+01,-2.176640246097658604e+00
1.999999999999878852e+01,2.999999997144660480e+00,9.999999999932756012e+00,6.600000000000249001e-01,1.570000000000267626e+00,2.870000000000000000e+03,-2.174999999999882139e+00,-4.945000000000138840e+00,1.341318452863789545e+01,-2.145813619735554845e+00
1.999999999999504041e+01,2.999999994186160812e+00,9.999999999883517177e+00,6.599999999997163691e-01,1.569999999998881401e+00,2.869999999999999545e+03,-2.175000000000718359e+00,-4.944999999999861728e+00,1.339766698186508087e+01,-2.152712264353309646e+00
1.999999999999712941e+01,2.999999996690747572e+00,9.999999999933002925e+00,6.599999999999123235e-01,1.569999999999849960e+00,2.870000000000000455e+03,-2.175000000000275158e+00,-4.945000000000129070e+00,1.337784338699787590e+01,-2.183675366495897219e+00
1.999999999999196376e+01,2.999999995112228923e+00,9.999999999820211372e+00,6.599999999994946576e-01,1.569999999998162643e+00,2.869999999999999091e+03,-2.175000000001348965e+00,-4.944999999999940776e+00,1.341664383774018710e+01,-2.145496229855010650e+00
1.999999999999704059e+01,2.999999996404338454e+00,9.999999999965082154e+00,6.599999999998169553e-01,1.569999999999809992e+00,2.869999999999999091e+03,-2.175000000000696154e+00,-4.945000000000542073e+00,1.334347687172571284e+01,-2.213245795666423099e+00
1.999999999999903721e+01,2.999999998366043030e+00,9.999999999996518341e+00,6.599999999997376854e-01,1.569999999998454410e+00,2.869999999999999545e+03,-2.175000000000562039e+00,-4.944999999999306617e+00,1.336864171262849332e+01,-2.224139119746011417e+00
1.999999999999936051e+01,3.000000001613037259e+00,1.000000000001596412e+01,6.599999999998109601e-01,1.569999999999055929e+00,2.869999999999998181e+03,-2.175000000000391065e+00,-4.944999999999646789e+00,1.341198396870951370e+01,-2.120217955029787937e+00
1.999999999999898037e+01,3.000000000158290270e+00,1.000000000000604317e+01,6.599999999996938316e-01,1.569999999998461959e+00,2.869999999999998636e+03,-2.175000000000747225e+00,-4.944999999999514451e+00,1.335241214838262813e+01,-2.213953765822056052e+00
1.999999999999617373e+01,2.999999997641972005e+00,9.999999999953924856e+00,6.599999999995321831e-01,1.569999999997938156e+00,2.870000000000001364e+03,-2.175000000001200640e+00,-4.944999999999604157e+00,1.338957189586793639e+01,-2.169312957776498241e+00
1.999999999999839773e+01,2.999999997875088198e+00,1.000000000001542233e+01,6.599999999999065503e-01,1.569999999999598606e+00,2.869999999999999545e+03,-2.175000000000243183e+00,-4.944999999999871498e+00,1.335998558343127662e+01,-2.194168862578421475e+00
1.999999999999904077e+01,2.999999995841021505e+00,9.999999999981955767e+00,6.600000000000491029e-01,1.570000000000431495e+00,2.869999999999995907e+03,-2.174999999999897238e+00,-4.945000000000225882e+00,1.338618167794570901e+01,-2.170901364029904634e+00
1.999999999999860378e+01,2.999999997475480740e+00,9.999999999970450304e+00,6.600000000002327338e-01,1.570000000001764873e+00,2.870000000000002274e+03,-2.174999999999533529e+00,-4.945000000000876028e+00,1.337180085564219389e+01,-2.119463189035794226e+00
1.999999999999923972e+01,2.999999997283833153e+00,9.999999999994066968e+00,6.600000000002734790e-01,1.570000000001744889e+00,2.870000000000000455e+03,-2.174999999999393641e+00,-4.945000000000650431e+00,1.335801843511055154e+01,-2.147067461922682607e+00
1.999999999999832667e+01,2.999999997508873584e+00,9.999999999966934894e+00,6.599999999998665823e-01,1.569999999999055484e+00,2.869999999999999091e+03,-2.175000000000219202e+00,-4.944999999999376783e+00,1.345510722170530649e+01,-2.157732348643472964e+00
1.999999999999699796e+01,2.999999997521104689e+00,9.999999999962655650e+00,6.599999999997360201e-01,1.569999999998732632e+00,2.869999999999997272e+03,-2.175000000000701927e+00,-4.944999999999594387e+00,1.344554198246139443e+01,-2.146760809709345352e+00
1.999999999999714007e+01,2.999999997606225932e+00,9.999999999962067676e+00,6.599999999998489297e-01,1.569999999999652562e+00,2.869999999999998636e+03,-2.175000000000493205e+00,-4.945000000000134399e+00,1.347225998137571779e+01,-2.092860217301955039e+00
2.000000000000050804e+01,2.999999997947684793e+00,9.999999999959731767e+00,6.600000000001317035e-01,1.570000000000407292e+00,2.869999999999997272e+03,-2.174999999999533085e+00,-4.944999999999816431e+00,1.335488309650929040e+01,-2.193061404121237068e+00
1.999999999999885603e+01,3.000000001009700767e+00,1.000000000000509992e+01,6.599999999998584777e-01,1.569999999999474261e+00,2.869999999999994088e+03,-2.175000000000382183e+00,-4.944999999999948770e+00,1.340206773120849526e+01,-2.121999465930256346e+00
2.000000000000115818e+01,3.000000002053071491e+00,1.000000000002306955e+01,6.600000000000244560e-01,1.569999999999965423e+00,2.869999999999991360e+03,-2.174999999999902123e+00,-4.944999999999887486e+00,1.332361701524181363e+01,-2.207269363491136005e+00
1.999999999999854339e+01,3.000000000050177640e+00,9.999999999957356778e+00,6.599999999997819833e-01,1.569999999998331175e+00,2.869999999999992269e+03,-2.175000000000318678e+00,-4.944999999998997531e+00,1.340172635780281496e+01,-2.162180932377847586e+00
1.999999999999691980e+01,3.000000000426134239e+00,9.999999999939241491e+00,6.599999999998181766e-01,1.569999999998942242e+00,2.869999999999995453e+03,-2.175000000000327560e+00,-4.944999999999414086e+00,1.343910478397060260e+01,-2.141529990865952193e+00
1.999999999999621991e+01,3.000000000508467046e+00,9.999999999911217685e+00,6.599999999997073763e-01,1.569999999998404894e+00,2.870000000000000455e+03,-2.175000000000590461e+00,-4.944999999999291518e+00,1.343967251608500035e+01,-2.124873478189495124e+00
1.999999999999986855e+01,3.000000000836996250e+00,9.999999999965893949e+00,6.600000000000518785e-01,1.569999999999890816e+00,2.869999999999995907e+03,-2.174999999999680966e+00,-4.944999999999534879e+00,1.338353226048817923e+01,-2.199036016450305997e+00
1.999999999999978684e+01,2.999999999174483012e+00,9.999999999962154718e+00,6.600000000000890710e-01,1.570000000000559615e+00,2.869999999999996362e+03,-2.174999999999781330e+00,-4.945000000000245421e+00,1.334344321728831595e+01,-2.241686946376217016e+00
1.999999999999823430e+01,2.999999997942522256e+00,9.999999999940373030e+00,6.599999999999035527e-01,1.569999999999604157e+00,2.869999999999994088e+03,-2.175000000000226308e+00,-4.944999999999908802e+00,1.335074764201025310e+01,-2.202596228926236854e+00
1.999999999999900169e+01,3.000000000501930941e+00,9.999999999968505193e+00,6.600000000000117995e-01,1.569999999999961648e+00,2.869999999999996817e+03,-2.174999999999902567e+00,-4.944999999999873275e+00,1.336196786947499149e+01,-2.197118493183022991e+00
1.999999999999791456e+01,2.999999999802556605e+00,9.999999999958179231e+00,6.599999999997904210e-01,1.569999999998726858e+00,2.869999999999997272e+03,-2.175000000000372413e+00,-4.944999999999346585e+00,1.341696204303446649e+01,-2.184479773561875504e+00
2.000000000000137845e+01,3.000000001835347874e+00,1.000000000000938272e+01,6.600000000000363354e-01,1.569999999999729390e+00,2.869999999999994998e+03,-2.174999999999718714e+00,-4.944999999999498463e+00,1.336125169869686147e+01,-2.249754194261609275e+00
1.999999999999715428e+01,3.000000000002258638e+00,1.000000000000389022e+01,6.599999999996853939e-01,1.569999999998933360e+00,2.870000000000001819e+03,-2.175000000000942180e+00,-4.945000000000139728e+00,1.341340991154742746e+01,-2.134953491428849048e+00
1.999999999999931788e+01,3.000000000706729342e+00,9.999999999994686917e+00,6.599999999998290567e-01,1.569999999999395879e+00,2.869999999999995907e+03,-2.175000000000493205e+00,-4.944999999999991402e+00,1.338338414660858078e+01,-2.196143109657616499e+00
2.000000000000084199e+01,2.999999999806312267e+00,1.000000000001942979e+01,6.599999999999829337e-01,1.569999999999663887e+00,2.869999999999999545e+03,-2.174999999999909228e+00,-4.944999999999703633e+00,1.341130695962026920e+01,-2.174796748901402399e+00
2.000000000000034817e+01,3.000000000312192494e+00,1.000000000001642064e+01,6.599999999998927835e-01,1.569999999999246665e+00,2.869999999999998636e+03,-2.175000000000137934e+00,-4.944999999999594387e+00,1.342399605865421996e+01,-2.168029443199379624e+00
1.999999999999724309e+01,2.999999996881092201e+00,9.999999999960637709e+00,6.599999999998593658e-01,1.569999999999710516e+00,2.870000000000000909e+03,-2.175000000000483436e+00,-4.945000000000228546e+00,1.344102909579360450e+01,-2.140324896897551454e+00
1.999999999999848654e+01,2.999999998341422724e+00,9.999999999987993604e+00,6.599999999999178746e-01,1.569999999999837970e+00,2.870000000000000000e+03,-2.175000000000268496e+00,-4.945000000000129070e+00,1.336092484563814153e+01,-2.200734817195214355e+00
1.999999999999842970e+01,2.999999999223520675e+00,9.999999999994820143e+00,6.599999999997517852e-01,1.569999999998432427e+00,2.869999999999997726e+03,-2.175000000000527844e+00,-4.944999999999253326e+00,1.335966371966324040e+01,-2.229846250633500837e+00
1.999999999999855405e+01,2.999999998790142008e+00,1.000000000001706013e+01,6.599999999998604761e-01,1.569999999999400542e+00,2.870000000000000909e+03,-2.175000000000405276e+00,-4.944999999999891038e+00,1.341838223674736419e+01,-2.189858560806072774e+00
1.999999999999927525e+01,2.999999997330775159e+00,9.999999999938827600e+00,6.600000000001094991e-01,1.570000000000791651e+00,2.870000000000001364e+03,-2.174999999999784439e+00,-4.945000000000388418e+00,1.330814839085316414e+01,-2.289167547658587321e+00
1.999999999999875300e+01,2.999999998117819366e+00,9.999999999934775730e+00,6.599999999999415223e-01,1.569999999999779350e+00,2.870000000000001364e+03,-2.175000000000128164e+00,-4.944999999999931006e+00,1.334876206707996182e+01,-2.223542807327223425e+00
1.999999999999895905e+01,2.999999998725897843e+00,9.999999999940115458e+00,6.599999999999121014e-01,1.569999999999612816e+00,2.870000000000001364e+03,-2.175000000000210321e+00,-4.944999999999894591e+00,1.336846314952576620e+01,-2.249739385397974800e+00
1.999999999999944933e+01,2.999999998162524051e+00,9.999999999988684607e+00,6.599999999997586686e-01,1.569999999998758167e+00,2.869999999999996362e+03,-2.175000000000543832e+00,-4.944999999999564189e+00,1.335531567558320276e+01,-2.222947160537119160e+00
2.000000000000018474e+01,2.999999998029069914e+00,1.000000000000047073e+01,6.599999999999512923e-01,1.570000000000021156e+00,2.869999999999994998e+03,-2.175000000000220535e+00,-4.945000000000250751e+00,1.334123638129845446e+01,-2.204441535605971225e+00
1.999999999999636202e+01,3.000000000375972586e+00,9.999999999968977704e+00,6.599999999998948930e-01,1.569999999999997620e+00,2.870000000000000000e+03,-2.175000000000395062e+00,-4.945000000000340457e+00,1.338667126993409795e+01,-2.215746473032870423e+00
1.999999999999579359e+01,2.999999999517476645e+00,9.999999999953441687e+00,6.599999999999436318e-01,1.570000000000150164e+00,2.870000000000001819e+03,-2.175000000000193445e+00,-4.945000000000254303e+00,1.338267527017630165e+01,-2.206469442695353500e+00
2.000000000000086331e+01,2.999999999603030876e+00,9.999999999971908693e+00,6.600000000001480238e-01,1.570000000000376206e+00,2.869999999999995907e+03,-2.174999999999499778e+00,-4.944999999999775575e+00,1.331422931771989226e+01,-2.237432229724461763e+00
1.999999999999915801e+01,2.999999998007580437e+00,9.999999999953633534e+00,6.600000000001448042e-01,1.570000000000922658e+00,2.870000000000002274e+03,-2.174999999999666755e+00,-4.945000000000386642e+00,1.338222698064941518e+01,-2.151304759530930255e+00
2.000000000000084555e+01,3.000000000156369140e+00,9.999999999985931254e+00,6.600000000000518785e-01,1.569999999999786011e+00,2.869999999999995453e+03,-2.174999999999745803e+00,-4.944999999999565077e+00,1.339212714029130247e+01,-2.158670212707284985e+00
2.000000000000055067e+01,3.000000001191409194e+00,9.999999999993185895e+00,6.600000000000412204e-01,1.570000000000000506e+00,2.870000000000000455e+03,-2.174999999999799538e+00,-4.944999999999767581e+00,1.338746848219408392e+01,-2.169667131451501252e+00
1.999999999999721467e+01,3.000000000859498250e+00,9.999999999950345497e+00,6.599999999997466782e-01,1.569999999998961560e+00,2.870000000000000000e+03,-2.175000000000632649e+00,-4.944999999999796003e+00,1.340357032209206523e+01,-2.137218079038348151e+00
1.999999999999786127e+01,2.999999997805279595e+00,9.999999999936042272e+00,6.599999999998401590e-01,1.569999999999563078e+00,2.869999999999998636e+03,-2.175000000000498090e+00,-4.945000000000176144e+00,1.330347570413806046e+01,-2.219956813732457235e+00
1.999999999999641176e+01,2.999999999085469327e+00,9.999999999892672520e+00,6.599999999998443778e-01,1.569999999999618367e+00,2.870000000000001364e+03,-2.175000000000429257e+00,-4.945000000000117524e+00,1.337469501744477895e+01,-2.151263350571705590e+00
1.999999999999756994e+01,2.999999998515014532e+00,9.999999999944344964e+00,6.599999999999068834e-01,1.570000000000027152e+00,2.870000000000001364e+03,-2.175000000000324896e+00,-4.945000000000393747e+00,1.333882022125060196e+01,-2.185981363315240067e+00
1.999999999999749178e+01,2.999999998298642723e+00,9.999999999939335638e+00,6.599999999999228706e-01,1.570000000000024487e+00,2.870000000000000909e+03,-2.175000000000272049e+00,-4.945000000000297824e+00,1.335768143898569704e+01,-2.155480496992016715e+00
1.999999999999896616e+01,2.999999999151948149e+00,9.999999999940911266e+00,6.600000000002205214e-01,1.570000000001617213e+00,2.870000000000002274e+03,-2.174999999999556621e+00,-4.945000000000796980e+00,1.337088335643476000e+01,-2.137148166620196132e+00
1.999999999999922196e+01,3.000000000048898219e+00,9.999999999946155071e+00,6.600000000000145750e-01,1.570000000000205453e+00,2.869999999999998181e+03,-2.174999999999958522e+00,-4.945000000000093543e+00,1.334801646955107657e+01,-2.174525823647362799e+00
2.000000000000125056e+01,2.999999998680402236e+00,9.999999999985263344e+00,6.600000000002976819e-01,1.570000000001749774e+00,2.870000000000000000e+03,-2.174999999999242206e+00,-4.945000000000666418e+00,1.336296388760769460e+01,-2.178781616409005473e+00
2.000000000000083134e+01,3.000000001050150633e+00,1.000000000001859668e+01,6.600000000001111644e-01,1.570000000000739027e+00,2.870000000000002274e+03,-2.174999999999704503e+00,-4.945000000000299600e+00,1.343353312411305822e+01,-2.152880088610450660e+00
1.999999999999868905e+01,2.999999998919794741e+00,9.999999999971526776e+00,6.599999999999026645e-01,1.569999999999947216e+00,2.870000000000000909e+03,-2.175000000000284039e+00,-4.945000000000294271e+00,1.339492327046591491e+01,-2.167044376994367916e+00
2.000000000000013856e+01,2.999999997066524760e+00,9.999999999996338929e+00,6.600000000000429967e-01,1.570000000000664864e+00,2.870000000000001364e+03,-2.175000000000018918e+00,-4.945000000000601581e+00,1.330384892864653601e+01,-2.242806928025070867e+00
2.000000000000203570e+01,2.999999999561409059e+00,1.000000000002127365e+01,6.600000000002126388e-01,1.570000000001275486e+00,2.869999999999999545e+03,-2.174999999999525091e+00,-4.945000000000574047e+00,1.338082254680121430e+01,-2.190404332735450321e+00
2.000000000000276401e+01,3.000000000220126584e+00,1.000000000002421530e+01,6.600000000003033440e-01,1.570000000001481766e+00,2.870000000000000000e+03,-2.174999999999134292e+00,-4.945000000000340457e+00,1.338873399217192528e+01,-2.150727808737480373e+00
1.999999999999957367e+01,2.999999996929442414e+00,1.000000000002880007e+01,6.599999999999920375e-01,1.570000000000308704e+00,2.869999999999999091e+03,-2.175000000000161915e+00,-4.945000000000352003e+00,1.327730866996394532e+01,-2.259651521438970523e+00
2.000000000000220979e+01,2.999999998109387445e+00,1.000000000003904965e+01,6.599999999999651701e-01,1.569999999999365015e+00,2.869999999999991360e+03,-2.174999999999976286e+00,-4.944999999999422080e+00,1.329416532709827337e+01,-2.289037607466954061e+00
2.000000000000120437e+01,2.999999997280470065e+00,9.999999999988860466e+00,6.600000000000519895e-01,1.570000000000159268e+00,2.869999999999992724e+03,-2.174999999999873701e+00,-4.944999999999965645e+00,1.328635579471892747e+01,-2.291155292344418726e+00
2.000000000000193978e+01,2.999999998582569827e+00,1.000000000000657607e+01,6.600000000001161604e-01,1.570000000000242757e+00,2.869999999999994088e+03,-2.174999999999633893e+00,-4.944999999999813767e+00,1.330232248229284941e+01,-2.262125750923441814e+00
2.000000000000092726e+01,2.999999999926175498e+00,9.999999999968860465e+00,6.600000000000076916e-01,1.569999999999642348e+00,2.869999999999997726e+03,-2.174999999999789324e+00,-4.944999999999496687e+00,1.337904852921097465e+01,-2.198915552640712257e+00
1.999999999999889155e+01,3.000000000231654695e+00,9.999999999999403144e+00,6.599999999999311973e-01,1.569999999999833307e+00,2.870000000000001819e+03,-2.175000000000204992e+00,-4.945000000000049134e+00,1.342562274093114816e+01,-2.152549486497723930e+00
1.999999999999945643e+01,2.999999998016151359e+00,9.999999999967066344e+00,6.600000000001241540e-01,1.570000000000936424e+00,2.870000000000001364e+03,-2.174999999999768008e+00,-4.945000000000490559e+00,1.333270122791658885e+01,-2.232022705056144307e+00
1.999999999999855760e+01,2.999999997887174530e+00,9.999999999921568516e+00,6.599999999999426326e-01,1.569999999999992291e+00,2.869999999999997726e+03,-2.175000000000208544e+00,-4.945000000000238316e+00,1.342110398423114681e+01,-2.076348108219136179e+00
1.999999999999804245e+01,2.999999996666956381e+00,9.999999999925933025e+00,6.599999999998922284e-01,1.569999999999823759e+00,2.869999999999998181e+03,-2.175000000000343992e+00,-4.945000000000246310e+00,1.343283031127628036e+01,-2.061033762166715189e+00
1.999999999999812772e+01,2.999999996073634989e+00,9.999999999906368231e+00,6.599999999998243938e-01,1.569999999999311058e+00,2.869999999999996817e+03,-2.175000000000490541e+00,-4.945000000000002949e+00,1.339126380576186826e+01,-2.145730429374953285e+00
1.999999999999872102e+01,2.999999997707303745e+00,9.999999999911729276e+00,6.599999999997803179e-01,1.569999999998755946e+00,2.869999999999992269e+03,-2.175000000000439471e+00,-4.944999999999503792e+00,1.337850733919523094e+01,-2.188903646135839764e+00
1.999999999999808509e+01,2.999999998989785421e+00,9.999999999946531659e+00,6.599999999997275824e-01,1.569999999998937357e+00,2.869999999999996362e+03,-2.175000000000782752e+00,-4.944999999999994955e+00,1.341399054426954329e+01,-2.159192666268217931e+00
2.000000000000167688e+01,2.999999998437826942e+00,9.999999999984920507e+00,6.600000000000179057e-01,1.569999999999841744e+00,2.869999999999991815e+03,-2.174999999999807976e+00,-4.944999999999716067e+00,1.336727214955126364e+01,-2.187026843068211601e+00
1.999999999999691980e+01,2.999999998880467533e+00,9.999999999957001506e+00,6.599999999997806510e-01,1.569999999999174056e+00,2.870000000000001364e+03,-2.175000000000613110e+00,-4.944999999999986073e+00,1.346753891036247630e+01,-2.097908142964981959e+00
2.000000000000068212e+01,2.999999998634118814e+00,1.000000000000619593e+01,6.599999999999204281e-01,1.569999999999475149e+00,2.869999999999995907e+03,-2.175000000000201883e+00,-4.944999999999855511e+00,1.339917482366589674e+01,-2.182542170987473273e+00
2.000000000000401457e+01,2.999999999292186637e+00,1.000000000009235634e+01,6.600000000003425349e-01,1.570000000001712026e+00,2.870000000000002274e+03,-2.174999999999182698e+00,-4.945000000000511875e+00,1.331764950654249979e+01,-2.258037851739715496e+00
2.000000000000348166e+01,2.999999999978419929e+00,1.000000000004184919e+01,6.600000000002549383e-01,1.570000000001221085e+00,2.869999999999996817e+03,-2.174999999999376765e+00,-4.945000000000333351e+00,1.322316040072279719e+01,-2.331173174469478582e+00
2.000000000000152767e+01,2.999999998185560734e+00,9.999999999994045652e+00,6.600000000003922729e-01,1.570000000002210294e+00,2.870000000000000000e+03,-2.174999999999087219e+00,-4.945000000000778329e+00,1.327822859094986185e+01,-2.263620211213204669e+00
2.000000000000314060e+01,2.999999998265018952e+00,1.000000000002663469e+01,6.599999999998944489e-01,1.569999999999043272e+00,2.869999999999988631e+03,-2.175000000000176126e+00,-4.944999999999525997e+00,1.328644515677768112e+01,-2.354683865151951494e+00
2.000000000000217426e+01,2.999999998868158269e+00,1.000000000003296563e+01,6.599999999999628386e-01,1.569999999999723839e+00,2.869999999999994543e+03,-2.175000000000093525e+00,-4.944999999999947882e+00,1.330867162589159314e+01,-2.315043074095696429e+00
2.000000000000232347e+01,2.999999998962362913e+00,1.000000000004308021e+01,6.599999999999927036e-01,1.569999999999876827e+00,2.869999999999992269e+03,-2.175000000000058886e+00,-4.944999999999985185e+00,1.331675506175145429e+01,-2.307521912330384506e+00
2.000000000000259703e+01,2.999999998383925615e+00,9.999999999988707700e+00,6.600000000001663425e-01,1.570000000000614460e+00,2.869999999999991815e+03,-2.174999999999518430e+00,-4.945000000000057128e+00,1.327722131712301135e+01,-2.323440195404754327e+00
2.000000000000222045e+01,2.999999998529042422e+00,1.000000000002030909e+01,6.599999999999436318e-01,1.569999999999450058e+00,2.869999999999991815e+03,-2.175000000000065548e+00,-4.944999999999708074e+00,1.332131675669941018e+01,-2.302854416073572441e+00
2.000000000000304468e+01,3.000000002242671826e+00,9.999999999984472865e+00,6.600000000001129408e-01,1.569999999999819318e+00,2.869999999999994543e+03,-2.174999999999410516e+00,-4.944999999999340368e+00,1.327053581226079793e+01,-2.322263611324797861e+00
2.000000000000184741e+01,2.999999999307305654e+00,1.000000000000882672e+01,6.599999999999885958e-01,1.569999999999583506e+00,2.869999999999989541e+03,-2.174999999999962075e+00,-4.944999999999688534e+00,1.333177744659765374e+01,-2.259345069364018244e+00
