1.443092030198720420e-02
1.435586379468819195e-02
1.459570844254413219e-02
1.424380332152936149e-02
1.461307257793800600e-02
1.440168151671140755e-02
1.437781483172278010e-02
1.447950002929945107e-02
1.424918725898205625e-02
1.453266863111333553e-02
1.431214815597602226e-02
1.451441670830513030e-02
1.457004546768717566e-02
1.428432785770223680e-02
1.449698352277902988e-02
1.451085766720411861e-02
1.444889701069696462e-02
1.419130943815036933e-02
1.442639554546549033e-02
1.427632692023818491e-02
1.432246030000871966e-02
1.433101462496103734e-02
1.459187122805329778e-02
1.397035197431911041e-02
1.448038781671378422e-02
1.417639165029820937e-02
9.507348958717347365e-03
1.032244927171617303e-02
1.067004961020189338e-02
1.130105437924298559e-02
1.442064564231199976e-02
1.188360962979259812e-02
1.451584999176404496e-02
1.417071277013786518e-02
1.427160487762440047e-02
1.393705205483797803e-02
1.442271221412647249e-02
1.441367749753995342e-02
1.456123072509331838e-02
1.454511738352319214e-02
1.454949910762815164e-02
1.284155395132698628e-02
1.458806262004581217e-02
1.457596700974077113e-02
1.440981463585714814e-02
1.461545382106933626e-02
1.441145605614320424e-02
1.460293404566633500e-02
1.412584498064798667e-02
1.458976125329856932e-02
1.453226715391596653e-02
1.330519205058774447e-02
1.429722740883248265e-02
1.439918091549437229e-02
1.442393834718871254e-02
1.437137640010795192e-02
1.436395844304597796e-02
1.455508131760337685e-02
1.460202751607325711e-02
1.451591608260489018e-02
1.450067474556173200e-02
1.425378895707967580e-02
1.432695743647754115e-02
1.417991123418080660e-02
1.279943731639107511e-02
1.450400789408731739e-02
1.436956827307409902e-02
1.436079101483773469e-02
1.461314951951391515e-02
1.410640736842641574e-02
1.418127152178565512e-02
