9.318341318047398264e-03
8.756978932594262563e-03
9.082031546594421592e-03
8.776946198215391029e-03
9.326739266863809386e-03
9.031750364266309672e-03
8.780767973946926666e-03
8.745397010988319869e-03
8.823299724481672296e-03
8.812660011767326634e-03
8.974098524421656939e-03
9.306013822448975376e-03
8.794938921724561667e-03
9.150366585717646314e-03
9.282857542117824851e-03
8.559265062493404477e-03
9.316041572063827464e-03
8.962073544052640700e-03
8.778033992561140239e-03
8.805861612226417029e-03
9.323569159355626218e-03
9.145658692459967057e-03
9.319393188709656009e-03
9.253557681669423093e-03
9.267985767392057303e-03
9.237556516753862856e-03
9.275827214234366735e-03
9.333246495496412901e-03
9.043097206329397952e-03
9.055530582258115857e-03
8.846648858271570492e-03
8.698485722267813858e-03
8.812320942614363523e-03
8.794541240245900768e-03
8.998740280577217573e-03
8.731480049955374703e-03
9.330421129301744859e-03
9.294469715246708730e-03
9.327743869521471637e-03
9.327779162964903309e-03
8.709876681135191728e-03
8.850096271406713080e-03
8.644707337839719480e-03
9.183819097929750430e-03
8.734130839653072437e-03
9.323860330263932308e-03
8.997928531378302994e-03
9.039556517665189167e-03
8.951868696980572193e-03
9.122278046667004620e-03
8.848874866167973779e-03
9.046311430641870710e-03
8.894678823100828427e-03
8.806104254650004570e-03
8.879837299898002065e-03
8.818507379055783024e-03
9.338367195994222783e-03
9.332932005705840695e-03
9.081762434088258562e-03
8.893228010479786727e-03
9.338470555364271689e-03
9.123193155235968105e-03
8.929819118197011504e-03
8.650255971339134917e-03
9.138793487472563273e-03
9.274665051561386750e-03
8.761064148671409216e-03
8.810309216338792909e-03
8.750194398334699628e-03
9.324319145028535372e-03
8.905909070752582660e-03
8.822000799715396316e-03
9.338094932287755584e-03
8.980256600060316369e-03
8.983290575715265069e-03
9.307927861515049098e-03
9.338497025446845443e-03
9.335071670713847650e-03
9.096544084485264081e-03
9.010357495626590205e-03
8.914656802802997659e-03
9.230342789012574781e-03
9.297902632860441385e-03
8.874919536699919093e-03
9.194862794523370533e-03
8.680008344151526195e-03
9.334360759924735865e-03
8.971943103412115261e-03
8.839174211144919246e-03
8.707737646367244566e-03
8.578262388660239102e-03
8.587247721213754625e-03
8.803094228117383513e-03
9.189624239134100078e-03
9.202647519760165026e-03
8.831594313928034512e-03
9.254120486044136590e-03
8.845481653678100020e-03
9.186488164589225527e-03
9.316394506498137246e-03
8.828397736337277590e-03
8.630362443805173964e-03
8.699386335315367411e-03
8.895026085374587929e-03
9.338529167689971211e-03
9.315522884493403558e-03
8.773889533918234271e-03
8.752274820776949002e-03
8.801729128144674882e-03
8.591634192040186607e-03
9.012106411796613065e-03
