1.518862044184241152e-02
1.308608950586667881e-02
1.363625025570487821e-02
1.469147648803862879e-02
1.308029827377442909e-02
1.084910926516760230e-02
1.136319606874485778e-02
9.525634472497365723e-03
9.534665241967299823e-03
1.356053213221726679e-02
1.377341061795759464e-02
1.188748083268468918e-02
1.160611664970030016e-02
1.282588215380620414e-02
1.250554777862219677e-02
1.363388689886235912e-02
1.436617855957129063e-02
9.543861673177528315e-03
1.379218645504762773e-02
1.431844404244981758e-02
1.119341357139777733e-02
1.372511801603802130e-02
1.394522262909641402e-02
1.485715208596853978e-02
9.873825845645233662e-03
1.359909541383045803e-02
1.052395180273861530e-02
1.025511618254679007e-02
1.274063375605758060e-02
1.319783496356663477e-02
1.299021230125220819e-02
1.363593278986036106e-02
1.543012880370378710e-02
1.125026767283854486e-02
1.137169457901118785e-02
1.131399012262974783e-02
1.274986672103563083e-02
1.130006193859409321e-02
1.139327721729798716e-02
1.263366792301674930e-02
1.378466427823170012e-02
1.294940660216583640e-02
1.098282159560903283e-02
1.066618091033028418e-02
1.460404992185678798e-02
1.520030746818998475e-02
1.424667660502731276e-02
1.476077096731515277e-02
1.010275021416976414e-02
9.951823550266395216e-03
1.302506047661348629e-02
1.156559944140120831e-02
1.472269774210480629e-02
1.380974282016348385e-02
1.169604514908536078e-02
1.339463607189533140e-02
1.326575249773181801e-02
1.217351881838003164e-02
1.468777775899297866e-02
1.181508476249863542e-02
1.523988109745120362e-02
1.148754945569850812e-02
1.096110919945721303e-02
1.241428642660419995e-02
1.278094561938581362e-02
1.105389111208763923e-02
1.076079832984746555e-02
1.109622367071192751e-02
1.492981649038031648e-02
1.284839829285009533e-02
1.250933595240975339e-02
1.299273187144679015e-02
1.452218404709439310e-02
1.063010822385443768e-02
1.296053428393021366e-02
1.562530478925697186e-02
1.371068087882305712e-02
1.222421635005033549e-02
1.309730411280276945e-02
