1.171923588836583548e-02
5.938555338700413945e-03
1.124581114316983675e-02
1.086756248028114720e-02
1.173386690685301534e-02
1.050073504232739048e-02
9.961492894151191199e-03
9.357346692443400255e-03
9.260250437487850886e-03
9.393065547592581443e-03
9.907254354041978781e-03
1.091583216688192005e-02
1.119824963905566642e-02
1.043094975783109661e-02
9.864578833795104723e-03
1.026241183182502285e-02
1.125543260232225902e-02
9.194983579058199283e-03
9.226090534389712328e-03
9.849966034767870804e-03
1.117772818995285862e-02
1.018477079149021462e-02
1.107565643813114738e-02
1.109417612309117861e-02
1.003308269733258450e-02
1.159900408788042472e-02
1.164851032130623590e-02
1.171801280809814903e-02
1.128325688626173780e-02
9.373876495517139210e-03
1.164316409803769353e-02
1.164114649088626718e-02
9.162830985155865152e-03
1.079511794678315005e-02
1.164004857038690617e-02
1.159890982197896506e-02
1.117466256777931329e-02
9.144521220060432623e-03
1.016785996405847325e-02
1.053567679790234912e-02
1.034431464148636085e-02
8.734759228668389705e-03
1.078246017502318237e-02
1.147053867580022368e-02
1.058159062911703981e-02
1.145411422873400011e-02
1.173533396945389620e-02
1.159725739617689308e-02
1.143594150566337904e-02
1.015022669543234196e-02
1.134759930513673000e-02
1.042657233454142955e-02
1.149722860032044956e-02
1.104799771363204966e-02
9.259520074789140409e-03
1.124849098808278214e-02
9.784993064148653913e-03
1.033669732292801131e-02
9.598954950789100049e-03
1.068061101747298965e-02
1.068034485492768901e-02
1.043449700746756741e-02
8.887362256575489367e-03
1.150971130683484805e-02
1.148920015568766044e-02
1.079528825912612691e-02
9.663141316028901057e-03
1.055958627440470483e-02
1.145145497973229683e-02
1.126784163884644342e-02
1.149802708795634801e-02
1.104193617852301280e-02
1.150100161283016363e-02
1.155833587682935336e-02
1.071983751473701806e-02
9.327349539867735989e-03
1.145228277693419693e-02
9.417297429320941465e-03
1.164585107230453262e-02
9.220790255846251712e-03
1.169124604498597737e-02
1.105040981169883030e-02
1.173308109362403324e-02
1.057195095050467160e-02
1.147279868098397861e-02
1.173505750895297191e-02
1.071757275665067080e-02
6.974506701883774300e-03
1.161204367614883035e-02
1.075686341809972690e-02
1.148295721812959622e-02
1.034610490146367461e-02
1.171288363404809560e-02
1.173049868321427748e-02
