2.802955456338890664e-02
1.917267684192839466e-02
1.835556265053202296e-02
4.351958200860139847e-02
1.945000991265492113e-02
2.058706482948846964e-02
1.982296862615081159e-02
2.270178443752302044e-02
1.818721960707913449e-02
2.676534002413602509e-02
1.943215477361521018e-02
2.356037125775845009e-02
2.027360488372459413e-02
2.408946087082488099e-02
2.418147256367549069e-02
2.333472490106531377e-02
4.374009148379680301e-02
3.611787975647698379e-02
2.357651180766554000e-02
2.346341778391381611e-02
3.319469579526063141e-02
2.130702241298634836e-02
1.884206526658819755e-02
2.040091140534672220e-02
2.523000923432490092e-02
2.552402569341884198e-02
2.410417374410480859e-02
1.844955748262036219e-02
1.825978207500970549e-02
2.035983930636528841e-02
2.231009607567077668e-02
2.694501152095444760e-02
2.228599083461215227e-02
3.432771098401731641e-02
3.086331363490386892e-02
2.231644717089161303e-02
1.865609661409996581e-02
2.605483678151802873e-02
3.566189085920135754e-02
3.654506952410467580e-02
