6.437800663724196730e-03
1.093766883439259603e-02
1.052419505314790282e-02
6.298540170732785590e-03
1.309168168903186887e-02
1.319187653522455733e-02
9.482346670661801272e-03
5.479911142524236840e-03
9.300498700254579074e-03
4.053704342721766753e-03
4.440957280012348962e-03
1.073329003905299471e-02
8.477965033753170898e-03
8.718637948318916017e-03
1.053211200982822303e-02
1.089699638324641284e-02
9.624572317817920927e-03
7.278911122326315632e-03
5.295273862510464606e-03
6.679884286318329804e-03
4.524257218150776368e-03
7.129151820111031407e-03
8.190768390973919219e-03
4.443494677470970905e-03
6.889646098497345834e-03
6.824565335998651096e-03
7.811772491763359881e-03
8.322848399858652144e-03
1.058567939927590636e-02
4.966144713900011616e-03
1.018006527704651623e-02
1.039520813028339298e-02
8.174086373381924883e-03
6.046624565188702706e-03
7.977977705675130121e-03
8.111392848943873787e-03
8.700914199903438118e-03
4.070089005190130269e-03
1.052517306501632270e-02
5.134230377904244400e-03
1.094011090039131821e-02
6.023651659133982296e-03
5.807997078475042943e-03
1.040583684714433375e-02
7.908271144616963941e-03
1.237705631990357845e-02
1.120544156873056092e-02
1.270013611934608412e-02
5.471301180464423382e-03
5.939446319099183844e-03
1.274966995075461559e-02
3.788556434176116282e-03
5.548158094960594158e-03
1.075349438120746549e-02
5.258208694533511758e-03
4.275263793522639591e-03
1.116693852572887488e-02
9.992269216275901506e-03
1.071492119796067094e-02
6.422960568484394235e-03
6.617468853133774177e-03
8.524396888124492408e-03
7.482369203462515064e-03
1.117572877785534026e-02
4.167238431092545534e-03
4.340250212452208961e-03
4.129152031025712898e-03
4.367354477732921306e-03
4.540703623792651314e-03
6.418790187572741800e-03
4.160625984182171784e-03
9.058272821388676718e-03
8.175689226166280021e-03
6.441402019548767705e-03
1.032997572655055402e-02
1.333503475127339501e-02
1.233919244223408151e-02
6.138305274726869008e-03
1.245142177386221634e-02
5.206119189686996516e-03
1.227977970306372985e-02
8.244189572586728756e-03
8.783383321899096430e-03
4.418058959711229639e-03
1.118144570177710337e-02
1.109708872050816329e-02
1.145268395695791391e-02
9.969559583113034654e-03
4.006209764847966370e-03
6.925629526074380225e-03
5.139057706182056234e-03
8.579129988688071959e-03
8.703133002586741634e-03
5.537088778813477156e-03
8.695761361614874965e-03
1.096782518822632217e-02
4.939085891595003733e-03
4.047424074084884048e-03
4.829724406890122806e-03
4.408569774860614243e-03
5.986974238286680260e-03
5.844514954961992602e-03
8.043052540829166361e-03
6.440042681840741842e-03
5.303428406922458191e-03
6.094500715874802237e-03
1.331746215014667327e-02
1.198824918344936798e-02
7.253633961036151483e-03
8.833326140088968922e-03
1.070364640053210643e-02
5.259500361723368558e-03
9.067245833308736069e-03
1.263529985981449479e-02
1.174145233396207272e-02
1.271267739274971158e-02
9.369011889255115730e-03
1.124094438744498332e-02
4.824164557601770889e-03
4.245247226233742413e-03
4.620859105590491810e-03
6.191336239483085681e-03
1.322126233425286249e-02
1.152724204961791052e-02
