1.962041199063517885e-02
1.737207609828165730e-02
1.935292656974028913e-02
1.451208274470918921e-02
2.687858611899703390e-02
1.539474084488003103e-02
2.061614466908817667e-02
1.795576672002543311e-02
1.850504420507428915e-02
1.524781130706857717e-02
1.392523431137260466e-02
1.437230393235441363e-02
1.460785815781176153e-02
1.586839181441892371e-02
1.931191050006286769e-02
1.540176608864830821e-02
2.872731389187496362e-02
1.802745051434688842e-02
1.871949154515244532e-02
2.450112697311095794e-02
1.392058889272908100e-02
1.559810425761350497e-02
2.163093152557640092e-02
2.191550149469417147e-02
1.541499964712385838e-02
1.383419691374568154e-02
1.510004060924938912e-02
1.559274229525969314e-02
1.664016304464047483e-02
1.659436482454872130e-02
2.310428385648543095e-02
1.683680410043972980e-02
1.590693978909423975e-02
1.687544034499239773e-02
1.778033120417418095e-02
1.438215381219803794e-02
1.411623388353975758e-02
1.544999778810399182e-02
1.382048306329040736e-02
1.435513890277276446e-02
1.784027510480747786e-02
2.066919140381445752e-02
1.448193425463783351e-02
1.872649082719208755e-02
1.667939813973362551e-02
2.109955897937525193e-02
2.513905337675243629e-02
2.131296265796233519e-02
2.511962188826106709e-02
1.754327292923798381e-02
1.662602601800846833e-02
1.617532175501794345e-02
2.070885227125720054e-02
2.023303609355025373e-02
1.476840894924636230e-02
1.508871610321937430e-02
