1.317239164159468220e-02
1.323215490790218517e-02
1.270848731763925786e-02
1.209874445410049140e-02
1.327910956862273818e-02
1.326266366193532692e-02
1.321448904807961781e-02
1.281952470891139888e-02
1.320525097101028084e-02
1.327030551334187208e-02
1.305692470154999098e-02
1.312606319942131658e-02
1.319010622735608020e-02
1.309486145425814603e-02
1.326961342454404183e-02
1.158349381860438940e-02
1.317855637518890698e-02
1.314282943403992723e-02
1.292375761305911142e-02
1.311823546758145685e-02
1.327099218814649893e-02
1.305785049438776615e-02
1.315447764041695854e-02
1.309475497905848024e-02
1.182844813642607365e-02
1.137049649799774624e-02
1.318800289099657241e-02
1.204600494164214525e-02
1.326092577011704979e-02
1.064158442539538986e-02
8.856631471196174318e-03
9.247341314038752536e-03
8.043728512701272051e-03
1.143093380645907042e-02
1.261995228678469173e-02
1.187635926927921824e-02
1.318349664398697600e-02
9.026966525360330743e-03
1.116085404851278710e-02
1.223096409378078044e-02
1.313432134372084434e-02
1.011163931001316484e-02
8.281882855059534421e-03
1.327847071742474169e-02
1.130039972332942677e-02
1.321881482864910480e-02
1.170698068724765860e-02
1.301600032692578138e-02
1.275436639837674267e-02
1.326058920020623845e-02
1.319393662754745830e-02
9.842586406111120817e-03
1.236883504003318153e-02
1.310983024313323864e-02
1.318361755650184972e-02
1.326363276671872933e-02
1.296191273015980319e-02
1.150693724771225876e-02
9.108749404358107080e-03
1.047970963794368771e-02
1.327230237450171234e-02
1.326985073791278960e-02
1.324698203062179246e-02
8.508973702306726200e-03
1.194178196314863750e-02
1.255366696333153759e-02
1.325244926142498531e-02
1.277725405464395260e-02
1.318245445029532850e-02
1.310019153056685495e-02
1.323830339951680320e-02
1.314412157375112813e-02
1.263825429080865301e-02
1.274742475675783374e-02
1.305421770494831143e-02
1.256791117944957951e-02
1.322142617803752362e-02
1.315392180378141367e-02
1.316358487931721354e-02
1.323919400139875711e-02
1.310419066687973713e-02
