1.109341904831478119e-02
9.375221442607861375e-03
1.118620436129251147e-02
1.602430665156366618e-02
8.410749450480007813e-03
9.050995443849345345e-03
9.918189613947877778e-03
1.376270223173811473e-02
1.027549018934131864e-02
8.299183197880257226e-03
1.298394729676036370e-02
8.801017219632301450e-03
1.013426738959222369e-02
9.554586639937084555e-03
8.754129951108203730e-03
1.533555809089201354e-02
8.993876214249033052e-03
9.543311437949715190e-03
1.002370663119567587e-02
9.590602205765713650e-03
7.352089009127105342e-03
1.195649231919345724e-02
1.001639678595919042e-02
1.175108514740394114e-02
1.576851673593264100e-02
1.663547791773036660e-02
1.025083443019029518e-02
1.578052799872507392e-02
8.929675572075876019e-03
1.710394189723696626e-02
1.794099336861994590e-02
1.673728859874046987e-02
1.714202962717109591e-02
1.625133487734593124e-02
1.358548273951436756e-02
1.518916334134819135e-02
1.087005225320385529e-02
1.835342691580905267e-02
1.640708690562997854e-02
1.581088936802462624e-02
9.579684295893267990e-03
1.732585479328643471e-02
1.804776709092041631e-02
8.162939709554270507e-03
1.620146366647770217e-02
1.015411044347937219e-02
1.591615973006011570e-02
1.173024896461447031e-02
1.493693333076022076e-02
9.327290933172608864e-03
1.028714025518696895e-02
1.781311793496372087e-02
1.585943553928267913e-02
1.183734548634846236e-02
1.052732711352234209e-02
8.879542086667911380e-03
1.003840311669517218e-02
1.659747479248647670e-02
1.798008464034134973e-02
1.762216645070917992e-02
8.272535323676805108e-03
8.828477298862030115e-03
9.645859481375498173e-03
1.822081361949954778e-02
1.634904548490608359e-02
1.400673990508989435e-02
8.838331792858724473e-03
1.318530385630344894e-02
9.566959750481605559e-03
9.816351599114777823e-03
9.656926425663823338e-03
1.064392604358058159e-02
1.390346491213338351e-02
1.250351500761176168e-02
1.267514017739490746e-02
1.469290737190400917e-02
9.869285499769590506e-03
9.617857281322944596e-03
9.257142581275782170e-03
8.138694608553553173e-03
8.541981087117409346e-03
