1.813930935748360798e-03
1.855567601101154119e-03
1.128470836740169247e-03
1.569541490500183691e-03
1.420673778735821171e-03
1.705326776967947943e-03
1.347754170608010844e-03
4.503867402863351017e-04
1.270142882056737692e-03
1.265651361921766443e-03
2.876064136486296234e-06
1.878656378148984380e-03
1.588429203652764066e-03
1.834440906472328088e-03
1.736288567995743649e-03
9.074210403646629447e-04
1.690094259268905882e-03
4.373526604140492492e-04
1.813171477733625694e-04
1.869460771489602760e-03
1.773432626081008730e-04
8.645810471688867519e-04
5.025274722546815495e-04
1.894697850368605701e-03
8.424304655180061109e-04
2.109280766784417575e-05
1.396221804407718857e-06
2.003272432748562685e-04
5.192505446132425961e-04
2.403298964354864858e-05
1.755203907105074099e-03
1.594693645141769542e-03
1.707808508749341595e-03
1.885417319471806340e-03
1.249286179995965891e-03
5.249177346599597817e-04
1.481277837662747137e-03
1.840461062880811068e-03
1.893018166618603464e-03
1.665989205126921840e-03
1.363547009216879973e-03
1.833603174913467446e-03
2.993627650435421459e-04
1.635303861516738976e-05
1.804340124429913402e-03
1.834705655224517498e-03
1.858401052239321135e-03
1.893787856469171483e-03
5.368405092627893992e-04
7.432755350276955969e-04
3.325421785902820098e-04
1.187876108201263090e-03
1.666726792592562864e-03
1.728233171542047737e-03
1.576557588229101411e-03
1.891593127682905055e-03
1.404106645950258794e-03
1.823150459324003256e-03
8.826131869988716023e-05
5.127390362633470460e-04
7.993452280070978194e-04
7.463662528880991767e-04
1.631441539333359191e-03
1.020472466590067930e-03
1.860621104819275458e-03
1.866189909369557172e-03
1.615750507491032486e-03
1.869973002771012621e-03
1.645395205451172802e-03
1.145929162426821517e-03
1.856059368710897498e-03
1.647322499628343581e-03
1.424509310295923306e-03
1.316630460778150935e-03
1.894637866231032230e-03
1.736220654185399552e-03
1.841923192221405327e-03
1.889026983255885812e-03
1.690841055386796930e-03
1.369972474222313878e-03
1.849648739867421846e-03
1.893948879985599913e-03
1.877457590683152691e-03
3.253595897076627468e-04
1.892767230844788874e-03
1.812450261205318398e-03
1.895107123801942047e-03
4.613964194644936691e-04
1.291922879403527248e-03
6.129026339199099673e-04
1.796447286268020634e-03
1.891113766174109655e-03
1.770058486368019345e-03
1.648925188813699354e-03
9.191215283340118053e-04
1.881393010540578043e-03
1.804821532305875449e-03
1.687377323161291451e-03
1.516224033462021392e-03
1.666872852049084731e-03
1.596812530444920815e-03
5.045527042854702380e-04
1.922366109365087738e-04
1.156960999924456883e-03
1.811234079618569874e-03
9.232168206263342792e-04
1.238895494911241820e-03
1.169786606141637016e-03
1.889817648369912463e-03
1.847079653787600615e-03
1.435332418342556877e-03
1.085317557520968550e-03
1.873811348085968869e-03
1.277191977456218182e-03
1.578292332045682148e-04
5.578222535501105031e-06
5.823347685717002046e-04
5.175814124439436122e-04
1.413783788383550554e-03
4.462721034293899974e-04
1.774228854755769726e-03
1.808680469190446054e-03
1.448345906645228049e-03
6.768581946230435012e-04
4.313122961297953745e-04
4.481940258927481898e-04
4.948652021183971459e-04
1.378885042722954131e-03
1.881612099725360953e-03
5.706265427765025303e-04
1.773329860079856431e-03
1.498282381430188085e-03
1.890173716256915090e-03
1.894678537778469877e-03
1.895114030291129457e-03
1.771944597405960761e-03
1.873022473543212683e-03
1.712715057725305509e-03
1.872149953742518590e-03
1.485109276488515758e-03
1.741807620244285350e-03
1.864140216856229179e-03
1.882201325571417495e-03
2.113984253787197271e-04
9.224854362111673542e-04
1.894180886863122519e-03
1.011712608239241423e-03
3.494684488135972036e-04
1.045369400876583840e-04
1.786266737511725197e-03
9.198626969421944089e-04
5.131907718153921535e-04
1.329413732774570398e-03
1.463461909313717091e-03
1.876930011647992211e-03
1.576726797214196433e-03
1.654751707729035194e-03
9.266715520337547322e-05
1.764511168672987977e-03
1.547262819054463778e-03
1.876518691847489217e-03
1.894524292853281416e-03
2.403905880085842545e-04
1.576650058445445935e-03
1.830222960047952433e-03
1.218175004165002054e-03
1.814824686608409055e-03
1.507414678605350838e-03
1.764678970780655942e-03
1.894610623968125780e-03
1.777532714546378083e-03
1.838647214183443011e-03
1.182271620123512583e-03
6.031740125625814500e-04
1.891511017200342079e-03
4.993190563077067826e-04
1.790798289704394501e-03
2.147443156324624163e-04
1.314109336428798602e-03
1.886659080648138724e-03
1.881669398006028185e-03
1.892137589247190436e-03
1.746369612148559276e-03
1.475916867277831659e-03
1.547081076070472901e-03
1.889449685973753571e-03
1.588513999992233281e-03
1.774618687701022589e-03
6.664376453674805689e-04
1.606440560066212369e-03
1.894043396569110868e-03
1.647834091420014068e-03
1.729309049079930929e-03
1.787176347717315357e-03
1.448760423894428998e-03
1.894859129680929663e-03
1.885452107713640009e-03
1.344906267001728982e-03
1.423990428321221351e-03
1.879536699724501441e-03
1.894003236613464938e-03
1.894911439941628041e-03
6.305121349810012673e-04
5.832850503247282272e-04
1.584472808531879866e-03
1.405143130920183305e-03
1.639447055587367648e-03
1.857360474535063545e-03
1.665824088876160115e-03
1.510998634901898575e-03
1.846863762051515661e-03
1.780517468956931571e-03
1.802398121988732244e-03
1.866462459896569767e-03
2.518502191619360774e-06
1.863396618187036086e-03
1.792105406732113050e-03
1.493553226907985568e-03
1.561776933980052332e-03
1.850930533101452502e-03
1.236092611382626867e-03
1.881183769497784750e-03
1.295253214069354373e-03
1.837667643800342107e-03
1.802389297030325844e-03
1.739128286133359135e-03
1.854139876308549470e-03
1.482814531506977803e-03
1.635130627743095399e-03
1.183859728942805636e-03
1.046025325502479477e-03
1.502484468509021837e-03
1.797766681498738856e-03
1.894951216203430129e-03
3.040236220615565076e-04
1.794105986433440405e-03
9.122588441936214671e-04
1.740588624902682496e-03
1.892966240051748711e-03
1.824044082286103855e-03
1.816201252221846850e-03
3.030596232536142995e-04
1.186066224340280671e-03
1.892346958187931605e-03
1.793168366577256329e-03
1.865578429280563034e-03
1.970934235979764028e-04
1.750811379981791161e-03
1.458283577198428048e-03
1.881959598449853147e-03
1.224369101782652944e-03
4.030244994736002112e-04
7.066765140474820387e-04
7.617354934934649890e-04
1.744141118304042828e-03
1.882616482310358252e-03
1.382492020650127147e-03
1.770650270173034250e-03
1.417602309516579479e-03
1.895092415537931452e-03
1.028001690886031069e-03
1.893736441494108663e-03
1.845100049349731458e-03
1.435859741581821392e-03
1.892158948204492692e-03
1.894791087972637691e-03
1.879300600112645539e-03
1.642687861689652454e-03
1.855115098161421545e-03
1.885284561401868010e-03
1.884182336886713926e-03
1.552796963260859699e-03
1.888833729456582079e-03
1.476863184194474260e-03
1.882731078871692281e-03
1.039311962216283008e-03
2.528834517270131337e-04
1.587479561389475418e-03
1.894302517811592050e-03
1.870421540874359773e-03
1.802415004517857145e-03
1.803725958484013025e-03
1.705146312963436031e-03
1.844691926997926203e-03
1.725451391174839073e-03
1.777443058084887673e-03
1.631850301174903820e-03
1.802741911672734766e-03
1.858998975145836202e-03
1.721973334379167274e-03
1.301789950289476477e-03
1.875854645701900952e-03
1.694898361988587780e-03
1.822173191103964533e-03
1.860097618518448707e-03
1.613173747534335945e-03
1.826330386003079467e-03
1.675492406351045691e-03
1.352869576932924428e-03
1.890236769945238425e-03
1.876036004992047987e-03
1.507606781323123047e-03
1.894974877323795217e-03
1.565578700481904013e-03
1.768057395074900274e-03
1.868228858455259992e-03
1.634924200455156219e-03
1.714691208918580961e-03
1.685602611235986542e-03
1.840770064322979922e-03
1.788073935515801377e-03
1.317270590007478797e-03
1.741597228119961182e-03
1.731827103878533182e-03
1.434572065042186541e-03
3.831222038746766442e-04
1.566510692828379861e-03
1.885756249033788100e-03
1.843821453564398758e-03
7.331556098987128964e-04
5.591080535870406217e-04
1.559614179680765241e-03
9.949393039616358323e-04
1.868926669659098710e-03
1.749726805383449444e-03
4.105678405055646172e-05
1.893736057800265039e-03
1.804587095367342353e-03
1.856308641811388847e-03
1.741503478924137259e-03
1.894486435060697667e-03
1.885658662899526846e-03
1.767408057193322387e-03
1.685255368307390315e-03
1.781433601957865733e-03
1.674825290654707345e-03
1.815757957934364085e-03
5.023735150998756994e-04
1.664137754432866434e-03
1.868011304045852014e-03
1.757648548481571902e-03
9.570165392204746813e-04
1.869990780585773296e-03
1.300001425385796531e-03
1.619257852916777818e-03
8.049905155302340643e-04
6.153525830612462024e-04
1.870377927674119920e-03
1.268426875289527071e-03
1.965686743049138458e-04
1.886669056688076431e-03
1.894878570169013145e-03
1.828638176575305210e-03
4.511929769755208819e-04
1.600057557179487226e-03
1.838716534871214598e-03
1.639550269231336913e-03
1.864113230389218695e-03
1.810349281614875459e-03
1.700878230543476522e-03
1.788977150823995626e-03
1.865975808204742899e-03
1.894536315260385772e-03
1.780224838452095903e-03
1.118430464134791266e-03
1.860133813637709433e-03
1.851736545969229339e-03
7.888752461946645610e-04
1.892313193129681369e-03
5.423532945118829558e-04
1.894008608327277417e-03
1.776116372671137983e-03
3.802165863193968489e-04
1.860031495279375292e-03
1.527141913888062103e-03
7.259160744547834372e-04
1.828385706026115689e-03
1.842845975915631150e-03
1.873465767830695449e-03
1.894871535781877643e-03
1.461612760782724082e-03
1.848124580022087468e-03
1.859650487292528612e-03
1.895037547318274927e-03
1.893198630623114942e-03
1.883836500835544539e-03
1.763548352921063883e-03
1.510345204285987175e-03
1.742118284359777660e-03
1.133434556098852301e-03
1.817895772133807557e-03
1.877849086301728579e-03
1.888658637165883079e-03
1.884920308046198574e-03
1.451134465603676031e-03
1.740991247642727398e-03
1.020402842144670303e-04
1.818166915783392661e-03
1.802912527535256845e-03
5.530895598518806647e-04
1.696336062821129920e-03
1.692510251505069960e-03
1.834729700038726210e-03
1.801096376674826607e-03
1.894430543657457710e-03
1.751586313648224001e-03
1.876508332113707885e-03
1.892880420528695847e-03
1.752128217253550802e-03
1.713409159888654772e-03
1.874338543427285292e-03
1.508874633680830357e-03
7.964675241789510342e-04
1.532353115775965825e-03
1.709716106642533142e-03
1.753216117198538133e-03
4.078901850552046123e-04
1.794625507897881951e-03
1.295269968700531616e-03
8.200992280156918545e-04
1.891648379596405421e-03
1.833866260992334050e-03
1.781006422811820620e-03
1.781001690587747733e-03
1.858215983908684428e-03
1.821330087831291630e-03
1.894664469004198873e-03
8.859126982592507513e-04
1.779540584430736689e-03
1.781731987870357721e-03
1.894621751089594578e-03
1.495028657635163365e-03
1.494162149038021558e-03
1.893738104167431687e-03
3.299013737361657789e-04
1.716909854621108227e-03
1.770240229352010438e-03
7.339349560443490447e-04
1.895105461128619023e-03
8.845053731893391885e-04
1.186418838982689593e-03
1.737530840763867965e-03
1.732161429114389929e-03
1.791179425589189056e-03
7.443465524435578101e-04
1.521696147163677194e-03
1.868849802992400121e-03
1.741793935163858404e-03
1.811025989657307671e-03
1.875084572157488657e-03
8.179705585195246867e-04
5.058019155172688254e-04
1.895099705720962920e-03
1.775730888256114382e-03
1.796698349939782882e-03
1.824496841021732395e-03
7.242082211817522778e-05
1.858735761169021724e-03
1.893677096846274784e-03
1.777585408500920085e-03
1.399810298083809836e-03
6.401655523449542194e-04
8.008096595107545845e-04
8.915792807907154229e-04
3.653136616321386474e-04
7.590747685339606365e-04
1.848866004426166255e-03
1.819177693265785871e-03
1.857683288955607652e-03
1.849856574032788083e-03
1.791128905899761793e-03
1.818345461318685800e-03
1.675885180949100760e-03
1.619095166727026365e-03
1.768735765790655510e-03
1.776214214601295202e-03
1.779444405173902710e-03
1.650327078220824610e-03
7.466519769037471095e-04
1.623601906717800141e-03
1.619745271996291935e-03
1.881907671882998611e-03
1.865392209868394803e-03
7.778861905606076436e-04
6.778430727709832716e-04
5.740788920846431366e-04
4.796748587676810194e-04
1.875491031835971106e-03
1.841766261439310628e-03
1.720365785071790304e-03
1.449603527167101901e-03
1.779083221368983354e-03
1.824121076850750102e-03
1.851125193778183076e-03
1.772704055420695540e-03
1.803502648666948944e-03
1.795526165247117618e-03
1.414251766974981188e-03
1.806002925650790521e-03
1.826066788332421148e-03
1.544893637467237507e-03
1.690236353889042328e-03
1.881713267002163787e-03
1.811429891376831539e-03
1.655073882659839494e-03
1.890685308048585577e-03
1.844371926332236426e-03
1.886493964397376998e-03
1.706595524611290811e-03
1.398483228976216521e-03
3.919675300291990887e-04
1.524063666077580441e-03
4.521101331600382053e-04
8.028374175260146687e-04
1.895098298843535863e-03
1.737024620686009957e-03
1.886805651696452091e-03
1.895081672110306278e-03
5.377134127573272252e-04
3.755490466336038578e-04
4.650133094826303473e-04
1.344172004882733789e-03
1.852516467655631249e-03
1.800708334300844425e-03
1.893262963290917675e-03
1.877897175930145568e-03
1.497201899566179880e-03
1.872812976704523640e-03
1.795417068297544159e-03
1.772638571671361716e-03
1.720181228332945313e-03
1.805766186549195027e-03
1.796317725646780043e-03
1.850454113245459309e-03
1.890054643267403923e-03
1.715659907976109250e-03
1.893696793130254232e-03
8.271565728328126579e-04
7.622057102989843007e-04
8.544705225390761055e-04
1.875947371714141009e-03
1.863570687294152086e-03
6.708303003887115985e-04
6.504117127485314637e-04
1.875579281420034243e-03
1.894997387362628563e-03
1.889213202668053610e-03
8.455101841548886589e-04
1.717927666490636504e-03
1.830358787668641060e-03
1.761214087473619589e-03
1.824590462319607793e-03
1.895067859131931241e-03
1.889672995790817652e-03
1.831793291052485027e-03
1.891438754859768286e-03
1.770144817482863708e-03
1.820318159267367330e-03
1.514570057199550240e-03
1.844079295827400758e-03
1.735064200940328533e-03
1.893326784366928476e-03
1.894886116147940364e-03
1.819625591879393215e-03
1.807927533971055278e-03
1.818380633254363093e-03
1.827612179237109906e-03
1.614850489631535976e-03
1.435566343689298257e-03
8.188995452642243910e-04
1.818319370137310657e-03
1.502157689252092091e-03
4.256330836759738331e-04
1.894834061683137953e-03
1.113975650710872243e-03
1.539547886938124558e-03
1.855098599326140268e-03
1.869360499498435267e-03
1.822512632257738008e-03
1.881218046147826702e-03
1.220534081814342742e-03
1.704465640084618398e-03
1.895089473885129246e-03
3.540111920767095681e-04
1.893526944655419620e-03
8.317412026738682388e-04
7.376636288689657466e-04
1.576429050791444035e-03
1.869259204323684342e-03
1.487067266173186910e-03
1.778178087591570332e-03
9.074596015959602224e-04
1.683017282116779350e-03
8.233291627924037206e-04
1.874403643482775274e-03
1.699047883010827622e-03
1.764903943271043047e-03
1.856011918572219883e-03
1.772440841443881062e-03
1.869143968272610722e-03
1.830899412294488895e-03
1.875652439046243160e-03
8.003475002759542073e-04
1.854622818959886666e-03
1.180284981298507924e-03
8.339365709498743669e-04
1.549132687053019451e-03
1.405715730033010695e-03
1.783029768347877721e-03
8.149647648965384133e-04
1.894531710934260543e-03
1.846423153620939134e-03
1.868071160285477393e-03
1.554800868308833317e-03
1.511095453648472146e-03
1.883065276209600937e-03
1.868025628616018985e-03
1.815161058211432451e-03
1.797349734188527417e-03
1.849293055674263060e-03
1.895044070113618495e-03
1.880279914699850910e-03
1.873260747420183326e-03
1.785924226807201424e-03
1.829500976131957562e-03
1.763701830458565311e-03
6.592294449207907478e-04
1.879552686967991219e-03
1.865207269435705971e-03
1.891082303278922034e-03
1.763497449537792996e-03
7.965064051551178905e-04
1.791934151379850947e-03
1.852466075864151645e-03
1.893394953973168539e-03
8.808556133985875067e-04
4.180044826744788136e-04
1.887916189578221077e-03
1.893713291965535509e-03
1.486558104442526696e-03
1.551699726765674468e-03
7.476869270982965804e-04
1.733125012254001489e-03
1.858376240037425391e-03
1.537671240348328916e-03
1.782503340394248764e-03
1.822325773355830403e-03
1.875913990349734614e-03
1.684155445955298628e-03
1.806324205295959696e-03
1.783285052651921573e-03
1.883062846148590664e-03
1.512159052983355232e-03
1.858173265994079917e-03
1.893836713485276156e-03
1.858489429721332581e-03
1.775323021700204876e-03
1.655969679887054615e-03
1.847322787786591803e-03
1.885816361069309445e-03
1.889823020083725158e-03
1.894334364400623513e-03
1.832495578684500883e-03
1.891021935447504939e-03
6.048215299786824286e-04
1.862957800327730675e-03
4.770020474520983737e-04
1.894349967950269666e-03
3.605816294061081335e-04
5.318554309468038728e-04
1.873079771823879915e-03
1.369239874776641708e-03
